seqnum;now;rtptime;deadline
1;10060058000;9786566666;10286566666
2;10060074000;9786566666;10286566666
3;10141515000;9817655555;10317655555
10;10141877000;9817666666;10317666666
11;10141910000;9817988888;10317988888
12;10141919000;9817988888;10317988888
13;10141921000;9817988888;10317988888
14;10181817000;9859300000;10359300000
21;10187063000;9859311111;10359311111
23;10187113000;9859700000;10359700000
24;10187116000;9859700000;10359700000
25;10223340000;9900955555;10400955555
26;10223364000;9900955555;10400955555
27;10223366000;9900955555;10400955555
28;10223368000;9900955555;10400955555
29;10223370000;9900955555;10400955555
30;10223371000;9900955555;10400955555
31;10223373000;9900955555;10400955555
32;10223660000;9900977777;10400977777
33;10223682000;9901322222;10401322222
34;10223684000;9901322222;10401322222
35;10223703000;9901322222;10401322222
36;10264207000;9942622222;10442622222
44;10264365000;9942977777;10442977777
45;10264387000;9942977777;10442977777
46;10264389000;9942977777;10442977777
47;10305419000;9984288888;10484288888
55;10305572000;9984622222;10484622222
56;10305591000;9984622222;10484622222
57;10305603000;9984622222;10484622222
58;10345638000;10025955555;10525955555
66;10345799000;10026277777;10526277777
67;10345819000;10026277777;10526277777
68;10345831000;10026277777;10526277777
69;10383830000;10067622222;10567622222
77;10383964000;10067966666;10567966666
78;10383982000;10067966666;10567966666
79;10383984000;10067966666;10567966666
80;10423958000;10109300000;10609300000
88;10424120000;10109622222;10609622222
89;10424145000;10109622222;10609622222
90;10424146000;10109622222;10609622222
91;10462353000;10150977777;10650977777
99;10462534000;10151388888;10651388888
100;10462560000;10151388888;10651388888
101;10462563000;10151388888;10651388888
102;10500382000;10192633333;10692633333
110;10500534000;10192944444;10692944444
111;10500560000;10192944444;10692944444
112;10500561000;10192944444;10692944444
113;10538405000;10234300000;10734300000
121;10538569000;10234611111;10734611111
122;10538573000;10234611111;10734611111
123;10538595000;10234611111;10734611111
124;10576229000;10275955555;10775955555
131;10576484000;10275977777;10775977777
132;10576490000;10276277777;10776277777
133;10576514000;10276277777;10776277777
134;10576515000;10276277777;10776277777
135;10616415000;10317622222;10817622222
143;10616578000;10317911111;10817911111
144;10616602000;10317911111;10817911111
145;10616604000;10317911111;10817911111
146;10655561000;10359288888;10859288888
154;10655722000;10359622222;10859622222
155;10655747000;10359622222;10859622222
156;10655749000;10359622222;10859622222
157;10695408000;10400966666;10900966666
166;10695558000;10401288888;10901288888
167;10695562000;10401288888;10901288888
168;10735773000;10442622222;10942622222
169;10735798000;10442622222;10942622222
170;10735799000;10442622222;10942622222
171;10735800000;10442622222;10942622222
172;10735802000;10442622222;10942622222
173;10735803000;10442622222;10942622222
174;10735804000;10442622222;10942622222
175;10736030000;10442644444;10942644444
176;10736068000;10442955555;10942955555
177;10736076000;10442955555;10942955555
178;10736077000;10442955555;10942955555
179;10776744000;10484288888;10984288888
187;10776909000;10484600000;10984600000
188;10776933000;10484600000;10984600000
189;10776935000;10484600000;10984600000
190;10817912000;10525955555;11025955555
198;10818080000;10526255555;11026255555
199;10818105000;10526255555;11026255555
200;10818107000;10526255555;11026255555
201;10859349000;10567633333;11067633333
209;10859511000;10567922222;11067922222
210;10859535000;10567922222;11067922222
211;10859537000;10567922222;11067922222
212;10900874000;10609300000;11109300000
220;10901036000;10609633333;11109633333
221;10901067000;10609633333;11109633333
222;10901069000;10609633333;11109633333
223;10942472000;10650933333;11150933333
231;10942636000;10651255555;11151255555
232;10942661000;10651255555;11151255555
233;10942663000;10651255555;11151255555
234;10984140000;10692611111;11192611111
242;10984302000;10692933333;11192933333
243;10984326000;10692933333;11192933333
244;10984340000;10692933333;11192933333
245;11025812000;10734288888;11234288888
253;11025966000;10734622222;11234622222
254;11025992000;10734622222;11234622222
255;11025993000;10734622222;11234622222
256;11067510000;10775955555;11275955555
263;11067767000;10775977777;11275977777
264;11067784000;10776266666;11276266666
265;11067808000;10776266666;11276266666
266;11067809000;10776266666;11276266666
267;11109163000;10817622222;11317622222
271;11109201000;10817622222;11317622222
272;11109203000;10817622222;11317622222
273;11109204000;10817622222;11317622222
275;11109342000;10817900000;11317900000
276;11109366000;10817900000;11317900000
277;11109368000;10817900000;11317900000
278;11150592000;10859288888;11359288888
285;11150735000;10859311111;11359311111
286;11150739000;10859611111;11359611111
287;11150740000;10859611111;11359611111
288;11150742000;10859611111;11359611111
289;11192306000;10900955555;11400955555
297;11192565000;10901244444;11401244444
298;11192589000;10901244444;11401244444
299;11192591000;10901244444;11401244444
300;11234172000;10942633333;11442633333
308;11234304000;10942944444;11442944444
309;11234323000;10942944444;11442944444
310;11234325000;10942944444;11442944444
311;11275790000;10984288888;11484288888
319;11275923000;10984611111;11484611111
320;11275942000;10984611111;11484611111
321;11275944000;10984611111;11484611111
322;11317454000;11025933333;11525933333
330;11317592000;11026233333;11526233333
331;11317611000;11026233333;11526233333
332;11317622000;11026233333;11526233333
333;11359114000;11067600000;11567600000
341;11359261000;11067900000;11567900000
342;11359281000;11067900000;11567900000
343;11359282000;11067900000;11567900000
344;11400784000;11109266666;11609266666
352;11400923000;11109588888;11609588888
353;11400943000;11109588888;11609588888
354;11400944000;11109588888;11609588888
355;11442854000;11150922222;11650922222
363;11443028000;11151222222;11651222222
364;11443081000;11151222222;11651222222
365;11443083000;11151222222;11651222222
366;11484140000;11192588888;11692588888
367;11484169000;11192588888;11692588888
368;11484170000;11192588888;11692588888
369;11484172000;11192588888;11692588888
370;11484173000;11192588888;11692588888
372;11484179000;11192588888;11692588888
373;11484409000;11192611111;11692611111
374;11484413000;11192866666;11692866666
375;11484430000;11192866666;11692866666
376;11484432000;11192866666;11692866666
377;11525754000;11234255555;11734255555
385;11525886000;11234555555;11734555555
386;11525906000;11234555555;11734555555
387;11525907000;11234555555;11734555555
388;11567443000;11275922222;11775922222
396;11567574000;11276222222;11776222222
397;11567585000;11276222222;11776222222
398;11567594000;11276222222;11776222222
399;11609123000;11317588888;11817588888
407;11609282000;11317855555;11817855555
408;11609307000;11317855555;11817855555
409;11609308000;11317855555;11817855555
410;11650864000;11359255555;11859255555
418;11651083000;11359577777;11859577777
419;11651089000;11359577777;11859577777
420;11651117000;11359577777;11859577777
421;11692502000;11400922222;11900922222
424;11692545000;11400922222;11900922222
425;11692548000;11400922222;11900922222
426;11692551000;11400922222;11900922222
427;11692553000;11400922222;11900922222
428;11692792000;11400944444;11900944444
429;11692835000;11401233333;11901233333
430;11692849000;11401233333;11901233333
431;11692851000;11401233333;11901233333
432;11734213000;11442588888;11942588888
440;11734444000;11442900000;11942900000
441;11734451000;11442900000;11942900000
442;11734453000;11442900000;11942900000
443;11775807000;11484255555;11984255555
444;11775850000;11484255555;11984255555
445;11775853000;11484255555;11984255555
446;11775855000;11484255555;11984255555
447;11775857000;11484255555;11984255555
448;11775859000;11484255555;11984255555
449;11775861000;11484255555;11984255555
450;11776105000;11484277777;11984277777
451;11776124000;11484544444;11984544444
452;11776150000;11484544444;11984544444
453;11776152000;11484544444;11984544444
454;11817537000;11525922222;12025922222
462;11817778000;11526200000;12026200000
463;11817784000;11526200000;12026200000
464;11817837000;11526200000;12026200000
465;11859185000;11567600000;12067600000
473;11859361000;11567877777;12067877777
474;11859387000;11567877777;12067877777
475;11859388000;11567877777;12067877777
476;11900795000;11609288888;12109288888
484;11900959000;11609611111;12109611111
485;11900984000;11609611111;12109611111
486;11900986000;11609611111;12109611111
487;11942473000;11650955555;12150955555
495;11942635000;11651266666;12151266666
496;11942659000;11651266666;12151266666
497;11942661000;11651266666;12151266666
498;11984123000;11692622222;12192622222
506;11984285000;11692933333;12192933333
507;11984310000;11692933333;12192933333
508;11984311000;11692933333;12192933333
509;12025789000;11734288888;12234288888
517;12025951000;11734611111;12234611111
518;12025955000;11734611111;12234611111
519;12025978000;11734611111;12234611111
520;12067308000;11775966666;12275966666
528;12067638000;11776288888;12276288888
529;12067662000;11776288888;12276288888
530;12067664000;11776288888;12276288888
531;12109144000;11817622222;12317622222
539;12109281000;11817911111;12317911111
540;12109301000;11817911111;12317911111
541;12109302000;11817911111;12317911111
542;12150822000;11859300000;12359300000
550;12150970000;11859644444;12359644444
551;12150990000;11859644444;12359644444
552;12150991000;11859644444;12359644444
553;12192467000;11900944444;12400944444
561;12192599000;11901255555;12401255555
562;12192618000;11901255555;12401255555
563;12192620000;11901255555;12401255555
564;12234110000;11942600000;12442600000
570;12234134000;11942600000;12442600000
571;12234341000;11942622222;12442622222
572;12234358000;11942911111;12442911111
573;12234379000;11942911111;12442911111
574;12234390000;11942911111;12442911111
575;12275868000;11984266666;12484266666
583;12276054000;11984588888;12484588888
584;12276076000;11984588888;12484588888
585;12276078000;11984588888;12484588888
586;12317470000;12025933333;12525933333
593;12317701000;12025955555;12525955555
594;12317719000;12026255555;12526255555
595;12317739000;12026255555;12526255555
596;12317751000;12026255555;12526255555
597;12359132000;12067611111;12567611111
605;12359270000;12067922222;12567922222
606;12359290000;12067922222;12567922222
607;12359291000;12067922222;12567922222
608;12400815000;12109288888;12609288888
616;12400953000;12109622222;12609622222
617;12400956000;12109622222;12609622222
618;12400965000;12109622222;12609622222
619;12442483000;12150955555;12650955555
627;12442629000;12151277777;12651277777
628;12442648000;12151277777;12651277777
629;12442650000;12151277777;12651277777
630;12484297000;12192633333;12692633333
638;12484478000;12192922222;12692922222
639;12484505000;12192922222;12692922222
640;12484507000;12192922222;12692922222
641;12525843000;12234288888;12734288888
649;12525994000;12234600000;12734600000
650;12526019000;12234600000;12734600000
651;12526021000;12234600000;12734600000
652;12567513000;12275955555;12775955555
660;12567652000;12276277777;12776277777
661;12567672000;12276277777;12776277777
662;12567674000;12276277777;12776277777
663;12609188000;12317622222;12817622222
671;12609353000;12317911111;12817911111
672;12609377000;12317911111;12817911111
673;12609379000;12317911111;12817911111
674;12650993000;12359300000;12859300000
682;12651182000;12359644444;12859644444
683;12651210000;12359644444;12859644444
684;12651212000;12359644444;12859644444
685;12692543000;12400955555;12900955555
690;12692573000;12400955555;12900955555
691;12692575000;12400955555;12900955555
692;12692788000;12400977777;12900977777
693;12692826000;12401277777;12901277777
694;12692832000;12401277777;12901277777
695;12692834000;12401277777;12901277777
696;12734216000;12442622222;12942622222
704;12734349000;12442955555;12942955555
705;12734368000;12442955555;12942955555
706;12734370000;12442955555;12942955555
707;12775936000;12484288888;12984288888
715;12776070000;12484600000;12984600000
716;12776089000;12484600000;12984600000
717;12776091000;12484600000;12984600000
718;12817577000;12525955555;13025955555
726;12817709000;12526255555;13026255555
727;12817729000;12526255555;13026255555
728;12817739000;12526255555;13026255555
729;12859258000;12567633333;13067633333
737;12859390000;12567922222;13067922222
738;12859410000;12567922222;13067922222
739;12859411000;12567922222;13067922222
740;12900927000;12609288888;13109288888
747;12901159000;12609311111;13109311111
748;12901177000;12609633333;13109633333
749;12901190000;12609633333;13109633333
750;12901191000;12609633333;13109633333
751;12942637000;12650966666;13150966666
759;12942799000;12651277777;13151277777
760;12942824000;12651277777;13151277777
761;12942825000;12651277777;13151277777
762;12984278000;12692622222;13192622222
770;12984430000;12692933333;13192933333
771;12984434000;12692933333;13192933333
772;12984436000;12692933333;13192933333
773;13025989000;12734288888;13234288888
775;13026015000;12734288888;13234288888
776;13026017000;12734288888;13234288888
777;13026018000;12734288888;13234288888
778;13026020000;12734288888;13234288888
779;13026021000;12734288888;13234288888
780;13026227000;12734311111;13234311111
781;13026269000;12734622222;13234622222
782;13026278000;12734622222;13234622222
783;13026279000;12734622222;13234622222
784;13067650000;12775955555;13275955555
792;13067798000;12776277777;13276277777
793;13067818000;12776277777;13276277777
794;13067819000;12776277777;13276277777
795;13109328000;12817622222;13317622222
803;13109466000;12817922222;13317922222
804;13109485000;12817922222;13317922222
805;13109487000;12817922222;13317922222
806;13150856000;12859288888;13359288888
814;13151237000;12859633333;13359633333
815;13151257000;12859633333;13359633333
816;13151258000;12859633333;13359633333
817;13192710000;12900955555;13400955555
825;13192842000;12901266666;13401266666
826;13192862000;12901266666;13401266666
827;13192863000;12901266666;13401266666
828;13234355000;12942600000;13442600000
836;13234487000;12942911111;13442911111
837;13234496000;12942911111;13442911111
838;13234508000;12942911111;13442911111
839;13276100000;12984300000;13484300000
848;13276329000;12984633333;13484633333
849;13276354000;12984633333;13484633333
850;13317785000;13025966666;13525966666
858;13317917000;13026288888;13526288888
859;13317936000;13026288888;13526288888
860;13317947000;13026288888;13526288888
861;13359446000;13067622222;13567622222
869;13359598000;13067944444;13567944444
870;13359618000;13067944444;13567944444
873;13400959000;13109288888;13609288888
878;13400983000;13109288888;13609288888
879;13401232000;13109311111;13609311111
880;13401239000;13109622222;13609622222
881;13401263000;13109622222;13609622222
882;13401264000;13109622222;13609622222
883;13442680000;13150955555;13650955555
891;13442951000;13151277777;13651277777
892;13442981000;13151277777;13651277777
893;13442984000;13151277777;13651277777
894;13484555000;13192622222;13692622222
902;13484699000;13192933333;13692933333
903;13484725000;13192933333;13692933333
904;13484726000;13192933333;13692933333
905;13526172000;13234288888;13734288888
913;13526293000;13234611111;13734611111
914;13526297000;13234611111;13734611111
915;13526320000;13234611111;13734611111
916;13567867000;13275966666;13775966666
924;13567985000;13276288888;13776288888
925;13568010000;13276288888;13776288888
926;13568012000;13276288888;13776288888
927;13609558000;13317622222;13817622222
935;13609682000;13317922222;13817922222
936;13609708000;13317922222;13817922222
937;13609709000;13317922222;13817922222
938;13651230000;13359288888;13859288888
946;13651346000;13359633333;13859633333
947;13651370000;13359633333;13859633333
948;13651371000;13359633333;13859633333
949;13692917000;13400955555;13900955555
957;13693036000;13401300000;13901300000
958;13693068000;13401300000;13901300000
959;13693070000;13401300000;13901300000
960;13734633000;13442622222;13942622222
968;13734750000;13442966666;13942966666
969;13734774000;13442966666;13942966666
970;13734776000;13442966666;13942966666
971;13776297000;13484288888;13984288888
979;13776416000;13484611111;13984611111
980;13776441000;13484611111;13984611111
981;13776442000;13484611111;13984611111
982;13817987000;13525955555;14025955555
990;13818113000;13526266666;14026266666
991;13818146000;13526266666;14026266666
992;13818148000;13526266666;14026266666
993;13859771000;13567622222;14067622222
1001;13859977000;13567922222;14067922222
1002;13860006000;13567922222;14067922222
1003;13860011000;13567922222;14067922222
1004;13901365000;13609288888;14109288888
1012;13901484000;13609633333;14109633333
1013;13901509000;13609633333;14109633333
1014;13901511000;13609633333;14109633333
1015;13943074000;13650966666;14150966666
1021;13943098000;13650966666;14150966666
1022;13943282000;13650977777;14150977777
1023;13943290000;13651288888;14151288888
1024;13943312000;13651288888;14151288888
1025;13943314000;13651288888;14151288888
1026;13984736000;13692622222;14192622222
1034;13984852000;13692944444;14192944444
1035;13984877000;13692944444;14192944444
1036;13984878000;13692944444;14192944444
1037;14026478000;13734300000;14234300000
1044;14026678000;13734311111;14234311111
1045;14026695000;13734633333;14234633333
1046;14026718000;13734633333;14234633333
1047;14026720000;13734633333;14234633333
1048;14068119000;13775966666;14275966666
1056;14068233000;13776277777;14276277777
1057;14068258000;13776277777;14276277777
1058;14068259000;13776277777;14276277777
1059;14109811000;13817622222;14317622222
1067;14109930000;13817900000;14317900000
1068;14109954000;13817900000;14317900000
1069;14109956000;13817900000;14317900000
1070;14151487000;13859300000;14359300000
1078;14151604000;13859622222;14359622222
1079;14151629000;13859622222;14359622222
1080;14151630000;13859622222;14359622222
1081;14193167000;13900955555;14400955555
1089;14193287000;13901255555;14401255555
1090;14193312000;13901255555;14401255555
1091;14193313000;13901255555;14401255555
1092;14234854000;13942622222;14442622222
1100;14234972000;13942933333;14442933333
1101;14234976000;13942933333;14442933333
1102;14234998000;13942933333;14442933333
1103;14276555000;13984300000;14484300000
1110;14276761000;13984311111;14484311111
1111;14276769000;13984611111;14484611111
1112;14276770000;13984611111;14484611111
1113;14276784000;13984611111;14484611111
1114;14318232000;14025955555;14525955555
1122;14318353000;14026266666;14526266666
1123;14318378000;14026266666;14526266666
1124;14318379000;14026266666;14526266666
1125;14359973000;14067644444;14567644444
1133;14360099000;14067966666;14567966666
1134;14360122000;14067966666;14567966666
1135;14360124000;14067966666;14567966666
1136;14401627000;14109288888;14609288888
1144;14401747000;14109611111;14609611111
1145;14401771000;14109611111;14609611111
1146;14401773000;14109611111;14609611111
1147;14443320000;14150955555;14650955555
1155;14443436000;14151288888;14651288888
1156;14443460000;14151288888;14651288888
1157;14443462000;14151288888;14651288888
1158;14485020000;14192633333;14692633333
1166;14485200000;14192922222;14692922222
1167;14485225000;14192922222;14692922222
1168;14485226000;14192922222;14692922222
1169;14526692000;14234288888;14734288888
1177;14526809000;14234600000;14734600000
1178;14526834000;14234600000;14734600000
1179;14526835000;14234600000;14734600000
1180;14568403000;14275955555;14775955555
1188;14568537000;14276288888;14776288888
1189;14568562000;14276288888;14776288888
1190;14568563000;14276288888;14776288888
1191;14610089000;14317622222;14817622222
1199;14610207000;14317900000;14817900000
1200;14610231000;14317900000;14817900000
1201;14610232000;14317900000;14817900000
1202;14653325000;14359288888;14859288888
1210;14653535000;14359622222;14859622222
1211;14653542000;14359622222;14859622222
1212;14653570000;14359622222;14859622222
1213;14693451000;14400966666;14900966666
1217;14693480000;14400966666;14900966666
1218;14693482000;14400966666;14900966666
1219;14693483000;14400966666;14900966666
1220;14693720000;14400988888;14900988888
1221;14693737000;14401300000;14901300000
1222;14693761000;14401300000;14901300000
1223;14693762000;14401300000;14901300000
1224;14735136000;14442622222;14942622222
1232;14735255000;14442944444;14942944444
1233;14735259000;14442944444;14942944444
1234;14735281000;14442944444;14942944444
1235;14776827000;14484288888;14984288888
1243;14776943000;14484588888;14984588888
1244;14776978000;14484588888;14984588888
1245;14776980000;14484588888;14984588888
1246;14818523000;14525955555;15025955555
1254;14818640000;14526255555;15026255555
1255;14818664000;14526255555;15026255555
1256;14818666000;14526255555;15026255555
1257;14860215000;14567633333;15067633333
1265;14860361000;14567911111;15067911111
1266;14860365000;14567911111;15067911111
1267;14860366000;14567911111;15067911111
1268;14901734000;14609288888;15109288888
1269;14901761000;14609288888;15109288888
1270;14901762000;14609288888;15109288888
1271;14901764000;14609288888;15109288888
1272;14901765000;14609288888;15109288888
1273;14901766000;14609288888;15109288888
1274;14901767000;14609288888;15109288888
1275;14901972000;14609311111;15109311111
1276;14902000000;14609622222;15109622222
1277;14902006000;14609622222;15109622222
1278;14902008000;14609622222;15109622222
1279;14943627000;14650955555;15150955555
1287;14943746000;14651277777;15151277777
1288;14943770000;14651277777;15151277777
1289;14943772000;14651277777;15151277777
1290;14985295000;14692622222;15192622222
1298;14985413000;14692933333;15192933333
1299;14985437000;14692933333;15192933333
1300;14985438000;14692933333;15192933333
1301;15026979000;14734288888;15234288888
1309;15027106000;14734622222;15234622222
1310;15027131000;14734622222;15234622222
1311;15027132000;14734622222;15234622222
1312;15068736000;14775955555;15275955555
1320;15068922000;14776266666;15276266666
1321;15068927000;14776266666;15276266666
1322;15068955000;14776266666;15276266666
1323;15110349000;14817622222;15317622222
1326;15110379000;14817622222;15317622222
1327;15110381000;14817622222;15317622222
1328;15110382000;14817622222;15317622222
1329;15110383000;14817622222;15317622222
1330;15110616000;14817644444;15317644444
1331;15110654000;14817911111;15317911111
1332;15110661000;14817911111;15317911111
1333;15110662000;14817911111;15317911111
1334;15152069000;14859311111;15359311111
1342;15152188000;14859644444;15359644444
1343;15152192000;14859644444;15359644444
1344;15152214000;14859644444;15359644444
1345;15193745000;14900944444;15400944444
1353;15193865000;14901255555;15401255555
1354;15193889000;14901255555;15401255555
1355;15193891000;14901255555;15401255555
1356;15235392000;14942600000;15442600000
1364;15235511000;14942911111;15442911111
1365;15235536000;14942911111;15442911111
1366;15235538000;14942911111;15442911111
1367;15277073000;14984266666;15484266666
1375;15277203000;14984611111;15484611111
1376;15277207000;14984611111;15484611111
1377;15277229000;14984611111;15484611111
1378;15318796000;15025933333;15525933333
1386;15318915000;15026255555;15526255555
1387;15318939000;15026255555;15526255555
1388;15318941000;15026255555;15526255555
1389;15360461000;15067600000;15567600000
1397;15360607000;15067911111;15567911111
1398;15360611000;15067911111;15567911111
1399;15360612000;15067911111;15567911111
1402;15402009000;15109266666;15609266666
1408;15402371000;15109600000;15609600000
1409;15402396000;15109600000;15609600000
1410;15402397000;15109600000;15609600000
1411;15443841000;15150922222;15650922222
1419;15443957000;15151233333;15651233333
1420;15443981000;15151233333;15651233333
1421;15443982000;15151233333;15651233333
1422;15485378000;15192588888;15692588888
1430;15485699000;15192877777;15692877777
1431;15485724000;15192877777;15692877777
1432;15485726000;15192877777;15692877777
1433;15527082000;15234255555;15734255555
1441;15527441000;15234566666;15734566666
1442;15527466000;15234566666;15734566666
1443;15527467000;15234566666;15734566666
1444;15568761000;15275922222;15775922222
1452;15569106000;15276233333;15776233333
1453;15569110000;15276233333;15776233333
1454;15569132000;15276233333;15776233333
1455;15610603000;15317588888;15817588888
1463;15610720000;15317866666;15817866666
1464;15610744000;15317866666;15817866666
1465;15610746000;15317866666;15817866666
1466;15652298000;15359255555;15859255555
1473;15652498000;15359277777;15859277777
1474;15652515000;15359588888;15859588888
1475;15652538000;15359588888;15859588888
1476;15652539000;15359588888;15859588888
1477;15693981000;15400922222;15900922222
1485;15694115000;15401244444;15901244444
1486;15694139000;15401244444;15901244444
1487;15694141000;15401244444;15901244444
1488;15735663000;15442588888;15942588888
1495;15735871000;15442611111;15942611111
1496;15735878000;15442911111;15942911111
1497;15735901000;15442911111;15942911111
1498;15735902000;15442911111;15942911111
1499;15777357000;15484255555;15984255555
1505;15777382000;15484255555;15984255555
1506;15777594000;15484277777;15984277777
1508;15777610000;15484555555;15984555555
1509;15777634000;15484555555;15984555555
1510;15819057000;15525922222;16025922222
1518;15819176000;15526211111;16026211111
1519;15819201000;15526211111;16026211111
1520;15819203000;15526211111;16026211111
1521;15860822000;15567600000;16067600000
1529;15860976000;15567888888;16067888888
1530;15861003000;15567888888;16067888888
1531;15861005000;15567888888;16067888888
1532;15902438000;15609266666;16109266666
1538;15902467000;15609266666;16109266666
1539;15902695000;15609288888;16109288888
1540;15902723000;15609611111;16109611111
1541;15902730000;15609611111;16109611111
1542;15902732000;15609611111;16109611111
1543;15944141000;15650933333;16150933333
1551;15944260000;15651266666;16151266666
1552;15944285000;15651266666;16151266666
1553;15944287000;15651266666;16151266666
1557;15985668000;15692600000;16192600000
1561;15985912000;15692611111;16192611111
1562;15985919000;15692911111;16192911111
1563;15985942000;15692911111;16192911111
1564;15985943000;15692911111;16192911111
1565;16027547000;15734300000;16234300000
1573;16027665000;15734622222;16234622222
1574;16027669000;15734622222;16234622222
1575;16027692000;15734622222;16234622222
1576;16069224000;15775955555;16275955555
1584;16069341000;15776288888;16276288888
1585;16069365000;15776288888;16276288888
1586;16069367000;15776288888;16276288888
1587;16110941000;15817633333;16317633333
1595;16111074000;15817933333;16317933333
1596;16111098000;15817933333;16317933333
1597;16111100000;15817933333;16317933333
1598;16152608000;15859288888;16359288888
1606;16152725000;15859633333;16359633333
1607;16152749000;15859633333;16359633333
1608;16152751000;15859633333;16359633333
1609;16194299000;15900955555;16400955555
1617;16194417000;15901277777;16401277777
1618;16194442000;15901277777;16401277777
1619;16194443000;15901277777;16401277777
1620;16236010000;15942644444;16442644444
1628;16236136000;15942966666;16442966666
1629;16236160000;15942966666;16442966666
1630;16236161000;15942966666;16442966666
1631;16277751000;15984277777;16484277777
1639;16277902000;15984622222;16484622222
1640;16277907000;15984622222;16484622222
1641;16277930000;15984622222;16484622222
1642;16319347000;16025933333;16525933333
1647;16319375000;16025933333;16525933333
1648;16319376000;16025933333;16525933333
1649;16319612000;16025955555;16525955555
1650;16319629000;16026266666;16526266666
1651;16319653000;16026266666;16526266666
1652;16319654000;16026266666;16526266666
1653;16361061000;16067611111;16567611111
1661;16361180000;16067933333;16567933333
1662;16361205000;16067933333;16567933333
1663;16361206000;16067933333;16567933333
1664;16402747000;16109288888;16609288888
1672;16402865000;16109633333;16609633333
1673;16402869000;16109633333;16609633333
1674;16402891000;16109633333;16609633333
1675;16444437000;16150955555;16650955555
1683;16444556000;16151277777;16651277777
1684;16444581000;16151277777;16651277777
1685;16444583000;16151277777;16651277777
1686;16486154000;16192644444;16692644444
1694;16486271000;16192966666;16692966666
1695;16486295000;16192966666;16692966666
1696;16486297000;16192966666;16692966666
1697;16527814000;16234277777;16734277777
1705;16527933000;16234622222;16734622222
1706;16527937000;16234622222;16734622222
1707;16527959000;16234622222;16734622222
1708;16569472000;16275933333;16775933333
1716;16569589000;16276266666;16776266666
1717;16569613000;16276266666;16776266666
1718;16569615000;16276266666;16776266666
1719;16611154000;16317600000;16817600000
1727;16611273000;16317900000;16817900000
1728;16611297000;16317900000;16817900000
1729;16611299000;16317900000;16817900000
1730;16652696000;16359266666;16859266666
1737;16652912000;16359288888;16859288888
1738;16652951000;16359611111;16859611111
1739;16652952000;16359611111;16859611111
1740;16652954000;16359611111;16859611111
1741;16694510000;16400922222;16900922222
1743;16694538000;16400922222;16900922222
1744;16694539000;16400922222;16900922222
1745;16694541000;16400922222;16900922222
1746;16694542000;16400922222;16900922222
1747;16694543000;16400922222;16900922222
1748;16694774000;16400944444;16900944444
1749;16694812000;16401255555;16901255555
1750;16694818000;16401255555;16901255555
1751;16694819000;16401255555;16901255555
1752;16736184000;16442600000;16942600000
1760;16736301000;16442944444;16942944444
1761;16736326000;16442944444;16942944444
1762;16736327000;16442944444;16942944444
1763;16777870000;16484266666;16984266666
1771;16777987000;16484600000;16984600000
1772;16778011000;16484600000;16984600000
1773;16778012000;16484600000;16984600000
1774;16819566000;16525933333;17025933333
1782;16819684000;16526244444;17026244444
1783;16819688000;16526244444;17026244444
1784;16819710000;16526244444;17026244444
1785;16861275000;16567633333;17067633333
1793;16861421000;16567944444;17067944444
1794;16861425000;16567944444;17067944444
1795;16861427000;16567944444;17067944444
1796;16902935000;16609300000;17109300000
1797;16902962000;16609300000;17109300000
1798;16902964000;16609300000;17109300000
1799;16902965000;16609300000;17109300000
1800;16902966000;16609300000;17109300000
1801;16902967000;16609300000;17109300000
1802;16902969000;16609300000;17109300000
1803;16903199000;16609311111;17109311111
1804;16903227000;16609644444;17109644444
1805;16903233000;16609644444;17109644444
1806;16903235000;16609644444;17109644444
1807;16944603000;16650966666;17150966666
1815;16944722000;16651288888;17151288888
1816;16944747000;16651288888;17151288888
1817;16944748000;16651288888;17151288888
1818;16986274000;16692622222;17192622222
1826;16986437000;16692955555;17192955555
1827;16986440000;16692955555;17192955555
1828;16986442000;16692955555;17192955555
1829;17027940000;16734288888;17234288888
1837;17028088000;16734644444;17234644444
1838;17028112000;16734644444;17234644444
1839;17028113000;16734644444;17234644444
1840;17069685000;16775955555;17275955555
1848;17069886000;16776255555;17276255555
1849;17069912000;16776255555;17276255555
1850;17069918000;16776255555;17276255555
1851;17111274000;16817622222;17317622222
1859;17111391000;16817900000;17317900000
1860;17111416000;16817900000;17317900000
1861;17111418000;16817900000;17317900000
1862;17152952000;16859288888;17359288888
1870;17153081000;16859611111;17359611111
1871;17153106000;16859611111;17359611111
1872;17153107000;16859611111;17359611111
1873;17194640000;16900977777;17400977777
1881;17194756000;16901266666;17401266666
1882;17194780000;16901266666;17401266666
1883;17194782000;16901266666;17401266666
1884;17236253000;16942611111;17442611111
1892;17236372000;16942922222;17442922222
1893;17236396000;16942922222;17442922222
1894;17236398000;16942922222;17442922222
1895;17277910000;16984266666;17484266666
1901;17277934000;16984266666;17484266666
1902;17278168000;16984288888;17484288888
1903;17278184000;16984577777;17484577777
1904;17278208000;16984577777;17484577777
1905;17278210000;16984577777;17484577777
1906;17319445000;17025955555;17525955555
1914;17319750000;17026255555;17526255555
1915;17319774000;17026255555;17526255555
1916;17319776000;17026255555;17526255555
1917;17361265000;17067622222;17567622222
1925;17361383000;17067922222;17567922222
1926;17361407000;17067922222;17567922222
1927;17361409000;17067922222;17567922222
1928;17402935000;17109288888;17609288888
1936;17403030000;17109600000;17609600000
1937;17403073000;17109600000;17609600000
1938;17403075000;17109600000;17609600000
1939;17444596000;17150955555;17650955555
1947;17444712000;17151255555;17651255555
1948;17444736000;17151255555;17651255555
1949;17444737000;17151255555;17651255555
1950;17486344000;17192633333;17692633333
1958;17486500000;17192911111;17692911111
1959;17486504000;17192911111;17692911111
1960;17486531000;17192911111;17692911111
1961;17527932000;17234288888;17734288888
1966;17527979000;17234288888;17734288888
1967;17527980000;17234288888;17734288888
1968;17528169000;17234311111;17734311111
1969;17528207000;17234600000;17734600000
1970;17528213000;17234600000;17734600000
1971;17528215000;17234600000;17734600000
1972;17569607000;17275955555;17775955555
1980;17569706000;17276255555;17776255555
1981;17569725000;17276255555;17776255555
1982;17569737000;17276255555;17776255555
1983;17611298000;17317644444;17817644444
1991;17611417000;17317922222;17817922222
1992;17611442000;17317922222;17817922222
1993;17611443000;17317922222;17817922222
1994;17652939000;17359288888;17859288888
2001;17653157000;17359311111;17859311111
2002;17653198000;17359622222;17859622222
2003;17653200000;17359622222;17859622222
2004;17653201000;17359622222;17859622222
2005;17694590000;17400944444;17900944444
2006;17694619000;17400944444;17900944444
2007;17694621000;17400944444;17900944444
2008;17694622000;17400944444;17900944444
2010;17694623000;17400944444;17900944444
2011;17694625000;17400944444;17900944444
2013;17694777000;17401277777;17901277777
2014;17694798000;17401277777;17901277777
2015;17694809000;17401277777;17901277777
2016;17736230000;17442600000;17942600000
2024;17736347000;17442922222;17942922222
2025;17736372000;17442922222;17942922222
2026;17736373000;17442922222;17942922222
2027;17777902000;17484266666;17984266666
2035;17778032000;17484566666;17984566666
2036;17778065000;17484566666;17984566666
2037;17778066000;17484566666;17984566666
2038;17819561000;17525933333;18025933333
2046;17819682000;17526233333;18026233333
2047;17819710000;17526233333;18026233333
2048;17819711000;17526233333;18026233333
2049;17861218000;17567600000;18067600000
2057;17861335000;17567877777;18067877777
2058;17861359000;17567877777;18067877777
2059;17861361000;17567877777;18067877777
2060;17902889000;17609266666;18109266666
2068;17903008000;17609600000;18109600000
2069;17903032000;17609600000;18109600000
2070;17903034000;17609600000;18109600000
2071;17944539000;17650933333;18150933333
2079;17944655000;17651244444;18151244444
2080;17944679000;17651244444;18151244444
2081;17944681000;17651244444;18151244444
2082;17986199000;17692588888;18192588888
2090;17986319000;17692888888;18192888888
2091;17986343000;17692888888;18192888888
2092;17986344000;17692888888;18192888888
2093;18027877000;17734255555;18234255555
2101;18027996000;17734577777;18234577777
2102;18027999000;17734577777;18234577777
2103;18028022000;17734577777;18234577777
2104;18069553000;17775933333;18275933333
2112;18069670000;17776277777;18276277777
2113;18069694000;17776277777;18276277777
2114;18069696000;17776277777;18276277777
2115;18111199000;17817600000;18317600000
2123;18111318000;17817911111;18317911111
2124;18111342000;17817911111;18317911111
2125;18111343000;17817911111;18317911111
2126;18152851000;17859266666;18359266666
2133;18153066000;17859288888;18359288888
2134;18153073000;17859622222;18359622222
2135;18153096000;17859622222;18359622222
2136;18153098000;17859622222;18359622222
2137;18194515000;17900933333;18400933333
2145;18194631000;17901255555;18401255555
2146;18194655000;17901255555;18401255555
2147;18194657000;17901255555;18401255555
2148;18236156000;17942600000;18442600000
2156;18236258000;17942933333;18442933333
2157;18236276000;17942933333;18442933333
2158;18236277000;17942933333;18442933333
2159;18277903000;17984266666;18484266666
2167;18278082000;17984611111;18484611111
2168;18278107000;17984611111;18484611111
2169;18278108000;17984611111;18484611111
2170;18319472000;18025933333;18525933333
2178;18319578000;18026277777;18526277777
2179;18319598000;18026277777;18526277777
2180;18319599000;18026277777;18526277777
2181;18361132000;18067600000;18567600000
2189;18361233000;18067933333;18567933333
2190;18361250000;18067933333;18567933333
2191;18361252000;18067933333;18567933333
2192;18402678000;18109266666;18609266666
2200;18402972000;18109611111;18609611111
2201;18402984000;18109611111;18609611111
2202;18402985000;18109611111;18609611111
2203;18444493000;18150933333;18650933333
2204;18444520000;18150933333;18650933333
2205;18444521000;18150933333;18650933333
2206;18444531000;18150933333;18650933333
2207;18444532000;18150933333;18650933333
2208;18444533000;18150933333;18650933333
2209;18444535000;18150933333;18650933333
2210;18444760000;18150944444;18650944444
2211;18444783000;18151266666;18651266666
2212;18444801000;18151266666;18651266666
2213;18444802000;18151266666;18651266666
2214;18486131000;18192600000;18692600000
2222;18486231000;18192911111;18692911111
2223;18486250000;18192911111;18692911111
2224;18486262000;18192911111;18692911111
2225;18527763000;18234255555;18734255555
2232;18527988000;18234277777;18734277777
2234;18527992000;18234588888;18734588888
2235;18528010000;18234588888;18734588888
2236;18569415000;18275922222;18775922222
2242;18569433000;18275922222;18775922222
2243;18569563000;18275944444;18775944444
2244;18569571000;18276255555;18776255555
2245;18569579000;18276255555;18776255555
2246;18569580000;18276255555;18776255555
2247;18611028000;18317588888;18817588888
2255;18611097000;18317888888;18817888888
2256;18611104000;18317888888;18817888888
2260;18652642000;18359255555;18859255555
2266;18652922000;18359600000;18859600000
2267;18652928000;18359600000;18859600000
2268;18652953000;18359600000;18859600000
2269;18694470000;18400922222;18900922222
2277;18694660000;18401255555;18901255555
2278;18694665000;18401255555;18901255555
2279;18694691000;18401255555;18901255555
2280;18736103000;18442588888;18942588888
2283;18736132000;18442588888;18942588888
2284;18736133000;18442588888;18942588888
2285;18736134000;18442588888;18942588888
2286;18736136000;18442588888;18942588888
2287;18736367000;18442611111;18942611111
2288;18736405000;18442933333;18942933333
2289;18736411000;18442933333;18942933333
2290;18736413000;18442933333;18942933333
2291;18777737000;18484255555;18984255555
2299;18777857000;18484577777;18984577777
2300;18777881000;18484577777;18984577777
2301;18777883000;18484577777;18984577777
2302;18819391000;18525922222;19025922222
2310;18819509000;18526244444;19026244444
2311;18819534000;18526244444;19026244444
2312;18819535000;18526244444;19026244444
2313;18861075000;18567600000;19067600000
2321;18861194000;18567911111;19067911111
2322;18861218000;18567911111;19067911111
2323;18861219000;18567911111;19067911111
2324;18902600000;18609288888;19109288888
2332;18902960000;18609644444;19109644444
2333;18902984000;18609644444;19109644444
2334;18902985000;18609644444;19109644444
2335;18944425000;18650955555;19150955555
2343;18944544000;18651300000;19151300000
2344;18944568000;18651300000;19151300000
2345;18944570000;18651300000;19151300000
2346;18986081000;18692622222;19192622222
2354;18986235000;18692955555;19192955555
2355;18986239000;18692955555;19192955555
2356;18986240000;18692955555;19192955555
2357;19027731000;18734288888;19234288888
2358;19027759000;18734288888;19234288888
2359;19027760000;18734288888;19234288888
2360;19027761000;18734288888;19234288888
2361;19027763000;18734288888;19234288888
2362;19027764000;18734288888;19234288888
2363;19027765000;18734288888;19234288888
2364;19027969000;18734311111;19234311111
2365;19027997000;18734633333;19234633333
2366;19028004000;18734633333;19234633333
2367;19028005000;18734633333;19234633333
2368;19069406000;18775955555;19275955555
2376;19069526000;18776277777;19276277777
2377;19069550000;18776277777;19276277777
2378;19069552000;18776277777;19276277777
2379;19111054000;18817622222;19317622222
2387;19111174000;18817911111;19317911111
2388;19111198000;18817911111;19317911111
2389;19111200000;18817911111;19317911111
2390;19152706000;18859288888;19359288888
2397;19152914000;18859311111;19359311111
2398;19152921000;18859633333;19359633333
2399;19152944000;18859633333;19359633333
2400;19152946000;18859633333;19359633333
2401;19194353000;18900955555;19400955555
2409;19194469000;18901266666;19401266666
2410;19194493000;18901266666;19401266666
2411;19194494000;18901266666;19401266666
2412;19236039000;18942622222;19442622222
2420;19236148000;18942944444;19442944444
2421;19236160000;18942944444;19442944444
2422;19236169000;18942944444;19442944444
2423;19277685000;18984288888;19484288888
2431;19277784000;18984633333;19484633333
2432;19277822000;18984633333;19484633333
2433;19277824000;18984633333;19484633333
2434;19319340000;19025944444;19525944444
2442;19319439000;19026288888;19526288888
2443;19319458000;19026288888;19526288888
2444;19319469000;19026288888;19526288888
2445;19360962000;19067600000;19567600000
2454;19361218000;19067922222;19567922222
2455;19361237000;19067922222;19567922222
2456;19402635000;19109266666;19609266666
2463;19402778000;19109288888;19609288888
2464;19402781000;19109600000;19609600000
2465;19402790000;19109600000;19609600000
2466;19402791000;19109600000;19609600000
2467;19444280000;19150933333;19650933333
2474;19444502000;19150944444;19650944444
2475;19444515000;19151255555;19651255555
2476;19444533000;19151255555;19651255555
2477;19444535000;19151255555;19651255555
2478;19486002000;19192588888;19692588888
2486;19486186000;19192888888;19692888888
2487;19486206000;19192888888;19692888888
2488;19486208000;19192888888;19692888888
2489;19527459000;19234255555;19734255555
2497;19527723000;19234577777;19734577777
2498;19527755000;19234577777;19734577777
2499;19527757000;19234577777;19734577777
2500;19569266000;19275922222;19775922222
2508;19569366000;19276244444;19776244444
2509;19569378000;19276244444;19776244444
2510;19569397000;19276244444;19776244444
2511;19610928000;19317588888;19817588888
2519;19611058000;19317877777;19817877777
2520;19611083000;19317877777;19817877777
2521;19611085000;19317877777;19817877777
2522;19652575000;19359255555;19859255555
2530;19652694000;19359588888;19859588888
2531;19652719000;19359588888;19859588888
2532;19652721000;19359588888;19859588888
2533;19694225000;19400922222;19900922222
2541;19694342000;19401255555;19901255555
2542;19694366000;19401255555;19901255555
2543;19694368000;19401255555;19901255555
2544;19735899000;19442588888;19942588888
2552;19736018000;19442922222;19942922222
2553;19736050000;19442922222;19942922222
2554;19736052000;19442922222;19942922222
2555;19777551000;19484255555;19984255555
2563;19777673000;19484577777;19984577777
2564;19777676000;19484577777;19984577777
2565;19777678000;19484577777;19984577777
2566;19819204000;19525922222;20025922222
2567;19819223000;19525922222;20025922222
2568;19819225000;19525922222;20025922222
2570;19819226000;19525922222;20025922222
2571;19819227000;19525922222;20025922222
2572;19819229000;19525922222;20025922222
2573;19819589000;19525944444;20025944444
2574;19819617000;19526233333;20026233333
2575;19819624000;19526233333;20026233333
2576;19819625000;19526233333;20026233333
2577;19862422000;19567600000;20067600000
2585;19862633000;19567900000;20067900000
2586;19862638000;19567900000;20067900000
2587;19862640000;19567900000;20067900000
2588;19902533000;19609288888;20109288888
2589;19902563000;19609288888;20109288888
2590;19902565000;19609288888;20109288888
2591;19902567000;19609288888;20109288888
2592;19902568000;19609288888;20109288888
2593;19902570000;19609288888;20109288888
2594;19902571000;19609288888;20109288888
2595;19902782000;19609311111;20109311111
2596;19902821000;19609633333;20109633333
2597;19902826000;19609633333;20109633333
2598;19902828000;19609633333;20109633333
2599;19944219000;19650955555;20150955555
2606;19944427000;19650977777;20150977777
2607;19944465000;19651288888;20151288888
2608;19944474000;19651288888;20151288888
2609;19944475000;19651288888;20151288888
2610;19985883000;19692633333;20192633333
2618;19986003000;19692966666;20192966666
2619;19986028000;19692966666;20192966666
2620;19986029000;19692966666;20192966666
2621;20027522000;19734288888;20234288888
2629;20027641000;19734633333;20234633333
2630;20027644000;19734633333;20234633333
2631;20027667000;19734633333;20234633333
2632;20069207000;19775966666;20275966666
2640;20069306000;19776266666;20276266666
2641;20069325000;19776266666;20276266666
2642;20069326000;19776266666;20276266666
2643;20110858000;19817622222;20317622222
2651;20110957000;19817900000;20317900000
2652;20110975000;19817900000;20317900000
2653;20110987000;19817900000;20317900000
2654;20152516000;19859288888;20359288888
2662;20152616000;19859611111;20359611111
2663;20152635000;19859611111;20359611111
2664;20152655000;19859611111;20359611111
2665;20194161000;19900955555;20400955555
2673;20194260000;19901244444;20401244444
2674;20194279000;19901244444;20401244444
2675;20194281000;19901244444;20401244444
2678;20235667000;19942622222;20442622222
2683;20235918000;19942644444;20442644444
2684;20235956000;19942922222;20442922222
2685;20235958000;19942922222;20442922222
2686;20235959000;19942922222;20442922222
2687;20277466000;19984288888;20484288888
2690;20277494000;19984288888;20484288888
2691;20277496000;19984288888;20484288888
2692;20277497000;19984288888;20484288888
2693;20277498000;19984288888;20484288888
2694;20277731000;19984311111;20484311111
2695;20277769000;19984600000;20484600000
2696;20277775000;19984600000;20484600000
2697;20277776000;19984600000;20484600000
2698;20318972000;20025955555;20525955555
2706;20319258000;20026266666;20526266666
2707;20319283000;20026266666;20526266666
2708;20319284000;20026266666;20526266666
2709;20360628000;20067622222;20567622222
2717;20360886000;20067911111;20567911111
2718;20360910000;20067911111;20567911111
2719;20360911000;20067911111;20567911111
2720;20402475000;20109288888;20609288888
2728;20402594000;20109611111;20609611111
2729;20402619000;20109611111;20609611111
2730;20402621000;20109611111;20609611111
2731;20444112000;20150955555;20650955555
2739;20444230000;20151255555;20651255555
2740;20444254000;20151255555;20651255555
2741;20444256000;20151255555;20651255555
2742;20485783000;20192633333;20692633333
2750;20485905000;20192922222;20692922222
2751;20485930000;20192922222;20692922222
2752;20485932000;20192922222;20692922222
2753;20527424000;20234300000;20734300000
2761;20527539000;20234622222;20734622222
2762;20527564000;20234622222;20734622222
2763;20527565000;20234622222;20734622222
2764;20569075000;20275955555;20775955555
2772;20569184000;20276266666;20776266666
2773;20569203000;20276266666;20776266666
2774;20569214000;20276266666;20776266666
2775;20610718000;20317622222;20817622222
2780;20610743000;20317622222;20817622222
2781;20610744000;20317622222;20817622222
2782;20610929000;20317644444;20817644444
2783;20610945000;20317900000;20817900000
2784;20610969000;20317900000;20817900000
2785;20610971000;20317900000;20817900000
2786;20652403000;20359288888;20859288888
2794;20652522000;20359611111;20859611111
2795;20652546000;20359611111;20859611111
2796;20652547000;20359611111;20859611111
2797;20694121000;20400955555;20900955555
2805;20694321000;20401288888;20901288888
2806;20694348000;20401288888;20901288888
2807;20694353000;20401288888;20901288888
2808;20735694000;20442622222;20942622222
2811;20735722000;20442622222;20942622222
2812;20735724000;20442622222;20942622222
2813;20735725000;20442622222;20942622222
2814;20735726000;20442622222;20942622222
2815;20735953000;20442644444;20942644444
2816;20735982000;20442944444;20942944444
2817;20735989000;20442944444;20942944444
2818;20735990000;20442944444;20942944444
2819;20777211000;20484300000;20984300000
2827;20777465000;20484588888;20984588888
2828;20777484000;20484588888;20984588888
2829;20777486000;20484588888;20984588888
2830;20819025000;20525955555;21025955555
2838;20819182000;20526255555;21026255555
2839;20819212000;20526255555;21026255555
2840;20819214000;20526255555;21026255555
2841;20860669000;20567622222;21067622222
2849;20860793000;20567900000;21067900000
2850;20860813000;20567900000;21067900000
2851;20860814000;20567900000;21067900000
2852;20902342000;20609288888;21109288888
2860;20902442000;20609611111;21109611111
2861;20902454000;20609611111;21109611111
2862;20902455000;20609611111;21109611111
2863;20943845000;20650955555;21150955555
2871;20944123000;20651266666;21151266666
2872;20944127000;20651266666;21151266666
2873;20944128000;20651266666;21151266666
2874;20985638000;20692622222;21192622222
2875;20985666000;20692622222;21192622222
2876;20985667000;20692622222;21192622222
2877;20985668000;20692622222;21192622222
2878;20985669000;20692622222;21192622222
2879;20985671000;20692622222;21192622222
2880;20985672000;20692622222;21192622222
2881;20985898000;20692644444;21192644444
2882;20985936000;20692922222;21192922222
2883;20985954000;20692922222;21192922222
2884;20985955000;20692922222;21192922222
2885;21027161000;20734288888;21234288888
2893;21027496000;20734611111;21234611111
2894;21027521000;20734611111;21234611111
2895;21027523000;20734611111;21234611111
2896;21069591000;20775955555;21275955555
2904;21069788000;20776244444;21276244444
2905;21069815000;20776244444;21276244444
2906;21069828000;20776244444;21276244444
2907;21110619000;20817622222;21317622222
2915;21110738000;20817888888;21317888888
2916;21110742000;20817888888;21317888888
2917;21110765000;20817888888;21317888888
2918;21152270000;20859288888;21359288888
2926;21152388000;20859600000;21359600000
2927;21152412000;20859600000;21359600000
2928;21152414000;20859600000;21359600000
2929;21193944000;20900955555;21400955555
2936;21194137000;20900977777;21400977777
2937;21194152000;20901233333;21401233333
2938;21194154000;20901233333;21401233333
2939;21194161000;20901233333;21401233333
2940;21235582000;20942622222;21442622222
2948;21235707000;20942911111;21442911111
2949;21235727000;20942911111;21442911111
2950;21235729000;20942911111;21442911111
2951;21277254000;20984300000;21484300000
2959;21277378000;20984600000;21484600000
2960;21277397000;20984600000;21484600000
2961;21277399000;20984600000;21484600000
2962;21318925000;21025955555;21525955555
2970;21319023000;21026255555;21526255555
2971;21319062000;21026255555;21526255555
2972;21319064000;21026255555;21526255555
2973;21360590000;21067633333;21567633333
2981;21360689000;21067900000;21567900000
2982;21360708000;21067900000;21567900000
2983;21360709000;21067900000;21567900000
2984;21402218000;21109288888;21609288888
2992;21402343000;21109600000;21609600000
2993;21402346000;21109600000;21609600000
2994;21402347000;21109600000;21609600000
2995;21443903000;21150966666;21650966666
3003;21444005000;21151266666;21651266666
3004;21444036000;21151266666;21651266666
3005;21444038000;21151266666;21651266666
3006;21485541000;21192611111;21692611111
3014;21485641000;21192888888;21692888888
3015;21485659000;21192888888;21692888888
3016;21485671000;21192888888;21692888888
3017;21527184000;21234266666;21734266666
3025;21527282000;21234566666;21734566666
3026;21527301000;21234566666;21734566666
3027;21527303000;21234566666;21734566666
3028;21568833000;21275933333;21775933333
3036;21568932000;21276233333;21776233333
3037;21568950000;21276233333;21776233333
3038;21568962000;21276233333;21776233333
3039;21610499000;21317600000;21817600000
3047;21610617000;21317866666;21817866666
3048;21610641000;21317866666;21817866666
3049;21610643000;21317866666;21817866666
3050;21652130000;21359255555;21859255555
3058;21652246000;21359566666;21859566666
3059;21652270000;21359566666;21859566666
3060;21652272000;21359566666;21859566666
3061;21693795000;21400933333;21900933333
3069;21693915000;21401233333;21901233333
3070;21693940000;21401233333;21901233333
3071;21693941000;21401233333;21901233333
3072;21735442000;21442600000;21942600000
3080;21735606000;21442911111;21942911111
3082;21735631000;21442911111;21942911111
3083;21777113000;21484266666;21984266666
3090;21777323000;21484288888;21984288888
3091;21777361000;21484555555;21984555555
3092;21777369000;21484555555;21984555555
3093;21777371000;21484555555;21984555555
3094;21818780000;21525933333;22025933333
3101;21818988000;21525944444;22025944444
3102;21819005000;21526222222;22026222222
3103;21819007000;21526222222;22026222222
3104;21819030000;21526222222;22026222222
3105;21860485000;21567600000;22067600000
3112;21860798000;21567611111;22067611111
3113;21860817000;21567866666;22067866666
3114;21860846000;21567866666;22067866666
3115;21860849000;21567866666;22067866666
3116;21902124000;21609266666;22109266666
3124;21902265000;21609577777;22109577777
3125;21902291000;21609577777;22109577777
3126;21902292000;21609577777;22109577777
3127;21943729000;21650933333;22150933333
3135;21943803000;21651233333;22151233333
3136;21943823000;21651233333;22151233333
3137;21943824000;21651233333;22151233333
3138;21985385000;21692600000;22192600000
3146;21985505000;21692888888;22192888888
3147;21985529000;21692888888;22192888888
3148;21985540000;21692888888;22192888888
3149;22027038000;21734255555;22234255555
3157;22027171000;21734566666;22234566666
3158;22027195000;21734566666;22234566666
3159;22027197000;21734566666;22234566666
3160;22068698000;21775933333;22275933333
3168;22068816000;21776244444;22276244444
3169;22068841000;21776244444;22276244444
3170;22068842000;21776244444;22276244444
3171;22110375000;21817600000;22317600000
3179;22110494000;21817877777;22317877777
3180;22110519000;21817877777;22317877777
3181;22110521000;21817877777;22317877777
3182;22152016000;21859266666;22359266666
3189;22152283000;21859288888;22359288888
3190;22152300000;21859588888;22359588888
3191;22152323000;21859588888;22359588888
3192;22152325000;21859588888;22359588888
3193;22193665000;21900933333;22400933333
3201;22193783000;21901222222;22401222222
3202;22193807000;21901222222;22401222222
3203;22193809000;21901222222;22401222222
3204;22235337000;21942600000;22442600000
3211;22235519000;21942622222;22442622222
3212;22235523000;21942911111;22442911111
3213;22235541000;21942911111;22442911111
3214;22235543000;21942911111;22442911111
3215;22277056000;21984266666;22484266666
3223;22277181000;21984577777;22484577777
3224;22277192000;21984577777;22484577777
3225;22277214000;21984577777;22484577777
3226;22318668000;22025933333;22525933333
3229;22318696000;22025933333;22525933333
3230;22318697000;22025933333;22525933333
3231;22318698000;22025933333;22525933333
3232;22318699000;22025933333;22525933333
3233;22318934000;22025955555;22525955555
3234;22318955000;22026244444;22526244444
3235;22318956000;22026244444;22526244444
3236;22318957000;22026244444;22526244444
3237;22360325000;22067600000;22567600000
3239;22360352000;22067600000;22567600000
3240;22360353000;22067600000;22567600000
3242;22360355000;22067600000;22567600000
3243;22360356000;22067600000;22567600000
3244;22360577000;22067611111;22567611111
3245;22360588000;22067888888;22567888888
3246;22360593000;22067888888;22567888888
3247;22360594000;22067888888;22567888888
3248;22401880000;22109266666;22609266666
3256;22402034000;22109588888;22609588888
3257;22402054000;22109588888;22609588888
3258;22402055000;22109588888;22609588888
3259;22443606000;22150933333;22650933333
3265;22443624000;22150933333;22650933333
3266;22443813000;22150944444;22650944444
3267;22443823000;22151233333;22651233333
3268;22443825000;22151233333;22651233333
3269;22443826000;22151233333;22651233333
3270;22485269000;22192600000;22692600000
3278;22485370000;22192900000;22692900000
3279;22485401000;22192900000;22692900000
3280;22485403000;22192900000;22692900000
3281;22526752000;22234255555;22734255555
3289;22527065000;22234555555;22734555555
3290;22527085000;22234555555;22734555555
3291;22527086000;22234555555;22734555555
3292;22568584000;22275922222;22775922222
3300;22568685000;22276222222;22776222222
3301;22568697000;22276222222;22776222222
3302;22568718000;22276222222;22776222222
3303;22610228000;22317588888;22817588888
3311;22610347000;22317866666;22817866666
3312;22610372000;22317866666;22817866666
3313;22610373000;22317866666;22817866666
3314;22651870000;22359255555;22859255555
3322;22651987000;22359577777;22859577777
3323;22652011000;22359577777;22859577777
3324;22652013000;22359577777;22859577777
3325;22693576000;22400922222;22900922222
3333;22693695000;22401233333;22901233333
3334;22693720000;22401233333;22901233333
3335;22693721000;22401233333;22901233333
3336;22735187000;22442588888;22942588888
3344;22735304000;22442900000;22942900000
3345;22735328000;22442900000;22942900000
3346;22735330000;22442900000;22942900000
3347;22776854000;22484255555;22984255555
3355;22776973000;22484544444;22984544444
3356;22776998000;22484544444;22984544444
3357;22776999000;22484544444;22984544444
3358;22818523000;22525922222;23025922222
3366;22818641000;22526211111;23026211111
3367;22818666000;22526211111;23026211111
3368;22818667000;22526211111;23026211111
3369;22860213000;22567633333;23067633333
3376;22860417000;22567644444;23067644444
3377;22860424000;22567922222;23067922222
3378;22860447000;22567922222;23067922222
3379;22860457000;22567922222;23067922222
3380;22901650000;22609288888;23109288888
3388;22902012000;22609622222;23109622222
3389;22902036000;22609622222;23109622222
3390;22902038000;22609622222;23109622222
3391;22943515000;22650933333;23150933333
3399;22943634000;22651244444;23151244444
3400;22943658000;22651244444;23151244444
3401;22943660000;22651244444;23151244444
3402;22985166000;22692622222;23192622222
3410;22985284000;22692933333;23192933333
3411;22985309000;22692933333;23192933333
3412;22985310000;22692933333;23192933333
3413;23026680000;22734288888;23234288888
3421;23027005000;22734611111;23234611111
3422;23027029000;22734611111;23234611111
3423;23027031000;22734611111;23234611111
3424;23069899000;22775955555;23275955555
3433;23070097000;22776266666;23276266666
3434;23070124000;22776266666;23276266666
3435;23110162000;22817622222;23317622222
3443;23110281000;22817911111;23317911111
3444;23110305000;22817911111;23317911111
3445;23110307000;22817911111;23317911111
3446;23151823000;22859288888;23359288888
3454;23151942000;22859622222;23359622222
3455;23151968000;22859622222;23359622222
3456;23151969000;22859622222;23359622222
3457;23193493000;22900955555;23400955555
3465;23193610000;22901255555;23401255555
3466;23193635000;22901255555;23401255555
3467;23193636000;22901255555;23401255555
3468;23235118000;22942622222;23442622222
3476;23235244000;22942933333;23442933333
3477;23235253000;22942933333;23442933333
3478;23235264000;22942933333;23442933333
3479;23276798000;22984288888;23484288888
3487;23276897000;22984611111;23484611111
3488;23276916000;22984611111;23484611111
3489;23276928000;22984611111;23484611111
3490;23318457000;23025966666;23525966666
3497;23318657000;23025977777;23525977777
3498;23318673000;23026277777;23526277777
3499;23318694000;23026277777;23526277777
3500;23318695000;23026277777;23526277777
3501;23360106000;23067622222;23567622222
3509;23360211000;23067922222;23567922222
3510;23360230000;23067922222;23567922222
3511;23360232000;23067922222;23567922222
3512;23401782000;23109288888;23609288888
3520;23401881000;23109611111;23609611111
3521;23401900000;23109611111;23609611111
3522;23401911000;23109611111;23609611111
3523;23443438000;23150955555;23650955555
3531;23443538000;23151266666;23651266666
3532;23443550000;23151266666;23651266666
3533;23443558000;23151266666;23651266666
3534;23485163000;23192622222;23692622222
3541;23485421000;23192644444;23692644444
3542;23485442000;23192922222;23692922222
3543;23485444000;23192922222;23692922222
3544;23485461000;23192922222;23692922222
3545;23526758000;23234288888;23734288888
3551;23526786000;23234288888;23734288888
3552;23526993000;23234311111;23734311111
3553;23527013000;23234600000;23734600000
3554;23527018000;23234600000;23734600000
3555;23527019000;23234600000;23734600000
3556;23568409000;23275966666;23775966666
3564;23568514000;23276277777;23776277777
3565;23568533000;23276277777;23776277777
3566;23568534000;23276277777;23776277777
3567;23610077000;23317622222;23817622222
3575;23610196000;23317911111;23817911111
3576;23610221000;23317911111;23817911111
3577;23610222000;23317911111;23817911111
3578;23651722000;23359288888;23859288888
3586;23651837000;23359622222;23859622222
3587;23651861000;23359622222;23859622222
3588;23651863000;23359622222;23859622222
3589;23693395000;23400966666;23900966666
3597;23693515000;23401288888;23901288888
3598;23693539000;23401288888;23901288888
3599;23693540000;23401288888;23901288888
3600;23735067000;23442622222;23942622222
3606;23735091000;23442622222;23942622222
3607;23735274000;23442644444;23942644444
3608;23735281000;23442955555;23942955555
3609;23735283000;23442955555;23942955555
3610;23735305000;23442955555;23942955555
3611;23776693000;23484288888;23984288888
3619;23776809000;23484600000;23984600000
3620;23776833000;23484600000;23984600000
3621;23776835000;23484600000;23984600000
3622;23818357000;23525955555;24025955555
3630;23818476000;23526255555;24026255555
3631;23818479000;23526255555;24026255555
3632;23818502000;23526255555;24026255555
3633;23860025000;23567622222;24067622222
3641;23860172000;23567911111;24067911111
3642;23860205000;23567911111;24067911111
3643;23860206000;23567911111;24067911111
3644;23901667000;23609288888;24109288888
3651;23901872000;23609311111;24109311111
3652;23901888000;23609622222;24109622222
3653;23901912000;23609622222;24109622222
3654;23901913000;23609622222;24109622222
3655;23943319000;23650955555;24150955555
3663;23943438000;23651277777;24151277777
3664;23943463000;23651277777;24151277777
3665;23943465000;23651277777;24151277777
3666;23985012000;23692633333;24192633333
3674;23985093000;23692955555;24192955555
3675;23985112000;23692955555;24192955555
3676;23985113000;23692955555;24192955555
3677;24026636000;23734288888;24234288888
3685;24026754000;23734622222;24234622222
3686;24026779000;23734622222;24234622222
3689;24068164000;23775966666;24275966666
3696;24068435000;23776266666;24276266666
3697;24068460000;23776266666;24276266666
3698;24068461000;23776266666;24276266666
3699;24109964000;23817633333;24317633333
3706;24110173000;23817644444;24317644444
3707;24110180000;23817900000;24317900000
3708;24110203000;23817900000;24317900000
3709;24110204000;23817900000;24317900000
3710;24151621000;23859288888;24359288888
3718;24151738000;23859611111;24359611111
3719;24151742000;23859611111;24359611111
3720;24151765000;23859611111;24359611111
3721;24193124000;23900955555;24400955555
3729;24193324000;23901244444;24401244444
3730;24193343000;23901244444;24401244444
3731;24193345000;23901244444;24401244444
3732;24234940000;23942622222;24442622222
3739;24235172000;23942644444;24442644444
3740;24235188000;23942911111;24442911111
3741;24235212000;23942911111;24442911111
3742;24235213000;23942911111;24442911111
3743;24276685000;23984300000;24484300000
3751;24276830000;23984600000;24484600000
3752;24276835000;23984600000;24484600000
3753;24276854000;23984600000;24484600000
3754;24318127000;24025955555;24525955555
3757;24318155000;24025955555;24525955555
3758;24318157000;24025955555;24525955555
3759;24318159000;24025955555;24525955555
3760;24318160000;24025955555;24525955555
3761;24318392000;24025977777;24525977777
3762;24318413000;24026255555;24526255555
3763;24318414000;24026255555;24526255555
3764;24318419000;24026255555;24526255555
3765;24359885000;24067622222;24567622222
3772;24360058000;24067644444;24567644444
3773;24360067000;24067911111;24567911111
3774;24360068000;24067911111;24567911111
3775;24360082000;24067911111;24567911111
3776;24401501000;24109288888;24609288888
3784;24401636000;24109600000;24609600000
3785;24401654000;24109600000;24609600000
3786;24401655000;24109600000;24609600000
3787;24443082000;24150955555;24650955555
3795;24443369000;24151255555;24651255555
3796;24443388000;24151255555;24651255555
3797;24443390000;24151255555;24651255555
3798;24484906000;24192622222;24692622222
3806;24485026000;24192900000;24692900000
3807;24485058000;24192900000;24692900000
3808;24485060000;24192900000;24692900000
3809;24526390000;24234288888;24734288888
3817;24526693000;24234588888;24734588888
3818;24526717000;24234588888;24734588888
3819;24526719000;24234588888;24734588888
3820;24568207000;24275966666;24775966666
3828;24568332000;24276255555;24776255555
3829;24568351000;24276255555;24776255555
3830;24568352000;24276255555;24776255555
3831;24609883000;24317622222;24817622222
3839;24610013000;24317900000;24817900000
3841;24610037000;24317900000;24817900000
3842;24651515000;24359288888;24859288888
3850;24651633000;24359600000;24859600000
3851;24651658000;24359600000;24859600000
3852;24651659000;24359600000;24859600000
3853;24693272000;24400966666;24900966666
3861;24693423000;24401288888;24901288888
3862;24693435000;24401288888;24901288888
3863;24693444000;24401288888;24901288888
3864;24734669000;24442611111;24942611111
3872;24734997000;24442933333;24942933333
3873;24735009000;24442933333;24942933333
3874;24735011000;24442933333;24942933333
3875;24776442000;24484266666;24984266666
3878;24776468000;24484266666;24984266666
3879;24776470000;24484266666;24984266666
3880;24776472000;24484266666;24984266666
3881;24776473000;24484266666;24984266666
3882;24776687000;24484288888;24984288888
3883;24776723000;24484566666;24984566666
3884;24776751000;24484566666;24984566666
3885;24776753000;24484566666;24984566666
3886;24818135000;24525933333;25025933333
3894;24818234000;24526233333;25026233333
3895;24818253000;24526233333;25026233333
3896;24818255000;24526233333;25026233333
3897;24859786000;24567600000;25067600000
3905;24859885000;24567877777;25067877777
3906;24859903000;24567877777;25067877777
3907;24859915000;24567877777;25067877777
3908;24901442000;24609266666;25109266666
3916;24901540000;24609600000;25109600000
3917;24901560000;24609600000;25109600000
3918;24901571000;24609600000;25109600000
3919;24943108000;24650933333;25150933333
3927;24943226000;24651244444;25151244444
3928;24943251000;24651244444;25151244444
3929;24943252000;24651244444;25151244444
3930;24984680000;24692588888;25192588888
3938;24984761000;24692877777;25192877777
3939;24984779000;24692877777;25192877777
3940;24984781000;24692877777;25192877777
3941;25026248000;24734255555;25234255555
3949;25026521000;24734566666;25234566666
3950;25026549000;24734566666;25234566666
3951;25026551000;24734566666;25234566666
3952;25068023000;24775933333;25275933333
3960;25068229000;24776244444;25276244444
3961;25068253000;24776244444;25276244444
3962;25068255000;24776244444;25276244444
3963;25109705000;24817600000;25317600000
3971;25109820000;24817877777;25317877777
3972;25109845000;24817877777;25317877777
3973;25109847000;24817877777;25317877777
3974;25151375000;24859266666;25359266666
3982;25151494000;24859588888;25359588888
3983;25151518000;24859588888;25359588888
3984;25151519000;24859588888;25359588888
3985;25193008000;24900922222;25400922222
3993;25193137000;24901211111;25401211111
3994;25193161000;24901211111;25401211111
3995;25193163000;24901211111;25401211111
3996;25234666000;24942588888;25442588888
4004;25234790000;24942888888;25442888888
4005;25234809000;24942888888;25442888888
4006;25234811000;24942888888;25442888888
4007;25276347000;24984255555;25484255555
4015;25276446000;24984577777;25484577777
4016;25276466000;24984577777;25484577777
4017;25276477000;24984577777;25484577777
4018;25317987000;25025933333;25525933333
4026;25318119000;25026244444;25526244444
4027;25318138000;25026244444;25526244444
4028;25318140000;25026244444;25526244444
4029;25359672000;25067600000;25567600000
4037;25359775000;25067900000;25567900000
4038;25359787000;25067900000;25567900000
4039;25359796000;25067900000;25567900000
4040;25401324000;25109266666;25609266666
4041;25401347000;25109266666;25609266666
4042;25401349000;25109266666;25609266666
4043;25401350000;25109266666;25609266666
4044;25401352000;25109266666;25609266666
4045;25401353000;25109266666;25609266666
4046;25401354000;25109266666;25609266666
4047;25401542000;25109288888;25609288888
4048;25401562000;25109588888;25609588888
4049;25401567000;25109588888;25609588888
4050;25401568000;25109588888;25609588888
4051;25442990000;25150944444;25650944444
4059;25443096000;25151255555;25651255555
4060;25443114000;25151255555;25651255555
4061;25443116000;25151255555;25651255555
4062;25484704000;25192600000;25692600000
4070;25484835000;25192888888;25692888888
4071;25484865000;25192888888;25692888888
4072;25484867000;25192888888;25692888888
4073;25526299000;25234266666;25734266666
4077;25526341000;25234266666;25734266666
4078;25526344000;25234266666;25734266666
4079;25526346000;25234266666;25734266666
4080;25526576000;25234288888;25734288888
4081;25526620000;25234577777;25734577777
4082;25526628000;25234577777;25734577777
4083;25526630000;25234577777;25734577777
4084;25567953000;25275933333;25775933333
4092;25568031000;25276266666;25776266666
4093;25568054000;25276266666;25776266666
4094;25568056000;25276266666;25776266666
4095;25609463000;25317600000;25817600000
4103;25609699000;25317877777;25817877777
4104;25609724000;25317877777;25817877777
4105;25609726000;25317877777;25817877777
4106;25651249000;25359255555;25859255555
4114;25651368000;25359577777;25859577777
4115;25651393000;25359577777;25859577777
4116;25651395000;25359577777;25859577777
4117;25692908000;25400922222;25900922222
4125;25693030000;25401244444;25901244444
4126;25693034000;25401244444;25901244444
4127;25693077000;25401244444;25901244444
4128;25734598000;25442600000;25942600000
4136;25734716000;25442922222;25942922222
4137;25734740000;25442922222;25942922222
4138;25734741000;25442922222;25942922222
4139;25776231000;25484266666;25984266666
4147;25776350000;25484566666;25984566666
4148;25776374000;25484566666;25984566666
4149;25776376000;25484566666;25984566666
4150;25817766000;25525933333;26025933333
4158;25818017000;25526233333;26026233333
4159;25818021000;25526233333;26026233333
4160;25818022000;25526233333;26026233333
4161;25859587000;25567622222;26067622222
4169;25859707000;25567911111;26067911111
4170;25859732000;25567911111;26067911111
4171;25859733000;25567911111;26067911111
4172;25901311000;25609288888;26109288888
4180;25901462000;25609622222;26109622222
4181;25901488000;25609622222;26109622222
4182;25901490000;25609622222;26109622222
4183;25942891000;25650955555;26150955555
4191;25943009000;25651266666;26151266666
4192;25943034000;25651266666;26151266666
4193;25943035000;25651266666;26151266666
4194;25984556000;25692622222;26192622222
4202;25984675000;25692933333;26192933333
4203;25984700000;25692933333;26192933333
4204;25984701000;25692933333;26192933333
4205;26026075000;25734288888;26234288888
4213;26026386000;25734611111;26234611111
4214;26026411000;25734611111;26234611111
4215;26026412000;25734611111;26234611111
4216;26067871000;25775955555;26275955555
4224;26067988000;25776288888;26276288888
4225;26068012000;25776288888;26276288888
4226;26068014000;25776288888;26276288888
4227;26109552000;25817633333;26317633333
4235;26109670000;25817933333;26317933333
4236;26109694000;25817933333;26317933333
4237;26109696000;25817933333;26317933333
4238;26151199000;25859288888;26359288888
4245;26151408000;25859311111;26359311111
4246;26151424000;25859622222;26359622222
4247;26151448000;25859622222;26359622222
4248;26151450000;25859622222;26359622222
4249;26192866000;25900955555;26400955555
4257;26192984000;25901266666;26401266666
4258;26193009000;25901266666;26401266666
4259;26193010000;25901266666;26401266666
4260;26234555000;25942644444;26442644444
4267;26234684000;25942655555;26442655555
4268;26234688000;25942955555;26442955555
4269;26234696000;25942955555;26442955555
4270;26234708000;25942955555;26442955555
4271;26276156000;25984277777;26484277777
4279;26276276000;25984611111;26484611111
4280;26276301000;25984611111;26484611111
4281;26276302000;25984611111;26484611111
4282;26317783000;26025933333;26525933333
4290;26317859000;26026255555;26526255555
4291;26317878000;26026255555;26526255555
4292;26317879000;26026255555;26526255555
4293;26359322000;26067600000;26567600000
4301;26359570000;26067900000;26567900000
4302;26359582000;26067900000;26567900000
4303;26359604000;26067900000;26567900000
4304;26401137000;26109266666;26609266666
4312;26401236000;26109600000;26609600000
4313;26401255000;26109600000;26609600000
4314;26401267000;26109600000;26609600000
4315;26442792000;26150933333;26650933333
4323;26442894000;26151255555;26651255555
4324;26442905000;26151255555;26651255555
4325;26442907000;26151255555;26651255555
4326;26484425000;26192600000;26692600000
4327;26484451000;26192600000;26692600000
4328;26484452000;26192600000;26692600000
4329;26484454000;26192600000;26692600000
4330;26484455000;26192600000;26692600000
4331;26484466000;26192600000;26692600000
4332;26484468000;26192600000;26692600000
4333;26484664000;26192622222;26692622222
4334;26484684000;26192911111;26692911111
4335;26484698000;26192911111;26692911111
4336;26484699000;26192911111;26692911111
4337;26526055000;26234255555;26734255555
4344;26526193000;26234277777;26734277777
4345;26526196000;26234566666;26734566666
4346;26526204000;26234566666;26734566666
4347;26526205000;26234566666;26734566666
4348;26567565000;26275922222;26775922222
4356;26567878000;26276233333;26776233333
4357;26567907000;26276233333;26776233333
4358;26567908000;26276233333;26776233333
4359;26609410000;26317588888;26817588888
4367;26609530000;26317866666;26817866666
4368;26609554000;26317866666;26817866666
4369;26609555000;26317866666;26817866666
4370;26651059000;26359255555;26859255555
4378;26651184000;26359588888;26859588888
4379;26651208000;26359588888;26859588888
4380;26651210000;26359588888;26859588888
4381;26692781000;26400922222;26900922222
4389;26692979000;26401244444;26901244444
4390;26693005000;26401244444;26901244444
4391;26693007000;26401244444;26901244444
4392;26734365000;26442588888;26942588888
4400;26734485000;26442911111;26942911111
4401;26734510000;26442911111;26942911111
4402;26734512000;26442911111;26942911111
4403;26776023000;26484255555;26984255555
4411;26776199000;26484555555;26984555555
4412;26776223000;26484555555;26984555555
4413;26776225000;26484555555;26984555555
4414;26817682000;26525922222;27025922222
4422;26817800000;26526222222;27026222222
4423;26817825000;26526222222;27026222222
4424;26817826000;26526222222;27026222222
4425;26859203000;26567600000;27067600000
4433;26859487000;26567900000;27067900000
4434;26859511000;26567900000;27067900000
4435;26859513000;26567900000;27067900000
4436;26900865000;26609266666;27109266666
4444;26901221000;26609611111;27109611111
4445;26901245000;26609611111;27109611111
4446;26901247000;26609611111;27109611111
4447;26942678000;26650933333;27150933333
4455;26942794000;26651266666;27151266666
4456;26942818000;26651266666;27151266666
4457;26942820000;26651266666;27151266666
4458;26984339000;26692600000;27192600000
4466;26984458000;26692911111;27192911111
4467;26984482000;26692911111;27192911111
4468;26984484000;26692911111;27192911111
4469;27026024000;26734288888;27234288888
4477;27026171000;26734622222;27234622222
4478;27026195000;26734622222;27234622222
4479;27026196000;26734622222;27234622222
4480;27067739000;26775955555;27275955555
4488;27067931000;26776244444;27276244444
4489;27067960000;26776244444;27276244444
4490;27067962000;26776244444;27276244444
4491;27109396000;26817622222;27317622222
4499;27109539000;26817888888;27317888888
4500;27109566000;26817888888;27317888888
4501;27109568000;26817888888;27317888888
4502;27151014000;26859300000;27359300000
4510;27151151000;26859622222;27359622222
4511;27151176000;26859622222;27359622222
4512;27151178000;26859622222;27359622222
4513;27192645000;26900944444;27400944444
4521;27192762000;26901233333;27401233333
4522;27192786000;26901233333;27401233333
4523;27192788000;26901233333;27401233333
4524;27234295000;26942600000;27442600000
4532;27234398000;26942888888;27442888888
4533;27234417000;26942888888;27442888888
4534;27234418000;26942888888;27442888888
4535;27275838000;26984288888;27484288888
4543;27276152000;26984600000;27484600000
4544;27276164000;26984600000;27484600000
4545;27276166000;26984600000;27484600000
4546;27317629000;27025955555;27525955555
4553;27317845000;27025977777;27525977777
4554;27317859000;27026255555;27526255555
4555;27317877000;27026255555;27526255555
4556;27317879000;27026255555;27526255555
4557;27359289000;27067622222;27567622222
4565;27359393000;27067900000;27567900000
4566;27359412000;27067900000;27567900000
4567;27359414000;27067900000;27567900000
4568;27400976000;27109288888;27609288888
4576;27401088000;27109600000;27609600000
4577;27401107000;27109600000;27609600000
4578;27401118000;27109600000;27609600000
4579;27442616000;27150955555;27650955555
4587;27442740000;27151244444;27651244444
4588;27442759000;27151244444;27651244444
4589;27442761000;27151244444;27651244444
4590;27484275000;27192622222;27692622222
4598;27484398000;27192900000;27692900000
4599;27484401000;27192900000;27692900000
4600;27484420000;27192900000;27692900000
4601;27525932000;27234288888;27734288888
4608;27526144000;27234311111;27734311111
4609;27526158000;27234588888;27734588888
4610;27526180000;27234588888;27734588888
4611;27526181000;27234588888;27734588888
4612;27567613000;27275966666;27775966666
4620;27567712000;27276266666;27776266666
4621;27567730000;27276266666;27776266666
4622;27567732000;27276266666;27776266666
4623;27609239000;27317611111;27817611111
4631;27609357000;27317888888;27817888888
4632;27609382000;27317888888;27817888888
4633;27609383000;27317888888;27817888888
4634;27650886000;27359266666;27859266666
4642;27651005000;27359577777;27859577777
4643;27651030000;27359577777;27859577777
4644;27651055000;27359577777;27859577777
4645;27692579000;27400933333;27900933333
4653;27692698000;27401244444;27901244444
4654;27692723000;27401244444;27901244444
4655;27692724000;27401244444;27901244444
4656;27734238000;27442600000;27942600000
4664;27734383000;27442911111;27942911111
4665;27734411000;27442911111;27942911111
4666;27734413000;27442911111;27942911111
4667;27775874000;27484255555;27984255555
4675;27775994000;27484544444;27984544444
4676;27776019000;27484544444;27984544444
4677;27776020000;27484544444;27984544444
4678;27817534000;27525922222;28025922222
4685;27817744000;27525944444;28025944444
4686;27817752000;27526200000;28026200000
4687;27817775000;27526200000;28026200000
4688;27817776000;27526200000;28026200000
4689;27859062000;27567622222;28067622222
4697;27859312000;27567900000;28067900000
4698;27859316000;27567900000;28067900000
4699;27859338000;27567900000;28067900000
4700;27900942000;27609288888;28109288888
4708;27901142000;27609611111;28109611111
4709;27901147000;27609611111;28109611111
4710;27901170000;27609611111;28109611111
4711;27942549000;27650955555;28150955555
4712;27942578000;27650955555;28150955555
4713;27942579000;27650955555;28150955555
4714;27942584000;27650955555;28150955555
4715;27942585000;27650955555;28150955555
4716;27942586000;27650955555;28150955555
4717;27942588000;27650955555;28150955555
4718;27942819000;27650977777;28150977777
4719;27942858000;27651255555;28151255555
4720;27942863000;27651255555;28151255555
4721;27942865000;27651255555;28151255555
4722;27984183000;27692622222;28192622222
4728;27984218000;27692622222;28192622222
4729;27984414000;27692644444;28192644444
4730;27984430000;27692911111;28192911111
4732;27984455000;27692911111;28192911111
4733;28025785000;27734288888;28234288888
4741;28025864000;27734600000;28234600000
4742;28025873000;27734600000;28234600000
4743;28025874000;27734600000;28234600000
4744;28067511000;27775955555;28275955555
4752;28067658000;27776277777;28276277777
4753;28067686000;27776277777;28276277777
4754;28067687000;27776277777;28276277777
4755;28109168000;27817633333;28317633333
4763;28109293000;27817933333;28317933333
4764;28109312000;27817933333;28317933333
4765;28109313000;27817933333;28317933333
4766;28150658000;27859277777;28359277777
4774;28151025000;27859622222;28359622222
4775;28151058000;27859622222;28359622222
4776;28151060000;27859622222;28359622222
4777;28192455000;27900933333;28400933333
4784;28192669000;27900944444;28400944444
4785;28192683000;27901244444;28401244444
4786;28192701000;27901244444;28401244444
4787;28192703000;27901244444;28401244444
4788;28234142000;27942622222;28442622222
4796;28234246000;27942944444;28442944444
4797;28234265000;27942944444;28442944444
4798;28234267000;27942944444;28442944444
4799;28278101000;27984288888;28484288888
4807;28278260000;27984622222;28484622222
4808;28278289000;27984622222;28484622222
4809;28278292000;27984622222;28484622222
4810;28317451000;28025955555;28525955555
4818;28317577000;28026277777;28526277777
4819;28317596000;28026277777;28526277777
4820;28317598000;28026277777;28526277777
4821;28359136000;28067622222;28567622222
4829;28359237000;28067933333;28567933333
4830;28359257000;28067933333;28567933333
4831;28359268000;28067933333;28567933333
4832;28400779000;28109288888;28609288888
4840;28400904000;28109622222;28609622222
4841;28400924000;28109622222;28609622222
4842;28400926000;28109622222;28609622222
4843;28442441000;28150955555;28650955555
4851;28442549000;28151266666;28651266666
4852;28442568000;28151266666;28651266666
4853;28442569000;28151266666;28651266666
4854;28484122000;28192644444;28692644444
4862;28484242000;28192955555;28692955555
4863;28484267000;28192955555;28692955555
4864;28484269000;28192955555;28692955555
4865;28525746000;28234277777;28734277777
4872;28525952000;28234300000;28734300000
4873;28525959000;28234611111;28734611111
4874;28525961000;28234611111;28734611111
4875;28525983000;28234611111;28734611111
4876;28567412000;28275933333;28775933333
4884;28567511000;28276266666;28776266666
4885;28567529000;28276266666;28776266666
4886;28567541000;28276266666;28776266666
4887;28609056000;28317600000;28817600000
4895;28609174000;28317900000;28817900000
4896;28609198000;28317900000;28817900000
4897;28609200000;28317900000;28817900000
4898;28650574000;28359266666;28859266666
4906;28650906000;28359611111;28859611111
4907;28650930000;28359611111;28859611111
4908;28650932000;28359611111;28859611111
4909;28692355000;28400922222;28900922222
4917;28692480000;28401255555;28901255555
4918;28692499000;28401255555;28901255555
4919;28692500000;28401255555;28901255555
4920;28734024000;28442588888;28942588888
4928;28734133000;28442922222;28942922222
4929;28734153000;28442922222;28942922222
4930;28734164000;28442922222;28942922222
4931;28775677000;28484266666;28984266666
4939;28775783000;28484588888;28984588888
4940;28775802000;28484588888;28984588888
4941;28775803000;28484588888;28984588888
4942;28817306000;28525933333;29025933333
4950;28817409000;28526255555;29026255555
4951;28817411000;28526255555;29026255555
4952;28817413000;28526255555;29026255555
4953;28858846000;28567600000;29067600000
4956;28858873000;28567600000;29067600000
4957;28858874000;28567600000;29067600000
4958;28858876000;28567600000;29067600000
4959;28858877000;28567600000;29067600000
4960;28859113000;28567611111;29067611111
4961;28859134000;28567900000;29067900000
4962;28859135000;28567900000;29067900000
4963;28859139000;28567900000;29067900000
4964;28900679000;28609288888;29109288888
4972;28900784000;28609644444;29109644444
4973;28900803000;28609644444;29109644444
4974;28900804000;28609644444;29109644444
4977;28942185000;28650933333;29150933333
4983;28942508000;28651266666;29151266666
4984;28942533000;28651266666;29151266666
4985;28942535000;28651266666;29151266666
4986;28983983000;28692600000;29192600000
4994;28984105000;28692922222;29192922222
4995;28984129000;28692922222;29192922222
4996;28984131000;28692922222;29192922222
4997;29025672000;28734288888;29234288888
5005;29025791000;28734633333;29234633333
5006;29025815000;28734633333;29234633333
5007;29025817000;28734633333;29234633333
5008;29067343000;28775955555;29275955555
5016;29067462000;28776277777;29276277777
5017;29067487000;28776277777;29276277777
5018;29067489000;28776277777;29276277777
5019;29109073000;28817622222;29317622222
5027;29109225000;28817911111;29317911111
5028;29109251000;28817911111;29317911111
5029;29109253000;28817911111;29317911111
5030;29150641000;28859288888;29359288888
5038;29150759000;28859622222;29359622222
5039;29150783000;28859622222;29359622222
5040;29150785000;28859622222;29359622222
5041;29192137000;28900955555;29400955555
5049;29192429000;28901255555;29401255555
5050;29192455000;28901255555;29401255555
5051;29192456000;28901255555;29401255555
5052;29233968000;28942622222;29442622222
5060;29234080000;28942933333;29442933333
5061;29234114000;28942933333;29442933333
5062;29234116000;28942933333;29442933333
5063;29275628000;28984288888;29484288888
5071;29275744000;28984611111;29484611111
5072;29275768000;28984611111;29484611111
5073;29275770000;28984611111;29484611111
5074;29317305000;29025955555;29525955555
5081;29317514000;29025977777;29525977777
5082;29317530000;29026266666;29526266666
5083;29317554000;29026266666;29526266666
5084;29317556000;29026266666;29526266666
5085;29358950000;29067622222;29567622222
5092;29359168000;29067644444;29567644444
5093;29359185000;29067922222;29567922222
5094;29359209000;29067922222;29567922222
5095;29359210000;29067922222;29567922222
5096;29400601000;29109288888;29609288888
5104;29400720000;29109611111;29609611111
5105;29400744000;29109611111;29609611111
5106;29400745000;29109611111;29609611111
5107;29442265000;29150955555;29650955555
5115;29442385000;29151266666;29651266666
5116;29442409000;29151266666;29651266666
5117;29442411000;29151266666;29651266666
5118;29484008000;29192622222;29692622222
5126;29484211000;29192922222;29692922222
5127;29484234000;29192922222;29692922222
5128;29484237000;29192922222;29692922222
5129;29525610000;29234288888;29734288888
5137;29525711000;29234611111;29734611111
5138;29525730000;29234611111;29734611111
5139;29525741000;29234611111;29734611111
5140;29567256000;29275955555;29775955555
5148;29567366000;29276266666;29776266666
5149;29567385000;29276266666;29776266666
5150;29567397000;29276266666;29776266666
5151;29608927000;29317622222;29817622222
5159;29609059000;29317911111;29817911111
5160;29609084000;29317911111;29817911111
5161;29609085000;29317911111;29817911111
5162;29650571000;29359288888;29859288888
5170;29650690000;29359622222;29859622222
5171;29650715000;29359622222;29859622222
5172;29650717000;29359622222;29859622222
5173;29692245000;29400955555;29900955555
5181;29692365000;29401288888;29901288888
5182;29692390000;29401288888;29901288888
5183;29692392000;29401288888;29901288888
5184;29733889000;29442622222;29942622222
5192;29734008000;29442955555;29942955555
5193;29734012000;29442955555;29942955555
5194;29734034000;29442955555;29942955555
5195;29775553000;29484300000;29984300000
5203;29775672000;29484622222;29984622222
5204;29775697000;29484622222;29984622222
5205;29775698000;29484622222;29984622222
5206;29817202000;29525944444;30025944444
5214;29817513000;29526255555;30026255555
5215;29817537000;29526255555;30026255555
5216;29817539000;29526255555;30026255555
5217;29858688000;29567600000;30067600000
5225;29858952000;29567888888;30067888888
5226;29858977000;29567888888;30067888888
5227;29858979000;29567888888;30067888888
5228;29900498000;29609266666;30109266666
5236;29900617000;29609611111;30109611111
5237;29900641000;29609611111;30109611111
5238;29900643000;29609611111;30109611111
5239;29942173000;29650933333;30150933333
5247;29942290000;29651255555;30151255555
5248;29942314000;29651255555;30151255555
5249;29942315000;29651255555;30151255555
5250;29983806000;29692588888;30192588888
5258;29983926000;29692900000;30192900000
5259;29983951000;29692900000;30192900000
5260;29983952000;29692900000;30192900000
5261;30025482000;29734255555;30234255555
5268;30025688000;29734277777;30234277777
5269;30025695000;29734577777;30234577777
5270;30025697000;29734577777;30234577777
5271;30025720000;29734577777;30234577777
5272;30067151000;29775944444;30275944444
5280;30067226000;29776266666;30276266666
5281;30067245000;29776266666;30276266666
5282;30067246000;29776266666;30276266666
5283;30108791000;29817600000;30317600000
5291;30108911000;29817900000;30317900000
5292;30108936000;29817900000;30317900000
5293;30108937000;29817900000;30317900000
5294;30150453000;29859266666;30359266666
5302;30150598000;29859600000;30359600000
5303;30150622000;29859600000;30359600000
5304;30150624000;29859600000;30359600000
5307;30191949000;29900933333;30400933333
5313;30192274000;29901244444;30401244444
5314;30192299000;29901244444;30401244444
5315;30192300000;29901244444;30401244444
5316;30233768000;29942600000;30442600000
5324;30233917000;29942922222;30442922222
5325;30233920000;29942922222;30442922222
5326;30233943000;29942922222;30442922222
5327;30275476000;29984266666;30484266666
5335;30275664000;29984588888;30484588888
5336;30275692000;29984588888;30484588888
5337;30275695000;29984588888;30484588888
5338;30317145000;30025933333;30525933333
5346;30317309000;30026244444;30526244444
5347;30317335000;30026244444;30526244444
5348;30317336000;30026244444;30526244444
5349;30358745000;30067600000;30567600000
5357;30358896000;30067900000;30567900000
5358;30358924000;30067900000;30567900000
5359;30358925000;30067900000;30567900000
5360;30400253000;30109266666;30609266666
5368;30400593000;30109600000;30609600000
5369;30400597000;30109600000;30609600000
5370;30400598000;30109600000;30609600000
5371;30442065000;30150933333;30650933333
5373;30442101000;30150933333;30650933333
5374;30442103000;30150933333;30650933333
5375;30442104000;30150933333;30650933333
5376;30442105000;30150933333;30650933333
5377;30442107000;30150933333;30650933333
5378;30442325000;30150944444;30650944444
5379;30442349000;30151244444;30651244444
5380;30442351000;30151244444;30651244444
5381;30442352000;30151244444;30651244444
5382;30483737000;30192600000;30692600000
5390;30483875000;30192900000;30692900000
5391;30483893000;30192900000;30692900000
5392;30483905000;30192900000;30692900000
5393;30525389000;30234255555;30734255555
5401;30525522000;30234566666;30734566666
5402;30525560000;30234566666;30734566666
5403;30525562000;30234566666;30734566666
5404;30567035000;30275922222;30775922222
5412;30567180000;30276233333;30776233333
5413;30567199000;30276233333;30776233333
5414;30567210000;30276233333;30776233333
5415;30608684000;30317588888;30817588888
5424;30608876000;30317866666;30817866666
5425;30608900000;30317866666;30817866666
5426;30650215000;30359255555;30859255555
5434;30650523000;30359577777;30859577777
5435;30650547000;30359577777;30859577777
5436;30650549000;30359577777;30859577777
5437;30692089000;30400922222;30900922222
5445;30692266000;30401244444;30901244444
5446;30692292000;30401244444;30901244444
5447;30692293000;30401244444;30901244444
5448;30733671000;30442588888;30942588888
5456;30733817000;30442911111;30942911111
5457;30733842000;30442911111;30942911111
5458;30733844000;30442911111;30942911111
5459;30775326000;30484255555;30984255555
5467;30775467000;30484555555;30984555555
5468;30775492000;30484555555;30984555555
5469;30775493000;30484555555;30984555555
5470;30816991000;30525922222;31025922222
5478;30817137000;30526222222;31026222222
5479;30817161000;30526222222;31026222222
5480;30817163000;30526222222;31026222222
5481;30858697000;30567622222;31067622222
5489;30858833000;30567911111;31067911111
5490;30858852000;30567911111;31067911111
5491;30858853000;30567911111;31067911111
5492;30900371000;30609300000;31109300000
5493;30900378000;30609300000;31109300000
5494;30900380000;30609300000;31109300000
5495;30900382000;30609300000;31109300000
5496;30900384000;30609300000;31109300000
5497;30900385000;30609300000;31109300000
5498;30900387000;30609300000;31109300000
5499;30900593000;30609311111;31109311111
