seqnum;now;rtptime;deadline
1;11285134000;7753633333;8253633333
2;11285137000;7753633333;8253633333
3;11693775000;7784844444;8284844444
197;11773932000;8493177777;8993177777
198;11773947000;8493455555;8993455555
199;11773949000;8493455555;8993455555
200;11773950000;8493455555;8993455555
201;11797531000;8534833333;9034833333
202;11797547000;8534833333;9034833333
203;11797550000;8534833333;9034833333
204;11797552000;8534833333;9034833333
205;11797554000;8534833333;9034833333
206;11797555000;8534833333;9034833333
207;11797557000;8534833333;9034833333
208;11798089000;8534844444;9034844444
209;11798099000;8535133333;9035133333
211;11798101000;8535133333;9035133333
212;11820267000;8576500000;9076500000
213;11820272000;8576500000;9076500000
214;11820274000;8576500000;9076500000
215;11820275000;8576500000;9076500000
216;11820277000;8576500000;9076500000
217;11820279000;8576500000;9076500000
218;11820280000;8576500000;9076500000
219;11839679000;8576522222;9076522222
220;11839687000;8576866666;9076866666
221;11839689000;8576866666;9076866666
222;11839691000;8576866666;9076866666
223;11839708000;8618166666;9118166666
224;11839721000;8618166666;9118166666
225;11839722000;8618166666;9118166666
226;11839723000;8618166666;9118166666
227;11839725000;8618166666;9118166666
229;11839726000;8618166666;9118166666
230;11858250000;8618188888;9118188888
232;11858268000;8618500000;9118500000
233;11858270000;8618500000;9118500000
234;11858284000;8659833333;9159833333
235;11858285000;8659833333;9159833333
236;11884888000;8659833333;9159833333
237;11885026000;8659833333;9159833333
238;11885247000;8659833333;9159833333
239;11885450000;8659833333;9159833333
240;11885728000;8659833333;9159833333
241;11940022000;8659844444;9159844444
289;11940037000;8868166666;9368166666
290;11940039000;8868166666;9368166666
291;11940040000;8868166666;9368166666
292;11940042000;8868166666;9368166666
293;11940058000;8868166666;9368166666
294;11940060000;8868166666;9368166666
295;11940061000;8868166666;9368166666
296;12140815000;8868177777;9368177777
372;12140827000;9159833333;9659833333
373;12301919000;9159844444;9659844444
439;12359061000;9409844444;9909844444
440;12359067000;9410155555;9910155555
441;12359069000;9410155555;9910155555
442;12359070000;9410155555;9910155555
443;12381429000;9451500000;9951500000
444;12381433000;9451500000;9951500000
445;12381434000;9451500000;9951500000
447;12381435000;9451500000;9951500000
448;12381436000;9451500000;9951500000
449;12381437000;9451500000;9951500000
450;12381638000;9451522222;9951522222
451;12381653000;9451811111;9951811111
452;12381654000;9451811111;9951811111
453;12381655000;9451811111;9951811111
454;12400635000;9493166666;9993166666
455;12400638000;9493166666;9993166666
456;12400639000;9493166666;9993166666
457;12400640000;9493166666;9993166666
458;12400641000;9493166666;9993166666
459;12400642000;9493166666;9993166666
460;12400643000;9493166666;9993166666
461;12400843000;9493177777;9993177777
462;12400858000;9493444444;9993444444
463;12400859000;9493444444;9993444444
464;12400860000;9493444444;9993444444
465;12409955000;9534833333;10034833333
466;12409959000;9534833333;10034833333
467;12409960000;9534833333;10034833333
468;12409961000;9534833333;10034833333
469;12409961000;9534833333;10034833333
470;12409962000;9534833333;10034833333
471;12486344000;9534833333;10034833333
472;12536964000;9534844444;10034844444
524;12536979000;9743166666;10243166666
525;12536980000;9743166666;10243166666
528;12738838000;9743466666;10243466666
602;12902949000;10034833333;10534833333
674;12983889000;10326500000;10826500000
675;12983893000;10326500000;10826500000
677;12983894000;10326500000;10826500000
678;12983895000;10326500000;10826500000
679;12983896000;10326500000;10826500000
680;12983897000;10326500000;10826500000
681;12984141000;10326511111;10826511111
682;12984157000;10326833333;10826833333
684;12984158000;10326833333;10826833333
685;13002435000;10368166666;10868166666
686;13002439000;10368166666;10868166666
687;13002440000;10368166666;10868166666
688;13002441000;10368166666;10868166666
689;13002442000;10368166666;10868166666
690;13002443000;10368166666;10868166666
691;13002456000;10368166666;10868166666
692;13002581000;10368177777;10868177777
693;13002586000;10368477777;10868477777
694;13002587000;10368477777;10868477777
695;13002589000;10368477777;10868477777
696;13011585000;10409833333;10909833333
697;13011599000;10409833333;10909833333
698;13011600000;10409833333;10909833333
700;13011601000;10409833333;10909833333
701;13011602000;10409833333;10909833333
702;13011603000;10409833333;10909833333
704;13011729000;10410144444;10910144444
705;13011732000;10410144444;10910144444
706;13011733000;10410144444;10910144444
707;13138556000;10451500000;10951500000
760;13303065000;10618488888;11118488888
837;13502094000;10910133333;11410133333
905;13558310000;11201500000;11701500000
906;13558321000;11201500000;11701500000
907;13558322000;11201500000;11701500000
908;13558324000;11201500000;11701500000
910;13558325000;11201500000;11701500000
911;13558327000;11201500000;11701500000
912;13558494000;11201533333;11701533333
913;13558500000;11201855555;11701855555
914;13558502000;11201855555;11701855555
915;13558503000;11201855555;11701855555
916;13601678000;11243166666;11743166666
917;13601689000;11243166666;11743166666
918;13601691000;11243166666;11743166666
919;13601693000;11243166666;11743166666
920;13601694000;11243166666;11743166666
921;13601696000;11243166666;11743166666
924;13624351000;11243488888;11743488888
925;13624362000;11243488888;11743488888
926;13624364000;11243488888;11743488888
927;13624480000;11284833333;11784833333
928;13624484000;11284833333;11784833333
929;13624486000;11284833333;11784833333
930;13624487000;11284833333;11784833333
931;13624489000;11284833333;11784833333
932;13624490000;11284833333;11784833333
933;13624492000;11284833333;11784833333
934;13624614000;11284844444;11784844444
935;13624621000;11285133333;11785133333
936;13624622000;11285133333;11785133333
937;13624624000;11285133333;11785133333
938;13624636000;11326500000;11826500000
939;13624638000;11326500000;11826500000
942;13689941000;11326500000;11826500000
943;13690068000;11326500000;11826500000
944;13690293000;11326500000;11826500000
945;13740829000;11326522222;11826522222
993;13740850000;11534833333;12034833333
994;13740851000;11534833333;12034833333
995;13740853000;11534833333;12034833333
996;13740854000;11534833333;12034833333
997;13740855000;11534833333;12034833333
998;13740857000;11534833333;12034833333
999;13740858000;11534833333;12034833333
1000;13943097000;11534844444;12034844444
1068;13943112000;11785133333;12285133333
1069;13943113000;11785133333;12285133333
1070;14106950000;11826500000;12326500000
1142;14161814000;12076500000;12576500000
1143;14162017000;12076522222;12576522222
1144;14162033000;12076811111;12576811111
1145;14162034000;12076811111;12576811111
1147;14185430000;12118155555;12618155555
1149;14185434000;12118155555;12618155555
1150;14185435000;12118155555;12618155555
1151;14185436000;12118155555;12618155555
1152;14185437000;12118155555;12618155555
1153;14185438000;12118155555;12618155555
1154;14185562000;12118166666;12618166666
1155;14185577000;12118455555;12618455555
1156;14185579000;12118455555;12618455555
1157;14185579000;12118455555;12618455555
1158;14205330000;12159822222;12659822222
1159;14205334000;12159822222;12659822222
1162;14205335000;12159822222;12659822222
1163;14205336000;12159822222;12659822222
1164;14205337000;12159822222;12659822222
1165;14205538000;12159833333;12659833333
1166;14205554000;12160088888;12660088888
1167;14205555000;12160088888;12660088888
1168;14205556000;12160088888;12660088888
1169;14215202000;12201500000;12701500000
1170;14215205000;12201500000;12701500000
1171;14215206000;12201500000;12701500000
1172;14215207000;12201500000;12701500000
1173;14215208000;12201500000;12701500000
1174;14215209000;12201500000;12701500000
1177;14342124000;12201844444;12701844444
1226;14544816000;12409833333;12909833333
1302;14713960000;12701500000;13201500000
1379;14786473000;12993166666;13493166666
1380;14786476000;12993166666;13493166666
1381;14786477000;12993166666;13493166666
1382;14786478000;12993166666;13493166666
1383;14786488000;12993166666;13493166666
1384;14786497000;12993166666;13493166666
1385;14786707000;12993188888;13493188888
1386;14786710000;12993477777;13493477777
1387;14786711000;12993477777;13493477777
1388;14786712000;12993477777;13493477777
1389;14806681000;13034833333;13534833333
1390;14806683000;13034833333;13534833333
1391;14806684000;13034833333;13534833333
1392;14806685000;13034833333;13534833333
1393;14806695000;13034833333;13534833333
1394;14806696000;13034833333;13534833333
1395;14806698000;13034833333;13534833333
1396;14806905000;13034844444;13534844444
1397;14806908000;13035144444;13535144444
1398;14806909000;13035144444;13535144444
1399;14806910000;13035144444;13535144444
1400;14816805000;13076500000;13576500000
1401;14816807000;13076500000;13576500000
1402;14816808000;13076500000;13576500000
1403;14816809000;13076500000;13576500000
1404;14816810000;13076500000;13576500000
1405;14816810000;13076500000;13576500000
1406;14816820000;13076500000;13576500000
1407;14817027000;13076522222;13576522222
1408;14817030000;13076822222;13576822222
1409;14817031000;13076822222;13576822222
1410;14817032000;13076822222;13576822222
1411;14820173000;13118166666;13618166666
1412;14892852000;13118166666;13618166666
1413;14893084000;13118166666;13618166666
1414;14893455000;13118166666;13618166666
1415;14893659000;13118166666;13618166666
1416;14893668000;13118166666;13618166666
1417;14893855000;13118166666;13618166666
1418;14944541000;13118177777;13618177777
1467;14944546000;13326500000;13826500000
1468;14944547000;13326500000;13826500000
1469;14944548000;13326500000;13826500000
1470;14944549000;13326500000;13826500000
1473;15146167000;13326522222;13826522222
1545;15146172000;13618166666;14118166666
1546;15146173000;13618166666;14118166666
1547;15146174000;13618166666;14118166666
1548;15146175000;13618166666;14118166666
1549;15146176000;13618166666;14118166666
1550;15311348000;13618177777;14118177777
1620;15311352000;13909822222;14409822222
1621;15311353000;13909822222;14409822222
1623;15389054000;13909822222;14409822222
1624;15389058000;13909822222;14409822222
1626;15389059000;13909822222;14409822222
1628;15389189000;13910122222;14410122222
1629;15389192000;13910122222;14410122222
1630;15389194000;13910122222;14410122222
1631;15413338000;13951500000;14451500000
1632;15413342000;13951500000;14451500000
1633;15413343000;13951500000;14451500000
1634;15413345000;13951500000;14451500000
1635;15413346000;13951500000;14451500000
1636;15413347000;13951500000;14451500000
1637;15413348000;13951500000;14451500000
1638;15413556000;13951522222;14451522222
1639;15413572000;13951822222;14451822222
1640;15413573000;13951822222;14451822222
1642;15421866000;13993166666;14493166666
1643;15421870000;13993166666;14493166666
1644;15421871000;13993166666;14493166666
1645;15421872000;13993166666;14493166666
1646;15421874000;13993166666;14493166666
1647;15421875000;13993166666;14493166666
1648;15494236000;13993166666;14493166666
1649;15544898000;13993177777;14493177777
1703;15544902000;14201500000;14701500000
1704;15747287000;14201522222;14701522222
1777;15747292000;14493166666;14993166666
1778;15747293000;14493166666;14993166666
1779;15747294000;14493166666;14993166666
1780;15747295000;14493166666;14993166666
1787;15936458000;14534833333;15034833333
1857;15992288000;14784822222;15284822222
1858;15992419000;14784833333;15284833333
1859;15992422000;14785100000;15285100000
1860;15992423000;14785100000;15285100000
1861;15992424000;14785100000;15285100000
1862;16011734000;14826522222;15326522222
1863;16011737000;14826522222;15326522222
1864;16011738000;14826522222;15326522222
1866;16011739000;14826522222;15326522222
1867;16011740000;14826522222;15326522222
1868;16011741000;14826522222;15326522222
1869;16011871000;14826533333;15326533333
1870;16011874000;14826822222;15326822222
1871;16011875000;14826822222;15326822222
1872;16011876000;14826822222;15326822222
1873;16021390000;14868166666;15368166666
1874;16021392000;14868166666;15368166666
1875;16021393000;14868166666;15368166666
1876;16021394000;14868166666;15368166666
1877;16021395000;14868166666;15368166666
1878;16021396000;14868166666;15368166666
1879;16021404000;14868166666;15368166666
1880;16021531000;14868177777;15368177777
1881;16021534000;14868433333;15368433333
1882;16097482000;14868433333;15368433333
1883;16097723000;14868433333;15368433333
1884;16148115000;14909822222;15409822222
1937;16312586000;15076811111;15576811111
2012;16512589000;15368177777;15868177777
2087;16512594000;15659833333;16159833333
2088;16512595000;15659833333;16159833333
2090;16570840000;15660100000;16160100000
2091;16570842000;15660100000;16160100000
2092;16570843000;15660100000;16160100000
2093;16598733000;15701500000;16201500000
2094;16598736000;15701500000;16201500000
2095;16598737000;15701500000;16201500000
2096;16598737000;15701500000;16201500000
2097;16598747000;15701500000;16201500000
2098;16598748000;15701500000;16201500000
2099;16598749000;15701500000;16201500000
2100;16598937000;15701522222;16201522222
2102;16598941000;15701811111;16201811111
2103;16598942000;15701811111;16201811111
2104;16616750000;15743166666;16243166666
2105;16616752000;15743166666;16243166666
2106;16616754000;15743166666;16243166666
2107;16616755000;15743166666;16243166666
2108;16616756000;15743166666;16243166666
2109;16616757000;15743166666;16243166666
2110;16616767000;15743166666;16243166666
2111;16616948000;15743177777;16243177777
2112;16616951000;15743477777;16243477777
2113;16616952000;15743477777;16243477777
2114;16616953000;15743477777;16243477777
2115;16625501000;15784833333;16284833333
2116;16625503000;15784833333;16284833333
2117;16625504000;15784833333;16284833333
2118;16625505000;15784833333;16284833333
2119;16699123000;15784833333;16284833333
2120;16699307000;15784833333;16284833333
2121;16699496000;15784833333;16284833333
2122;16750176000;15784844444;16284844444
2175;16750181000;15993166666;16493166666
2176;16750182000;15993166666;16493166666
2177;16952473000;15993177777;16493177777
2250;17100111000;16284833333;16784833333
2251;17100114000;16284833333;16784833333
2252;17100116000;16284833333;16784833333
2253;17100116000;16284833333;16784833333
2256;17116016000;16285133333;16785133333
2333;17200136000;16576833333;17076833333
2334;17200140000;16576833333;17076833333
2335;17217744000;16618177777;17118177777
2336;17217746000;16618177777;17118177777
2337;17217747000;16618177777;17118177777
2338;17217748000;16618177777;17118177777
2339;17217749000;16618177777;17118177777
2340;17217759000;16618177777;17118177777
2341;17217760000;16618177777;17118177777
2342;17217968000;16618188888;17118188888
2343;17217972000;16618533333;17118533333
2344;17217973000;16618533333;17118533333
2345;17217974000;16618533333;17118533333
2346;17226507000;16659833333;17159833333
2347;17226509000;16659833333;17159833333
2348;17226509000;16659833333;17159833333
2349;17226510000;16659833333;17159833333
2350;17226511000;16659833333;17159833333
2351;17226512000;16659833333;17159833333
2352;17226523000;16659833333;17159833333
2353;17226691000;16659844444;17159844444
2354;17226694000;16660133333;17160133333
2355;17226694000;16660133333;17160133333
2356;17300570000;16660133333;17160133333
2357;17351151000;16701500000;17201500000
2408;17515028000;16868177777;17368177777
2491;17515032000;17201500000;17701500000
2492;17515034000;17201500000;17701500000
2493;17515035000;17201500000;17701500000
2494;17515036000;17201500000;17701500000
2497;17719857000;17201822222;17701822222
2569;17800321000;17493166666;17993166666
2571;17800323000;17493166666;17993166666
2572;17800324000;17493166666;17993166666
2573;17800450000;17493177777;17993177777
2574;17800453000;17493455555;17993455555
2575;17800454000;17493455555;17993455555
2576;17800455000;17493455555;17993455555
2577;17818939000;17534822222;18034822222
2578;17818942000;17534822222;18034822222
2579;17818943000;17534822222;18034822222
2580;17818944000;17534822222;18034822222
2581;17818944000;17534822222;18034822222
2582;17818955000;17534822222;18034822222
2583;17818956000;17534822222;18034822222
2584;17819167000;17534833333;18034833333
2585;17819170000;17535133333;18035133333
2586;17819171000;17535133333;18035133333
2587;17819172000;17535133333;18035133333
2588;17828375000;17576488888;18076488888
2589;17828394000;17576488888;18076488888
2590;17828395000;17576488888;18076488888
2591;17828395000;17576488888;18076488888
2592;17828396000;17576488888;18076488888
2593;17902160000;17576488888;18076488888
2594;17902521000;17576488888;18076488888
2595;17953209000;17576500000;18076500000
2638;17953213000;17743166666;18243166666
2639;18116870000;17743177777;18243177777
2682;18116886000;17909833333;18409833333
2683;18295645000;17909844444;18409844444
2710;18295661000;18034855555;18534855555
2711;18295662000;18034855555;18534855555
2712;18295663000;18034855555;18534855555
2713;18295664000;18034855555;18534855555
2714;18295665000;18034855555;18534855555
2715;18295666000;18034855555;18534855555
2720;18498543000;18076544444;18576544444
2778;18693235000;18284855555;18784855555
2832;18864980000;18493188888;18993188888
2867;18994830000;18618188888;19118188888
2904;19075511000;18743500000;19243500000
2929;19206059000;18868188888;19368188888
2960;19321719000;18951877777;19451877777
2991;19413422000;19076600000;19576600000
3012;19416239000;19159855555;19659855555
3013;19451386000;19159900000;19659900000
3018;19451402000;19201533333;19701533333
3019;19451403000;19201533333;19701533333
3020;19451404000;19201533333;19701533333
3021;19451405000;19201533333;19701533333
3026;19581841000;19201866666;19701866666
3062;19701121000;19368188888;19868188888
3099;19862541000;19493188888;19993188888
3137;19994974000;19618511111;20118511111
3166;20075458000;19743188888;20243188888
3191;20206821000;19826866666;20326866666
3215;20302204000;19951533333;20451533333
3258;20433248000;20076888888;20576888888
3284;20578342000;20201555555;20701555555
3316;20659684000;20326544444;20826544444
3338;20701944000;20409855555;20909855555
3351;20828009000;20451544444;20951544444
3382;20910292000;20576533333;21076533333
3393;20924920000;20618188888;21118188888
3422;21046941000;20701900000;21201900000
3453;21119242000;20826588888;21326588888
3469;21119258000;20909855555;21409855555
3470;21119259000;20909855555;21409855555
3471;21119260000;20909855555;21409855555
3472;21119261000;20909855555;21409855555
3473;21119262000;20909855555;21409855555
3474;21119263000;20909855555;21409855555
3475;21275939000;20909900000;21409900000
3516;21291201000;21076544444;21576544444
3517;21291204000;21076544444;21576544444
3518;21291205000;21076544444;21576544444
3519;21453768000;21076611111;21576611111
3559;21453784000;21243188888;21743188888
3560;21453785000;21243188888;21743188888
3561;21453786000;21243188888;21743188888
3562;21453787000;21243188888;21743188888
3565;21619798000;21243544444;21743544444
3609;21790374000;21410200000;21910200000
3641;21873696000;21535177777;22035177777
3665;21988153000;21618544444;22118544444
3699;22105806000;21784855555;22284855555
3732;22274676000;21909855555;22409855555
3771;22411691000;22034855555;22534855555
3803;22492185000;22159855555;22659855555
3832;22661916000;22284855555;22784855555
3872;22746763000;22410177777;22910177777
3895;22866952000;22493500000;22993500000
3931;22980227000;22659855555;23159855555
3964;23116972000;22784855555;23284855555
3996;23261312000;22909855555;23409855555
4043;23347151000;23076533333;23576533333
4064;23526259000;23159866666;23659866666
4107;23692302000;23326533333;23826533333
4149;23766415000;23451877777;23951877777
4169;23905708000;23535177777;24035177777
4204;23982117000;23660166666;24160166666
4224;24124082000;23743577777;24243577777
4258;24219338000;23868533333;24368533333
4289;24362298000;23993233333;24493233333
4317;24362314000;24118188888;24618188888
4318;24362315000;24118188888;24618188888
4323;24499606000;24118533333;24618533333
4351;24598532000;24243188888;24743188888
4380;24707413000;24326900000;24826900000
4402;24766261000;24410188888;24910188888
4425;24847554000;24534855555;25034855555
4446;24950931000;24576911111;25076911111
4469;25036734000;24701533333;25201533333
4492;25150583000;24784855555;25284855555
4529;25286925000;24909855555;25409855555
4558;25368311000;25034855555;25534855555
4577;25450287000;25076877777;25576877777
4601;25537934000;25201544444;25701544444
4611;2554