seqnum;now;rtptime;deadline
2;11129830000;10416311111;10916311111
5;11211119000;10447500000;10947500000
7;11211126000;10447500000;10947500000
8;11211129000;10447500000;10947500000
10;11211300000;10447522222;10947522222
11;11211306000;10447866666;10947866666
12;11211308000;10447866666;10947866666
13;11211309000;10447866666;10947866666
14;11252509000;10489166666;10989166666
15;11252514000;10489166666;10989166666
16;11252515000;10489166666;10989166666
17;11252517000;10489166666;10989166666
18;11252518000;10489166666;10989166666
19;11252519000;10489166666;10989166666
20;11252521000;10489166666;10989166666
21;11252680000;10489177777;10989177777
22;11252687000;10489555555;10989555555
23;11252689000;10489555555;10989555555
24;11252690000;10489555555;10989555555
25;11293767000;10530822222;11030822222
26;11293772000;10530822222;11030822222
27;11293774000;10530822222;11030822222
28;11429801000;10530822222;11030822222
29;11429807000;10530822222;11030822222
30;11429821000;10530822222;11030822222
31;11429822000;10530822222;11030822222
32;11480316000;10530833333;11030833333
37;11480331000;10572488888;11072488888
38;11480332000;10572488888;11072488888
39;11480333000;10572488888;11072488888
40;11480334000;10572488888;11072488888
42;11521981000;10572488888;11072488888
43;11522219000;10572500000;11072500000
44;11522234000;10572844444;11072844444
47;11563360000;10614166666;11114166666
48;11563372000;10614166666;11114166666
49;11563373000;10614166666;11114166666
50;11563375000;10614166666;11114166666
51;11563375000;10614166666;11114166666
52;11563377000;10614166666;11114166666
53;11563378000;10614166666;11114166666
54;11563490000;10614177777;11114177777
58;11604314000;10655822222;11155822222
59;11604316000;10655822222;11155822222
60;11730136000;10655822222;11155822222
61;11730139000;10655822222;11155822222
62;11730144000;10655822222;11155822222
63;11730158000;10655822222;11155822222
64;11730159000;10655822222;11155822222
65;11780629000;10655833333;11155833333
75;11780645000;10697488888;11197488888
76;11822254000;10697500000;11197500000
77;11822259000;10697844444;11197844444
78;11822260000;10697844444;11197844444
79;11822261000;10697844444;11197844444
80;11863640000;10739166666;11239166666
81;11863643000;10739166666;11239166666
82;11863645000;10739166666;11239166666
83;11863646000;10739166666;11239166666
84;11863647000;10739166666;11239166666
85;11863648000;10739166666;11239166666
86;11863649000;10739166666;11239166666
87;11863853000;10739177777;11239177777
88;11863869000;10739488888;11239488888
89;11863870000;10739488888;11239488888
90;11863871000;10739488888;11239488888
91;11904556000;10780822222;11280822222
92;11904560000;10780822222;11280822222
93;11904561000;10780822222;11280822222
94;11904562000;10780822222;11280822222
95;11904563000;10780822222;11280822222
96;11904564000;10780822222;11280822222
97;12030641000;10780822222;11280822222
98;12080999000;10780833333;11280833333
114;12081007000;10864166666;11364166666
115;12081008000;10864166666;11364166666
116;12081019000;10864166666;11364166666
117;12081020000;10864166666;11364166666
118;12081021000;10864166666;11364166666
119;12081022000;10864166666;11364166666
121;12164459000;10864477777;11364477777
122;12164466000;10864477777;11364477777
123;12164468000;10864477777;11364477777
124;12205151000;10905822222;11405822222
125;12205156000;10905822222;11405822222
126;12205159000;10905822222;11405822222
127;12205161000;10905822222;11405822222
128;12205163000;10905822222;11405822222
129;12205165000;10905822222;11405822222
130;12205167000;10905822222;11405822222
131;12205323000;10905844444;11405844444
132;12205327000;10906133333;11406133333
133;12205330000;10906133333;11406133333
134;12205331000;10906133333;11406133333
135;12244833000;10947488888;11447488888
136;12244836000;10947488888;11447488888
137;12331194000;10947488888;11447488888
138;12331212000;10947488888;11447488888
139;12331219000;10947488888;11447488888
143;12381888000;10947788888;11447788888
157;12464962000;11030833333;11530833333
158;12464972000;11030833333;11530833333
159;12464973000;11030833333;11530833333
160;12464975000;11030833333;11530833333
162;12465005000;11030833333;11530833333
163;12465007000;11030833333;11530833333
164;12465218000;11030855555;11530855555
165;12465226000;11031211111;11531211111
166;12465228000;11031211111;11531211111
167;12465229000;11031211111;11531211111
168;12511518000;11072488888;11572488888
169;12511532000;11072488888;11572488888
170;12511534000;11072488888;11572488888
171;12511536000;11072488888;11572488888
172;12511539000;11072488888;11572488888
173;12511541000;11072488888;11572488888
174;12511543000;11072488888;11572488888
175;12511694000;11072500000;11572500000
176;12511700000;11072800000;11572800000
177;12511703000;11072800000;11572800000
178;12511704000;11072800000;11572800000
179;12549705000;11114166666;11614166666
180;12631601000;11114166666;11614166666
181;12631619000;11114166666;11614166666
182;12631632000;11114166666;11614166666
183;12631644000;11114166666;11614166666
184;12631646000;11114166666;11614166666
185;12631653000;11114166666;11614166666
186;12682246000;11114177777;11614177777
203;12682268000;11197488888;11697488888
204;12682270000;11197488888;11697488888
205;12682271000;11197488888;11697488888
206;12682272000;11197488888;11697488888
207;12682274000;11197488888;11697488888
208;12765431000;11197500000;11697500000
210;12765448000;11197788888;11697788888
211;12765449000;11197788888;11697788888
212;12806040000;11239166666;11739166666
213;12806059000;11239166666;11739166666
214;12806060000;11239166666;11739166666
216;12806062000;11239166666;11739166666
217;12806063000;11239166666;11739166666
218;12806064000;11239166666;11739166666
219;12806206000;11239177777;11739177777
220;12806209000;11239500000;11739500000
221;12806210000;11239500000;11739500000
222;12806212000;11239500000;11739500000
223;12845790000;11280822222;11780822222
224;12845794000;11280822222;11780822222
225;12845795000;11280822222;11780822222
226;12931926000;11280822222;11780822222
227;12931940000;11280822222;11780822222
228;12931949000;11280822222;11780822222
229;12931970000;11280822222;11780822222
230;12982441000;11280833333;11780833333
254;12982457000;11364488888;11864488888
255;12982458000;11364488888;11864488888
257;13106408000;11405833333;11905833333
258;13106420000;11405833333;11905833333
259;13106422000;11405833333;11905833333
260;13106424000;11405833333;11905833333
261;13106425000;11405833333;11905833333
262;13106426000;11405833333;11905833333
263;13106508000;11405855555;11905855555
264;13106511000;11406222222;11906222222
265;13106513000;11406222222;11906222222
266;13106515000;11406222222;11906222222
267;13146069000;11447500000;11947500000
268;13146072000;11447500000;11947500000
269;13146073000;11447500000;11947500000
270;13146074000;11447500000;11947500000
271;13146075000;11447500000;11947500000
272;13146076000;11447500000;11947500000
273;13146077000;11447500000;11947500000
274;13146227000;11447511111;11947511111
275;13232198000;11447800000;11947800000
276;13232214000;11447800000;11947800000
279;13323758000;11489155555;11989155555
306;13406451000;11572488888;12072488888
307;13406602000;11572500000;12072500000
308;13406605000;11572766666;12072766666
309;13406606000;11572766666;12072766666
310;13406607000;11572766666;12072766666
311;13446054000;11614166666;12114166666
312;13446057000;11614166666;12114166666
313;13446058000;11614166666;12114166666
314;13446059000;11614166666;12114166666
315;13446060000;11614166666;12114166666
317;13446061000;11614166666;12114166666
319;13446175000;11614466666;12114466666
320;13446179000;11614466666;12114466666
321;13446180000;11614466666;12114466666
322;13487474000;11655844444;12155844444
326;13487484000;11655844444;12155844444
327;13487486000;11655844444;12155844444
328;13487488000;11655844444;12155844444
329;13487736000;11655855555;12155855555
330;13487754000;11656133333;12156133333
332;13532589000;11656133333;12156133333
333;13582964000;11697488888;12197488888
369;13707409000;11822488888;12322488888
370;13707413000;11822488888;12322488888
371;13707414000;11822488888;12322488888
373;13707575000;11822500000;12322500000
374;13707582000;11822744444;12322744444
375;13707583000;11822744444;12322744444
376;13707584000;11822744444;12322744444
377;13746745000;11864188888;12364188888
378;13746749000;11864188888;12364188888
379;13746750000;11864188888;12364188888
380;13746751000;11864188888;12364188888
381;13746752000;11864188888;12364188888
382;13746752000;11864188888;12364188888
383;13746754000;11864188888;12364188888
384;13746961000;11864200000;12364200000
385;13746976000;11864488888;12364488888
386;13746977000;11864488888;12364488888
387;13746978000;11864488888;12364488888
388;13784277000;11905822222;12405822222
389;13784280000;11905822222;12405822222
390;13784281000;11905822222;12405822222
391;13784282000;11905822222;12405822222
394;13832875000;11905822222;12405822222
395;13883337000;11905833333;12405833333
441;13883353000;12072811111;12572811111
442;13883355000;12072811111;12572811111
444;14084591000;12114177777;12614177777
445;14084594000;12114177777;12614177777
446;14084595000;12114177777;12614177777
447;14084596000;12114177777;12614177777
448;14084597000;12114177777;12614177777
449;14084598000;12114177777;12614177777
450;14084684000;12114188888;12614188888
451;14084691000;12114500000;12614500000
452;14084692000;12114500000;12614500000
453;14084693000;12114500000;12614500000
454;14118730000;12155822222;12655822222
455;14118734000;12155822222;12655822222
456;14118735000;12155822222;12655822222
457;14118736000;12155822222;12655822222
458;14118737000;12155822222;12655822222
459;14118738000;12155822222;12655822222
460;14118739000;12155822222;12655822222
461;14118854000;12155833333;12655833333
462;14118861000;12156100000;12656100000
467;14149158000;12197488888;12697488888
514;14244126000;12364155555;12864155555
515;14244130000;12364155555;12864155555
517;14244244000;12364488888;12864488888
518;14244247000;12364488888;12864488888
519;14244248000;12364488888;12864488888
521;14269808000;12405811111;12905811111
522;14269812000;12405811111;12905811111
523;14269813000;12405811111;12905811111
524;14269814000;12405811111;12905811111
525;14269815000;12405811111;12905811111
526;14269816000;12405811111;12905811111
527;14269918000;12405822222;12905822222
528;14269933000;12406133333;12906133333
529;14269934000;12406133333;12906133333
530;14269935000;12406133333;12906133333
531;14286724000;12447488888;12947488888
532;14286728000;12447488888;12947488888
533;14286729000;12447488888;12947488888
534;14286730000;12447488888;12947488888
535;14286731000;12447488888;12947488888
536;14286732000;12447488888;12947488888
537;14286733000;12447488888;12947488888
538;14483907000;12447500000;12947500000
593;14685944000;12655844444;13155844444
594;14685959000;12656133333;13156133333
595;14685961000;12656133333;13156133333
596;14685961000;12656133333;13156133333
597;14719337000;12697477777;13197477777
598;14719341000;12697477777;13197477777
599;14719342000;12697477777;13197477777
600;14719342000;12697477777;13197477777
601;14719343000;12697477777;13197477777
602;14719344000;12697477777;13197477777
603;14719345000;12697477777;13197477777
604;14719544000;12697488888;13197488888
605;14719559000;12697800000;13197800000
606;14719561000;12697800000;13197800000
607;14719562000;12697800000;13197800000
608;14749015000;12739177777;13239177777
671;14846187000;12947788888;13447788888
672;14846190000;12947788888;13447788888
673;14846191000;12947788888;13447788888
674;14859060000;12989155555;13489155555
675;14859063000;12989155555;13489155555
676;14859064000;12989155555;13489155555
677;14859065000;12989155555;13489155555
678;14859066000;12989155555;13489155555
679;14859067000;12989155555;13489155555
680;14859068000;12989155555;13489155555
681;14859268000;12989166666;13489166666
682;14859283000;12989500000;13489500000
683;14859284000;12989500000;13489500000
684;14859285000;12989500000;13489500000
685;14874155000;13030811111;13530811111
686;14874159000;13030811111;13530811111
688;14874321000;13030811111;13530811111
689;14874324000;13030811111;13530811111
690;14874336000;13030811111;13530811111
691;14874337000;13030811111;13530811111
692;14874539000;13030822222;13530822222
694;14874554000;13031144444;13531144444
695;14874555000;13031144444;13531144444
696;15084901000;13072477777;13572477777
750;15249323000;13239488888;13739488888
751;15286251000;13280811111;13780811111
752;15286254000;13280811111;13780811111
753;15286255000;13280811111;13780811111
755;15286256000;13280811111;13780811111
756;15286257000;13280811111;13780811111
757;15286258000;13280811111;13780811111
758;15286479000;13280822222;13780822222
759;15286495000;13281133333;13781133333
760;15286496000;13281133333;13781133333
761;15286497000;13281133333;13781133333
762;15320445000;13322477777;13822477777
763;15320448000;13322477777;13822477777
764;15320449000;13322477777;13822477777
767;15320450000;13322477777;13822477777
768;15320451000;13322477777;13822477777
769;15320652000;13322488888;13822488888
770;15320667000;13322800000;13822800000
771;15320668000;13322800000;13822800000
772;15320669000;13322800000;13822800000
773;15350129000;13364155555;13864155555
830;15446640000;13572477777;14072477777
831;15446643000;13572477777;14072477777
832;15446644000;13572477777;14072477777
833;15446646000;13572477777;14072477777
834;15446646000;13572477777;14072477777
835;15446845000;13572500000;14072500000
836;15446860000;13572777777;14072777777
837;15446862000;13572777777;14072777777
838;15446863000;13572777777;14072777777
839;15459735000;13614155555;14114155555
840;15459747000;13614155555;14114155555
842;15459748000;13614155555;14114155555
843;15459749000;13614155555;14114155555
844;15459750000;13614155555;14114155555
845;15459751000;13614155555;14114155555
846;15459951000;13614166666;14114166666
847;15459966000;13614488888;14114488888
848;15459968000;13614488888;14114488888
849;15459968000;13614488888;14114488888
850;15475014000;13655811111;14155811111
851;15475018000;13655811111;14155811111
853;15475019000;13655811111;14155811111
854;15635588000;13655811111;14155811111
855;15635590000;13655811111;14155811111
856;15635592000;13655811111;14155811111
857;15686011000;13655822222;14155822222
910;15686015000;13864155555;14364155555
913;15887306000;13864477777;14364477777
914;15887310000;13864477777;14364477777
915;15887311000;13864477777;14364477777
916;15923432000;13905811111;14405811111
917;15923435000;13905811111;14405811111
918;15923436000;13905811111;14405811111
919;15923437000;13905811111;14405811111
920;15923438000;13905811111;14405811111
921;15923439000;13905811111;14405811111
922;15923440000;13905811111;14405811111
923;15923594000;13905822222;14405822222
924;15923600000;13906133333;14406133333
925;15923602000;13906133333;14406133333
926;15923603000;13906133333;14406133333
927;15953007000;13947488888;14447488888
988;16054689000;14155822222;14655822222
989;16054793000;14155833333;14655833333
990;16054799000;14156122222;14656122222
991;16054800000;14156122222;14656122222
993;16066809000;14197477777;14697477777
994;16066812000;14197477777;14697477777
995;16066813000;14197477777;14697477777
996;16066814000;14197477777;14697477777
997;16066815000;14197477777;14697477777
998;16066816000;14197477777;14697477777
1001;16066825000;14197788888;14697788888
1002;16066826000;14197788888;14697788888
1003;16066837000;14197788888;14697788888
1004;16088785000;14239166666;14739166666
1005;16088798000;14239166666;14739166666
1006;16088800000;14239166666;14739166666
1007;16088801000;14239166666;14739166666
1008;16088802000;14239166666;14739166666
1009;16088804000;14239166666;14739166666
1010;16088805000;14239166666;14739166666
1011;16088952000;14239177777;14739177777
1012;16236381000;14239500000;14739500000
1013;16236384000;14239500000;14739500000
1014;16236400000;14239500000;14739500000
1015;16328238000;14280822222;14780822222
1067;16488252000;14447777777;14947777777
1068;16488255000;14447777777;14947777777
1069;16488257000;14447777777;14947777777
1070;16521869000;14489155555;14989155555
1072;16521882000;14489155555;14989155555
1073;16521883000;14489155555;14989155555
1074;16521884000;14489155555;14989155555
1077;16522028000;14489166666;14989166666
1078;16522031000;14489477777;14989477777
1079;16522032000;14489477777;14989477777
1080;16522033000;14489477777;14989477777
1081;16551562000;14530811111;15030811111
1146;16648889000;14739511111;15239511111
1147;16662462000;14780811111;15280811111
1148;16662473000;14780811111;15280811111
1149;16662474000;14780811111;15280811111
1150;16662475000;14780811111;15280811111
1151;16662476000;14780811111;15280811111
1152;16662477000;14780811111;15280811111
1153;16662478000;14780811111;15280811111
1154;16662678000;14780822222;15280822222
1155;16662693000;14781111111;15281111111
1156;16662694000;14781111111;15281111111
1157;16662695000;14781111111;15281111111
1158;16677478000;14822477777;15322477777
1159;16677481000;14822477777;15322477777
1160;16677482000;14822477777;15322477777
1162;16677483000;14822477777;15322477777
1163;16677484000;14822477777;15322477777
1164;16677485000;14822477777;15322477777
1165;16677656000;14822500000;15322500000
1166;16677660000;14822744444;15322744444
1167;16677662000;14822744444;15322744444
1168;16677662000;14822744444;15322744444
1169;16887260000;14864155555;15364155555
1225;17089337000;15072477777;15572477777
1226;17089341000;15072477777;15572477777
1227;17089342000;15072477777;15572477777
1228;17089343000;15072477777;15572477777
1229;17089344000;15072477777;15572477777
1230;17089345000;15072477777;15572477777
1231;17089412000;15072488888;15572488888
1232;17089415000;15072788888;15572788888
1233;17089416000;15072788888;15572788888
1234;17089417000;15072788888;15572788888
1235;17122738000;15114155555;15614155555
1236;17122740000;15114155555;15614155555
1237;17122741000;15114155555;15614155555
1238;17122742000;15114155555;15614155555
1239;17122743000;15114155555;15614155555
1240;17122744000;15114155555;15614155555
1241;17122754000;15114155555;15614155555
1242;17122886000;15114166666;15614166666
1243;17122889000;15114455555;15614455555
1244;17122890000;15114455555;15614455555
1245;17122891000;15114455555;15614455555
1246;17152422000;15155811111;15655811111
1301;17255384000;15364155555;15864155555
1302;17255388000;15364155555;15864155555
1303;17255389000;15364155555;15864155555
1304;17255390000;15364155555;15864155555
1305;17255391000;15364155555;15864155555
1306;17255392000;15364155555;15864155555
1307;17255393000;15364155555;15864155555
1308;17255619000;15364166666;15864166666
1309;17255635000;15364477777;15864477777
1310;17255636000;15364477777;15864477777
1312;17267515000;15405811111;15905811111
1313;17267518000;15405811111;15905811111
1314;17267519000;15405811111;15905811111
1315;17267520000;15405811111;15905811111
1316;17267521000;15405811111;15905811111
1317;17267522000;15405811111;15905811111
1318;17267523000;15405811111;15905811111
1319;17267623000;15405822222;15905822222
1321;17267638000;15406111111;15906111111
1322;17267639000;15406111111;15906111111
1323;17281488000;15447477777;15947477777
1325;17281492000;15447477777;15947477777
1327;17437468000;15447477777;15947477777
1328;17437471000;15447477777;15947477777
1329;17437486000;15447477777;15947477777
1332;17487886000;15447777777;15947777777
1382;17688900000;15655822222;16155822222
1383;17688904000;15655822222;16155822222
1384;17688905000;15655822222;16155822222
1385;17689032000;15655833333;16155833333
1386;17689036000;15656122222;16156122222
1387;17689037000;15656122222;16156122222
1388;17689038000;15656122222;16156122222
1389;17723163000;15697477777;16197477777
1390;17723166000;15697477777;16197477777
1391;17723167000;15697477777;16197477777
1393;17723168000;15697477777;16197477777
1394;17723169000;15697477777;16197477777
1395;17723170000;15697477777;16197477777
1396;17723368000;15697488888;16197488888
1397;17723383000;15697788888;16197788888
1398;17723385000;15697788888;16197788888
1399;17723386000;15697788888;16197788888
1400;17752763000;15739166666;16239166666
1461;17853308000;15947488888;16447488888
1462;17853507000;15947500000;16447500000
1463;17853522000;15947777777;16447777777
1464;17853524000;15947777777;16447777777
1465;17853525000;15947777777;16447777777
1466;17866331000;15989155555;16489155555
1467;17866343000;15989155555;16489155555
1468;17866344000;15989155555;16489155555
1469;17866345000;15989155555;16489155555
1470;17866346000;15989155555;16489155555
1471;17866347000;15989155555;16489155555
1473;17866517000;15989166666;16489166666
1474;17866521000;15989477777;16489477777
1475;17866530000;15989477777;16489477777
1476;17866531000;15989477777;16489477777
1477;17880751000;16030811111;16530811111
1478;17880753000;16030811111;16530811111
1479;17880753000;16030811111;16530811111
1480;17880754000;16030811111;16530811111
1481;17880755000;16030811111;16530811111
1482;17880756000;16030811111;16530811111
1483;17880757000;16030811111;16530811111
1484;18088745000;16030822222;16530822222
1540;18088752000;16239500000;16739500000
1541;18088753000;16239500000;16739500000
1542;18088754000;16239500000;16739500000
1544;18324246000;16280811111;16780811111
1545;18324250000;16280811111;16780811111
1546;18324250000;16280811111;16780811111
1547;18324252000;16280811111;16780811111
1548;18324252000;16280811111;16780811111
1549;18324253000;16280811111;16780811111
1550;18324362000;16280822222;16780822222
1551;18324377000;16281122222;16781122222
1552;18324379000;16281122222;16781122222
1553;18324379000;16281122222;16781122222
1554;18353848000;16322477777;16822477777
1614;18450402000;16530822222;17030822222
1615;18450405000;16530822222;17030822222
1617;18450516000;16531122222;17031122222
1618;18450519000;16531122222;17031122222
1619;18450520000;16531122222;17031122222
1620;18471772000;16572477777;17072477777
1621;18471775000;16572477777;17072477777
1623;18471776000;16572477777;17072477777
1624;18471777000;16572477777;17072477777
1625;18471778000;16572477777;17072477777
1626;18471779000;16572477777;17072477777
1627;18471977000;16572488888;17072488888
1628;18471992000;16572777777;17072777777
1629;18471993000;16572777777;17072777777
1630;18471994000;16572777777;17072777777
1633;18485258000;16614155555;17114155555
1634;18485262000;16614155555;17114155555
1635;18485263000;16614155555;17114155555
1637;18485264000;16614155555;17114155555
1638;18485340000;16614166666;17114166666
1639;18485343000;16614511111;17114511111
1640;18485344000;16614511111;17114511111
1641;18485345000;16614511111;17114511111
1642;18689743000;16655811111;17155811111
1697;18891872000;16864155555;17364155555
1698;18891876000;16864155555;17364155555
1699;18891877000;16864155555;17364155555
1700;18891878000;16864155555;17364155555
1701;18891879000;16864155555;17364155555
1702;18891880000;16864155555;17364155555
1703;18891880000;16864155555;17364155555
1704;18892094000;16864166666;17364166666
1705;18892110000;16864477777;17364477777
1707;18892112000;16864477777;17364477777
1708;18925261000;16905811111;17405811111
1709;18925264000;16905811111;17405811111
1710;18925265000;16905811111;17405811111
1711;18925266000;16905811111;17405811111
1712;18925267000;16905811111;17405811111
1713;18925268000;16905811111;17405811111
1714;18925269000;16905811111;17405811111
1715;18925475000;16905822222;17405822222
1716;18925491000;16906122222;17406122222
1718;18925492000;16906122222;17406122222
1719;18954882000;16947477777;17447477777
1775;19056592000;17155822222;17655822222
1776;19056597000;17155822222;17655822222
1778;19056598000;17155822222;17655822222
1779;19056599000;17155822222;17655822222
1781;19056800000;17155833333;17655833333
1782;19056815000;17156122222;17656122222
1783;19056817000;17156122222;17656122222
1784;19056818000;17156122222;17656122222
1785;19068699000;17197477777;17697477777
1786;19068702000;17197477777;17697477777
1787;19068704000;17197477777;17697477777
1788;19068705000;17197477777;17697477777
1789;19068706000;17197477777;17697477777
1790;19068707000;17197477777;17697477777
1792;19068927000;17197488888;17697488888
1793;19068942000;17197788888;17697788888
1794;19068944000;17197788888;17697788888
1795;19068945000;17197788888;17697788888
1796;19083035000;17239155555;17739155555
1797;19083037000;17239155555;17739155555
1798;19083038000;17239155555;17739155555
1799;19083039000;17239155555;17739155555
1800;19240410000;17239155555;17739155555
1801;19240413000;17239155555;17739155555
1802;19240417000;17239155555;17739155555
1803;19290838000;17239166666;17739166666
1855;19290844000;17447488888;17947488888
1856;19290845000;17447488888;17947488888
1857;19290846000;17447488888;17947488888
1858;19494175000;17447511111;17947511111
1859;19494199000;17447788888;17947788888
1860;19494200000;17447788888;17947788888
1861;19494201000;17447788888;17947788888
1862;19527442000;17489166666;17989166666
1863;19527445000;17489166666;17989166666
1864;19527446000;17489166666;17989166666
1865;19527447000;17489166666;17989166666
1866;19527448000;17489166666;17989166666
1867;19527449000;17489166666;17989166666
1868;19527450000;17489166666;17989166666
1869;19527655000;17489177777;17989177777
1870;19527671000;17489466666;17989466666
1871;19527672000;17489466666;17989466666
1876;19556919000;17530822222;18030822222
1934;19653053000;17739166666;18239166666
1935;19653271000;17739177777;18239177777
1936;19653286000;17739466666;18239466666
1937;19653287000;17739466666;18239466666
1938;19653288000;17739466666;18239466666
1939;19665973000;17780811111;18280811111
1941;19665977000;17780811111;18280811111
1942;19665978000;17780811111;18280811111
1943;19665979000;17780811111;18280811111
1944;19665980000;17780811111;18280811111
1945;19665981000;17780811111;18280811111
1946;19666160000;17780822222;18280822222
1947;19666175000;17781100000;18281100000
1948;19666176000;17781100000;18281100000
1949;19666177000;17781100000;18281100000
1950;19681139000;17822488888;18322488888
1951;19681143000;17822488888;18322488888
1952;19681144000;17822488888;18322488888
1953;19681145000;17822488888;18322488888
1954;19681146000;17822488888;18322488888
1955;19681146000;17822488888;18322488888
1956;19681147000;17822488888;18322488888
1957;19681346000;17822500000;18322500000
1958;19841004000;17822744444;18322744444
1959;19841007000;17822744444;18322744444
1963;19932987000;17864177777;18364177777
2014;20092436000;18031122222;18531122222
2015;20092440000;18031122222;18531122222
2016;20126638000;18072477777;18572477777
2017;20126641000;18072477777;18572477777
2018;20126642000;18072477777;18572477777
2019;20126643000;18072477777;18572477777
2020;20126644000;18072477777;18572477777
2021;20126645000;18072477777;18572477777
2022;20126646000;18072477777;18572477777
2023;20126851000;18072488888;18572488888
2024;20126866000;18072800000;18572800000
2025;20126867000;18072800000;18572800000
2026;20126868000;18072800000;18572800000
2027;20156301000;18114155555;18614155555
2093;20280917000;18364166666;18864166666
2095;20280921000;18364166666;18864166666
2096;20280922000;18364166666;18864166666
2097;20280923000;18364166666;18864166666
2098;20280924000;18364166666;18864166666
2099;20280925000;18364166666;18864166666
2100;20281140000;18364177777;18864177777
2101;20281156000;18364477777;18864477777
2102;20281157000;18364477777;18864477777
2103;20281158000;18364477777;18864477777
2104;20292521000;18405811111;18905811111
2105;20292524000;18405811111;18905811111
2106;20292525000;18405811111;18905811111
2107;20292526000;18405811111;18905811111
2108;20292527000;18405811111;18905811111
2109;20292528000;18405811111;18905811111
2110;20292529000;18405811111;18905811111
2111;20292747000;18405822222;18905822222
2113;20292763000;18406133333;18906133333
2114;20292764000;18406133333;18906133333
2115;20304609000;18447477777;18947477777
2116;20441543000;18447477777;18947477777
2117;20441552000;18447477777;18947477777
2118;20441566000;18447477777;18947477777
2119;20441567000;18447477777;18947477777
2120;20441582000;18447477777;18947477777
2121;20441589000;18447477777;18947477777
2122;20492108000;18447500000;18947500000
2167;20492124000;18614488888;19114488888
2168;20492125000;18614488888;19114488888
2169;20492126000;18614488888;19114488888
2170;20694076000;18655822222;19155822222
2171;20694080000;18655822222;19155822222
2172;20694081000;18655822222;19155822222
2173;20694082000;18655822222;19155822222
2175;20694083000;18655822222;19155822222
2176;20694084000;18655822222;19155822222
2179;20694170000;18656155555;19156155555
2180;20694174000;18656155555;19156155555
2181;20729445000;18697488888;19197488888
2182;20729449000;18697488888;19197488888
2183;20729450000;18697488888;19197488888
2184;20729451000;18697488888;19197488888
2185;20729452000;18697488888;19197488888
2186;20729453000;18697488888;19197488888
2189;20729539000;18697822222;19197822222
2190;20729551000;18697822222;19197822222
2191;20729552000;18697822222;19197822222
2192;20762291000;18739177777;19239177777
2245;20842549000;18906166666;19406166666
2246;20842552000;18906166666;19406166666
2247;20857061000;18947488888;19447488888
2248;20857074000;18947488888;19447488888
2249;20857075000;18947488888;19447488888
2250;20857076000;18947488888;19447488888
2251;20857077000;18947488888;19447488888
2254;20857276000;18947500000;19447500000
2255;20857292000;18947788888;19447788888
2256;20857293000;18947788888;19447788888
2258;20869948000;18989155555;19489155555
2259;20869951000;18989155555;19489155555
2260;20869952000;18989155555;19489155555
2261;20869953000;18989155555;19489155555
2262;20869954000;18989155555;19489155555
2263;20869955000;18989155555;19489155555
2264;20869956000;18989155555;19489155555
2265;20870083000;18989166666;19489166666
2269;20892301000;19030811111;19530811111
2270;20892303000;19030811111;19530811111
2271;20892304000;19030811111;19530811111
2272;20892305000;19030811111;19530811111
2273;21042095000;19030811111;19530811111
2274;21042126000;19030811111;19530811111
2275;21042135000;19030811111;19530811111
2276;21092610000;19030822222;19530822222
2328;21092625000;19239166666;19739166666
2329;21092626000;19239166666;19739166666
2330;21092627000;19239166666;19739166666
2331;21294702000;19239177777;19739177777
2332;21294708000;19239488888;19739488888
2333;21294709000;19239488888;19739488888
2334;21294710000;19239488888;19739488888
2335;21328004000;19280811111;19780811111
2336;21328007000;19280811111;19780811111
2337;21328008000;19280811111;19780811111
2338;21328009000;19280811111;19780811111
2339;21328010000;19280811111;19780811111
2340;21328011000;19280811111;19780811111
2341;21328012000;19280811111;19780811111
2342;21328167000;19280822222;19780822222
2343;21328173000;19281133333;19781133333
2344;21328174000;19281133333;19781133333
2345;21328175000;19281133333;19781133333
2346;21357620000;19322477777;19822477777
2405;21461990000;19530822222;20030822222
2407;21461994000;19530822222;20030822222
2408;21462200000;19530833333;20030833333
2409;21462215000;19531111111;20031111111
2410;21462216000;19531111111;20031111111
2411;21462217000;19531111111;20031111111
2412;21473563000;19572477777;20072477777
2413;21473567000;19572477777;20072477777
2414;21473568000;19572477777;20072477777
2415;21473569000;19572477777;20072477777
2416;21473570000;19572477777;20072477777
2417;21473570000;19572477777;20072477777
2418;21473571000;19572477777;20072477777
2419;21473742000;19572488888;20072488888
2420;21473746000;19572777777;20072777777
2421;21473747000;19572777777;20072777777
2422;21473748000;19572777777;20072777777
2423;21487544000;19614155555;20114155555
2426;21487547000;19614155555;20114155555
2427;21487549000;19614155555;20114155555
2428;21487550000;19614155555;20114155555
2429;21487551000;19614155555;20114155555
2433;21693069000;19614477777;20114477777
2483;21894831000;19822488888;20322488888
2484;21894835000;19822488888;20322488888
2485;21894954000;19822511111;20322511111
2486;21894969000;19822777777;20322777777
2487;21894970000;19822777777;20322777777
2488;21894971000;19822777777;20322777777
2490;21929101000;19864166666;20364166666
2491;21929104000;19864166666;20364166666
2492;21929106000;19864166666;20364166666
2493;21929106000;19864166666;20364166666
2494;21929107000;19864166666;20364166666
2495;21929108000;19864166666;20364166666
2497;21929119000;19864488888;20364488888
2498;21929120000;19864488888;20364488888
2501;21961060000;19905811111;20405811111
2561;22057110000;20114166666;20614166666
2565;22057223000;20114466666;20614466666
2566;22078819000;20155822222;20655822222
2567;22078823000;20155822222;20655822222
2568;22078824000;20155822222;20655822222
2569;22078825000;20155822222;20655822222
2570;22078826000;20155822222;20655822222
2571;22078827000;20155822222;20655822222
2572;22078828000;20155822222;20655822222
2573;22079027000;20155833333;20655833333
2574;22079050000;20156111111;20656111111
2576;22079052000;20156111111;20656111111
2577;22091642000;20197477777;20697477777
2578;22091645000;20197477777;20697477777
2579;22091654000;20197477777;20697477777
2580;22091655000;20197477777;20697477777
2581;22091656000;20197477777;20697477777
2582;22091657000;20197477777;20697477777
2583;22091658000;20197477777;20697477777
2584;22091796000;20197488888;20697488888
2585;22091798000;20197788888;20697788888
2587;22091799000;20197788888;20697788888
2588;22293536000;20239166666;20739166666
2644;22495733000;20447488888;20947488888
2645;22495736000;20447488888;20947488888
2646;22495737000;20447488888;20947488888
2647;22495738000;20447488888;20947488888
2648;22495739000;20447488888;20947488888
2650;22495937000;20447500000;20947500000
2651;22495953000;20447766666;20947766666
2652;22495954000;20447766666;20947766666
2653;22495955000;20447766666;20947766666
2654;22529119000;20489155555;20989155555
2655;22529122000;20489155555;20989155555
2656;22529123000;20489155555;20989155555
2657;22529125000;20489155555;20989155555
2658;22529126000;20489155555;20989155555
2659;22529127000;20489155555;20989155555
2660;22529127000;20489155555;20989155555
2661;22529326000;20489166666;20989166666
2662;22529341000;20489466666;20989466666
2663;22529343000;20489466666;20989466666
2664;22529344000;20489466666;20989466666
2665;22558691000;20530811111;21030811111
2723;22659381000;20739177777;21239177777
2724;22659384000;20739177777;21239177777
2725;22659385000;20739177777;21239177777
2726;22659387000;20739177777;21239177777
2727;22659585000;20739211111;21239211111
2728;22659600000;20739522222;21239522222
2729;22659602000;20739522222;21239522222
2730;22659603000;20739522222;21239522222
2731;22671661000;20780811111;21280811111
2732;22671664000;20780811111;21280811111
2733;22671666000;20780811111;21280811111
2734;22671666000;20780811111;21280811111
2735;22671667000;20780811111;21280811111
2736;22671668000;20780811111;21280811111
2737;22671669000;20780811111;21280811111
2738;22671850000;20780822222;21280822222
2739;22671854000;20781100000;21281100000
2740;22671855000;20781100000;21281100000
2741;22671856000;20781100000;21281100000
2742;22686278000;20822477777;21322477777
2743;22686281000;20822477777;21322477777
2744;22686283000;20822477777;21322477777
2745;22686284000;20822477777;21322477777
2746;22843767000;20822477777;21322477777
2747;22843776000;20822477777;21322477777
2748;22843786000;20822477777;21322477777
2749;22894183000;20822488888;21322488888
2800;22894188000;21030822222;21530822222
2801;22894189000;21030822222;21530822222
2802;22894190000;21030822222;21530822222
2803;22894191000;21030822222;21530822222
2804;23096346000;21030844444;21530844444
2805;23096352000;21031133333;21531133333
2806;23096354000;21031133333;21531133333
2807;23096354000;21031133333;21531133333
2808;23129662000;21072477777;21572477777
2809;23129665000;21072477777;21572477777
2810;23129666000;21072477777;21572477777
2811;23129667000;21072477777;21572477777
2812;23129668000;21072477777;21572477777
2813;23129669000;21072477777;21572477777
2814;23129670000;21072477777;21572477777
2815;23129824000;21072488888;21572488888
2816;23129830000;21072777777;21572777777
2817;23129831000;21072777777;21572777777
2818;23129832000;21072777777;21572777777
2819;23159295000;21114155555;21614155555
2873;23245963000;21281111111;21781111111
2874;23259504000;21322488888;21822488888
2875;23259507000;21322488888;21822488888
2876;23259508000;21322488888;21822488888
2878;23259509000;21322488888;21822488888
2881;23259708000;21322500000;21822500000
2882;23259724000;21322766666;21822766666
2883;23259725000;21322766666;21822766666
2884;23259726000;21322766666;21822766666
2885;23272255000;21364166666;21864166666
2887;23272259000;21364166666;21864166666
2888;23272260000;21364166666;21864166666
2889;23272261000;21364166666;21864166666
2890;23272262000;21364166666;21864166666
2891;23272263000;21364166666;21864166666
2893;23272373000;21364477777;21864477777
2894;23272376000;21364477777;21864477777
2895;23272377000;21364477777;21864477777
2896;23294690000;21405811111;21905811111
2897;23294694000;21405811111;21905811111
2898;23294695000;21405811111;21905811111
2901;23294696000;21405811111;21905811111
2902;23444375000;21405811111;21905811111
2903;23494855000;21405822222;21905822222
2955;23494870000;21614166666;22114166666
2957;23696036000;21614166666;22114166666
2959;23696164000;21614455555;22114455555
2961;23696167000;21614455555;22114455555
2962;23732294000;21655833333;22155833333
2963;23732297000;21655833333;22155833333
2964;23732298000;21655833333;22155833333
2965;23732299000;21655833333;22155833333
2966;23732300000;21655833333;22155833333
2967;23732301000;21655833333;22155833333
2968;23732302000;21655833333;22155833333
2969;23732517000;21655844444;22155844444
2970;23732532000;21656122222;22156122222
2971;23732533000;21656122222;22156122222
2972;23732534000;21656122222;22156122222
2975;23761674000;21697477777;22197477777
3036;23865322000;21906100000;22406100000
3037;23865326000;21906100000;22406100000
3038;23865327000;21906100000;22406100000
3039;23876676000;21947488888;22447488888
3040;23876680000;21947488888;22447488888
3041;23876681000;21947488888;22447488888
3042;23876682000;21947488888;22447488888
3043;23876683000;21947488888;22447488888
3044;23876684000;21947488888;22447488888
3045;23876685000;21947488888;22447488888
3046;23876885000;21947500000;22447500000
3047;23876900000;21947766666;22447766666
3048;23876901000;21947766666;22447766666
3049;23876902000;21947766666;22447766666
3050;23890438000;21989155555;22489155555
3051;23890441000;21989155555;22489155555
3052;23890442000;21989155555;22489155555
3053;23890443000;21989155555;22489155555
3056;23890445000;21989155555;22489155555
3057;23890637000;21989166666;22489166666
3058;23890641000;21989455555;22489455555
3059;23890642000;21989455555;22489455555
3060;24045065000;21989455555;22489455555
3061;24095386000;22030811111;22530811111
3114;24259887000;22197788888;22697788888
3115;24259891000;22197788888;22697788888
3116;24297800000;22239166666;22739166666
3117;24297804000;22239166666;22739166666
3118;24297805000;22239166666;22739166666
3119;24297806000;22239166666;22739166666
3120;24297808000;22239166666;22739166666
3121;24297809000;22239166666;22739166666
3122;24297810000;22239166666;22739166666
3123;24297964000;22239177777;22739177777
3124;24297970000;22239477777;22739477777
3125;24297971000;22239477777;22739477777
3126;24297973000;22239477777;22739477777
3127;24331972000;22280811111;22780811111
3128;24331975000;22280811111;22780811111
3129;24331976000;22280811111;22780811111
3130;24331978000;22280811111;22780811111
3131;24331979000;22280811111;22780811111
3133;24332129000;22280811111;22780811111
3134;24332286000;22280822222;22780822222
3135;24332292000;22281100000;22781100000
3136;24332294000;22281100000;22781100000
3139;24361488000;22322477777;22822477777
3192;24443333000;22489477777;22989477777
3193;24457494000;22530822222;23030822222
3194;24457497000;22530822222;23030822222
3195;24457498000;22530822222;23030822222
3196;24457499000;22530822222;23030822222
3197;24457500000;22530822222;23030822222
3198;24457501000;22530822222;23030822222
3199;24457502000;22530822222;23030822222
3200;24457700000;22530833333;23030833333
3201;24457715000;22531100000;23031100000
3202;24457716000;22531100000;23031100000
3203;24457717000;22531100000;23031100000
3204;24470910000;22572477777;23072477777
3205;24470923000;22572477777;23072477777
3206;24470924000;22572477777;23072477777
3207;24470925000;22572477777;23072477777
3208;24470926000;22572477777;23072477777
3211;24471105000;22572488888;23072488888
3212;24471109000;22572766666;23072766666
3213;24471110000;22572766666;23072766666
3215;24486144000;22614166666;23114166666
3216;24486146000;22614166666;23114166666
3217;24486147000;22614166666;23114166666
3218;24645697000;22614166666;23114166666
3219;24645706000;22614166666;23114166666
3221;24645746000;22614166666;23114166666
3222;24696206000;22614188888;23114188888
3273;24696221000;22822488888;23322488888
3274;24696222000;22822488888;23322488888
3275;24696223000;22822488888;23322488888
3276;24696224000;22822488888;23322488888
3277;24898308000;22822500000;23322500000
3278;24898323000;22822744444;23322744444
3279;24898325000;22822744444;23322744444
3280;24898326000;22822744444;23322744444
3282;24932096000;22864166666;23364166666
3283;24932108000;22864166666;23364166666
3284;24932110000;22864166666;23364166666
3285;24932111000;22864166666;23364166666
3286;24932112000;22864166666;23364166666
3287;24932113000;22864166666;23364166666
3288;24932233000;22864177777;23364177777
3289;24932249000;22864466666;23364466666
3290;24932250000;22864466666;23364466666
3291;24932251000;22864466666;23364466666
3292;24961201000;22905811111;23405811111
3349;25058646000;23114166666;23614166666
3350;25058649000;23114166666;23614166666
3351;25058650000;23114166666;23614166666
3352;25058651000;23114166666;23614166666
3353;25058652000;23114166666;23614166666
3354;25058812000;23114177777;23614177777
3355;25058814000;23114455555;23614455555
3356;25058815000;23114455555;23614455555
3358;25072608000;23155822222;23655822222
3359;25072611000;23155822222;23655822222
3360;25072612000;23155822222;23655822222
3361;25072613000;23155822222;23655822222
3362;25072614000;23155822222;23655822222
3363;25072615000;23155822222;23655822222
3364;25072616000;23155822222;23655822222
3365;25072735000;23155833333;23655833333
3366;25072750000;23156100000;23656100000
3367;25072751000;23156100000;23656100000
3370;25087372000;23197477777;23697477777
3371;25087375000;23197477777;23697477777
3372;25087376000;23197477777;23697477777
3374;25087378000;23197477777;23697477777
3375;25087379000;23197477777;23697477777
3376;25296655000;23197500000;23697500000
3426;25296659000;23405822222;23905822222
3428;25498933000;23405822222;23905822222
3429;25498945000;23405822222;23905822222
3430;25498946000;23405822222;23905822222
3431;25499152000;23405844444;23905844444
3432;25499167000;23406122222;23906122222
3434;25499168000;23406122222;23906122222
3435;25533194000;23447500000;23947500000
3436;25533197000;23447500000;23947500000
3437;25533198000;23447500000;23947500000
3438;25533199000;23447500000;23947500000
3439;25533200000;23447500000;23947500000
3440;25533201000;23447500000;23947500000
3441;25533202000;23447500000;23947500000
3442;25533372000;23447511111;23947511111
3443;25533377000;23447788888;23947788888
3444;25533378000;23447788888;23947788888
3452;25562642000;23489155555;23989155555
3511;25659579000;23697788888;24197788888
3512;25672392000;23739166666;24239166666
3513;25672405000;23739166666;24239166666
3514;25672406000;23739166666;24239166666
3515;25672407000;23739166666;24239166666
3516;25672408000;23739166666;24239166666
3518;25672409000;23739166666;24239166666
3519;25672608000;23739177777;24239177777
3520;25672623000;23739466666;24239466666
3521;25672624000;23739466666;24239466666
3522;25672625000;23739466666;24239466666
3523;25687384000;23780811111;24280811111
3524;25687388000;23780811111;24280811111
3525;25687389000;23780811111;24280811111
3526;25687390000;23780811111;24280811111
3527;25687391000;23780811111;24280811111
3528;25687392000;23780811111;24280811111
3529;25687392000;23780811111;24280811111
3530;25687591000;23780833333;24280833333
3531;25687606000;23781111111;24281111111
3532;25687608000;23781111111;24281111111
3533;25687609000;23781111111;24281111111
3534;25897257000;23822488888;24322488888
3586;26061736000;23989477777;24489477777
3587;26061740000;23989477777;24489477777
3588;26061741000;23989477777;24489477777
3589;26098650000;24030822222;24530822222
3590;26098654000;24030822222;24530822222
3591;26098655000;24030822222;24530822222
3592;26098655000;24030822222;24530822222
3593;26098656000;24030822222;24530822222
3594;26098657000;24030822222;24530822222
3595;26098658000;24030822222;24530822222
3596;26098856000;24030833333;24530833333
3597;26098872000;24031122222;24531122222
3598;26098873000;24031122222;24531122222
3599;26098874000;24031122222;24531122222
3600;26132872000;24072477777;24572477777
3604;26133203000;24072477777;24572477777
3605;26133206000;24072477777;24572477777
3607;26133417000;24072488888;24572488888
3608;26133432000;24072788888;24572788888
3609;26133433000;24072788888;24572788888
3610;26133434000;24072788888;24572788888
3611;26162471000;24114155555;24614155555
3669;26266872000;24322488888;24822488888
3670;26266875000;24322488888;24822488888
3671;26266876000;24322488888;24822488888
3672;26266893000;24322488888;24822488888
3673;26267029000;24322500000;24822500000
3674;26267032000;24322766666;24822766666
3675;26267033000;24322766666;24822766666
3677;26278659000;24364166666;24864166666
3678;26278661000;24364166666;24864166666
3679;26278662000;24364166666;24864166666
3680;26278663000;24364166666;24864166666
3681;26278664000;24364166666;24864166666
3682;26278665000;24364166666;24864166666
3683;26278666000;24364166666;24864166666
3684;26278760000;24364177777;24864177777
3685;26278763000;24364477777;24864477777
3686;26278764000;24364477777;24864477777
3687;26278765000;24364477777;24864477777
3688;26292523000;24405811111;24905811111
3689;26292526000;24405811111;24905811111
3690;26292527000;24405811111;24905811111
3691;26292528000;24405811111;24905811111
3692;26447573000;24405811111;24905811111
3693;26447585000;24405811111;24905811111
3694;26447594000;24405811111;24905811111
3697;26498007000;24406100000;24906100000
3747;26699864000;24614166666;25114166666
3748;26699868000;24614166666;25114166666
3749;26699869000;24614166666;25114166666
3750;26700068000;24614177777;25114177777
3751;26700074000;24614466666;25114466666
3753;26700075000;24614466666;25114466666
3754;26733272000;24655833333;25155833333
3755;26733276000;24655833333;25155833333
3756;26733277000;24655833333;25155833333
3757;26733278000;24655833333;25155833333
3758;26733279000;24655833333;25155833333
3759;26733280000;24655833333;25155833333
3760;26733281000;24655833333;25155833333
3761;26733481000;24655844444;25155844444
3762;26733496000;24656122222;25156122222
3763;26733497000;24656122222;25156122222
3764;26733498000;24656122222;25156122222
3768;26762773000;24697477777;25197477777
3824;26864383000;24905788888;25405788888
3825;26864386000;24905788888;25405788888
3826;26864387000;24905788888;25405788888
3827;26864585000;24905800000;25405800000
3828;26864601000;24906055555;25406055555
3829;26864602000;24906055555;25406055555
3830;26864603000;24906055555;25406055555
3831;26877958000;24947488888;25447488888
3832;26877971000;24947488888;25447488888
3833;26877972000;24947488888;25447488888
3834;26877973000;24947488888;25447488888
3835;26877974000;24947488888;25447488888
3837;26877975000;24947488888;25447488888
3838;26878144000;24947500000;25447500000
3840;26878149000;24947766666;25447766666
3841;26878150000;24947766666;25447766666
3842;26892082000;24989155555;25489155555
3843;26892085000;24989155555;25489155555
3844;26892086000;24989155555;25489155555
3845;26892087000;24989155555;25489155555
3846;26892088000;24989155555;25489155555
3847;26892089000;24989155555;25489155555
3852;27098775000;24989466666;25489466666
3906;27300567000;25197766666;25697766666
3907;27300571000;25197766666;25697766666
3908;27333994000;25239166666;25739166666
3909;27333998000;25239166666;25739166666
3910;27333999000;25239166666;25739166666
3911;27334000000;25239166666;25739166666
3912;27334001000;25239166666;25739166666
3913;27334002000;25239166666;25739166666
3914;27334003000;25239166666;25739166666
3915;27334184000;25239177777;25739177777
3916;27334190000;25239466666;25739466666
3917;27334191000;25239466666;25739466666
3918;27334192000;25239466666;25739466666
3919;27363611000;25280811111;25780811111
3985;27479357000;25530822222;26030822222
3986;27479360000;25530822222;26030822222
3987;27479361000;25530822222;26030822222
3988;27479362000;25530822222;26030822222
3989;27479363000;25530822222;26030822222
3991;27479365000;25530822222;26030822222
3992;27479563000;25530833333;26030833333
3993;27479578000;25531100000;26031100000
3994;27479579000;25531100000;26031100000
3995;27479580000;25531100000;26031100000
3996;27492960000;25572477777;26072477777
3997;27492963000;25572477777;26072477777
3998;27492964000;25572477777;26072477777
3999;27492965000;25572477777;26072477777
4000;27492966000;25572477777;26072477777
4001;27492967000;25572477777;26072477777
4002;27492968000;25572477777;26072477777
4003;27493168000;25572488888;26072488888
4004;27493183000;25572766666;26072766666
4005;27493184000;25572766666;26072766666
4006;27493185000;25572766666;26072766666
4007;27699708000;25614155555;26114155555
4059;27864137000;25781111111;26281111111
4060;27864141000;25781111111;26281111111
4062;27901119000;25822488888;26322488888
4063;27901123000;25822488888;26322488888
4064;27901124000;25822488888;26322488888
4065;27901125000;25822488888;26322488888
4066;27901126000;25822488888;26322488888
4067;27901127000;25822488888;26322488888
4068;27901128000;25822488888;26322488888
4069;27901211000;25822500000;26322500000
4070;27901217000;25822744444;26322744444
4071;27901218000;25822744444;26322744444
4072;27901219000;25822744444;26322744444
4073;27935308000;25864166666;26364166666
4074;27935311000;25864166666;26364166666
4076;27935312000;25864166666;26364166666
4077;27935313000;25864166666;26364166666
4078;27935315000;25864166666;26364166666
4081;27935397000;25864477777;26364477777
4082;27935400000;25864477777;26364477777
4083;27935401000;25864477777;26364477777
4084;27968256000;25905811111;26405811111
4135;28054022000;26072500000;26572500000
4136;28054037000;26072788888;26572788888
4139;28067283000;26114166666;26614166666
4140;28067286000;26114166666;26614166666
4142;28067287000;26114166666;26614166666
4144;28067288000;26114166666;26614166666
4145;28067289000;26114166666;26614166666
4146;28067408000;26114177777;26614177777
4147;28067423000;26114455555;26614455555
4148;28067424000;26114455555;26614455555
4149;28067425000;26114455555;26614455555
4150;28079554000;26155822222;26655822222
4151;28079557000;26155822222;26655822222
4152;28079558000;26155822222;26655822222
4153;28079559000;26155822222;26655822222
4156;28079560000;26155822222;26655822222
4157;28079730000;26155833333;26655833333
4158;28079735000;26156100000;26656100000
4159;28079736000;26156100000;26656100000
4161;28093871000;26197477777;26697477777
4162;28093874000;26197477777;26697477777
4163;28093875000;26197477777;26697477777
4164;28250462000;26197477777;26697477777
4165;28250470000;26197477777;26697477777
4166;28250483000;26197477777;26697477777
4171;28301157000;26197777777;26697777777
4219;28504028000;26405822222;26905822222
4220;28504032000;26405822222;26905822222
4221;28504033000;26405822222;26905822222
4222;28504034000;26405822222;26905822222
4223;28504242000;26405833333;26905833333
4224;28504257000;26406122222;26906122222
4225;28504258000;26406122222;26906122222
4226;28504259000;26406122222;26906122222
4227;28537420000;26447488888;26947488888
4228;28537423000;26447488888;26947488888
4229;28537424000;26447488888;26947488888
4230;28537425000;26447488888;26947488888
4231;28537426000;26447488888;26947488888
4232;28537427000;26447488888;26947488888
4234;28537598000;26447500000;26947500000
4235;28537602000;26447777777;26947777777
4236;28537603000;26447777777;26947777777
4239;28566863000;26489155555;26989155555
4295;28663187000;26697488888;27197488888
4296;28663190000;26697488888;27197488888
4297;28663191000;26697488888;27197488888
4298;28663192000;26697488888;27197488888
4299;28663194000;26697488888;27197488888
4300;28663392000;26697500000;27197500000
4302;28663407000;26697800000;27197800000
4303;28663408000;26697800000;27197800000
4304;28676190000;26739166666;27239166666
4305;28676193000;26739166666;27239166666
4306;28676194000;26739166666;27239166666
4308;28676195000;26739166666;27239166666
4309;28676196000;26739166666;27239166666
4310;28676197000;26739166666;27239166666
4311;28676396000;26739177777;27239177777
4312;28676411000;26739477777;27239477777
4313;28676412000;26739477777;27239477777
4314;28676413000;26739477777;27239477777
4315;28691375000;26780811111;27280811111
4317;28691378000;26780811111;27280811111
4319;28691379000;26780811111;27280811111
4320;28691380000;26780811111;27280811111
4323;28902110000;26781122222;27281122222
4372;29103973000;26989166666;27489166666
4373;29103977000;26989166666;27489166666
4374;29103978000;26989166666;27489166666
4375;29103979000;26989166666;27489166666
4376;29103980000;26989166666;27489166666
4377;29104134000;26989177777;27489177777
4378;29104140000;26989477777;27489477777
4379;29104141000;26989477777;27489477777
4380;29104142000;26989477777;27489477777
4381;29137341000;27030800000;27530800000
4385;29137481000;27030800000;27530800000
4386;29137500000;27030800000;27530800000
4389;29137584000;27031288888;27531288888
4390;29137588000;27031288888;27531288888
4391;29137589000;27031288888;27531288888
4392;29170277000;27072488888;27572488888
4448;29269543000;27280822222;27780822222
4449;29269546000;27280822222;27780822222
4450;29269547000;27280822222;27780822222
4455;29269657000;27281133333;27781133333
4456;29269661000;27281133333;27781133333
4458;29290126000;27322488888;27822488888
4459;29290130000;27322488888;27822488888
4460;29290131000;27322488888;27822488888
4461;29290132000;27322488888;27822488888
4462;29290133000;27322488888;27822488888
4463;29290133000;27322488888;27822488888
4464;29290134000;27322488888;27822488888
4465;29290253000;27322500000;27822500000
4466;29290268000;27322777777;27822777777
4467;29290269000;27322777777;27822777777
4468;29290270000;27322777777;27822777777
4470;29302486000;27364166666;27864166666
4471;29302489000;27364166666;27864166666
4472;29302490000;27364166666;27864166666
4473;29302491000;27364166666;27864166666
4475;29302493000;27364166666;27864166666
4476;29302602000;27364177777;27864177777
4478;29302608000;27364511111;27864511111
4479;29452734000;27364511111;27864511111
4480;29503087000;27405811111;27905811111
4533;29667951000;27572777777;28072777777
4534;29667955000;27572777777;28072777777
4535;29704907000;27614166666;28114166666
4536;29704910000;27614166666;28114166666
4537;29704911000;27614166666;28114166666
4538;29704912000;27614166666;28114166666
4540;29705070000;27614166666;28114166666
4541;29705072000;27614166666;28114166666
4542;29705274000;27614177777;28114177777
4543;29705289000;27614455555;28114455555
4544;29705290000;27614455555;28114455555
4545;29705291000;27614455555;28114455555
4548;29739172000;27655822222;28155822222
4549;29739176000;27655822222;28155822222
4550;29739177000;27655822222;28155822222
4551;29739178000;27655822222;28155822222
4552;29739179000;27655822222;28155822222
4553;29739299000;27655833333;28155833333
4554;29739314000;27656100000;28156100000
4555;29739316000;27656100000;28156100000
4556;29739316000;27656100000;28156100000
4557;29768651000;27697477777;28197477777
4610;29858020000;27864466666;28364466666
4611;29858024000;27864466666;28364466666
4613;29879230000;27905822222;28405822222
4614;29879233000;27905822222;28405822222
4615;29879234000;27905822222;28405822222
4616;29879235000;27905822222;28405822222
4617;29879236000;27905822222;28405822222
4618;29879237000;27905822222;28405822222
4619;29879355000;27905844444;28405844444
4620;29879371000;27906111111;28406111111
4621;29879372000;27906111111;28406111111
4622;29879373000;27906111111;28406111111
4623;29889875000;27947488888;28447488888
4624;29889878000;27947488888;28447488888
4625;29889879000;27947488888;28447488888
4626;29889880000;27947488888;28447488888
4627;29889881000;27947488888;28447488888
4628;29889882000;27947488888;28447488888
4629;29889883000;27947488888;28447488888
4630;29890090000;27947500000;28447500000
4631;29890106000;27947766666;28447766666
4632;29890107000;27947766666;28447766666
4633;29890108000;27947766666;28447766666
4636;30103970000;27989155555;28489155555
4689;30306132000;28197488888;28697488888
4690;30306145000;28197488888;28697488888
4691;30306146000;28197488888;28697488888
4692;30306147000;28197488888;28697488888
4695;30306148000;28197488888;28697488888
4696;30306346000;28197500000;28697500000
4697;30306361000;28197766666;28697766666
4698;30306363000;28197766666;28697766666
4699;30306363000;28197766666;28697766666
4700;30339518000;28239166666;28739166666
4701;30339521000;28239166666;28739166666
4702;30339522000;28239166666;28739166666
4703;30339523000;28239166666;28739166666
4704;30339524000;28239166666;28739166666
4705;30339525000;28239166666;28739166666
4706;30339526000;28239166666;28739166666
4707;30339726000;28239188888;28739188888
4708;30339741000;28239477777;28739477777
4709;30339742000;28239477777;28739477777
4710;30339743000;28239477777;28739477777
4711;30369078000;28280811111;28780811111
4764;30458546000;28447800000;28947800000
4765;30458550000;28447800000;28947800000
4766;30471605000;28489166666;28989166666
4767;30471616000;28489166666;28989166666
4768;30471617000;28489166666;28989166666
4769;30471618000;28489166666;28989166666
4770;30471619000;28489166666;28989166666
4771;30471620000;28489166666;28989166666
4772;30471621000;28489166666;28989166666
4773;30471820000;28489177777;28989177777
4774;30471835000;28489488888;28989488888
4775;30471836000;28489488888;28989488888
4776;30471837000;28489488888;28989488888
4778;30484054000;28530822222;29030822222
4779;30484057000;28530822222;29030822222
4780;30484058000;28530822222;29030822222
4782;30484059000;28530822222;29030822222
4783;30484060000;28530822222;29030822222
4784;30484180000;28530833333;29030833333
4785;30484195000;28531122222;29031122222
4788;30498139000;28572488888;29072488888
4789;30498142000;28572488888;29072488888
4790;30498144000;28572488888;29072488888
4791;30654427000;28572488888;29072488888
4792;30654436000;28572488888;29072488888
4793;30654446000;28572488888;29072488888
4794;30654456000;28572488888;29072488888
4795;30704931000;28572500000;29072500000
4845;30704946000;28780822222;29280822222
4848;30906280000;28780822222;29280822222
4849;30906283000;28780822222;29280822222
4850;30906484000;28780833333;29280833333
4851;30906499000;28781122222;29281122222
4854;30940427000;28822488888;29322488888
4855;30940430000;28822488888;29322488888
4856;30940431000;28822488888;29322488888
4857;30940433000;28822488888;29322488888
4858;30940433000;28822488888;29322488888
4859;30940434000;28822488888;29322488888
4860;30940435000;28822488888;29322488888
4861;30940554000;28822500000;29322500000
4862;30940569000;28822766666;29322766666
4863;30940570000;28822766666;29322766666
4864;30940571000;28822766666;29322766666
4865;30969957000;28864166666;29364166666
4922;31067388000;29072488888;29572488888
4923;31067392000;29072488888;29572488888
4924;31067393000;29072488888;29572488888
4925;31067394000;29072488888;29572488888
4926;31067395000;29072488888;29572488888
4927;31067593000;29072511111;29572511111
4928;31067608000;29072811111;29572811111
4931;31080727000;29114155555;29614155555
4932;31080730000;29114155555;29614155555
4933;31080731000;29114155555;29614155555
4934;31080732000;29114155555;29614155555
4935;31080733000;29114155555;29614155555
4936;31080734000;29114155555;29614155555
4937;31080735000;29114155555;29614155555
4938;31080854000;29114177777;29614177777
4939;31080869000;29114466666;29614466666
4941;31080870000;29114466666;29614466666
4942;31095500000;29155822222;29655822222
4944;31095504000;29155822222;29655822222
4945;31095505000;29155822222;29655822222
4946;31095506000;29155822222;29655822222
4947;31095507000;29155822222;29655822222
4948;31095508000;29155822222;29655822222
4949;31305449000;29155833333;29655833333
5073;31305453000;29614522222;30114522222
5077;31750664000;29655833333;30155833333
5155;31750752000;29947500000;30447500000
5158;31750864000;29947511111;30447511111
5159;31750870000;29947788888;30447788888
5160;31750871000;29947788888;30447788888
5161;31750872000;29947788888;30447788888
5162;31750883000;29989166666;30489166666
5166;31750884000;29989166666;30489166666
5167;31750896000;29989166666;30489166666
5168;31750897000;29989166666;30489166666
5169;31750986000;29989177777;30489177777
5170;31750992000;29989477777;30489477777
5171;31750993000;29989477777;30489477777
5172;31750994000;29989477777;30489477777
5173;31751005000;30030822222;30530822222
5174;31751006000;30030822222;30530822222
5175;31751017000;30030822222;30530822222
5176;31751018000;30030822222;30530822222
5177;31751019000;30030822222;30530822222
5178;31751021000;30030822222;30530822222
5179;31751022000;30030822222;30530822222
5180;31751112000;30030833333;30530833333
5181;31751118000;30031122222;30531122222
5182;31751119000;30031122222;30531122222
5183;31855715000;30031122222;30531122222
5184;31906110000;30072488888;30572488888
5238;32070539000;30239555555;30739555555
5239;32108475000;30280822222;30780822222
5240;32108479000;30280822222;30780822222
5241;32108480000;30280822222;30780822222
5242;32108481000;30280822222;30780822222
5243;32108481000;30280822222;30780822222
5244;32108483000;30280822222;30780822222
5245;32108491000;30280822222;30780822222
5248;32108601000;30281166666;30781166666
5249;32108605000;30281166666;30781166666
5250;32144625000;30322488888;30822488888
5251;32144628000;30322488888;30822488888
5253;32144629000;30322488888;30822488888
5254;32144630000;30322488888;30822488888
5255;32144631000;30322488888;30822488888
5256;32144632000;30322488888;30822488888
5257;32144831000;30322511111;30822511111
5258;32144846000;30322766666;30822766666
5259;32144847000;30322766666;30822766666
5260;32144848000;30322766666;30822766666
5261;32174804000;30364166666;30864166666
5316;32293669000;30572477777;31072477777
5317;32293673000;30572477777;31072477777
5318;32293674000;30572477777;31072477777
5319;32293675000;30572477777;31072477777
5320;32293676000;30572477777;31072477777
5321;32293677000;30572477777;31072477777
5322;32293678000;30572477777;31072477777
5323;32293876000;30572488888;31072488888
5324;32293891000;30572744444;31072744444
5325;32293893000;30572744444;31072744444
5326;32293894000;30572744444;31072744444
5328;32309654000;30614166666;31114166666
5329;32309657000;30614166666;31114166666
5330;32309658000;30614166666;31114166666
5331;32309659000;30614166666;31114166666
5333;32309661000;30614166666;31114166666
5334;32309770000;30614177777;31114177777
5335;32309776000;30614477777;31114477777
5336;32309778000;30614477777;31114477777
5337;32309778000;30614477777;31114477777
5338;32324721000;30655822222;31155822222
5339;32324725000;30655822222;31155822222
5340;32456566000;30655822222;31155822222
5341;32456578000;30655822222;31155822222
5343;32456612000;30655822222;31155822222
5346;32507206000;30656133333;31156133333
5392;32671347000;30822755555;31322755555
5393;32708320000;30864166666;31364166666
5394;32708324000;30864166666;31364166666
5395;32708325000;30864166666;31364166666
5396;32708326000;30864166666;31364166666
5397;32708327000;30864166666;31364166666
5398;32708327000;30864166666;31364166666
5401;32708437000;30864477777;31364477777
5403;32708440000;30864477777;31364477777
5404;32744491000;30905822222;31405822222
5406;32744495000;30905822222;31405822222
5407;32744496000;30905822222;31405822222
5408;32744496000;30905822222;31405822222
5409;32744498000;30905822222;31405822222
5410;32744499000;30905822222;31405822222
5411;32744719000;30905833333;31405833333
5412;32744734000;30906144444;31406144444
5413;32744735000;30906144444;31406144444
5414;32744736000;30906144444;31406144444
5415;32773948000;30947488888;31447488888
5470;32882705000;31155833333;31655833333
5471;32882708000;31155833333;31655833333
5472;32882709000;31155833333;31655833333
5474;32882710000;31155833333;31655833333
5476;32882711000;31155833333;31655833333
5477;32882881000;31155844444;31655844444
5478;32882885000;31156122222;31656122222
5479;32882886000;31156122222;31656122222
5480;32882887000;31156122222;31656122222
5482;32893163000;31197488888;31697488888
5483;32893167000;31197488888;31697488888
5484;32893168000;31197488888;31697488888
5485;32893169000;31197488888;31697488888
5486;32893170000;31197488888;31697488888
5487;32893171000;31197488888;31697488888
5489;32893180000;31197777777;31697777777
5490;32893181000;31197777777;31697777777
5491;32893193000;31197777777;31697777777
5492;32914372000;31239166666;31739166666
5493;32914375000;31239166666;31739166666
5494;32914376000;31239166666;31739166666
5495;32914377000;31239166666;31739166666
5496;32914378000;31239166666;31739166666
5497;33057241000;31239166666;31739166666
5499;33107778000;31239177777;31739177777
