seqnum;now;rtptime;deadline
1;4748712000;4618322222;5118322222
2;4748715000;4618322222;5118322222
3;4789643000;4649611111;5149611111
12;4789808000;4649966666;5149966666
13;4789812000;4649966666;5149966666
14;4831408000;4691255555;5191255555
22;4831508000;4691655555;5191655555
23;4831512000;4691655555;5191655555
24;4831513000;4691655555;5191655555
25;4872958000;4732944444;5232944444
34;4873107000;4733322222;5233322222
35;4873111000;4733322222;5233322222
36;4914097000;4774611111;5274611111
46;4914235000;4774988888;5274988888
47;4952987000;4816277777;5316277777
56;4953076000;4816633333;5316633333
57;4953079000;4816633333;5316633333
58;4993306000;4857922222;5357922222
68;4993383000;4858277777;5358277777
69;5027911000;4899588888;5399588888
76;5030966000;4899633333;5399633333
77;5030983000;4899955555;5399955555
78;5030984000;4899955555;5399955555
79;5030985000;4899955555;5399955555
80;5066958000;4941277777;5441277777
89;5067064000;4941622222;5441622222
90;5067067000;4941622222;5441622222
91;5097543000;4982944444;5482944444
100;5097656000;4983322222;5483322222
101;5097659000;4983322222;5483322222
102;5136038000;5024588888;5524588888
112;5136165000;5024888888;5524888888
113;5163934000;5066255555;5566255555
114;5163940000;5066255555;5566255555
115;5163941000;5066255555;5566255555
116;5163943000;5066255555;5566255555
117;5163944000;5066255555;5566255555
118;5163945000;5066255555;5566255555
119;5163946000;5066255555;5566255555
120;5168038000;5066300000;5566300000
121;5168060000;5066600000;5566600000
122;5168061000;5066600000;5566600000
123;5168062000;5066600000;5566600000
124;5202811000;5107922222;5607922222
125;5202814000;5107922222;5607922222
126;5202815000;5107922222;5607922222
127;5202816000;5107922222;5607922222
128;5202817000;5107922222;5607922222
129;5202818000;5107922222;5607922222
130;5202819000;5107922222;5607922222
131;5203020000;5107966666;5607966666
132;5203035000;5108277777;5608277777
133;5203037000;5108277777;5608277777
134;5203037000;5108277777;5608277777
135;5234867000;5149588888;5649588888
136;5234871000;5149588888;5649588888
137;5234872000;5149588888;5649588888
138;5234873000;5149588888;5649588888
139;5234874000;5149588888;5649588888
140;5234875000;5149588888;5649588888
141;5234876000;5149588888;5649588888
142;5238191000;5149633333;5649633333
143;5238195000;5149911111;5649911111
144;5238197000;5149911111;5649911111
145;5238198000;5149911111;5649911111
146;5274441000;5191266666;5691266666
147;5274445000;5191266666;5691266666
148;5274446000;5191266666;5691266666
149;5274447000;5191266666;5691266666
150;5274448000;5191266666;5691266666
151;5274449000;5191266666;5691266666
152;5274450000;5191266666;5691266666
153;5274664000;5191322222;5691322222
154;5274667000;5191622222;5691622222
155;5274668000;5191622222;5691622222
156;5274669000;5191622222;5691622222
157;5309762000;5232922222;5732922222
158;5309765000;5232922222;5732922222
159;5309766000;5232922222;5732922222
160;5309767000;5232922222;5732922222
161;5309768000;5232922222;5732922222
162;5309769000;5232922222;5732922222
163;5309770000;5232922222;5732922222
164;5311855000;5232966666;5732966666
165;5311859000;5233288888;5733288888
166;5311860000;5233288888;5733288888
167;5311861000;5233288888;5733288888
168;5350158000;5274588888;5774588888
169;5350162000;5274588888;5774588888
170;5350163000;5274588888;5774588888
171;5350164000;5274588888;5774588888
172;5350174000;5274588888;5774588888
173;5350175000;5274588888;5774588888
174;5350176000;5274588888;5774588888
175;5350311000;5274633333;5774633333
176;5350314000;5274922222;5774922222
177;5350315000;5274922222;5774922222
178;5350316000;5274922222;5774922222
179;5389059000;5316266666;5816266666
180;5389062000;5316266666;5816266666
181;5389063000;5316266666;5816266666
182;5389064000;5316266666;5816266666
184;5389595000;5316266666;5816266666
185;5389596000;5316266666;5816266666
187;5389726000;5316644444;5816644444
188;5389728000;5316644444;5816644444
189;5389729000;5316644444;5816644444
190;5430170000;5357944444;5857944444
191;5430173000;5357944444;5857944444
192;5430174000;5357944444;5857944444
193;5430175000;5357944444;5857944444
194;5430188000;5357944444;5857944444
195;5430189000;5357944444;5857944444
196;5430190000;5357944444;5857944444
197;5430363000;5357988888;5857988888
198;5430366000;5358300000;5858300000
199;5430367000;5358300000;5858300000
200;5430369000;5358300000;5858300000
201;5552244000;5399600000;5899600000
221;5591223000;5441633333;5941633333
231;5630425000;5483311111;5983311111
243;5667041000;5524933333;6024933333
244;5667059000;5524933333;6024933333
245;5707360000;5566255555;6066255555
254;5707473000;5566611111;6066611111
255;5707476000;5566611111;6066611111
256;5746634000;5607922222;6107922222
266;5746738000;5608266666;6108266666
267;5777525000;5649588888;6149588888
275;5777629000;5649900000;6149900000
276;5777632000;5649900000;6149900000
277;5777633000;5649900000;6149900000
278;5815888000;5691288888;6191288888
286;5816000000;5691655555;6191655555
287;5816004000;5691655555;6191655555
288;5816005000;5691655555;6191655555
289;5844238000;5732922222;6232922222
296;5849288000;5732966666;6232966666
297;5849303000;5733266666;6233266666
298;5849304000;5733266666;6233266666
299;5849305000;5733266666;6233266666
300;5882371000;5774588888;6274588888
303;5882375000;5774588888;6274588888
304;5882376000;5774588888;6274588888
305;5882377000;5774588888;6274588888
306;5882378000;5774588888;6274588888
307;5882578000;5774622222;6274622222
308;5882594000;5774888888;6274888888
309;5882595000;5774888888;6274888888
310;5882596000;5774888888;6274888888
311;5915740000;5816277777;6316277777
312;5915743000;5816277777;6316277777
313;5915744000;5816277777;6316277777
314;5915745000;5816277777;6316277777
315;5915746000;5816277777;6316277777
316;5915747000;5816277777;6316277777
318;5915947000;5816322222;6316322222
319;5918650000;5816611111;6316611111
320;5918652000;5816611111;6316611111
321;5918654000;5816611111;6316611111
322;6010973000;5857944444;6357944444
324;6010976000;5857944444;6357944444
325;6010977000;5857944444;6357944444
326;6010978000;5857944444;6357944444
327;6010979000;5857944444;6357944444
328;6010980000;5857944444;6357944444
329;6011186000;5857977777;6357977777
330;6011202000;5858277777;6358277777
331;6011203000;5858277777;6358277777
332;6011204000;5858277777;6358277777
333;6051484000;5899600000;6399600000
334;6051488000;5899600000;6399600000
335;6051489000;5899600000;6399600000
336;6051490000;5899600000;6399600000
337;6051491000;5899600000;6399600000
338;6051492000;5899600000;6399600000
339;6051493000;5899600000;6399600000
340;6051665000;5899611111;6399611111
341;6051669000;5899900000;6399900000
342;6051670000;5899900000;6399900000
343;6051672000;5899900000;6399900000
344;6094134000;5941255555;6441255555
346;6094141000;5941255555;6441255555
347;6094144000;5941255555;6441255555
348;6094154000;5941255555;6441255555
349;6094156000;5941255555;6441255555
350;6094157000;5941255555;6441255555
351;6094370000;5941277777;6441277777
352;6094385000;5941566666;6441566666
353;6094386000;5941566666;6441566666
354;6094388000;5941566666;6441566666
355;6130503000;5982922222;6482922222
359;6160292000;5982922222;6482922222
361;6160295000;5982922222;6482922222
362;6160523000;5982944444;6482944444
366;6160539000;6024588888;6524588888
367;6160541000;6024588888;6524588888
368;6160542000;6024588888;6524588888
369;6160543000;6024588888;6524588888
370;6160544000;6024588888;6524588888
371;6160545000;6024588888;6524588888
372;6160547000;6024588888;6524588888
373;6169589000;6024611111;6524611111
376;6169604000;6024855555;6524855555
377;6207674000;6066266666;6566266666
383;6207680000;6066266666;6566266666
384;6207897000;6066277777;6566277777
385;6207912000;6066566666;6566566666
386;6207913000;6066566666;6566566666
387;6207915000;6066566666;6566566666
388;6242902000;6107944444;6607944444
396;6243071000;6108311111;6608311111
397;6243075000;6108311111;6608311111
398;6243077000;6108311111;6608311111
399;6279436000;6149600000;6649600000
400;6279444000;6149600000;6649600000
401;6279446000;6149600000;6649600000
402;6279448000;6149600000;6649600000
403;6279449000;6149600000;6649600000
404;6279451000;6149600000;6649600000
405;6279453000;6149600000;6649600000
406;6279702000;6149611111;6649611111
407;6279737000;6149877777;6649877777
408;6279738000;6149877777;6649877777
409;6279740000;6149877777;6649877777
410;6320627000;6191266666;6691266666
417;6320867000;6191277777;6691277777
418;6320873000;6191577777;6691577777
419;6320875000;6191577777;6691577777
420;6320876000;6191577777;6691577777
421;6350071000;6232944444;6732944444
430;6350185000;6233277777;6733277777
431;6350189000;6233277777;6733277777
432;6384932000;6274622222;6774622222
441;6385042000;6274944444;6774944444
442;6385063000;6274944444;6774944444
443;6416029000;6316277777;6816277777
444;6416033000;6316277777;6816277777
445;6416034000;6316277777;6816277777
446;6416035000;6316277777;6816277777
447;6416036000;6316277777;6816277777
448;6416037000;6316277777;6816277777
449;6416038000;6316277777;6816277777
451;6416140000;6316611111;6816611111
452;6416142000;6316611111;6816611111
453;6416144000;6316611111;6816611111
454;6444205000;6357955555;6857955555
455;6444208000;6357955555;6857955555
456;6444210000;6357955555;6857955555
457;6444211000;6357955555;6857955555
458;6444212000;6357955555;6857955555
459;6444213000;6357955555;6857955555
460;6444214000;6357955555;6857955555
461;6448745000;6358000000;6858000000
462;6448749000;6358288888;6858288888
463;6448750000;6358288888;6858288888
464;6448751000;6358288888;6858288888
465;6552236000;6399611111;6899611111
484;6591178000;6441611111;6941611111
495;6631976000;6483333333;6983333333
506;6667697000;6524911111;7024911111
507;6667700000;6524911111;7024911111
508;6667701000;6524911111;7024911111
509;6709876000;6566255555;7066255555
518;6709989000;6566600000;7066600000
519;6709992000;6566600000;7066600000
520;6744025000;6607944444;7107944444
526;6744029000;6607944444;7107944444
527;6744244000;6607988888;7107988888
528;6744259000;6608311111;7108311111
529;6744260000;6608311111;7108311111
530;6744261000;6608311111;7108311111
531;6781592000;6649622222;7149622222
537;6781595000;6649622222;7149622222
538;6781795000;6649666666;7149666666
539;6781810000;6649944444;7149944444
540;6781811000;6649944444;7149944444
541;6781812000;6649944444;7149944444
542;6811595000;6691277777;7191277777
550;6811661000;6691633333;7191633333
552;6811674000;6691633333;7191633333
553;6848108000;6732922222;7232922222
563;6848220000;6733277777;7233277777
564;6880867000;6774611111;7274611111
572;6964156000;6774933333;7274933333
591;7045525000;6857922222;7357922222
608;7118347000;6941255555;7441255555
618;7118463000;6941600000;7441600000
619;7153792000;6982944444;7482944444
630;7183213000;7024611111;7524611111
642;7217606000;7066277777;7566277777
658;7251222000;7107944444;7607944444
661;7251335000;7108288888;7608288888
662;7251337000;7108288888;7608288888
663;7283923000;7149611111;7649611111
673;7284030000;7149911111;7649911111
674;7316188000;7191277777;7691277777
682;7316264000;7191633333;7691633333
683;7316266000;7191633333;7691633333
684;7316267000;7191633333;7691633333
685;7343294000;7232922222;7732922222
695;7343405000;7233311111;7733311111
696;7367945000;7274588888;7774588888
697;7367948000;7274588888;7774588888
698;7367949000;7274588888;7774588888
699;7367950000;7274588888;7774588888
700;7367951000;7274588888;7774588888
701;7367961000;7274588888;7774588888
702;7367962000;7274588888;7774588888
703;7372383000;7274633333;7774633333
704;7372387000;7274933333;7774933333
705;7372388000;7274933333;7774933333
706;7372389000;7274933333;7774933333
707;7468589000;7316288888;7816288888
725;7509670000;7357966666;7857966666
737;7509677000;7399922222;7899922222
738;7509678000;7399922222;7899922222
739;7509680000;7399922222;7899922222
740;7586721000;7441255555;7941255555
755;7626688000;7482922222;7982922222
761;7626805000;7483300000;7983300000
762;7659481000;7524588888;8024588888
771;7718970000;7524911111;8024911111
792;7794989000;7608322222;8108322222
810;7868712000;7691288888;8191288888
826;7893054000;7733322222;8233322222
836;7925211000;7774922222;8274922222
847;7964031000;7816677777;8316677777
858;7985400000;7858344444;8358344444
859;7985403000;7858344444;8358344444
860;7985404000;7858344444;8358344444
861;8029019000;7899588888;8399588888
869;8029136000;7899944444;8399944444
870;8029149000;7899944444;8399944444
871;8029150000;7899944444;8399944444
872;8051248000;7941244444;8441244444
881;8051361000;7941611111;8441611111
882;8051364000;7941611111;8441611111
883;8085668000;7982944444;8482944444
884;8085671000;7982944444;8482944444
885;8085672000;7982944444;8482944444
886;8085673000;7982944444;8482944444
887;8085674000;7982944444;8482944444
888;8085675000;7982944444;8482944444
891;8085818000;7983300000;8483300000
892;8085822000;7983300000;8483300000
893;8085823000;7983300000;8483300000
894;8115241000;8024611111;8524611111
895;8115245000;8024611111;8524611111
896;8115246000;8024611111;8524611111
897;8115247000;8024611111;8524611111
898;8115249000;8024611111;8524611111
899;8115250000;8024611111;8524611111
900;8115250000;8024611111;8524611111
901;8115445000;8024655555;8524655555
902;8115449000;8024922222;8524922222
903;8115450000;8024922222;8524922222
904;8115451000;8024922222;8524922222
905;8219023000;8066244444;8566244444
917;8259776000;8107955555;8607955555
930;8300117000;8149611111;8649611111
942;8338737000;8191266666;8691266666
955;8373436000;8232944444;8732944444
959;8373548000;8233311111;8733311111
960;8411783000;8274622222;8774622222
968;8411891000;8274966666;8774966666
969;8411893000;8274966666;8774966666
970;8411895000;8274966666;8774966666
971;8447029000;8316277777;8816277777
978;8447208000;8316322222;8816322222
979;8447211000;8316611111;8816611111
980;8447213000;8316611111;8816611111
981;8447214000;8316611111;8816611111
982;8481261000;8357944444;8857944444
988;8481264000;8357944444;8857944444
989;8481420000;8357988888;8857988888
990;8481426000;8358288888;8858288888
991;8481427000;8358288888;8858288888
992;8481428000;8358288888;8858288888
993;8552272000;8399588888;8899588888
1004;8552384000;8441266666;8941266666
1005;8552387000;8441266666;8941266666
1006;8552388000;8441266666;8941266666
1007;8552389000;8441266666;8941266666
1008;8552390000;8441266666;8941266666
1009;8552391000;8441266666;8941266666
1010;8552392000;8441266666;8941266666
1011;8552514000;8441300000;8941300000
1012;8552529000;8441622222;8941622222
1013;8552531000;8441622222;8941622222
1014;8552531000;8441622222;8941622222
1015;8635835000;8482944444;8982944444
1026;8676387000;8524611111;9024611111
1039;8716938000;8566266666;9066266666
1054;8756815000;8607944444;9107944444
1068;8791556000;8649911111;9149911111
1069;8791559000;8649911111;9149911111
1070;8831465000;8691266666;9191266666
1079;8831545000;8691622222;9191622222
1080;8831547000;8691622222;9191622222
1081;8868757000;8732944444;9232944444
1091;8868869000;8733300000;9233300000
1092;8897304000;8774588888;9274588888
1101;8897416000;8774900000;9274900000
1102;8897419000;8774900000;9274900000
1103;8935184000;8816277777;9316277777
1113;8935261000;8816622222;9316622222
1114;8962664000;8857922222;9357922222
1123;8962767000;8858277777;9358277777
1124;8962771000;8858277777;9358277777
1125;9000765000;8899588888;9399588888
1126;9000769000;8899588888;9399588888
1127;9000770000;8899588888;9399588888
1128;9000771000;8899588888;9399588888
1129;9000772000;8899588888;9399588888
1130;9000773000;8899588888;9399588888
1131;9000774000;8899588888;9399588888
1132;9000980000;8899633333;9399633333
1133;9000996000;8899955555;9399955555
1134;9000997000;8899955555;9399955555
1135;9000998000;8899955555;9399955555
1136;9029587000;8941255555;9441255555
1137;9029591000;8941255555;9441255555
1138;9029592000;8941255555;9441255555
1139;9029603000;8941255555;9441255555
1140;9029604000;8941255555;9441255555
1141;9029605000;8941255555;9441255555
1142;9029606000;8941255555;9441255555
1143;9033972000;8941300000;9441300000
1144;9033988000;8941600000;9441600000
1145;9033989000;8941600000;9441600000
1146;9033991000;8941600000;9441600000
1147;9068573000;8982922222;9482922222
1148;9068576000;8982922222;9482922222
1149;9068577000;8982922222;9482922222
1150;9068578000;8982922222;9482922222
1151;9068579000;8982922222;9482922222
1152;9068580000;8982922222;9482922222
1153;9068581000;8982922222;9482922222
1154;9068780000;8982966666;9482966666
1155;9068795000;8983277777;9483277777
1156;9068796000;8983277777;9483277777
1157;9068805000;8983277777;9483277777
1158;9102337000;9024611111;9524611111
1159;9102340000;9024611111;9524611111
1160;9102341000;9024611111;9524611111
1161;9102342000;9024611111;9524611111
1162;9102343000;9024611111;9524611111
1163;9102344000;9024611111;9524611111
1165;9104923000;9024655555;9524655555
1166;9104938000;9024911111;9524911111
1167;9104939000;9024911111;9524911111
1168;9104940000;9024911111;9524911111
1169;9142667000;9066255555;9566255555
1170;9142670000;9066255555;9566255555
1171;9142671000;9066255555;9566255555
1172;9142672000;9066255555;9566255555
1173;9142673000;9066255555;9566255555
1174;9142674000;9066255555;9566255555
1175;9142675000;9066255555;9566255555
1176;9142874000;9066300000;9566300000
1177;9142889000;9066588888;9566588888
1178;9142890000;9066588888;9566588888
1179;9142891000;9066588888;9566588888
1180;9260248000;9107944444;9607944444
1198;9301253000;9149655555;9649655555
1209;9340876000;9191300000;9691300000
1221;9340882000;9233288888;9733288888
1222;9340883000;9233288888;9733288888
1223;9340884000;9233288888;9733288888
1224;9416418000;9274588888;9774588888
1232;9416486000;9274922222;9774922222
1233;9416498000;9274922222;9774922222
1234;9416499000;9274922222;9774922222
1235;9454524000;9316266666;9816266666
1245;9454592000;9316633333;9816633333
1246;9485455000;9357944444;9857944444
1253;9489674000;9357988888;9857988888
1254;9489681000;9358300000;9858300000
1255;9489682000;9358300000;9858300000
1256;9489683000;9358300000;9858300000
1257;9523859000;9399588888;9899588888
1267;9523951000;9399900000;9899900000
1268;9556078000;9441266666;9941266666
1277;9556144000;9441622222;9941622222
1278;9556156000;9441622222;9941622222
1279;9592212000;9482911111;9982911111
1289;9592266000;9483266666;9983266666
1290;9620342000;9524633333;10024633333
1291;9620346000;9524633333;10024633333
1292;9620347000;9524633333;10024633333
1293;9620348000;9524633333;10024633333
1294;9620349000;9524633333;10024633333
1295;9620350000;9524633333;10024633333
1296;9620351000;9524633333;10024633333
1297;9625263000;9524677777;10024677777
1298;9625268000;9524944444;10024944444
1299;9625269000;9524944444;10024944444
1300;9625270000;9524944444;10024944444
1301;9658653000;9566255555;10066255555
1302;9658657000;9566255555;10066255555
1303;9658658000;9566255555;10066255555
1304;9658659000;9566255555;10066255555
1305;9658660000;9566255555;10066255555
1306;9658661000;9566255555;10066255555
1307;9658662000;9566255555;10066255555
1308;9658765000;9566300000;10066300000
1309;9658770000;9566611111;10066611111
1310;9658772000;9566611111;10066611111
1311;9658773000;9566611111;10066611111
1312;9689984000;9607944444;10107944444
1313;9689988000;9607944444;10107944444
1314;9689989000;9607944444;10107944444
1315;9689990000;9607944444;10107944444
1316;9689991000;9607944444;10107944444
1317;9689992000;9607944444;10107944444
1318;9689993000;9607944444;10107944444
1319;9693338000;9607988888;10107988888
1320;9693345000;9608311111;10108311111
1321;9693347000;9608311111;10108311111
1322;9693348000;9608311111;10108311111
1323;9729700000;9649588888;10149588888
1324;9729703000;9649588888;10149588888
1325;9729704000;9649588888;10149588888
1326;9729705000;9649588888;10149588888
1327;9729706000;9649588888;10149588888
1328;9729707000;9649588888;10149588888
1329;9729708000;9649588888;10149588888
1331;9729772000;9649922222;10149922222
1332;9729784000;9649922222;10149922222
1333;9729785000;9649922222;10149922222
1334;9766212000;9691277777;10191277777
1335;9766216000;9691277777;10191277777
1336;9766217000;9691277777;10191277777
1337;9766218000;9691277777;10191277777
1338;9766219000;9691277777;10191277777
1339;9766220000;9691277777;10191277777
1340;9766221000;9691277777;10191277777
1341;9768076000;9691322222;10191322222
1342;9768082000;9691644444;10191644444
1343;9768083000;9691644444;10191644444
1344;9768084000;9691644444;10191644444
1345;9885661000;9732966666;10232966666
1362;9926143000;9774577777;10274577777
1374;9965889000;9816300000;10316300000
1382;9965904000;9857944444;10357944444
1383;9965905000;9857944444;10357944444
1384;9965906000;9857944444;10357944444
1385;10004642000;9857988888;10357988888
1391;10004657000;9899611111;10399611111
1392;10004658000;9899611111;10399611111
1395;10041147000;9899611111;10399611111
1396;10043609000;9899655555;10399655555
1401;10044870000;9941311111;10441311111
1403;10044872000;9941311111;10441311111
1404;10044874000;9941311111;10441311111
1405;10044875000;9941311111;10441311111
1406;10044876000;9941311111;10441311111
1407;10079536000;9941344444;10441344444
1408;10079552000;9941655555;10441655555
1409;10079553000;9941655555;10441655555
1410;10079554000;9941655555;10441655555
1411;10116773000;9982944444;10482944444
1415;10116776000;9982944444;10482944444
1416;10116778000;9982944444;10482944444
1417;10116779000;9982944444;10482944444
1418;10116985000;9982977777;10482977777
1419;10117001000;9983266666;10483266666
1420;10117002000;9983266666;10483266666
1421;10117003000;9983266666;10483266666
1422;10153302000;10024611111;10524611111
1427;10153306000;10024611111;10524611111
1428;10153307000;10024611111;10524611111
1429;10153506000;10024644444;10524644444
1430;10153523000;10024888888;10524888888
1431;10153524000;10024888888;10524888888
1432;10153525000;10024888888;10524888888
1433;10189071000;10066266666;10566266666
1440;10189299000;10066300000;10566300000
1441;10189305000;10066600000;10566600000
1442;10189307000;10066600000;10566600000
1443;10189308000;10066600000;10566600000
1444;10224305000;10107955555;10607955555
1452;10224417000;10108300000;10608300000
1453;10224420000;10108300000;10608300000
1454;10224421000;10108300000;10608300000
1455;10259039000;10149633333;10649633333
1463;10259117000;10149966666;10649966666
1464;10259119000;10149966666;10649966666
1465;10259120000;10149966666;10649966666
1466;10293460000;10191277777;10691277777
1467;10293464000;10191277777;10691277777
1468;10293465000;10191277777;10691277777
1469;10293466000;10191277777;10691277777
1470;10293467000;10191277777;10691277777
1471;10293468000;10191277777;10691277777
1472;10293469000;10191277777;10691277777
1473;10293676000;10191322222;10691322222
1474;10293691000;10191633333;10691633333
1475;10293692000;10191633333;10691633333
1476;10293693000;10191633333;10691633333
1477;10328376000;10232944444;10732944444
1478;10328380000;10232944444;10732944444
1479;10328381000;10232944444;10732944444
1480;10328382000;10232944444;10732944444
1481;10328383000;10232944444;10732944444
1482;10328384000;10232944444;10732944444
1483;10328385000;10232944444;10732944444
1484;10328591000;10232988888;10732988888
1485;10328607000;10233322222;10733322222
1486;10328608000;10233322222;10733322222
1487;10328609000;10233322222;10733322222
1488;10363918000;10274588888;10774588888
1489;10363920000;10274588888;10774588888
1490;10363922000;10274588888;10774588888
1491;10363923000;10274588888;10774588888
1492;10363924000;10274588888;10774588888
1493;10363925000;10274588888;10774588888
1494;10363926000;10274588888;10774588888
1495;10364074000;10274633333;10774633333
1496;10364076000;10274922222;10774922222
1497;10364078000;10274922222;10774922222
1498;10364079000;10274922222;10774922222
1499;10400456000;10316255555;10816255555
1500;10400460000;10316255555;10816255555
1501;10400461000;10316255555;10816255555
1502;10400462000;10316255555;10816255555
1503;10400463000;10316255555;10816255555
1504;10400464000;10316255555;10816255555
1505;10400465000;10316255555;10816255555
1506;10400673000;10316300000;10816300000
1507;10400679000;10316588888;10816588888
1508;10400680000;10316588888;10816588888
1509;10400682000;10316588888;10816588888
1510;10437913000;10357922222;10857922222
1511;10437916000;10357922222;10857922222
1512;10437917000;10357922222;10857922222
1513;10437918000;10357922222;10857922222
1514;10437919000;10357922222;10857922222
1515;10437920000;10357922222;10857922222
1516;10437921000;10357922222;10857922222
1517;10438156000;10357966666;10857966666
1518;10438172000;10358277777;10858277777
1519;10438173000;10358277777;10858277777
1520;10438174000;10358277777;10858277777
1521;10476457000;10399588888;10899588888
1522;10476460000;10399588888;10899588888
1523;10476461000;10399588888;10899588888
1524;10476469000;10399588888;10899588888
1525;10476470000;10399588888;10899588888
1526;10476471000;10399588888;10899588888
1527;10476472000;10399588888;10899588888
1528;10476680000;10399633333;10899633333
1529;10476684000;10399911111;10899911111
1530;10476685000;10399911111;10899911111
1531;10476686000;10399911111;10899911111
1532;10513606000;10441255555;10941255555
1533;10513610000;10441255555;10941255555
1534;10513611000;10441255555;10941255555
1535;10513612000;10441255555;10941255555
1536;10513613000;10441255555;10941255555
1537;10513614000;10441255555;10941255555
1538;10513615000;10441255555;10941255555
1539;10514723000;10441300000;10941300000
1540;10514738000;10441622222;10941622222
1541;10514739000;10441622222;10941622222
1542;10514740000;10441622222;10941622222
1543;10554589000;10482922222;10982922222
1545;10554592000;10482922222;10982922222
1546;10554603000;10482922222;10982922222
1547;10554604000;10482922222;10982922222
1548;10554605000;10482922222;10982922222
1549;10554606000;10482922222;10982922222
1550;10554789000;10482966666;10982966666
1551;10554804000;10483288888;10983288888
1552;10554805000;10483288888;10983288888
1553;10554806000;10483288888;10983288888
1554;10595211000;10524588888;11024588888
1555;10595215000;10524588888;11024588888
1556;10595216000;10524588888;11024588888
1557;10595217000;10524588888;11024588888
1558;10595218000;10524588888;11024588888
1559;10595219000;10524588888;11024588888
1560;10595219000;10524588888;11024588888
1561;10595434000;10524633333;11024633333
1562;10595450000;10524922222;11024922222
1563;10595451000;10524922222;11024922222
1564;10595452000;10524922222;11024922222
1565;10636849000;10566255555;11066255555
1566;10636852000;10566255555;11066255555
1567;10636853000;10566255555;11066255555
1568;10636854000;10566255555;11066255555
1569;10636855000;10566255555;11066255555
1570;10636856000;10566255555;11066255555
1571;10636857000;10566255555;11066255555
1572;10637068000;10566300000;11066300000
1573;10637074000;10566611111;11066611111
1574;10637076000;10566611111;11066611111
1575;10637077000;10566611111;11066611111
1576;10802429000;10607944444;11107944444
1606;10876952000;10691622222;11191622222
1616;10915829000;10732988888;11232988888
1628;10915844000;10774955555;11274955555
1629;10915845000;10774955555;11274955555
1630;10915846000;10774955555;11274955555
1631;10976297000;10816255555;11316255555
1649;11008118000;10857966666;11357966666
1661;11008133000;10899944444;11399944444
1662;11008134000;10899944444;11399944444
1663;11008135000;10899944444;11399944444
1664;11070056000;10941255555;11441255555
1673;11070174000;10941622222;11441622222
1674;11070177000;10941622222;11441622222
1675;11091232000;10982944444;11482944444
1684;11091345000;10983322222;11483322222
1685;11091348000;10983322222;11483322222
1686;11126423000;11024611111;11524611111
1687;11126426000;11024611111;11524611111
1688;11126427000;11024611111;11524611111
1689;11126428000;11024611111;11524611111
1690;11126429000;11024611111;11524611111
1691;11126430000;11024611111;11524611111
1692;11126431000;11024611111;11524611111
1693;11126601000;11024655555;11524655555
1694;11126606000;11024922222;11524922222
1695;11126607000;11024922222;11524922222
1696;11126608000;11024922222;11524922222
1697;11153402000;11066277777;11566277777
1698;11153405000;11066277777;11566277777
1699;11153406000;11066277777;11566277777
1700;11153407000;11066277777;11566277777
1701;11153408000;11066277777;11566277777
1702;11153409000;11066277777;11566277777
1703;11153410000;11066277777;11566277777
1704;11158170000;11066322222;11566322222
1706;11158186000;11066644444;11566644444
1707;11158187000;11066644444;11566644444
1708;11192255000;11107955555;11607955555
1709;11192258000;11107955555;11607955555
1710;11192259000;11107955555;11607955555
1712;11192260000;11107955555;11607955555
1713;11192261000;11107955555;11607955555
1714;11192262000;11107955555;11607955555
1715;11192471000;11108000000;11608000000
1716;11192487000;11108333333;11608333333
1717;11192488000;11108333333;11608333333
1718;11192489000;11108333333;11608333333
1719;11302512000;11149588888;11649588888
1739;11341429000;11191655555;11691655555
1748;11383585000;11232966666;11732966666
1760;11383600000;11274966666;11774966666
1761;11383601000;11274966666;11774966666
1762;11383602000;11274966666;11774966666
1763;11457701000;11316288888;11816288888
1772;11457817000;11316655555;11816655555
1773;11457820000;11316655555;11816655555
1774;11496929000;11357922222;11857922222
1784;11497052000;11358288888;11858288888
1785;11526924000;11399577777;11899577777
1794;11527041000;11399922222;11899922222
1795;11527051000;11399922222;11899922222
1796;11565272000;11441255555;11941255555
1805;11565357000;11441633333;11941633333
1806;11565360000;11441633333;11941633333
1807;11593807000;11482922222;11982922222
1816;11593919000;11483300000;11983300000
1817;11593922000;11483300000;11983300000
1818;11632017000;11524611111;12024611111
1828;11632152000;11524944444;12024944444
1829;11661096000;11566255555;12066255555
1830;11661099000;11566255555;12066255555
1831;11661101000;11566255555;12066255555
1832;11661102000;11566255555;12066255555
1833;11661102000;11566255555;12066255555
1834;11661103000;11566255555;12066255555
1835;11661104000;11566255555;12066255555
1836;11665557000;11566300000;12066300000
1837;11665573000;11566633333;12066633333
1838;11665574000;11566633333;12066633333
1839;11665575000;11566633333;12066633333
1840;11760126000;11607955555;12107955555
1859;11799556000;11649900000;12149900000
1871;11838193000;11691611111;12191611111
1881;11875978000;11733300000;12233300000
1882;11875981000;11733300000;12233300000
1883;11875982000;11733300000;12233300000
1884;11918015000;11774611111;12274611111
1893;11918089000;11774922222;12274922222
1894;11918101000;11774922222;12274922222
1895;11952261000;11816322222;12316322222
1905;11952337000;11816666666;12316666666
1906;11985456000;11857944444;12357944444
1915;11985524000;11858300000;12358300000
1916;11985536000;11858300000;12358300000
1917;12023881000;11899611111;12399611111
1927;12023973000;11899955555;12399955555
1928;12052253000;11941277777;12441277777
1937;12052319000;11941622222;12441622222
1938;12052331000;11941622222;12441622222
1939;12090414000;11982944444;12482944444
1949;12090480000;11983322222;12483322222
1950;12119095000;12024611111;12524611111
1951;12119098000;12024611111;12524611111
1952;12119099000;12024611111;12524611111
1953;12119100000;12024611111;12524611111
1954;12119101000;12024611111;12524611111
1955;12119102000;12024611111;12524611111
1956;12119103000;12024611111;12524611111
1957;12123770000;12024655555;12524655555
1958;12123776000;12024900000;12524900000
1959;12123777000;12024900000;12524900000
1960;12123779000;12024900000;12524900000
1961;12157625000;12066277777;12566277777
1962;12157629000;12066277777;12566277777
1963;12157630000;12066277777;12566277777
1964;12157631000;12066277777;12566277777
1965;12157632000;12066277777;12566277777
1966;12157633000;12066277777;12566277777
1967;12157634000;12066277777;12566277777
1968;12157756000;12066322222;12566322222
1969;12157761000;12066622222;12566622222
1970;12157763000;12066622222;12566622222
1971;12157763000;12066622222;12566622222
1972;12189406000;12107944444;12607944444
1973;12189409000;12107944444;12607944444
1974;12189411000;12107944444;12607944444
1975;12189412000;12107944444;12607944444
1976;12189412000;12107944444;12607944444
1977;12189413000;12107944444;12607944444
1978;12189414000;12107944444;12607944444
1979;12192605000;12107988888;12607988888
1980;12192611000;12108300000;12608300000
1981;12192612000;12108300000;12608300000
1982;12192613000;12108300000;12608300000
1983;12229242000;12149611111;12649611111
1984;12229246000;12149611111;12649611111
1985;12229247000;12149611111;12649611111
1986;12229248000;12149611111;12649611111
1987;12229249000;12149611111;12649611111
1988;12229250000;12149611111;12649611111
1989;12229251000;12149611111;12649611111
1991;12229315000;12149933333;12649933333
1992;12229326000;12149933333;12649933333
1993;12229327000;12149933333;12649933333
1994;12266105000;12191288888;12691288888
1995;12266108000;12191288888;12691288888
1996;12266109000;12191288888;12691288888
1997;12266110000;12191288888;12691288888
1998;12266118000;12191288888;12691288888
2000;12267850000;12191288888;12691288888
2001;12267996000;12191333333;12691333333
2002;12268001000;12191633333;12691633333
2003;12268003000;12191633333;12691633333
2004;12268004000;12191633333;12691633333
2005;12385667000;12232944444;12732944444
2023;12426227000;12274644444;12774644444
2035;12426233000;12316588888;12816588888
2036;12426234000;12316588888;12816588888
2037;12426235000;12316588888;12816588888
2038;12505628000;12357944444;12857944444
2057;12538371000;12399933333;12899933333
2058;12538374000;12399933333;12899933333
2059;12538375000;12399933333;12899933333
2060;12580728000;12441277777;12941277777
2067;12580930000;12441322222;12941322222
2070;12585605000;12441633333;12941633333
2071;12613319000;12482944444;12982944444
2076;12613322000;12482944444;12982944444
2077;12613323000;12482944444;12982944444
2078;12613460000;12482988888;12982988888
2079;12613463000;12483300000;12983300000
2080;12613464000;12483300000;12983300000
2081;12613465000;12483300000;12983300000
2082;12650119000;12524622222;13024622222
2083;12650122000;12524622222;13024622222
2084;12650123000;12524622222;13024622222
2085;12650124000;12524622222;13024622222
2086;12650125000;12524622222;13024622222
2087;12650126000;12524622222;13024622222
2088;12650127000;12524622222;13024622222
2089;12650327000;12524666666;13024666666
2090;12650333000;12524933333;13024933333
2091;12650334000;12524933333;13024933333
2092;12650335000;12524933333;13024933333
2093;12760141000;12566277777;13066277777
2113;12799409000;12608333333;13108333333
2118;12839226000;12649611111;13149611111
2125;12839338000;12649933333;13149933333
2126;12876867000;12691255555;13191255555
2139;12913018000;12732922222;13232922222
2149;12947766000;12774588888;13274588888
2152;12947769000;12774588888;13274588888
2153;12947771000;12774588888;13274588888
2154;12947771000;12774588888;13274588888
2155;12947998000;12774611111;13274611111
2156;12948013000;12774900000;13274900000
2157;12948014000;12774900000;13274900000
2158;12948015000;12774900000;13274900000
2159;12981098000;12816255555;13316255555
2160;12981102000;12816255555;13316255555
2161;12981103000;12816255555;13316255555
2162;12981104000;12816255555;13316255555
2163;12981105000;12816255555;13316255555
2164;12981106000;12816255555;13316255555
2165;12981107000;12816255555;13316255555
2166;12981305000;12816277777;13316277777
2167;12981321000;12816600000;13316600000
2168;12981322000;12816600000;13316600000
2169;12981323000;12816600000;13316600000
2170;13013250000;12857933333;13357933333
2171;13013254000;12857933333;13357933333
2172;13013255000;12857933333;13357933333
2173;13013256000;12857933333;13357933333
2174;13013257000;12857933333;13357933333
2175;13013258000;12857933333;13357933333
2176;13013259000;12857933333;13357933333
2177;13013458000;12857944444;13357944444
2178;13013464000;12858288888;13358288888
2179;13013465000;12858288888;13358288888
2180;13013466000;12858288888;13358288888
2181;13042108000;12899600000;13399600000
2182;13042111000;12899600000;13399600000
2183;13042112000;12899600000;13399600000
2184;13042113000;12899600000;13399600000
2185;13042114000;12899600000;13399600000
2186;13042115000;12899600000;13399600000
2187;13042116000;12899600000;13399600000
2188;13042315000;12899611111;13399611111
2189;13042321000;12899933333;13399933333
2190;13042322000;12899933333;13399933333
2191;13042323000;12899933333;13399933333
2192;13073292000;12941266666;13441266666
2193;13073296000;12941266666;13441266666
2194;13073297000;12941266666;13441266666
2195;13073298000;12941266666;13441266666
2196;13073298000;12941266666;13441266666
2197;13073299000;12941266666;13441266666
2198;13073300000;12941266666;13441266666
2199;13073515000;12941277777;13441277777
2200;13073522000;12941600000;13441600000
2201;13073523000;12941600000;13441600000
2202;13073546000;12941600000;13441600000
2203;13104135000;12982933333;13482933333
2204;13104138000;12982933333;13482933333
2205;13104139000;12982933333;13482933333
2206;13104140000;12982933333;13482933333
2207;13104141000;12982933333;13482933333
2208;13153037000;12982933333;13482933333
2209;13153065000;12982933333;13482933333
2210;13162348000;12982944444;13482944444
2214;13162354000;13024600000;13524600000
2215;13162355000;13024600000;13524600000
2216;13162356000;13024600000;13524600000
2217;13162357000;13024600000;13524600000
2218;13162358000;13024600000;13524600000
2219;13162359000;13024600000;13524600000
2220;13162360000;13024600000;13524600000
2221;13204420000;13024611111;13524611111
2227;13204435000;13066255555;13566255555
2228;13204436000;13066255555;13566255555
2229;13204437000;13066255555;13566255555
2230;13204438000;13066255555;13566255555
2231;13204439000;13066255555;13566255555
2232;13560253000;13066277777;13566277777
2331;13634056000;13441288888;13941288888
2354;13634062000;13524955555;14024955555
2355;13634063000;13524955555;14024955555
2356;13634064000;13524955555;14024955555
2357;13748010000;13566255555;14066255555
2376;13770306000;13608322222;14108322222
2386;13809307000;13649633333;14149633333
2397;13843696000;13691300000;14191300000
2410;13843701000;13733355555;14233355555
2411;13843703000;13733355555;14233355555
2412;13893183000;13774611111;14274611111
2421;13893294000;13774944444;14274944444
2422;13893298000;13774944444;14274944444
2423;13927716000;13816277777;14316277777
2433;13927829000;13816644444;14316644444
2434;13952596000;13857955555;14357955555
2435;13952599000;13857955555;14357955555
2436;13952600000;13857955555;14357955555
2437;13952601000;13857955555;14357955555
2438;13952602000;13857955555;14357955555
2439;13952603000;13857955555;14357955555
2440;13952604000;13857955555;14357955555
2441;13958479000;13858000000;14358000000
2442;13958494000;13858333333;14358333333
2443;13958496000;13858333333;14358333333
2444;13958497000;13858333333;14358333333
2445;13990622000;13899588888;14399588888
2446;13990626000;13899588888;14399588888
2447;13990627000;13899588888;14399588888
2448;13990628000;13899588888;14399588888
2449;13990629000;13899588888;14399588888
2450;13990629000;13899588888;14399588888
2451;13990630000;13899588888;14399588888
2452;13990830000;13899633333;14399633333
2453;13990845000;13899944444;14399944444
2454;13990846000;13899944444;14399944444
2455;13990847000;13899944444;14399944444
2456;14021559000;13941255555;14441255555
2457;14021562000;13941255555;14441255555
2458;14021563000;13941255555;14441255555
2459;14021565000;13941255555;14441255555
2460;14021566000;13941255555;14441255555
2461;14021567000;13941255555;14441255555
2462;14021568000;13941255555;14441255555
2463;14024931000;13941300000;14441300000
2464;14024946000;13941644444;14441644444
2465;14024948000;13941644444;14441644444
2466;14024949000;13941644444;14441644444
2467;14061285000;13982922222;14482922222
2468;14061288000;13982922222;14482922222
2469;14061289000;13982922222;14482922222
2470;14061290000;13982922222;14482922222
2471;14061291000;13982922222;14482922222
2472;14061292000;13982922222;14482922222
2473;14061293000;13982922222;14482922222
2474;14061533000;13982966666;14482966666
2475;14061548000;13983300000;14483300000
2476;14061549000;13983300000;14483300000
2477;14061550000;13983300000;14483300000
2478;14098175000;14024622222;14524622222
2479;14098178000;14024622222;14524622222
2480;14098179000;14024622222;14524622222
2481;14098180000;14024622222;14524622222
2482;14098181000;14024622222;14524622222
2483;14098182000;14024622222;14524622222
2484;14098183000;14024622222;14524622222
2485;14099539000;14024666666;14524666666
2486;14099554000;14024933333;14524933333
2487;14099555000;14024933333;14524933333
2488;14099556000;14024933333;14524933333
2489;14138910000;14066255555;14566255555
2490;14138913000;14066255555;14566255555
2491;14138914000;14066255555;14566255555
2492;14138915000;14066255555;14566255555
2493;14138916000;14066255555;14566255555
2494;14138917000;14066255555;14566255555
2495;14138918000;14066255555;14566255555
2496;14139127000;14066300000;14566300000
2497;14139142000;14066611111;14566611111
2498;14139143000;14066611111;14566611111
2499;14139144000;14066611111;14566611111
2500;14178924000;14107922222;14607922222
2501;14178927000;14107922222;14607922222
2502;14178928000;14107922222;14607922222
2504;14179263000;14107922222;14607922222
2505;14179266000;14107922222;14607922222
2506;14179267000;14107922222;14607922222
2507;14179479000;14107977777;14607977777
2508;14179494000;14108333333;14608333333
2509;14179495000;14108333333;14608333333
2510;14179496000;14108333333;14608333333
2511;14220555000;14149588888;14649588888
2512;14220559000;14149588888;14649588888
2513;14220560000;14149588888;14649588888
2514;14220561000;14149588888;14649588888
2515;14220562000;14149588888;14649588888
2516;14220563000;14149588888;14649588888
2517;14220564000;14149588888;14649588888
2518;14220762000;14149633333;14649633333
2519;14220777000;14149933333;14649933333
2520;14220779000;14149933333;14649933333
2521;14220780000;14149933333;14649933333
2522;14343457000;14191288888;14691288888
2542;14382464000;14233333333;14733333333
2552;14421934000;14274944444;14774944444
2563;14462504000;14316633333;14816633333
2573;14501672000;14357966666;14857966666
2574;14501687000;14358277777;14858277777
2575;14501688000;14358277777;14858277777
2576;14501689000;14358277777;14858277777
2577;14538065000;14399611111;14899611111
2584;14538276000;14399666666;14899666666
2585;14538291000;14399955555;14899955555
2586;14538292000;14399955555;14899955555
2587;14538293000;14399955555;14899955555
2588;14570465000;14441255555;14941255555
2593;14570468000;14441255555;14941255555
2594;14570470000;14441255555;14941255555
2595;14570669000;14441300000;14941300000
2596;14570685000;14441633333;14941633333
2597;14570686000;14441633333;14941633333
2598;14570687000;14441633333;14941633333
2599;14605320000;14482944444;14982944444
2607;14605432000;14483311111;14983311111
2608;14605436000;14483311111;14983311111
2609;14605437000;14483311111;14983311111
2610;14637908000;14524611111;15024611111
2620;14638020000;14524933333;15024933333
2621;14670950000;14566277777;15066277777
2628;14719354000;14566322222;15066322222
2640;14719370000;14608300000;15108300000
2641;14719371000;14608300000;15108300000
2642;14719372000;14608300000;15108300000
2643;14802213000;14649588888;15149588888
2663;14841366000;14691622222;15191622222
2673;14880920000;14733322222;15233322222
2685;14917316000;14774900000;15274900000
2686;14917320000;14774900000;15274900000
2687;14957679000;14816277777;15316277777
2696;14957795000;14816622222;15316622222
2697;14957799000;14816622222;15316622222
2698;14996910000;14857922222;15357922222
2706;14997023000;14858277777;15358277777
2707;14997026000;14858277777;15358277777
2708;14997027000;14858277777;15358277777
2709;15027722000;14899588888;15399588888
2718;15027792000;14899933333;15399933333
2719;15027794000;14899933333;15399933333
2720;15065085000;14941288888;15441288888
2730;15065181000;14941633333;15441633333
2731;15095296000;14982944444;15482944444
2739;15095409000;14983300000;15483300000
2740;15095413000;14983300000;15483300000
2741;15095414000;14983300000;15483300000
2742;15131792000;15024611111;15524611111
2752;15131899000;15024911111;15524911111
2753;15160883000;15066255555;15566255555
2754;15160885000;15066255555;15566255555
2755;15160886000;15066255555;15566255555
2756;15160887000;15066255555;15566255555
2757;15160889000;15066255555;15566255555
2758;15160890000;15066255555;15566255555
2760;15165500000;15066300000;15566300000
2761;15165507000;15066588888;15566588888
2762;15165508000;15066588888;15566588888
2763;15165509000;15066588888;15566588888
2764;15199480000;15107944444;15607944444
2765;15199483000;15107944444;15607944444
2766;15199484000;15107944444;15607944444
2767;15199485000;15107944444;15607944444
2768;15199486000;15107944444;15607944444
2769;15199487000;15107944444;15607944444
2770;15199488000;15107944444;15607944444
2771;15199719000;15107988888;15607988888
2772;15199735000;15108311111;15608311111
2773;15199736000;15108311111;15608311111
2774;15210339000;15108311111;15608311111
2775;15302485000;15149588888;15649588888
2789;15343077000;15191255555;15691255555
2801;15383809000;15232944444;15732944444
2812;15422357000;15274588888;15774588888
2826;15459216000;15316311111;15816311111
2827;15459232000;15316611111;15816611111
2828;15459233000;15316611111;15816611111
2829;15459241000;15316611111;15816611111
2830;15497344000;15357944444;15857944444
2838;15497457000;15358288888;15858288888
2839;15497460000;15358288888;15858288888
2840;15497461000;15358288888;15858288888
2841;15531748000;15399611111;15899611111
2849;15531861000;15399933333;15899933333
2850;15531864000;15399933333;15899933333
2851;15531865000;15399933333;15899933333
2852;15566866000;15441255555;15941255555
2855;15566869000;15441255555;15941255555
2856;15566870000;15441255555;15941255555
2857;15566871000;15441255555;15941255555
2858;15566872000;15441255555;15941255555
2859;15567079000;15441288888;15941288888
2860;15567094000;15441600000;15941600000
2861;15567096000;15441600000;15941600000
2862;15567096000;15441600000;15941600000
2863;15593405000;15482944444;15982944444
2866;15593408000;15482944444;15982944444
2867;15593409000;15482944444;15982944444
2868;15593410000;15482944444;15982944444
2869;15593411000;15482944444;15982944444
2870;15599799000;15482988888;15982988888
2871;15599814000;15483311111;15983311111
2872;15599815000;15483311111;15983311111
2873;15599816000;15483311111;15983311111
2874;15631612000;15524611111;16024611111
2875;15631616000;15524611111;16024611111
2876;15631617000;15524611111;16024611111
2877;15631618000;15524611111;16024611111
2878;15631629000;15524611111;16024611111
2879;15631630000;15524611111;16024611111
2880;15631631000;15524611111;16024611111
2881;15631853000;15524644444;16024644444
2882;15631869000;15524900000;16024900000
2883;15631870000;15524900000;16024900000
2884;15631871000;15524900000;16024900000
2885;15667798000;15566277777;16066277777
2886;15667801000;15566277777;16066277777
2887;15667802000;15566277777;16066277777
2888;15667803000;15566277777;16066277777
2889;15667804000;15566277777;16066277777
2890;15667805000;15566277777;16066277777
2891;15667806000;15566277777;16066277777
2892;15668010000;15566311111;16066311111
2893;15668017000;15566611111;16066611111
2894;15668018000;15566611111;16066611111
2895;15668019000;15566611111;16066611111
2896;15760946000;15607944444;16107944444
2913;15801243000;15649611111;16149611111
2925;15841249000;15691311111;16191311111
2936;15879747000;15732988888;16232988888
2944;15879752000;15774611111;16274611111
2945;15879754000;15774611111;16274611111
2946;15879755000;15774611111;16274611111
2947;15916643000;15774655555;16274655555
2948;15916659000;15774911111;16274911111
2949;15916660000;15774911111;16274911111
2950;15916661000;15774911111;16274911111
2951;15954818000;15816288888;16316288888
2953;15954821000;15816288888;16316288888
2954;15954822000;15816288888;16316288888
2955;15954823000;15816288888;16316288888
2956;15954824000;15816288888;16316288888
2957;15954825000;15816288888;16316288888
2958;15955104000;15816333333;16316333333
2961;15960584000;15816611111;16316611111
2962;15988393000;15857944444;16357944444
2963;15988396000;15857944444;16357944444
2964;15988397000;15857944444;16357944444
2965;15988398000;15857944444;16357944444
2966;15988399000;15857944444;16357944444
2967;15988400000;15857944444;16357944444
2968;15988401000;15857944444;16357944444
2969;15988601000;15857988888;16357988888
2970;15988616000;15858288888;16358288888
2971;15988618000;15858288888;16358288888
2972;15988619000;15858288888;16358288888
2973;16024123000;15899588888;16399588888
2974;16024126000;15899588888;16399588888
2975;16024128000;15899588888;16399588888
2976;16024129000;15899588888;16399588888
2977;16024130000;15899588888;16399588888
2978;16024131000;15899588888;16399588888
2979;16024132000;15899588888;16399588888
2980;16093806000;15899611111;16399611111
2990;16093821000;15941255555;16441255555
2991;16134960000;15941277777;16441277777
3005;16134976000;15983244444;16483244444
3006;16215340000;16024600000;16524600000
3035;16291995000;16107966666;16607966666
3048;16292011000;16149911111;16649911111
3049;16292012000;16149911111;16649911111
3050;16353089000;16191277777;16691277777
3070;16364651000;16233300000;16733300000
3071;16364654000;16233300000;16733300000
3072;16403184000;16274611111;16774611111
3079;16411879000;16274666666;16774666666
3080;16411894000;16274933333;16774933333
3081;16411902000;16274933333;16774933333
3082;16411903000;16274933333;16774933333
3083;16438782000;16316277777;16816277777
3092;16438892000;16316600000;16816600000
3093;16438894000;16316600000;16816600000
3094;16461859000;16357922222;16857922222
3096;16461863000;16357922222;16857922222
3097;16461864000;16357922222;16857922222
3098;16461865000;16357922222;16857922222
3099;16461866000;16357922222;16857922222
3100;16461867000;16357922222;16857922222
3101;16510452000;16357966666;16857966666
3111;16510457000;16399600000;16899600000
3112;16510658000;16399644444;16899644444
3113;16510673000;16399900000;16899900000
3114;16510674000;16399900000;16899900000
3115;16510676000;16399900000;16899900000
3116;16593486000;16441255555;16941255555
3135;16633160000;16483288888;16983288888
3146;16674174000;16524933333;17024933333
3157;16709689000;16566588888;17066588888
3158;16709693000;16566588888;17066588888
3159;16709694000;16566588888;17066588888
3160;16751806000;16607944444;17107944444
3170;16751922000;16608300000;17108300000
3171;16785586000;16649588888;17149588888
3181;16785701000;16649911111;17149911111
3182;16823409000;16691277777;17191277777
3191;16823526000;16691633333;17191633333
3192;16823529000;16691633333;17191633333
3193;16857549000;16732944444;17232944444
3203;16857666000;16733333333;17233333333
3204;16885866000;16774588888;17274588888
3213;16885978000;16774911111;17274911111
3214;16885981000;16774911111;17274911111
3215;16924006000;16816288888;17316288888
3224;16924125000;16816622222;17316622222
3225;16924128000;16816622222;17316622222
3226;16952551000;16857922222;17357922222
3227;16952555000;16857922222;17357922222
3228;16952556000;16857922222;17357922222
3229;16952566000;16857922222;17357922222
3230;16952567000;16857922222;17357922222
3231;16952569000;16857922222;17357922222
3232;16952570000;16857922222;17357922222
3233;16957326000;16857966666;17357966666
3234;16957331000;16858266666;17358266666
3235;16957332000;16858266666;17358266666
3236;16957333000;16858266666;17358266666
3237;16991123000;16899588888;17399588888
3238;16991127000;16899588888;17399588888
3240;16991128000;16899588888;17399588888
3241;16991129000;16899588888;17399588888
3242;16991130000;16899588888;17399588888
3243;16991131000;16899588888;17399588888
3244;16991337000;16899633333;17399633333
3245;16991352000;16899922222;17399922222
3246;16991354000;16899922222;17399922222
3247;16991355000;16899922222;17399922222
3248;17022900000;16941255555;17441255555
3249;17022904000;16941255555;17441255555
3250;17022905000;16941255555;17441255555
3251;17022906000;16941255555;17441255555
3252;17022907000;16941255555;17441255555
3253;17022908000;16941255555;17441255555
3254;17022909000;16941255555;17441255555
3255;17026098000;16941300000;17441300000
3256;17026114000;16941600000;17441600000
3257;17026115000;16941600000;17441600000
3258;17026116000;16941600000;17441600000
3259;17135410000;16982944444;17482944444
3271;17176393000;17024611111;17524611111
3281;17217099000;17066255555;17566255555
3291;17217154000;17066600000;17566600000
3292;17255159000;17107944444;17607944444
3304;17293019000;17149611111;17649611111
3312;17293103000;17149900000;17649900000
3313;17293106000;17149900000;17649900000
3314;17331392000;17191277777;17691277777
3323;17331505000;17191600000;17691600000
3324;17331508000;17191600000;17691600000
3325;17367325000;17232955555;17732955555
3335;17367441000;17233300000;17733300000
3336;17396605000;17274611111;17774611111
3345;17396717000;17274933333;17774933333
3346;17396721000;17274933333;17774933333
3347;17431588000;17316288888;17816288888
3357;17431699000;17316633333;17816633333
3358;17460099000;17357966666;17857966666
3359;17460103000;17357966666;17857966666
3360;17460104000;17357966666;17857966666
3361;17460105000;17357966666;17857966666
3362;17460106000;17357966666;17857966666
3363;17460107000;17357966666;17857966666
3364;17460108000;17357966666;17857966666
3365;17464911000;17358011111;17858011111
3369;17464915000;17399588888;17899588888
3370;17464917000;17399588888;17899588888
3371;17464918000;17399588888;17899588888
3372;17464919000;17399588888;17899588888
3373;17464937000;17399588888;17899588888
3374;17464938000;17399588888;17899588888
3375;17464939000;17399588888;17899588888
3376;17495352000;17399633333;17899633333
3377;17495357000;17399911111;17899911111
3378;17495359000;17399911111;17899911111
3379;17495360000;17399911111;17899911111
3380;17528231000;17441266666;17941266666
3381;17528235000;17441266666;17941266666
3382;17528236000;17441266666;17941266666
3383;17528237000;17441266666;17941266666
3384;17528238000;17441266666;17941266666
3385;17528239000;17441266666;17941266666
3386;17528240000;17441266666;17941266666
3387;17532248000;17441311111;17941311111
3388;17532264000;17441622222;17941622222
3389;17532265000;17441622222;17941622222
3390;17532266000;17441622222;17941622222
3391;17567435000;17482944444;17982944444
3392;17567439000;17482944444;17982944444
3393;17567440000;17482944444;17982944444
3394;17567441000;17482944444;17982944444
3395;17567442000;17482944444;17982944444
3396;17567443000;17482944444;17982944444
3397;17567444000;17482944444;17982944444
3398;17567605000;17482988888;17982988888
3399;17567611000;17483311111;17983311111
3400;17567613000;17483311111;17983311111
3401;17567614000;17483311111;17983311111
3402;17601817000;17524611111;18024611111
3403;17601821000;17524611111;18024611111
3404;17601822000;17524611111;18024611111
3405;17601823000;17524611111;18024611111
3406;17601824000;17524611111;18024611111
3407;17601825000;17524611111;18024611111
3408;17601826000;17524611111;18024611111
3409;17604079000;17524655555;18024655555
3410;17604094000;17524922222;18024922222
3411;17604095000;17524922222;18024922222
3412;17604097000;17524922222;18024922222
3413;17642095000;17566277777;18066277777
3414;17642098000;17566277777;18066277777
3415;17642099000;17566277777;18066277777
3416;17642100000;17566277777;18066277777
3417;17642101000;17566277777;18066277777
3418;17642102000;17566277777;18066277777
3419;17642103000;17566277777;18066277777
3420;17642303000;17566322222;18066322222
3421;17642318000;17566633333;18066633333
3422;17642319000;17566633333;18066633333
3423;17642320000;17566633333;18066633333
3424;17681317000;17607944444;18107944444
3425;17681321000;17607944444;18107944444
3426;17681322000;17607944444;18107944444
3427;17681323000;17607944444;18107944444
3428;17681324000;17607944444;18107944444
3429;17681325000;17607944444;18107944444
3430;17681326000;17607944444;18107944444
3431;17681525000;17607988888;18107988888
3432;17681540000;17608288888;18108288888
3433;17681541000;17608288888;18108288888
3434;17681542000;17608288888;18108288888
3435;17721100000;17649611111;18149611111
3436;17721104000;17649611111;18149611111
3437;17721105000;17649611111;18149611111
3438;17721106000;17649611111;18149611111
3439;17721107000;17649611111;18149611111
3440;17721108000;17649611111;18149611111
3441;17721109000;17649611111;18149611111
3442;17721587000;17649666666;18149666666
3443;17721602000;17649955555;18149955555
3444;17721604000;17649955555;18149955555
3445;17721605000;17649955555;18149955555
3446;17762319000;17691255555;18191255555
3447;17762322000;17691255555;18191255555
3448;17762323000;17691255555;18191255555
3449;17762324000;17691255555;18191255555
3450;17762325000;17691255555;18191255555
3451;17762326000;17691255555;18191255555
3452;17762327000;17691255555;18191255555
3453;17762526000;17691300000;18191300000
3454;17762541000;17691611111;18191611111
3455;17762542000;17691611111;18191611111
3456;17762543000;17691611111;18191611111
3457;17803599000;17732955555;18232955555
3458;17803603000;17732955555;18232955555
3459;17803604000;17732955555;18232955555
3460;17803605000;17732955555;18232955555
3461;17803606000;17732955555;18232955555
3462;17803607000;17732955555;18232955555
3463;17803608000;17732955555;18232955555
3464;17803814000;17733000000;18233000000
3465;17803829000;17733344444;18233344444
3466;17803831000;17733344444;18233344444
3467;17803832000;17733344444;18233344444
3468;17845193000;17774588888;18274588888
3469;17845196000;17774588888;18274588888
3470;17845197000;17774588888;18274588888
3471;17845198000;17774588888;18274588888
3472;17845199000;17774588888;18274588888
3473;17845208000;17774588888;18274588888
3474;17845209000;17774588888;18274588888
3475;17845408000;17774633333;18274633333
3476;17845415000;17774900000;18274900000
3477;17845416000;17774900000;18274900000
3478;17845417000;17774900000;18274900000
3479;17886745000;17816277777;18316277777
3480;17886749000;17816277777;18316277777
3481;17886750000;17816277777;18316277777
3482;17886750000;17816277777;18316277777
3483;17886751000;17816277777;18316277777
3484;17886753000;17816277777;18316277777
3485;17886753000;17816277777;18316277777
3486;17886889000;17816333333;18316333333
3487;17886892000;17816644444;18316644444
3488;17886893000;17816644444;18316644444
3489;17886894000;17816644444;18316644444
3490;17928197000;17857966666;18357966666
3491;17928211000;17857966666;18357966666
3492;17928212000;17857966666;18357966666
3493;17928213000;17857966666;18357966666
3494;17928214000;17857966666;18357966666
3495;17928215000;17857966666;18357966666
3496;17928216000;17857966666;18357966666
3497;17928356000;17858011111;18358011111
3498;17928359000;17858333333;18358333333
3499;17928360000;17858333333;18358333333
3500;17928361000;17858333333;18358333333
3501;17969886000;17899588888;18399588888
3502;17969890000;17899588888;18399588888
3503;17969891000;17899588888;18399588888
3504;17969892000;17899588888;18399588888
3505;17969893000;17899588888;18399588888
3506;17969894000;17899588888;18399588888
3507;17969895000;17899588888;18399588888
3508;17970074000;17899633333;18399633333
3509;17970079000;17899922222;18399922222
3510;17970080000;17899922222;18399922222
3511;17970081000;17899922222;18399922222
3512;18011679000;17941255555;18441255555
3513;18011683000;17941255555;18441255555
3514;18011684000;17941255555;18441255555
3515;18011685000;17941255555;18441255555
3516;18011686000;17941255555;18441255555
3517;18011687000;17941255555;18441255555
3518;18011688000;17941255555;18441255555
3519;18011887000;17941300000;18441300000
3520;18011893000;17941600000;18441600000
3521;18011894000;17941600000;18441600000
3522;18011895000;17941600000;18441600000
3523;18053216000;17982922222;18482922222
3524;18053219000;17982922222;18482922222
3525;18053220000;17982922222;18482922222
3526;18053221000;17982922222;18482922222
3527;18053222000;17982922222;18482922222
3528;18053223000;17982922222;18482922222
3529;18053224000;17982922222;18482922222
3530;18053423000;17982966666;18482966666
3531;18053429000;17983277777;18483277777
3532;18053430000;17983277777;18483277777
3533;18053431000;17983277777;18483277777
3534;18094870000;18024577777;18524577777
3535;18094874000;18024577777;18524577777
3536;18094875000;18024577777;18524577777
3537;18094876000;18024577777;18524577777
3538;18094877000;18024577777;18524577777
3539;18094878000;18024577777;18524577777
3540;18094879000;18024577777;18524577777
3541;18095088000;18024633333;18524633333
3542;18095094000;18024888888;18524888888
3543;18095095000;18024888888;18524888888
3544;18095096000;18024888888;18524888888
3545;18136550000;18066255555;18566255555
3546;18136553000;18066255555;18566255555
3547;18136554000;18066255555;18566255555
3548;18136555000;18066255555;18566255555
3549;18136556000;18066255555;18566255555
3550;18136557000;18066255555;18566255555
3551;18136558000;18066255555;18566255555
3552;18136757000;18066300000;18566300000
3553;18136763000;18066600000;18566600000
3554;18136764000;18066600000;18566600000
3555;18136765000;18066600000;18566600000
3556;18178347000;18107944444;18607944444
3557;18178351000;18107944444;18607944444
3558;18178352000;18107944444;18607944444
3559;18178353000;18107944444;18607944444
3560;18178354000;18107944444;18607944444
3561;18178355000;18107944444;18607944444
3562;18178356000;18107944444;18607944444
3563;18178491000;18107988888;18607988888
3564;18178494000;18108311111;18608311111
3565;18178495000;18108311111;18608311111
3566;18178496000;18108311111;18608311111
3567;18219881000;18149588888;18649588888
3568;18219885000;18149588888;18649588888
3569;18219886000;18149588888;18649588888
3570;18219887000;18149588888;18649588888
3571;18219888000;18149588888;18649588888
3572;18219889000;18149588888;18649588888
3573;18219897000;18149588888;18649588888
3574;18220103000;18149633333;18649633333
3575;18220109000;18149911111;18649911111
3576;18220110000;18149911111;18649911111
3577;18220111000;18149911111;18649911111
3578;18261521000;18191255555;18691255555
3579;18261525000;18191255555;18691255555
3580;18261526000;18191255555;18691255555
3581;18261527000;18191255555;18691255555
3582;18261528000;18191255555;18691255555
3583;18261529000;18191255555;18691255555
3584;18261529000;18191255555;18691255555
3585;18261698000;18191300000;18691300000
3586;18261703000;18191611111;18691611111
3587;18261704000;18191611111;18691611111
3588;18261705000;18191611111;18691611111
3589;18303183000;18232955555;18732955555
3590;18303186000;18232955555;18732955555
3591;18303196000;18232955555;18732955555
3592;18303198000;18232955555;18732955555
3593;18303198000;18232955555;18732955555
3594;18303199000;18232955555;18732955555
3595;18303200000;18232955555;18732955555
3596;18303412000;18233000000;18733000000
3597;18303418000;18233322222;18733322222
3598;18303420000;18233322222;18733322222
3599;18303421000;18233322222;18733322222
3600;18345040000;18274588888;18774588888
3601;18345050000;18274588888;18774588888
3602;18345051000;18274588888;18774588888
3603;18345053000;18274588888;18774588888
3604;18345054000;18274588888;18774588888
3605;18345055000;18274588888;18774588888
3606;18345056000;18274588888;18774588888
3607;18345193000;18274633333;18774633333
3608;18345196000;18274933333;18774933333
3609;18345197000;18274933333;18774933333
3610;18345198000;18274933333;18774933333
3611;18386547000;18316255555;18816255555
3612;18386551000;18316255555;18816255555
3613;18386552000;18316255555;18816255555
3614;18386553000;18316255555;18816255555
3615;18386554000;18316255555;18816255555
3616;18386555000;18316255555;18816255555
3617;18386556000;18316255555;18816255555
3618;18386755000;18316300000;18816300000
3619;18386761000;18316588888;18816588888
3620;18386762000;18316588888;18816588888
3621;18386763000;18316588888;18816588888
3622;18428239000;18357944444;18857944444
3623;18428242000;18357944444;18857944444
3624;18428243000;18357944444;18857944444
3625;18428244000;18357944444;18857944444
3626;18428245000;18357944444;18857944444
3627;18428246000;18357944444;18857944444
3628;18428247000;18357944444;18857944444
3629;18428392000;18357988888;18857988888
3630;18428397000;18358300000;18858300000
3631;18428398000;18358300000;18858300000
3632;18428399000;18358300000;18858300000
3633;18469880000;18399588888;18899588888
3634;18469884000;18399588888;18899588888
3635;18469885000;18399588888;18899588888
3636;18469886000;18399588888;18899588888
3637;18469887000;18399588888;18899588888
3638;18469888000;18399588888;18899588888
3639;18469888000;18399588888;18899588888
3640;18470096000;18399633333;18899633333
3641;18470102000;18399911111;18899911111
3642;18470103000;18399911111;18899911111
3643;18470104000;18399911111;18899911111
3644;18511700000;18441277777;18941277777
3645;18511703000;18441277777;18941277777
3646;18511705000;18441277777;18941277777
3647;18511705000;18441277777;18941277777
3648;18511706000;18441277777;18941277777
3649;18511707000;18441277777;18941277777
3650;18511708000;18441277777;18941277777
3651;18511908000;18441322222;18941322222
3652;18511914000;18441644444;18941644444
3653;18511915000;18441644444;18941644444
3654;18511916000;18441644444;18941644444
3655;18553197000;18482922222;18982922222
3656;18553200000;18482922222;18982922222
3657;18553201000;18482922222;18982922222
3658;18553202000;18482922222;18982922222
3659;18553203000;18482922222;18982922222
3660;18553204000;18482922222;18982922222
3661;18553205000;18482922222;18982922222
3662;18553381000;18482966666;18982966666
3663;18553386000;18483300000;18983300000
3664;18553387000;18483300000;18983300000
3665;18553388000;18483300000;18983300000
3666;18595061000;18524622222;19024622222
3667;18595064000;18524622222;19024622222
3668;18595065000;18524622222;19024622222
3669;18595066000;18524622222;19024622222
3670;18595068000;18524622222;19024622222
3671;18595068000;18524622222;19024622222
3672;18595079000;18524622222;19024622222
3673;18595285000;18524666666;19024666666
3674;18595292000;18524955555;19024955555
3675;18595293000;18524955555;19024955555
3676;18595294000;18524955555;19024955555
3677;18636529000;18566255555;19066255555
3678;18636533000;18566255555;19066255555
3679;18636534000;18566255555;19066255555
3680;18636535000;18566255555;19066255555
3681;18636536000;18566255555;19066255555
3682;18636537000;18566255555;19066255555
3683;18636538000;18566255555;19066255555
3684;18636765000;18566300000;19066300000
3685;18636772000;18566622222;19066622222
3686;18636773000;18566622222;19066622222
3687;18636774000;18566622222;19066622222
3688;18678424000;18607944444;19107944444
3689;18678427000;18607944444;19107944444
3690;18678428000;18607944444;19107944444
3691;18678429000;18607944444;19107944444
3693;18678430000;18607944444;19107944444
3694;18678431000;18607944444;19107944444
3695;18678605000;18607988888;19107988888
3696;18678608000;18608300000;19108300000
3697;18678609000;18608300000;19108300000
3698;18678610000;18608300000;19108300000
3699;18719891000;18649588888;19149588888
3700;18719894000;18649588888;19149588888
3701;18719895000;18649588888;19149588888
3702;18719896000;18649588888;19149588888
3703;18719897000;18649588888;19149588888
3704;18719898000;18649588888;19149588888
3705;18719899000;18649588888;19149588888
3706;18720121000;18649633333;19149633333
3707;18720136000;18649900000;19149900000
3708;18720137000;18649900000;19149900000
3709;18720138000;18649900000;19149900000
3710;18843968000;18691277777;19191277777
3729;18883406000;18733300000;19233300000
3741;18921428000;18774888888;19274888888
3749;18962078000;18816277777;19316277777
3759;19000112000;18857922222;19357922222
3762;19000228000;18858277777;19358277777
3763;19000231000;18858277777;19358277777
3764;19000233000;18858277777;19358277777
3765;19034716000;18899588888;19399588888
3774;19034832000;18899911111;19399911111
3775;19034836000;18899911111;19399911111
3776;19073511000;18941288888;19441288888
3785;19073596000;18941644444;19441644444
3786;19073599000;18941644444;19441644444
3787;19103413000;18982922222;19482922222
3796;19103526000;18983266666;19483266666
3797;19103529000;18983266666;19483266666
3798;19140001000;19024611111;19524611111
3808;19140121000;19024911111;19524911111
3809;19170230000;19066255555;19566255555
3813;19170234000;19066255555;19566255555
3815;19170250000;19066255555;19566255555
3816;19170511000;19066300000;19566300000
3818;19170518000;19066588888;19566588888
3819;19170519000;19066588888;19566588888
3820;19260485000;19107955555;19607955555
3837;19301165000;19149611111;19649611111
3848;19341747000;19191255555;19691255555
3860;19379177000;19232955555;19732955555
3869;19379192000;19274588888;19774588888
3870;19379194000;19274588888;19774588888
3871;19418432000;19274633333;19774633333
3875;19418447000;19316277777;19816277777
3876;19418449000;19316277777;19816277777
3877;19418449000;19316277777;19816277777
3878;19418450000;19316277777;19816277777
3879;19418451000;19316277777;19816277777
3880;19418452000;19316277777;19816277777
3881;19418453000;19316277777;19816277777
3882;19454896000;19316322222;19816322222
3886;19454912000;19357922222;19857922222
3887;19454913000;19357922222;19857922222
3888;19454914000;19357922222;19857922222
3889;19454915000;19357922222;19857922222
3890;19454916000;19357922222;19857922222
3891;19454917000;19357922222;19857922222
3892;19454918000;19357922222;19857922222
3893;19486449000;19357955555;19857955555
3897;19486464000;19399611111;19899611111
3898;19486466000;19399611111;19899611111
3899;19486467000;19399611111;19899611111
3900;19486468000;19399611111;19899611111
3901;19486469000;19399611111;19899611111
3902;19486470000;19399611111;19899611111
3903;19486471000;19399611111;19899611111
3904;19523450000;19399655555;19899655555
3908;19523466000;19441277777;19941277777
3909;19523467000;19441277777;19941277777
3910;19523468000;19441277777;19941277777
3911;19523469000;19441277777;19941277777
3912;19523470000;19441277777;19941277777
3913;19523471000;19441277777;19941277777
3914;19523472000;19441277777;19941277777
3915;19556784000;19441322222;19941322222
3919;19556788000;19482922222;19982922222
3920;19556789000;19482922222;19982922222
3921;19556790000;19482922222;19982922222
3922;19556791000;19482922222;19982922222
3923;19556793000;19482922222;19982922222
3924;19556794000;19482922222;19982922222
3925;19556795000;19482922222;19982922222
3926;19590161000;19482966666;19982966666
3930;19590176000;19524611111;20024611111
3931;19590177000;19524611111;20024611111
3932;19590178000;19524611111;20024611111
3933;19590179000;19524611111;20024611111
3934;19590180000;19524611111;20024611111
3935;19590181000;19524611111;20024611111
3936;19590182000;19524611111;20024611111
3937;19623687000;19524655555;20024655555
3938;19623702000;19524922222;20024922222
3939;19623703000;19524922222;20024922222
3940;19623704000;19524922222;20024922222
3941;19653376000;19566255555;20066255555
3942;19653379000;19566255555;20066255555
3943;19653380000;19566255555;20066255555
3944;19653381000;19566255555;20066255555
3945;19653382000;19566255555;20066255555
3946;19653383000;19566255555;20066255555
3947;19653384000;19566255555;20066255555
3948;19657351000;19566300000;20066300000
3949;19657357000;19566600000;20066600000
3950;19657358000;19566600000;20066600000
3951;19657360000;19566600000;20066600000
3952;19692593000;19607944444;20107944444
3953;19692596000;19607944444;20107944444
3954;19692597000;19607944444;20107944444
3955;19692598000;19607944444;20107944444
3957;19692600000;19607944444;20107944444
3958;19692601000;19607944444;20107944444
3959;19692816000;19607988888;20107988888
3960;19692831000;19608311111;20108311111
3961;19692832000;19608311111;20108311111
3962;19692833000;19608311111;20108311111
3963;19726778000;19649588888;20149588888
3964;19726781000;19649588888;20149588888
3965;19726782000;19649588888;20149588888
3966;19726783000;19649588888;20149588888
3967;19726784000;19649588888;20149588888
3968;19726785000;19649588888;20149588888
3969;19726786000;19649588888;20149588888
3970;19729180000;19649633333;20149633333
3971;19729194000;19649911111;20149911111
3972;19729196000;19649911111;20149911111
3973;19729197000;19649911111;20149911111
3974;19843638000;19691288888;20191288888
3992;19884405000;19732988888;20232988888
4004;19884420000;19774933333;20274933333
4005;19884421000;19774933333;20274933333
4006;19884422000;19774933333;20274933333
4007;19962585000;19816288888;20316288888
4027;19995250000;19858277777;20358277777
4028;19995254000;19858277777;20358277777
4029;20035255000;19899588888;20399588888
4038;20035367000;19899922222;20399922222
4039;20035370000;19899922222;20399922222
4040;20072726000;19941288888;20441288888
4050;20072811000;19941633333;20441633333
4051;20103873000;19982922222;20482922222
4060;20103986000;19983266666;20483266666
4061;20103989000;19983266666;20483266666
4062;20140388000;20024611111;20524611111
4072;20140500000;20024911111;20524911111
4073;20168863000;20066255555;20566255555
4074;20168866000;20066255555;20566255555
4075;20168867000;20066255555;20566255555
4076;20168868000;20066255555;20566255555
4077;20168869000;20066255555;20566255555
4078;20168870000;20066255555;20566255555
4079;20168871000;20066255555;20566255555
4080;20173682000;20066300000;20566300000
4084;20173697000;20107955555;20607955555
4085;20173699000;20107955555;20607955555
4086;20173700000;20107955555;20607955555
4087;20173701000;20107955555;20607955555
4088;20173702000;20107955555;20607955555
4089;20173702000;20107955555;20607955555
4090;20173703000;20107955555;20607955555
4091;20204090000;20108000000;20608000000
4092;20204105000;20108355555;20608355555
4093;20204106000;20108355555;20608355555
4094;20204107000;20108355555;20608355555
4095;20236839000;20149588888;20649588888
4096;20236842000;20149588888;20649588888
4098;20240778000;20149588888;20649588888
4099;20240780000;20149588888;20649588888
4100;20240781000;20149588888;20649588888
4101;20240782000;20149588888;20649588888
4102;20240990000;20149633333;20649633333
4103;20241005000;20149911111;20649911111
4104;20241007000;20149911111;20649911111
4105;20241008000;20149911111;20649911111
4106;20275925000;20191255555;20691255555
4107;20275941000;20191255555;20691255555
4108;20275943000;20191255555;20691255555
4109;20275944000;20191255555;20691255555
4110;20275946000;20191255555;20691255555
4111;20275947000;20191255555;20691255555
4112;20275949000;20191255555;20691255555
4113;20276168000;20191300000;20691300000
4114;20276183000;20191611111;20691611111
4115;20276184000;20191611111;20691611111
4116;20276185000;20191611111;20691611111
4117;20385896000;20232933333;20732933333
4137;20425115000;20274944444;20774944444
4147;20464302000;20316633333;20816633333
4158;20504864000;20358266666;20858266666
4169;20538133000;20399933333;20899933333
4170;20538136000;20399933333;20899933333
4171;20538137000;20399933333;20899933333
4172;20580451000;20441255555;20941255555
4181;20580538000;20441611111;20941611111
4182;20580541000;20441611111;20941611111
4183;20611330000;20482922222;20982922222
4192;20611438000;20483277777;20983277777
4193;20611440000;20483277777;20983277777
4194;20648563000;20524633333;21024633333
4202;20648649000;20524955555;21024955555
4203;20648652000;20524955555;21024955555
4204;20648654000;20524955555;21024955555
4205;20678878000;20566255555;21066255555
4214;20678991000;20566611111;21066611111
4215;20678994000;20566611111;21066611111
4216;20712906000;20607933333;21107933333
4225;20713011000;20608300000;21108300000
4226;20713014000;20608300000;21108300000
4227;20746857000;20649611111;21149611111
4228;20746870000;20649611111;21149611111
4229;20746872000;20649611111;21149611111
4230;20746873000;20649611111;21149611111
4231;20746875000;20649611111;21149611111
4232;20746876000;20649611111;21149611111
4233;20746878000;20649611111;21149611111
4234;20747026000;20649655555;21149655555
4235;20747029000;20649933333;21149933333
4236;20747031000;20649933333;21149933333
4237;20747032000;20649933333;21149933333
4238;20778647000;20691255555;21191255555
4239;20778651000;20691255555;21191255555
4240;20778652000;20691255555;21191255555
4241;20778653000;20691255555;21191255555
4242;20778654000;20691255555;21191255555
4243;20778655000;20691255555;21191255555
4244;20778656000;20691255555;21191255555
4245;20778869000;20691300000;21191300000
4246;20778872000;20691622222;21191622222
4247;20778873000;20691622222;21191622222
4248;20778874000;20691622222;21191622222
4249;20816715000;20732944444;21232944444
4250;20816729000;20732944444;21232944444
4251;20816730000;20732944444;21232944444
4252;20816732000;20732944444;21232944444
4253;20816733000;20732944444;21232944444
4254;20816734000;20732944444;21232944444
4255;20816736000;20732944444;21232944444
4256;20816884000;20732988888;21232988888
4257;20816887000;20733322222;21233322222
4258;20816889000;20733322222;21233322222
4259;20816891000;20733322222;21233322222
4260;20851458000;20774588888;21274588888
4261;20851461000;20774588888;21274588888
4262;20851463000;20774588888;21274588888
4263;20851464000;20774588888;21274588888
4264;20851465000;20774588888;21274588888
4265;20851465000;20774588888;21274588888
4266;20851466000;20774588888;21274588888
4267;20853613000;20774633333;21274633333
4268;20853628000;20774900000;21274900000
4269;20853629000;20774900000;21274900000
4270;20853630000;20774900000;21274900000
4271;20891934000;20816255555;21316255555
4272;20891937000;20816255555;21316255555
4273;20891939000;20816255555;21316255555
4274;20891940000;20816255555;21316255555
4275;20891940000;20816255555;21316255555
4276;20891941000;20816255555;21316255555
4277;20891942000;20816255555;21316255555
4278;20892165000;20816300000;21316300000
4279;20892180000;20816611111;21316611111
4281;20892181000;20816611111;21316611111
4282;20930687000;20857955555;21357955555
4283;20930690000;20857955555;21357955555
4284;20930691000;20857955555;21357955555
4285;20930692000;20857955555;21357955555
4286;20930693000;20857955555;21357955555
4287;20930694000;20857955555;21357955555
4288;20930695000;20857955555;21357955555
4289;20931225000;20858000000;21358000000
4292;20961452000;20858322222;21358322222
4293;21052700000;20899611111;21399611111
4312;21092167000;20941666666;21441666666
4324;21129612000;20983533333;21483533333
4334;21166780000;21024922222;21524922222
4335;21166801000;21024922222;21524922222
4336;21166802000;21024922222;21524922222
4337;21209925000;21066277777;21566277777
4347;21210012000;21066633333;21566633333
4348;21242852000;21107922222;21607922222
4356;21242964000;21108288888;21608288888
4357;21242967000;21108288888;21608288888
4358;21242968000;21108288888;21608288888
4359;21281774000;21149700000;21649700000
4369;21281885000;21150022222;21650022222
4370;21312663000;21191255555;21691255555
4380;21312805000;21191622222;21691622222
4381;21350641000;21232944444;21732944444
4389;21350753000;21233322222;21733322222
4390;21350756000;21233322222;21733322222
4391;21350757000;21233322222;21733322222
4392;21378519000;21274588888;21774588888
4393;21378522000;21274588888;21774588888
4394;21378524000;21274588888;21774588888
4395;21378534000;21274588888;21774588888
4396;21378535000;21274588888;21774588888
4397;21378536000;21274588888;21774588888
4398;21378537000;21274588888;21774588888
4399;21383576000;21274633333;21774633333
4400;21383591000;21274922222;21774922222
4401;21383592000;21274922222;21774922222
4402;21383594000;21274922222;21774922222
4403;21510725000;21316266666;21816266666
4404;21510729000;21316266666;21816266666
4405;21510730000;21316266666;21816266666
4406;21510731000;21316266666;21816266666
4407;21510732000;21316266666;21816266666
4408;21510733000;21316266666;21816266666
4425;22445653000;21399577777;21899577777
4426;22445657000;21399577777;21899577777
4427;22445658000;21399577777;21899577777
4428;22445659000;21399577777;21899577777
4429;22445660000;21399577777;21899577777
4430;22445661000;21399577777;21899577777
4431;22445661000;21399577777;21899577777
4432;22445784000;21399588888;21899588888
4433;22476134000;21399877777;21899877777
4434;22476146000;21399877777;21899877777
4435;22476147000;21399877777;21899877777
4436;22567390000;21441266666;21941266666
4443;22567504000;21441277777;21941277777
4444;22567510000;21441600000;21941600000
4445;22567511000;21441600000;21941600000
4446;22567512000;21441600000;21941600000
4447;22609011000;21482922222;21982922222
4458;22650408000;21524588888;22024588888
4474;22691385000;21566255555;22066255555
4491;22771501000;21649600000;22149600000
4524;22876103000;21774600000;22274600000
4558;22953507000;21899588888;22399588888
4599;22970265000;22024844444;22524844444
4625;23029237000;22149600000;22649600000
4648;23055781000;22232933333;22732933333
4675;23089378000;22316555555;22816555555
4701;23139307000;22441266666;22941266666
4727;23166615000;22524600000;23024600000
4752;23198853000;22608244444;23108244444
4754;23198857000;22608244444;23108244444
4755;23198971000;22649588888;23149588888
4756;23198975000;22649588888;23149588888
4757;23198976000;22649588888;23149588888
4758;23198977000;22649588888;23149588888
4759;23198978000;22649588888;23149588888
4760;23198979000;22649588888;23149588888
4761;23198980000;22649588888;23149588888
4762;23219322000;22649600000;23149600000
4782;23219337000;22732922222;23232922222
4783;23219338000;22732922222;23232922222
4784;23254026000;22732933333;23232933333
4812;23254030000;22857922222;23357922222
4813;23254032000;22857922222;23357922222
4814;23254033000;22857922222;23357922222
4815;23254034000;22857922222;23357922222
4816;23254035000;22857922222;23357922222
4817;23297213000;22857933333;23357933333
4838;23297228000;22941266666;23441266666
4839;23312616000;22941277777;23441277777
4840;23312631000;22941577777;23441577777
4841;23312633000;22941577777;23441577777
4842;23312634000;22941577777;23441577777
4843;23335592000;22982933333;23482933333
4865;23536252000;23066255555;23566255555
4948;23653450000;23357933333;23857933333
4988;23702568000;23524588888;24024588888
5004;23725633000;23566277777;24066277777
5015;23746164000;23607944444;24107944444
5016;23746170000;23608233333;24108233333
5017;23746171000;23608233333;24108233333
5018;23746172000;23608233333;24108233333
5019;23770567000;23649600000;24149600000
5028;23770680000;23649888888;24149888888
5029;23770683000;23649888888;24149888888
5030;23795476000;23691277777;24191277777
5039;23795625000;23691622222;24191622222
5041;23819434000;23732955555;24232955555
5042;23819445000;23732955555;24232955555
5043;23819446000;23732955555;24232955555
5044;23819447000;23732955555;24232955555
5045;23819448000;23732955555;24232955555
5046;23819449000;23732955555;24232955555
5047;23819450000;23732955555;24232955555
5048;23819651000;23733000000;24233000000
5049;23819666000;23733355555;24233355555
5050;23819667000;23733355555;24233355555
5051;23819669000;23733355555;24233355555
5052;23926853000;23774588888;24274588888
5072;23965966000;23816633333;24316633333
5082;24005500000;23858288888;24358288888
5093;24045860000;23899922222;24399922222
5104;24079249000;23941600000;24441600000
5105;24079253000;23941600000;24441600000
5106;24079254000;23941600000;24441600000
5107;24121558000;23982922222;24482922222
5116;24121671000;23983277777;24483277777
5117;24121674000;23983277777;24483277777
5118;24152471000;24024611111;24524611111
5127;24152583000;24024922222;24524922222
5128;24152587000;24024922222;24524922222
5129;24189727000;24066255555;24566255555
5137;24189885000;24066600000;24566600000
5138;24189888000;24066600000;24566600000
5139;24189889000;24066600000;24566600000
5140;24220179000;24107955555;24607955555
5150;24220292000;24108311111;24608311111
5151;24254349000;24149588888;24649588888
5160;24254453000;24149900000;24649900000
5161;24254456000;24149900000;24649900000
5162;24288498000;24191277777;24691277777
5163;24288502000;24191277777;24691277777
5164;24288503000;24191277777;24691277777
5165;24288504000;24191277777;24691277777
5166;24288505000;24191277777;24691277777
5167;24288506000;24191277777;24691277777
5168;24288507000;24191277777;24691277777
5169;24288708000;24191322222;24691322222
5170;24288723000;24191655555;24691655555
5171;24288724000;24191655555;24691655555
5172;24288725000;24191655555;24691655555
5173;24320387000;24232922222;24732922222
5174;24320391000;24232922222;24732922222
5175;24320392000;24232922222;24732922222
5176;24320393000;24232922222;24732922222
5177;24320394000;24232922222;24732922222
5178;24320395000;24232922222;24732922222
5179;24320396000;24232922222;24732922222
5180;24320605000;24232966666;24732966666
5181;24320621000;24233288888;24733288888
5182;24320622000;24233288888;24733288888
5183;24320623000;24233288888;24733288888
5184;24358407000;24274588888;24774588888
5185;24358410000;24274588888;24774588888
5186;24358411000;24274588888;24774588888
5187;24358412000;24274588888;24774588888
5188;24358413000;24274588888;24774588888
5189;24358414000;24274588888;24774588888
5190;24358415000;24274588888;24774588888
5191;24358552000;24274633333;24774633333
5192;24358555000;24274922222;24774922222
5193;24358556000;24274922222;24774922222
5194;24358557000;24274922222;24774922222
5195;24393777000;24316277777;24816277777
5196;24393780000;24316277777;24816277777
5197;24393781000;24316277777;24816277777
5198;24393782000;24316277777;24816277777
5199;24393783000;24316277777;24816277777
5200;24393784000;24316277777;24816277777
5201;24393785000;24316277777;24816277777
5202;24394002000;24316322222;24816322222
5203;24394008000;24316622222;24816622222
5204;24394009000;24316622222;24816622222
5205;24394010000;24316622222;24816622222
5206;24433595000;24357922222;24857922222
5207;24433598000;24357922222;24857922222
5208;24433599000;24357922222;24857922222
5209;24433600000;24357922222;24857922222
5210;24433601000;24357922222;24857922222
5211;24433602000;24357922222;24857922222
5212;24433603000;24357922222;24857922222
5213;24433803000;24357966666;24857966666
5214;24433810000;24358277777;24858277777
5215;24433811000;24358277777;24858277777
5216;24433812000;24358277777;24858277777
5217;24471664000;24399588888;24899588888
5218;24471668000;24399588888;24899588888
5219;24471669000;24399588888;24899588888
5220;24471670000;24399588888;24899588888
5221;24471671000;24399588888;24899588888
5222;24471672000;24399588888;24899588888
5223;24471673000;24399588888;24899588888
5224;24472301000;24399655555;24899655555
5225;24472316000;24399966666;24899966666
5226;24472317000;24399966666;24899966666
5227;24472318000;24399966666;24899966666
5228;24512907000;24441255555;24941255555
5229;24512910000;24441255555;24941255555
5230;24512918000;24441255555;24941255555
5231;24512919000;24441255555;24941255555
5232;24512921000;24441255555;24941255555
5233;24512922000;24441255555;24941255555
5234;24512922000;24441255555;24941255555
5235;24513131000;24441288888;24941288888
5236;24513146000;24441600000;24941600000
5237;24513147000;24441600000;24941600000
5238;24513148000;24441600000;24941600000
5239;24553884000;24482922222;24982922222
5240;24553897000;24482922222;24982922222
5241;24553898000;24482922222;24982922222
5242;24553899000;24482922222;24982922222
5243;24553900000;24482922222;24982922222
5244;24553901000;24482922222;24982922222
5245;24553902000;24482922222;24982922222
5246;24554096000;24482955555;24982955555
5247;24554111000;24483288888;24983288888
5248;24554112000;24483288888;24983288888
5249;24554113000;24483288888;24983288888
5250;24595272000;24524622222;25024622222
5251;24595276000;24524622222;25024622222
5252;24595277000;24524622222;25024622222
5253;24595278000;24524622222;25024622222
5254;24595278000;24524622222;25024622222
5255;24595279000;24524622222;25024622222
5256;24595280000;24524622222;25024622222
5257;24595496000;24524666666;25024666666
5258;24595512000;24524944444;25024944444
5259;24595513000;24524944444;25024944444
5260;24595514000;24524944444;25024944444
5261;24636836000;24566255555;25066255555
5262;24636840000;24566255555;25066255555
5263;24636841000;24566255555;25066255555
5264;24636842000;24566255555;25066255555
5265;24636843000;24566255555;25066255555
5266;24636844000;24566255555;25066255555
5267;24636845000;24566255555;25066255555
5268;24637108000;24566300000;25066300000
5269;24637127000;24566622222;25066622222
5270;24637128000;24566622222;25066622222
5271;24637129000;24566622222;25066622222
5272;24678466000;24607977777;25107977777
5273;24678470000;24607977777;25107977777
5274;24678471000;24607977777;25107977777
5275;24678472000;24607977777;25107977777
5276;24678473000;24607977777;25107977777
5277;24678474000;24607977777;25107977777
5278;24678475000;24607977777;25107977777
5279;24678670000;24608022222;25108022222
5280;24678675000;24608333333;25108333333
5281;24678676000;24608333333;25108333333
5282;24678677000;24608333333;25108333333
5283;24720076000;24649588888;25149588888
5284;24720079000;24649588888;25149588888
5285;24720080000;24649588888;25149588888
5286;24720082000;24649588888;25149588888
5287;24720083000;24649588888;25149588888
5288;24720083000;24649588888;25149588888
5289;24720084000;24649588888;25149588888
5290;24720284000;24649633333;25149633333
5291;24720299000;24649911111;25149911111
5292;24720300000;24649911111;25149911111
5293;24720301000;24649911111;25149911111
5294;24761725000;24691255555;25191255555
5295;24761728000;24691255555;25191255555
5296;24761729000;24691255555;25191255555
5297;24761730000;24691255555;25191255555
5298;24761731000;24691255555;25191255555
5299;24761732000;24691255555;25191255555
5300;24761733000;24691255555;25191255555
5301;24761934000;24691300000;25191300000
5302;24761940000;24691600000;25191600000
5303;24761941000;24691600000;25191600000
5304;24761942000;24691600000;25191600000
5305;24803406000;24732944444;25232944444
5306;24803409000;24732944444;25232944444
5307;24803410000;24732944444;25232944444
5308;24803411000;24732944444;25232944444
5309;24803412000;24732944444;25232944444
5310;24803413000;24732944444;25232944444
5311;24803414000;24732944444;25232944444
5312;24803615000;24732988888;25232988888
5313;24803621000;24733322222;25233322222
5314;24803622000;24733322222;25233322222
5315;24803623000;24733322222;25233322222
5316;24844894000;24774588888;25274588888
5317;24844897000;24774588888;25274588888
5318;24844898000;24774588888;25274588888
5319;24844899000;24774588888;25274588888
5320;24844900000;24774588888;25274588888
5321;24844901000;24774588888;25274588888
5322;24844902000;24774588888;25274588888
5323;24845089000;24774633333;25274633333
5324;24845093000;24774911111;25274911111
5325;24845094000;24774911111;25274911111
5326;24845104000;24774911111;25274911111
5327;24886598000;24816300000;25316300000
5328;24886602000;24816300000;25316300000
5329;24886603000;24816300000;25316300000
5330;24886611000;24816300000;25316300000
5331;24886612000;24816300000;25316300000
5332;24886613000;24816300000;25316300000
5333;24886614000;24816300000;25316300000
5334;24886827000;24816344444;25316344444
5335;24886830000;24816644444;25316644444
5336;24886832000;24816644444;25316644444
5337;24886833000;24816644444;25316644444
5338;24928357000;24857922222;25357922222
5339;24928361000;24857922222;25357922222
5340;24928362000;24857922222;25357922222
5341;24928363000;24857922222;25357922222
5342;24928364000;24857922222;25357922222
5343;24928365000;24857922222;25357922222
5344;24928366000;24857922222;25357922222
5345;24928565000;24857966666;25357966666
5346;24928572000;24858277777;25358277777
5347;24928573000;24858277777;25358277777
5348;24928574000;24858277777;25358277777
5349;24969870000;24899588888;25399588888
5350;24969874000;24899588888;25399588888
5351;24969875000;24899588888;25399588888
5352;24969876000;24899588888;25399588888
5353;24969877000;24899588888;25399588888
5354;24969878000;24899588888;25399588888
5355;24969879000;24899588888;25399588888
5356;24970058000;24899633333;25399633333
5357;24970062000;24899922222;25399922222
5358;24970063000;24899922222;25399922222
5359;24970064000;24899922222;25399922222
5360;25011717000;24941255555;25441255555
5361;25011721000;24941255555;25441255555
5362;25011722000;24941255555;25441255555
5363;25011723000;24941255555;25441255555
5364;25011724000;24941255555;25441255555
5365;25011725000;24941255555;25441255555
5366;25011726000;24941255555;25441255555
5368;25011987000;24941611111;25441611111
5369;25011990000;24941611111;25441611111
5370;25011991000;24941611111;25441611111
5371;25053389000;24982922222;25482922222
5372;25053392000;24982922222;25482922222
5373;25053393000;24982922222;25482922222
5374;25053394000;24982922222;25482922222
5375;25053395000;24982922222;25482922222
5376;25053396000;24982922222;25482922222
5377;25053397000;24982922222;25482922222
5378;25053596000;24982966666;25482966666
5379;25053612000;24983277777;25483277777
5380;25053613000;24983277777;25483277777
5381;25053614000;24983277777;25483277777
5382;25177243000;25024611111;25524611111
5402;25216437000;25066600000;25566600000
5412;25255359000;25108311111;25608311111
5423;25295773000;25149944444;25649944444
5434;25329114000;25191600000;25691600000
5435;25329117000;25191600000;25691600000
5436;25329118000;25191600000;25691600000
5437;25371460000;25232944444;25732944444
5446;25371573000;25233322222;25733322222
5447;25371576000;25233322222;25733322222
5448;25403834000;25274588888;25774588888
5457;25403946000;25274922222;25774922222
5458;25403950000;25274922222;25774922222
5459;25439734000;25316277777;25816277777
5469;25439872000;25316611111;25816611111
5470;25470097000;25357944444;25857944444
5479;25470209000;25358300000;25858300000
5480;25470213000;25358300000;25858300000
5481;25506627000;25399588888;25899588888
5482;25506631000;25399588888;25899588888
5483;25506632000;25399588888;25899588888
5484;25506633000;25399588888;25899588888
5485;25506634000;25399588888;25899588888
5486;25506635000;25399588888;25899588888
5487;25506636000;25399588888;25899588888
5488;25506835000;25399633333;25899633333
5489;25506850000;25399911111;25899911111
5490;25506851000;25399911111;25899911111
5491;25506852000;25399911111;25899911111
5492;25537275000;25441255555;25941255555
5493;25537278000;25441255555;25941255555
5494;25537280000;25441255555;25941255555
5495;25537281000;25441255555;25941255555
5496;25537282000;25441255555;25941255555
5497;25537283000;25441255555;25941255555
5498;25537284000;25441255555;25941255555
5499;25537484000;25441300000;25941300000
