seqnum;now;rtptime;deadline
1;3352413000;3269477777;3769477777
3;3395574000;3300500000;3800500000
14;3433513000;3342133333;3842133333
15;3433530000;3342133333;3842133333
16;3433531000;3342133333;3842133333
17;3433533000;3342133333;3842133333
18;3433535000;3342133333;3842133333
19;3433537000;3342133333;3842133333
20;3433538000;3342133333;3842133333
21;3433755000;3342222222;3842222222
22;3433772000;3342633333;3842633333
23;3433773000;3342633333;3842633333
24;3433774000;3342633333;3842633333
25;3475009000;3383800000;3883800000
26;3475019000;3383800000;3883800000
27;3475021000;3383800000;3883800000
28;3475022000;3383800000;3883800000
29;3475023000;3383800000;3883800000
30;3475025000;3383800000;3883800000
31;3475026000;3383800000;3883800000
32;3475257000;3383877777;3883877777
33;3475275000;3384244444;3884244444
34;3475276000;3384244444;3884244444
35;3475278000;3384244444;3884244444
36;3516180000;3425466666;3925466666
37;3516189000;3425466666;3925466666
38;3516191000;3425466666;3925466666
39;3516193000;3425466666;3925466666
40;3516194000;3425466666;3925466666
41;3516196000;3425466666;3925466666
42;3516197000;3425466666;3925466666
43;3525151000;3425555555;3925555555
47;3525172000;3467166666;3967166666
48;3525174000;3467166666;3967166666
49;3525176000;3467166666;3967166666
50;3525177000;3467166666;3967166666
51;3525178000;3467166666;3967166666
52;3525180000;3467166666;3967166666
53;3525181000;3467166666;3967166666
54;3558077000;3467255555;3967255555
55;3558090000;3467588888;3967588888
56;3558092000;3467588888;3967588888
57;3558094000;3467588888;3967588888
58;3597206000;3508800000;4008800000
59;3597216000;3508800000;4008800000
60;3597219000;3508800000;4008800000
61;3597221000;3508800000;4008800000
62;3597223000;3508800000;4008800000
63;3597226000;3508800000;4008800000
64;3597228000;3508800000;4008800000
65;3597445000;3508877777;4008877777
66;3597461000;3509211111;4009211111
67;3597463000;3509211111;4009211111
68;3597464000;3509211111;4009211111
69;3636521000;3550466666;4050466666
70;3636525000;3550466666;4050466666
71;3636527000;3550466666;4050466666
72;3636528000;3550466666;4050466666
73;3636529000;3550466666;4050466666
74;3636531000;3550466666;4050466666
75;3636532000;3550466666;4050466666
76;3636741000;3550544444;4050544444
77;3636757000;3550888888;4050888888
78;3636758000;3550888888;4050888888
79;3636759000;3550888888;4050888888
80;3675329000;3592133333;4092133333
81;3675332000;3592133333;4092133333
82;3675333000;3592133333;4092133333
83;3675334000;3592133333;4092133333
84;3675335000;3592133333;4092133333
85;3675336000;3592133333;4092133333
86;3675337000;3592133333;4092133333
87;3675537000;3592244444;4092244444
88;3675543000;3592566666;4092566666
89;3675545000;3592566666;4092566666
90;3675546000;3592566666;4092566666
91;3713748000;3633800000;4133800000
92;3713759000;3633800000;4133800000
93;3713760000;3633800000;4133800000
94;3713762000;3633800000;4133800000
95;3713763000;3633800000;4133800000
96;3713765000;3633800000;4133800000
97;3713767000;3633800000;4133800000
98;3713966000;3633877777;4133877777
99;3713972000;3634244444;4134244444
100;3713974000;3634244444;4134244444
101;3713975000;3634244444;4134244444
102;3751770000;3675466666;4175466666
103;3751773000;3675466666;4175466666
104;3751774000;3675466666;4175466666
105;3751776000;3675466666;4175466666
106;3751777000;3675466666;4175466666
107;3751779000;3675466666;4175466666
108;3751789000;3675466666;4175466666
109;3751938000;3675544444;4175544444
110;3751941000;3675833333;4175833333
111;3751942000;3675833333;4175833333
112;3751943000;3675833333;4175833333
113;3789923000;3717133333;4217133333
114;3789927000;3717133333;4217133333
115;3789928000;3717133333;4217133333
116;3789929000;3717133333;4217133333
117;3789930000;3717133333;4217133333
118;3789931000;3717133333;4217133333
119;3789932000;3717133333;4217133333
120;3790179000;3717244444;4217244444
121;3790194000;3717555555;4217555555
122;3790196000;3717555555;4217555555
123;3790196000;3717555555;4217555555
124;3828425000;3758788888;4258788888
125;3828429000;3758788888;4258788888
126;3828430000;3758788888;4258788888
127;3828431000;3758788888;4258788888
128;3828447000;3758788888;4258788888
129;3828448000;3758788888;4258788888
130;3828449000;3758788888;4258788888
131;3828626000;3758877777;4258877777
132;3828631000;3759200000;4259200000
133;3828633000;3759200000;4259200000
134;3828634000;3759200000;4259200000
135;3867320000;3800466666;4300466666
136;3867324000;3800466666;4300466666
137;3867325000;3800466666;4300466666
138;3867326000;3800466666;4300466666
139;3867327000;3800466666;4300466666
140;3867328000;3800466666;4300466666
141;3867329000;3800466666;4300466666
142;3867528000;3800544444;4300544444
143;3867544000;3800822222;4300822222
144;3867545000;3800822222;4300822222
145;3867546000;3800822222;4300822222
146;3964928000;3842133333;4342133333
157;4005731000;3883844444;4383844444
168;4045997000;3925466666;4425466666
179;4084756000;3967122222;4467122222
190;4122152000;4008800000;4508800000
201;4160083000;4050455555;4550455555
212;4196188000;4092122222;4592122222
223;4297709000;4133800000;4633800000
245;4374111000;4217133333;4717133333
267;4441221000;4300466666;4800466666
289;4503108000;4383800000;4883800000
300;4531218000;4425455555;4925455555
311;4560506000;4467166666;4967166666
312;4560509000;4467166666;4967166666
313;4560510000;4467166666;4967166666
314;4560511000;4467166666;4967166666
315;4560512000;4467166666;4967166666
316;4560513000;4467166666;4967166666
317;4560514000;4467166666;4967166666
318;4560741000;4467255555;4967255555
319;4560749000;4467555555;4967555555
320;4560750000;4467555555;4967555555
321;4560752000;4467555555;4967555555
322;4593588000;4508788888;5008788888
323;4593591000;4508788888;5008788888
324;4593592000;4508788888;5008788888
325;4593593000;4508788888;5008788888
326;4593594000;4508788888;5008788888
327;4593595000;4508788888;5008788888
328;4593596000;4508788888;5008788888
329;4593804000;4508866666;5008866666
330;4593819000;4509166666;5009166666
331;4593821000;4509166666;5009166666
332;4593821000;4509166666;5009166666
333;4627652000;4550455555;5050455555
334;4627656000;4550455555;5050455555
335;4627657000;4550455555;5050455555
336;4627658000;4550455555;5050455555
337;4627659000;4550455555;5050455555
338;4627660000;4550455555;5050455555
339;4627661000;4550455555;5050455555
340;4627811000;4550533333;5050533333
341;4627815000;4550822222;5050822222
342;4627817000;4550822222;5050822222
343;4627818000;4550822222;5050822222
344;4663039000;4592122222;5092122222
345;4663062000;4592122222;5092122222
346;4663065000;4592122222;5092122222
347;4663066000;4592122222;5092122222
348;4663067000;4592122222;5092122222
349;4663068000;4592122222;5092122222
350;4663069000;4592122222;5092122222
351;4663286000;4592233333;5092233333
352;4663294000;4592544444;5092544444
353;4663295000;4592544444;5092544444
354;4663296000;4592544444;5092544444
355;4699903000;4633788888;5133788888
356;4699906000;4633788888;5133788888
357;4699908000;4633788888;5133788888
358;4699908000;4633788888;5133788888
359;4699909000;4633788888;5133788888
360;4699910000;4633788888;5133788888
361;4699911000;4633788888;5133788888
362;4700111000;4633877777;5133877777
363;4700127000;4634188888;5134188888
364;4700128000;4634188888;5134188888
365;4700129000;4634188888;5134188888
366;4738477000;4675455555;5175455555
367;4738481000;4675455555;5175455555
368;4738482000;4675455555;5175455555
369;4738483000;4675455555;5175455555
370;4738484000;4675455555;5175455555
371;4738485000;4675455555;5175455555
372;4738486000;4675455555;5175455555
373;4738731000;4675544444;5175544444
374;4738746000;4675811111;5175811111
375;4738747000;4675811111;5175811111
376;4738748000;4675811111;5175811111
377;4778882000;4717122222;5217122222
378;4778886000;4717122222;5217122222
379;4778887000;4717122222;5217122222
380;4778888000;4717122222;5217122222
381;4778889000;4717122222;5217122222
382;4778890000;4717122222;5217122222
383;4778891000;4717122222;5217122222
384;4779115000;4717233333;5217233333
385;4779123000;4717533333;5217533333
386;4779124000;4717533333;5217533333
387;4779125000;4717533333;5217533333
388;4819773000;4758822222;5258822222
389;4819777000;4758822222;5258822222
390;4819778000;4758822222;5258822222
391;4819779000;4758822222;5258822222
392;4819787000;4758822222;5258822222
393;4819788000;4758822222;5258822222
394;4819789000;4758822222;5258822222
395;4819989000;4758900000;5258900000
396;4819995000;4759222222;5259222222
397;4819996000;4759222222;5259222222
398;4819997000;4759222222;5259222222
399;4924891000;4800466666;5300466666
410;4963639000;4842177777;5342177777
421;5008526000;4883800000;5383800000
432;5043165000;4925455555;5425455555
443;5080926000;4967155555;5467155555
454;5117927000;5008788888;5508788888
465;5154154000;5050455555;5550455555
476;5186284000;5092133333;5592133333
487;5224533000;5133800000;5633800000
488;5224537000;5133800000;5633800000
489;5224538000;5133800000;5633800000
490;5224539000;5133800000;5633800000
491;5224540000;5133800000;5633800000
492;5224541000;5133800000;5633800000
493;5224542000;5133800000;5633800000
494;5224741000;5133877777;5633877777
495;5224756000;5134211111;5634211111
496;5224757000;5134211111;5634211111
497;5224759000;5134211111;5634211111
498;5259532000;5175455555;5675455555
499;5259536000;5175455555;5675455555
500;5259537000;5175455555;5675455555
501;5259538000;5175455555;5675455555
502;5259539000;5175455555;5675455555
503;5259540000;5175455555;5675455555
504;5259541000;5175455555;5675455555
505;5259719000;5175544444;5675544444
506;5259724000;5175833333;5675833333
507;5259725000;5175833333;5675833333
508;5259726000;5175833333;5675833333
509;5381064000;5217122222;5717122222
531;5457994000;5300466666;5800466666
553;5529149000;5383788888;5883788888
575;5588160000;5467133333;5967133333
586;5618749000;5508800000;6008800000
597;5649491000;5550466666;6050466666
608;5681075000;5592133333;6092133333
609;5681078000;5592133333;6092133333
610;5681079000;5592133333;6092133333
611;5681080000;5592133333;6092133333
612;5681081000;5592133333;6092133333
613;5681082000;5592133333;6092133333
614;5681084000;5592133333;6092133333
615;5681292000;5592244444;6092244444
616;5681307000;5592555555;6092555555
617;5681308000;5592555555;6092555555
618;5681309000;5592555555;6092555555
619;5713622000;5633788888;6133788888
620;5713626000;5633788888;6133788888
621;5713628000;5633788888;6133788888
622;5713630000;5633788888;6133788888
623;5713632000;5633788888;6133788888
624;5713633000;5633788888;6133788888
625;5713635000;5633788888;6133788888
626;5713841000;5633877777;6133877777
627;5713857000;5634200000;6134200000
628;5713858000;5634200000;6134200000
629;5713859000;5634200000;6134200000
630;5748108000;5675455555;6175455555
631;5748111000;5675455555;6175455555
632;5748112000;5675455555;6175455555
633;5748113000;5675455555;6175455555
634;5748114000;5675455555;6175455555
635;5748115000;5675455555;6175455555
636;5748125000;5675455555;6175455555
637;5748265000;5675544444;6175544444
638;5748268000;5675822222;6175822222
639;5748269000;5675822222;6175822222
640;5748270000;5675822222;6175822222
641;5784702000;5717122222;6217122222
642;5784706000;5717122222;6217122222
643;5784707000;5717122222;6217122222
644;5784708000;5717122222;6217122222
645;5784709000;5717122222;6217122222
646;5784710000;5717122222;6217122222
647;5784711000;5717122222;6217122222
648;5784917000;5717233333;6217233333
649;5784933000;5717544444;6217544444
650;5784935000;5717544444;6217544444
651;5784936000;5717544444;6217544444
652;5922836000;5758788888;6258788888
674;5999706000;5842133333;6342133333
696;6069453000;5925466666;6425466666
718;6126074000;6008788888;6508788888
729;6160372000;6050477777;6550477777
740;6189921000;6092122222;6592122222
751;6221772000;6133800000;6633800000
752;6221775000;6133800000;6633800000
753;6221776000;6133800000;6633800000
754;6221777000;6133800000;6633800000
755;6221778000;6133800000;6633800000
756;6221779000;6133800000;6633800000
757;6221780000;6133800000;6633800000
758;6221979000;6133877777;6633877777
759;6221994000;6134200000;6634200000
760;6221995000;6134200000;6634200000
761;6221996000;6134200000;6634200000
762;6253411000;6175455555;6675455555
763;6253415000;6175455555;6675455555
764;6253416000;6175455555;6675455555
765;6253417000;6175455555;6675455555
766;6253418000;6175455555;6675455555
767;6253419000;6175455555;6675455555
768;6253429000;6175455555;6675455555
769;6253607000;6175544444;6675544444
770;6253611000;6175844444;6675844444
771;6253612000;6175844444;6675844444
772;6253613000;6175844444;6675844444
773;6422192000;6217122222;6717122222
806;6522170000;6342133333;6842133333
839;6600466000;6467133333;6967133333
850;6625977000;6508788888;7008788888
861;6652980000;6550466666;7050466666
872;6675938000;6592122222;7092122222
873;6675942000;6592122222;7092122222
874;6675943000;6592122222;7092122222
875;6675944000;6592122222;7092122222
876;6675945000;6592122222;7092122222
877;6675946000;6592122222;7092122222
878;6675947000;6592122222;7092122222
879;6681642000;6592233333;7092233333
880;6681658000;6592566666;7092566666
881;6681659000;6592566666;7092566666
882;6681660000;6592566666;7092566666
883;6712643000;6633800000;7133800000
884;6712647000;6633800000;7133800000
885;6712648000;6633800000;7133800000
886;6712649000;6633800000;7133800000
887;6712650000;6633800000;7133800000
888;6712651000;6633800000;7133800000
889;6712651000;6633800000;7133800000
890;6712851000;6633877777;7133877777
891;6712866000;6634211111;7134211111
892;6712867000;6634211111;7134211111
893;6712868000;6634211111;7134211111
894;6798480000;6675466666;7175466666
905;6880288000;6717133333;7217133333
927;6957709000;6800455555;7300455555
949;7023199000;6883800000;7383800000
971;7087676000;6967122222;7467122222
982;7113027000;7008788888;7508788888
993;7146571000;7050455555;7550455555
1004;7178847000;7092122222;7592122222
1005;7178851000;7092122222;7592122222
1006;7178852000;7092122222;7592122222
1007;7178853000;7092122222;7592122222
1008;7178854000;7092122222;7592122222
1009;7178855000;7092122222;7592122222
1010;7178856000;7092122222;7592122222
1011;7179055000;7092233333;7592233333
1012;7179061000;7092566666;7592566666
1013;7179062000;7092566666;7592566666
1014;7179063000;7092566666;7592566666
1015;7212096000;7133788888;7633788888
1016;7212100000;7133788888;7633788888
1017;7212101000;7133788888;7633788888
1018;7212102000;7133788888;7633788888
1019;7212103000;7133788888;7633788888
1020;7212104000;7133788888;7633788888
1021;7212105000;7133788888;7633788888
1022;7212311000;7133877777;7633877777
1023;7212326000;7134222222;7634222222
1024;7212328000;7134222222;7634222222
1025;7212329000;7134222222;7634222222
1026;7247108000;7175455555;7675455555
1027;7247111000;7175455555;7675455555
1028;7247112000;7175455555;7675455555
1029;7247113000;7175455555;7675455555
1030;7247115000;7175455555;7675455555
1031;7247116000;7175455555;7675455555
1032;7247116000;7175455555;7675455555
1033;7247323000;7175544444;7675544444
1034;7247329000;7175855555;7675855555
1035;7247330000;7175855555;7675855555
1036;7247332000;7175855555;7675855555
1037;7284031000;7217122222;7717122222
1038;7284034000;7217122222;7717122222
1039;7284035000;7217122222;7717122222
1040;7284036000;7217122222;7717122222
1041;7284037000;7217122222;7717122222
1042;7284039000;7217122222;7717122222
1043;7284040000;7217122222;7717122222
1044;7284208000;7217233333;7717233333
1045;7284215000;7217588888;7717588888
1046;7284216000;7217588888;7717588888
1047;7284217000;7217588888;7717588888
1048;7380854000;7258800000;7758800000
1059;7421505000;7300455555;7800455555
1070;7461441000;7342122222;7842122222
1081;7500873000;7383788888;7883788888
1092;7538562000;7425455555;7925455555
1103;7575298000;7467133333;7967133333
1114;7608580000;7508800000;8008800000
1125;7646439000;7550455555;8050455555
1136;7679470000;7592122222;8092122222
1137;7679473000;7592122222;8092122222
1138;7679474000;7592122222;8092122222
1139;7679475000;7592122222;8092122222
1140;7679476000;7592122222;8092122222
1141;7679477000;7592122222;8092122222
1142;7679478000;7592122222;8092122222
1143;7679678000;7592233333;8092233333
1144;7679684000;7592544444;8092544444
1145;7679685000;7592544444;8092544444
1146;7679686000;7592544444;8092544444
1147;7715221000;7633788888;8133788888
1148;7715225000;7633788888;8133788888
1149;7715226000;7633788888;8133788888
1150;7715227000;7633788888;8133788888
1151;7715228000;7633788888;8133788888
1152;7715230000;7633788888;8133788888
1153;7715231000;7633788888;8133788888
1154;7715428000;7633866666;8133866666
1155;7715433000;7634188888;8134188888
1156;7715434000;7634188888;8134188888
1157;7715435000;7634188888;8134188888
1158;7750798000;7675455555;8175455555
1159;7750801000;7675455555;8175455555
1160;7750802000;7675455555;8175455555
1161;7750803000;7675455555;8175455555
1162;7750804000;7675455555;8175455555
1163;7750805000;7675455555;8175455555
1164;7750806000;7675455555;8175455555
1165;7751013000;7675544444;8175544444
1166;7751029000;7675822222;8175822222
1167;7751030000;7675822222;8175822222
1168;7751031000;7675822222;8175822222
1169;7787884000;7717122222;8217122222
1170;7787888000;7717122222;8217122222
1171;7787889000;7717122222;8217122222
1172;7787890000;7717122222;8217122222
1173;7787891000;7717122222;8217122222
1174;7787892000;7717122222;8217122222
1175;7787893000;7717122222;8217122222
1176;7788107000;7717233333;8217233333
1177;7788114000;7717544444;8217544444
1178;7788115000;7717544444;8217544444
1179;7788116000;7717544444;8217544444
1180;7825750000;7758800000;8258800000
1181;7825754000;7758800000;8258800000
1182;7825755000;7758800000;8258800000
1183;7825756000;7758800000;8258800000
1184;7825757000;7758800000;8258800000
1185;7825758000;7758800000;8258800000
1186;7825759000;7758800000;8258800000
1187;7825966000;7758877777;8258877777
1188;7825981000;7759200000;8259200000
1189;7825983000;7759200000;8259200000
1190;7825983000;7759200000;8259200000
1191;8004828000;7800455555;8300455555
1224;8104646000;7925455555;8425455555
1257;8183948000;8050455555;8550455555
1268;8209448000;8092122222;8592122222
1279;8234330000;8133788888;8633788888
1290;8262256000;8175455555;8675455555
1291;8262259000;8175455555;8675455555
1292;8262260000;8175455555;8675455555
1293;8262262000;8175455555;8675455555
1294;8262263000;8175455555;8675455555
1295;8262263000;8175455555;8675455555
1296;8262264000;8175455555;8675455555
1297;8262470000;8175533333;8675533333
1298;8262486000;8175844444;8675844444
1299;8262487000;8175844444;8675844444
1300;8262488000;8175844444;8675844444
1301;8294233000;8217122222;8717122222
1302;8294237000;8217122222;8717122222
1303;8294238000;8217122222;8717122222
1304;8294239000;8217122222;8717122222
1305;8294240000;8217122222;8717122222
1306;8294241000;8217122222;8717122222
1307;8294242000;8217122222;8717122222
1308;8294448000;8217233333;8717233333
1309;8294463000;8217577777;8717577777
1310;8294465000;8217577777;8717577777
1311;8294466000;8217577777;8717577777
1312;8328982000;8258788888;8758788888
1313;8328986000;8258788888;8758788888
1314;8328987000;8258788888;8758788888
1315;8328988000;8258788888;8758788888
1316;8328989000;8258788888;8758788888
1317;8328990000;8258788888;8758788888
1318;8328991000;8258788888;8758788888
1319;8329218000;8258877777;8758877777
1320;8329225000;8259200000;8759200000
1321;8329227000;8259200000;8759200000
1322;8329228000;8259200000;8759200000
1323;8366047000;8300466666;8800466666
1324;8366051000;8300466666;8800466666
1325;8366052000;8300466666;8800466666
1326;8366053000;8300466666;8800466666
1327;8366054000;8300466666;8800466666
1328;8366055000;8300466666;8800466666
1329;8366056000;8300466666;8800466666
1330;8366262000;8300544444;8800544444
1331;8366277000;8300822222;8800822222
1332;8366279000;8300822222;8800822222
1333;8366280000;8300822222;8800822222
1334;8465027000;8342133333;8842133333
1340;8465032000;8342133333;8842133333
1347;8505736000;8383800000;8883800000
1356;8545862000;8425455555;8925455555
1367;8585145000;8467133333;8967133333
1378;8622479000;8508788888;9008788888
1389;8659149000;8550455555;9050455555
1400;8695350000;8592122222;9092122222
1411;8730811000;8633800000;9133800000
1422;8765880000;8675466666;9175466666
1423;8765883000;8675466666;9175466666
1424;8765884000;8675466666;9175466666
1425;8765885000;8675466666;9175466666
1426;8765886000;8675466666;9175466666
1427;8765887000;8675466666;9175466666
1428;8765888000;8675466666;9175466666
1429;8766101000;8675544444;9175544444
1430;8766117000;8675833333;9175833333
1431;8766118000;8675833333;9175833333
1432;8766119000;8675833333;9175833333
1433;8800949000;8717122222;9217122222
1434;8800953000;8717122222;9217122222
1435;8800963000;8717122222;9217122222
1436;8800964000;8717122222;9217122222
1437;8800965000;8717122222;9217122222
1438;8800966000;8717122222;9217122222
1439;8800967000;8717122222;9217122222
1440;8801174000;8717233333;9217233333
1441;8801190000;8717544444;9217544444
1442;8801191000;8717544444;9217544444
1443;8801192000;8717544444;9217544444
1444;8835010000;8758822222;9258822222
1445;8835012000;8758822222;9258822222
1446;8835013000;8758822222;9258822222
1447;8835014000;8758822222;9258822222
1448;8835015000;8758822222;9258822222
1449;8835016000;8758822222;9258822222
1450;8835018000;8758822222;9258822222
1451;8835165000;8758900000;9258900000
1452;8835168000;8759233333;9259233333
1453;8835170000;8759233333;9259233333
1454;8835170000;8759233333;9259233333
1455;8871773000;8800455555;9300455555
1456;8871777000;8800455555;9300455555
1457;8871778000;8800455555;9300455555
1458;8871779000;8800455555;9300455555
1459;8871780000;8800455555;9300455555
1460;8871781000;8800455555;9300455555
1461;8871781000;8800455555;9300455555
1462;8871988000;8800533333;9300533333
1463;8871995000;8800822222;9300822222
1464;8871996000;8800822222;9300822222
1465;8871997000;8800822222;9300822222
1466;8909296000;8842122222;9342122222
1467;8909299000;8842122222;9342122222
1468;8909300000;8842122222;9342122222
1469;8909301000;8842122222;9342122222
1470;8909302000;8842122222;9342122222
1471;8909303000;8842122222;9342122222
1472;8909304000;8842122222;9342122222
1473;8909510000;8842233333;9342233333
1474;8909517000;8842555555;9342555555
1475;8909518000;8842555555;9342555555
1476;8909519000;8842555555;9342555555
1477;8948213000;8883788888;9383788888
1478;8948217000;8883788888;9383788888
1479;8948219000;8883788888;9383788888
1480;8948220000;8883788888;9383788888
1481;8948221000;8883788888;9383788888
1482;8948222000;8883788888;9383788888
1483;8948223000;8883788888;9383788888
1484;8948411000;8883877777;9383877777
1485;8948416000;8884211111;9384211111
1486;8948418000;8884211111;9384211111
1487;8948419000;8884211111;9384211111
1488;8987773000;8925466666;9425466666
1489;8987776000;8925466666;9425466666
1490;8987778000;8925466666;9425466666
1491;8987779000;8925466666;9425466666
1492;8987780000;8925466666;9425466666
1493;8987781000;8925466666;9425466666
1494;8987791000;8925466666;9425466666
1495;8988024000;8925544444;9425544444
1496;8988031000;8925866666;9425866666
1497;8988032000;8925866666;9425866666
1498;8988033000;8925866666;9425866666
1499;9028499000;8967188888;9467188888
1500;9028503000;8967188888;9467188888
1501;9028504000;8967188888;9467188888
1502;9028505000;8967188888;9467188888
1503;9028506000;8967188888;9467188888
1504;9028507000;8967188888;9467188888
1505;9028508000;8967188888;9467188888
1506;9028689000;8967266666;9467266666
1507;9028694000;8967566666;9467566666
1508;9028695000;8967566666;9467566666
1509;9028696000;8967566666;9467566666
1510;9069570000;9008800000;9508800000
1511;9069574000;9008800000;9508800000
1512;9069575000;9008800000;9508800000
1513;9069576000;9008800000;9508800000
1514;9069577000;9008800000;9508800000
1515;9069577000;9008800000;9508800000
1516;9069578000;9008800000;9508800000
1517;9069779000;9008877777;9508877777
1518;9069785000;9009188888;9509188888
1519;9069786000;9009188888;9509188888
1520;9069787000;9009188888;9509188888
1521;9110945000;9050455555;9550455555
1522;9110948000;9050455555;9550455555
1523;9110949000;9050455555;9550455555
1524;9110950000;9050455555;9550455555
1525;9110951000;9050455555;9550455555
1526;9110952000;9050455555;9550455555
1527;9110953000;9050455555;9550455555
1528;9111160000;9050544444;9550544444
1529;9111167000;9050822222;9550822222
1530;9111168000;9050822222;9550822222
1531;9111169000;9050822222;9550822222
1532;9152333000;9092122222;9592122222
1533;9152336000;9092122222;9592122222
1534;9152337000;9092122222;9592122222
1535;9152338000;9092122222;9592122222
1536;9152339000;9092122222;9592122222
1537;9152340000;9092122222;9592122222
1538;9152341000;9092122222;9592122222
1539;9152511000;9092233333;9592233333
1540;9152515000;9092577777;9592577777
1541;9152517000;9092577777;9592577777
1542;9152518000;9092577777;9592577777
1543;9194145000;9133800000;9633800000
1544;9194148000;9133800000;9633800000
1545;9194149000;9133800000;9633800000
1546;9194150000;9133800000;9633800000
1547;9194151000;9133800000;9633800000
1548;9194152000;9133800000;9633800000
1549;9194153000;9133800000;9633800000
1550;9194353000;9133877777;9633877777
1551;9194359000;9134211111;9634211111
1552;9194360000;9134211111;9634211111
1553;9194361000;9134211111;9634211111
1554;9235739000;9175466666;9675466666
1555;9235742000;9175466666;9675466666
1556;9235743000;9175466666;9675466666
1557;9235744000;9175466666;9675466666
1558;9235745000;9175466666;9675466666
1559;9235746000;9175466666;9675466666
1560;9235747000;9175466666;9675466666
1561;9235953000;9175544444;9675544444
1562;9235960000;9175855555;9675855555
1563;9235961000;9175855555;9675855555
1564;9235962000;9175855555;9675855555
1565;9277412000;9217133333;9717133333
1566;9277416000;9217133333;9717133333
1567;9277417000;9217133333;9717133333
1568;9277418000;9217133333;9717133333
1569;9277419000;9217133333;9717133333
1570;9277420000;9217133333;9717133333
1571;9277421000;9217133333;9717133333
1572;9277622000;9217233333;9717233333
1573;9277628000;9217577777;9717577777
1574;9277629000;9217577777;9717577777
1575;9277630000;9217577777;9717577777
1576;9422848000;9258788888;9758788888
1598;9499675000;9342133333;9842133333
1620;9567503000;9425466666;9925466666
1642;9631134000;9508800000;10008800000
1653;9661424000;9550455555;10050455555
1664;9692087000;9592122222;10092122222
1675;9723366000;9633800000;10133800000
1676;9723369000;9633800000;10133800000
1677;9723370000;9633800000;10133800000
1678;9723371000;9633800000;10133800000
1679;9723372000;9633800000;10133800000
1680;9723373000;9633800000;10133800000
1681;9723374000;9633800000;10133800000
1682;9723573000;9633877777;10133877777
1683;9723579000;9634233333;10134233333
1684;9723589000;9634233333;10134233333
1685;9723590000;9634233333;10134233333
1686;9755711000;9675455555;10175455555
1687;9755715000;9675455555;10175455555
1688;9755716000;9675455555;10175455555
1689;9755717000;9675455555;10175455555
1690;9755718000;9675455555;10175455555
1691;9755719000;9675455555;10175455555
1692;9755720000;9675455555;10175455555
1693;9755897000;9675533333;10175533333
1694;9755901000;9675833333;10175833333
1695;9755902000;9675833333;10175833333
1696;9755903000;9675833333;10175833333
1697;9790064000;9717122222;10217122222
1698;9790067000;9717122222;10217122222
1699;9790069000;9717122222;10217122222
1700;9790070000;9717122222;10217122222
1701;9790071000;9717122222;10217122222
1702;9790071000;9717122222;10217122222
1703;9790072000;9717122222;10217122222
1704;9790278000;9717233333;10217233333
1705;9790285000;9717555555;10217555555
1706;9790286000;9717555555;10217555555
1707;9790287000;9717555555;10217555555
1708;9922546000;9758788888;10258788888
1732;9999035000;9842133333;10342133333
1752;10067869000;9925455555;10425455555
1774;10131420000;10008788888;10508788888
1785;10161740000;10050455555;10550455555
1796;10297105000;10092177777;10592177777
1829;10396697000;10217133333;10717133333
1862;10473163000;10342122222;10842122222
1873;10495283000;10383800000;10883800000
1884;10522223000;10425455555;10925455555
1895;10551583000;10467122222;10967122222
1896;10551586000;10467122222;10967122222
1897;10551587000;10467122222;10967122222
1898;10551588000;10467122222;10967122222
1899;10551589000;10467122222;10967122222
1900;10551590000;10467122222;10967122222
1901;10551591000;10467122222;10967122222
1902;10551816000;10467233333;10967233333
1903;10551831000;10467544444;10967544444
1904;10551833000;10467544444;10967544444
1905;10551833000;10467544444;10967544444
1906;10584543000;10508822222;11008822222
1907;10584546000;10508822222;11008822222
1908;10584547000;10508822222;11008822222
1909;10584548000;10508822222;11008822222
1910;10584549000;10508822222;11008822222
1911;10584550000;10508822222;11008822222
1912;10584551000;10508822222;11008822222
1913;10584750000;10508933333;11008933333
1914;10584765000;10509244444;11009244444
1915;10584766000;10509244444;11009244444
1916;10584767000;10509244444;11009244444
1917;10619840000;10550455555;11050455555
1918;10619844000;10550455555;11050455555
1919;10619845000;10550455555;11050455555
1920;10619846000;10550455555;11050455555
1921;10619847000;10550455555;11050455555
1922;10619848000;10550455555;11050455555
1923;10619849000;10550455555;11050455555
1924;10620055000;10550544444;11050544444
1925;10620062000;10550822222;11050822222
1926;10620063000;10550822222;11050822222
1927;10620064000;10550822222;11050822222
1928;10656882000;10592133333;11092133333
1929;10656884000;10592133333;11092133333
1930;10656886000;10592133333;11092133333
1931;10656887000;10592133333;11092133333
1932;10656888000;10592133333;11092133333
1933;10656889000;10592133333;11092133333
1934;10656890000;10592133333;11092133333
1935;10657057000;10592233333;11092233333
1936;10657060000;10592533333;11092533333
1937;10657061000;10592533333;11092533333
1938;10657062000;10592533333;11092533333
1939;10696381000;10633800000;11133800000
1940;10696384000;10633800000;11133800000
1941;10696385000;10633800000;11133800000
1942;10696387000;10633800000;11133800000
1943;10696388000;10633800000;11133800000
1944;10696389000;10633800000;11133800000
1945;10696389000;10633800000;11133800000
1946;10696596000;10633877777;11133877777
1947;10696611000;10634211111;11134211111
1948;10696613000;10634211111;11134211111
1949;10696614000;10634211111;11134211111
1950;10736738000;10675455555;11175455555
1951;10736742000;10675455555;11175455555
1952;10736743000;10675455555;11175455555
1953;10736744000;10675455555;11175455555
1954;10736745000;10675455555;11175455555
1955;10736746000;10675455555;11175455555
1956;10736747000;10675455555;11175455555
1957;10736952000;10675544444;11175544444
1958;10736968000;10675811111;11175811111
1959;10736969000;10675811111;11175811111
1960;10736970000;10675811111;11175811111
1961;10777705000;10717122222;11217122222
1962;10777708000;10717122222;11217122222
1963;10777709000;10717122222;11217122222
1964;10777710000;10717122222;11217122222
1965;10777711000;10717122222;11217122222
1966;10777712000;10717122222;11217122222
1967;10777713000;10717122222;11217122222
1968;10777911000;10717233333;11217233333
1969;10777927000;10717533333;11217533333
1970;10777928000;10717533333;11217533333
1971;10777929000;10717533333;11217533333
1972;10923215000;10758788888;11258788888
1994;10999381000;10842122222;11342122222
2016;11067678000;10925455555;11425455555
2038;11130019000;11008800000;11508800000
2049;11160605000;11050455555;11550455555
2060;11191399000;11092133333;11592133333
2071;11223007000;11133800000;11633800000
2072;11223011000;11133800000;11633800000
2073;11223012000;11133800000;11633800000
2074;11223013000;11133800000;11633800000
2075;11223014000;11133800000;11633800000
2076;11223015000;11133800000;11633800000
2077;11223016000;11133800000;11633800000
2078;11223223000;11133877777;11633877777
2079;11223239000;11134200000;11634200000
2080;11223240000;11134200000;11634200000
2081;11223241000;11134200000;11634200000
2082;11255560000;11175455555;11675455555
2083;11255564000;11175455555;11675455555
2084;11255565000;11175455555;11675455555
2085;11255566000;11175455555;11675455555
2086;11255567000;11175455555;11675455555
2087;11255568000;11175455555;11675455555
2088;11255569000;11175455555;11675455555
2089;11255745000;11175544444;11675544444
2090;11255750000;11175833333;11675833333
2091;11255751000;11175833333;11675833333
2092;11255752000;11175833333;11675833333
2093;11289981000;11217133333;11717133333
2094;11289985000;11217133333;11717133333
2095;11289986000;11217133333;11717133333
2096;11289987000;11217133333;11717133333
2097;11289988000;11217133333;11717133333
2098;11289989000;11217133333;11717133333
2099;11289990000;11217133333;11717133333
2100;11290205000;11217244444;11717244444
2101;11290212000;11217555555;11717555555
2102;11290213000;11217555555;11717555555
2103;11290214000;11217555555;11717555555
2104;11325349000;11258788888;11758788888
2105;11325353000;11258788888;11758788888
2106;11325354000;11258788888;11758788888
2107;11325355000;11258788888;11758788888
2108;11325356000;11258788888;11758788888
2109;11325357000;11258788888;11758788888
2110;11325366000;11258788888;11758788888
2111;11325572000;11258877777;11758877777
2112;11325579000;11259222222;11759222222
2113;11325580000;11259222222;11759222222
2114;11325581000;11259222222;11759222222
2115;11363527000;11300455555;11800455555
2116;11363530000;11300455555;11800455555
2117;11363530000;11300455555;11800455555
2118;11363531000;11300455555;11800455555
2119;11363532000;11300455555;11800455555
2120;11363533000;11300455555;11800455555
2121;11363544000;11300455555;11800455555
2122;11363677000;11300544444;11800544444
2123;11363679000;11300844444;11800844444
2124;11363680000;11300844444;11800844444
2125;11363681000;11300844444;11800844444
2126;11403636000;11342133333;11842133333
2127;11403639000;11342133333;11842133333
2128;11403640000;11342133333;11842133333
2129;11403641000;11342133333;11842133333
2130;11403642000;11342133333;11842133333
2131;11403643000;11342133333;11842133333
2132;11403644000;11342133333;11842133333
2133;11403843000;11342244444;11842244444
2134;11403859000;11342577777;11842577777
2135;11403860000;11342577777;11842577777
2136;11403861000;11342577777;11842577777
2137;11444506000;11383811111;11883811111
2138;11444509000;11383811111;11883811111
2139;11444510000;11383811111;11883811111
2140;11444511000;11383811111;11883811111
2141;11444512000;11383811111;11883811111
2142;11444513000;11383811111;11883811111
2143;11444514000;11383811111;11883811111
2144;11444722000;11383900000;11883900000
2145;11444738000;11384233333;11884233333
2146;11444739000;11384233333;11884233333
2147;11444740000;11384233333;11884233333
2148;11485920000;11425455555;11925455555
2149;11485923000;11425455555;11925455555
2150;11485924000;11425455555;11925455555
2151;11485925000;11425455555;11925455555
2152;11485926000;11425455555;11925455555
2153;11485927000;11425455555;11925455555
2154;11485928000;11425455555;11925455555
2155;11486141000;11425533333;11925533333
2156;11486157000;11425855555;11925855555
2157;11486158000;11425855555;11925855555
2158;11486159000;11425855555;11925855555
2159;11527527000;11467122222;11967122222
2160;11527530000;11467122222;11967122222
2161;11527531000;11467122222;11967122222
2162;11527532000;11467122222;11967122222
2163;11527533000;11467122222;11967122222
2164;11527534000;11467122222;11967122222
2165;11527535000;11467122222;11967122222
2166;11527736000;11467233333;11967233333
2167;11527742000;11467577777;11967577777
2168;11527743000;11467577777;11967577777
2169;11527744000;11467577777;11967577777
2170;11569164000;11508800000;12008800000
2171;11569167000;11508800000;12008800000
2172;11569169000;11508800000;12008800000
2173;11569170000;11508800000;12008800000
2174;11569171000;11508800000;12008800000
2175;11569172000;11508800000;12008800000
2176;11569173000;11508800000;12008800000
2177;11569372000;11508877777;12008877777
2178;11569387000;11509233333;12009233333
2179;11569388000;11509233333;12009233333
2180;11569389000;11509233333;12009233333
2181;11610780000;11550455555;12050455555
2182;11610783000;11550455555;12050455555
2183;11610784000;11550455555;12050455555
2184;11610785000;11550455555;12050455555
2185;11610786000;11550455555;12050455555
2186;11610787000;11550455555;12050455555
2187;11610788000;11550455555;12050455555
2188;11610995000;11550544444;12050544444
2189;11611011000;11550855555;12050855555
2190;11611012000;11550855555;12050855555
2191;11611013000;11550855555;12050855555
2192;11652426000;11592133333;12092133333
2193;11652429000;11592133333;12092133333
2194;11652430000;11592133333;12092133333
2195;11652431000;11592133333;12092133333
2196;11652432000;11592133333;12092133333
2197;11652433000;11592133333;12092133333
2198;11652434000;11592133333;12092133333
2199;11652575000;11592244444;12092244444
2200;11652578000;11592577777;12092577777
2201;11652578000;11592577777;12092577777
2202;11652579000;11592577777;12092577777
2203;11694171000;11633788888;12133788888
2204;11694174000;11633788888;12133788888
2205;11694175000;11633788888;12133788888
2206;11694176000;11633788888;12133788888
2207;11694177000;11633788888;12133788888
2208;11694178000;11633788888;12133788888
2209;11694179000;11633788888;12133788888
2210;11694385000;11633877777;12133877777
2211;11694400000;11634233333;12134233333
2212;11694401000;11634233333;12134233333
2213;11694402000;11634233333;12134233333
2214;11735814000;11675466666;12175466666
2215;11735818000;11675466666;12175466666
2216;11735819000;11675466666;12175466666
2217;11735820000;11675466666;12175466666
2218;11735821000;11675466666;12175466666
2219;11735822000;11675466666;12175466666
2220;11735823000;11675466666;12175466666
2221;11736022000;11675544444;12175544444
2222;11736038000;11675844444;12175844444
2223;11736039000;11675844444;12175844444
2224;11736040000;11675844444;12175844444
2225;11881501000;11717122222;12217122222
2247;11958310000;11800466666;12300466666
2269;12024746000;11883788888;12383788888
2291;12086595000;11967133333;12467133333
2302;12114710000;12008800000;12508800000
2313;12142564000;12050455555;12550455555
2314;12142568000;12050455555;12550455555
2315;12142569000;12050455555;12550455555
2316;12142570000;12050455555;12550455555
2317;12142571000;12050455555;12550455555
2318;12142572000;12050455555;12550455555
2319;12142573000;12050455555;12550455555
2320;12142778000;12050533333;12550533333
2321;12142794000;12050855555;12550855555
2322;12142795000;12050855555;12550855555
2323;12142796000;12050855555;12550855555
2324;12174007000;12092122222;12592122222
2325;12174011000;12092122222;12592122222
2326;12174012000;12092122222;12592122222
2327;12174013000;12092122222;12592122222
2328;12174014000;12092122222;12592122222
2329;12174015000;12092122222;12592122222
2330;12174016000;12092122222;12592122222
2331;12174216000;12092233333;12592233333
2332;12174232000;12092588888;12592588888
2333;12174233000;12092588888;12592588888
2334;12174234000;12092588888;12592588888
2335;12207488000;12133788888;12633788888
2336;12207492000;12133788888;12633788888
2337;12207493000;12133788888;12633788888
2338;12207494000;12133788888;12633788888
2339;12207495000;12133788888;12633788888
2340;12207496000;12133788888;12633788888
2341;12207497000;12133788888;12633788888
2342;12207715000;12133866666;12633866666
2343;12207722000;12134222222;12634222222
2344;12207724000;12134222222;12634222222
2345;12207725000;12134222222;12634222222
2346;12243077000;12175455555;12675455555
2347;12243081000;12175455555;12675455555
2348;12243082000;12175455555;12675455555
2349;12243083000;12175455555;12675455555
2350;12243084000;12175455555;12675455555
2351;12243085000;12175455555;12675455555
2352;12243086000;12175455555;12675455555
2353;12243305000;12175544444;12675544444
2354;12243312000;12175866666;12675866666
2355;12243313000;12175866666;12675866666
2356;12243314000;12175866666;12675866666
2357;12281834000;12217133333;12717133333
2358;12281838000;12217133333;12717133333
2359;12281840000;12217133333;12717133333
2360;12281841000;12217133333;12717133333
2361;12281842000;12217133333;12717133333
2362;12281843000;12217133333;12717133333
2363;12281844000;12217133333;12717133333
2364;12282062000;12217233333;12717233333
2365;12282069000;12217577777;12717577777
2366;12282071000;12217577777;12717577777
2367;12282072000;12217577777;12717577777
2368;12381680000;12258788888;12758788888
2379;12422387000;12300466666;12800466666
2390;12462920000;12342133333;12842133333
2401;12501799000;12383788888;12883788888
2412;12539716000;12425466666;12925466666
2423;12576827000;12467122222;12967122222
2434;12612977000;12508822222;13008822222
2445;12644987000;12550466666;13050466666
2456;12682414000;12592122222;13092122222
2457;12682417000;12592122222;13092122222
2458;12682419000;12592122222;13092122222
2459;12682420000;12592122222;13092122222
2460;12682420000;12592122222;13092122222
2461;12682421000;12592122222;13092122222
2462;12682422000;12592122222;13092122222
2463;12682621000;12592222222;13092222222
2464;12682637000;12592544444;13092544444
2465;12682638000;12592544444;13092544444
2466;12682639000;12592544444;13092544444
2467;12717577000;12633800000;13133800000
2468;12717581000;12633800000;13133800000
2469;12717582000;12633800000;13133800000
2470;12717583000;12633800000;13133800000
2471;12717584000;12633800000;13133800000
2472;12717585000;12633800000;13133800000
2473;12717593000;12633800000;13133800000
2474;12717792000;12633877777;13133877777
2475;12717807000;12634211111;13134211111
2476;12717809000;12634211111;13134211111
2477;12717810000;12634211111;13134211111
2478;12880532000;12675488888;13175488888
2511;12978922000;12800455555;13300455555
2544;13059300000;12925455555;13425455555
2555;13084728000;12967122222;13467122222
2566;13109916000;13008788888;13508788888
2577;13137786000;13050466666;13550466666
2578;13137790000;13050466666;13550466666
2579;13137791000;13050466666;13550466666
2580;13137793000;13050466666;13550466666
2581;13137794000;13050466666;13550466666
2582;13137795000;13050466666;13550466666
2583;13137795000;13050466666;13550466666
2584;13137995000;13050566666;13550566666
2585;13138011000;13050855555;13550855555
2586;13138012000;13050855555;13550855555
2587;13138013000;13050855555;13550855555
2588;13169682000;13092122222;13592122222
2589;13169685000;13092122222;13592122222
2590;13169686000;13092122222;13592122222
2591;13169687000;13092122222;13592122222
2592;13169688000;13092122222;13592122222
2593;13169689000;13092122222;13592122222
2594;13169690000;13092122222;13592122222
2595;13169896000;13092233333;13592233333
2596;13169911000;13092577777;13592577777
2597;13169912000;13092577777;13592577777
2598;13169914000;13092577777;13592577777
2599;13205191000;13133800000;13633800000
2600;13205195000;13133800000;13633800000
2601;13205196000;13133800000;13633800000
2602;13205197000;13133800000;13633800000
2603;13205198000;13133800000;13633800000
2604;13205199000;13133800000;13633800000
2605;13205200000;13133800000;13633800000
2606;13205406000;13133877777;13633877777
2607;13205412000;13134222222;13634222222
2608;13205413000;13134222222;13634222222
2609;13205414000;13134222222;13634222222
2610;13241761000;13175455555;13675455555
2611;13241764000;13175455555;13675455555
2612;13241765000;13175455555;13675455555
2613;13241766000;13175455555;13675455555
2614;13241767000;13175455555;13675455555
2615;13241777000;13175455555;13675455555
2616;13241778000;13175455555;13675455555
2617;13241918000;13175544444;13675544444
2618;13241921000;13175855555;13675855555
2619;13241922000;13175855555;13675855555
2620;13241923000;13175855555;13675855555
2621;13381156000;13217122222;13717122222
2643;13455727000;13300466666;13800466666
2665;13524447000;13383788888;13883788888
2687;13585897000;13467122222;13967122222
2698;13616830000;13508800000;14008800000
2709;13645485000;13550455555;14050455555
2720;13678234000;13592122222;14092122222
2721;13678237000;13592122222;14092122222
2722;13678238000;13592122222;14092122222
2723;13678239000;13592122222;14092122222
2724;13678240000;13592122222;14092122222
2725;13678241000;13592122222;14092122222
2726;13678242000;13592122222;14092122222
2727;13678441000;13592233333;14092233333
2728;13678457000;13592544444;14092544444
2729;13678458000;13592544444;14092544444
2730;13678459000;13592544444;14092544444
2731;13712900000;13633788888;14133788888
2732;13712904000;13633788888;14133788888
2733;13712905000;13633788888;14133788888
2734;13712906000;13633788888;14133788888
2735;13712907000;13633788888;14133788888
2736;13712908000;13633788888;14133788888
2737;13712909000;13633788888;14133788888
2738;13713101000;13633877777;14133877777
2739;13713105000;13634177777;14134177777
2740;13713106000;13634177777;14134177777
2741;13713107000;13634177777;14134177777
2742;13746900000;13675455555;14175455555
2743;13746903000;13675455555;14175455555
2744;13746904000;13675455555;14175455555
2745;13746905000;13675455555;14175455555
2746;13746906000;13675455555;14175455555
2747;13746907000;13675455555;14175455555
2748;13746908000;13675455555;14175455555
2749;13747081000;13675544444;14175544444
2750;13747085000;13675811111;14175811111
2751;13747086000;13675811111;14175811111
2752;13747087000;13675811111;14175811111
2753;13881432000;13717122222;14217122222
2775;13957398000;13800466666;14300466666
2797;14023717000;13883800000;14383800000
2819;14085372000;13967133333;14467133333
2830;14116494000;14008800000;14508800000
2841;14147819000;14050455555;14550455555
2852;14176466000;14092188888;14592188888
2853;14176479000;14092188888;14592188888
2854;14176480000;14092188888;14592188888
2855;14176481000;14092188888;14592188888
2856;14176483000;14092188888;14592188888
2857;14176484000;14092188888;14592188888
2858;14176485000;14092188888;14592188888
2859;14176691000;14092266666;14592266666
2860;14176707000;14092588888;14592588888
2861;14176708000;14092588888;14592588888
2862;14176709000;14092588888;14592588888
2863;14210475000;14133800000;14633800000
2864;14210479000;14133800000;14633800000
2865;14210480000;14133800000;14633800000
2866;14210481000;14133800000;14633800000
2867;14210482000;14133800000;14633800000
2868;14210484000;14133800000;14633800000
2869;14210485000;14133800000;14633800000
2870;14210702000;14133877777;14633877777
2871;14210718000;14134200000;14634200000
2872;14210720000;14134200000;14634200000
2873;14210721000;14134200000;14634200000
2874;14246124000;14175466666;14675466666
2875;14246127000;14175466666;14675466666
2876;14246128000;14175466666;14675466666
2877;14246129000;14175466666;14675466666
2878;14246130000;14175466666;14675466666
2879;14246131000;14175466666;14675466666
2880;14246141000;14175466666;14675466666
2881;14246280000;14175544444;14675544444
2882;14246283000;14175833333;14675833333
2883;14246284000;14175833333;14675833333
2884;14246285000;14175833333;14675833333
2885;14283026000;14217122222;14717122222
2886;14283029000;14217122222;14717122222
2887;14283030000;14217122222;14717122222
2888;14283032000;14217122222;14717122222
2889;14283032000;14217122222;14717122222
2890;14283033000;14217122222;14717122222
2891;14283034000;14217122222;14717122222
2892;14283241000;14217233333;14717233333
2893;14283247000;14217555555;14717555555
2894;14283248000;14217555555;14717555555
2895;14283249000;14217555555;14717555555
2896;14322226000;14258800000;14758800000
2897;14322230000;14258800000;14758800000
2898;14322232000;14258800000;14758800000
2899;14322233000;14258800000;14758800000
2900;14322234000;14258800000;14758800000
2901;14322235000;14258800000;14758800000
2902;14322236000;14258800000;14758800000
2903;14322432000;14258888888;14758888888
2904;14322437000;14259188888;14759188888
2905;14322438000;14259188888;14759188888
2906;14322439000;14259188888;14759188888
2907;14464277000;14300455555;14800455555
2929;14541523000;14383788888;14883788888
2951;14611124000;14467188888;14967188888
2973;14673536000;14550455555;15050455555
2984;14703769000;14592122222;15092122222
2995;14728665000;14633800000;15133800000
3006;14761491000;14675455555;15175455555
3007;14761494000;14675455555;15175455555
3008;14761495000;14675455555;15175455555
3009;14761496000;14675455555;15175455555
3010;14761497000;14675455555;15175455555
3011;14761498000;14675455555;15175455555
3012;14761499000;14675455555;15175455555
3013;14761697000;14675533333;15175533333
3014;14761713000;14675855555;15175855555
3015;14761714000;14675855555;15175855555
3016;14761715000;14675855555;15175855555
3017;14795282000;14717188888;15217188888
3018;14795285000;14717188888;15217188888
3019;14795286000;14717188888;15217188888
3020;14795287000;14717188888;15217188888
3021;14795288000;14717188888;15217188888
3022;14795289000;14717188888;15217188888
3023;14795290000;14717188888;15217188888
3024;14795491000;14717277777;15217277777
3025;14795506000;14717566666;15217566666
3026;14795507000;14717566666;15217566666
3027;14795508000;14717566666;15217566666
3028;14829599000;14758822222;15258822222
3029;14829603000;14758822222;15258822222
3030;14829604000;14758822222;15258822222
3031;14829605000;14758822222;15258822222
3032;14829606000;14758822222;15258822222
3033;14829607000;14758822222;15258822222
3034;14829608000;14758822222;15258822222
3035;14829785000;14758911111;15258911111
3036;14829790000;14759211111;15259211111
3037;14829791000;14759211111;15259211111
3038;14829792000;14759211111;15259211111
3039;14866031000;14800500000;15300500000
3040;14866035000;14800500000;15300500000
3041;14866036000;14800500000;15300500000
3042;14866037000;14800500000;15300500000
3043;14866038000;14800500000;15300500000
3044;14866040000;14800500000;15300500000
3045;14866041000;14800500000;15300500000
3046;14866261000;14800577777;15300577777
3047;14866267000;14800833333;15300833333
3048;14866268000;14800833333;15300833333
3049;14866269000;14800833333;15300833333
3050;14904826000;14842188888;15342188888
3051;14904830000;14842188888;15342188888
3052;14904831000;14842188888;15342188888
3053;14904832000;14842188888;15342188888
3054;14904833000;14842188888;15342188888
3055;14904834000;14842188888;15342188888
3056;14904835000;14842188888;15342188888
3057;14905070000;14842266666;15342266666
3058;14905077000;14842566666;15342566666
3059;14905078000;14842566666;15342566666
3060;14905079000;14842566666;15342566666
3061;14945108000;14883788888;15383788888
3062;14945112000;14883788888;15383788888
3063;14945113000;14883788888;15383788888
3064;14945114000;14883788888;15383788888
3065;14945115000;14883788888;15383788888
3066;14945116000;14883788888;15383788888
3067;14945117000;14883788888;15383788888
3068;14945293000;14883866666;15383866666
3069;14945298000;14884188888;15384188888
3070;14945299000;14884188888;15384188888
3071;14945300000;14884188888;15384188888
3072;14986310000;14925455555;15425455555
3073;14986314000;14925455555;15425455555
3074;14986315000;14925455555;15425455555
3075;14986316000;14925455555;15425455555
3076;14986317000;14925455555;15425455555
3077;14986318000;14925455555;15425455555
3078;14986319000;14925455555;15425455555
3079;14986517000;14925533333;15425533333
3080;14986524000;14925833333;15425833333
3081;14986525000;14925833333;15425833333
3082;14986526000;14925833333;15425833333
3083;15027661000;14967122222;15467122222
3084;15027664000;14967122222;15467122222
3085;15027665000;14967122222;15467122222
3086;15027667000;14967122222;15467122222
3087;15027667000;14967122222;15467122222
3088;15027669000;14967122222;15467122222
3089;15027669000;14967122222;15467122222
3090;15027840000;14967233333;15467233333
3091;15027844000;14967500000;15467500000
3092;15027845000;14967500000;15467500000
3093;15027846000;14967500000;15467500000
3094;15069187000;15008800000;15508800000
3095;15069191000;15008800000;15508800000
3096;15069192000;15008800000;15508800000
3097;15069193000;15008800000;15508800000
3098;15069194000;15008800000;15508800000
3099;15069195000;15008800000;15508800000
3100;15069196000;15008800000;15508800000
3101;15069396000;15008877777;15508877777
3102;15069411000;15009133333;15509133333
3103;15069412000;15009133333;15509133333
3104;15069414000;15009133333;15509133333
3105;15214351000;15050466666;15550466666
3127;15291435000;15133788888;15633788888
3149;15360221000;15217122222;15717122222
3171;15423598000;15300455555;15800455555
3182;15453796000;15342122222;15842122222
3193;15484261000;15383800000;15883800000
3204;15515394000;15425466666;15925466666
3205;15515397000;15425466666;15925466666
3206;15515398000;15425466666;15925466666
3207;15515399000;15425466666;15925466666
3208;15515400000;15425466666;15925466666
3209;15515401000;15425466666;15925466666
3210;15515402000;15425466666;15925466666
3211;15515609000;15425544444;15925544444
3212;15515616000;15425833333;15925833333
3213;15515617000;15425833333;15925833333
3214;15515627000;15425833333;15925833333
3215;15547592000;15467122222;15967122222
3216;15547596000;15467122222;15967122222
3217;15547597000;15467122222;15967122222
3218;15547598000;15467122222;15967122222
3219;15547599000;15467122222;15967122222
3220;15547600000;15467122222;15967122222
3221;15547601000;15467122222;15967122222
3222;15547819000;15467233333;15967233333
3223;15547835000;15467533333;15967533333
3224;15547837000;15467533333;15967533333
3225;15547838000;15467533333;15967533333
3226;15579026000;15508788888;16008788888
3227;15579031000;15508788888;16008788888
3228;15579032000;15508788888;16008788888
3229;15579033000;15508788888;16008788888
3230;15579034000;15508788888;16008788888
3231;15579035000;15508788888;16008788888
3232;15579036000;15508788888;16008788888
3233;15581868000;15508877777;16008877777
3234;15581884000;15509188888;16009188888
3235;15581885000;15509188888;16009188888
3236;15581886000;15509188888;16009188888
3237;15618328000;15550455555;16050455555
3238;15618332000;15550455555;16050455555
3239;15618342000;15550455555;16050455555
3240;15618343000;15550455555;16050455555
3241;15618344000;15550455555;16050455555
3242;15618345000;15550455555;16050455555
3243;15618346000;15550455555;16050455555
3244;15618564000;15550544444;16050544444
3245;15618580000;15550822222;16050822222
3246;15618582000;15550822222;16050822222
3247;15618583000;15550822222;16050822222
3248;15715148000;15592122222;16092122222
3259;15755864000;15633800000;16133800000
3270;15796150000;15675455555;16175455555
3281;15835267000;15717122222;16217122222
3292;15872870000;15758788888;16258788888
3303;15910110000;15800455555;16300455555
3314;15944723000;15842122222;16342122222
3325;15977810000;15883800000;16383800000
3336;16012688000;15925466666;16425466666
3337;16012692000;15925466666;16425466666
3338;16012693000;15925466666;16425466666
3339;16012693000;15925466666;16425466666
3340;16012694000;15925466666;16425466666
3341;16012695000;15925466666;16425466666
3342;16012696000;15925466666;16425466666
3343;16012896000;15925544444;16425544444
3344;16012911000;15925855555;16425855555
3345;16012912000;15925855555;16425855555
3346;16012913000;15925855555;16425855555
3347;16048494000;15967133333;16467133333
3348;16048498000;15967133333;16467133333
3349;16048499000;15967133333;16467133333
3350;16048501000;15967133333;16467133333
3351;16048502000;15967133333;16467133333
3352;16048503000;15967133333;16467133333
3353;16048504000;15967133333;16467133333
3354;16048710000;15967244444;16467244444
3355;16048726000;15967533333;16467533333
3356;16048727000;15967533333;16467533333
3357;16048728000;15967533333;16467533333
3358;16084659000;16008800000;16508800000
3359;16084663000;16008800000;16508800000
3360;16084664000;16008800000;16508800000
3361;16084665000;16008800000;16508800000
3362;16084666000;16008800000;16508800000
3363;16084667000;16008800000;16508800000
3364;16084668000;16008800000;16508800000
3365;16084868000;16008877777;16508877777
3366;16084874000;16009177777;16509177777
3367;16084876000;16009177777;16509177777
3368;16084877000;16009177777;16509177777
3369;16120167000;16050466666;16550466666
3370;16120171000;16050466666;16550466666
3371;16120172000;16050466666;16550466666
3372;16120173000;16050466666;16550466666
3373;16120174000;16050466666;16550466666
3374;16120175000;16050466666;16550466666
3375;16120176000;16050466666;16550466666
3376;16120374000;16050544444;16550544444
3377;16120381000;16050833333;16550833333
3378;16120382000;16050833333;16550833333
3379;16120383000;16050833333;16550833333
3380;16157100000;16092122222;16592122222
3381;16157104000;16092122222;16592122222
3382;16157105000;16092122222;16592122222
3383;16157105000;16092122222;16592122222
3384;16157106000;16092122222;16592122222
3385;16157108000;16092122222;16592122222
3386;16157109000;16092122222;16592122222
3387;16158434000;16092233333;16592233333
3388;16158449000;16092555555;16592555555
3389;16158450000;16092555555;16592555555
3390;16158451000;16092555555;16592555555
3391;16197553000;16133800000;16633800000
3392;16197557000;16133800000;16633800000
3393;16197557000;16133800000;16633800000
3394;16197558000;16133800000;16633800000
3395;16197559000;16133800000;16633800000
3396;16197560000;16133800000;16633800000
3397;16197561000;16133800000;16633800000
3398;16197761000;16133877777;16633877777
3399;16197776000;16134200000;16634200000
3400;16197778000;16134200000;16634200000
3401;16197778000;16134200000;16634200000
3402;16298352000;16175455555;16675455555
3413;16339158000;16217122222;16717122222
3424;16379656000;16258800000;16758800000
3435;16418345000;16300466666;16800466666
3446;16455360000;16342122222;16842122222
3457;16492573000;16383788888;16883788888
3468;16528825000;16425488888;16925488888
3479;16564156000;16467166666;16967166666
3490;16599278000;16508822222;17008822222
3491;16599282000;16508822222;17008822222
3492;16599283000;16508822222;17008822222
3493;16599284000;16508822222;17008822222
3494;16599285000;16508822222;17008822222
3495;16599286000;16508822222;17008822222
3496;16599287000;16508822222;17008822222
3497;16599487000;16508900000;17008900000
3498;16599510000;16509233333;17009233333
3499;16599511000;16509233333;17009233333
3500;16599512000;16509233333;17009233333
3501;16634345000;16550455555;17050455555
3502;16634348000;16550455555;17050455555
3503;16634349000;16550455555;17050455555
3504;16634350000;16550455555;17050455555
3505;16634351000;16550455555;17050455555
3506;16634352000;16550455555;17050455555
3507;16634353000;16550455555;17050455555
3508;16634559000;16550544444;17050544444
3509;16634575000;16550833333;17050833333
3510;16634576000;16550833333;17050833333
3511;16634577000;16550833333;17050833333
3512;16668940000;16592122222;17092122222
3513;16668944000;16592122222;17092122222
3514;16668945000;16592122222;17092122222
3515;16668946000;16592122222;17092122222
3516;16668946000;16592122222;17092122222
3517;16668947000;16592122222;17092122222
3518;16668948000;16592122222;17092122222
3519;16669162000;16592211111;17092211111
3520;16669178000;16592533333;17092533333
3521;16669179000;16592533333;17092533333
3522;16669180000;16592533333;17092533333
3523;16797434000;16633788888;17133788888
3545;16874415000;16717188888;17217188888
3567;16944264000;16800455555;17300455555
3589;17006218000;16883800000;17383800000
3600;17035245000;16925455555;17425455555
3611;17066189000;16967122222;17467122222
3622;17100413000;17008788888;17508788888
3623;17100424000;17008788888;17508788888
3624;17100426000;17008788888;17508788888
3625;17100427000;17008788888;17508788888
3626;17100429000;17008788888;17508788888
3627;17100431000;17008788888;17508788888
3628;17100432000;17008788888;17508788888
3629;17100680000;17008866666;17508866666
3630;17100687000;17009166666;17509166666
3631;17100688000;17009166666;17509166666
3632;17100690000;17009166666;17509166666
3633;17130820000;17050488888;17550488888
3634;17130828000;17050488888;17550488888
3635;17130829000;17050488888;17550488888
3636;17130841000;17050488888;17550488888
3637;17130842000;17050488888;17550488888
3638;17130844000;17050488888;17550488888
3639;17130845000;17050488888;17550488888
3640;17131053000;17050566666;17550566666
3641;17131059000;17050844444;17550844444
3642;17131061000;17050844444;17550844444
3643;17131062000;17050844444;17550844444
3644;17165180000;17092177777;17592177777
3645;17165184000;17092177777;17592177777
3646;17165185000;17092177777;17592177777
3647;17165187000;17092177777;17592177777
3648;17165188000;17092177777;17592177777
3649;17165189000;17092177777;17592177777
3650;17165191000;17092177777;17592177777
3651;17165398000;17092266666;17592266666
3652;17165414000;17092600000;17592600000
3653;17165415000;17092600000;17592600000
3654;17165416000;17092600000;17592600000
3655;17200949000;17133833333;17633833333
3656;17200952000;17133833333;17633833333
3657;17200953000;17133833333;17633833333
3658;17200954000;17133833333;17633833333
3659;17200955000;17133833333;17633833333
3660;17200956000;17133833333;17633833333
3661;17200957000;17133833333;17633833333
3662;17201118000;17133922222;17633922222
3663;17201121000;17134266666;17634266666
3664;17201122000;17134266666;17634266666
3665;17201123000;17134266666;17634266666
3666;17239470000;17175488888;17675488888
3667;17239472000;17175488888;17675488888
3668;17239473000;17175488888;17675488888
3669;17239474000;17175488888;17675488888
3670;17239475000;17175488888;17675488888
3671;17239476000;17175488888;17675488888
3672;17239477000;17175488888;17675488888
3673;17239625000;17175577777;17675577777
3674;17239627000;17175877777;17675877777
3675;17239628000;17175877777;17675877777
3676;17239630000;17175877777;17675877777
3677;17279274000;17217177777;17717177777
3678;17279276000;17217177777;17717177777
3679;17279277000;17217177777;17717177777
3680;17279278000;17217177777;17717177777
3681;17279280000;17217177777;17717177777
3682;17279281000;17217177777;17717177777
3683;17279282000;17217177777;17717177777
3684;17279457000;17217266666;17717266666
3685;17279460000;17217588888;17717588888
3686;17279461000;17217588888;17717588888
3687;17279462000;17217588888;17717588888
3688;17381226000;17258822222;17758822222
3699;17422309000;17300466666;17800466666
3710;17462383000;17342122222;17842122222
3721;17501739000;17383800000;17883800000
3732;17539970000;17425455555;17925455555
3743;17671139000;17467133333;17967133333
3776;17770220000;17592122222;18092122222
3809;17850773000;17717177777;18217177777
3820;17876191000;17758800000;18258800000
3831;17903150000;17800466666;18300466666
3842;17931878000;17842122222;18342122222
3843;17931881000;17842122222;18342122222
3844;17931882000;17842122222;18342122222
3845;17931884000;17842122222;18342122222
3846;17931885000;17842122222;18342122222
3847;17931886000;17842122222;18342122222
3848;17931887000;17842122222;18342122222
3849;17932099000;17842233333;18342233333
3850;17932115000;17842544444;18342544444
3851;17932116000;17842544444;18342544444
3852;17932117000;17842544444;18342544444
3853;17962860000;17883788888;18383788888
3854;17962864000;17883788888;18383788888
3855;17962865000;17883788888;18383788888
3856;17962866000;17883788888;18383788888
3857;17962867000;17883788888;18383788888
3858;17962868000;17883788888;18383788888
3859;17962869000;17883788888;18383788888
3860;17963055000;17883877777;18383877777
3861;17963059000;17884200000;18384200000
3862;17963061000;17884200000;18384200000
3863;17963062000;17884200000;18384200000
3864;17996764000;17925466666;18425466666
3865;17996767000;17925466666;18425466666
3866;17996768000;17925466666;18425466666
3867;17996769000;17925466666;18425466666
3868;17996770000;17925466666;18425466666
3869;17996771000;17925466666;18425466666
3870;17996772000;17925466666;18425466666
3871;17996920000;17925544444;18425544444
3872;17996923000;17925844444;18425844444
3873;17996924000;17925844444;18425844444
3874;17996925000;17925844444;18425844444
3875;18033436000;17967133333;18467133333
3876;18033440000;17967133333;18467133333
3877;18033441000;17967133333;18467133333
3878;18033442000;17967133333;18467133333
3879;18033443000;17967133333;18467133333
3880;18033444000;17967133333;18467133333
3881;18033445000;17967133333;18467133333
3882;18033622000;17967233333;18467233333
3883;18033626000;17967533333;18467533333
3884;18033628000;17967533333;18467533333
3885;18033629000;17967533333;18467533333
3886;18072458000;18008800000;18508800000
3887;18072461000;18008800000;18508800000
3888;18072463000;18008800000;18508800000
3889;18072464000;18008800000;18508800000
3890;18072464000;18008800000;18508800000
3891;18072465000;18008800000;18508800000
3892;18072466000;18008800000;18508800000
3893;18072643000;18008877777;18508877777
3894;18072648000;18009166666;18509166666
3895;18072649000;18009166666;18509166666
3896;18072650000;18009166666;18509166666
3897;18173533000;18050455555;18550455555
3908;18214255000;18092177777;18592177777
3919;18254294000;18133788888;18633788888
3930;18293648000;18175466666;18675466666
3941;18331323000;18217122222;18717122222
3952;18368456000;18258800000;18758800000
3963;18404612000;18300477777;18800477777
3974;18438893000;18342122222;18842122222
3985;18474000000;18383800000;18883800000
3986;18474003000;18383800000;18883800000
3987;18474005000;18383800000;18883800000
3988;18474005000;18383800000;18883800000
3989;18474006000;18383800000;18883800000
3990;18474007000;18383800000;18883800000
3991;18474008000;18383800000;18883800000
3992;18474215000;18383877777;18883877777
3993;18474231000;18384155555;18884155555
3994;18474232000;18384155555;18884155555
3995;18474233000;18384155555;18884155555
3996;18509160000;18425488888;18925488888
3997;18509164000;18425488888;18925488888
3998;18509165000;18425488888;18925488888
3999;18509166000;18425488888;18925488888
4000;18509167000;18425488888;18925488888
4001;18509168000;18425488888;18925488888
4002;18509169000;18425488888;18925488888
4003;18509347000;18425566666;18925566666
4004;18509352000;18425866666;18925866666
4005;18509353000;18425866666;18925866666
4006;18509354000;18425866666;18925866666
4007;18544677000;18467188888;18967188888
4008;18544679000;18467188888;18967188888
4009;18544680000;18467188888;18967188888
4010;18544681000;18467188888;18967188888
4011;18544682000;18467188888;18967188888
4012;18544683000;18467188888;18967188888
4013;18544684000;18467188888;18967188888
4014;18544826000;18467266666;18967266666
4015;18544837000;18467600000;18967600000
4016;18544838000;18467600000;18967600000
4017;18544839000;18467600000;18967600000
4018;18581574000;18508800000;19008800000
4019;18581577000;18508800000;19008800000
4020;18581578000;18508800000;19008800000
4021;18581578000;18508800000;19008800000
4022;18581580000;18508800000;19008800000
4023;18581580000;18508800000;19008800000
4024;18581581000;18508800000;19008800000
4025;18581723000;18508877777;19008877777
4026;18581725000;18509200000;19009200000
4027;18581726000;18509200000;19009200000
4028;18581727000;18509200000;19009200000
4029;18618602000;18550466666;19050466666
4030;18618606000;18550466666;19050466666
4031;18618607000;18550466666;19050466666
4032;18618608000;18550466666;19050466666
4033;18618609000;18550466666;19050466666
4034;18618610000;18550466666;19050466666
4035;18618611000;18550466666;19050466666
4036;18618810000;18550544444;19050544444
4037;18618816000;18550833333;19050833333
4038;18618817000;18550833333;19050833333
4039;18618818000;18550833333;19050833333
4040;18756214000;18592122222;19092122222
4062;18831752000;18675477777;19175477777
4084;18900981000;18758822222;19258822222
4106;18966230000;18842177777;19342177777
4117;18992296000;18883800000;19383800000
4128;19023463000;18925455555;19425455555
4139;19055381000;18967122222;19467122222
4140;19055385000;18967122222;19467122222
4141;19055386000;18967122222;19467122222
4142;19055387000;18967122222;19467122222
4143;19055388000;18967122222;19467122222
4144;19055389000;18967122222;19467122222
4145;19055390000;18967122222;19467122222
4146;19055596000;18967233333;19467233333
4147;19055612000;18967533333;19467533333
4148;19055613000;18967533333;19467533333
4149;19055614000;18967533333;19467533333
4150;19088453000;19008800000;19508800000
4151;19088457000;19008800000;19508800000
4152;19088458000;19008800000;19508800000
4153;19088459000;19008800000;19508800000
4154;19088460000;19008800000;19508800000
4155;19088461000;19008800000;19508800000
4156;19088463000;19008800000;19508800000
4157;19088681000;19008877777;19508877777
4158;19088697000;19009166666;19509166666
4159;19088699000;19009166666;19509166666
4160;19088700000;19009166666;19509166666
4161;19122959000;19050455555;19550455555
4162;19122963000;19050455555;19550455555
4163;19122964000;19050455555;19550455555
4164;19122965000;19050455555;19550455555
4165;19122966000;19050455555;19550455555
4166;19122967000;19050455555;19550455555
4167;19122977000;19050455555;19550455555
4168;19123126000;19050533333;19550533333
4169;19123129000;19050800000;19550800000
4170;19123130000;19050800000;19550800000
4171;19123131000;19050800000;19550800000
4172;19159585000;19092122222;19592122222
4173;19159588000;19092122222;19592122222
4174;19159589000;19092122222;19592122222
4175;19159590000;19092122222;19592122222
4176;19159591000;19092122222;19592122222
4177;19159592000;19092122222;19592122222
4178;19159593000;19092122222;19592122222
4179;19159741000;19092233333;19592233333
4180;19159743000;19092544444;19592544444
4181;19159744000;19092544444;19592544444
4182;19159745000;19092544444;19592544444
4183;19197943000;19133800000;19633800000
4184;19197946000;19133800000;19633800000
4185;19197947000;19133800000;19633800000
4186;19197948000;19133800000;19633800000
4187;19197949000;19133800000;19633800000
4188;19197950000;19133800000;19633800000
4189;19197951000;19133800000;19633800000
4190;19198099000;19133877777;19633877777
4191;19198102000;19134200000;19634200000
4192;19198103000;19134200000;19634200000
4193;19198104000;19134200000;19634200000
4194;19237640000;19175466666;19675466666
4195;19237642000;19175466666;19675466666
4196;19237643000;19175466666;19675466666
4197;19237644000;19175466666;19675466666
4198;19237646000;19175466666;19675466666
4199;19237647000;19175466666;19675466666
4200;19237648000;19175466666;19675466666
4201;19237823000;19175544444;19675544444
4202;19237826000;19175833333;19675833333
4203;19237827000;19175833333;19675833333
4204;19237828000;19175833333;19675833333
4205;19278223000;19217122222;19717122222
4206;19278226000;19217122222;19717122222
4207;19278227000;19217122222;19717122222
4208;19278244000;19217122222;19717122222
4209;19278245000;19217122222;19717122222
4210;19278246000;19217122222;19717122222
4211;19278247000;19217122222;19717122222
4212;19278380000;19217233333;19717233333
4213;19278383000;19217555555;19717555555
4214;19278384000;19217555555;19717555555
4215;19278384000;19217555555;19717555555
4216;19319392000;19258800000;19758800000
4217;19319395000;19258800000;19758800000
4218;19319396000;19258800000;19758800000
4219;19319397000;19258800000;19758800000
4220;19319398000;19258800000;19758800000
4221;19319398000;19258800000;19758800000
4222;19319399000;19258800000;19758800000
4223;19319546000;19258877777;19758877777
4224;19319549000;19259200000;19759200000
4225;19319550000;19259200000;19759200000
4226;19319551000;19259200000;19759200000
4227;19360866000;19300466666;19800466666
4228;19360868000;19300466666;19800466666
4229;19360869000;19300466666;19800466666
4230;19360870000;19300466666;19800466666
4231;19360871000;19300466666;19800466666
4232;19360872000;19300466666;19800466666
4233;19360873000;19300466666;19800466666
4234;19361093000;19300544444;19800544444
4235;19361096000;19300822222;19800822222
4236;19361097000;19300822222;19800822222
4237;19361098000;19300822222;19800822222
4238;19402426000;19342122222;19842122222
4239;19402429000;19342122222;19842122222
4240;19402430000;19342122222;19842122222
4241;19402431000;19342122222;19842122222
4242;19402432000;19342122222;19842122222
4243;19402433000;19342122222;19842122222
4244;19402434000;19342122222;19842122222
4245;19402645000;19342233333;19842233333
4246;19402648000;19342555555;19842555555
4247;19402649000;19342555555;19842555555
4248;19402650000;19342555555;19842555555
4249;19444032000;19383800000;19883800000
4250;19444033000;19383800000;19883800000
4251;19444034000;19383800000;19883800000
4252;19444035000;19383800000;19883800000
4253;19444036000;19383800000;19883800000
4254;19444037000;19383800000;19883800000
4255;19444038000;19383800000;19883800000
4256;19444192000;19383877777;19883877777
4257;19444194000;19384200000;19884200000
4258;19444195000;19384200000;19884200000
4259;19444196000;19384200000;19884200000
4260;19485682000;19425455555;19925455555
4261;19485684000;19425455555;19925455555
4262;19485685000;19425455555;19925455555
4263;19485686000;19425455555;19925455555
4264;19485687000;19425455555;19925455555
4265;19485688000;19425455555;19925455555
4266;19485689000;19425455555;19925455555
4267;19485836000;19425544444;19925544444
4268;19485838000;19425844444;19925844444
4269;19485839000;19425844444;19925844444
4270;19485840000;19425844444;19925844444
4271;19589925000;19467122222;19967122222
4282;19630839000;19508800000;20008800000
4293;19670909000;19550466666;20050466666
4304;19710244000;19592122222;20092122222
4315;19748491000;19633788888;20133788888
4326;19785576000;19675455555;20175455555
4337;19821642000;19717122222;20217122222
4348;19856213000;19758833333;20258833333
4359;19888697000;19800466666;20300466666
4360;19888700000;19800466666;20300466666
4361;19888701000;19800466666;20300466666
4362;19888702000;19800466666;20300466666
4363;19888703000;19800466666;20300466666
4364;19888704000;19800466666;20300466666
4365;19888705000;19800466666;20300466666
4366;19888911000;19800544444;20300544444
4367;19888927000;19800822222;20300822222
4368;19888928000;19800822222;20300822222
4369;19888929000;19800822222;20300822222
4370;19924302000;19842122222;20342122222
4371;19924306000;19842122222;20342122222
4372;19924307000;19842122222;20342122222
4373;19924309000;19842122222;20342122222
4374;19924310000;19842122222;20342122222
4375;19924311000;19842122222;20342122222
4376;19924312000;19842122222;20342122222
4377;19924499000;19842222222;20342222222
4378;19924505000;19842544444;20342544444
4379;19924506000;19842544444;20342544444
4380;19924507000;19842544444;20342544444
4381;19958884000;19883800000;20383800000
4382;19958887000;19883800000;20383800000
4383;19958888000;19883800000;20383800000
4384;19958889000;19883800000;20383800000
4385;19958890000;19883800000;20383800000
4386;19958891000;19883800000;20383800000
4387;19958892000;19883800000;20383800000
4388;19959070000;19883900000;20383900000
4389;19959073000;19884211111;20384211111
4390;19959074000;19884211111;20384211111
4391;19959075000;19884211111;20384211111
4392;19996011000;19925466666;20425466666
4393;19996015000;19925466666;20425466666
4394;19996016000;19925466666;20425466666
4395;19996017000;19925466666;20425466666
4396;19996027000;19925466666;20425466666
4397;19996028000;19925466666;20425466666
4398;19996029000;19925466666;20425466666
4399;19996177000;19925544444;20425544444
4400;19996179000;19925877777;20425877777
4401;19996180000;19925877777;20425877777
4402;19996181000;19925877777;20425877777
4403;20033995000;19967133333;20467133333
4404;20033998000;19967133333;20467133333
4405;20034000000;19967133333;20467133333
4406;20034001000;19967133333;20467133333
4407;20034002000;19967133333;20467133333
4408;20034003000;19967133333;20467133333
4409;20034004000;19967133333;20467133333
4410;20034199000;19967244444;20467244444
4411;20034204000;19967544444;20467544444
4412;20034205000;19967544444;20467544444
4413;20034206000;19967544444;20467544444
4414;20072218000;20008844444;20508844444
4415;20072221000;20008844444;20508844444
4416;20072222000;20008844444;20508844444
4417;20072224000;20008844444;20508844444
4418;20072224000;20008844444;20508844444
4419;20072225000;20008844444;20508844444
4420;20072226000;20008844444;20508844444
4421;20072425000;20008922222;20508922222
4422;20072440000;20009222222;20509222222
4423;20072442000;20009222222;20509222222
4424;20072443000;20009222222;20509222222
4425;20112203000;20050455555;20550455555
4426;20112206000;20050455555;20550455555
4427;20112207000;20050455555;20550455555
4428;20112208000;20050455555;20550455555
4429;20112209000;20050455555;20550455555
4430;20112210000;20050455555;20550455555
4431;20112211000;20050455555;20550455555
4432;20112433000;20050544444;20550544444
4433;20112440000;20050822222;20550822222
4434;20112441000;20050822222;20550822222
4435;20112443000;20050822222;20550822222
4436;20152930000;20092122222;20592122222
4437;20152933000;20092122222;20592122222
4438;20152934000;20092122222;20592122222
4439;20152935000;20092122222;20592122222
4440;20152936000;20092122222;20592122222
4441;20152937000;20092122222;20592122222
4442;20152938000;20092122222;20592122222
4443;20153167000;20092233333;20592233333
4444;20153173000;20092566666;20592566666
4445;20153174000;20092566666;20592566666
4446;20153176000;20092566666;20592566666
4447;20256462000;20133788888;20633788888
4458;20297542000;20175466666;20675466666
4469;20337349000;20217122222;20717122222
4480;20376344000;20258788888;20758788888
4491;20414711000;20300466666;20800466666
4502;20506303000;20342122222;20842122222
4524;20583197000;20425488888;20925488888
4546;20652777000;20508822222;21008822222
4568;20714650000;20592122222;21092122222
4579;20742066000;20633800000;21133800000
4590;20773168000;20675455555;21175455555
4601;20805163000;20717188888;21217188888
4602;20805166000;20717188888;21217188888
4603;20805167000;20717188888;21217188888
4604;20805168000;20717188888;21217188888
4605;20805169000;20717188888;21217188888
4606;20805170000;20717188888;21217188888
4607;20805171000;20717188888;21217188888
4608;20805389000;20717266666;21217266666
4609;20805404000;20717566666;21217566666
4610;20805405000;20717566666;21217566666
4611;20805406000;20717566666;21217566666
4612;20837070000;20758833333;21258833333
4613;20837073000;20758833333;21258833333
4614;20837074000;20758833333;21258833333
4615;20837075000;20758833333;21258833333
4616;20837076000;20758833333;21258833333
4617;20837077000;20758833333;21258833333
4618;20837078000;20758833333;21258833333
4619;20837248000;20758911111;21258911111
4620;20837252000;20759200000;21259200000
4621;20837254000;20759200000;21259200000
4622;20837255000;20759200000;21259200000
4623;20872065000;20800455555;21300455555
4624;20872068000;20800455555;21300455555
4625;20872069000;20800455555;21300455555
4626;20872070000;20800455555;21300455555
4627;20872071000;20800455555;21300455555
4628;20872072000;20800455555;21300455555
4629;20872073000;20800455555;21300455555
4630;20872221000;20800533333;21300533333
4631;20872231000;20800800000;21300800000
4632;20872233000;20800800000;21300800000
4633;20872234000;20800800000;21300800000
4634;20909118000;20842188888;21342188888
4635;20909121000;20842188888;21342188888
4636;20909122000;20842188888;21342188888
4637;20909123000;20842188888;21342188888
4638;20909124000;20842188888;21342188888
4639;20909125000;20842188888;21342188888
4640;20909126000;20842188888;21342188888
4641;20909273000;20842266666;21342266666
4642;20909276000;20842566666;21342566666
4643;20909277000;20842566666;21342566666
4644;20909278000;20842566666;21342566666
4645;21088511000;20883788888;21383788888
4678;21188488000;21008811111;21508811111
4711;21266477000;21133800000;21633800000
4722;21292153000;21175466666;21675466666
4733;21319239000;21217122222;21717122222
4744;21346489000;21258788888;21758788888
4745;21346493000;21258788888;21758788888
4746;21346494000;21258788888;21758788888
4747;21346495000;21258788888;21758788888
4748;21346496000;21258788888;21758788888
4749;21346497000;21258788888;21758788888
4750;21346498000;21258788888;21758788888
4751;21346697000;21258877777;21758877777
4752;21346712000;21259200000;21759200000
4753;21346713000;21259200000;21759200000
4754;21346714000;21259200000;21759200000
4755;21378236000;21300466666;21800466666
4756;21378239000;21300466666;21800466666
4757;21378240000;21300466666;21800466666
4758;21378241000;21300466666;21800466666
4759;21378242000;21300466666;21800466666
4760;21378243000;21300466666;21800466666
4761;21378244000;21300466666;21800466666
4762;21378443000;21300544444;21800544444
4763;21378458000;21300833333;21800833333
4764;21378460000;21300833333;21800833333
4765;21378460000;21300833333;21800833333
4766;21412713000;21342133333;21842133333
4767;21412717000;21342133333;21842133333
4768;21412718000;21342133333;21842133333
4769;21412719000;21342133333;21842133333
4770;21412720000;21342133333;21842133333
4771;21412721000;21342133333;21842133333
4772;21412722000;21342133333;21842133333
4773;21412940000;21342244444;21842244444
4774;21412947000;21342577777;21842577777
4775;21412948000;21342577777;21842577777
4776;21412949000;21342577777;21842577777
4777;21449567000;21383800000;21883800000
4778;21449571000;21383800000;21883800000
4779;21449572000;21383800000;21883800000
4780;21449573000;21383800000;21883800000
4781;21449574000;21383800000;21883800000
4782;21449575000;21383800000;21883800000
4783;21449576000;21383800000;21883800000
4784;21449784000;21383877777;21883877777
4785;21449791000;21384200000;21884200000
4786;21449792000;21384200000;21884200000
4787;21449793000;21384200000;21884200000
4788;21487299000;21425466666;21925466666
4789;21487302000;21425466666;21925466666
4790;21487304000;21425466666;21925466666
4791;21487315000;21425466666;21925466666
4792;21487316000;21425466666;21925466666
4793;21487317000;21425466666;21925466666
4794;21487318000;21425466666;21925466666
4795;21488013000;21425544444;21925544444
4796;21488029000;21425855555;21925855555
4797;21488030000;21425855555;21925855555
4798;21488031000;21425855555;21925855555
4799;21528309000;21467122222;21967122222
4800;21528313000;21467122222;21967122222
4801;21528314000;21467122222;21967122222
4802;21528315000;21467122222;21967122222
4803;21528316000;21467122222;21967122222
4804;21528317000;21467122222;21967122222
4805;21528317000;21467122222;21967122222
4806;21528517000;21467233333;21967233333
4807;21528532000;21467555555;21967555555
4808;21528534000;21467555555;21967555555
4809;21528535000;21467555555;21967555555
4810;21569461000;21508788888;22008788888
4811;21569464000;21508788888;22008788888
4812;21569465000;21508788888;22008788888
4813;21569466000;21508788888;22008788888
4814;21569467000;21508788888;22008788888
4815;21569468000;21508788888;22008788888
4816;21569469000;21508788888;22008788888
4817;21569607000;21508877777;22008877777
4818;21569610000;21509211111;22009211111
4819;21569611000;21509211111;22009211111
4820;21569612000;21509211111;22009211111
4821;21610735000;21550455555;22050455555
4822;21610738000;21550455555;22050455555
4823;21610739000;21550455555;22050455555
4824;21610741000;21550455555;22050455555
4825;21610749000;21550455555;22050455555
4826;21610750000;21550455555;22050455555
4827;21610751000;21550455555;22050455555
4828;21610957000;21550544444;22050544444
4829;21610972000;21550833333;22050833333
4830;21610974000;21550833333;22050833333
4831;21610975000;21550833333;22050833333
4832;21652472000;21592122222;22092122222
4833;21652475000;21592122222;22092122222
4834;21652476000;21592122222;22092122222
4835;21652477000;21592122222;22092122222
4836;21652478000;21592122222;22092122222
4837;21652479000;21592122222;22092122222
4838;21652480000;21592122222;22092122222
4839;21652651000;21592233333;22092233333
4840;21652655000;21592555555;22092555555
4841;21652656000;21592555555;22092555555
4842;21652657000;21592555555;22092555555
4843;21694147000;21633800000;22133800000
4844;21694150000;21633800000;22133800000
4845;21694151000;21633800000;22133800000
4846;21694153000;21633800000;22133800000
4847;21694154000;21633800000;22133800000
4848;21694155000;21633800000;22133800000
4849;21694156000;21633800000;22133800000
4850;21694354000;21633877777;22133877777
4851;21694370000;21634211111;22134211111
4852;21694371000;21634211111;22134211111
4853;21694372000;21634211111;22134211111
4854;21735771000;21675466666;22175466666
4855;21735775000;21675466666;22175466666
4856;21735776000;21675466666;22175466666
4857;21735777000;21675466666;22175466666
4858;21735778000;21675466666;22175466666
4859;21735779000;21675466666;22175466666
4860;21735780000;21675466666;22175466666
4861;21735979000;21675544444;22175544444
4862;21735995000;21675844444;22175844444
4863;21735996000;21675844444;22175844444
4864;21735997000;21675844444;22175844444
4865;21881010000;21717122222;22217122222
4887;21955925000;21800455555;22300455555
4909;22025264000;21883788888;22383788888
4931;22089027000;21967122222;22467122222
4942;22119478000;22008800000;22508800000
4953;22150164000;22050455555;22550455555
4964;22181489000;22092133333;22592133333
4965;22181492000;22092133333;22592133333
4966;22181493000;22092133333;22592133333
4967;22181494000;22092133333;22592133333
4968;22181495000;22092133333;22592133333
4969;22181496000;22092133333;22592133333
4970;22181497000;22092133333;22592133333
4971;22181695000;22092244444;22592244444
4972;22181710000;22092600000;22592600000
4973;22181711000;22092600000;22592600000
4974;22181712000;22092600000;22592600000
4975;22213884000;22133800000;22633800000
4976;22213888000;22133800000;22633800000
4977;22213889000;22133800000;22633800000
4978;22213890000;22133800000;22633800000
4979;22213891000;22133800000;22633800000
4980;22213892000;22133800000;22633800000
4981;22213893000;22133800000;22633800000
4982;22214079000;22133877777;22633877777
4983;22214083000;22134211111;22634211111
4984;22214085000;22134211111;22634211111
4985;22214086000;22134211111;22634211111
4986;22248237000;22175455555;22675455555
4987;22248239000;22175455555;22675455555
4988;22248240000;22175455555;22675455555
4989;22248241000;22175455555;22675455555
4990;22248242000;22175455555;22675455555
4991;22248244000;22175455555;22675455555
4992;22248245000;22175455555;22675455555
4993;22248402000;22175544444;22675544444
4994;22248405000;22175855555;22675855555
4995;22248406000;22175855555;22675855555
4996;22248407000;22175855555;22675855555
4997;22284760000;22217122222;22717122222
4998;22284762000;22217122222;22717122222
4999;22284763000;22217122222;22717122222
5000;22284764000;22217122222;22717122222
5001;22284765000;22217122222;22717122222
5002;22284766000;22217122222;22717122222
5003;22284767000;22217122222;22717122222
5004;22284909000;22217233333;22717233333
5005;22284911000;22217566666;22717566666
5006;22284912000;22217566666;22717566666
5007;22284913000;22217566666;22717566666
5008;22323076000;22258800000;22758800000
5009;22323079000;22258800000;22758800000
5010;22323079000;22258800000;22758800000
5011;22323080000;22258800000;22758800000
5012;22323081000;22258800000;22758800000
5013;22323082000;22258800000;22758800000
5014;22323083000;22258800000;22758800000
5015;22323224000;22258877777;22758877777
5016;22323227000;22259200000;22759200000
5017;22323228000;22259200000;22759200000
5018;22323236000;22259200000;22759200000
5019;22423416000;22300466666;22800466666
5030;22464056000;22342122222;22842122222
5041;22504243000;22383800000;22883800000
5052;22542774000;22425455555;22925455555
5063;22581069000;22467122222;22967122222
5074;22618222000;22508800000;23008800000
5085;22654350000;22550455555;23050455555
5096;22689699000;22592122222;23092122222
5107;22724645000;22633800000;23133800000
5108;22724648000;22633800000;23133800000
5109;22724649000;22633800000;23133800000
5110;22724650000;22633800000;23133800000
5111;22724651000;22633800000;23133800000
5112;22724652000;22633800000;23133800000
5113;22724653000;22633800000;23133800000
5114;22724851000;22633877777;23133877777
5115;22724867000;22634188888;23134188888
5116;22724868000;22634188888;23134188888
5117;22724869000;22634188888;23134188888
5118;22759669000;22675488888;23175488888
5119;22759673000;22675488888;23175488888
5120;22759674000;22675488888;23175488888
5121;22759675000;22675488888;23175488888
5122;22759676000;22675488888;23175488888
5123;22759677000;22675488888;23175488888
5124;22759678000;22675488888;23175488888
5125;22759849000;22675577777;23175577777
5126;22759854000;22675855555;23175855555
5127;22759855000;22675855555;23175855555
5128;22759856000;22675855555;23175855555
5129;22795117000;22717177777;23217177777
5130;22795119000;22717177777;23217177777
5131;22795121000;22717177777;23217177777
5132;22795122000;22717177777;23217177777
5133;22795123000;22717177777;23217177777
5134;22795124000;22717177777;23217177777
5135;22795125000;22717177777;23217177777
5136;22795272000;22717266666;23217266666
5137;22795275000;22717566666;23217566666
5138;22795276000;22717566666;23217566666
5139;22795277000;22717566666;23217566666
5140;22831271000;22758800000;23258800000
5141;22831274000;22758800000;23258800000
5142;22831274000;22758800000;23258800000
5143;22831276000;22758800000;23258800000
5144;22831277000;22758800000;23258800000
5145;22831277000;22758800000;23258800000
5146;22831278000;22758800000;23258800000
5147;22831425000;22758877777;23258877777
5148;22831427000;22759200000;23259200000
5149;22831428000;22759200000;23259200000
5150;22831429000;22759200000;23259200000
5151;22868439000;22800466666;23300466666
5152;22868441000;22800466666;23300466666
5153;22868442000;22800466666;23300466666
5154;22868443000;22800466666;23300466666
5155;22868445000;22800466666;23300466666
5156;22868446000;22800466666;23300466666
5157;22868447000;22800466666;23300466666
5158;22868604000;22800544444;23300544444
5159;22868606000;22800822222;23300822222
5160;22868607000;22800822222;23300822222
5161;22868609000;22800822222;23300822222
5162;22906954000;22842177777;23342177777
5163;22906956000;22842177777;23342177777
5164;22906958000;22842177777;23342177777
5165;22906959000;22842177777;23342177777
5166;22906960000;22842177777;23342177777
5167;22906961000;22842177777;23342177777
5168;22906962000;22842177777;23342177777
5169;22907111000;22842266666;23342266666
5170;22907113000;22842588888;23342588888
5171;22907114000;22842588888;23342588888
5172;22907115000;22842588888;23342588888
5173;22946358000;22883800000;23383800000
5174;22946360000;22883800000;23383800000
5175;22946361000;22883800000;23383800000
5176;22946362000;22883800000;23383800000
5177;22946363000;22883800000;23383800000
5178;22946364000;22883800000;23383800000
5179;22946365000;22883800000;23383800000
5180;22946523000;22883877777;23383877777
5181;22946525000;22884233333;23384233333
5182;22946527000;22884233333;23384233333
5183;22946528000;22884233333;23384233333
5184;22986657000;22925455555;23425455555
5185;22986660000;22925455555;23425455555
5186;22986661000;22925455555;23425455555
5187;22986662000;22925455555;23425455555
5188;22986663000;22925455555;23425455555
5189;22986664000;22925455555;23425455555
5190;22986665000;22925455555;23425455555
5191;22986811000;22925544444;23425544444
5192;22986813000;22925866666;23425866666
5193;22986814000;22925866666;23425866666
5194;22986815000;22925866666;23425866666
5195;23027731000;22967122222;23467122222
5196;23027734000;22967122222;23467122222
5197;23027736000;22967122222;23467122222
5198;23027744000;22967122222;23467122222
5199;23027745000;22967122222;23467122222
5200;23027746000;22967122222;23467122222
5201;23027747000;22967122222;23467122222
5202;23027923000;22967233333;23467233333
5203;23027928000;22967544444;23467544444
5204;23027929000;22967544444;23467544444
5205;23027930000;22967544444;23467544444
5206;23131797000;23008788888;23508788888
5217;23172497000;23050455555;23550455555
5228;23212789000;23092122222;23592122222
5239;23252155000;23133788888;23633788888
5250;23290021000;23175455555;23675455555
5261;23327122000;23217122222;23717122222
5272;23361076000;23258788888;23758788888
5283;23395122000;23300466666;23800466666
5294;23430573000;23342122222;23842122222
5295;23430577000;23342122222;23842122222
5296;23430578000;23342122222;23842122222
5297;23430579000;23342122222;23842122222
5298;23430580000;23342122222;23842122222
5299;23430581000;23342122222;23842122222
5300;23430582000;23342122222;23842122222
5301;23430786000;23342233333;23842233333
5302;23430790000;23342555555;23842555555
5303;23430791000;23342555555;23842555555
5304;23430792000;23342555555;23842555555
5305;23466101000;23383800000;23883800000
5306;23466104000;23383800000;23883800000
5307;23466105000;23383800000;23883800000
5308;23466106000;23383800000;23883800000
5309;23466107000;23383800000;23883800000
5310;23466108000;23383800000;23883800000
5311;23466109000;23383800000;23883800000
5312;23466270000;23383877777;23883877777
5313;23466274000;23384188888;23884188888
5314;23466275000;23384188888;23884188888
5315;23466276000;23384188888;23884188888
5316;23500640000;23425488888;23925488888
5317;23500653000;23425488888;23925488888
5318;23500654000;23425488888;23925488888
5319;23500655000;23425488888;23925488888
5320;23500656000;23425488888;23925488888
5321;23500657000;23425488888;23925488888
5322;23500658000;23425488888;23925488888
5323;23500822000;23425566666;23925566666
5324;23500824000;23425877777;23925877777
5325;23500826000;23425877777;23925877777
5326;23500827000;23425877777;23925877777
5327;23537525000;23467122222;23967122222
5328;23537528000;23467122222;23967122222
5329;23537529000;23467122222;23967122222
5330;23537530000;23467122222;23967122222
5331;23537531000;23467122222;23967122222
5332;23537532000;23467122222;23967122222
5333;23537533000;23467122222;23967122222
5334;23537690000;23467233333;23967233333
5335;23537693000;23467555555;23967555555
5336;23537694000;23467555555;23967555555
5337;23537696000;23467555555;23967555555
5338;23631722000;23508800000;24008800000
5349;23672506000;23550455555;24050455555
5360;23712830000;23592133333;24092133333
5371;23751948000;23633800000;24133800000
5382;23789540000;23675455555;24175455555
5393;23825572000;23717122222;24217122222
5404;23862702000;23758788888;24258788888
5415;23894300000;23800455555;24300455555
5425;23894448000;23800822222;24300822222
5426;23929945000;23842122222;24342122222
5427;23929949000;23842122222;24342122222
5428;23929950000;23842122222;24342122222
5429;23929951000;23842122222;24342122222
5430;23929952000;23842122222;24342122222
5431;23929953000;23842122222;24342122222
5432;23929954000;23842122222;24342122222
5433;23930142000;23842233333;24342233333
5434;23930148000;23842555555;24342555555
5435;23930149000;23842555555;24342555555
5436;23930150000;23842555555;24342555555
5437;23964107000;23883800000;24383800000
5438;23964110000;23883800000;24383800000
5439;23964111000;23883800000;24383800000
5440;23964113000;23883800000;24383800000
5441;23964114000;23883800000;24383800000
5442;23964114000;23883800000;24383800000
5443;23964115000;23883800000;24383800000
5444;23964259000;23883877777;24383877777
5445;23964262000;23884211111;24384211111
5446;23964263000;23884211111;24384211111
5447;23964264000;23884211111;24384211111
5448;24000610000;23925466666;24425466666
5449;24000614000;23925466666;24425466666
5450;24000615000;23925466666;24425466666
5451;24000616000;23925466666;24425466666
5452;24000617000;23925466666;24425466666
5453;24000618000;23925466666;24425466666
5454;24000619000;23925466666;24425466666
5455;24000840000;23925544444;24425544444
5456;24000848000;23925866666;24425866666
5457;24000859000;23925866666;24425866666
5458;24000860000;23925866666;24425866666
5459;24037607000;23967133333;24467133333
5460;24037611000;23967133333;24467133333
5461;24037612000;23967133333;24467133333
5462;24037613000;23967133333;24467133333
5463;24037614000;23967133333;24467133333
5464;24037615000;23967133333;24467133333
5465;24037616000;23967133333;24467133333
5466;24037740000;23967233333;24467233333
5467;24037745000;23967544444;24467544444
5468;24037746000;23967544444;24467544444
5469;24037747000;23967544444;24467544444
5470;24075553000;24008800000;24508800000
5471;24075557000;24008800000;24508800000
5472;24075558000;24008800000;24508800000
5473;24075559000;24008800000;24508800000
5474;24075560000;24008800000;24508800000
5475;24075560000;24008800000;24508800000
5476;24075561000;24008800000;24508800000
5477;24075768000;24008877777;24508877777
5478;24075774000;24009200000;24509200000
5479;24075775000;24009200000;24509200000
5480;24075776000;24009200000;24509200000
5481;24114560000;24050455555;24550455555
5482;24114563000;24050455555;24550455555
5483;24114564000;24050455555;24550455555
5484;24114565000;24050455555;24550455555
5485;24114566000;24050455555;24550455555
5486;24114567000;24050455555;24550455555
5487;24114568000;24050455555;24550455555
5488;24114697000;24050533333;24550533333
5489;24114701000;24050811111;24550811111
5490;24114702000;24050811111;24550811111
5491;24114703000;24050811111;24550811111
5492;24154541000;24092133333;24592133333
5493;24154545000;24092133333;24592133333
5494;24154546000;24092133333;24592133333
5495;24154548000;24092133333;24592133333
5496;24154549000;24092133333;24592133333
5497;24154550000;24092133333;24592133333
5498;24154551000;24092133333;24592133333
5499;24154655000;24092233333;24592233333
