seqnum;now;rtptime;deadline
2;13513879000;12526466666;13026466666
4;13595267000;12557666666;13057666666
14;13636614000;12599322222;13099322222
15;13636619000;12599322222;13099322222
16;13636621000;12599322222;13099322222
17;13636625000;12599322222;13099322222
18;13636626000;12599322222;13099322222
19;13636629000;12599322222;13099322222
20;13636630000;12599322222;13099322222
21;13636729000;12599333333;13099333333
22;13636734000;12599733333;13099733333
23;13636736000;12599733333;13099733333
24;13636737000;12599733333;13099733333
25;13677767000;12640988888;13140988888
26;13677771000;12640988888;13140988888
27;13677773000;12640988888;13140988888
28;13914097000;12640988888;13140988888
29;13914111000;12640988888;13140988888
30;13914116000;12640988888;13140988888
31;13914123000;12640988888;13140988888
32;13964560000;12641000000;13141000000
36;13964576000;12682655555;13182655555
37;13964577000;12682655555;13182655555
38;13964578000;12682655555;13182655555
39;13964579000;12682655555;13182655555
40;13964580000;12682655555;13182655555
41;13964581000;12682655555;13182655555
42;13964582000;12682655555;13182655555
43;14006209000;12682666666;13182666666
44;14006225000;12683022222;13183022222
45;14006226000;12683022222;13183022222
46;14006227000;12683022222;13183022222
47;14047196000;12724322222;13224322222
48;14047200000;12724322222;13224322222
49;14047201000;12724322222;13224322222
50;14047202000;12724322222;13224322222
51;14047203000;12724322222;13224322222
52;14047204000;12724322222;13224322222
53;14047205000;12724322222;13224322222
54;14047648000;12724333333;13224333333
55;14047664000;12724655555;13224655555
56;14314404000;12724655555;13224655555
57;14314407000;12724655555;13224655555
58;14364715000;12765988888;13265988888
69;14406373000;12807655555;13307655555
70;14406376000;12807655555;13307655555
71;14406377000;12807655555;13307655555
72;14406378000;12807655555;13307655555
73;14406379000;12807655555;13307655555
74;14406380000;12807655555;13307655555
75;14406381000;12807655555;13307655555
76;14447819000;12807666666;13307666666
77;14447835000;12808011111;13308011111
78;14447836000;12808011111;13308011111
79;14447837000;12808011111;13308011111
80;14488677000;12849322222;13349322222
81;14488681000;12849322222;13349322222
82;14488682000;12849322222;13349322222
83;14488683000;12849322222;13349322222
84;14488684000;12849322222;13349322222
85;14488685000;12849322222;13349322222
86;14488686000;12849322222;13349322222
87;14765408000;12849333333;13349333333
102;14765436000;12932655555;13432655555
103;14765437000;12932655555;13432655555
104;14765439000;12932655555;13432655555
105;14765440000;12932655555;13432655555
106;14765441000;12932655555;13432655555
107;14765442000;12932655555;13432655555
108;14765444000;12932655555;13432655555
109;14848883000;12932677777;13432677777
110;14848911000;12932955555;13432955555
111;14848913000;12932955555;13432955555
112;14848915000;12932955555;13432955555
113;14889483000;12974322222;13474322222
114;14889494000;12974322222;13474322222
115;14889495000;12974322222;13474322222
116;14889497000;12974322222;13474322222
117;14889498000;12974322222;13474322222
118;14889500000;12974322222;13474322222
119;14889501000;12974322222;13474322222
120;14889800000;12974344444;13474344444
121;14889824000;12974644444;13474644444
122;15115182000;12974644444;13474644444
123;15115185000;12974644444;13474644444
124;15207089000;13015988888;13515988888
146;15289878000;13099322222;13599322222
147;15289882000;13099322222;13599322222
148;15289884000;13099322222;13599322222
151;15289885000;13099322222;13599322222
152;15289886000;13099322222;13599322222
153;15290092000;13099344444;13599344444
154;15290095000;13099666666;13599666666
155;15290097000;13099666666;13599666666
156;15290098000;13099666666;13599666666
157;15328864000;13140988888;13640988888
158;15328867000;13140988888;13640988888
159;15328869000;13140988888;13640988888
160;15328870000;13140988888;13640988888
164;15566042000;13141000000;13641000000
187;15566065000;13224644444;13724644444
188;15566067000;13224644444;13724644444
190;15729926000;13265988888;13765988888
191;15729930000;13265988888;13765988888
192;15729947000;13265988888;13765988888
193;15729948000;13265988888;13765988888
194;15729949000;13265988888;13765988888
195;15729950000;13265988888;13765988888
196;15729951000;13265988888;13765988888
197;15730050000;13266011111;13766011111
198;15730056000;13266300000;13766300000
199;15730058000;13266300000;13766300000
200;15730059000;13266300000;13766300000
201;15765903000;13307655555;13807655555
202;15765906000;13307655555;13807655555
203;15765908000;13307655555;13807655555
204;15765909000;13307655555;13807655555
205;15765910000;13307655555;13807655555
206;15765911000;13307655555;13807655555
207;15765912000;13307655555;13807655555
208;15966203000;13307677777;13807677777
230;16093986000;13391000000;13891000000
243;16316074000;13432977777;13932977777
245;16316206000;13474322222;13974322222
251;16316211000;13474322222;13974322222
252;16316327000;13474333333;13974333333
257;16316343000;13515988888;14015988888
258;16316344000;13515988888;14015988888
259;16316345000;13515988888;14015988888
260;16316346000;13515988888;14015988888
261;16316347000;13515988888;14015988888
262;16316348000;13515988888;14015988888
263;16316481000;13516000000;14016000000
266;16316489000;13516366666;14016366666
267;16407855000;13557644444;14057644444
284;16516961000;13599311111;14099311111
301;16716564000;13682655555;14182655555
309;16716577000;13682966666;14182966666
310;16716579000;13682966666;14182966666
311;16716586000;13724322222;14224322222
312;16716598000;13724322222;14224322222
313;16716600000;13724322222;14224322222
314;16716602000;13724322222;14224322222
315;16716604000;13724322222;14224322222
316;16716615000;13724322222;14224322222
317;16716616000;13724322222;14224322222
320;16716624000;13724633333;14224633333
321;16716626000;13724633333;14224633333
322;16766748000;13765988888;14265988888
366;17116854000;13932644444;14432644444
373;17116991000;13932655555;14432655555
376;17116999000;13932944444;14432944444
377;17117013000;13974311111;14474311111
378;17117017000;13974311111;14474311111
379;17117026000;13974311111;14474311111
380;17117028000;13974311111;14474311111
381;17117031000;13974311111;14474311111
382;17117033000;13974311111;14474311111
383;17117035000;13974311111;14474311111
385;17117052000;13974633333;14474633333
387;17117055000;13974633333;14474633333
388;17208546000;14015977777;14515977777
392;17208549000;14015977777;14515977777
436;17517114000;14182644444;14682644444
443;17517131000;14224322222;14724322222
445;17517136000;14224322222;14724322222
447;17517138000;14224322222;14724322222
448;17517141000;14224322222;14724322222
449;17517142000;14224322222;14724322222
450;17517260000;14224333333;14724333333
454;17517267000;14265988888;14765988888
455;17517269000;14265988888;14765988888
456;17517270000;14265988888;14765988888
457;17517271000;14265988888;14765988888
458;17517273000;14265988888;14765988888
459;17517274000;14265988888;14765988888
460;17517275000;14265988888;14765988888
461;17567429000;14266000000;14766000000
510;17567445000;14474311111;14974311111
511;17567446000;14474311111;14974311111
512;17567447000;14474311111;14974311111
513;17567448000;14474311111;14974311111
514;17567449000;14474311111;14974311111
515;17567450000;14474311111;14974311111
516;17769516000;14474322222;14974322222
519;17769523000;14474655555;14974655555
520;17802849000;14515977777;15015977777
521;17802853000;14515977777;15015977777
522;17802854000;14515977777;15015977777
523;17802855000;14515977777;15015977777
524;17802856000;14515977777;15015977777
525;17802857000;14515977777;15015977777
526;17802858000;14515977777;15015977777
527;17802961000;14515988888;15015988888
1056;17802986000;16516400000;17016400000
1057;17802988000;16516400000;17016400000
1058;17802989000;16516400000;17016400000
1059;17802997000;16557655555;17057655555
1060;17802999000;16557655555;17057655555
1061;17803000000;16557655555;17057655555
1062;17803002000;16557655555;17057655555
1063;17917295000;16557655555;17057655555
1064;17917298000;16557655555;17057655555
1065;17917302000;16557655555;17057655555
1066;17967767000;16557677777;17057677777
1116;17967783000;16765988888;17265988888
1117;17967794000;16765988888;17265988888
1118;17967795000;16765988888;17265988888
1119;17967796000;16765988888;17265988888
1120;17967797000;16765988888;17265988888
1121;18169849000;16766000000;17266000000
1122;18169856000;16766311111;17266311111
1123;18169857000;16766311111;17266311111
1124;18169858000;16766311111;17266311111
1125;18203167000;16807644444;17307644444
1126;18203170000;16807644444;17307644444
1127;18203171000;16807644444;17307644444
1129;18203915000;16807644444;17307644444
1130;18203917000;16807644444;17307644444
1131;18203918000;16807644444;17307644444
1132;18204093000;16807666666;17307666666
1133;18204100000;16807955555;17307955555
1134;18204101000;16807955555;17307955555
1135;18204102000;16807955555;17307955555
1136;18232866000;16849311111;17349311111
1137;18232870000;16849311111;17349311111
1139;18232871000;16849311111;17349311111
1140;18232873000;16849311111;17349311111
1141;18317593000;16849311111;17349311111
1142;18317596000;16849311111;17349311111
1143;18368072000;16849333333;17349333333
1194;18569629000;17057655555;17557655555
1195;18569631000;17057655555;17557655555
1196;18569632000;17057655555;17557655555
1197;18569633000;17057655555;17557655555
1199;18569727000;17057933333;17557933333
1201;18569730000;17057933333;17557933333
1202;18605476000;17099322222;17599322222
1203;18605479000;17099322222;17599322222
1204;18605480000;17099322222;17599322222
1206;18605482000;17099322222;17599322222
1207;18605483000;17099322222;17599322222
1208;18605484000;17099322222;17599322222
1209;18605646000;17099333333;17599333333
1210;18605653000;17099633333;17599633333
1211;18605654000;17099633333;17599633333
1212;18605655000;17099633333;17599633333
1213;18635011000;17140977777;17640977777
1214;18635015000;17140977777;17640977777
1215;18635016000;17140977777;17640977777
1216;18635017000;17140977777;17640977777
1217;18635018000;17140977777;17640977777
1218;18635019000;17140977777;17640977777
1219;18635020000;17140977777;17640977777
1224;18809750000;17182644444;17682644444
1375;19269973000;17724688888;18224688888
1454;19270108000;18016344444;18516344444
1455;19270122000;18057666666;18557666666
1456;19270124000;18057666666;18557666666
1457;19270126000;18057666666;18557666666
1458;19270128000;18057666666;18557666666
1459;19270129000;18057666666;18557666666
1460;19270131000;18057666666;18557666666
1461;19270133000;18057666666;18557666666
1462;19270244000;18057688888;18557688888
1463;19270260000;18057977777;18557977777
1464;19270262000;18057977777;18557977777
1465;19270263000;18057977777;18557977777
1466;19270275000;18099311111;18599311111
1467;19270277000;18099311111;18599311111
1468;19270279000;18099311111;18599311111
1470;19270281000;18099311111;18599311111
1471;19270282000;18099311111;18599311111
1472;19270284000;18099311111;18599311111
1473;19270395000;18099333333;18599333333
1474;19270411000;18099655555;18599655555
1475;19270412000;18099655555;18599655555
1476;19270413000;18099655555;18599655555
1478;19270426000;18141000000;18641000000
1479;19518406000;18141000000;18641000000
1480;19518409000;18141000000;18641000000
1481;19518411000;18141000000;18641000000
1483;19518529000;18141000000;18641000000
1484;19568985000;18141022222;18641022222
1533;19569000000;18349311111;18849311111
1534;19569002000;18349311111;18849311111
1536;19770521000;18349311111;18849311111
1537;19770523000;18349311111;18849311111
1538;19770524000;18349311111;18849311111
1541;19770614000;18349666666;18849666666
1542;19770618000;18349666666;18849666666
1543;19806354000;18390977777;18890977777
1544;19806358000;18390977777;18890977777
1545;19806359000;18390977777;18890977777
1546;19806360000;18390977777;18890977777
1547;19806361000;18390977777;18890977777
1548;19806361000;18390977777;18890977777
1549;19806363000;18390977777;18890977777
1550;19806519000;18391000000;18891000000
1551;19806525000;18391333333;18891333333
1552;19806527000;18391333333;18891333333
1553;19806528000;18391333333;18891333333
1554;19835925000;18432644444;18932644444
1555;19835928000;18432644444;18932644444
1556;19835930000;18432644444;18932644444
1557;19835931000;18432644444;18932644444
1558;19835939000;18432644444;18932644444
1559;19918670000;18432644444;18932644444
1563;19969363000;18432977777;18932977777
1711;20421126000;19015988888;19515988888
1794;20421246000;19307955555;19807955555
1795;20421249000;19307955555;19807955555
1796;20421260000;19349322222;19849322222
1797;20421262000;19349322222;19849322222
1798;20421263000;19349322222;19849322222
1799;20421265000;19349322222;19849322222
1800;20421267000;19349322222;19849322222
1801;20421269000;19349322222;19849322222
1802;20421270000;19349322222;19849322222
1803;20421375000;19349344444;19849344444
1804;20421391000;19349666666;19849666666
1805;20421392000;19349666666;19849666666
1806;20421393000;19349666666;19849666666
1807;20421404000;19390988888;19890988888
1808;20421407000;19390988888;19890988888
1809;20421408000;19390988888;19890988888
1810;20421410000;19390988888;19890988888
1811;20421412000;19390988888;19890988888
1812;20421413000;19390988888;19890988888
1813;20421415000;19390988888;19890988888
1814;20421534000;19391000000;19891000000
1815;20421551000;19391311111;19891311111
1816;20421553000;19391311111;19891311111
1817;20421554000;19391311111;19891311111
1820;20769635000;19432655555;19932655555
1874;20971801000;19640977777;20140977777
1875;20971805000;19640977777;20140977777
1876;20971806000;19640977777;20140977777
1877;20971808000;19640977777;20140977777
1878;20971809000;19640977777;20140977777
1879;20971810000;19640977777;20140977777
1880;20971900000;19641000000;20141000000
1881;20971907000;19641277777;20141277777
1882;20971908000;19641277777;20141277777
1883;20971909000;19641277777;20141277777
1884;21005176000;19682644444;20182644444
1885;21005179000;19682644444;20182644444
1886;21005180000;19682644444;20182644444
1887;21005181000;19682644444;20182644444
1888;21005182000;19682644444;20182644444
1889;21005183000;19682644444;20182644444
1890;21005185000;19682644444;20182644444
1891;21005348000;19682666666;20182666666
2005;21119807000;20141000000;20641000000
2006;21119810000;20141000000;20641000000
2007;21119811000;20141000000;20641000000
2008;21119812000;20141000000;20641000000
2009;21119813000;20141000000;20641000000
2010;21119814000;20141000000;20641000000
2011;21119816000;20141000000;20641000000
2012;21349444000;20141011111;20641011111
2065;21349450000;20349311111;20849311111
2066;21349452000;20349311111;20849311111
2067;21349639000;20349322222;20849322222
2068;21349646000;20349633333;20849633333
2069;21349647000;20349633333;20849633333
2070;21349648000;20349633333;20849633333
2071;21349660000;20390977777;20890977777
2072;21349663000;20390977777;20890977777
2074;21350142000;20390977777;20890977777
2075;21350144000;20390977777;20890977777
2076;21350145000;20390977777;20890977777
2077;21350146000;20390977777;20890977777
2078;21350239000;20391000000;20891000000
2079;21350246000;20391300000;20891300000
2080;21350247000;20391300000;20891300000
2081;21350248000;20391300000;20891300000
2082;21350260000;20432644444;20932644444
2083;21350263000;20432644444;20932644444
2084;21350264000;20432644444;20932644444
2085;21350266000;20432644444;20932644444
2086;21350268000;20432644444;20932644444
2087;21350269000;20432644444;20932644444
2088;21519824000;20432644444;20932644444
2089;21570284000;20432666666;20932666666
2244;21570299000;21016311111;21516311111
2245;21570301000;21016311111;21516311111
2246;21570302000;21016311111;21516311111
2247;22020050000;21057655555;21557655555
2307;22020166000;21265977777;21765977777
2308;22020169000;21265977777;21765977777
2309;22020288000;21266000000;21766000000
2310;22020304000;21266300000;21766300000
2311;22020305000;21266300000;21766300000
2312;22020306000;21266300000;21766300000
2313;22020318000;21307644444;21807644444
2314;22020320000;21307644444;21807644444
2315;22020321000;21307644444;21807644444
2316;22020323000;21307644444;21807644444
2317;22020325000;21307644444;21807644444
2319;22020326000;21307644444;21807644444
2320;22020443000;21307666666;21807666666
2420;22098220000;21683055555;22183055555
2421;22098222000;21683055555;22183055555
2422;22098223000;21683055555;22183055555
2423;22098335000;21725111111;22225111111
2424;22098346000;21725111111;22225111111
2425;22098348000;21725111111;22225111111
2426;22098349000;21725111111;22225111111
2427;22098350000;21725111111;22225111111
2428;22098351000;21725111111;22225111111
2429;22098352000;21725111111;22225111111
2430;22370884000;21727700000;22227700000
2488;22370900000;21933000000;22433000000
2489;22604300000;21974311111;22474311111
2490;22604304000;21974311111;22474311111
2491;22604304000;21974311111;22474311111
2492;22604306000;21974311111;22474311111
2493;22604307000;21974311111;22474311111
2494;22604308000;21974311111;22474311111
2495;22604309000;21974311111;22474311111
2496;22604465000;21974333333;22474333333
2497;22604471000;21974655555;22474655555
2498;22604472000;21974655555;22474655555
2499;22604473000;21974655555;22474655555
2500;22633152000;22015977777;22515977777
2501;22633156000;22015977777;22515977777
2502;22633157000;22015977777;22515977777
2503;22633158000;22015977777;22515977777
2504;22633159000;22015977777;22515977777
2505;22633160000;22015977777;22515977777
2506;22633161000;22015977777;22515977777
2507;22633361000;22016000000;22516000000
2508;22633377000;22016311111;22516311111
2509;22633378000;22016311111;22516311111
2510;22720712000;22016311111;22516311111
2511;22771078000;22057644444;22557644444
2562;22935546000;22224333333;22724333333
2563;22935552000;22224633333;22724633333
2564;22935553000;22224633333;22724633333
2565;22935554000;22224633333;22724633333
2568;22973516000;22265988888;22765988888
2569;22973520000;22265988888;22765988888
2570;22973521000;22265988888;22765988888
2571;22973522000;22265988888;22765988888
2572;22973523000;22265988888;22765988888
2573;22973609000;22266000000;22766000000
2574;22973616000;22266300000;22766300000
2575;22973617000;22266300000;22766300000
2576;22973618000;22266300000;22766300000
2577;23006670000;22307655555;22807655555
2579;23006674000;22307655555;22807655555
2580;23006675000;22307655555;22807655555
2581;23006676000;22307655555;22807655555
2582;23006677000;22307655555;22807655555
2583;23006678000;22307655555;22807655555
2584;23006834000;22307677777;22807677777
2585;23006841000;22307955555;22807955555
2586;23006842000;22307955555;22807955555
2588;23036427000;22349311111;22849311111
2589;23120997000;22349311111;22849311111
2590;23120999000;22349311111;22849311111
2591;23121000000;22349311111;22849311111
2592;23121148000;22349311111;22849311111
2593;23121154000;22349311111;22849311111
2594;23121156000;22349311111;22849311111
2595;23171624000;22349333333;22849333333
2643;23171639000;22557666666;23057666666
2644;23171640000;22557666666;23057666666
2645;23171641000;22557666666;23057666666
2646;23171642000;22557666666;23057666666
2647;23171643000;22557666666;23057666666
2648;23171644000;22557666666;23057666666
2649;23171645000;22557666666;23057666666
2654;23411318000;22599322222;23099322222
2655;23411322000;22599322222;23099322222
2656;23411323000;22599322222;23099322222
2657;23411324000;22599322222;23099322222
2658;23411325000;22599322222;23099322222
2659;23411326000;22599322222;23099322222
2660;23411327000;22599322222;23099322222
2661;23411447000;22599333333;23099333333
2662;23411462000;22599633333;23099633333
2663;23411464000;22599633333;23099633333
2664;23411465000;22599633333;23099633333
2665;23440567000;22640988888;23140988888
2666;23440570000;22640988888;23140988888
2667;23440571000;22640988888;23140988888
2668;23440572000;22640988888;23140988888
2669;23521311000;22640988888;23140988888
2671;23521328000;22640988888;23140988888
2672;23571874000;22641000000;23141000000
2723;23571890000;22849311111;23349311111
2726;23773578000;22849311111;23349311111
2727;23773739000;22849333333;23349333333
2728;23773746000;22849622222;23349622222
2729;23773747000;22849622222;23349622222
2730;23773748000;22849622222;23349622222
2731;23807444000;22890977777;23390977777
2732;23807448000;22890977777;23390977777
2733;23807449000;22890977777;23390977777
2734;23807450000;22890977777;23390977777
2735;23807451000;22890977777;23390977777
2736;23807452000;22890977777;23390977777
2737;23807453000;22890977777;23390977777
2738;23807634000;22891000000;23391000000
2739;23807648000;22891288888;23391288888
2740;23807649000;22891288888;23391288888
2741;23807650000;22891288888;23391288888
2742;23837132000;22932655555;23432655555
2743;23837135000;22932655555;23432655555
2744;23837136000;22932655555;23432655555
2745;23837137000;22932655555;23432655555
2746;23837138000;22932655555;23432655555
2747;23837139000;22932655555;23432655555
2748;23921591000;22932655555;23432655555
2749;23972056000;22932677777;23432677777
2803;23972063000;23140977777;23640977777
2805;24173310000;23141300000;23641300000
2806;24173314000;23141300000;23641300000
2807;24173315000;23141300000;23641300000
2808;24209486000;23182644444;23682644444
2809;24209490000;23182644444;23682644444
2810;24209491000;23182644444;23682644444
2812;24209492000;23182644444;23682644444
2814;24209493000;23182644444;23682644444
2815;24209649000;23182666666;23682666666
2816;24209655000;23182977777;23682977777
2817;24209657000;23182977777;23682977777
2818;24209658000;23182977777;23682977777
2819;24239062000;23224311111;23724311111
2820;24239065000;23224311111;23724311111
2821;24239066000;23224311111;23724311111
2822;24239067000;23224311111;23724311111
2823;24239068000;23224311111;23724311111
2824;24239069000;23224311111;23724311111
2825;24239070000;23224311111;23724311111
2826;24239226000;23224333333;23724333333
2827;24321927000;23224611111;23724611111
2828;24321929000;23224611111;23724611111
2829;24321931000;23224611111;23724611111
2830;24413836000;23265977777;23765977777
2995;24845278000;23890988888;24390988888
3039;24845393000;24057655555;24557655555
3040;24845397000;24057655555;24557655555
3041;24845398000;24057655555;24557655555
3042;24845399000;24057655555;24557655555
3043;24845400000;24057655555;24557655555
3044;24845401000;24057655555;24557655555
3045;24845402000;24057655555;24557655555
3046;24845507000;24057677777;24557677777
3047;24845522000;24057933333;24557933333
3048;24845523000;24057933333;24557933333
3049;24845524000;24057933333;24557933333
3050;24845535000;24099322222;24599322222
3051;24845538000;24099322222;24599322222
3052;24845539000;24099322222;24599322222
3056;24845541000;24099322222;24599322222
3057;24845661000;24099333333;24599333333
3171;25122766000;24557688888;25057688888
3172;25122769000;24557688888;25057688888
3173;25122770000;24557688888;25057688888
3174;25122775000;24557688888;25057688888
3175;25122776000;24557688888;25057688888
3176;25122777000;24557688888;25057688888
3177;25122778000;24557688888;25057688888
3178;25394924000;24557711111;25057711111
3185;25394933000;24599311111;25099311111
3207;25708494000;24682666666;25182666666
3240;25708607000;24807644444;25307644444
3269;25923455000;24891300000;25391300000
3274;25923465000;24932677777;25432677777
3276;25923468000;24932677777;25432677777
3277;25923616000;24932711111;25432711111
3281;25923633000;24974322222;25474322222
3282;25923634000;24974322222;25474322222
3283;25923635000;24974322222;25474322222
3286;25923641000;24974322222;25474322222
3287;25923643000;24974322222;25474322222
3288;25923782000;24974333333;25474333333
3292;25923789000;25015988888;25515988888
3293;25923791000;25015988888;25515988888
3294;25923792000;25015988888;25515988888
3295;25923794000;25015988888;25515988888
3296;25923795000;25015988888;25515988888
3297;25923796000;25015988888;25515988888
3298;25923798000;25015988888;25515988888
3299;25973895000;25016000000;25516000000
3342;25973910000;25182644444;25682644444
3345;26288582000;25182977777;25682977777
3346;26288586000;25182977777;25682977777
3348;26306261000;25224311111;25724311111
3349;26306265000;25224311111;25724311111
3350;26306266000;25224311111;25724311111
3351;26306267000;25224311111;25724311111
3352;26306268000;25224311111;25724311111
3353;26306269000;25224311111;25724311111
3354;26306356000;25224333333;25724333333
3355;26306363000;25224622222;25724622222
3356;26306364000;25224622222;25724622222
3357;26306365000;25224622222;25724622222
3359;26306377000;25265977777;25765977777
3360;26306379000;25265977777;25765977777
3361;26306380000;25265977777;25765977777
3362;26306382000;25265977777;25765977777
3363;26306384000;25265977777;25765977777
3364;26306395000;25265977777;25765977777
3365;26306477000;25266000000;25766000000
3366;26306483000;25266300000;25766300000
3368;26306485000;25266300000;25766300000
3369;26374069000;25307644444;25807644444
3425;26717853000;25515988888;26015988888
3426;26717856000;25515988888;26015988888
3427;26717858000;25515988888;26015988888
3428;26717859000;25515988888;26015988888
3429;26717860000;25515988888;26015988888
3430;26717861000;25515988888;26015988888
3431;26718061000;25516000000;26016000000
3432;26718067000;25516300000;26016300000
3433;26718068000;25516300000;26016300000
3434;26718069000;25516300000;26016300000
3435;26718090000;25557666666;26057666666
3436;26718092000;25557666666;26057666666
3437;26718094000;25557666666;26057666666
3438;26718096000;25557666666;26057666666
3439;26718097000;25557666666;26057666666
3440;26718099000;25557666666;26057666666
3441;26718101000;25557666666;26057666666
3442;26718217000;25557677777;26057677777
3443;26718232000;25557955555;26057955555
3444;26718233000;25557955555;26057955555
3445;26718234000;25557955555;26057955555
3446;26718246000;25599311111;26099311111
3447;26718248000;25599311111;26099311111
3448;26724062000;25599311111;26099311111
3450;26724104000;25599311111;26099311111
3451;26724108000;25599311111;26099311111
3452;26724112000;25599311111;26099311111
3453;26774585000;25599333333;26099333333
3497;26938854000;25766011111;26266011111
3498;26938860000;25766300000;26266300000
3499;26938861000;25766300000;26266300000
3500;26938862000;25766300000;26266300000
3501;26975801000;25807655555;26307655555
3502;26975805000;25807655555;26307655555
3503;26975806000;25807655555;26307655555
3507;26975807000;25807655555;26307655555
3508;26975936000;25807666666;26307666666
3509;26975939000;25807955555;26307955555
3510;26975940000;25807955555;26307955555
3511;26975941000;25807955555;26307955555
3512;27010053000;25849322222;26349322222
3513;27010056000;25849322222;26349322222
3514;27010057000;25849322222;26349322222
3515;27010058000;25849322222;26349322222
3516;27010059000;25849322222;26349322222
3520;27010144000;25849633333;26349633333
3521;27010148000;25849633333;26349633333
3522;27010149000;25849633333;26349633333
3523;27042975000;25890988888;26390988888
3525;27042979000;25890988888;26390988888
3526;27042980000;25890988888;26390988888
3528;27124412000;25890988888;26390988888
3529;27124415000;25890988888;26390988888
3530;27174892000;25891000000;26391000000
3583;27174908000;26099311111;26599311111
3584;27174909000;26099311111;26599311111
3585;27377631000;26099322222;26599322222
3586;27377637000;26099633333;26599633333
3588;27377639000;26099633333;26599633333
3589;27411254000;26140988888;26640988888
3590;27411256000;26140988888;26640988888
3591;27411258000;26140988888;26640988888
3592;27411259000;26140988888;26640988888
3593;27411261000;26140988888;26640988888
3594;27411271000;26140988888;26640988888
3595;27411273000;26140988888;26640988888
3596;27411417000;26141011111;26641011111
3597;27411420000;26141311111;26641311111
3598;27411422000;26141311111;26641311111
3599;27411423000;26141311111;26641311111
3600;27440875000;26182655555;26682655555
3601;27440878000;26182655555;26682655555
3602;27440879000;26182655555;26682655555
3603;27440881000;26182655555;26682655555
3604;27440882000;26182655555;26682655555
3605;27440883000;26182655555;26682655555
3606;27524660000;26182655555;26682655555
3607;27575157000;26182666666;26682666666
3663;27575173000;26391311111;26891311111
3664;27575174000;26391311111;26891311111
3666;27810787000;26432666666;26932666666
3667;27810799000;26432666666;26932666666
3668;27810801000;26432666666;26932666666
3669;27810803000;26432666666;26932666666
3671;27810804000;26432666666;26932666666
3672;27810806000;26432666666;26932666666
3673;27810901000;26432688888;26932688888
3674;27810904000;26432977777;26932977777
3675;27810906000;26432977777;26932977777
3676;27810908000;26432977777;26932977777
3677;27840202000;26474333333;26974333333
3678;27840204000;26474333333;26974333333
3679;27840206000;26474333333;26974333333
3680;27840207000;26474333333;26974333333
3681;27840230000;26474333333;26974333333
3682;27840232000;26474333333;26974333333
3683;27840233000;26474333333;26974333333
3684;27840378000;26474344444;26974344444
3685;27840382000;26474666666;26974666666
3686;27924998000;26474666666;26974666666
3687;27925007000;26474666666;26974666666
3688;27975386000;26516000000;27016000000
3742;28140164000;26682944444;27182944444
3743;28177083000;26724322222;27224322222
3745;28177086000;26724322222;27224322222
3746;28177088000;26724322222;27224322222
3747;28177090000;26724322222;27224322222
3749;28177100000;26724322222;27224322222
3750;28177245000;26724333333;27224333333
3751;28177249000;26724622222;27224622222
3752;28177250000;26724622222;27224622222
3753;28177252000;26724622222;27224622222
3754;28211289000;26765977777;27265977777
3755;28211292000;26765977777;27265977777
3756;28211293000;26765977777;27265977777
3757;28211295000;26765977777;27265977777
3758;28211296000;26765977777;27265977777
3759;28211307000;26765977777;27265977777
3760;28211308000;26765977777;27265977777
3761;28211450000;26765988888;27265988888
3762;28211453000;26766277777;27266277777
3764;28211455000;26766277777;27266277777
3765;28240950000;26807644444;27307644444
3766;28325284000;26807644444;27307644444
3767;28325292000;26807644444;27307644444
3768;28325358000;26807644444;27307644444
3769;28325368000;26807644444;27307644444
3770;28325370000;26807644444;27307644444
3771;28325374000;26807644444;27307644444
3772;28375852000;26807666666;27307666666
3933;28375868000;27432633333;27932633333
3934;28375870000;27432633333;27932633333
3935;28375871000;27432633333;27932633333
3936;28375872000;27432633333;27932633333
3937;28850961000;27432655555;27932655555
4012;28850980000;27724322222;28224322222
4013;28850982000;27724322222;28224322222
4014;28851194000;27724344444;28224344444
4015;28851210000;27724633333;28224633333
4016;28851212000;27724633333;28224633333
4017;28851213000;27724633333;28224633333
4018;28851224000;27766000000;28266000000
4019;28851225000;27766000000;28266000000
4020;28851226000;27766000000;28266000000
4021;28851227000;27766000000;28266000000
4022;28851228000;27766000000;28266000000
4023;28851229000;27766000000;28266000000
4024;28851230000;27766000000;28266000000
4025;28851326000;27766011111;28266011111
4026;28851341000;27766300000;28266300000
4027;28851343000;27766300000;28266300000
4028;28851344000;27766300000;28266300000
4029;28851355000;27807655555;28307655555
4030;28851357000;27807655555;28307655555
4031;28851358000;27807655555;28307655555
4032;28851359000;27807655555;28307655555
4033;28851360000;27807655555;28307655555
4035;28851361000;27807655555;28307655555
4036;29176293000;27807666666;28307666666
4093;29176309000;28016288888;28516288888
4094;29176310000;28016288888;28516288888
4095;29413724000;28057644444;28557644444
4096;29413738000;28057644444;28557644444
4097;29413739000;28057644444;28557644444
4098;29413741000;28057644444;28557644444
4099;29413742000;28057644444;28557644444
4100;29413744000;28057644444;28557644444
4101;29413745000;28057644444;28557644444
4102;29413893000;28057666666;28557666666
4103;29413896000;28057922222;28557922222
4104;29413898000;28057922222;28557922222
4105;29413900000;28057922222;28557922222
4106;29442327000;28099311111;28599311111
4107;29442330000;28099311111;28599311111
4108;29442332000;28099311111;28599311111
4109;29442333000;28099311111;28599311111
4111;29442474000;28099311111;28599311111
4112;29442476000;28099311111;28599311111
4113;29442628000;28099333333;28599333333
4225;29526445000;28516377777;29016377777
4227;29772488000;28557666666;29057666666
4283;29772579000;28765977777;29265977777
4284;29772582000;28765977777;29265977777
4285;29772583000;28765977777;29265977777
4286;29772585000;28765977777;29265977777
4287;29772587000;28765977777;29265977777
4288;29772597000;28765977777;29265977777
4289;29772694000;28765988888;29265988888
4290;29772698000;28766300000;29266300000
4291;29772700000;28766300000;29266300000
4292;29772701000;28766300000;29266300000
4293;29772719000;28807644444;29307644444
4294;29772721000;28807644444;29307644444
4295;29772722000;28807644444;29307644444
4296;29772744000;28807644444;29307644444
4297;29772746000;28807644444;29307644444
4298;29772758000;28807644444;29307644444
4299;29772759000;28807644444;29307644444
4300;29772831000;28807666666;29307666666
4301;29772834000;28807966666;29307966666
4302;29772836000;28807966666;29307966666
4303;29772837000;28807966666;29307966666
4304;29772884000;28849311111;29349311111
4305;29772902000;28849311111;29349311111
4306;29926383000;28849311111;29349311111
4307;29926386000;28849311111;29349311111
4308;29926392000;28849311111;29349311111
4309;29926396000;28849311111;29349311111
4310;29926501000;28849311111;29349311111
4313;29976866000;28849644444;29349644444
4472;30428888000;29474322222;29974322222
4552;30429003000;29766000000;30266000000
4553;30429091000;29766011111;30266011111
4554;30429095000;29766288888;30266288888
4555;30429097000;29766288888;30266288888
4556;30429109000;29766288888;30266288888
4557;30429117000;29807655555;30307655555
4558;30429127000;29807655555;30307655555
4559;30429128000;29807655555;30307655555
4560;30429129000;29807655555;30307655555
4561;30429130000;29807655555;30307655555
4562;30429131000;29807655555;30307655555
4563;30429132000;29807655555;30307655555
4564;30429242000;29807666666;30307666666
4566;30429257000;29807933333;30307933333
4567;30429259000;29807933333;30307933333
4568;30429270000;29849322222;30349322222
4569;30429281000;29849322222;30349322222
4570;30429282000;29849322222;30349322222
4571;30429283000;29849322222;30349322222
4572;30429284000;29849322222;30349322222
4573;30429285000;29849322222;30349322222
4574;30429286000;29849322222;30349322222
4575;30429389000;29849333333;30349333333
4576;30727011000;29849611111;30349611111
4577;30727014000;29849611111;30349611111
4578;30727019000;29849611111;30349611111
4579;30818908000;29890966666;30390966666
4617;30941216000;30015977777;30515977777
4618;30941230000;30015977777;30515977777
4619;30941360000;30016000000;30516000000
4620;30941364000;30016288888;30516288888
4621;30941366000;30016288888;30516288888
4622;30941367000;30016288888;30516288888
4623;30978358000;30057644444;30557644444
4624;30978361000;30057644444;30557644444
4625;30978363000;30057644444;30557644444
4626;30978365000;30057644444;30557644444
4627;30978375000;30057644444;30557644444
4628;30978377000;30057644444;30557644444
4629;30978378000;30057644444;30557644444
4630;30978523000;30057666666;30557666666
4631;30978526000;30057922222;30557922222
4632;30978528000;30057922222;30557922222
4633;30978529000;30057922222;30557922222
4634;31012611000;30099311111;30599311111
4635;31012614000;30099311111;30599311111
4636;31012615000;30099311111;30599311111
4637;31012617000;30099311111;30599311111
4638;31012628000;30099311111;30599311111
4640;31012765000;30099311111;30599311111
4753;31403443000;30516388888;31016388888
4807;31410839000;30724644444;31224644444
4808;31410842000;30724644444;31224644444
4809;31410844000;30724644444;31224644444
4810;31410925000;30765977777;31265977777
4811;31410927000;30765977777;31265977777
4812;31410929000;30765977777;31265977777
4813;31410930000;30765977777;31265977777
4814;31410932000;30765977777;31265977777
4815;31410942000;30765977777;31265977777
4816;31410944000;30765977777;31265977777
4817;31411038000;30766000000;31266000000
4818;31411048000;30766300000;31266300000
4819;31411050000;30766300000;31266300000
4820;31411052000;30766300000;31266300000
4821;31411069000;30807644444;31307644444
4822;31411081000;30807644444;31307644444
4823;31411083000;30807644444;31307644444
4824;31411084000;30807644444;31307644444
4825;31411086000;30807644444;31307644444
4827;31411088000;30807644444;31307644444
4828;31411173000;30807666666;31307666666
4829;31411176000;30807955555;31307955555
4830;31411178000;30807955555;31307955555
4831;31527604000;30807955555;31307955555
4832;31578005000;30849311111;31349311111
4888;31780096000;31057655555;31557655555
4889;31780110000;31057655555;31557655555
4890;31780112000;31057655555;31557655555
4891;31780113000;31057655555;31557655555
4892;31780115000;31057655555;31557655555
4893;31780117000;31057655555;31557655555
4894;31780264000;31057666666;31557666666
4895;31780277000;31057944444;31557944444
4896;31780288000;31057944444;31557944444
4897;31780289000;31057944444;31557944444
4898;31813475000;31099288888;31599288888
4899;31813478000;31099288888;31599288888
4900;31813480000;31099288888;31599288888
4901;31813481000;31099288888;31599288888
4902;31813492000;31099288888;31599288888
4903;31813493000;31099288888;31599288888
4904;31813495000;31099288888;31599288888
4905;31813639000;31099311111;31599311111
4906;31813643000;31099622222;31599622222
4907;31813644000;31099622222;31599622222
4908;31813646000;31099622222;31599622222
4909;31843172000;31140977777;31640977777
4910;31843175000;31140977777;31640977777
4911;31927900000;31140977777;31640977777
4912;31927907000;31140977777;31640977777
4913;31927912000;31140977777;31640977777
4914;31927977000;31140977777;31640977777
4915;31927985000;31140977777;31640977777
4916;31978453000;31141000000;31641000000
4968;31978469000;31349333333;31849333333
4969;31978470000;31349333333;31849333333
4970;31978471000;31349333333;31849333333
4971;32180540000;31349344444;31849344444
4972;32180546000;31349655555;31849655555
4973;32180547000;31349655555;31849655555
4974;32180549000;31349655555;31849655555
4975;32213867000;31390988888;31890988888
4976;32213870000;31390988888;31890988888
4977;32213872000;31390988888;31890988888
4978;32213873000;31390988888;31890988888
4979;32213884000;31390988888;31890988888
4980;32213885000;31390988888;31890988888
4981;32213887000;31390988888;31890988888
4982;32214031000;31391000000;31891000000
4983;32214035000;31391311111;31891311111
4984;32214037000;31391311111;31891311111
4985;32214038000;31391311111;31891311111
4986;32243544000;31432655555;31932655555
4987;32243547000;31432655555;31932655555
4988;32243548000;31432655555;31932655555
4989;32243550000;31432655555;31932655555
4990;32243551000;31432655555;31932655555
4991;32328162000;31432655555;31932655555
4992;32328165000;31432655555;31932655555
4993;32378632000;31432666666;31932666666
5047;32378648000;31640977777;32140977777
5048;32580825000;31641000000;32141000000
5049;32580841000;31641288888;32141288888
5050;32580842000;31641288888;32141288888
5052;32614199000;31682644444;32182644444
5053;32614202000;31682644444;32182644444
5054;32614203000;31682644444;32182644444
5055;32614204000;31682644444;32182644444
5056;32614205000;31682644444;32182644444
5057;32614206000;31682644444;32182644444
5058;32614207000;31682644444;32182644444
5059;32614326000;31682666666;32182666666
5060;32614349000;31682955555;32182955555
5061;32614350000;31682955555;32182955555
5062;32614351000;31682955555;32182955555
5063;32643795000;31724311111;32224311111
5064;32643798000;31724311111;32224311111
5065;32643799000;31724311111;32224311111
5066;32643800000;31724311111;32224311111
5067;32643801000;31724311111;32224311111
5068;32643802000;31724311111;32224311111
5069;32643803000;31724311111;32224311111
5070;32644002000;31724322222;32224322222
5071;32728565000;31724644444;32224644444
5072;32728573000;31724644444;32224644444
5073;32728672000;31724644444;32224644444
5074;32820478000;31766000000;32266000000
5123;32980526000;31932655555;32432655555
5124;32980539000;31932655555;32432655555
5125;32980687000;31932677777;32432677777
5126;32980691000;31932988888;32432988888
5127;32980693000;31932988888;32432988888
5128;32980694000;31932988888;32432988888
5129;33014148000;31974311111;32474311111
5130;33014151000;31974311111;32474311111
5131;33014152000;31974311111;32474311111
5132;33014154000;31974311111;32474311111
5133;33014164000;31974311111;32474311111
5134;33014166000;31974311111;32474311111
5135;33014167000;31974311111;32474311111
5137;33014587000;31974633333;32474633333
5138;33014589000;31974633333;32474633333
5139;33014591000;31974633333;32474633333
5140;33047134000;32015977777;32515977777
5141;33047136000;32015977777;32515977777
5142;33047137000;32015977777;32515977777
5143;33047138000;32015977777;32515977777
5148;33047212000;32016288888;32516288888
5149;33047213000;32016288888;32516288888
5150;33047214000;32016288888;32516288888
5151;33179134000;32057644444;32557644444
5203;33343491000;32224622222;32724622222
5204;33343520000;32224622222;32724622222
5205;33343522000;32224622222;32724622222
5208;33381089000;32265988888;32765988888
5209;33381092000;32265988888;32765988888
5210;33381094000;32265988888;32765988888
5211;33381095000;32265988888;32765988888
5212;33381106000;32265988888;32765988888
5213;33381201000;32266000000;32766000000
5214;33381204000;32266288888;32766288888
5215;33381206000;32266288888;32766288888
5216;33381207000;32266288888;32766288888
5217;33414706000;32307655555;32807655555
5218;33414709000;32307655555;32807655555
5219;33414710000;32307655555;32807655555
5220;33414712000;32307655555;32807655555
5221;33414722000;32307655555;32807655555
5224;33414867000;32307666666;32807666666
5225;33414870000;32307944444;32807944444
5226;33414872000;32307944444;32807944444
5227;33414874000;32307944444;32807944444
5228;33444370000;32349311111;32849311111
5229;33444372000;32349311111;32849311111
5231;33529041000;32349311111;32849311111
5232;33529061000;32349311111;32849311111
5233;33529063000;32349311111;32849311111
5234;33529170000;32349311111;32849311111
5235;33579657000;32349333333;32849333333
5393;33579672000;32974322222;33474322222
5394;33579674000;32974322222;33474322222
5395;33579675000;32974322222;33474322222
5396;33579676000;32974322222;33474322222
5397;33579677000;32974322222;33474322222
5398;33579678000;32974322222;33474322222
5399;33579678000;32974322222;33474322222
5400;34114147000;32974333333;33474333333
5464;34114165000;33224311111;33724311111
5466;34114365000;33224333333;33724333333
5467;34114381000;33224622222;33724622222
5468;34114382000;33224622222;33724622222
5469;34114383000;33224622222;33724622222
5470;34114394000;33265977777;33765977777
5471;34114405000;33265977777;33765977777
5472;34114406000;33265977777;33765977777
5473;34114407000;33265977777;33765977777
5474;34114408000;33265977777;33765977777
5475;34114409000;33265977777;33765977777
5476;34114410000;33265977777;33765977777
5477;34114519000;33266000000;33766000000
5478;34114535000;33266288888;33766288888
5479;34114536000;33266288888;33766288888
5480;34114537000;33266288888;33766288888
5481;34114548000;33307644444;33807644444
5482;34114549000;33307644444;33807644444
5483;34114560000;33307644444;33807644444
5484;34114561000;33307644444;33807644444
5485;34114562000;33307644444;33807644444
5487;34114564000;33307644444;33807644444
5488;34114666000;33307666666;33807666666
