seqnum;now;rtptime;deadline
1;11004161000;10411244444;10911244444
3;11083972000;10442477777;10942477777
21;11125342000;10484144444;10984144444
22;11125351000;10484533333;10984533333
23;11125353000;10484533333;10984533333
24;11125354000;10484533333;10984533333
25;11166445000;10525788888;11025788888
26;11166451000;10525788888;11025788888
27;11166452000;10525788888;11025788888
28;11166455000;10525788888;11025788888
29;11166456000;10525788888;11025788888
30;11166457000;10525788888;11025788888
31;11166458000;10525788888;11025788888
32;11166671000;10525811111;11025811111
33;11166687000;10526155555;11026155555
34;11166689000;10526155555;11026155555
35;11166690000;10526155555;11026155555
36;11205992000;10567455555;11067455555
37;11205996000;10567455555;11067455555
38;11205997000;10567455555;11067455555
39;11205998000;10567455555;11067455555
40;11243118000;10567455555;11067455555
41;11243158000;10567455555;11067455555
42;11243421000;10567455555;11067455555
43;11293916000;10567477777;11067477777
72;11293931000;10692455555;11192455555
73;11293933000;10692455555;11192455555
74;11293934000;10692455555;11192455555
75;11293935000;10692455555;11192455555
76;11414291000;10692477777;11192477777
77;11414306000;10692811111;11192811111
78;11414307000;10692811111;11192811111
79;11414308000;10692811111;11192811111
80;11453873000;10734122222;11234122222
81;11453876000;10734122222;11234122222
82;11453877000;10734122222;11234122222
83;11453878000;10734122222;11234122222
84;11453879000;10734122222;11234122222
85;11453880000;10734122222;11234122222
86;11453882000;10734122222;11234122222
87;11454080000;10734144444;11234144444
88;11454095000;10734466666;11234466666
89;11454096000;10734466666;11234466666
90;11454097000;10734466666;11234466666
91;11491637000;10775788888;11275788888
128;11751115000;10900788888;11400788888
180;12098728000;11109144444;11609144444
230;12354182000;11275800000;11775800000
284;12354192000;11484100000;11984100000
285;12705226000;11484111111;11984111111
397;12705243000;11901100000;12401100000
398;12705245000;11901100000;12401100000
399;13367764000;11942455555;12442455555
506;13974636000;12317800000;12817800000
677;13974758000;12984122222;13484122222
678;13974761000;12984122222;13484122222
679;13974762000;12984122222;13484122222
680;13974763000;12984122222;13484122222
681;13974884000;12984144444;13484144444
682;13974899000;12984488888;13484488888
683;13974900000;12984488888;13484488888
684;13974901000;12984488888;13484488888
685;13989647000;13025788888;13525788888
686;13989650000;13025788888;13525788888
687;13989651000;13025788888;13525788888
688;13989652000;13025788888;13525788888
689;13989653000;13025788888;13525788888
690;13989655000;13025788888;13525788888
691;13989656000;13025788888;13525788888
692;13989773000;13025800000;13525800000
693;13989788000;13026122222;13526122222
694;13989790000;13026122222;13526122222
695;13989791000;13026122222;13526122222
696;13990990000;13067466666;13567466666
697;13990994000;13067466666;13567466666
698;13990995000;13067466666;13567466666
699;13990996000;13067466666;13567466666
700;13990997000;13067466666;13567466666
701;13990998000;13067466666;13567466666
702;13990999000;13067466666;13567466666
703;13991217000;13067488888;13567488888
704;13991233000;13067788888;13567788888
705;13991234000;13067788888;13567788888
706;14133947000;13067788888;13567788888
707;14225835000;13109122222;13609122222
718;14227469000;13150788888;13650788888
721;14227481000;13150788888;13650788888
722;14227482000;13150788888;13650788888
723;14227483000;13150788888;13650788888
724;14227484000;13150788888;13650788888
726;14227494000;13151088888;13651088888
727;14227496000;13151088888;13651088888
728;14227507000;13151088888;13651088888
729;14229011000;13192444444;13692444444
730;14229014000;13192444444;13692444444
731;14229015000;13192444444;13692444444
732;14229016000;13192444444;13692444444
733;14229017000;13192444444;13692444444
734;14229018000;13192444444;13692444444
735;14229019000;13192444444;13692444444
736;14229137000;13192466666;13692466666
737;14229152000;13192755555;13692755555
738;14229153000;13192755555;13692755555
739;14229166000;13192755555;13692755555
741;14229177000;13234122222;13734122222
742;14374640000;13234122222;13734122222
743;14374888000;13234122222;13734122222
744;14375376000;13234122222;13734122222
745;14376023000;13234122222;13734122222
746;14376366000;13234122222;13734122222
747;14426836000;13234144444;13734144444
748;14426851000;13234466666;13734466666
749;14426852000;13234466666;13734466666
750;14426853000;13234466666;13734466666
751;14469224000;13275788888;13775788888
752;14469228000;13275788888;13775788888
753;14469229000;13275788888;13775788888
754;14469230000;13275788888;13775788888
755;14469231000;13275788888;13775788888
756;14469232000;13275788888;13775788888
757;14469233000;13275788888;13775788888
758;14469431000;13275811111;13775811111
759;14469446000;13276122222;13776122222
760;14469448000;13276122222;13776122222
761;14469449000;13276122222;13776122222
762;14469459000;13317466666;13817466666
763;14615362000;13317466666;13817466666
764;14615626000;13317466666;13817466666
765;14616102000;13317466666;13817466666
766;14616745000;13317466666;13817466666
767;14617098000;13317466666;13817466666
768;14617333000;13317466666;13817466666
769;14666539000;13317477777;13817477777
770;14666554000;13317766666;13817766666
771;14666555000;13317766666;13817766666
772;14666557000;13317766666;13817766666
773;14669040000;13359122222;13859122222
774;14669043000;13359122222;13859122222
775;14669044000;13359122222;13859122222
776;14669045000;13359122222;13859122222
777;14669046000;13359122222;13859122222
778;14669047000;13359122222;13859122222
779;14669048000;13359122222;13859122222
780;14671217000;13359144444;13859144444
781;14671232000;13359455555;13859455555
782;14856145000;13359455555;13859455555
783;14856383000;13359455555;13859455555
784;14907179000;13400788888;13900788888
785;14907183000;13400788888;13900788888
786;14907184000;13400788888;13900788888
787;14907185000;13400788888;13900788888
788;14907186000;13400788888;13900788888
789;14907187000;13400788888;13900788888
790;14907188000;13400788888;13900788888
791;14910796000;13400811111;13900811111
792;14910811000;13401122222;13901122222
793;14910812000;13401122222;13901122222
794;14910813000;13401122222;13901122222
795;14952727000;13442444444;13942444444
796;14952730000;13442444444;13942444444
799;15097058000;13442444444;13942444444
800;15097529000;13442444444;13942444444
801;15100016000;13442444444;13942444444
802;15150662000;13442466666;13942466666
803;15150677000;13442755555;13942755555
804;15150678000;13442755555;13942755555
805;15150679000;13442755555;13942755555
806;15193310000;13484111111;13984111111
807;15193313000;13484111111;13984111111
808;15193314000;13484111111;13984111111
809;15193315000;13484111111;13984111111
810;15193316000;13484111111;13984111111
811;15337485000;13484111111;13984111111
812;15337797000;13484111111;13984111111
813;15388595000;13484133333;13984133333
814;15388610000;13484466666;13984466666
816;15391275000;13484466666;13984466666
817;15392289000;13525788888;14025788888
818;15392292000;13525788888;14025788888
819;15392293000;13525788888;14025788888
820;15392294000;13525788888;14025788888
821;15392295000;13525788888;14025788888
822;15392296000;13525788888;14025788888
823;15578263000;13525788888;14025788888
824;15628734000;13525811111;14025811111
825;15628750000;13526133333;14026133333
826;15628751000;13526133333;14026133333
827;15628752000;13526133333;14026133333
828;15673462000;13567466666;14067466666
829;15673466000;13567466666;14067466666
830;15673467000;13567466666;14067466666
831;15673468000;13567466666;14067466666
832;15673469000;13567466666;14067466666
833;15673478000;13567466666;14067466666
834;15818931000;13567466666;14067466666
835;15869413000;13567488888;14067488888
836;15869429000;13567788888;14067788888
837;15869430000;13567788888;14067788888
838;15869431000;13567788888;14067788888
839;15914132000;13609122222;14109122222
840;15914135000;13609122222;14109122222
841;15914136000;13609122222;14109122222
842;15914137000;13609122222;14109122222
843;15914138000;13609122222;14109122222
844;16059785000;13609122222;14109122222
845;16059787000;13609122222;14109122222
847;16113166000;13609444444;14109444444
848;16113170000;13609444444;14109444444
849;16113171000;13609444444;14109444444
850;16114484000;13650788888;14150788888
851;16114487000;13650788888;14150788888
852;16114488000;13650788888;14150788888
853;16114489000;13650788888;14150788888
854;16300490000;13650788888;14150788888
855;16300783000;13650788888;14150788888
856;16303703000;13650788888;14150788888
857;16354170000;13650811111;14150811111
858;16354185000;13651111111;14151111111
859;16354186000;13651111111;14151111111
860;16354187000;13651111111;14151111111
861;16355453000;13692433333;14192433333
862;16355457000;13692433333;14192433333
863;16355458000;13692433333;14192433333
864;16541250000;13692433333;14192433333
865;16541483000;13692433333;14192433333
866;16544434000;13692433333;14192433333
867;16544724000;13692433333;14192433333
868;16595150000;13692444444;14192444444
869;16595166000;13692755555;14192755555
870;16595167000;13692755555;14192755555
871;16595168000;13692755555;14192755555
872;16637662000;13734088888;14234088888
873;16637666000;13734088888;14234088888
874;16637667000;13734088888;14234088888
875;16782006000;13734088888;14234088888
876;16782244000;13734088888;14234088888
877;16785183000;13734088888;14234088888
878;16785417000;13734088888;14234088888
879;16835903000;13734111111;14234111111
880;16835918000;13734422222;14234422222
881;16835920000;13734422222;14234422222
882;16835920000;13734422222;14234422222
883;16836871000;13775800000;14275800000
884;16836875000;13775800000;14275800000
885;16836876000;13775800000;14275800000
886;16836877000;13775800000;14275800000
887;17022736000;13775800000;14275800000
888;17022738000;13775800000;14275800000
889;17023004000;13775800000;14275800000
890;17076260000;13775822222;14275822222
891;17076275000;13776177777;14276177777
892;17076276000;13776177777;14276177777
893;17076277000;13776177777;14276177777
894;17077467000;13817466666;14317466666
895;17077479000;13817466666;14317466666
896;17077480000;13817466666;14317466666
897;17077481000;13817466666;14317466666
898;17263449000;13817466666;14317466666
899;17263745000;13817466666;14317466666
900;17266754000;13817466666;14317466666
901;17317869000;13817488888;14317488888
902;17317884000;13817766666;14317766666
903;17317885000;13817766666;14317766666
904;17317886000;13817766666;14317766666
905;17359844000;13859122222;14359122222
906;17504241000;13859122222;14359122222
907;17504481000;13859122222;14359122222
908;17507456000;13859122222;14359122222
909;17508389000;13859122222;14359122222
910;17508696000;13859122222;14359122222
911;17508922000;13859122222;14359122222
912;17559148000;13859144444;14359144444
913;17559163000;13859444444;14359444444
914;17745006000;13859444444;14359444444
915;17745236000;13859444444;14359444444
916;17798491000;13900788888;14400788888
917;17798494000;13900788888;14400788888
918;17798504000;13900788888;14400788888
919;17798505000;13900788888;14400788888
920;17985776000;13900788888;14400788888
921;17986023000;13900788888;14400788888
922;17986035000;13900788888;14400788888
923;18039228000;13900811111;14400811111
924;18039233000;13901144444;14401144444
925;18039234000;13901144444;14401144444
926;18039235000;13901144444;14401144444
927;18276904000;13942455555;14442455555
928;18276908000;13942455555;14442455555
929;18276909000;13942455555;14442455555
930;18276910000;13942455555;14442455555
931;18276910000;13942455555;14442455555
932;18276912000;13942455555;14442455555
933;18467976000;13942455555;14442455555
934;18520659000;13942477777;14442477777
935;18520674000;13942766666;14442766666
936;18520675000;13942766666;14442766666
937;18520676000;13942766666;14442766666
938;18761443000;13984122222;14484122222
939;18761446000;13984122222;14484122222
940;18761447000;13984122222;14484122222
941;18761448000;13984122222;14484122222
942;18951866000;13984122222;14484122222
943;18953395000;13984122222;14484122222
944;18954065000;13984122222;14484122222
945;19004561000;13984144444;14484144444
946;19194180000;13984500000;14484500000
947;19195026000;13984500000;14484500000
948;19434923000;13984500000;14484500000
949;19485291000;14025788888;14525788888
950;19676347000;14025788888;14525788888
951;20690306000;14025788888;14525788888
952;20931081000;14025788888;14525788888
953;20931083000;14025788888;14525788888
954;20931358000;14025788888;14525788888
955;20931580000;14025788888;14525788888
956;20982047000;14025811111;14525811111
970;20982062000;14067800000;14567800000
971;21065220000;14109122222;14609122222
972;21065223000;14109122222;14609122222
973;21065225000;14109122222;14609122222
974;21065226000;14109122222;14609122222
975;21065227000;14109122222;14609122222
976;21065228000;14109122222;14609122222
977;21065229000;14109122222;14609122222
978;21065384000;14109144444;14609144444
979;21065390000;14109444444;14609444444
980;21065391000;14109444444;14609444444
981;21065393000;14109444444;14609444444
982;21107349000;14150777777;14650777777
983;21107357000;14150777777;14650777777
984;21107359000;14150777777;14650777777
985;21107360000;14150777777;14650777777
986;21107362000;14150777777;14650777777
987;21107364000;14150777777;14650777777
988;21107366000;14150777777;14650777777
989;21107593000;14150800000;14650800000
990;21107608000;14151111111;14651111111
991;21107609000;14151111111;14651111111
992;21107611000;14151111111;14651111111
993;21222009000;14192444444;14692444444
1049;21424324000;14400777777;14900777777
1126;21587884000;14692444444;15192444444
1127;21587888000;14692444444;15192444444
1128;21587889000;14692444444;15192444444
1129;21587890000;14692444444;15192444444
1130;21587891000;14692444444;15192444444
1131;21587892000;14692444444;15192444444
1132;21588089000;14692466666;15192466666
1133;21588104000;14692755555;15192755555
1135;21588106000;14692755555;15192755555
1136;21600632000;14734111111;15234111111
1137;21600635000;14734111111;15234111111
1138;21600636000;14734111111;15234111111
1139;21600637000;14734111111;15234111111
1140;21600638000;14734111111;15234111111
1141;21600639000;14734111111;15234111111
1142;21600640000;14734111111;15234111111
1143;21600854000;14734133333;15234133333
1144;21600869000;14734466666;15234466666
1145;21600870000;14734466666;15234466666
1146;21600871000;14734466666;15234466666
1147;21611207000;14775788888;15275788888
1148;21611210000;14775788888;15275788888
1149;21611211000;14775788888;15275788888
1150;21652989000;14775788888;15275788888
1151;21653250000;14775788888;15275788888
1152;21653253000;14775788888;15275788888
1153;21653494000;14775788888;15275788888
1154;21703991000;14775811111;15275811111
1206;21704006000;14984088888;15484088888
1207;21704007000;14984088888;15484088888
1208;21704008000;14984088888;15484088888
1209;21906258000;14984111111;15484111111
1285;21906273000;15275788888;15775788888
1286;22070530000;15275811111;15775811111
1287;22070536000;15276122222;15776122222
1288;22070537000;15276122222;15776122222
1289;22070538000;15276122222;15776122222
1290;22083032000;15317455555;15817455555
1291;22083035000;15317455555;15817455555
1292;22083036000;15317455555;15817455555
1293;22083038000;15317455555;15817455555
1294;22083039000;15317455555;15817455555
1295;22083039000;15317455555;15817455555
1296;22083040000;15317455555;15817455555
1297;22083195000;15317477777;15817477777
1298;22083201000;15317777777;15817777777
1299;22083202000;15317777777;15817777777
1300;22083203000;15317777777;15817777777
1301;22093431000;15359122222;15859122222
1302;22093434000;15359122222;15859122222
1303;22093435000;15359122222;15859122222
1304;22093436000;15359122222;15859122222
1305;22093437000;15359122222;15859122222
1306;22093438000;15359122222;15859122222
1307;22093439000;15359122222;15859122222
1308;22185052000;15359144444;15859144444
1364;22185067000;15567777777;16067777777
1365;22185068000;15567777777;16067777777
1366;22185069000;15567777777;16067777777
1367;22421935000;15609122222;16109122222
1443;22551717000;15859455555;16359455555
1444;22564573000;15900800000;16400800000
1445;22564577000;15900800000;16400800000
1446;22564578000;15900800000;16400800000
1447;22564579000;15900800000;16400800000
1448;22564580000;15900800000;16400800000
1449;22564581000;15900800000;16400800000
1450;22564582000;15900800000;16400800000
1451;22564744000;15900833333;16400833333
1452;22564750000;15901200000;16401200000
1453;22564751000;15901200000;16401200000
1454;22564752000;15901200000;16401200000
1455;22575063000;15942466666;16442466666
1456;22575067000;15942466666;16442466666
1457;22575068000;15942466666;16442466666
1458;22575069000;15942466666;16442466666
1459;22575070000;15942466666;16442466666
1460;22575071000;15942466666;16442466666
1461;22575072000;15942466666;16442466666
1462;22575191000;15942600000;16442600000
1463;22575195000;15942944444;16442944444
1464;22575196000;15942944444;16442944444
1465;22575197000;15942944444;16442944444
1466;22667218000;15984122222;16484122222
1519;22831702000;16151100000;16651100000
1520;22831706000;16151100000;16651100000
1521;22868782000;16192455555;16692455555
1598;23033882000;16484122222;16984122222
1599;23033886000;16484122222;16984122222
1600;23033887000;16484122222;16984122222
1601;23033888000;16484122222;16984122222
1602;23033889000;16484122222;16984122222
1603;23033889000;16484122222;16984122222
1604;23033890000;16484122222;16984122222
1605;23034045000;16484144444;16984144444
1606;23034051000;16484477777;16984477777
1607;23034052000;16484477777;16984477777
1608;23034053000;16484477777;16984477777
1609;23046783000;16525788888;17025788888
1610;23046787000;16525788888;17025788888
1611;23046788000;16525788888;17025788888
1612;23046789000;16525788888;17025788888
1613;23046790000;16525788888;17025788888
1614;23046791000;16525788888;17025788888
1615;23046792000;16525788888;17025788888
1616;23046946000;16525811111;17025811111
1617;23046952000;16526122222;17026122222
1619;23047206000;16526122222;17026122222
1620;23057478000;16567444444;17067444444
1621;23057482000;16567444444;17067444444
1623;23098481000;16567444444;17067444444
1624;23099011000;16567444444;17067444444
1625;23099241000;16567444444;17067444444
1626;23099866000;16567444444;17067444444
1627;23150338000;16567466666;17067466666
1677;23150343000;16775788888;17275788888
1678;23150344000;16775788888;17275788888
1679;23150345000;16775788888;17275788888
1680;23150346000;16775788888;17275788888
1681;23150347000;16775788888;17275788888
1682;23352664000;16775800000;17275800000
1753;23352679000;17067455555;17567455555
1754;23352681000;17067455555;17567455555
1755;23352682000;17067455555;17567455555
1756;23352683000;17067455555;17567455555
1757;23352684000;17067455555;17567455555
1758;23352684000;17067455555;17567455555
1759;23517253000;17067477777;17567477777
1761;23517259000;17067811111;17567811111
1762;23517260000;17067811111;17567811111
1763;23529850000;17109122222;17609122222
1764;23529854000;17109122222;17609122222
1765;23529855000;17109122222;17609122222
1766;23529856000;17109122222;17609122222
1767;23529857000;17109122222;17609122222
1768;23529858000;17109122222;17609122222
1769;23529859000;17109122222;17609122222
1770;23530013000;17109144444;17609144444
1771;23530019000;17109477777;17609477777
1772;23530020000;17109477777;17609477777
1773;23530021000;17109477777;17609477777
1774;23540316000;17150788888;17650788888
1775;23540320000;17150788888;17650788888
1776;23540321000;17150788888;17650788888
1777;23580161000;17150788888;17650788888
1778;23580163000;17150788888;17650788888
1779;23580652000;17150788888;17650788888
1780;23580855000;17150788888;17650788888
1781;23631310000;17150811111;17650811111
1833;23631326000;17359122222;17859122222
1834;23631327000;17359122222;17859122222
1835;23631328000;17359122222;17859122222
1836;23833842000;17359144444;17859144444
1911;23833858000;17650788888;18150788888
1912;23833859000;17650788888;18150788888
1913;23998982000;17650811111;18150811111
1914;23998998000;17651100000;18151100000
1915;23998999000;17651100000;18151100000
1916;23999000000;17651100000;18151100000
1917;24011510000;17692455555;18192455555
1918;24011528000;17692455555;18192455555
1919;24011529000;17692455555;18192455555
1920;24011530000;17692455555;18192455555
1921;24011531000;17692455555;18192455555
1922;24011532000;17692455555;18192455555
1925;24011649000;17692755555;18192755555
1926;24011653000;17692755555;18192755555
1927;24011654000;17692755555;18192755555
1928;24030153000;17734122222;18234122222
1929;24030157000;17734122222;18234122222
1930;24030158000;17734122222;18234122222
1931;24030159000;17734122222;18234122222
1932;24030160000;17734122222;18234122222
1933;24030161000;17734122222;18234122222
1934;24030162000;17734122222;18234122222
1935;24112154000;17734144444;18234144444
1989;24112169000;17942455555;18442455555
1990;24314585000;17942477777;18442477777
2059;24314600000;18192744444;18692744444
2060;24480185000;18234122222;18734122222
2070;24480270000;18234466666;18734466666
2071;24493103000;18275811111;18775811111
2072;24493106000;18275811111;18775811111
2073;24493107000;18275811111;18775811111
2074;24493108000;18275811111;18775811111
2075;24493109000;18275811111;18775811111
2076;24493110000;18275811111;18775811111
2077;24493111000;18275811111;18775811111
2078;24493265000;18275833333;18775833333
2079;24493271000;18276133333;18776133333
2080;24493273000;18276133333;18776133333
2081;24493274000;18276133333;18776133333
2082;24503789000;18317455555;18817455555
2083;24503793000;18317455555;18817455555
2084;24503794000;18317455555;18817455555
2085;24503795000;18317455555;18817455555
2086;24503796000;18317455555;18817455555
2087;24503797000;18317455555;18817455555
2088;24503798000;18317455555;18817455555
2089;24503952000;18317477777;18817477777
2090;24503958000;18317788888;18817788888
2091;24503959000;18317788888;18817788888
2092;24543489000;18317788888;18817788888
2093;24594380000;18359122222;18859122222
2145;24759069000;18526122222;19026122222
2146;24759073000;18526122222;19026122222
2147;24759074000;18526122222;19026122222
2148;24796178000;18567455555;19067455555
2210;24934090000;18775811111;19275811111
2222;24934097000;18817777777;19317777777
2223;24934098000;18817777777;19317777777
2224;24934099000;18817777777;19317777777
2225;24965367000;18859122222;19359122222
2226;24965371000;18859122222;19359122222
2227;24965372000;18859122222;19359122222
2228;24965373000;18859122222;19359122222
2229;24965374000;18859122222;19359122222
2230;24965375000;18859122222;19359122222
2231;24965376000;18859122222;19359122222
2232;24965505000;18859144444;19359144444
2234;24965531000;18859466666;19359466666
2235;24965532000;18859466666;19359466666
2236;24978414000;18900788888;19400788888
2237;24978417000;18900788888;19400788888
2239;24978418000;18900788888;19400788888
2240;24978419000;18900788888;19400788888
2241;24978421000;18900788888;19400788888
2242;24978422000;18900788888;19400788888
2243;24978543000;18900811111;19400811111
2244;24978547000;18901133333;19401133333
2245;24978548000;18901133333;19401133333
2247;24988640000;18942455555;19442455555
2248;24988643000;18942455555;19442455555
2249;25025789000;18942455555;19442455555
2250;25026201000;18942455555;19442455555
2251;25026203000;18942455555;19442455555
2252;25026624000;18942455555;19442455555
2253;25026858000;18942455555;19442455555
2254;25077739000;18942477777;19442477777
2303;25077754000;19150788888;19650788888
2306;25266341000;19150788888;19650788888
2307;25266343000;19150788888;19650788888
2308;25266344000;19150788888;19650788888
2309;25279194000;19150811111;19650811111
2376;25279210000;19401155555;19901155555
2377;25279211000;19401155555;19901155555
2378;25279212000;19401155555;19901155555
2379;25451677000;19442455555;19942455555
2384;25451680000;19442455555;19942455555
2385;25451681000;19442455555;19942455555
2386;25451878000;19442477777;19942477777
2387;25451893000;19442755555;19942755555
2388;25451895000;19442755555;19942755555
2389;25451896000;19442755555;19942755555
2390;25463319000;19484122222;19984122222
2391;25463323000;19484122222;19984122222
2392;25463324000;19484122222;19984122222
2393;25463325000;19484122222;19984122222
2394;25463326000;19484122222;19984122222
2395;25463327000;19484122222;19984122222
2396;25463327000;19484122222;19984122222
2397;25463532000;19484144444;19984144444
2398;25463547000;19484477777;19984477777
2399;25463548000;19484477777;19984477777
2400;25463549000;19484477777;19984477777
2401;25472863000;19525788888;20025788888
2402;25472866000;19525788888;20025788888
2403;25472867000;19525788888;20025788888
2404;25472876000;19525788888;20025788888
2405;25472877000;19525788888;20025788888
2406;25507357000;19525788888;20025788888
2407;25507819000;19525788888;20025788888
2408;25558292000;19525811111;20025811111
2460;25558308000;19734122222;20234122222
2461;25558310000;19734122222;20234122222
2462;25558311000;19734122222;20234122222
2463;25760915000;19734144444;20234144444
2528;25760933000;19984122222;20484122222
2529;25910411000;19984144444;20484144444
2539;25910426000;20025788888;20525788888
2540;25926210000;20025811111;20525811111
2541;25926225000;20026133333;20526133333
2542;25926226000;20026133333;20526133333
2543;25926227000;20026133333;20526133333
2544;25939824000;20067455555;20567455555
2545;25939827000;20067455555;20567455555
2546;25939828000;20067455555;20567455555
2547;25939829000;20067455555;20567455555
2548;25939830000;20067455555;20567455555
2549;25939831000;20067455555;20567455555
2550;25939832000;20067455555;20567455555
2551;25940000000;20067477777;20567477777
2552;25940005000;20067800000;20567800000
2553;25940006000;20067800000;20567800000
2554;25940007000;20067800000;20567800000
2555;25950495000;20109122222;20609122222
2556;25950499000;20109122222;20609122222
2557;25950509000;20109122222;20609122222
2558;25950510000;20109122222;20609122222
2559;25950511000;20109122222;20609122222
2560;25950512000;20109122222;20609122222
2561;25950513000;20109122222;20609122222
2562;26038767000;20109144444;20609144444
2616;26038782000;20317455555;20817455555
2617;26241277000;20317477777;20817477777
2673;26241293000;20526088888;21026088888
2674;26241294000;20526088888;21026088888
2675;26241295000;20526088888;21026088888
2676;26391119000;20567455555;21067455555
2696;26406964000;20609444444;21109444444
2697;26406968000;20609444444;21109444444
2698;26420784000;20650788888;21150788888
2699;26420787000;20650788888;21150788888
2700;26420788000;20650788888;21150788888
2701;26420789000;20650788888;21150788888
2702;26420790000;20650788888;21150788888
2703;26420791000;20650788888;21150788888
2704;26420792000;20650788888;21150788888
2705;26420947000;20650822222;21150822222
2706;26420953000;20651122222;21151122222
2707;26420954000;20651122222;21151122222
2708;26420955000;20651122222;21151122222
2709;26431638000;20692455555;21192455555
2710;26431642000;20692455555;21192455555
2711;26431643000;20692455555;21192455555
2712;26431644000;20692455555;21192455555
2713;26431645000;20692455555;21192455555
2714;26431646000;20692455555;21192455555
2715;26431647000;20692455555;21192455555
2716;26431766000;20692477777;21192477777
2717;26431770000;20692766666;21192766666
2718;26431771000;20692766666;21192766666
2719;26470694000;20692766666;21192766666
2720;26521385000;20734133333;21234133333
2775;26723920000;20942433333;21442433333
2833;26856319000;21150800000;21650800000
2854;26889368000;21234133333;21734133333
2855;26889372000;21234133333;21734133333
2856;26889373000;21234133333;21734133333
2857;26889374000;21234133333;21734133333
2858;26889375000;21234133333;21734133333
2859;26889539000;21234144444;21734144444
2860;26889545000;21234444444;21734444444
2861;26889546000;21234444444;21734444444
2862;26889547000;21234444444;21734444444
2863;26903271000;21275777777;21775777777
2864;26903274000;21275777777;21775777777
2865;26903275000;21275777777;21775777777
2866;26903276000;21275777777;21775777777
2867;26903277000;21275777777;21775777777
2868;26903278000;21275777777;21775777777
2869;26903279000;21275777777;21775777777
2870;26903462000;21275800000;21775800000
2871;26903468000;21276111111;21776111111
2872;26903476000;21276111111;21776111111
2873;26903477000;21276111111;21776111111
2874;26914316000;21317466666;21817466666
2875;26914320000;21317466666;21817466666
2876;26914321000;21317466666;21817466666
2877;26952487000;21317466666;21817466666
2878;26952881000;21317466666;21817466666
2879;26953254000;21317466666;21817466666
2880;26953580000;21317466666;21817466666
2881;27004873000;21317488888;21817488888
2931;27004888000;21525777777;22025777777
2932;27004889000;21525777777;22025777777
2933;27004890000;21525777777;22025777777
2934;27004891000;21525777777;22025777777
2935;27004901000;21525777777;22025777777
2936;27207302000;21525800000;22025800000
3000;27207307000;21775766666;22275766666
3001;27207308000;21775766666;22275766666
3002;27356851000;21775833333;22275833333
3011;27356857000;21817466666;22317466666
3012;27356859000;21817466666;22317466666
3013;27372668000;21817477777;22317477777
3014;27372674000;21817733333;22317733333
3015;27372675000;21817733333;22317733333
3016;27372676000;21817733333;22317733333
3017;27386870000;21859122222;22359122222
3018;27386873000;21859122222;22359122222
3019;27386874000;21859122222;22359122222
3020;27386876000;21859122222;22359122222
3021;27386877000;21859122222;22359122222
3022;27386878000;21859122222;22359122222
3023;27386879000;21859122222;22359122222
3024;27387075000;21859144444;22359144444
3025;27387081000;21859411111;22359411111
3026;27387082000;21859411111;22359411111
3027;27387083000;21859411111;22359411111
3028;27397367000;21900755555;22400755555
3029;27397370000;21900755555;22400755555
3030;27397371000;21900755555;22400755555
3031;27397372000;21900755555;22400755555
3032;27397373000;21900755555;22400755555
3033;27397374000;21900755555;22400755555
3034;27434546000;21900755555;22400755555
3035;27485017000;21900777777;22400777777
3088;27485033000;22109122222;22609122222
3089;27485034000;22109122222;22609122222
3090;27687509000;22109144444;22609144444
3146;27687514000;22317766666;22817766666
3147;27687524000;22317766666;22817766666
3148;27687525000;22317766666;22817766666
3149;27837546000;22359122222;22859122222
3168;27853435000;22401077777;22901077777
3169;27853438000;22401077777;22901077777
3170;27853439000;22401077777;22901077777
3171;27867280000;22442444444;22942444444
3172;27867284000;22442444444;22942444444
3173;27867285000;22442444444;22942444444
3174;27867286000;22442444444;22942444444
3175;27867287000;22442444444;22942444444
3176;27867288000;22442444444;22942444444
3177;27867288000;22442444444;22942444444
3178;27867486000;22442466666;22942466666
3179;27867492000;22442733333;22942733333
3180;27867493000;22442733333;22942733333
3181;27867494000;22442733333;22942733333
3182;27878111000;22484111111;22984111111
3183;27878115000;22484111111;22984111111
3184;27878116000;22484111111;22984111111
3185;27878117000;22484111111;22984111111
3186;27878118000;22484111111;22984111111
3187;27878119000;22484111111;22984111111
3188;27878120000;22484111111;22984111111
3189;27878317000;22484133333;22984133333
3190;27878332000;22484466666;22984466666
3191;27916155000;22484466666;22984466666
3192;27916701000;22484466666;22984466666
3193;27967297000;22525800000;23025800000
3245;28131858000;22692800000;23192800000
3246;28131861000;22692800000;23192800000
3247;28131862000;22692800000;23192800000
3248;28169035000;22734122222;23234122222
3300;28291453000;22901077777;23401077777
3324;28335110000;22984433333;23484433333
3325;28353939000;23025800000;23525800000
3326;28353942000;23025800000;23525800000
3327;28353943000;23025800000;23525800000
3328;28353944000;23025800000;23525800000
3329;28353945000;23025800000;23525800000
3330;28353946000;23025800000;23525800000
3331;28353947000;23025800000;23525800000
3332;28354101000;23025811111;23525811111
3333;28354107000;23026100000;23526100000
3334;28354108000;23026100000;23526100000
3335;28354109000;23026100000;23526100000
3336;28367774000;23067455555;23567455555
3337;28367778000;23067455555;23567455555
3338;28367779000;23067455555;23567455555
3339;28367780000;23067455555;23567455555
3340;28367781000;23067455555;23567455555
3341;28367781000;23067455555;23567455555
3342;28367783000;23067455555;23567455555
3343;28367937000;23067477777;23567477777
3344;28367943000;23067777777;23567777777
3345;28367944000;23067777777;23567777777
3346;28367945000;23067777777;23567777777
3347;28448330000;23109100000;23609100000
3403;28650975000;23317455555;23817455555
3451;28763757000;23484133333;23984133333
3482;28816838000;23609111111;24109111111
3483;28816841000;23609111111;24109111111
3484;28816842000;23609111111;24109111111
3485;28816843000;23609111111;24109111111
3486;28817040000;23609133333;24109133333
3487;28817062000;23609444444;24109444444
3488;28817064000;23609444444;24109444444
3489;28817065000;23609444444;24109444444
3490;28830751000;23650777777;24150777777
3491;28830754000;23650777777;24150777777
3492;28830756000;23650777777;24150777777
3493;28830757000;23650777777;24150777777
3494;28830757000;23650777777;24150777777
3495;28830758000;23650777777;24150777777
3496;28830759000;23650777777;24150777777
3497;28830957000;23650800000;24150800000
3498;28830972000;23651100000;24151100000
3499;28830973000;23651100000;24151100000
3500;28830974000;23651100000;24151100000
3501;28841809000;23692444444;24192444444
3502;28841811000;23692444444;24192444444
3503;28841812000;23692444444;24192444444
3504;28841813000;23692444444;24192444444
3505;28880344000;23692444444;24192444444
3506;28880916000;23692444444;24192444444
3507;28880918000;23692444444;24192444444
3508;28931616000;23692466666;24192466666
3559;28931631000;23900788888;24400788888
3560;28931632000;23900788888;24400788888
3561;28931633000;23900788888;24400788888
3562;28931634000;23900788888;24400788888
3563;29134135000;23900811111;24400811111
3617;29134150000;24109088888;24609088888
3618;29266318000;24109111111;24609111111
3639;29266325000;24192433333;24692433333
3640;29300072000;24192444444;24692444444
3641;29300078000;24192744444;24692744444
3642;29300079000;24192744444;24692744444
3643;29300080000;24192744444;24692744444
3644;29314391000;24234122222;24734122222
3645;29314394000;24234122222;24734122222
3646;29314395000;24234122222;24734122222
3647;29314396000;24234122222;24734122222
3648;29314397000;24234122222;24734122222
3649;29314398000;24234122222;24734122222
3650;29314399000;24234122222;24734122222
3651;29314562000;24234144444;24734144444
3652;29314569000;24234455555;24734455555
3653;29314570000;24234455555;24734455555
3654;29314571000;24234455555;24734455555
3655;29325104000;24275788888;24775788888
3656;29325108000;24275788888;24775788888
3657;29325109000;24275788888;24775788888
3658;29325110000;24275788888;24775788888
3659;29325111000;24275788888;24775788888
3660;29325112000;24275788888;24775788888
3661;29325113000;24275788888;24775788888
3662;29412510000;24275811111;24775811111
3717;29614950000;24484144444;24984144444
3759;29614956000;24650788888;25150788888
3760;29614958000;24650788888;25150788888
3761;29727775000;24650811111;25150811111
3796;29727792000;24776088888;25276088888
3797;29727793000;24776088888;25276088888
3798;29801620000;24817455555;25317455555
3799;29801623000;24817455555;25317455555
3800;29801624000;24817455555;25317455555
3801;29801625000;24817455555;25317455555
3802;29801626000;24817455555;25317455555
3803;29801627000;24817455555;25317455555
3804;29801628000;24817455555;25317455555
3805;29801782000;24817477777;25317477777
3806;29801789000;24817744444;25317744444
3807;29801790000;24817744444;25317744444
3808;29801791000;24817744444;25317744444
3809;29810962000;24859122222;25359122222
3810;29810965000;24859122222;25359122222
3811;29810966000;24859122222;25359122222
3812;29810967000;24859122222;25359122222
3814;29811057000;24859122222;25359122222
3815;29811059000;24859122222;25359122222
3816;29811179000;24859144444;25359144444
3817;29811183000;24859422222;25359422222
3818;29811184000;24859422222;25359422222
3819;29811185000;24859422222;25359422222
3820;29894314000;24900788888;25400788888
3874;30058938000;25067766666;25567766666
3875;30096197000;25109144444;25609144444
3913;30188852000;25234122222;25734122222
3954;30264524000;25400800000;25900800000
3955;30264528000;25400800000;25900800000
3956;30264529000;25400800000;25900800000
3957;30264530000;25400800000;25900800000
3958;30264531000;25400800000;25900800000
3959;30264685000;25400811111;25900811111
3960;30264692000;25401111111;25901111111
3961;30264693000;25401111111;25901111111
3962;30264694000;25401111111;25901111111
3963;30278229000;25442455555;25942455555
3964;30278232000;25442455555;25942455555
3965;30278234000;25442455555;25942455555
3966;30278235000;25442455555;25942455555
3967;30278236000;25442455555;25942455555
3968;30278237000;25442455555;25942455555
3969;30278238000;25442455555;25942455555
3970;30278402000;25442477777;25942477777
3971;30278409000;25442733333;25942733333
3972;30278410000;25442733333;25942733333
3973;30278411000;25442733333;25942733333
3974;30289191000;25484122222;25984122222
3975;30289193000;25484122222;25984122222
3976;30289194000;25484122222;25984122222
3977;30325092000;25484122222;25984122222
3978;30326248000;25484122222;25984122222
3979;30327248000;25484122222;25984122222
3980;30327260000;25484122222;25984122222
3981;30377901000;25484144444;25984144444
4032;30377916000;25692455555;26192455555
4033;30377917000;25692455555;26192455555
4034;30377918000;25692455555;26192455555
4035;30377919000;25692455555;26192455555
4036;30580425000;25692477777;26192477777
4084;30580431000;25900811111;26400811111
4085;30580432000;25900811111;26400811111
4086;30580434000;25900811111;26400811111
4087;30580435000;25900811111;26400811111
4088;30580435000;25900811111;26400811111
4089;30580436000;25900811111;26400811111
4090;30580437000;25900811111;26400811111
4091;30712865000;25900833333;26400833333
4111;30712871000;25984122222;26484122222
4112;30712872000;25984122222;26484122222
4113;30746726000;25984144444;26484144444
4114;30746742000;25984444444;26484444444
4115;30746743000;25984444444;26484444444
4116;30746744000;25984444444;26484444444
4117;30760454000;26025788888;26525788888
4118;30760457000;26025788888;26525788888
4119;30760458000;26025788888;26525788888
4120;30760459000;26025788888;26525788888
4121;30760460000;26025788888;26525788888
4122;30760461000;26025788888;26525788888
4123;30760462000;26025788888;26525788888
4124;30760667000;26025811111;26525811111
4125;30760682000;26026111111;26526111111
4126;30760683000;26026111111;26526111111
4127;30760684000;26026111111;26526111111
4128;30771399000;26067455555;26567455555
4129;30771402000;26067455555;26567455555
4130;30771403000;26067455555;26567455555
4131;30771405000;26067455555;26567455555
4132;30771405000;26067455555;26567455555
4133;30771406000;26067455555;26567455555
4134;30806892000;26067455555;26567455555
4135;30858093000;26067477777;26567477777
4190;31060511000;26275777777;26775777777
4227;31060526000;26442455555;26942455555
4228;31060527000;26442455555;26942455555
4229;31060528000;26442455555;26942455555
4230;31060529000;26442455555;26942455555
4231;31060530000;26442455555;26942455555
4232;31060531000;26442455555;26942455555
4233;31060532000;26442455555;26942455555
4234;31173622000;26442477777;26942477777
4268;31173628000;26567722222;27067722222
4269;31173630000;26567722222;27067722222
4270;31173631000;26567722222;27067722222
4271;31242542000;26609100000;27109100000
4272;31242545000;26609100000;27109100000
4273;31242546000;26609100000;27109100000
4274;31242547000;26609100000;27109100000
4275;31242548000;26609100000;27109100000
4276;31242550000;26609100000;27109100000
4277;31242550000;26609100000;27109100000
4278;31242747000;26609122222;27109122222
4279;31242763000;26609422222;27109422222
4280;31242764000;26609422222;27109422222
4281;31242765000;26609422222;27109422222
4282;31253240000;26650788888;27150788888
4283;31253244000;26650788888;27150788888
4284;31253245000;26650788888;27150788888
4285;31253246000;26650788888;27150788888
4286;31253247000;26650788888;27150788888
4287;31253248000;26650788888;27150788888
4288;31253249000;26650788888;27150788888
4289;31253446000;26650811111;27150811111
4290;31253452000;26651100000;27151100000
4291;31289310000;26651100000;27151100000
4292;31289907000;26651100000;27151100000
4293;31341108000;26692455555;27192455555
4347;31505750000;26859455555;27359455555
4348;31542928000;26900788888;27400788888
4389;31637306000;27026122222;27526122222
4426;31727246000;27192455555;27692455555
4427;31727250000;27192455555;27692455555
4428;31727251000;27192455555;27692455555
4429;31727252000;27192455555;27692455555
4430;31727253000;27192455555;27692455555
4431;31727254000;27192455555;27692455555
4432;31727451000;27192477777;27692477777
4433;31727466000;27192755555;27692755555
4434;31727467000;27192755555;27692755555
4435;31727468000;27192755555;27692755555
4436;31741200000;27234100000;27734100000
4437;31741204000;27234100000;27734100000
4438;31741212000;27234100000;27734100000
4439;31741213000;27234100000;27734100000
4440;31741214000;27234100000;27734100000
4441;31741216000;27234100000;27734100000
4442;31741217000;27234100000;27734100000
4443;31741414000;27234111111;27734111111
4444;31741429000;27234433333;27734433333
4445;31741431000;27234433333;27734433333
4446;31741431000;27234433333;27734433333
4447;31748753000;27275800000;27775800000
4448;31748755000;27275800000;27775800000
4449;31771027000;27275800000;27775800000
4450;31771644000;27275800000;27775800000
4451;31771662000;27275800000;27775800000
4452;31772907000;27275800000;27775800000
4453;31772925000;27275800000;27775800000
4454;31824398000;27275811111;27775811111
4505;31824402000;27484111111;27984111111
4506;31824403000;27484111111;27984111111
4507;31824404000;27484111111;27984111111
4508;31824405000;27484111111;27984111111
4509;32026921000;27484133333;27984133333
4552;32026937000;27650788888;28150788888
4553;32139507000;27650811111;28150811111
4583;32139511000;27775788888;28275788888
4584;32139512000;27775788888;28275788888
4585;32139513000;27775788888;28275788888
4586;32193535000;27775811111;28275811111
4587;32193551000;27776088888;28276088888
4588;32193552000;27776088888;28276088888
4589;32193553000;27776088888;28276088888
4590;32207210000;27817466666;28317466666
4591;32207213000;27817466666;28317466666
4592;32207215000;27817466666;28317466666
4593;32207216000;27817466666;28317466666
4594;32207217000;27817466666;28317466666
4595;32207218000;27817466666;28317466666
4596;32207219000;27817466666;28317466666
4597;32207424000;27817488888;28317488888
4598;32207440000;27817733333;28317733333
4599;32207441000;27817733333;28317733333
4600;32207442000;27817733333;28317733333
4601;32218193000;27859122222;28359122222
4602;32218196000;27859122222;28359122222
4603;32218197000;27859122222;28359122222
4604;32218199000;27859122222;28359122222
4605;32218200000;27859122222;28359122222
4606;32253460000;27859122222;28359122222
4607;32253923000;27859122222;28359122222
4608;32304398000;27859144444;28359144444
4662;32304403000;28067466666;28567466666
4663;32507004000;28067488888;28567488888
4700;32507011000;28234111111;28734111111
4703;32507037000;28234111111;28734111111
4704;32507038000;28234111111;28734111111
4705;32507039000;28234111111;28734111111
4706;32507040000;28234111111;28734111111
4707;32620113000;28234133333;28734133333
4739;32620129000;28359122222;28859122222
4740;32674491000;28359144444;28859144444
4741;32674497000;28359433333;28859433333
4743;32674498000;28359433333;28859433333
4744;32688349000;28400788888;28900788888
4745;32688353000;28400788888;28900788888
4746;32688353000;28400788888;28900788888
4747;32688354000;28400788888;28900788888
4748;32688355000;28400788888;28900788888
4749;32688356000;28400788888;28900788888
4750;32688357000;28400788888;28900788888
4751;32688597000;28400811111;28900811111
4753;32688615000;28401155555;28901155555
4754;32688616000;28401155555;28901155555
4755;32699455000;28442466666;28942466666
4756;32699458000;28442466666;28942466666
4757;32699459000;28442466666;28942466666
4758;32699461000;28442466666;28942466666
4759;32699462000;28442466666;28942466666
4760;32699462000;28442466666;28942466666
4761;32699463000;28442466666;28942466666
4762;32699645000;28442477777;28942477777
4763;32699662000;28442755555;28942755555
4764;32735080000;28442755555;28942755555
4765;32735692000;28442755555;28942755555
4766;32786557000;28484122222;28984122222
4818;32951186000;28651133333;29151133333
4819;32951189000;28651133333;29151133333
4820;32951190000;28651133333;29151133333
4821;32988400000;28692444444;29192444444
4856;33083035000;28817455555;29317455555
4896;33153817000;28942744444;29442744444
4897;33153821000;28942744444;29442744444
4898;33173096000;28984122222;29484122222
4899;33173099000;28984122222;29484122222
4900;33173100000;28984122222;29484122222
4901;33173101000;28984122222;29484122222
4902;33173102000;28984122222;29484122222
4903;33173103000;28984122222;29484122222
4904;33173104000;28984122222;29484122222
4905;33173258000;28984144444;29484144444
4906;33173265000;28984466666;29484466666
4907;33173273000;28984466666;29484466666
4908;33173274000;28984466666;29484466666
4909;33187638000;29025800000;29525800000
4910;33187642000;29025800000;29525800000
4911;33187643000;29025800000;29525800000
4912;33187644000;29025800000;29525800000
4913;33187645000;29025800000;29525800000
4914;33187646000;29025800000;29525800000
4915;33187647000;29025800000;29525800000
4916;33187801000;29025822222;29525822222
4917;33187807000;29026133333;29526133333
4918;33187808000;29026133333;29526133333
4919;33216838000;29026133333;29526133333
4920;33267760000;29067455555;29567455555
4971;33432420000;29234133333;29734133333
4972;33432427000;29234488888;29734488888
4973;33432428000;29234488888;29734488888
4974;33432429000;29234488888;29734488888
4975;33469651000;29275811111;29775811111
5010;33564309000;29400788888;29900788888
5051;33641174000;29526122222;30026122222
5052;33659550000;29567455555;30067455555
5053;33659554000;29567455555;30067455555
5054;33659555000;29567455555;30067455555
5055;33659556000;29567455555;30067455555
5056;33659557000;29567455555;30067455555
5057;33659558000;29567455555;30067455555
5058;33659559000;29567455555;30067455555
5059;33659714000;29567477777;30067477777
5060;33659720000;29567788888;30067788888
5061;33659721000;29567788888;30067788888
5062;33659722000;29567788888;30067788888
5063;33673152000;29609122222;30109122222
5064;33673156000;29609122222;30109122222
5065;33673157000;29609122222;30109122222
5066;33673158000;29609122222;30109122222
5067;33673159000;29609122222;30109122222
5068;33673160000;29609122222;30109122222
5069;33673161000;29609122222;30109122222
5070;33673336000;29609144444;30109144444
5071;33673342000;29609500000;30109500000
5072;33673343000;29609500000;30109500000
5073;33673344000;29609500000;30109500000
5074;33749125000;29650777777;30150777777
5130;33951805000;29859111111;30359111111
5168;34042414000;29984133333;30484133333
5208;34119359000;30150788888;30650788888
5209;34119363000;30150788888;30650788888
5210;34119364000;30150788888;30650788888
5211;34119365000;30150788888;30650788888
5212;34119366000;30150788888;30650788888
5213;34119490000;30150811111;30650811111
5214;34119496000;30151100000;30651100000
5215;34119498000;30151100000;30651100000
5216;34119499000;30151100000;30651100000
5217;34133687000;30192455555;30692455555
5218;34133690000;30192455555;30692455555
5219;34133691000;30192455555;30692455555
5220;34133692000;30192455555;30692455555
5221;34133694000;30192455555;30692455555
5222;34133694000;30192455555;30692455555
5223;34133695000;30192455555;30692455555
5224;34133804000;30192477777;30692477777
5225;34133809000;30192755555;30692755555
5226;34133810000;30192755555;30692755555
5228;34145982000;30234133333;30734133333
5229;34145985000;30234133333;30734133333
5230;34145986000;30234133333;30734133333
5231;34145987000;30234133333;30734133333
5232;34180954000;30234133333;30734133333
5233;34181412000;30234133333;30734133333
5234;34181417000;30234133333;30734133333
5235;34232041000;30234155555;30734155555
5286;34232047000;30442444444;30942444444
5287;34232049000;30442444444;30942444444
5288;34232050000;30442444444;30942444444
5289;34232050000;30442444444;30942444444
5290;34433626000;30442466666;30942466666
5323;34525046000;30567488888;31067488888
5365;34525052000;30734144444;31234144444
5366;34525053000;30734144444;31234144444
5367;34602822000;30734166666;31234166666
5368;34602829000;30734477777;31234477777
5369;34602830000;30734477777;31234477777
5370;34602831000;30734477777;31234477777
5371;34616616000;30775811111;31275811111
5372;34616619000;30775811111;31275811111
5373;34616620000;30775811111;31275811111
5374;34616621000;30775811111;31275811111
5375;34616622000;30775811111;31275811111
5376;34616623000;30775811111;31275811111
5377;34616623000;30775811111;31275811111
5378;34616737000;30775822222;31275822222
5379;34616742000;30776122222;31276122222
5380;34616744000;30776122222;31276122222
5381;34616745000;30776122222;31276122222
5382;34627670000;30817455555;31317455555
5383;34627672000;30817455555;31317455555
5384;34627673000;30817455555;31317455555
5385;34627674000;30817455555;31317455555
5386;34627684000;30817455555;31317455555
5387;34627685000;30817455555;31317455555
5388;34662682000;30817455555;31317455555
5389;34713385000;30817477777;31317477777
5443;34713391000;31025788888;31525788888
5444;34915659000;31025811111;31525811111
5476;34915665000;31150788888;31650788888
5477;35006391000;31150800000;31650800000
5478;35006397000;31151111111;31651111111
5479;35006398000;31151111111;31651111111
5480;35006399000;31151111111;31651111111
5481;35028715000;31192466666;31692466666
5482;35028718000;31192466666;31692466666
5483;35028720000;31192466666;31692466666
5484;35028721000;31192466666;31692466666
5485;35028722000;31192466666;31692466666
5486;35028723000;31192466666;31692466666
5487;35028724000;31192466666;31692466666
5488;35028865000;31192488888;31692488888
5489;35028871000;31192755555;31692755555
5490;35028872000;31192755555;31692755555
5491;35028873000;31192755555;31692755555
5492;35048660000;31234122222;31734122222
5493;35048663000;31234122222;31734122222
5495;35048664000;31234122222;31734122222
5496;35048665000;31234122222;31734122222
5497;35048666000;31234122222;31734122222
5498;35048667000;31234122222;31734122222
5499;35048775000;31234144444;31734144444
