seqnum;now;rtptime;deadline
1;8180765000;8086811111;8586811111
3;8567623000;8118022222;8618022222
98;8604468000;8451355555;8951355555
109;8668947000;8493022222;8993022222
120;8669103000;8534677777;9034677777
121;8669114000;8534966666;9034966666
122;8669116000;8534966666;9034966666
123;8669118000;8534966666;9034966666
124;8669136000;8576288888;9076288888
125;8669148000;8576288888;9076288888
126;8669160000;8576288888;9076288888
127;8669162000;8576288888;9076288888
128;8669167000;8576288888;9076288888
129;8669168000;8576288888;9076288888
130;8669170000;8576288888;9076288888
131;8669270000;8576311111;9076311111
132;8669279000;8576611111;9076611111
133;8669281000;8576611111;9076611111
134;8669282000;8576611111;9076611111
135;8726063000;8617988888;9117988888
143;8726227000;8618266666;9118266666
144;8726232000;8618266666;9118266666
145;8726234000;8618266666;9118266666
146;8750598000;8659655555;9159655555
147;8750608000;8659655555;9159655555
148;8750611000;8659655555;9159655555
149;8750613000;8659655555;9159655555
150;8750615000;8659655555;9159655555
151;8750617000;8659655555;9159655555
152;8750619000;8659655555;9159655555
153;8750860000;8659677777;9159677777
154;8750878000;8659977777;9159977777
155;8750880000;8659977777;9159977777
156;8750882000;8659977777;9159977777
157;8797584000;8701288888;9201288888
158;8797590000;8701288888;9201288888
159;8797592000;8701288888;9201288888
160;8797594000;8701288888;9201288888
161;8797595000;8701288888;9201288888
162;8797597000;8701288888;9201288888
163;8797599000;8701288888;9201288888
164;8797847000;8701311111;9201311111
165;8797856000;8701622222;9201622222
166;8797858000;8701622222;9201622222
167;8797859000;8701622222;9201622222
168;8820185000;8743000000;9243000000
169;8820195000;8743000000;9243000000
170;8820197000;8743000000;9243000000
171;8820199000;8743000000;9243000000
172;8820201000;8743000000;9243000000
173;8820203000;8743000000;9243000000
174;8820205000;8743000000;9243000000
175;8820468000;8743011111;9243011111
176;8820487000;8743333333;9243333333
177;8820489000;8743333333;9243333333
178;8820491000;8743333333;9243333333
179;8860199000;8784644444;9284644444
180;8860211000;8784644444;9284644444
181;8860213000;8784644444;9284644444
182;8860216000;8784644444;9284644444
183;8860217000;8784644444;9284644444
184;8860219000;8784644444;9284644444
185;8860221000;8784644444;9284644444
186;8860448000;8784666666;9284666666
187;8860453000;8784966666;9284966666
188;8860455000;8784966666;9284966666
189;8860457000;8784966666;9284966666
190;8900428000;8826333333;9326333333
191;8900438000;8826333333;9326333333
192;8900440000;8826333333;9326333333
193;8900442000;8826333333;9326333333
194;8900444000;8826333333;9326333333
195;8900446000;8826333333;9326333333
196;8900448000;8826333333;9326333333
197;8900672000;8826355555;9326355555
198;8900689000;8826655555;9326655555
199;8900691000;8826655555;9326655555
200;8900692000;8826655555;9326655555
201;8941116000;8868000000;9368000000
202;8941127000;8868000000;9368000000
203;8941129000;8868000000;9368000000
204;8941132000;8868000000;9368000000
205;8941134000;8868000000;9368000000
206;8941135000;8868000000;9368000000
207;8941137000;8868000000;9368000000
208;8941365000;8868022222;9368022222
209;8941383000;8868288888;9368288888
210;8941385000;8868288888;9368288888
211;8941387000;8868288888;9368288888
212;8982003000;8909666666;9409666666
213;8982013000;8909666666;9409666666
214;8982015000;8909666666;9409666666
215;8982017000;8909666666;9409666666
216;8982019000;8909666666;9409666666
217;8982021000;8909666666;9409666666
218;8982022000;8909666666;9409666666
219;8982256000;8909688888;9409688888
220;8982273000;8910022222;9410022222
221;8982275000;8910022222;9410022222
222;8982277000;8910022222;9410022222
223;9036330000;8951333333;9451333333
224;9036341000;8951333333;9451333333
225;9036343000;8951333333;9451333333
226;9036345000;8951333333;9451333333
227;9036347000;8951333333;9451333333
228;9036349000;8951333333;9451333333
229;9036351000;8951333333;9451333333
230;9036608000;8951344444;9451344444
231;9036627000;8951655555;9451655555
232;9036629000;8951655555;9451655555
233;9036631000;8951655555;9451655555
234;9064415000;8992955555;9492955555
235;9064426000;8992955555;9492955555
236;9064427000;8992955555;9492955555
237;9064429000;8992955555;9492955555
238;9064431000;8992955555;9492955555
239;9064432000;8992955555;9492955555
240;9064434000;8992955555;9492955555
241;9064652000;8992977777;9492977777
242;9064669000;8993277777;9493277777
243;9064670000;8993277777;9493277777
244;9064672000;8993277777;9493277777
245;9105919000;9034655555;9534655555
246;9105923000;9034655555;9534655555
247;9105924000;9034655555;9534655555
248;9105926000;9034655555;9534655555
249;9105927000;9034655555;9534655555
250;9105928000;9034655555;9534655555
251;9105930000;9034655555;9534655555
252;9106154000;9034677777;9534677777
253;9106157000;9034977777;9534977777
254;9106159000;9034977777;9534977777
255;9106160000;9034977777;9534977777
256;9147426000;9076288888;9576288888
257;9147438000;9076288888;9576288888
258;9147440000;9076288888;9576288888
259;9147441000;9076288888;9576288888
260;9147442000;9076288888;9576288888
261;9147443000;9076288888;9576288888
262;9147444000;9076288888;9576288888
263;9147651000;9076311111;9576311111
264;9147655000;9076600000;9576600000
265;9147656000;9076600000;9576600000
266;9147657000;9076600000;9576600000
267;9189100000;9117966666;9617966666
268;9189108000;9117966666;9617966666
269;9189110000;9117966666;9617966666
270;9189112000;9117966666;9617966666
271;9189114000;9117966666;9617966666
272;9189116000;9117966666;9617966666
273;9189117000;9117966666;9617966666
274;9189271000;9117988888;9617988888
275;9189274000;9118266666;9618266666
276;9189276000;9118266666;9618266666
277;9189277000;9118266666;9618266666
278;9230659000;9159622222;9659622222
279;9230662000;9159622222;9659622222
280;9230664000;9159622222;9659622222
281;9230665000;9159622222;9659622222
282;9230676000;9159622222;9659622222
283;9230677000;9159622222;9659622222
284;9230679000;9159622222;9659622222
285;9230814000;9159644444;9659644444
286;9230816000;9159955555;9659955555
287;9230817000;9159955555;9659955555
288;9230819000;9159955555;9659955555
289;9272365000;9201288888;9701288888
290;9272369000;9201288888;9701288888
291;9272370000;9201288888;9701288888
292;9272371000;9201288888;9701288888
293;9272372000;9201288888;9701288888
294;9272374000;9201288888;9701288888
295;9272375000;9201288888;9701288888
296;9272577000;9201311111;9701311111
297;9272593000;9201600000;9701600000
298;9272594000;9201600000;9701600000
299;9272595000;9201600000;9701600000
300;9313972000;9242955555;9742955555
301;9313975000;9242955555;9742955555
302;9313976000;9242955555;9742955555
303;9313986000;9242955555;9742955555
304;9313987000;9242955555;9742955555
305;9313988000;9242955555;9742955555
306;9313990000;9242955555;9742955555
307;9314134000;9242977777;9742977777
308;9314137000;9243288888;9743288888
309;9314139000;9243288888;9743288888
310;9314140000;9243288888;9743288888
311;9355631000;9284622222;9784622222
312;9355634000;9284622222;9784622222
313;9355635000;9284622222;9784622222
314;9355636000;9284622222;9784622222
315;9355638000;9284622222;9784622222
316;9355639000;9284622222;9784622222
317;9355649000;9284622222;9784622222
318;9355782000;9284644444;9784644444
319;9355785000;9284966666;9784966666
320;9355786000;9284966666;9784966666
321;9355787000;9284966666;9784966666
322;9397274000;9326288888;9826288888
323;9397277000;9326288888;9826288888
324;9397278000;9326288888;9826288888
325;9397279000;9326288888;9826288888
326;9397289000;9326288888;9826288888
327;9397291000;9326288888;9826288888
328;9397292000;9326288888;9826288888
329;9397426000;9326311111;9826311111
330;9397429000;9326633333;9826633333
331;9397430000;9326633333;9826633333
332;9397431000;9326633333;9826633333
333;9438965000;9367955555;9867955555
334;9438968000;9367955555;9867955555
335;9438969000;9367955555;9867955555
336;9438970000;9367955555;9867955555
337;9438971000;9367955555;9867955555
338;9438972000;9367955555;9867955555
339;9438983000;9367955555;9867955555
340;9439125000;9367977777;9867977777
341;9439128000;9368266666;9868266666
342;9439130000;9368266666;9868266666
343;9439131000;9368266666;9868266666
344;9480694000;9409622222;9909622222
345;9480698000;9409622222;9909622222
346;9480699000;9409622222;9909622222
347;9480700000;9409622222;9909622222
348;9480701000;9409622222;9909622222
349;9480702000;9409622222;9909622222
350;9480704000;9409622222;9909622222
351;9480903000;9409644444;9909644444
352;9480910000;9409955555;9909955555
353;9480911000;9409955555;9909955555
354;9480913000;9409955555;9909955555
355;9522385000;9451333333;9951333333
356;9522397000;9451333333;9951333333
357;9522399000;9451333333;9951333333
358;9522400000;9451333333;9951333333
359;9522401000;9451333333;9951333333
360;9522402000;9451333333;9951333333
361;9522403000;9451333333;9951333333
362;9522615000;9451355555;9951355555
363;9522619000;9451633333;9951633333
364;9522620000;9451633333;9951633333
365;9522621000;9451633333;9951633333
366;9564004000;9493022222;9993022222
367;9564007000;9493022222;9993022222
368;9564008000;9493022222;9993022222
369;9564019000;9493022222;9993022222
370;9564020000;9493022222;9993022222
371;9564021000;9493022222;9993022222
372;9564022000;9493022222;9993022222
373;9564157000;9493066666;9993066666
374;9564160000;9493366666;9993366666
375;9564161000;9493366666;9993366666
376;9564162000;9493366666;9993366666
377;9605731000;9534666666;10034666666
378;9605735000;9534666666;10034666666
379;9605736000;9534666666;10034666666
380;9605737000;9534666666;10034666666
381;9605738000;9534666666;10034666666
382;9605739000;9534666666;10034666666
383;9605740000;9534666666;10034666666
384;9605943000;9534688888;10034688888
385;9605959000;9534988888;10034988888
386;9605961000;9534988888;10034988888
387;9605962000;9534988888;10034988888
388;9647389000;9576322222;10076322222
389;9647393000;9576322222;10076322222
390;9647394000;9576322222;10076322222
391;9647395000;9576322222;10076322222
392;9647396000;9576322222;10076322222
393;9647397000;9576322222;10076322222
394;9647398000;9576322222;10076322222
395;9647600000;9576344444;10076344444
396;9647617000;9576633333;10076633333
397;9647618000;9576633333;10076633333
398;9647619000;9576633333;10076633333
399;9689002000;9617988888;10117988888
400;9689005000;9617988888;10117988888
401;9689006000;9617988888;10117988888
402;9689007000;9617988888;10117988888
403;9689009000;9617988888;10117988888
404;9689010000;9617988888;10117988888
405;9689011000;9617988888;10117988888
406;9689130000;9618011111;10118011111
407;9689133000;9618255555;10118255555
408;9689134000;9618255555;10118255555
409;9689136000;9618255555;10118255555
410;9730696000;9659644444;10159644444
411;9730708000;9659644444;10159644444
412;9730710000;9659644444;10159644444
413;9730711000;9659644444;10159644444
414;9730712000;9659644444;10159644444
415;9730713000;9659644444;10159644444
416;9730714000;9659644444;10159644444
417;9730929000;9659666666;10159666666
418;9730932000;9660088888;10160088888
419;9730934000;9660088888;10160088888
420;9730935000;9660088888;10160088888
421;9772364000;9701311111;10201311111
422;9772376000;9701311111;10201311111
423;9772377000;9701311111;10201311111
424;9772378000;9701311111;10201311111
425;9772379000;9701311111;10201311111
426;9772380000;9701311111;10201311111
427;9772381000;9701311111;10201311111
428;9772592000;9701333333;10201333333
429;9772595000;9701644444;10201644444
430;9772597000;9701644444;10201644444
431;9772598000;9701644444;10201644444
432;9813964000;9742955555;10242955555
433;9813967000;9742955555;10242955555
434;9813968000;9742955555;10242955555
435;9813969000;9742955555;10242955555
436;9813971000;9742955555;10242955555
437;9813972000;9742955555;10242955555
438;9813973000;9742955555;10242955555
439;9814124000;9742977777;10242977777
440;9814127000;9743288888;10243288888
441;9814128000;9743288888;10243288888
442;9814129000;9743288888;10243288888
443;9855674000;9784666666;10284666666
444;9855677000;9784666666;10284666666
445;9855678000;9784666666;10284666666
446;9855679000;9784666666;10284666666
447;9855680000;9784666666;10284666666
448;9855681000;9784666666;10284666666
449;9855691000;9784666666;10284666666
450;9855826000;9784688888;10284688888
451;9855829000;9784966666;10284966666
452;9855830000;9784966666;10284966666
453;9855838000;9784966666;10284966666
454;9897353000;9826344444;10326344444
455;9897356000;9826344444;10326344444
456;9897357000;9826344444;10326344444
457;9897358000;9826344444;10326344444
458;9897359000;9826344444;10326344444
459;9897360000;9826344444;10326344444
460;9897371000;9826344444;10326344444
461;9897505000;9826366666;10326366666
462;9897508000;9826688888;10326688888
463;9897509000;9826688888;10326688888
464;9897510000;9826688888;10326688888
465;9938969000;9867988888;10367988888
466;9938971000;9867988888;10367988888
467;9938972000;9867988888;10367988888
468;9938983000;9867988888;10367988888
469;9938984000;9867988888;10367988888
470;9938985000;9867988888;10367988888
471;9938986000;9867988888;10367988888
472;9939128000;9868011111;10368011111
473;9939131000;9868288888;10368288888
474;9939132000;9868288888;10368288888
475;9939133000;9868288888;10368288888
476;9980636000;9909655555;10409655555
477;9980639000;9909655555;10409655555
478;9980640000;9909655555;10409655555
479;9980641000;9909655555;10409655555
480;9980652000;9909655555;10409655555
481;9980653000;9909655555;10409655555
482;9980654000;9909655555;10409655555
483;9980789000;9909677777;10409677777
484;9980791000;9909977777;10409977777
485;9980792000;9909977777;10409977777
486;9980794000;9909977777;10409977777
487;10022330000;9951322222;10451322222
488;10022333000;9951322222;10451322222
489;10022334000;9951322222;10451322222
490;10022335000;9951322222;10451322222
491;10022336000;9951322222;10451322222
492;10022337000;9951322222;10451322222
493;10022347000;9951322222;10451322222
494;10022481000;9951344444;10451344444
495;10022484000;9951633333;10451633333
496;10022485000;9951633333;10451633333
497;10022486000;9951633333;10451633333
498;10063996000;9992988888;10492988888
499;10063999000;9992988888;10492988888
500;10064000000;9992988888;10492988888
501;10064001000;9992988888;10492988888
502;10064002000;9992988888;10492988888
503;10064003000;9992988888;10492988888
504;10064004000;9992988888;10492988888
505;10064148000;9993000000;10493000000
506;10064150000;9993288888;10493288888
507;10064151000;9993288888;10493288888
508;10064153000;9993288888;10493288888
509;10105674000;10034622222;10534622222
510;10105686000;10034622222;10534622222
511;10105687000;10034622222;10534622222
512;10105688000;10034622222;10534622222
513;10105690000;10034622222;10534622222
514;10105691000;10034622222;10534622222
515;10105692000;10034622222;10534622222
516;10105905000;10034644444;10534644444
517;10105908000;10034944444;10534944444
518;10105909000;10034944444;10534944444
519;10105910000;10034944444;10534944444
520;10147341000;10076322222;10576322222
521;10147344000;10076322222;10576322222
522;10147346000;10076322222;10576322222
523;10147347000;10076322222;10576322222
524;10147348000;10076322222;10576322222
525;10147349000;10076322222;10576322222
526;10147350000;10076322222;10576322222
527;10147564000;10076333333;10576333333
528;10147567000;10076633333;10576633333
529;10147568000;10076633333;10576633333
530;10147569000;10076633333;10576633333
531;10188957000;10117977777;10617977777
532;10188960000;10117977777;10617977777
533;10188961000;10117977777;10617977777
534;10188972000;10117977777;10617977777
535;10188973000;10117977777;10617977777
536;10188974000;10117977777;10617977777
537;10188975000;10117977777;10617977777
538;10189110000;10118000000;10618000000
539;10189113000;10118266666;10618266666
540;10189114000;10118266666;10618266666
541;10189115000;10118266666;10618266666
542;10230605000;10159622222;10659622222
543;10230608000;10159622222;10659622222
544;10230609000;10159622222;10659622222
545;10230610000;10159622222;10659622222
546;10230621000;10159622222;10659622222
547;10230622000;10159622222;10659622222
548;10230623000;10159622222;10659622222
549;10230757000;10159644444;10659644444
550;10230759000;10159955555;10659955555
551;10230760000;10159955555;10659955555
552;10230762000;10159955555;10659955555
553;10272395000;10201333333;10701333333
554;10272398000;10201333333;10701333333
555;10272399000;10201333333;10701333333
556;10272400000;10201333333;10701333333
557;10272401000;10201333333;10701333333
558;10272411000;10201333333;10701333333
559;10272412000;10201333333;10701333333
560;10272627000;10201355555;10701355555
561;10272630000;10201633333;10701633333
562;10272631000;10201633333;10701633333
563;10272632000;10201633333;10701633333
564;10314009000;10243000000;10743000000
565;10314012000;10243000000;10743000000
566;10314013000;10243000000;10743000000
567;10314015000;10243000000;10743000000
568;10314025000;10243000000;10743000000
569;10314026000;10243000000;10743000000
570;10314027000;10243000000;10743000000
571;10314164000;10243022222;10743022222
572;10314167000;10243311111;10743311111
573;10314169000;10243311111;10743311111
574;10314170000;10243311111;10743311111
575;10355685000;10284666666;10784666666
576;10355688000;10284666666;10784666666
577;10355689000;10284666666;10784666666
578;10355690000;10284666666;10784666666
579;10355691000;10284666666;10784666666
580;10355692000;10284666666;10784666666
581;10355703000;10284666666;10784666666
582;10355847000;10284688888;10784688888
583;10355850000;10284988888;10784988888
584;10355851000;10284988888;10784988888
585;10355852000;10284988888;10784988888
586;10397386000;10326333333;10826333333
587;10397392000;10326333333;10826333333
588;10397394000;10326333333;10826333333
589;10397395000;10326333333;10826333333
590;10397397000;10326333333;10826333333
591;10397399000;10326333333;10826333333
592;10397400000;10326333333;10826333333
593;10397567000;10326355555;10826355555
594;10397570000;10326666666;10826666666
595;10397572000;10326666666;10826666666
596;10397573000;10326666666;10826666666
597;10439129000;10367988888;10867988888
598;10439136000;10367988888;10867988888
599;10439138000;10367988888;10867988888
600;10439140000;10367988888;10867988888
601;10439142000;10367988888;10867988888
602;10439144000;10367988888;10867988888
603;10439146000;10367988888;10867988888
604;10439356000;10368011111;10868011111
605;10439360000;10368288888;10868288888
606;10439362000;10368288888;10868288888
607;10439363000;10368288888;10868288888
608;10489003000;10409655555;10909655555
609;10489011000;10409655555;10909655555
610;10489013000;10409655555;10909655555
611;10489014000;10409655555;10909655555
612;10489017000;10409655555;10909655555
613;10489019000;10409655555;10909655555
614;10489020000;10409655555;10909655555
615;10489246000;10409677777;10909677777
616;10489261000;10409977777;10909977777
617;10489263000;10409977777;10909977777
618;10489265000;10409977777;10909977777
619;10522384000;10451322222;10951322222
620;10522390000;10451322222;10951322222
621;10522393000;10451322222;10951322222
622;10522395000;10451322222;10951322222
623;10522397000;10451322222;10951322222
624;10522399000;10451322222;10951322222
625;10522400000;10451322222;10951322222
626;10522634000;10451344444;10951344444
627;10522652000;10451633333;10951633333
628;10522654000;10451633333;10951633333
629;10522655000;10451633333;10951633333
630;10568598000;10492988888;10992988888
631;10568606000;10492988888;10992988888
632;10568608000;10492988888;10992988888
633;10568610000;10492988888;10992988888
634;10568612000;10492988888;10992988888
635;10568614000;10492988888;10992988888
636;10568615000;10492988888;10992988888
637;10568857000;10493000000;10993000000
638;10568875000;10493277777;10993277777
639;10568877000;10493277777;10993277777
640;10568879000;10493277777;10993277777
641;10605674000;10534622222;11034622222
642;10605679000;10534622222;11034622222
643;10605680000;10534622222;11034622222
644;10605682000;10534622222;11034622222
645;10605683000;10534622222;11034622222
646;10605685000;10534622222;11034622222
647;10605687000;10534622222;11034622222
648;10605894000;10534644444;11034644444
649;10605910000;10534933333;11034933333
650;10605911000;10534933333;11034933333
651;10605912000;10534933333;11034933333
652;10647369000;10576288888;11076288888
653;10647373000;10576288888;11076288888
654;10647374000;10576288888;11076288888
655;10647375000;10576288888;11076288888
656;10647376000;10576288888;11076288888
657;10647377000;10576288888;11076288888
658;10647379000;10576288888;11076288888
659;10647518000;10576311111;11076311111
660;10647548000;10576600000;11076600000
661;10647549000;10576600000;11076600000
662;10647550000;10576600000;11076600000
663;10688967000;10617955555;11117955555
664;10688970000;10617955555;11117955555
665;10688971000;10617955555;11117955555
666;10688973000;10617955555;11117955555
667;10688974000;10617955555;11117955555
668;10688975000;10617955555;11117955555
669;10688976000;10617955555;11117955555
670;10689041000;10617977777;11117977777
671;10689057000;10618233333;11118233333
672;10689058000;10618233333;11118233333
673;10689060000;10618233333;11118233333
674;10730700000;10659622222;11159622222
675;10730703000;10659622222;11159622222
676;10730704000;10659622222;11159622222
677;10730705000;10659622222;11159622222
678;10730707000;10659622222;11159622222
679;10730708000;10659622222;11159622222
680;10730709000;10659622222;11159622222
681;10730924000;10659644444;11159644444
682;10730928000;10659955555;11159955555
683;10730929000;10659955555;11159955555
684;10730930000;10659955555;11159955555
685;10772395000;10701333333;11201333333
686;10772408000;10701333333;11201333333
687;10772409000;10701333333;11201333333
688;10772410000;10701333333;11201333333
689;10772411000;10701333333;11201333333
690;10772412000;10701333333;11201333333
691;10772413000;10701333333;11201333333
692;10772622000;10701355555;11201355555
693;10772626000;10701666666;11201666666
694;10772627000;10701666666;11201666666
695;10772628000;10701666666;11201666666
696;10814062000;10743000000;11243000000
697;10814065000;10743000000;11243000000
698;10814066000;10743000000;11243000000
699;10814067000;10743000000;11243000000
700;10814068000;10743000000;11243000000
701;10814078000;10743000000;11243000000
702;10814080000;10743000000;11243000000
703;10814292000;10743022222;11243022222
704;10814295000;10743355555;11243355555
705;10814296000;10743355555;11243355555
706;10814297000;10743355555;11243355555
707;10855715000;10784655555;11284655555
708;10855728000;10784655555;11284655555
709;10855729000;10784655555;11284655555
710;10855730000;10784655555;11284655555
711;10855731000;10784655555;11284655555
712;10855732000;10784655555;11284655555
713;10855733000;10784655555;11284655555
714;10855948000;10784677777;11284677777
715;10855951000;10784955555;11284955555
716;10855952000;10784955555;11284955555
717;10855953000;10784955555;11284955555
718;10897330000;10826322222;11326322222
719;10897333000;10826322222;11326322222
720;10897334000;10826322222;11326322222
721;10897336000;10826322222;11326322222
722;10897337000;10826322222;11326322222
723;10897338000;10826322222;11326322222
724;10897348000;10826322222;11326322222
725;10897483000;10826344444;11326344444
726;10897485000;10826622222;11326622222
727;10897486000;10826622222;11326622222
728;10897487000;10826622222;11326622222
729;10938971000;10867988888;11367988888
730;10938973000;10867988888;11367988888
731;10938974000;10867988888;11367988888
732;10938985000;10867988888;11367988888
733;10938986000;10867988888;11367988888
734;10938987000;10867988888;11367988888
735;10938988000;10867988888;11367988888
736;10939091000;10868000000;11368000000
737;10939093000;10868266666;11368266666
738;10939095000;10868266666;11368266666
739;10939096000;10868266666;11368266666
740;10980602000;10909622222;11409622222
741;10980605000;10909622222;11409622222
742;10980606000;10909622222;11409622222
743;10980617000;10909622222;11409622222
744;10980618000;10909622222;11409622222
745;10980619000;10909622222;11409622222
746;10980620000;10909622222;11409622222
747;10980755000;10909644444;11409644444
748;10980758000;10909955555;11409955555
749;10980759000;10909955555;11409955555
750;10980760000;10909955555;11409955555
751;11022299000;10951288888;11451288888
752;11022302000;10951288888;11451288888
753;11022303000;10951288888;11451288888
754;11022304000;10951288888;11451288888
755;11022305000;10951288888;11451288888
756;11022306000;10951288888;11451288888
757;11022317000;10951288888;11451288888
758;11022451000;10951311111;11451311111
759;11022454000;10951611111;11451611111
760;11022455000;10951611111;11451611111
761;11022456000;10951611111;11451611111
762;11063964000;10992955555;11492955555
763;11063967000;10992955555;11492955555
764;11063968000;10992955555;11492955555
765;11063969000;10992955555;11492955555
766;11063970000;10992955555;11492955555
767;11063971000;10992955555;11492955555
768;11063982000;10992955555;11492955555
769;11064122000;10992977777;11492977777
770;11064125000;10993266666;11493266666
771;11064126000;10993266666;11493266666
772;11064127000;10993266666;11493266666
773;11105703000;11034655555;11534655555
774;11105715000;11034655555;11534655555
775;11105716000;11034655555;11534655555
776;11105717000;11034655555;11534655555
777;11105718000;11034655555;11534655555
778;11105719000;11034655555;11534655555
779;11105720000;11034655555;11534655555
780;11105926000;11034677777;11534677777
781;11105930000;11034977777;11534977777
782;11105931000;11034977777;11534977777
783;11105932000;11034977777;11534977777
784;11147349000;11076288888;11576288888
785;11147361000;11076288888;11576288888
786;11147363000;11076288888;11576288888
787;11147364000;11076288888;11576288888
788;11147365000;11076288888;11576288888
789;11147366000;11076288888;11576288888
790;11147367000;11076288888;11576288888
791;11147579000;11076311111;11576311111
792;11147582000;11076611111;11576611111
793;11147583000;11076611111;11576611111
794;11147584000;11076611111;11576611111
795;11188971000;11117977777;11617977777
796;11188974000;11117977777;11617977777
797;11188975000;11117977777;11617977777
798;11188977000;11117977777;11617977777
799;11188978000;11117977777;11617977777
800;11188979000;11117977777;11617977777
801;11188989000;11117977777;11617977777
802;11189093000;11118000000;11618000000
803;11189096000;11118277777;11618277777
804;11189098000;11118277777;11618277777
805;11189099000;11118277777;11618277777
806;11230725000;11159622222;11659622222
807;11230729000;11159622222;11659622222
808;11230730000;11159622222;11659622222
809;11230731000;11159622222;11659622222
810;11230732000;11159622222;11659622222
811;11230733000;11159622222;11659622222
812;11230734000;11159622222;11659622222
813;11230908000;11159644444;11659644444
814;11230911000;11159966666;11659966666
815;11230912000;11159966666;11659966666
816;11230914000;11159966666;11659966666
817;11272320000;11201322222;11701322222
818;11272323000;11201322222;11701322222
819;11272324000;11201322222;11701322222
820;11272325000;11201322222;11701322222
821;11272336000;11201322222;11701322222
822;11272337000;11201322222;11701322222
823;11272338000;11201322222;11701322222
824;11272475000;11201333333;11701333333
825;11272479000;11201633333;11701633333
826;11272480000;11201633333;11701633333
827;11272481000;11201633333;11701633333
828;11314037000;11242988888;11742988888
829;11314058000;11242988888;11742988888
830;11314059000;11242988888;11742988888
831;11314060000;11242988888;11742988888
832;11314061000;11242988888;11742988888
833;11314062000;11242988888;11742988888
834;11314064000;11242988888;11742988888
835;11314279000;11243000000;11743000000
836;11314282000;11243300000;11743300000
837;11314283000;11243300000;11743300000
838;11314284000;11243300000;11743300000
839;11355632000;11284622222;11784622222
840;11355635000;11284622222;11784622222
841;11355636000;11284622222;11784622222
842;11355637000;11284622222;11784622222
843;11355638000;11284622222;11784622222
844;11355639000;11284622222;11784622222
845;11355650000;11284622222;11784622222
846;11355785000;11284644444;11784644444
847;11355787000;11284955555;11784955555
848;11355788000;11284955555;11784955555
849;11355790000;11284955555;11784955555
850;11397296000;11326311111;11826311111
851;11397298000;11326311111;11826311111
852;11397300000;11326311111;11826311111
853;11397301000;11326311111;11826311111
854;11397311000;11326311111;11826311111
855;11397312000;11326311111;11826311111
856;11397314000;11326311111;11826311111
857;11397448000;11326333333;11826333333
858;11397451000;11326633333;11826633333
859;11397452000;11326633333;11826633333
860;11397453000;11326633333;11826633333
861;11438964000;11367955555;11867955555
862;11438967000;11367955555;11867955555
863;11438968000;11367955555;11867955555
864;11438969000;11367955555;11867955555
865;11438986000;11367955555;11867955555
866;11438987000;11367955555;11867955555
867;11438988000;11367955555;11867955555
868;11439111000;11367977777;11867977777
869;11439113000;11368277777;11868277777
870;11439115000;11368277777;11868277777
871;11439116000;11368277777;11868277777
872;11480667000;11409666666;11909666666
873;11480670000;11409666666;11909666666
874;11480672000;11409666666;11909666666
875;11480673000;11409666666;11909666666
876;11480674000;11409666666;11909666666
877;11480685000;11409666666;11909666666
878;11480686000;11409666666;11909666666
879;11480828000;11409688888;11909688888
880;11480831000;11410000000;11910000000
881;11480832000;11410000000;11910000000
882;11480834000;11410000000;11910000000
883;11522362000;11451333333;11951333333
884;11522375000;11451333333;11951333333
885;11522377000;11451333333;11951333333
886;11522378000;11451333333;11951333333
887;11522379000;11451333333;11951333333
888;11522381000;11451333333;11951333333
889;11522382000;11451333333;11951333333
890;11522524000;11451344444;11951344444
891;11522526000;11451655555;11951655555
892;11522528000;11451655555;11951655555
893;11522529000;11451655555;11951655555
894;11564009000;11493000000;11993000000
895;11564011000;11493000000;11993000000
896;11564013000;11493000000;11993000000
897;11564014000;11493000000;11993000000
898;11564015000;11493000000;11993000000
899;11564016000;11493000000;11993000000
900;11564026000;11493000000;11993000000
901;11564163000;11493011111;11993011111
902;11564166000;11493311111;11993311111
903;11564167000;11493311111;11993311111
904;11564168000;11493311111;11993311111
905;11605664000;11534655555;12034655555
906;11605667000;11534655555;12034655555
907;11605668000;11534655555;12034655555
908;11605669000;11534655555;12034655555
909;11605670000;11534655555;12034655555
910;11605671000;11534655555;12034655555
911;11605673000;11534655555;12034655555
912;11605817000;11534677777;12034677777
913;11605820000;11534988888;12034988888
914;11605821000;11534988888;12034988888
915;11605822000;11534988888;12034988888
916;11647306000;11576322222;12076322222
917;11647309000;11576322222;12076322222
918;11647310000;11576322222;12076322222
919;11647320000;11576322222;12076322222
920;11647321000;11576322222;12076322222
921;11647323000;11576322222;12076322222
922;11647324000;11576322222;12076322222
923;11647459000;11576344444;12076344444
924;11647461000;11576644444;12076644444
925;11647463000;11576644444;12076644444
926;11647464000;11576644444;12076644444
927;11688940000;11617955555;12117955555
928;11688943000;11617955555;12117955555
929;11688944000;11617955555;12117955555
930;11688945000;11617955555;12117955555
931;11688946000;11617955555;12117955555
932;11688947000;11617955555;12117955555
933;11688948000;11617955555;12117955555
934;11689010000;11617977777;12117977777
935;11689012000;11618244444;12118244444
936;11689014000;11618244444;12118244444
937;11689015000;11618244444;12118244444
938;11730652000;11659655555;12159655555
939;11730655000;11659655555;12159655555
940;11730656000;11659655555;12159655555
941;11730658000;11659655555;12159655555
942;11730668000;11659655555;12159655555
943;11730669000;11659655555;12159655555
944;11730670000;11659655555;12159655555
945;11730808000;11659666666;12159666666
946;11730811000;11659988888;12159988888
947;11730813000;11659988888;12159988888
948;11730814000;11659988888;12159988888
949;11772324000;11701288888;12201288888
950;11772336000;11701288888;12201288888
951;11772337000;11701288888;12201288888
952;11772338000;11701288888;12201288888
953;11772339000;11701288888;12201288888
954;11772340000;11701288888;12201288888
955;11772341000;11701288888;12201288888
956;11772554000;11701311111;12201311111
957;11772557000;11701633333;12201633333
958;11772559000;11701633333;12201633333
959;11772560000;11701633333;12201633333
960;11814009000;11743000000;12243000000
961;11814012000;11743000000;12243000000
962;11814013000;11743000000;12243000000
963;11814014000;11743000000;12243000000
964;11814015000;11743000000;12243000000
965;11814016000;11743000000;12243000000
966;11814026000;11743000000;12243000000
967;11814177000;11743022222;12243022222
968;11814180000;11743344444;12243344444
969;11814181000;11743344444;12243344444
970;11814183000;11743344444;12243344444
971;11855675000;11784666666;12284666666
972;11855678000;11784666666;12284666666
973;11855679000;11784666666;12284666666
974;11855680000;11784666666;12284666666
975;11855682000;11784666666;12284666666
976;11855683000;11784666666;12284666666
977;11855693000;11784666666;12284666666
978;11855828000;11784688888;12284688888
979;11855830000;11784988888;12284988888
980;11855831000;11784988888;12284988888
981;11855832000;11784988888;12284988888
982;11897342000;11826333333;12326333333
983;11897345000;11826333333;12326333333
984;11897346000;11826333333;12326333333
985;11897347000;11826333333;12326333333
986;11897348000;11826333333;12326333333
987;11897349000;11826333333;12326333333
988;11897351000;11826333333;12326333333
989;11897494000;11826344444;12326344444
990;11897497000;11826655555;12326655555
991;11897498000;11826655555;12326655555
992;11897499000;11826655555;12326655555
993;11938981000;11868000000;12368000000
994;11938983000;11868000000;12368000000
995;11938985000;11868000000;12368000000
996;11938986000;11868000000;12368000000
997;11938996000;11868000000;12368000000
998;11938997000;11868000000;12368000000
999;11938998000;11868000000;12368000000
1000;11939144000;11868022222;12368022222
1001;11939146000;11868311111;12368311111
1002;11939148000;11868311111;12368311111
1003;11939149000;11868311111;12368311111
1004;11980647000;11909666666;12409666666
1005;11980650000;11909666666;12409666666
1006;11980651000;11909666666;12409666666
1007;11980662000;11909666666;12409666666
1008;11980663000;11909666666;12409666666
1009;11980664000;11909666666;12409666666
1010;11980666000;11909666666;12409666666
1011;11980800000;11909688888;12409688888
1012;11980802000;11910011111;12410011111
1013;11980803000;11910011111;12410011111
1014;11980805000;11910011111;12410011111
1015;12022333000;11951322222;12451322222
1016;12022336000;11951322222;12451322222
1017;12022337000;11951322222;12451322222
1018;12022338000;11951322222;12451322222
1019;12022340000;11951322222;12451322222
1020;12022341000;11951322222;12451322222
1021;12022351000;11951322222;12451322222
1022;12022488000;11951344444;12451344444
1023;12022491000;11951655555;12451655555
1024;12022492000;11951655555;12451655555
1025;12022493000;11951655555;12451655555
1026;12064066000;11992988888;12492988888
1027;12064070000;11992988888;12492988888
1028;12064071000;11992988888;12492988888
1029;12064072000;11992988888;12492988888
1030;12064073000;11992988888;12492988888
1031;12064074000;11992988888;12492988888
1032;12064075000;11992988888;12492988888
1033;12064277000;11993011111;12493011111
1034;12064293000;11993311111;12493311111
1035;12064295000;11993311111;12493311111
1036;12064296000;11993311111;12493311111
1037;12105723000;12034655555;12534655555
1038;12105727000;12034655555;12534655555
1039;12105728000;12034655555;12534655555
1040;12105730000;12034655555;12534655555
1041;12105731000;12034655555;12534655555
1042;12105732000;12034655555;12534655555
1043;12105733000;12034655555;12534655555
1044;12105935000;12034677777;12534677777
1045;12105951000;12034988888;12534988888
1046;12105953000;12034988888;12534988888
1047;12105954000;12034988888;12534988888
1048;12147334000;12076322222;12576322222
1049;12147337000;12076322222;12576322222
1050;12147339000;12076322222;12576322222
1051;12147340000;12076322222;12576322222
1052;12147350000;12076322222;12576322222
1053;12147351000;12076322222;12576322222
1054;12147353000;12076322222;12576322222
1055;12147488000;12076333333;12576333333
1056;12147491000;12076622222;12576622222
1057;12147492000;12076622222;12576622222
1058;12147493000;12076622222;12576622222
1059;12188965000;12117955555;12617955555
1060;12188968000;12117955555;12617955555
1061;12188969000;12117955555;12617955555
1062;12188971000;12117955555;12617955555
1063;12188972000;12117955555;12617955555
1064;12188973000;12117955555;12617955555
1065;12188983000;12117955555;12617955555
1066;12189126000;12117977777;12617977777
1067;12189129000;12118244444;12618244444
1068;12189139000;12118244444;12618244444
1069;12189140000;12118244444;12618244444
1070;12230609000;12159622222;12659622222
1071;12230612000;12159622222;12659622222
1072;12230613000;12159622222;12659622222
1073;12230614000;12159622222;12659622222
1074;12230624000;12159622222;12659622222
1075;12230626000;12159622222;12659622222
1076;12230627000;12159622222;12659622222
1077;12230762000;12159644444;12659644444
1078;12230764000;12159955555;12659955555
1079;12230766000;12159955555;12659955555
1080;12230767000;12159955555;12659955555
1081;12272384000;12201333333;12701333333
1082;12272396000;12201333333;12701333333
1083;12272397000;12201333333;12701333333
1084;12272399000;12201333333;12701333333
1085;12272400000;12201333333;12701333333
1086;12272401000;12201333333;12701333333
1087;12272402000;12201333333;12701333333
1088;12272617000;12201344444;12701344444
1089;12272620000;12201633333;12701633333
1090;12272621000;12201633333;12701633333
1091;12272622000;12201633333;12701633333
1092;12314068000;12243000000;12743000000
1093;12314071000;12243000000;12743000000
1094;12314072000;12243000000;12743000000
1095;12314073000;12243000000;12743000000
1096;12314075000;12243000000;12743000000
1097;12314076000;12243000000;12743000000
1098;12314077000;12243000000;12743000000
1099;12314291000;12243011111;12743011111
1100;12314295000;12243311111;12743311111
1101;12314296000;12243311111;12743311111
1102;12314297000;12243311111;12743311111
1103;12355674000;12284666666;12784666666
1104;12355677000;12284666666;12784666666
1105;12355678000;12284666666;12784666666
1106;12355680000;12284666666;12784666666
1107;12355681000;12284666666;12784666666
1108;12355682000;12284666666;12784666666
1109;12355692000;12284666666;12784666666
1110;12355827000;12284688888;12784688888
1111;12355830000;12284977777;12784977777
1112;12355831000;12284977777;12784977777
1113;12355832000;12284977777;12784977777
1114;12397331000;12326322222;12826322222
1115;12397333000;12326322222;12826322222
1116;12397335000;12326322222;12826322222
1117;12397336000;12326322222;12826322222
1118;12397337000;12326322222;12826322222
1119;12397338000;12326322222;12826322222
1120;12397349000;12326322222;12826322222
1121;12397483000;12326333333;12826333333
1122;12397486000;12326633333;12826633333
1123;12397487000;12326633333;12826633333
1124;12397488000;12326633333;12826633333
1125;12438994000;12367988888;12867988888
1126;12438997000;12367988888;12867988888
1127;12439008000;12367988888;12867988888
1128;12439010000;12367988888;12867988888
1129;12439011000;12367988888;12867988888
1130;12439012000;12367988888;12867988888
1131;12439013000;12367988888;12867988888
1132;12439152000;12368000000;12868000000
1133;12439155000;12368277777;12868277777
1134;12439156000;12368277777;12868277777
1135;12439157000;12368277777;12868277777
1136;12480665000;12409655555;12909655555
1137;12480668000;12409655555;12909655555
1138;12480669000;12409655555;12909655555
1139;12480670000;12409655555;12909655555
1140;12480671000;12409655555;12909655555
1141;12480672000;12409655555;12909655555
1142;12480683000;12409655555;12909655555
1143;12480818000;12409666666;12909666666
1144;12480821000;12409966666;12909966666
1145;12480822000;12409966666;12909966666
1146;12480823000;12409966666;12909966666
1147;12522374000;12451288888;12951288888
1148;12522380000;12451288888;12951288888
1149;12522382000;12451288888;12951288888
1150;12522384000;12451288888;12951288888
1151;12522387000;12451288888;12951288888
1152;12522389000;12451288888;12951288888
1153;12522391000;12451288888;12951288888
1154;12522519000;12451311111;12951311111
1155;12522526000;12451588888;12951588888
1156;12522529000;12451588888;12951588888
1157;12522531000;12451588888;12951588888
1158;12564167000;12492988888;12992988888
1159;12564176000;12492988888;12992988888
1160;12564178000;12492988888;12992988888
1161;12564180000;12492988888;12992988888
1162;12564182000;12492988888;12992988888
1163;12564184000;12492988888;12992988888
1164;12564186000;12492988888;12992988888
1165;12564422000;12493000000;12993000000
1166;12564427000;12493266666;12993266666
1167;12564429000;12493266666;12993266666
1168;12564457000;12493266666;12993266666
1169;12605768000;12534622222;13034622222
1170;12605777000;12534622222;13034622222
1171;12605779000;12534622222;13034622222
1172;12605781000;12534622222;13034622222
1173;12605783000;12534622222;13034622222
1174;12605785000;12534622222;13034622222
1175;12605787000;12534622222;13034622222
1176;12606077000;12534644444;13034644444
1177;12606087000;12534922222;13034922222
1178;12606098000;12534922222;13034922222
1179;12606100000;12534922222;13034922222
1180;12647412000;12576288888;13076288888
1181;12647418000;12576288888;13076288888
1182;12647420000;12576288888;13076288888
1183;12647422000;12576288888;13076288888
1184;12647423000;12576288888;13076288888
1185;12647425000;12576288888;13076288888
1186;12647427000;12576288888;13076288888
1187;12647660000;12576311111;13076311111
1188;12647665000;12576600000;13076600000
1189;12647666000;12576600000;13076600000
1190;12647667000;12576600000;13076600000
1191;12689078000;12617988888;13117988888
1192;12689092000;12617988888;13117988888
1193;12689093000;12617988888;13117988888
1194;12689094000;12617988888;13117988888
1195;12689096000;12617988888;13117988888
1196;12689097000;12617988888;13117988888
1197;12689109000;12617988888;13117988888
1198;12689358000;12618000000;13118000000
1199;12689374000;12618266666;13118266666
1200;12689376000;12618266666;13118266666
1201;12689377000;12618266666;13118266666
1202;12730683000;12659622222;13159622222
1203;12730686000;12659622222;13159622222
1204;12730688000;12659622222;13159622222
1205;12730689000;12659622222;13159622222
1206;12730690000;12659622222;13159622222
1207;12730691000;12659622222;13159622222
1208;12730693000;12659622222;13159622222
1209;12730907000;12659644444;13159644444
1210;12730911000;12659944444;13159944444
1211;12730912000;12659944444;13159944444
1212;12730914000;12659944444;13159944444
1213;12772341000;12701288888;13201288888
1214;12772353000;12701288888;13201288888
1215;12772354000;12701288888;13201288888
1216;12772355000;12701288888;13201288888
1217;12772356000;12701288888;13201288888
1218;12772358000;12701288888;13201288888
1219;12772359000;12701288888;13201288888
1220;12772573000;12701311111;13201311111
1221;12772577000;12701611111;13201611111
1222;12772578000;12701611111;13201611111
1223;12772579000;12701611111;13201611111
1224;12814010000;12743000000;13243000000
1225;12814013000;12743000000;13243000000
1226;12814014000;12743000000;13243000000
1227;12814015000;12743000000;13243000000
1228;12814016000;12743000000;13243000000
1229;12814026000;12743000000;13243000000
1230;12814028000;12743000000;13243000000
1231;12814163000;12743022222;13243022222
1232;12814166000;12743344444;13243344444
1233;12814167000;12743344444;13243344444
1234;12814168000;12743344444;13243344444
1235;12855652000;12784666666;13284666666
1236;12855655000;12784666666;13284666666
1237;12855656000;12784666666;13284666666
1238;12855657000;12784666666;13284666666
1239;12855667000;12784666666;13284666666
1240;12855668000;12784666666;13284666666
1241;12855669000;12784666666;13284666666
1242;12855804000;12784688888;13284688888
1243;12855807000;12784966666;13284966666
1244;12855808000;12784966666;13284966666
1245;12855809000;12784966666;13284966666
1246;12897318000;12826333333;13326333333
1247;12897321000;12826333333;13326333333
1248;12897322000;12826333333;13326333333
1249;12897332000;12826333333;13326333333
1250;12897333000;12826333333;13326333333
1251;12897334000;12826333333;13326333333
1252;12897335000;12826333333;13326333333
1253;12897470000;12826344444;13326344444
1254;12897473000;12826655555;13326655555
1255;12897474000;12826655555;13326655555
1256;12897475000;12826655555;13326655555
1257;12938999000;12867988888;13367988888
1258;12939002000;12867988888;13367988888
1259;12939003000;12867988888;13367988888
1260;12939004000;12867988888;13367988888
1261;12939005000;12867988888;13367988888
1262;12939006000;12867988888;13367988888
1263;12939017000;12867988888;13367988888
1264;12939151000;12868011111;13368011111
1265;12939154000;12868266666;13368266666
1266;12939155000;12868266666;13368266666
1267;12939156000;12868266666;13368266666
1268;12980664000;12909655555;13409655555
1269;12980667000;12909655555;13409655555
1270;12980668000;12909655555;13409655555
1271;12980669000;12909655555;13409655555
1272;12980671000;12909655555;13409655555
1273;12980672000;12909655555;13409655555
1274;12980682000;12909655555;13409655555
1275;12980816000;12909666666;13409666666
1276;12980819000;12909977777;13409977777
1277;12980820000;12909977777;13409977777
1278;12980821000;12909977777;13409977777
1279;13022354000;12951288888;13451288888
1280;13022357000;12951288888;13451288888
1281;13022359000;12951288888;13451288888
1282;13022360000;12951288888;13451288888
1283;13022361000;12951288888;13451288888
1284;13022362000;12951288888;13451288888
1285;13022363000;12951288888;13451288888
1286;13022565000;12951311111;13451311111
1287;13022582000;12951611111;13451611111
1288;13022583000;12951611111;13451611111
1289;13022584000;12951611111;13451611111
1290;13063971000;12992955555;13492955555
1291;13063974000;12992955555;13492955555
1292;13063985000;12992955555;13492955555
1293;13063986000;12992955555;13492955555
1294;13063987000;12992955555;13492955555
1295;13063988000;12992955555;13492955555
1296;13063990000;12992955555;13492955555
1297;13064136000;12992977777;13492977777
1298;13064139000;12993255555;13493255555
1299;13064140000;12993255555;13493255555
1300;13064142000;12993255555;13493255555
1301;13105674000;13034622222;13534622222
1302;13105686000;13034622222;13534622222
1303;13105688000;13034622222;13534622222
1304;13105689000;13034622222;13534622222
1305;13105690000;13034622222;13534622222
1306;13105691000;13034622222;13534622222
1307;13105692000;13034622222;13534622222
1308;13105906000;13034644444;13534644444
1309;13105910000;13034944444;13534944444
1310;13105911000;13034944444;13534944444
1311;13105912000;13034944444;13534944444
1312;13147400000;13076322222;13576322222
1313;13147404000;13076322222;13576322222
1314;13147405000;13076322222;13576322222
1315;13147407000;13076322222;13576322222
1316;13147408000;13076322222;13576322222
1317;13147409000;13076322222;13576322222
1318;13147410000;13076322222;13576322222
1319;13147610000;13076333333;13576333333
1320;13147623000;13076633333;13576633333
1321;13147624000;13076633333;13576633333
1322;13147626000;13076633333;13576633333
1323;13189075000;13117988888;13617988888
1324;13189078000;13117988888;13617988888
1325;13189080000;13117988888;13617988888
1326;13189081000;13117988888;13617988888
1327;13189082000;13117988888;13617988888
1328;13189083000;13117988888;13617988888
1329;13189084000;13117988888;13617988888
1330;13189304000;13118000000;13618000000
1331;13189307000;13118277777;13618277777
1332;13189308000;13118277777;13618277777
1333;13189310000;13118277777;13618277777
1334;13230632000;13159622222;13659622222
1335;13230635000;13159622222;13659622222
1336;13230636000;13159622222;13659622222
1337;13230637000;13159622222;13659622222
1338;13230639000;13159622222;13659622222
1339;13230649000;13159622222;13659622222
1340;13230650000;13159622222;13659622222
1341;13230785000;13159644444;13659644444
1342;13230787000;13159966666;13659966666
1343;13230789000;13159966666;13659966666
1344;13230790000;13159966666;13659966666
1345;13272344000;13201333333;13701333333
1346;13272347000;13201333333;13701333333
1347;13272348000;13201333333;13701333333
1348;13272349000;13201333333;13701333333
1349;13272350000;13201333333;13701333333
1350;13272352000;13201333333;13701333333
1351;13272362000;13201333333;13701333333
1352;13272496000;13201355555;13701355555
1353;13272499000;13201633333;13701633333
1354;13272500000;13201633333;13701633333
1355;13272501000;13201633333;13701633333
1356;13313964000;13242955555;13742955555
1357;13313967000;13242955555;13742955555
1358;13313968000;13242955555;13742955555
1359;13313969000;13242955555;13742955555
1360;13313970000;13242955555;13742955555
1361;13313971000;13242955555;13742955555
1362;13313982000;13242955555;13742955555
1363;13314124000;13242977777;13742977777
1364;13314127000;13243277777;13743277777
1365;13314128000;13243277777;13743277777
1366;13314129000;13243277777;13743277777
1367;13355629000;13284622222;13784622222
1368;13355649000;13284622222;13784622222
1369;13355651000;13284622222;13784622222
1370;13355652000;13284622222;13784622222
1371;13355653000;13284622222;13784622222
1372;13355654000;13284622222;13784622222
1373;13355655000;13284622222;13784622222
1374;13355790000;13284644444;13784644444
1375;13355793000;13284933333;13784933333
1376;13355794000;13284933333;13784933333
1377;13355795000;13284933333;13784933333
1378;13397302000;13326322222;13826322222
1379;13397304000;13326322222;13826322222
1380;13397306000;13326322222;13826322222
1381;13397316000;13326322222;13826322222
1382;13397318000;13326322222;13826322222
1383;13397319000;13326322222;13826322222
1384;13397320000;13326322222;13826322222
1385;13397454000;13326344444;13826344444
1386;13397456000;13326633333;13826633333
1387;13397458000;13326633333;13826633333
1388;13397459000;13326633333;13826633333
1389;13438979000;13368000000;13868000000
1390;13438981000;13368000000;13868000000
1391;13438983000;13368000000;13868000000
1392;13438984000;13368000000;13868000000
1393;13438994000;13368000000;13868000000
1394;13438995000;13368000000;13868000000
1395;13438996000;13368000000;13868000000
1396;13439139000;13368022222;13868022222
1397;13439141000;13368311111;13868311111
1398;13439143000;13368311111;13868311111
1399;13439144000;13368311111;13868311111
1400;13480647000;13409666666;13909666666
1401;13480650000;13409666666;13909666666
1402;13480651000;13409666666;13909666666
1403;13480661000;13409666666;13909666666
1404;13480662000;13409666666;13909666666
1405;13480664000;13409666666;13909666666
1406;13480665000;13409666666;13909666666
1407;13480799000;13409688888;13909688888
1408;13480801000;13410000000;13910000000
1409;13480802000;13410000000;13910000000
1410;13480804000;13410000000;13910000000
1411;13522339000;13451333333;13951333333
1412;13522342000;13451333333;13951333333
1413;13522343000;13451333333;13951333333
1414;13522344000;13451333333;13951333333
1415;13522345000;13451333333;13951333333
1416;13522347000;13451333333;13951333333
1417;13522357000;13451333333;13951333333
1418;13522490000;13451355555;13951355555
1419;13522493000;13451655555;13951655555
1420;13522494000;13451655555;13951655555
1421;13522495000;13451655555;13951655555
1422;13564070000;13493000000;13993000000
1423;13564073000;13493000000;13993000000
1424;13564075000;13493000000;13993000000
1425;13564076000;13493000000;13993000000
1426;13564077000;13493000000;13993000000
1427;13564078000;13493000000;13993000000
1428;13564079000;13493000000;13993000000
1429;13564296000;13493022222;13993022222
1430;13564299000;13493300000;13993300000
1431;13564300000;13493300000;13993300000
1432;13564301000;13493300000;13993300000
1433;13605718000;13534655555;14034655555
1434;13605722000;13534655555;14034655555
1435;13605723000;13534655555;14034655555
1436;13605725000;13534655555;14034655555
1437;13605726000;13534655555;14034655555
1438;13605727000;13534655555;14034655555
1439;13605728000;13534655555;14034655555
1440;13605930000;13534677777;14034677777
1441;13605946000;13534966666;14034966666
1442;13605947000;13534966666;14034966666
1443;13605949000;13534966666;14034966666
1444;13647381000;13576322222;14076322222
1445;13647384000;13576322222;14076322222
1446;13647385000;13576322222;14076322222
1447;13647386000;13576322222;14076322222
1448;13647388000;13576322222;14076322222
1449;13647389000;13576322222;14076322222
1450;13647390000;13576322222;14076322222
1451;13647601000;13576333333;14076333333
1452;13647605000;13576633333;14076633333
1453;13647606000;13576633333;14076633333
1454;13647607000;13576633333;14076633333
1455;13688936000;13617955555;14117955555
1456;13688939000;13617955555;14117955555
1457;13688940000;13617955555;14117955555
1458;13688951000;13617955555;14117955555
1459;13688952000;13617955555;14117955555
1460;13688953000;13617955555;14117955555
1461;13688954000;13617955555;14117955555
1462;13689206000;13617977777;14117977777
1463;13689213000;13618233333;14118233333
1464;13689215000;13618233333;14118233333
1465;13689216000;13618233333;14118233333
1466;13730694000;13659622222;14159622222
1467;13730697000;13659622222;14159622222
1468;13730707000;13659622222;14159622222
1469;13730708000;13659622222;14159622222
1470;13730709000;13659622222;14159622222
1471;13730711000;13659622222;14159622222
1472;13730712000;13659622222;14159622222
1473;13730929000;13659644444;14159644444
1474;13730932000;13659944444;14159944444
1475;13730933000;13659944444;14159944444
1476;13730934000;13659944444;14159944444
1477;13772345000;13701288888;14201288888
1478;13772357000;13701288888;14201288888
1479;13772359000;13701288888;14201288888
1480;13772360000;13701288888;14201288888
1481;13772361000;13701288888;14201288888
1482;13772362000;13701288888;14201288888
1483;13772363000;13701288888;14201288888
1484;13772575000;13701311111;14201311111
1485;13772578000;13701611111;14201611111
1486;13772580000;13701611111;14201611111
1487;13772581000;13701611111;14201611111
1488;13813964000;13742955555;14242955555
1489;13813967000;13742955555;14242955555
1490;13813968000;13742955555;14242955555
1491;13813978000;13742955555;14242955555
1492;13813980000;13742955555;14242955555
1493;13813981000;13742955555;14242955555
1494;13813982000;13742955555;14242955555
1495;13814124000;13742977777;14242977777
1496;13814127000;13743288888;14243288888
1497;13814128000;13743288888;14243288888
1498;13814129000;13743288888;14243288888
1499;13855626000;13784622222;14284622222
1500;13855629000;13784622222;14284622222
1501;13855630000;13784622222;14284622222
1502;13855631000;13784622222;14284622222
1503;13855632000;13784622222;14284622222
1504;13855633000;13784622222;14284622222
1505;13855644000;13784622222;14284622222
1506;13855779000;13784644444;14284644444
1507;13855781000;13784933333;14284933333
1508;13855782000;13784933333;14284933333
1509;13855784000;13784933333;14284933333
1510;13897310000;13826322222;14326322222
1511;13897313000;13826322222;14326322222
1512;13897314000;13826322222;14326322222
1513;13897315000;13826322222;14326322222
1514;13897316000;13826322222;14326322222
1515;13897317000;13826322222;14326322222
1516;13897328000;13826322222;14326322222
1517;13897462000;13826333333;14326333333
1518;13897465000;13826611111;14326611111
1519;13897466000;13826611111;14326611111
1520;13897467000;13826611111;14326611111
1521;13938996000;13867988888;14367988888
1522;13938999000;13867988888;14367988888
1523;13939000000;13867988888;14367988888
1524;13939001000;13867988888;14367988888
1525;13939012000;13867988888;14367988888
1526;13939013000;13867988888;14367988888
1527;13939014000;13867988888;14367988888
1528;13939150000;13868000000;14368000000
1529;13939153000;13868266666;14368266666
1530;13939154000;13868266666;14368266666
1531;13939155000;13868266666;14368266666
1532;13980659000;13909655555;14409655555
1533;13980662000;13909655555;14409655555
1534;13980663000;13909655555;14409655555
1535;13980664000;13909655555;14409655555
1536;13980665000;13909655555;14409655555
1537;13980667000;13909655555;14409655555
1538;13980677000;13909655555;14409655555
1539;13980811000;13909666666;14409666666
1540;13980814000;13909988888;14409988888
1541;13980815000;13909988888;14409988888
1542;13980816000;13909988888;14409988888
1543;14022314000;13951311111;14451311111
1544;14022317000;13951311111;14451311111
1545;14022318000;13951311111;14451311111
1546;14022319000;13951311111;14451311111
1547;14022320000;13951311111;14451311111
1548;14022322000;13951311111;14451311111
1549;14022332000;13951311111;14451311111
1550;14022467000;13951333333;14451333333
1551;14022469000;13951644444;14451644444
1552;14022471000;13951644444;14451644444
1553;14022472000;13951644444;14451644444
1554;14063929000;13992955555;14492955555
1555;14063932000;13992955555;14492955555
1556;14063933000;13992955555;14492955555
1557;14063934000;13992955555;14492955555
1558;14063944000;13992955555;14492955555
1559;14063945000;13992955555;14492955555
1560;14063946000;13992955555;14492955555
1561;14064082000;13992977777;14492977777
1562;14064085000;13993277777;14493277777
1563;14064086000;13993277777;14493277777
1564;14064087000;13993277777;14493277777
1565;14105670000;14034655555;14534655555
1566;14105673000;14034655555;14534655555
1567;14105681000;14034655555;14534655555
1568;14105682000;14034655555;14534655555
1569;14105683000;14034655555;14534655555
1570;14105684000;14034655555;14534655555
1571;14105685000;14034655555;14534655555
1572;14105897000;14034677777;14534677777
1573;14105900000;14034977777;14534977777
1574;14105902000;14034977777;14534977777
1575;14105903000;14034977777;14534977777
1576;14147315000;14076288888;14576288888
1577;14147318000;14076288888;14576288888
1578;14147319000;14076288888;14576288888
1579;14147320000;14076288888;14576288888
1580;14147321000;14076288888;14576288888
1581;14147322000;14076288888;14576288888
1582;14147324000;14076288888;14576288888
1583;14147537000;14076311111;14576311111
1584;14147541000;14076611111;14576611111
1585;14147542000;14076611111;14576611111
1586;14147543000;14076611111;14576611111
1587;14188929000;14117955555;14617955555
1588;14188931000;14117955555;14617955555
1589;14188933000;14117955555;14617955555
1590;14188943000;14117955555;14617955555
1591;14188944000;14117955555;14617955555
1592;14188945000;14117955555;14617955555
1593;14188946000;14117955555;14617955555
1594;14189081000;14117977777;14617977777
1595;14189084000;14118244444;14618244444
1596;14189085000;14118244444;14618244444
1597;14189086000;14118244444;14618244444
1598;14230633000;14159655555;14659655555
1599;14230636000;14159655555;14659655555
1600;14230637000;14159655555;14659655555
1601;14230638000;14159655555;14659655555
1602;14230648000;14159655555;14659655555
1603;14230649000;14159655555;14659655555
1604;14230650000;14159655555;14659655555
1605;14230785000;14159666666;14659666666
1606;14230788000;14159988888;14659988888
1607;14230789000;14159988888;14659988888
1608;14230790000;14159988888;14659988888
1609;14272261000;14201288888;14701288888
1610;14272263000;14201288888;14701288888
1611;14272264000;14201288888;14701288888
1612;14272266000;14201288888;14701288888
1613;14272276000;14201288888;14701288888
1614;14272277000;14201288888;14701288888
1615;14272278000;14201288888;14701288888
1616;14272412000;14201311111;14701311111
1617;14272415000;14201611111;14701611111
1618;14272416000;14201611111;14701611111
1619;14272417000;14201611111;14701611111
1620;14313980000;14243000000;14743000000
1621;14313983000;14243000000;14743000000
1622;14313984000;14243000000;14743000000
1623;14313995000;14243000000;14743000000
1624;14313996000;14243000000;14743000000
1625;14313997000;14243000000;14743000000
1626;14313998000;14243000000;14743000000
1627;14314144000;14243011111;14743011111
1628;14314147000;14243322222;14743322222
1629;14314148000;14243322222;14743322222
1630;14314149000;14243322222;14743322222
1631;14355677000;14284666666;14784666666
1632;14355679000;14284666666;14784666666
1633;14355681000;14284666666;14784666666
1634;14355682000;14284666666;14784666666
1635;14355683000;14284666666;14784666666
1636;14355684000;14284666666;14784666666
1637;14355685000;14284666666;14784666666
1638;14355820000;14284688888;14784688888
1639;14355822000;14285000000;14785000000
1640;14355823000;14285000000;14785000000
1641;14355825000;14285000000;14785000000
1642;14397294000;14326333333;14826333333
1643;14397297000;14326333333;14826333333
1644;14397298000;14326333333;14826333333
1645;14397299000;14326333333;14826333333
1646;14397310000;14326333333;14826333333
1647;14397311000;14326333333;14826333333
1648;14397312000;14326333333;14826333333
1649;14397447000;14326355555;14826355555
1650;14397450000;14326677777;14826677777
1651;14397451000;14326677777;14826677777
1652;14397452000;14326677777;14826677777
1653;14439000000;14368000000;14868000000
1654;14439002000;14368000000;14868000000
1655;14439003000;14368000000;14868000000
1656;14439005000;14368000000;14868000000
1657;14439006000;14368000000;14868000000
1658;14439007000;14368000000;14868000000
1659;14439008000;14368000000;14868000000
1660;14439153000;14368022222;14868022222
1661;14439156000;14368322222;14868322222
1662;14439157000;14368322222;14868322222
1663;14439158000;14368322222;14868322222
1664;14480712000;14409655555;14909655555
1665;14480716000;14409655555;14909655555
1666;14480717000;14409655555;14909655555
1667;14480726000;14409655555;14909655555
1668;14480727000;14409655555;14909655555
1669;14480729000;14409655555;14909655555
1670;14480730000;14409655555;14909655555
1671;14480932000;14409677777;14909677777
1672;14480948000;14409988888;14909988888
1673;14480950000;14409988888;14909988888
1674;14480951000;14409988888;14909988888
1675;14522380000;14451322222;14951322222
1676;14522384000;14451322222;14951322222
1677;14522385000;14451322222;14951322222
1678;14522386000;14451322222;14951322222
1679;14522387000;14451322222;14951322222
1680;14522389000;14451322222;14951322222
1681;14522390000;14451322222;14951322222
1682;14522607000;14451333333;14951333333
1683;14522610000;14451633333;14951633333
1684;14522611000;14451633333;14951633333
1685;14522613000;14451633333;14951633333
1686;14564019000;14492988888;14992988888
1687;14564022000;14492988888;14992988888
1688;14564023000;14492988888;14992988888
1689;14564025000;14492988888;14992988888
1690;14564026000;14492988888;14992988888
1691;14564027000;14492988888;14992988888
1692;14564028000;14492988888;14992988888
1693;14564227000;14493000000;14993000000
1694;14564230000;14493288888;14993288888
1695;14564231000;14493288888;14993288888
1696;14564233000;14493288888;14993288888
1697;14605714000;14534655555;15034655555
1698;14605717000;14534655555;15034655555
1699;14605719000;14534655555;15034655555
1700;14605720000;14534655555;15034655555
1701;14605721000;14534655555;15034655555
1702;14605722000;14534655555;15034655555
1703;14605723000;14534655555;15034655555
1704;14605926000;14534677777;15034677777
1705;14605942000;14534977777;15034977777
1706;14605943000;14534977777;15034977777
1707;14605944000;14534977777;15034977777
1708;14647276000;14576288888;15076288888
1709;14647279000;14576288888;15076288888
1710;14647280000;14576288888;15076288888
1711;14647291000;14576288888;15076288888
1712;14647292000;14576288888;15076288888
1713;14647293000;14576288888;15076288888
1714;14647294000;14576288888;15076288888
1715;14647430000;14576311111;15076311111
1716;14647433000;14576622222;15076622222
1717;14647434000;14576622222;15076622222
1718;14647435000;14576622222;15076622222
1719;14688989000;14617988888;15117988888
1720;14688992000;14617988888;15117988888
1721;14688994000;14617988888;15117988888
1722;14688995000;14617988888;15117988888
1723;14688996000;14617988888;15117988888
1724;14689006000;14617988888;15117988888
1725;14689007000;14617988888;15117988888
1726;14689151000;14618000000;15118000000
1727;14689154000;14618277777;15118277777
1728;14689155000;14618277777;15118277777
1729;14689156000;14618277777;15118277777
1730;14730687000;14659622222;15159622222
1731;14730690000;14659622222;15159622222
1732;14730692000;14659622222;15159622222
1733;14730693000;14659622222;15159622222
1734;14730694000;14659622222;15159622222
1735;14730695000;14659622222;15159622222
1736;14730696000;14659622222;15159622222
1737;14730907000;14659655555;15159655555
1738;14730910000;14659977777;15159977777
1739;14730912000;14659977777;15159977777
1740;14730913000;14659977777;15159977777
1741;14772339000;14701288888;15201288888
1742;14772351000;14701288888;15201288888
1743;14772352000;14701288888;15201288888
1744;14772354000;14701288888;15201288888
1745;14772355000;14701288888;15201288888
1746;14772356000;14701288888;15201288888
1747;14772357000;14701288888;15201288888
1748;14772572000;14701311111;15201311111
1749;14772575000;14701633333;15201633333
1750;14772577000;14701633333;15201633333
1751;14772578000;14701633333;15201633333
1752;14814040000;14743000000;15243000000
1753;14814059000;14743000000;15243000000
1754;14814060000;14743000000;15243000000
1755;14814062000;14743000000;15243000000
1756;14814063000;14743000000;15243000000
1757;14814064000;14743000000;15243000000
1758;14814065000;14743000000;15243000000
1759;14814202000;14743022222;15243022222
1760;14814204000;14743344444;15243344444
1761;14814205000;14743344444;15243344444
1762;14814206000;14743344444;15243344444
1763;14855708000;14784666666;15284666666
1764;14855720000;14784666666;15284666666
1765;14855721000;14784666666;15284666666
1766;14855722000;14784666666;15284666666
1767;14855731000;14784666666;15284666666
1768;14855732000;14784666666;15284666666
1769;14855733000;14784666666;15284666666
1770;14855869000;14784688888;15284688888
1771;14855872000;14785000000;15285000000
1772;14855873000;14785000000;15285000000
1773;14855874000;14785000000;15285000000
1774;14897320000;14826322222;15326322222
1775;14897322000;14826322222;15326322222
1776;14897324000;14826322222;15326322222
1777;14897325000;14826322222;15326322222
1778;14897326000;14826322222;15326322222
1779;14897327000;14826322222;15326322222
1780;14897337000;14826322222;15326322222
1781;14897500000;14826333333;15326333333
1782;14897503000;14826633333;15326633333
1783;14897514000;14826633333;15326633333
1784;14897516000;14826633333;15326633333
1785;14938959000;14867988888;15367988888
1786;14938961000;14867988888;15367988888
1787;14938963000;14867988888;15367988888
1788;14938973000;14867988888;15367988888
1789;14938974000;14867988888;15367988888
1790;14938975000;14867988888;15367988888
1791;14938976000;14867988888;15367988888
1792;14939118000;14868000000;15368000000
1793;14939121000;14868277777;15368277777
1794;14939122000;14868277777;15368277777
1795;14939124000;14868277777;15368277777
1796;14980625000;14909655555;15409655555
1797;14980627000;14909655555;15409655555
1798;14980629000;14909655555;15409655555
1799;14980639000;14909655555;15409655555
1800;14980640000;14909655555;15409655555
1801;14980641000;14909655555;15409655555
1802;14980642000;14909655555;15409655555
1803;14980777000;14909677777;15409677777
1804;14980780000;14910000000;15410000000
1805;14980781000;14910000000;15410000000
1806;14980782000;14910000000;15410000000
1807;15022319000;14951322222;15451322222
1808;15022322000;14951322222;15451322222
1809;15022323000;14951322222;15451322222
1810;15022324000;14951322222;15451322222
1811;15022325000;14951322222;15451322222
1812;15022327000;14951322222;15451322222
1813;15022328000;14951322222;15451322222
1814;15022472000;14951333333;15451333333
1815;15022475000;14951655555;15451655555
1816;15022476000;14951655555;15451655555
1817;15022477000;14951655555;15451655555
1818;15063986000;14992988888;15492988888
1819;15063988000;14992988888;15492988888
1820;15063989000;14992988888;15492988888
1821;15063991000;14992988888;15492988888
1822;15063992000;14992988888;15492988888
1823;15063993000;14992988888;15492988888
1824;15064004000;14992988888;15492988888
1825;15064144000;14993000000;15493000000
1826;15064146000;14993311111;15493311111
1827;15064147000;14993311111;15493311111
1828;15064149000;14993311111;15493311111
1829;15105675000;15034622222;15534622222
1830;15105688000;15034622222;15534622222
1831;15105689000;15034622222;15534622222
1832;15105690000;15034622222;15534622222
1833;15105691000;15034622222;15534622222
1834;15105692000;15034622222;15534622222
1835;15105693000;15034622222;15534622222
1836;15105907000;15034644444;15534644444
1837;15105910000;15034966666;15534966666
1838;15105911000;15034966666;15534966666
1839;15105912000;15034966666;15534966666
1840;15147373000;15076322222;15576322222
1841;15147385000;15076322222;15576322222
1842;15147386000;15076322222;15576322222
1843;15147387000;15076322222;15576322222
1844;15147388000;15076322222;15576322222
1845;15147389000;15076322222;15576322222
1846;15147390000;15076322222;15576322222
1847;15147604000;15076333333;15576333333
1848;15147607000;15076611111;15576611111
1849;15147608000;15076611111;15576611111
1850;15147609000;15076611111;15576611111
1851;15188985000;15117988888;15617988888
1852;15188988000;15117988888;15617988888
1853;15188989000;15117988888;15617988888
1854;15188990000;15117988888;15617988888
1855;15188991000;15117988888;15617988888
1856;15188992000;15117988888;15617988888
1857;15189003000;15117988888;15617988888
1858;15189144000;15118000000;15618000000
1859;15189147000;15118266666;15618266666
1860;15189148000;15118266666;15618266666
1861;15189149000;15118266666;15618266666
1862;15230593000;15159622222;15659622222
1863;15230596000;15159622222;15659622222
1864;15230597000;15159622222;15659622222
1865;15230598000;15159622222;15659622222
1866;15230599000;15159622222;15659622222
1867;15230616000;15159622222;15659622222
1868;15230617000;15159622222;15659622222
1869;15230752000;15159644444;15659644444
1870;15230755000;15159955555;15659955555
1871;15230756000;15159955555;15659955555
1872;15230758000;15159955555;15659955555
1873;15272329000;15201333333;15701333333
1874;15272331000;15201333333;15701333333
1875;15272332000;15201333333;15701333333
1876;15272333000;15201333333;15701333333
1877;15272335000;15201333333;15701333333
1878;15272336000;15201333333;15701333333
1879;15272337000;15201333333;15701333333
1880;15272481000;15201355555;15701355555
1881;15272483000;15201633333;15701633333
1882;15272484000;15201633333;15701633333
1883;15272486000;15201633333;15701633333
1884;15313996000;15243000000;15743000000
1885;15313998000;15243000000;15743000000
1886;15314000000;15243000000;15743000000
1887;15314001000;15243000000;15743000000
1888;15314002000;15243000000;15743000000
1889;15314003000;15243000000;15743000000
1890;15314013000;15243000000;15743000000
1891;15314148000;15243022222;15743022222
1892;15314151000;15243300000;15743300000
1893;15314152000;15243300000;15743300000
1894;15314153000;15243300000;15743300000
1895;15355662000;15284666666;15784666666
1896;15355665000;15284666666;15784666666
1897;15355666000;15284666666;15784666666
1898;15355667000;15284666666;15784666666
1899;15355669000;15284666666;15784666666
1900;15355670000;15284666666;15784666666
1901;15355671000;15284666666;15784666666
1902;15355815000;15284688888;15784688888
1903;15355817000;15284977777;15784977777
1904;15355818000;15284977777;15784977777
1905;15355819000;15284977777;15784977777
1906;15397304000;15326333333;15826333333
1907;15397307000;15326333333;15826333333
1908;15397308000;15326333333;15826333333
1909;15397309000;15326333333;15826333333
1910;15397310000;15326333333;15826333333
1911;15397311000;15326333333;15826333333
1912;15397312000;15326333333;15826333333
1913;15397373000;15326355555;15826355555
1914;15397376000;15326644444;15826644444
1915;15397377000;15326644444;15826644444
1916;15397378000;15326644444;15826644444
1917;15438969000;15367988888;15867988888
1918;15438972000;15367988888;15867988888
1919;15438973000;15367988888;15867988888
1920;15438975000;15367988888;15867988888
1921;15438976000;15367988888;15867988888
1922;15438977000;15367988888;15867988888
1923;15438978000;15367988888;15867988888
1924;15439110000;15368011111;15868011111
1925;15439113000;15368277777;15868277777
1926;15439114000;15368277777;15868277777
1927;15439115000;15368277777;15868277777
1928;15480636000;15409655555;15909655555
1929;15480639000;15409655555;15909655555
1930;15480640000;15409655555;15909655555
1931;15480641000;15409655555;15909655555
1932;15480642000;15409655555;15909655555
1933;15480643000;15409655555;15909655555
1934;15480645000;15409655555;15909655555
1935;15480788000;15409677777;15909677777
1936;15480791000;15409966666;15909966666
1937;15480792000;15409966666;15909966666
1938;15480793000;15409966666;15909966666
1939;15522349000;15451311111;15951311111
1940;15522361000;15451311111;15951311111
1941;15522362000;15451311111;15951311111
1942;15522363000;15451311111;15951311111
1943;15522364000;15451311111;15951311111
1944;15522365000;15451311111;15951311111
1945;15522366000;15451311111;15951311111
1946;15522578000;15451333333;15951333333
1947;15522581000;15451611111;15951611111
1948;15522582000;15451611111;15951611111
1949;15522583000;15451611111;15951611111
1950;15564004000;15492955555;15992955555
1951;15564016000;15492955555;15992955555
1952;15564017000;15492955555;15992955555
1953;15564018000;15492955555;15992955555
1954;15564019000;15492955555;15992955555
1955;15564021000;15492955555;15992955555
1956;15564022000;15492955555;15992955555
1957;15564237000;15492977777;15992977777
1958;15564240000;15493244444;15993244444
1959;15564241000;15493244444;15993244444
1960;15564242000;15493244444;15993244444
1961;15605664000;15534655555;16034655555
1962;15605667000;15534655555;16034655555
1963;15605668000;15534655555;16034655555
1964;15605669000;15534655555;16034655555
1965;15605671000;15534655555;16034655555
1966;15605672000;15534655555;16034655555
1967;15605679000;15534655555;16034655555
1968;15605888000;15534677777;16034677777
1969;15605891000;15534966666;16034966666
1970;15605892000;15534966666;16034966666
1971;15605893000;15534966666;16034966666
1972;15647293000;15576322222;16076322222
1973;15647296000;15576322222;16076322222
1974;15647297000;15576322222;16076322222
1975;15647308000;15576322222;16076322222
1976;15647309000;15576322222;16076322222
1977;15647310000;15576322222;16076322222
1978;15647311000;15576322222;16076322222
1979;15647518000;15576344444;16076344444
1980;15647521000;15576622222;16076622222
1981;15647522000;15576622222;16076622222
1982;15647524000;15576622222;16076622222
1983;15689029000;15617988888;16117988888
1984;15689033000;15617988888;16117988888
1985;15689034000;15617988888;16117988888
1986;15689035000;15617988888;16117988888
1987;15689036000;15617988888;16117988888
1988;15689038000;15617988888;16117988888
1989;15689039000;15617988888;16117988888
1990;15689272000;15618011111;16118011111
1991;15689279000;15618255555;16118255555
1992;15689281000;15618255555;16118255555
1993;15689282000;15618255555;16118255555
1994;15730722000;15659655555;16159655555
1995;15730726000;15659655555;16159655555
1996;15730727000;15659655555;16159655555
1997;15730728000;15659655555;16159655555
1998;15730729000;15659655555;16159655555
1999;15730730000;15659655555;16159655555
2000;15730732000;15659655555;16159655555
2001;15730948000;15659666666;16159666666
2002;15730951000;15659966666;16159966666
2003;15730952000;15659966666;16159966666
2004;15730953000;15659966666;16159966666
2005;15772326000;15701288888;16201288888
2006;15772338000;15701288888;16201288888
2007;15772339000;15701288888;16201288888
2008;15772340000;15701288888;16201288888
2009;15772341000;15701288888;16201288888
2010;15772342000;15701288888;16201288888
2011;15772344000;15701288888;16201288888
2012;15772558000;15701311111;16201311111
2013;15772562000;15701611111;16201611111
2014;15772563000;15701611111;16201611111
2015;15772564000;15701611111;16201611111
2016;15813953000;15742955555;16242955555
2017;15813955000;15742955555;16242955555
2018;15813957000;15742955555;16242955555
2019;15813958000;15742955555;16242955555
2020;15813959000;15742955555;16242955555
2021;15813960000;15742955555;16242955555
2022;15813971000;15742955555;16242955555
2023;15814107000;15742977777;16242977777
2024;15814110000;15743288888;16243288888
2025;15814111000;15743288888;16243288888
2026;15814112000;15743288888;16243288888
2027;15855592000;15784622222;16284622222
2028;15855595000;15784622222;16284622222
2029;15855596000;15784622222;16284622222
2030;15855607000;15784622222;16284622222
2031;15855608000;15784622222;16284622222
2032;15855609000;15784622222;16284622222
2033;15855610000;15784622222;16284622222
2034;15855745000;15784644444;16284644444
2035;15855747000;15784911111;16284911111
2036;15855748000;15784911111;16284911111
2037;15855750000;15784911111;16284911111
2038;15897296000;15826322222;16326322222
2039;15897299000;15826322222;16326322222
2040;15897300000;15826322222;16326322222
2041;15897301000;15826322222;16326322222
2042;15897311000;15826322222;16326322222
2043;15897313000;15826322222;16326322222
2044;15897314000;15826322222;16326322222
2045;15897449000;15826344444;16326344444
2046;15897451000;15826611111;16326611111
2047;15897453000;15826611111;16326611111
2048;15897454000;15826611111;16326611111
2049;15939008000;15867977777;16367977777
2050;15939011000;15867977777;16367977777
2051;15939012000;15867977777;16367977777
2052;15939013000;15867977777;16367977777
2053;15939014000;15867977777;16367977777
2054;15939015000;15867977777;16367977777
2055;15939016000;15867977777;16367977777
2056;15939224000;15868000000;16368000000
2057;15939227000;15868255555;16368255555
2058;15939229000;15868255555;16368255555
2059;15939230000;15868255555;16368255555
2060;15980664000;15909622222;16409622222
2061;15980666000;15909622222;16409622222
2062;15980668000;15909622222;16409622222
2063;15980669000;15909622222;16409622222
2064;15980670000;15909622222;16409622222
2065;15980671000;15909622222;16409622222
2066;15980672000;15909622222;16409622222
2067;15980888000;15909644444;16409644444
2068;15980891000;15909955555;16409955555
2069;15980892000;15909955555;16409955555
2070;15980893000;15909955555;16409955555
2071;16022333000;15951333333;16451333333
2072;16022336000;15951333333;16451333333
2073;16022338000;15951333333;16451333333
2074;16022339000;15951333333;16451333333
2075;16022340000;15951333333;16451333333
2076;16022351000;15951333333;16451333333
2077;16022352000;15951333333;16451333333
2078;16022524000;15951355555;16451355555
2079;16022527000;15951644444;16451644444
2080;16022528000;15951644444;16451644444
2081;16022529000;15951644444;16451644444
2082;16064068000;15993000000;16493000000
2083;16064071000;15993000000;16493000000
2084;16064072000;15993000000;16493000000
2085;16064073000;15993000000;16493000000
2086;16064074000;15993000000;16493000000
2087;16064076000;15993000000;16493000000
2088;16064077000;15993000000;16493000000
2089;16064292000;15993022222;16493022222
2090;16064295000;15993300000;16493300000
2091;16064297000;15993300000;16493300000
2092;16064298000;15993300000;16493300000
2093;16105706000;16034655555;16534655555
2094;16105718000;16034655555;16534655555
2095;16105719000;16034655555;16534655555
2096;16105720000;16034655555;16534655555
2097;16105722000;16034655555;16534655555
2098;16105723000;16034655555;16534655555
2099;16105724000;16034655555;16534655555
2100;16105938000;16034677777;16534677777
2101;16105941000;16034966666;16534966666
2102;16105943000;16034966666;16534966666
2103;16105944000;16034966666;16534966666
2104;16147320000;16076322222;16576322222
2105;16147323000;16076322222;16576322222
2106;16147324000;16076322222;16576322222
2107;16147325000;16076322222;16576322222
2108;16147326000;16076322222;16576322222
2109;16147327000;16076322222;16576322222
2110;16147337000;16076322222;16576322222
2111;16147472000;16076333333;16576333333
2112;16147475000;16076655555;16576655555
2113;16147476000;16076655555;16576655555
2114;16147477000;16076655555;16576655555
2115;16188927000;16117955555;16617955555
2116;16188930000;16117955555;16617955555
2117;16188931000;16117955555;16617955555
2118;16188932000;16117955555;16617955555
2119;16188942000;16117955555;16617955555
2120;16188943000;16117955555;16617955555
2121;16188944000;16117955555;16617955555
2122;16189079000;16117977777;16617977777
2123;16189082000;16118266666;16618266666
2124;16189083000;16118266666;16618266666
2125;16189084000;16118266666;16618266666
2126;16230598000;16159622222;16659622222
2127;16230601000;16159622222;16659622222
2128;16230602000;16159622222;16659622222
2129;16230604000;16159622222;16659622222
2130;16230614000;16159622222;16659622222
2131;16230615000;16159622222;16659622222
2132;16230616000;16159622222;16659622222
2133;16230751000;16159644444;16659644444
2134;16230754000;16159977777;16659977777
2135;16230755000;16159977777;16659977777
2136;16230756000;16159977777;16659977777
2137;16272294000;16201322222;16701322222
2138;16272297000;16201322222;16701322222
2139;16272298000;16201322222;16701322222
2140;16272299000;16201322222;16701322222
2141;16272309000;16201322222;16701322222
2142;16272311000;16201322222;16701322222
2143;16272312000;16201322222;16701322222
2144;16272446000;16201333333;16701333333
2145;16272449000;16201644444;16701644444
2146;16272450000;16201644444;16701644444
2147;16272451000;16201644444;16701644444
2148;16313998000;16242955555;16742955555
2149;16314010000;16242955555;16742955555
2150;16314012000;16242955555;16742955555
2151;16314013000;16242955555;16742955555
2152;16314014000;16242955555;16742955555
2153;16314015000;16242955555;16742955555
2154;16314016000;16242955555;16742955555
2155;16314230000;16242977777;16742977777
2156;16314234000;16243277777;16743277777
2157;16314235000;16243277777;16743277777
2158;16314236000;16243277777;16743277777
2159;16355664000;16284622222;16784622222
2160;16355676000;16284622222;16784622222
2161;16355677000;16284622222;16784622222
2162;16355678000;16284622222;16784622222
2163;16355679000;16284622222;16784622222
2164;16355680000;16284622222;16784622222
2165;16355681000;16284622222;16784622222
2166;16355895000;16284644444;16784644444
2167;16355905000;16284966666;16784966666
2168;16355906000;16284966666;16784966666
2169;16355916000;16284966666;16784966666
2170;16397321000;16326322222;16826322222
2171;16397324000;16326322222;16826322222
2172;16397325000;16326322222;16826322222
2173;16397327000;16326322222;16826322222
2174;16397328000;16326322222;16826322222
2175;16397329000;16326322222;16826322222
2176;16397339000;16326322222;16826322222
2177;16397474000;16326344444;16826344444
2178;16397476000;16326666666;16826666666
2179;16397478000;16326666666;16826666666
2180;16397479000;16326666666;16826666666
2181;16438988000;16367988888;16867988888
2182;16438990000;16367988888;16867988888
2183;16438991000;16367988888;16867988888
2184;16438993000;16367988888;16867988888
2185;16438994000;16367988888;16867988888
2186;16438995000;16367988888;16867988888
2187;16438996000;16367988888;16867988888
2188;16439150000;16368000000;16868000000
2189;16439152000;16368311111;16868311111
2190;16439154000;16368311111;16868311111
2191;16439155000;16368311111;16868311111
2192;16480605000;16409622222;16909622222
2193;16480608000;16409622222;16909622222
2194;16480609000;16409622222;16909622222
2195;16480610000;16409622222;16909622222
2196;16480612000;16409622222;16909622222
2197;16480613000;16409622222;16909622222
2198;16480623000;16409622222;16909622222
2199;16480758000;16409644444;16909644444
2200;16480761000;16409966666;16909966666
2201;16480762000;16409966666;16909966666
2202;16480763000;16409966666;16909966666
2203;16522321000;16451322222;16951322222
2204;16522324000;16451322222;16951322222
2205;16522325000;16451322222;16951322222
2206;16522326000;16451322222;16951322222
2207;16522327000;16451322222;16951322222
2208;16522329000;16451322222;16951322222
2209;16522330000;16451322222;16951322222
2210;16522474000;16451344444;16951344444
2211;16522477000;16451644444;16951644444
2212;16522478000;16451644444;16951644444
2213;16522479000;16451644444;16951644444
2214;16563986000;16492955555;16992955555
2215;16563989000;16492955555;16992955555
2216;16563990000;16492955555;16992955555
2217;16563991000;16492955555;16992955555
2218;16563992000;16492955555;16992955555
2219;16563993000;16492955555;16992955555
2220;16563994000;16492955555;16992955555
2221;16564214000;16492977777;16992977777
2222;16564217000;16493266666;16993266666
2223;16564218000;16493266666;16993266666
2224;16564219000;16493266666;16993266666
2225;16605667000;16534655555;17034655555
2226;16605670000;16534655555;17034655555
2227;16605671000;16534655555;17034655555
2228;16605672000;16534655555;17034655555
2229;16605673000;16534655555;17034655555
2230;16605674000;16534655555;17034655555
2231;16605675000;16534655555;17034655555
2232;16605887000;16534666666;17034666666
2233;16605890000;16534977777;17034977777
2234;16605891000;16534977777;17034977777
2235;16605892000;16534977777;17034977777
2236;16647334000;16576288888;17076288888
2237;16647336000;16576288888;17076288888
2238;16647337000;16576288888;17076288888
2239;16647338000;16576288888;17076288888
2240;16647340000;16576288888;17076288888
2241;16647341000;16576288888;17076288888
2242;16647342000;16576288888;17076288888
2243;16647477000;16576311111;17076311111
2244;16647480000;16576622222;17076622222
2245;16647481000;16576622222;17076622222
2246;16647482000;16576622222;17076622222
2247;16688990000;16617988888;17117988888
2248;16688993000;16617988888;17117988888
2249;16688994000;16617988888;17117988888
2250;16688995000;16617988888;17117988888
2251;16688996000;16617988888;17117988888
2252;16688997000;16617988888;17117988888
2253;16688998000;16617988888;17117988888
2254;16689134000;16618000000;17118000000
2255;16689141000;16618288888;17118288888
2256;16689142000;16618288888;17118288888
2257;16689144000;16618288888;17118288888
2258;16730725000;16659655555;17159655555
2259;16730728000;16659655555;17159655555
2260;16730729000;16659655555;17159655555
2261;16730730000;16659655555;17159655555
2262;16730732000;16659655555;17159655555
2263;16730733000;16659655555;17159655555
2264;16730734000;16659655555;17159655555
2265;16730949000;16659677777;17159677777
2266;16730952000;16660000000;17160000000
2267;16730970000;16660000000;17160000000
2268;16730971000;16660000000;17160000000
2269;16772364000;16701311111;17201311111
2270;16772376000;16701311111;17201311111
2271;16772378000;16701311111;17201311111
2272;16772379000;16701311111;17201311111
2273;16772380000;16701311111;17201311111
2274;16772381000;16701311111;17201311111
2275;16772382000;16701311111;17201311111
2276;16772597000;16701333333;17201333333
2277;16772600000;16701655555;17201655555
2278;16772601000;16701655555;17201655555
2279;16772602000;16701655555;17201655555
2280;16813954000;16742977777;17242977777
2281;16813957000;16742977777;17242977777
2282;16813958000;16742977777;17242977777
2283;16813959000;16742977777;17242977777
2284;16813970000;16742977777;17242977777
2285;16813971000;16742977777;17242977777
2286;16813972000;16742977777;17242977777
2287;16814109000;16743000000;17243000000
2288;16814112000;16743344444;17243344444
2289;16814113000;16743344444;17243344444
2290;16814114000;16743344444;17243344444
2291;16855595000;16784622222;17284622222
2292;16855598000;16784622222;17284622222
2293;16855600000;16784622222;17284622222
2294;16855610000;16784622222;17284622222
2295;16855611000;16784622222;17284622222
2296;16855612000;16784622222;17284622222
2297;16855613000;16784622222;17284622222
2298;16855749000;16784644444;17284644444
2299;16855751000;16784955555;17284955555
2300;16855753000;16784955555;17284955555
2301;16855754000;16784955555;17284955555
2302;16897310000;16826333333;17326333333
2303;16897312000;16826333333;17326333333
2304;16897314000;16826333333;17326333333
2305;16897315000;16826333333;17326333333
2306;16897316000;16826333333;17326333333
2307;16897327000;16826333333;17326333333
2308;16897328000;16826333333;17326333333
2309;16897463000;16826355555;17326355555
2310;16897466000;16826666666;17326666666
2311;16897467000;16826666666;17326666666
2312;16897468000;16826666666;17326666666
2313;16938973000;16868000000;17368000000
2314;16938976000;16868000000;17368000000
2315;16938977000;16868000000;17368000000
2316;16938988000;16868000000;17368000000
2317;16938989000;16868000000;17368000000
2318;16938990000;16868000000;17368000000
2319;16938991000;16868000000;17368000000
2320;16939135000;16868022222;17368022222
2321;16939137000;16868311111;17368311111
2322;16939139000;16868311111;17368311111
2323;16939140000;16868311111;17368311111
2324;16980640000;16909666666;17409666666
2325;16980643000;16909666666;17409666666
2326;16980644000;16909666666;17409666666
2327;16980645000;16909666666;17409666666
2328;16980656000;16909666666;17409666666
2329;16980657000;16909666666;17409666666
2330;16980658000;16909666666;17409666666
2331;16980793000;16909688888;17409688888
2332;16980795000;16910022222;17410022222
2333;16980797000;16910022222;17410022222
2334;16980798000;16910022222;17410022222
2335;17022369000;16951333333;17451333333
2336;17022373000;16951333333;17451333333
2337;17022374000;16951333333;17451333333
2338;17022375000;16951333333;17451333333
2339;17022376000;16951333333;17451333333
2340;17022378000;16951333333;17451333333
2341;17022379000;16951333333;17451333333
2342;17022582000;16951355555;17451355555
2343;17022598000;16951677777;17451677777
2344;17022600000;16951677777;17451677777
2345;17022601000;16951677777;17451677777
2346;17064104000;16993000000;17493000000
2347;17064118000;16993000000;17493000000
2348;17064122000;16993000000;17493000000
2349;17064125000;16993000000;17493000000
2350;17064128000;16993000000;17493000000
2351;17064131000;16993000000;17493000000
2352;17064134000;16993000000;17493000000
2353;17064343000;16993022222;17493022222
2354;17064347000;16993333333;17493333333
2355;17064349000;16993333333;17493333333
2356;17064350000;16993333333;17493333333
2357;17105776000;17034655555;17534655555
2358;17105782000;17034655555;17534655555
2359;17105784000;17034655555;17534655555
2360;17105786000;17034655555;17534655555
2361;17105787000;17034655555;17534655555
2362;17105789000;17034655555;17534655555
2363;17105791000;17034655555;17534655555
2364;17105937000;17034666666;17534666666
2365;17105941000;17035000000;17535000000
2366;17105942000;17035000000;17535000000
2367;17105958000;17035000000;17535000000
2368;17147350000;17076288888;17576288888
2369;17147354000;17076288888;17576288888
2370;17147356000;17076288888;17576288888
2371;17147358000;17076288888;17576288888
2372;17147359000;17076288888;17576288888
2373;17147361000;17076288888;17576288888
2374;17147362000;17076288888;17576288888
2375;17147578000;17076311111;17576311111
2376;17147582000;17076611111;17576611111
2377;17147583000;17076611111;17576611111
2378;17147584000;17076611111;17576611111
2379;17189010000;17117955555;17617955555
2380;17189022000;17117955555;17617955555
2381;17189023000;17117955555;17617955555
2382;17189024000;17117955555;17617955555
2383;17189026000;17117955555;17617955555
2384;17189027000;17117955555;17617955555
2385;17189028000;17117955555;17617955555
2386;17189225000;17117977777;17617977777
2387;17189228000;17118255555;17618255555
2388;17189229000;17118255555;17618255555
2389;17189231000;17118255555;17618255555
2390;17230695000;17159666666;17659666666
2391;17230698000;17159666666;17659666666
2392;17230699000;17159666666;17659666666
2393;17230701000;17159666666;17659666666
2394;17230702000;17159666666;17659666666
2395;17230703000;17159666666;17659666666
2396;17230704000;17159666666;17659666666
2397;17230914000;17159677777;17659677777
2398;17230917000;17160011111;17660011111
2399;17230918000;17160011111;17660011111
2400;17230919000;17160011111;17660011111
2401;17272387000;17201333333;17701333333
2402;17272399000;17201333333;17701333333
2403;17272400000;17201333333;17701333333
2404;17272401000;17201333333;17701333333
2405;17272402000;17201333333;17701333333
2406;17272404000;17201333333;17701333333
2407;17272405000;17201333333;17701333333
2408;17272612000;17201355555;17701355555
2409;17272615000;17201655555;17701655555
2410;17272616000;17201655555;17701655555
2411;17272617000;17201655555;17701655555
2412;17314062000;17243000000;17743000000
2413;17314074000;17243000000;17743000000
2414;17314075000;17243000000;17743000000
2415;17314076000;17243000000;17743000000
2416;17314078000;17243000000;17743000000
2417;17314079000;17243000000;17743000000
2418;17314080000;17243000000;17743000000
2419;17314292000;17243011111;17743011111
2420;17314295000;17243322222;17743322222
2421;17314297000;17243322222;17743322222
2422;17314298000;17243322222;17743322222
2423;17355722000;17284666666;17784666666
2424;17355734000;17284666666;17784666666
2425;17355735000;17284666666;17784666666
2426;17355736000;17284666666;17784666666
2427;17355737000;17284666666;17784666666
2428;17355738000;17284666666;17784666666
2429;17355739000;17284666666;17784666666
2430;17355957000;17284677777;17784677777
2431;17355960000;17285000000;17785000000
2432;17355961000;17285000000;17785000000
2433;17355963000;17285000000;17785000000
2434;17397335000;17326322222;17826322222
2435;17397338000;17326322222;17826322222
2436;17397339000;17326322222;17826322222
2437;17397340000;17326322222;17826322222
2438;17397341000;17326322222;17826322222
2439;17397342000;17326322222;17826322222
2440;17397343000;17326322222;17826322222
2441;17397555000;17326333333;17826333333
2442;17397558000;17326644444;17826644444
2443;17397559000;17326644444;17826644444
2444;17397560000;17326644444;17826644444
2445;17439010000;17367955555;17867955555
2446;17439022000;17367955555;17867955555
2447;17439023000;17367955555;17867955555
2448;17439025000;17367955555;17867955555
2449;17439026000;17367955555;17867955555
2450;17439027000;17367955555;17867955555
2451;17439028000;17367955555;17867955555
2452;17439221000;17367977777;17867977777
2453;17439224000;17368266666;17868266666
2454;17439226000;17368266666;17868266666
2455;17439227000;17368266666;17868266666
2456;17472617000;17409655555;17909655555
