seqnum;now;rtptime;deadline
1;3344717000;3261377777;3761377777
3;3387034000;3292600000;3792600000
14;3425961000;3334222222;3834222222
15;3425981000;3334222222;3834222222
16;3425983000;3334222222;3834222222
17;3425987000;3334222222;3834222222
18;3425989000;3334222222;3834222222
19;3425992000;3334222222;3834222222
20;3425994000;3334222222;3834222222
21;3426180000;3334300000;3834300000
22;3426186000;3334700000;3834700000
23;3426188000;3334700000;3834700000
24;3426190000;3334700000;3834700000
25;3467405000;3375888888;3875888888
26;3467415000;3375888888;3875888888
27;3467417000;3375888888;3875888888
28;3467418000;3375888888;3875888888
29;3467420000;3375888888;3875888888
30;3467421000;3375888888;3875888888
31;3467422000;3375888888;3875888888
32;3467648000;3375977777;3875977777
33;3467665000;3376333333;3876333333
34;3467667000;3376333333;3876333333
35;3467668000;3376333333;3876333333
36;3508535000;3417566666;3917566666
37;3508546000;3417566666;3917566666
38;3508547000;3417566666;3917566666
39;3508549000;3417566666;3917566666
40;3508551000;3417566666;3917566666
41;3508552000;3417566666;3917566666
42;3508554000;3417566666;3917566666
43;3508808000;3417655555;3917655555
44;3508826000;3418022222;3918022222
45;3508828000;3418022222;3918022222
46;3508830000;3418022222;3918022222
47;3549183000;3459288888;3959288888
48;3549205000;3459288888;3959288888
49;3549207000;3459288888;3959288888
50;3549209000;3459288888;3959288888
51;3549211000;3459288888;3959288888
52;3549212000;3459288888;3959288888
53;3549214000;3459288888;3959288888
54;3549466000;3459366666;3959366666
55;3549484000;3459700000;3959700000
56;3549486000;3459700000;3959700000
57;3549487000;3459700000;3959700000
58;3589565000;3500888888;4000888888
59;3589575000;3500888888;4000888888
60;3589576000;3500888888;4000888888
61;3589578000;3500888888;4000888888
62;3589579000;3500888888;4000888888
63;3589581000;3500888888;4000888888
64;3589583000;3500888888;4000888888
65;3589807000;3500966666;4000966666
66;3589823000;3501300000;4001300000
67;3589825000;3501300000;4001300000
68;3589826000;3501300000;4001300000
69;3628340000;3542555555;4042555555
70;3628344000;3542555555;4042555555
71;3628345000;3542555555;4042555555
72;3628346000;3542555555;4042555555
73;3628348000;3542555555;4042555555
74;3628349000;3542555555;4042555555
75;3628351000;3542555555;4042555555
76;3628551000;3542633333;4042633333
77;3628566000;3542977777;4042977777
78;3628567000;3542977777;4042977777
79;3628569000;3542977777;4042977777
80;3667196000;3584222222;4084222222
81;3667199000;3584222222;4084222222
82;3667200000;3584222222;4084222222
83;3667202000;3584222222;4084222222
84;3667202000;3584222222;4084222222
85;3667204000;3584222222;4084222222
86;3667205000;3584222222;4084222222
87;3667412000;3584300000;4084300000
88;3667419000;3584644444;4084644444
89;3667420000;3584644444;4084644444
90;3667421000;3584644444;4084644444
91;3705708000;3625900000;4125900000
92;3705727000;3625900000;4125900000
93;3705729000;3625900000;4125900000
94;3705731000;3625900000;4125900000
95;3705732000;3625900000;4125900000
96;3705734000;3625900000;4125900000
97;3705735000;3625900000;4125900000
98;3705971000;3625988888;4125988888
99;3705988000;3626388888;4126388888
100;3705990000;3626388888;4126388888
101;3705991000;3626388888;4126388888
102;3742189000;3667588888;4167588888
103;3742193000;3667588888;4167588888
104;3742194000;3667588888;4167588888
105;3742195000;3667588888;4167588888
106;3742197000;3667588888;4167588888
107;3742198000;3667588888;4167588888
108;3742199000;3667588888;4167588888
109;3742398000;3667666666;4167666666
110;3742413000;3667944444;4167944444
111;3742415000;3667944444;4167944444
112;3742416000;3667944444;4167944444
113;3780746000;3709222222;4209222222
114;3780749000;3709222222;4209222222
115;3780750000;3709222222;4209222222
116;3780751000;3709222222;4209222222
117;3780753000;3709222222;4209222222
118;3780754000;3709222222;4209222222
119;3780755000;3709222222;4209222222
120;3780961000;3709300000;4209300000
121;3780977000;3709600000;4209600000
122;3780978000;3709600000;4209600000
123;3780979000;3709600000;4209600000
124;3819595000;3750911111;4250911111
125;3819611000;3750911111;4250911111
126;3819612000;3750911111;4250911111
127;3819613000;3750911111;4250911111
128;3819614000;3750911111;4250911111
129;3819615000;3750911111;4250911111
130;3819616000;3750911111;4250911111
131;3819816000;3751000000;4251000000
132;3819831000;3751322222;4251322222
133;3819832000;3751322222;4251322222
134;3819833000;3751322222;4251322222
135;3858769000;3792555555;4292555555
136;3858773000;3792555555;4292555555
137;3858774000;3792555555;4292555555
138;3858775000;3792555555;4292555555
139;3858776000;3792555555;4292555555
140;3858777000;3792555555;4292555555
141;3858778000;3792555555;4292555555
142;3858984000;3792644444;4292644444
143;3859000000;3792922222;4292922222
144;3859001000;3792922222;4292922222
145;3859002000;3792922222;4292922222
146;3898454000;3834222222;4334222222
147;3898458000;3834222222;4334222222
148;3898459000;3834222222;4334222222
149;3898460000;3834222222;4334222222
150;3898461000;3834222222;4334222222
151;3898462000;3834222222;4334222222
152;3898463000;3834222222;4334222222
153;3898671000;3834300000;4334300000
154;3898686000;3834644444;4334644444
155;3898688000;3834644444;4334644444
156;3898689000;3834644444;4334644444
157;3938581000;3875911111;4375911111
158;3938585000;3875911111;4375911111
159;3938586000;3875911111;4375911111
160;3938587000;3875911111;4375911111
161;3938588000;3875911111;4375911111
162;3938589000;3875911111;4375911111
163;3938590000;3875911111;4375911111
164;3938725000;3876000000;4376000000
165;3938728000;3876333333;4376333333
166;3938729000;3876333333;4376333333
167;3938730000;3876333333;4376333333
168;4081885000;3917555555;4417555555
190;4157826000;4000900000;4500900000
208;4242155000;4042633333;4542633333
234;4242171000;4167588888;4667588888
235;4242172000;4167588888;4667588888
236;4242173000;4167588888;4667588888
237;4242174000;4167588888;4667588888
238;4242175000;4167588888;4667588888
239;4242176000;4167588888;4667588888
240;4242177000;4167588888;4667588888
241;4364854000;4167666666;4667666666
267;4364858000;4292555555;4792555555
268;4364859000;4292555555;4792555555
269;4364860000;4292555555;4792555555
270;4364861000;4292555555;4792555555
271;4364863000;4292555555;4792555555
272;4364863000;4292555555;4792555555
273;4364864000;4292555555;4792555555
274;4451893000;4292633333;4792633333
289;4451900000;4375888888;4875888888
290;4451901000;4375888888;4875888888
291;4451902000;4375888888;4875888888
292;4451903000;4375888888;4875888888
293;4451904000;4375888888;4875888888
294;4451905000;4375888888;4875888888
295;4451906000;4375888888;4875888888
296;4506034000;4375966666;4875966666
300;4506038000;4417588888;4917588888
301;4506039000;4417588888;4917588888
302;4506040000;4417588888;4917588888
303;4506041000;4417588888;4917588888
304;4506048000;4417588888;4917588888
305;4506049000;4417588888;4917588888
306;4506060000;4417588888;4917588888
307;4529003000;4417666666;4917666666
311;4529019000;4459244444;4959244444
312;4529020000;4459244444;4959244444
313;4529021000;4459244444;4959244444
314;4529022000;4459244444;4959244444
315;4529023000;4459244444;4959244444
316;4529024000;4459244444;4959244444
317;4529025000;4459244444;4959244444
318;4555706000;4459333333;4959333333
322;4555711000;4500888888;5000888888
323;4555712000;4500888888;5000888888
324;4555713000;4500888888;5000888888
325;4555714000;4500888888;5000888888
326;4555715000;4500888888;5000888888
327;4555716000;4500888888;5000888888
328;4555726000;4500888888;5000888888
329;4584957000;4500966666;5000966666
330;4584972000;4501288888;5001288888
331;4584973000;4501288888;5001288888
332;4584974000;4501288888;5001288888
333;4617999000;4542555555;5042555555
334;4618003000;4542555555;5042555555
335;4618004000;4542555555;5042555555
336;4618005000;4542555555;5042555555
337;4618006000;4542555555;5042555555
338;4618007000;4542555555;5042555555
339;4618008000;4542555555;5042555555
340;4618212000;4542633333;5042633333
341;4618227000;4542911111;5042911111
342;4618229000;4542911111;5042911111
343;4618230000;4542911111;5042911111
344;4653497000;4584222222;5084222222
345;4653500000;4584222222;5084222222
346;4653501000;4584222222;5084222222
347;4653511000;4584222222;5084222222
348;4653512000;4584222222;5084222222
349;4653513000;4584222222;5084222222
350;4653514000;4584222222;5084222222
351;4653719000;4584300000;5084300000
352;4653735000;4584633333;5084633333
353;4653736000;4584633333;5084633333
354;4653737000;4584633333;5084633333
355;4690286000;4625888888;5125888888
356;4690289000;4625888888;5125888888
357;4690290000;4625888888;5125888888
358;4690291000;4625888888;5125888888
359;4690292000;4625888888;5125888888
360;4690293000;4625888888;5125888888
361;4690294000;4625888888;5125888888
362;4690472000;4625966666;5125966666
363;4690476000;4626277777;5126277777
364;4690477000;4626277777;5126277777
365;4690478000;4626277777;5126277777
366;4729817000;4667588888;5167588888
367;4729821000;4667588888;5167588888
368;4729822000;4667588888;5167588888
369;4729832000;4667588888;5167588888
370;4729833000;4667588888;5167588888
371;4729834000;4667588888;5167588888
372;4729836000;4667588888;5167588888
373;4729998000;4667666666;5167666666
374;4730001000;4667933333;5167933333
375;4730002000;4667933333;5167933333
376;4730003000;4667933333;5167933333
377;4770588000;4709233333;5209233333
378;4770592000;4709233333;5209233333
379;4770593000;4709233333;5209233333
380;4770594000;4709233333;5209233333
381;4770595000;4709233333;5209233333
382;4770596000;4709233333;5209233333
383;4770597000;4709233333;5209233333
384;4770804000;4709311111;5209311111
385;4770806000;4709611111;5209611111
386;4770807000;4709611111;5209611111
387;4770818000;4709611111;5209611111
388;4811722000;4750911111;5250911111
389;4811725000;4750911111;5250911111
390;4811726000;4750911111;5250911111
391;4811727000;4750911111;5250911111
392;4811728000;4750911111;5250911111
393;4811729000;4750911111;5250911111
394;4811730000;4750911111;5250911111
395;4811857000;4751000000;5251000000
396;4811861000;4751311111;5251311111
397;4811863000;4751311111;5251311111
398;4811864000;4751311111;5251311111
399;4852946000;4792555555;5292555555
400;4852950000;4792555555;5292555555
401;4852951000;4792555555;5292555555
402;4852952000;4792555555;5292555555
403;4852953000;4792555555;5292555555
404;4852954000;4792555555;5292555555
405;4852955000;4792555555;5292555555
406;4853166000;4792644444;5292644444
407;4853182000;4792977777;5292977777
408;4853183000;4792977777;5292977777
409;4853184000;4792977777;5292977777
410;4957005000;4834222222;5334222222
421;4999262000;4875933333;5375933333
432;5037902000;4917555555;5417555555
443;5077279000;4959222222;5459222222
454;5205129000;5000900000;5500900000
487;5297759000;5125911111;5625911111
509;5353301000;5209233333;5709233333
531;5397760000;5292588888;5792588888
542;5537761000;5334222222;5834222222
575;5630915000;5459255555;5959255555
597;5677305000;5542600000;6042600000
608;5703912000;5584222222;6084222222
619;5729346000;5625888888;6125888888
630;5758663000;5667588888;6167588888
631;5758667000;5667588888;6167588888
632;5758668000;5667588888;6167588888
633;5758669000;5667588888;6167588888
634;5758670000;5667588888;6167588888
635;5758671000;5667588888;6167588888
636;5758672000;5667588888;6167588888
637;5758873000;5667666666;6167666666
638;5758888000;5667944444;6167944444
639;5758889000;5667944444;6167944444
640;5758890000;5667944444;6167944444
641;5790040000;5709222222;6209222222
642;5790055000;5709222222;6209222222
643;5790056000;5709222222;6209222222
644;5790057000;5709222222;6209222222
645;5790067000;5709222222;6209222222
646;5790068000;5709222222;6209222222
647;5790069000;5709222222;6209222222
648;5790240000;5709300000;6209300000
649;5790244000;5709611111;6209611111
650;5790246000;5709611111;6209611111
651;5790247000;5709611111;6209611111
652;5822619000;5750900000;6250900000
653;5822622000;5750900000;6250900000
654;5822623000;5750900000;6250900000
655;5822624000;5750900000;6250900000
656;5822625000;5750900000;6250900000
657;5822626000;5750900000;6250900000
658;5822627000;5750900000;6250900000
659;5822826000;5750977777;6250977777
660;5822841000;5751322222;6251322222
661;5822843000;5751322222;6251322222
662;5822844000;5751322222;6251322222
663;5859076000;5792555555;6292555555
664;5859099000;5792555555;6292555555
665;5859100000;5792555555;6292555555
666;5859101000;5792555555;6292555555
667;5859102000;5792555555;6292555555
668;5859103000;5792555555;6292555555
669;5859104000;5792555555;6292555555
670;5859311000;5792677777;6292677777
671;5859326000;5792955555;6292955555
672;5859327000;5792955555;6292955555
673;5859328000;5792955555;6292955555
674;5897694000;5834255555;6334255555
675;5897698000;5834255555;6334255555
676;5897699000;5834255555;6334255555
677;5897700000;5834255555;6334255555
678;5897701000;5834255555;6334255555
679;5897702000;5834255555;6334255555
680;5897703000;5834255555;6334255555
681;5897910000;5834333333;6334333333
682;5897926000;5834655555;6334655555
683;5897927000;5834655555;6334655555
684;5897928000;5834655555;6334655555
685;5998030000;5875888888;6375888888
696;6038631000;5917555555;6417555555
707;6079018000;5959222222;6459222222
718;6116857000;6000888888;6500888888
729;6156615000;6042555555;6542555555
740;6192771000;6084222222;6584222222
751;6289859000;6125888888;6625888888
773;6366056000;6209222222;6709222222
795;6431179000;6292555555;6792555555
817;6573515000;6375911111;6875911111
850;6660606000;6500888888;7000888888
872;6710743000;6584222222;7084222222
884;6737847000;6625888888;7125888888
894;6766587000;6667588888;7167588888
905;6873442000;6709233333;7209233333
927;6950725000;6792555555;7292555555
949;7019230000;6875922222;7375922222
971;7081728000;6959255555;7459255555
982;7112012000;7000888888;7500888888
993;7141362000;7042566666;7542566666
1004;7171968000;7084222222;7584222222
1005;7171972000;7084222222;7584222222
1006;7171973000;7084222222;7584222222
1007;7171974000;7084222222;7584222222
1008;7171975000;7084222222;7584222222
1009;7171976000;7084222222;7584222222
1010;7171977000;7084222222;7584222222
1011;7172191000;7084300000;7584300000
1012;7172206000;7084633333;7584633333
1013;7172208000;7084633333;7584633333
1014;7172209000;7084633333;7584633333
1015;7203252000;7125888888;7625888888
1016;7203255000;7125888888;7625888888
1017;7203256000;7125888888;7625888888
1018;7203257000;7125888888;7625888888
1019;7203258000;7125888888;7625888888
1020;7203259000;7125888888;7625888888
1021;7203260000;7125888888;7625888888
1022;7203459000;7125966666;7625966666
1023;7203475000;7126311111;7626311111
1024;7203476000;7126311111;7626311111
1025;7203477000;7126311111;7626311111
1026;7238734000;7167555555;7667555555
1027;7238738000;7167555555;7667555555
1028;7238739000;7167555555;7667555555
1029;7238740000;7167555555;7667555555
1030;7238741000;7167555555;7667555555
1031;7238742000;7167555555;7667555555
1032;7238743000;7167555555;7667555555
1033;7238949000;7167633333;7667633333
1034;7238965000;7167966666;7667966666
1035;7238966000;7167966666;7667966666
1036;7238967000;7167966666;7667966666
1037;7275983000;7209233333;7709233333
1038;7275986000;7209233333;7709233333
1039;7275987000;7209233333;7709233333
1040;7275989000;7209233333;7709233333
1041;7275990000;7209233333;7709233333
1042;7275991000;7209233333;7709233333
1043;7275992000;7209233333;7709233333
1044;7276204000;7209311111;7709311111
1045;7276220000;7209666666;7709666666
1046;7276221000;7209666666;7709666666
1047;7276222000;7209666666;7709666666
1048;7373570000;7250911111;7750911111
1059;7414256000;7292555555;7792555555
1070;7454255000;7334222222;7834222222
1081;7493636000;7375911111;7875911111
1092;7531871000;7417555555;7917555555
1103;7568372000;7459300000;7959300000
1114;7604486000;7500888888;8000888888
1125;7638932000;7542588888;8042588888
1136;7673392000;7584222222;8084222222
1137;7673395000;7584222222;8084222222
1138;7673396000;7584222222;8084222222
1139;7673397000;7584222222;8084222222
1140;7673398000;7584222222;8084222222
1141;7673399000;7584222222;8084222222
1142;7673400000;7584222222;8084222222
1143;7673598000;7584300000;8084300000
1144;7673614000;7584611111;8084611111
1145;7673615000;7584611111;8084611111
1146;7673616000;7584611111;8084611111
1147;7707186000;7625900000;8125900000
1148;7707189000;7625900000;8125900000
1149;7707190000;7625900000;8125900000
1150;7707191000;7625900000;8125900000
1151;7707192000;7625900000;8125900000
1152;7707201000;7625900000;8125900000
1153;7707202000;7625900000;8125900000
1154;7707403000;7625977777;8125977777
1155;7707418000;7626311111;8126311111
1156;7707419000;7626311111;8126311111
1157;7707420000;7626311111;8126311111
1158;7743272000;7667588888;8167588888
1159;7743276000;7667588888;8167588888
1160;7743277000;7667588888;8167588888
1161;7743278000;7667588888;8167588888
1162;7743279000;7667588888;8167588888
1163;7743279000;7667588888;8167588888
1164;7743280000;7667588888;8167588888
1165;7743488000;7667666666;8167666666
1166;7743493000;7667944444;8167944444
1167;7743494000;7667944444;8167944444
1168;7743495000;7667944444;8167944444
1169;7831589000;7709222222;8209222222
1180;7872529000;7750933333;8250933333
1191;7911793000;7792555555;8292555555
1202;7952133000;7834222222;8334222222
1213;7989427000;7875911111;8375911111
1224;8025499000;7917555555;8417555555
1235;8061852000;7959244444;8459244444
1246;8096443000;8000888888;8500888888
1257;8131778000;8042555555;8542555555
1258;8131782000;8042555555;8542555555
1259;8131783000;8042555555;8542555555
1260;8131784000;8042555555;8542555555
1261;8131785000;8042555555;8542555555
1262;8131786000;8042555555;8542555555
1263;8131787000;8042555555;8542555555
1264;8131993000;8042633333;8542633333
1265;8132008000;8042900000;8542900000
1266;8132010000;8042900000;8542900000
1267;8132011000;8042900000;8542900000
1268;8248236000;8084300000;8584300000
1290;8324314000;8167600000;8667600000
1312;8392270000;8250888888;8750888888
1334;8454444000;8334222222;8834222222
1347;8485553000;8375911111;8875911111
1356;8515188000;8417555555;8917555555
1367;8623725000;8459255555;8959255555
1389;8699668000;8542555555;9042555555
1411;8769629000;8625911111;9125911111
1433;8831686000;8709222222;9209222222
1444;8857632000;8750911111;9250911111
1455;8889240000;8792555555;9292555555
1466;8921413000;8834222222;9334222222
1467;8921416000;8834222222;9334222222
1468;8921417000;8834222222;9334222222
1469;8921418000;8834222222;9334222222
1470;8921419000;8834222222;9334222222
1471;8921420000;8834222222;9334222222
1472;8921421000;8834222222;9334222222
1473;8921620000;8834300000;9334300000
1474;8921635000;8834633333;9334633333
1475;8921636000;8834633333;9334633333
1476;8921637000;8834633333;9334633333
1477;8952619000;8875888888;9375888888
1478;8952622000;8875888888;9375888888
1479;8952623000;8875888888;9375888888
1480;8952624000;8875888888;9375888888
1481;8952625000;8875888888;9375888888
1482;8952626000;8875888888;9375888888
1483;8952627000;8875888888;9375888888
1484;8952788000;8875966666;9375966666
1485;8952792000;8876322222;9376322222
1486;8952793000;8876322222;9376322222
1487;8952794000;8876322222;9376322222
1488;8986926000;8917555555;9417555555
1489;8986929000;8917555555;9417555555
1490;8986930000;8917555555;9417555555
1491;8986931000;8917555555;9417555555
1492;8986932000;8917555555;9417555555
1493;8986932000;8917555555;9417555555
1494;8986933000;8917555555;9417555555
1495;8987052000;8917633333;9417633333
1496;8987057000;8917977777;9417977777
1497;8987058000;8917977777;9417977777
1498;8987059000;8917977777;9417977777
1499;9024209000;8959222222;9459222222
1500;9024213000;8959222222;9459222222
1501;9024214000;8959222222;9459222222
1502;9024215000;8959222222;9459222222
1503;9024216000;8959222222;9459222222
1504;9024217000;8959222222;9459222222
1505;9024217000;8959222222;9459222222
1506;9024330000;8959300000;9459300000
1507;9024333000;8959600000;9459600000
1508;9024333000;8959600000;9459600000
1509;9024334000;8959600000;9459600000
1510;9063831000;9000888888;9500888888
1511;9063834000;9000888888;9500888888
1512;9063836000;9000888888;9500888888
1513;9063837000;9000888888;9500888888
1514;9063838000;9000888888;9500888888
1515;9063839000;9000888888;9500888888
1516;9063840000;9000888888;9500888888
1517;9064038000;9000966666;9500966666
1518;9064053000;9001277777;9501277777
1519;9064054000;9001277777;9501277777
1520;9064055000;9001277777;9501277777
1521;9104244000;9042588888;9542588888
1522;9104247000;9042588888;9542588888
1523;9104248000;9042588888;9542588888
1524;9104250000;9042588888;9542588888
1525;9104250000;9042588888;9542588888
1526;9104259000;9042588888;9542588888
1527;9104260000;9042588888;9542588888
1528;9104459000;9042666666;9542666666
1529;9104474000;9042944444;9542944444
1530;9104475000;9042944444;9542944444
1531;9104476000;9042944444;9542944444
1532;9145178000;9084222222;9584222222
1533;9145180000;9084222222;9584222222
1534;9145181000;9084222222;9584222222
1535;9145182000;9084222222;9584222222
1536;9145183000;9084222222;9584222222
1537;9145184000;9084222222;9584222222
1538;9145185000;9084222222;9584222222
1539;9145332000;9084300000;9584300000
1540;9145334000;9084622222;9584622222
1541;9145335000;9084622222;9584622222
1542;9145336000;9084622222;9584622222
1543;9186419000;9125888888;9625888888
1544;9186422000;9125888888;9625888888
1545;9186423000;9125888888;9625888888
1546;9186424000;9125888888;9625888888
1547;9186425000;9125888888;9625888888
1548;9186426000;9125888888;9625888888
1549;9186427000;9125888888;9625888888
1550;9186617000;9125966666;9625966666
1551;9186623000;9126277777;9626277777
1552;9186625000;9126277777;9626277777
1553;9186625000;9126277777;9626277777
1554;9228180000;9167577777;9667577777
1555;9228183000;9167577777;9667577777
1556;9228184000;9167577777;9667577777
1557;9228185000;9167577777;9667577777
1558;9228186000;9167577777;9667577777
1559;9228187000;9167577777;9667577777
1560;9228188000;9167577777;9667577777
1561;9228401000;9167666666;9667666666
1562;9228416000;9167988888;9667988888
1563;9228418000;9167988888;9667988888
1564;9228419000;9167988888;9667988888
1565;9269768000;9209222222;9709222222
1566;9269771000;9209222222;9709222222
1567;9269772000;9209222222;9709222222
1568;9269773000;9209222222;9709222222
1569;9269774000;9209222222;9709222222
1570;9269775000;9209222222;9709222222
1571;9269776000;9209222222;9709222222
1572;9269976000;9209300000;9709300000
1573;9269991000;9209622222;9709622222
1574;9269992000;9209622222;9709622222
1575;9269993000;9209622222;9709622222
1576;9373641000;9250911111;9750911111
1587;9414593000;9292555555;9792555555
1598;9454487000;9334222222;9834222222
1609;9493893000;9375922222;9875922222
1620;9532150000;9417555555;9917555555
1631;9568541000;9459255555;9959255555
1642;9604072000;9500888888;10000888888
1653;9639542000;9542555555;10042555555
1664;9673848000;9584222222;10084222222
1665;9673851000;9584222222;10084222222
1666;9673852000;9584222222;10084222222
1667;9673853000;9584222222;10084222222
1668;9673854000;9584222222;10084222222
1669;9673855000;9584222222;10084222222
1670;9673856000;9584222222;10084222222
1671;9674063000;9584300000;10084300000
1672;9674069000;9584622222;10084622222
1673;9674071000;9584622222;10084622222
1674;9674072000;9584622222;10084622222
1675;9709162000;9625888888;10125888888
1676;9709166000;9625888888;10125888888
1677;9709167000;9625888888;10125888888
1678;9709168000;9625888888;10125888888
1679;9709169000;9625888888;10125888888
1680;9709170000;9625888888;10125888888
1681;9709171000;9625888888;10125888888
1682;9709377000;9625966666;10125966666
1683;9709393000;9626322222;10126322222
1684;9709394000;9626322222;10126322222
1685;9709395000;9626322222;10126322222
1686;9744237000;9667588888;10167588888
1687;9744241000;9667588888;10167588888
1688;9744242000;9667588888;10167588888
1689;9744243000;9667588888;10167588888
1690;9744244000;9667588888;10167588888
1691;9744245000;9667588888;10167588888
1692;9744245000;9667588888;10167588888
1693;9744445000;9667666666;10167666666
1694;9744460000;9667955555;10167955555
1695;9744461000;9667955555;10167955555
1696;9744462000;9667955555;10167955555
1697;9779509000;9709222222;10209222222
1698;9779513000;9709222222;10209222222
1699;9779514000;9709222222;10209222222
1700;9779515000;9709222222;10209222222
1701;9779516000;9709222222;10209222222
1702;9779517000;9709222222;10209222222
1703;9779518000;9709222222;10209222222
1704;9779662000;9709300000;10209300000
1705;9779664000;9709622222;10209622222
1706;9779665000;9709622222;10209622222
1707;9779666000;9709622222;10209622222
1708;9817193000;9750933333;10250933333
1709;9817196000;9750933333;10250933333
1710;9817198000;9750933333;10250933333
1711;9817198000;9750933333;10250933333
1712;9817207000;9750933333;10250933333
1713;9817208000;9750933333;10250933333
1714;9817209000;9750933333;10250933333
1715;9817381000;9751022222;10251022222
1716;9817385000;9751355555;10251355555
1717;9817386000;9751355555;10251355555
1718;9817387000;9751355555;10251355555
1719;9856134000;9792555555;10292555555
1720;9856137000;9792555555;10292555555
1721;9856138000;9792555555;10292555555
1722;9856139000;9792555555;10292555555
1723;9856140000;9792555555;10292555555
1724;9856141000;9792555555;10292555555
1725;9856142000;9792555555;10292555555
1726;9856341000;9792633333;10292633333
1727;9856356000;9792933333;10292933333
1728;9856357000;9792933333;10292933333
1729;9856358000;9792933333;10292933333
1730;9896138000;9834222222;10334222222
1731;9896142000;9834222222;10334222222
1732;9896143000;9834222222;10334222222
1733;9896144000;9834222222;10334222222
1734;9896144000;9834222222;10334222222
1735;9896145000;9834222222;10334222222
1736;9896146000;9834222222;10334222222
1737;9896365000;9834300000;10334300000
1738;9896371000;9834633333;10334633333
1739;9896373000;9834633333;10334633333
1740;9896374000;9834633333;10334633333
1741;9937215000;9875922222;10375922222
1742;9937218000;9875922222;10375922222
1743;9937219000;9875922222;10375922222
1744;9937220000;9875922222;10375922222
1745;9937221000;9875922222;10375922222
1746;9937222000;9875922222;10375922222
1747;9937223000;9875922222;10375922222
1748;9937438000;9876000000;10376000000
1749;9937441000;9876344444;10376344444
1750;9937442000;9876344444;10376344444
1751;9937443000;9876344444;10376344444
1752;9978336000;9917555555;10417555555
1753;9978339000;9917555555;10417555555
1754;9978340000;9917555555;10417555555
1755;9978341000;9917555555;10417555555
1756;9978342000;9917555555;10417555555
1757;9978343000;9917555555;10417555555
1758;9978344000;9917555555;10417555555
1759;9978556000;9917633333;10417633333
1760;9978559000;9917966666;10417966666
1761;9978560000;9917966666;10417966666
1762;9978561000;9917966666;10417966666
1763;10081797000;9959255555;10459255555
1774;10121670000;10000888888;10500888888
1785;10162193000;10042566666;10542566666
1796;10201627000;10084222222;10584222222
1807;10239891000;10125888888;10625888888
1818;10371877000;10167555555;10667555555
1851;10471872000;10292555555;10792555555
1884;10549682000;10417555555;10917555555
1895;10570175000;10459244444;10959244444
1906;10598810000;10500888888;11000888888
1917;10629078000;10542555555;11042555555
1918;10629091000;10542555555;11042555555
1919;10629092000;10542555555;11042555555
1920;10629093000;10542555555;11042555555
1921;10629093000;10542555555;11042555555
1922;10629095000;10542555555;11042555555
1923;10629096000;10542555555;11042555555
1924;10629233000;10542633333;11042633333
1925;10629235000;10542911111;11042911111
1926;10629236000;10542911111;11042911111
1927;10629237000;10542911111;11042911111
1928;10748618000;10584222222;11084222222
1952;10825293000;10667577777;11167577777
1972;10894388000;10750888888;11250888888
1994;10954749000;10834222222;11334222222
2005;10984217000;10875888888;11375888888
2016;11011629000;10917555555;11417555555
2027;11041490000;10959244444;11459244444
2028;11041493000;10959244444;11459244444
2029;11041494000;10959244444;11459244444
2030;11041495000;10959244444;11459244444
2031;11041496000;10959244444;11459244444
2032;11041497000;10959244444;11459244444
2033;11041498000;10959244444;11459244444
2034;11045749000;10959333333;11459333333
2035;11045764000;10959611111;11459611111
2036;11045765000;10959611111;11459611111
2037;11045766000;10959611111;11459611111
2038;11078156000;11000888888;11500888888
2039;11078159000;11000888888;11500888888
2040;11078170000;11000888888;11500888888
2041;11078171000;11000888888;11500888888
2042;11078172000;11000888888;11500888888
2043;11078173000;11000888888;11500888888
2044;11078174000;11000888888;11500888888
2045;11078312000;11000966666;11500966666
2046;11078315000;11001266666;11501266666
2047;11078316000;11001266666;11501266666
2048;11078317000;11001266666;11501266666
2049;11206402000;11042555555;11542555555
2071;11282860000;11125888888;11625888888
2093;11408159000;11209222222;11709222222
2126;11498967000;11334222222;11834222222
2148;11548187000;11417555555;11917555555
2159;11574439000;11459244444;11959244444
2170;11600295000;11500888888;12000888888
2181;11625982000;11542566666;12042566666
2182;11625986000;11542566666;12042566666
2183;11625987000;11542566666;12042566666
2184;11625988000;11542566666;12042566666
2185;11625989000;11542566666;12042566666
2186;11625990000;11542566666;12042566666
2187;11625991000;11542566666;12042566666
2188;11626153000;11542655555;12042655555
2189;11626159000;11542966666;12042966666
2190;11626161000;11542966666;12042966666
2191;11626162000;11542966666;12042966666
2192;11658178000;11584222222;12084222222
2193;11658182000;11584222222;12084222222
2194;11658183000;11584222222;12084222222
2195;11658184000;11584222222;12084222222
2196;11658185000;11584222222;12084222222
2197;11658186000;11584222222;12084222222
2198;11658187000;11584222222;12084222222
2199;11658342000;11584300000;12084300000
2200;11658348000;11584655555;12084655555
2201;11658349000;11584655555;12084655555
2202;11658350000;11584655555;12084655555
2203;11694189000;11625888888;12125888888
2204;11694193000;11625888888;12125888888
2205;11694194000;11625888888;12125888888
2206;11694195000;11625888888;12125888888
2207;11694196000;11625888888;12125888888
2208;11694197000;11625888888;12125888888
2209;11694198000;11625888888;12125888888
2210;11694353000;11625966666;12125966666
2211;11694359000;11626311111;12126311111
2212;11694361000;11626311111;12126311111
2213;11694362000;11626311111;12126311111
2214;11790612000;11667577777;12167577777
2225;11831327000;11709222222;12209222222
2236;11871126000;11750911111;12250911111
2247;11910441000;11792555555;12292555555
2259;11948638000;11834222222;12334222222
2269;12040164000;11875922222;12375922222
2291;12203574000;11959255555;12459255555
2335;12297247000;12125888888;12625888888
2357;12330317000;12209266666;12709266666
2368;12356066000;12250922222;12750922222
2379;12380084000;12292555555;12792555555
2380;12380087000;12292555555;12792555555
2381;12380088000;12292555555;12792555555
2382;12380099000;12292555555;12792555555
2383;12380101000;12292555555;12792555555
2384;12380102000;12292555555;12792555555
2385;12380104000;12292555555;12792555555
2386;12380250000;12292633333;12792633333
2387;12380253000;12292944444;12792944444
2388;12380255000;12292944444;12792944444
2389;12380257000;12292944444;12792944444
2390;12411910000;12334222222;12834222222
2391;12411913000;12334222222;12834222222
2392;12411914000;12334222222;12834222222
2393;12411915000;12334222222;12834222222
2394;12411916000;12334222222;12834222222
2395;12411917000;12334222222;12834222222
2396;12411918000;12334222222;12834222222
2397;12412133000;12334300000;12834300000
2398;12412148000;12334633333;12834633333
2399;12412150000;12334633333;12834633333
2400;12412151000;12334633333;12834633333
2401;12498531000;12375922222;12875922222
2412;12539569000;12417555555;12917555555
2423;12579894000;12459222222;12959222222
2434;12618834000;12500888888;13000888888
2445;12656137000;12542555555;13042555555
2456;12692622000;12584222222;13084222222
2467;12728063000;12625888888;13125888888
2478;12764662000;12667566666;13167566666
2489;12798005000;12709222222;13209222222
2490;12798008000;12709222222;13209222222
2491;12798009000;12709222222;13209222222
2492;12798010000;12709222222;13209222222
2493;12798011000;12709222222;13209222222
2494;12798012000;12709222222;13209222222
2495;12798013000;12709222222;13209222222
2496;12798212000;12709300000;13209300000
2497;12798228000;12709633333;13209633333
2498;12798229000;12709633333;13209633333
2499;12798230000;12709633333;13209633333
2500;12833542000;12750911111;13250911111
2501;12833545000;12750911111;13250911111
2502;12833546000;12750911111;13250911111
2503;12833547000;12750911111;13250911111
2504;12833548000;12750911111;13250911111
2505;12833549000;12750911111;13250911111
2506;12833550000;12750911111;13250911111
2507;12833722000;12751000000;13251000000
2508;12833728000;12751333333;13251333333
2509;12833729000;12751333333;13251333333
2510;12833730000;12751333333;13251333333
2511;12868463000;12792555555;13292555555
2512;12868485000;12792555555;13292555555
2513;12868486000;12792555555;13292555555
2514;12868488000;12792555555;13292555555
2515;12868489000;12792555555;13292555555
2516;12868491000;12792555555;13292555555
2517;12868493000;12792555555;13292555555
2518;12868642000;12792633333;13292633333
2519;12868645000;12792944444;13292944444
2520;12868647000;12792944444;13292944444
2521;12868648000;12792944444;13292944444
2522;12956410000;12834233333;13334233333
2533;12997210000;12875911111;13375911111
2544;13037201000;12917566666;13417566666
2555;13076003000;12959222222;13459222222
2566;13114318000;13000888888;13500888888
2577;13151407000;13042555555;13542555555
2588;13187734000;13084222222;13584222222
2599;13222245000;13125888888;13625888888
2610;13257448000;13167555555;13667555555
2611;13257452000;13167555555;13667555555
2612;13257453000;13167555555;13667555555
2613;13257454000;13167555555;13667555555
2614;13257455000;13167555555;13667555555
2615;13257456000;13167555555;13667555555
2616;13257456000;13167555555;13667555555
2617;13257656000;13167633333;13667633333
2618;13257671000;13167944444;13667944444
2619;13257672000;13167944444;13667944444
2620;13257673000;13167944444;13667944444
2621;13292671000;13209222222;13709222222
2622;13292674000;13209222222;13709222222
2623;13292675000;13209222222;13709222222
2624;13292676000;13209222222;13709222222
2625;13292677000;13209222222;13709222222
2626;13292678000;13209222222;13709222222
2627;13292679000;13209222222;13709222222
2628;13292879000;13209300000;13709300000
2629;13292894000;13209644444;13709644444
2630;13292895000;13209644444;13709644444
2631;13292896000;13209644444;13709644444
2632;13455650000;13250911111;13750911111
2665;13551594000;13375888888;13875888888
2687;13603075000;13459222222;13959222222
2709;13649778000;13542555555;14042555555
2720;13677899000;13584222222;14084222222
2729;13677988000;13584600000;14084600000
2730;13677990000;13584600000;14084600000
2731;13709655000;13625888888;14125888888
2732;13709669000;13625888888;14125888888
2733;13709670000;13625888888;14125888888
2734;13709672000;13625888888;14125888888
2735;13709673000;13625888888;14125888888
2736;13709675000;13625888888;14125888888
2737;13709676000;13625888888;14125888888
2738;13709824000;13625966666;14125966666
2739;13709827000;13626288888;14126288888
2740;13709829000;13626288888;14126288888
2741;13709830000;13626288888;14126288888
2742;13740157000;13667577777;14167577777
2743;13740170000;13667577777;14167577777
2744;13740172000;13667577777;14167577777
2745;13740173000;13667577777;14167577777
2746;13740175000;13667577777;14167577777
2747;13740176000;13667577777;14167577777
2748;13740178000;13667577777;14167577777
2749;13740325000;13667666666;14167666666
2750;13740328000;13667933333;14167933333
2751;13740330000;13667933333;14167933333
2752;13740331000;13667933333;14167933333
2753;13776840000;13709222222;14209222222
2754;13776853000;13709222222;14209222222
2755;13776855000;13709222222;14209222222
2756;13776856000;13709222222;14209222222
2757;13776857000;13709222222;14209222222
2758;13776859000;13709222222;14209222222
2759;13776860000;13709222222;14209222222
2760;13777008000;13709300000;14209300000
2761;13777012000;13709588888;14209588888
2762;13777014000;13709588888;14209588888
2763;13777015000;13709588888;14209588888
2764;13815135000;13750911111;14250911111
2765;13815148000;13750911111;14250911111
2766;13815150000;13750911111;14250911111
2767;13815151000;13750911111;14250911111
2768;13815153000;13750911111;14250911111
2769;13815154000;13750911111;14250911111
2770;13815156000;13750911111;14250911111
2771;13815303000;13751000000;14251000000
2772;13815307000;13751311111;14251311111
2773;13815308000;13751311111;14251311111
2774;13815310000;13751311111;14251311111
2775;13915093000;13792555555;14292555555
2786;13955816000;13834222222;14334222222
2797;13996139000;13875888888;14375888888
2808;14035465000;13917555555;14417555555
2819;14073778000;13959244444;14459244444
2830;14110838000;14000900000;14500900000
2841;14146960000;14042555555;14542555555
2852;14181404000;14084222222;14584222222
2863;14215592000;14125922222;14625922222
2864;14215604000;14125922222;14625922222
2865;14215605000;14125922222;14625922222
2866;14215606000;14125922222;14625922222
2867;14215607000;14125922222;14625922222
2868;14215608000;14125922222;14625922222
2869;14215608000;14125922222;14625922222
2870;14215795000;14126000000;14626000000
2871;14215811000;14126322222;14626322222
2872;14215813000;14126322222;14626322222
2873;14215813000;14126322222;14626322222
2874;14251809000;14167555555;14667555555
2875;14251813000;14167555555;14667555555
2876;14251814000;14167555555;14667555555
2877;14251815000;14167555555;14667555555
2878;14251816000;14167555555;14667555555
2879;14251817000;14167555555;14667555555
2880;14251818000;14167555555;14667555555
2881;14252016000;14167633333;14667633333
2882;14252032000;14167922222;14667922222
2883;14252033000;14167922222;14667922222
2884;14252034000;14167922222;14667922222
2885;14288126000;14209222222;14709222222
2886;14288129000;14209222222;14709222222
2887;14288130000;14209222222;14709222222
2888;14288132000;14209222222;14709222222
2889;14288133000;14209222222;14709222222
2890;14288134000;14209222222;14709222222
2891;14288134000;14209222222;14709222222
2892;14288332000;14209300000;14709300000
2893;14288348000;14209611111;14709611111
2894;14288349000;14209611111;14709611111
2895;14288350000;14209611111;14709611111
2896;14415204000;14250888888;14750888888
2918;14492298000;14334222222;14834222222
2940;14561077000;14417555555;14917555555
2962;14700534000;14500888888;15000888888
2995;14790009000;14625888888;15125888888
3017;14839078000;14709222222;15209222222
3028;14865581000;14750911111;15250911111
3039;14893011000;14792555555;15292555555
3050;14920690000;14834222222;15334222222
3051;14920694000;14834222222;15334222222
3052;14920695000;14834222222;15334222222
3053;14920696000;14834222222;15334222222
3054;14920697000;14834222222;15334222222
3055;14920698000;14834222222;15334222222
3056;14920699000;14834222222;15334222222
3057;14920898000;14834300000;15334300000
3058;14920904000;14834611111;15334611111
3059;14920905000;14834611111;15334611111
3060;14920906000;14834611111;15334611111
3061;14952929000;14875922222;15375922222
3062;14952932000;14875922222;15375922222
3063;14952933000;14875922222;15375922222
3064;14952935000;14875922222;15375922222
3065;14952936000;14875922222;15375922222
3066;14952936000;14875922222;15375922222
3067;14952937000;14875922222;15375922222
3068;14953100000;14876000000;15376000000
3069;14953107000;14876311111;15376311111
3070;14953108000;14876311111;15376311111
3071;14953109000;14876311111;15376311111
3072;15082062000;14917555555;15417555555
3094;15158984000;15000888888;15500888888
3116;15227304000;15084222222;15584222222
3138;15286789000;15167555555;15667555555
3149;15317733000;15209222222;15709222222
3160;15348964000;15250888888;15750888888
3171;15380843000;15292555555;15792555555
3172;15380846000;15292555555;15792555555
3173;15380857000;15292555555;15792555555
3174;15380858000;15292555555;15792555555
3175;15380859000;15292555555;15792555555
3176;15380860000;15292555555;15792555555
3177;15380861000;15292555555;15792555555
3178;15381003000;15292633333;15792633333
3179;15381006000;15292900000;15792900000
3180;15381007000;15292900000;15792900000
3181;15381008000;15292900000;15792900000
3182;15413768000;15334222222;15834222222
3183;15413771000;15334222222;15834222222
3184;15413772000;15334222222;15834222222
3185;15413773000;15334222222;15834222222
3186;15413774000;15334222222;15834222222
3187;15413775000;15334222222;15834222222
3188;15413776000;15334222222;15834222222
3189;15413983000;15334300000;15834300000
3190;15413998000;15334611111;15834611111
3191;15413999000;15334611111;15834611111
3192;15414000000;15334611111;15834611111
3193;15448453000;15375911111;15875911111
3194;15448456000;15375911111;15875911111
3195;15448457000;15375911111;15875911111
3196;15448458000;15375911111;15875911111
3197;15448459000;15375911111;15875911111
3198;15448460000;15375911111;15875911111
3199;15448461000;15375911111;15875911111
3200;15448668000;15376000000;15876000000
3201;15448683000;15376300000;15876300000
3202;15448684000;15376300000;15876300000
3203;15448693000;15376300000;15876300000
3204;15485077000;15417555555;15917555555
3205;15485091000;15417555555;15917555555
3206;15485092000;15417555555;15917555555
3207;15485094000;15417555555;15917555555
3208;15485095000;15417555555;15917555555
3209;15485097000;15417555555;15917555555
3210;15485098000;15417555555;15917555555
3211;15485253000;15417633333;15917633333
3212;15485256000;15417922222;15917922222
3213;15485258000;15417922222;15917922222
3214;15485260000;15417922222;15917922222
3215;15581468000;15459222222;15959222222
3226;15622096000;15500933333;16000933333
3237;15662260000;15542566666;16042566666
3248;15701533000;15584222222;16084222222
3259;15739830000;15625888888;16125888888
3270;15872060000;15667555555;16167555555
3303;15974070000;15792555555;16292555555
3336;16048257000;15917566666;16417566666
3347;16074396000;15959244444;16459244444
3358;16100272000;16000900000;16500900000
3369;16126284000;16042555555;16542555555
3370;16126297000;16042555555;16542555555
3371;16126298000;16042555555;16542555555
3372;16126299000;16042555555;16542555555
3373;16126300000;16042555555;16542555555
3374;16126301000;16042555555;16542555555
3375;16126302000;16042555555;16542555555
3376;16126467000;16042644444;16542644444
3377;16126469000;16042944444;16542944444
3378;16126471000;16042944444;16542944444
3379;16126472000;16042944444;16542944444
3380;16157777000;16084222222;16584222222
3381;16157781000;16084222222;16584222222
3382;16157782000;16084222222;16584222222
3383;16157793000;16084222222;16584222222
3384;16157794000;16084222222;16584222222
3385;16157795000;16084222222;16584222222
3386;16157796000;16084222222;16584222222
3387;16157883000;16084300000;16584300000
3388;16157886000;16084622222;16584622222
3389;16157887000;16084622222;16584622222
3390;16157888000;16084622222;16584622222
3391;16248364000;16125888888;16625888888
3402;16288604000;16167588888;16667588888
3413;16329209000;16209222222;16709222222
3424;16368422000;16250944444;16750944444
3435;16406110000;16292555555;16792555555
3446;16443296000;16334222222;16834222222
3457;16479377000;16375922222;16875922222
3468;16514883000;16417555555;16917555555
3479;16549904000;16459222222;16959222222
3480;16549908000;16459222222;16959222222
3481;16549909000;16459222222;16959222222
3482;16549910000;16459222222;16959222222
3483;16549911000;16459222222;16959222222
3484;16549912000;16459222222;16959222222
3485;16549913000;16459222222;16959222222
3486;16550120000;16459300000;16959300000
3487;16550136000;16459633333;16959633333
3488;16550137000;16459633333;16959633333
3489;16550138000;16459633333;16959633333
3490;16583272000;16500888888;17000888888
3491;16583275000;16500888888;17000888888
3492;16583276000;16500888888;17000888888
3493;16583277000;16500888888;17000888888
3494;16583278000;16500888888;17000888888
3495;16583279000;16500888888;17000888888
3496;16583280000;16500888888;17000888888
3497;16583471000;16500966666;17000966666
3498;16583477000;16501288888;17001288888
3499;16583478000;16501288888;17001288888
3500;16583479000;16501288888;17001288888
3501;16618509000;16542555555;17042555555
3502;16618513000;16542555555;17042555555
3503;16618514000;16542555555;17042555555
3504;16618515000;16542555555;17042555555
3505;16618516000;16542555555;17042555555
3506;16618517000;16542555555;17042555555
3507;16618518000;16542555555;17042555555
3508;16618715000;16542633333;17042633333
3509;16618721000;16542922222;17042922222
3510;16618722000;16542922222;17042922222
3511;16618723000;16542922222;17042922222
3512;16748261000;16584222222;17084222222
3536;16824817000;16667588888;17167588888
3556;16893171000;16750911111;17250911111
3578;16954617000;16834233333;17334233333
3589;16981062000;16875922222;17375922222
3600;17012947000;16917555555;17417555555
3611;17045491000;16959255555;17459255555
3612;17045494000;16959255555;17459255555
3613;17045495000;16959255555;17459255555
3614;17045496000;16959255555;17459255555
3615;17045498000;16959255555;17459255555
3616;17045498000;16959255555;17459255555
3617;17045500000;16959255555;17459255555
3618;17045699000;16959333333;17459333333
3619;17045723000;16959633333;17459633333
3620;17045724000;16959633333;17459633333
3621;17045725000;16959633333;17459633333
3622;17078889000;17000888888;17500888888
3623;17078893000;17000888888;17500888888
3624;17078894000;17000888888;17500888888
3625;17078895000;17000888888;17500888888
3626;17078896000;17000888888;17500888888
3627;17078897000;17000888888;17500888888
3628;17078898000;17000888888;17500888888
3629;17079106000;17000966666;17500966666
3630;17079122000;17001277777;17501277777
3631;17079123000;17001277777;17501277777
3632;17079125000;17001277777;17501277777
3633;17114128000;17042555555;17542555555
3634;17114131000;17042555555;17542555555
3635;17114133000;17042555555;17542555555
3636;17114134000;17042555555;17542555555
3637;17114135000;17042555555;17542555555
3638;17114136000;17042555555;17542555555
3639;17114137000;17042555555;17542555555
3640;17114344000;17042633333;17542633333
3641;17114360000;17042933333;17542933333
3642;17114361000;17042933333;17542933333
3643;17114362000;17042933333;17542933333
3644;17207109000;17084222222;17584222222
3655;17247847000;17125888888;17625888888
3666;17372532000;17167577777;17667577777
3699;17472717000;17292555555;17792555555
3732;17550957000;17417555555;17917555555
3743;17576497000;17459222222;17959222222
3754;17603441000;17500888888;18000888888
3765;17630771000;17542555555;18042555555
3766;17630774000;17542555555;18042555555
3767;17630776000;17542555555;18042555555
3768;17630777000;17542555555;18042555555
3769;17630778000;17542555555;18042555555
3770;17630779000;17542555555;18042555555
3771;17630780000;17542555555;18042555555
3772;17630987000;17542633333;18042633333
3773;17631002000;17542911111;18042911111
3774;17631003000;17542911111;18042911111
3775;17631004000;17542911111;18042911111
3776;17662255000;17584222222;18084222222
3777;17662259000;17584222222;18084222222
3778;17662260000;17584222222;18084222222
3779;17662261000;17584222222;18084222222
3780;17662262000;17584222222;18084222222
3781;17662263000;17584222222;18084222222
3782;17662264000;17584222222;18084222222
3783;17662419000;17584300000;18084300000
3784;17662426000;17584588888;18084588888
3785;17662427000;17584588888;18084588888
3786;17662428000;17584588888;18084588888
3787;17696694000;17625888888;18125888888
3788;17696698000;17625888888;18125888888
3789;17696699000;17625888888;18125888888
3790;17696700000;17625888888;18125888888
3791;17696701000;17625888888;18125888888
3792;17696702000;17625888888;18125888888
3793;17696703000;17625888888;18125888888
3794;17696858000;17625966666;18125966666
3795;17696865000;17626266666;18126266666
3796;17696866000;17626266666;18126266666
3797;17696867000;17626266666;18126266666
3798;17790593000;17667577777;18167577777
3809;17831304000;17709222222;18209222222
3820;17871219000;17750922222;18250922222
3831;17909963000;17792555555;18292555555
3842;17948248000;17834222222;18334222222
3853;17985415000;17875911111;18375911111
3864;18021523000;17917555555;18417555555
3875;18056187000;17959222222;18459222222
3886;18091224000;18000888888;18500888888
3887;18091227000;18000888888;18500888888
3888;18091228000;18000888888;18500888888
3889;18091229000;18000888888;18500888888
3890;18091230000;18000888888;18500888888
3891;18091231000;18000888888;18500888888
3892;18091232000;18000888888;18500888888
3893;18091388000;18000966666;18500966666
3894;18091394000;18001266666;18501266666
3895;18091396000;18001266666;18501266666
3896;18091397000;18001266666;18501266666
3897;18125419000;18042555555;18542555555
3898;18125423000;18042555555;18542555555
3899;18125424000;18042555555;18542555555
3900;18125425000;18042555555;18542555555
3901;18125426000;18042555555;18542555555
3902;18125427000;18042555555;18542555555
3903;18125428000;18042555555;18542555555
3904;18125584000;18042633333;18542633333
3905;18125590000;18042911111;18542911111
3906;18125591000;18042911111;18542911111
3907;18125592000;18042911111;18542911111
3908;18160278000;18084233333;18584233333
3909;18160282000;18084233333;18584233333
3910;18160283000;18084233333;18584233333
3911;18160284000;18084233333;18584233333
3912;18160285000;18084233333;18584233333
3913;18160294000;18084233333;18584233333
3914;18160295000;18084233333;18584233333
3915;18160471000;18084311111;18584311111
3916;18160477000;18084622222;18584622222
3917;18160478000;18084622222;18584622222
3918;18160479000;18084622222;18584622222
3919;18193744000;18125888888;18625888888
3920;18193748000;18125888888;18625888888
3921;18193749000;18125888888;18625888888
3922;18193750000;18125888888;18625888888
3923;18193751000;18125888888;18625888888
3924;18193752000;18125888888;18625888888
3925;18193753000;18125888888;18625888888
3926;18197031000;18125966666;18625966666
3927;18197053000;18126277777;18626277777
3928;18197054000;18126277777;18626277777
3929;18197055000;18126277777;18626277777
3930;18234296000;18167577777;18667577777
3931;18234300000;18167577777;18667577777
3932;18234301000;18167577777;18667577777
3933;18234302000;18167577777;18667577777
3934;18234303000;18167577777;18667577777
3935;18234304000;18167577777;18667577777
3936;18234305000;18167577777;18667577777
3937;18234461000;18167666666;18667666666
3938;18234467000;18167944444;18667944444
3939;18234468000;18167944444;18667944444
3940;18234469000;18167944444;18667944444
3941;18372877000;18209222222;18709222222
3963;18450024000;18292555555;18792555555
3985;18572268000;18375922222;18875922222
4018;18663502000;18500933333;19000933333
4040;18782242000;18584222222;19084222222
4073;18869789000;18709222222;19209222222
4095;18913436000;18792555555;19292555555
4106;18945429000;18834233333;19334233333
4117;18970783000;18875888888;19375888888
4128;18995848000;18917566666;19417566666
4129;18995852000;18917566666;19417566666
4130;18995853000;18917566666;19417566666
4131;18995854000;18917566666;19417566666
4132;18995855000;18917566666;19417566666
4133;18995856000;18917566666;19417566666
4134;18995857000;18917566666;19417566666
4135;19000193000;18917644444;19417644444
4136;19000210000;18917966666;19417966666
4137;19000211000;18917966666;19417966666
4138;19000212000;18917966666;19417966666
4139;19032707000;18959233333;19459233333
4140;19032711000;18959233333;19459233333
4141;19032712000;18959233333;19459233333
4142;19032713000;18959233333;19459233333
4143;19032714000;18959233333;19459233333
4144;19032715000;18959233333;19459233333
4145;19032716000;18959233333;19459233333
4146;19032923000;18959311111;19459311111
4147;19032939000;18959600000;19459600000
4148;19032940000;18959600000;19459600000
4149;19032941000;18959600000;19459600000
4150;19123942000;19000888888;19500888888
4161;19164711000;19042555555;19542555555
4172;19205020000;19084222222;19584222222
4183;19244147000;19125888888;19625888888
4194;19282059000;19167577777;19667577777
4205;19316980000;19209222222;19709222222
4216;19353304000;19250888888;19750888888
4227;19388902000;19292555555;19792555555
4238;19418120000;19334222222;19834222222
4239;19418123000;19334222222;19834222222
4240;19418124000;19334222222;19834222222
4241;19418125000;19334222222;19834222222
4242;19418126000;19334222222;19834222222
4243;19418127000;19334222222;19834222222
4244;19418128000;19334222222;19834222222
4245;19420151000;19334300000;19834300000
4246;19420167000;19334644444;19834644444
4247;19420168000;19334644444;19834644444
4248;19420169000;19334644444;19834644444
4249;19454760000;19375955555;19875955555
4250;19454763000;19375955555;19875955555
4251;19454765000;19375955555;19875955555
4252;19454766000;19375955555;19875955555
4253;19454766000;19375955555;19875955555
4254;19454768000;19375955555;19875955555
4255;19454768000;19375955555;19875955555
4256;19454969000;19376033333;19876033333
4257;19454984000;19376355555;19876355555
4258;19454985000;19376355555;19876355555
4259;19454986000;19376355555;19876355555
4260;19581699000;19417555555;19917555555
4282;19654862000;19500888888;20000888888
4304;19727204000;19584222222;20084222222
4326;19786246000;19667588888;20167588888
4337;19815932000;19709222222;20209222222
4348;19845216000;19750888888;20250888888
4359;19877105000;19792555555;20292555555
4360;19877108000;19792555555;20292555555
4361;19877109000;19792555555;20292555555
4362;19877109000;19792555555;20292555555
4363;19877110000;19792555555;20292555555
4364;19877127000;19792555555;20292555555
4365;19877128000;19792555555;20292555555
4366;19877264000;19792633333;20292633333
4367;19877267000;19792911111;20292911111
4368;19877268000;19792911111;20292911111
4369;19877269000;19792911111;20292911111
4370;19911341000;19834222222;20334222222
4371;19911345000;19834222222;20334222222
4372;19911356000;19834222222;20334222222
4373;19911357000;19834222222;20334222222
4374;19911358000;19834222222;20334222222
4375;19911359000;19834222222;20334222222
4376;19911359000;19834222222;20334222222
4377;19911501000;19834300000;20334300000
4378;19911503000;19834622222;20334622222
4379;19911504000;19834622222;20334622222
4380;19911505000;19834622222;20334622222
4381;19946889000;19875922222;20375922222
4382;19946893000;19875922222;20375922222
4383;19946895000;19875922222;20375922222
4384;19946896000;19875922222;20375922222
4385;19946897000;19875922222;20375922222
4386;19946898000;19875922222;20375922222
4387;19946899000;19875922222;20375922222
4388;19947106000;19876000000;20376000000
4389;19947122000;19876333333;20376333333
4390;19947123000;19876333333;20376333333
4391;19947124000;19876333333;20376333333
4392;19984259000;19917555555;20417555555
4393;19984262000;19917555555;20417555555
4394;19984263000;19917555555;20417555555
4395;19984264000;19917555555;20417555555
4396;19984265000;19917555555;20417555555
4397;19984266000;19917555555;20417555555
4398;19984267000;19917555555;20417555555
4399;19984438000;19917633333;20417633333
4400;19984442000;19917955555;20417955555
4401;19984443000;19917955555;20417955555
4402;19984444000;19917955555;20417955555
4403;20022619000;19959244444;20459244444
4404;20022622000;19959244444;20459244444
4405;20022623000;19959244444;20459244444
4406;20022624000;19959244444;20459244444
4407;20022625000;19959244444;20459244444
4408;20022626000;19959244444;20459244444
4409;20022627000;19959244444;20459244444
4410;20022826000;19959333333;20459333333
4411;20022842000;19959633333;20459633333
4412;20022843000;19959633333;20459633333
4413;20022844000;19959633333;20459633333
4414;20062760000;20000922222;20500922222
4415;20062764000;20000922222;20500922222
4416;20062765000;20000922222;20500922222
4417;20062766000;20000922222;20500922222
4418;20062766000;20000922222;20500922222
4419;20062768000;20000922222;20500922222
4420;20062768000;20000922222;20500922222
4421;20062988000;20001000000;20501000000
4422;20063003000;20001311111;20501311111
4423;20063004000;20001311111;20501311111
4424;20063005000;20001311111;20501311111
4425;20103624000;20042555555;20542555555
4426;20103628000;20042555555;20542555555
4427;20103629000;20042555555;20542555555
4428;20103630000;20042555555;20542555555
4429;20103631000;20042555555;20542555555
4430;20103632000;20042555555;20542555555
4431;20103633000;20042555555;20542555555
4432;20103825000;20042633333;20542633333
4433;20103828000;20042911111;20542911111
4434;20103829000;20042911111;20542911111
4435;20103830000;20042911111;20542911111
4436;20206848000;20084255555;20584255555
4447;20247942000;20125888888;20625888888
4458;20288156000;20167555555;20667555555
4461;20288159000;20167555555;20667555555
4471;20454859000;20209222222;20709222222
4513;20554116000;20375922222;20875922222
4546;20611151000;20500888888;21000888888
4557;20626343000;20542577777;21042577777
4558;20626346000;20542577777;21042577777
4559;20626347000;20542577777;21042577777
4560;20626348000;20542577777;21042577777
4561;20626349000;20542577777;21042577777
4562;20626350000;20542577777;21042577777
4563;20626351000;20542577777;21042577777
4564;20632053000;20542655555;21042655555
4565;20632059000;20542933333;21042933333
4566;20632060000;20542933333;21042933333
4567;20632061000;20542933333;21042933333
4568;20661707000;20584222222;21084222222
4569;20661711000;20584222222;21084222222
4570;20661712000;20584222222;21084222222
4571;20661713000;20584222222;21084222222
4572;20661714000;20584222222;21084222222
4573;20661715000;20584222222;21084222222
4574;20661716000;20584222222;21084222222
4575;20661921000;20584300000;21084300000
4576;20661937000;20584588888;21084588888
4577;20661938000;20584588888;21084588888
4578;20661947000;20584588888;21084588888
4579;20830463000;20625922222;21125922222
4612;20926877000;20750911111;21250911111
4634;20979705000;20834222222;21334222222
4656;21023883000;20917600000;21417600000
4667;21053635000;20959222222;21459222222
4678;21084937000;21000888888;21500888888
4679;21084941000;21000888888;21500888888
4680;21084942000;21000888888;21500888888
4681;21084943000;21000888888;21500888888
4682;21084944000;21000888888;21500888888
4683;21084945000;21000888888;21500888888
4684;21084946000;21000888888;21500888888
4685;21085159000;21000966666;21500966666
4686;21085175000;21001255555;21501255555
4687;21085176000;21001255555;21501255555
4688;21085177000;21001255555;21501255555
4689;21118034000;21042555555;21542555555
4690;21118038000;21042555555;21542555555
4691;21118039000;21042555555;21542555555
4692;21118040000;21042555555;21542555555
4693;21118041000;21042555555;21542555555
4694;21118046000;21042555555;21542555555
4695;21118057000;21042555555;21542555555
4696;21118308000;21042633333;21542633333
4697;21118323000;21042900000;21542900000
4698;21118325000;21042900000;21542900000
4699;21118326000;21042900000;21542900000
4700;21151271000;21084222222;21584222222
4701;21151275000;21084222222;21584222222
4702;21151276000;21084222222;21584222222
4703;21151277000;21084222222;21584222222
4704;21151278000;21084222222;21584222222
4705;21151279000;21084222222;21584222222
4706;21151280000;21084222222;21584222222
4707;21153492000;21084300000;21584300000
4708;21153507000;21084600000;21584600000
4709;21153508000;21084600000;21584600000
4710;21153509000;21084600000;21584600000
4711;21190777000;21125988888;21625988888
4712;21190781000;21125988888;21625988888
4713;21190782000;21125988888;21625988888
4714;21190783000;21125988888;21625988888
4715;21190784000;21125988888;21625988888
4716;21190785000;21125988888;21625988888
4717;21190786000;21125988888;21625988888
4718;21190992000;21126066666;21626066666
4719;21191007000;21126377777;21626377777
4720;21191008000;21126377777;21626377777
4721;21191009000;21126377777;21626377777
4722;21290080000;21167555555;21667555555
4733;21330802000;21209222222;21709222222
4744;21371159000;21250922222;21750922222
4755;21410176000;21292555555;21792555555
4762;21456988000;21292633333;21792633333
4777;21457003000;21375911111;21875911111
4778;21457004000;21375911111;21875911111
4779;21457005000;21375911111;21875911111
4780;21457006000;21375911111;21875911111
4781;21457007000;21375911111;21875911111
4782;21457008000;21375911111;21875911111
4783;21457009000;21375911111;21875911111
4784;21486107000;21376000000;21876000000
4788;21486123000;21417566666;21917566666
4789;21486124000;21417566666;21917566666
4790;21486125000;21417566666;21917566666
4791;21486126000;21417566666;21917566666
4792;21486127000;21417566666;21917566666
4793;21486128000;21417566666;21917566666
4794;21486129000;21417566666;21917566666
4795;21581686000;21417655555;21917655555
4810;21581702000;21500888888;22000888888
4811;21581703000;21500888888;22000888888
4812;21581704000;21500888888;22000888888
4813;21581705000;21500888888;22000888888
4814;21581706000;21500888888;22000888888
4815;21581707000;21500888888;22000888888
4816;21581708000;21500888888;22000888888
4817;21655081000;21500966666;22000966666
4832;21655096000;21584222222;22084222222
4833;21655098000;21584222222;22084222222
4834;21655099000;21584222222;22084222222
4835;21655100000;21584222222;22084222222
4836;21655101000;21584222222;22084222222
4837;21655102000;21584222222;22084222222
4838;21655103000;21584222222;22084222222
4839;21725443000;21584300000;22084300000
4854;21725459000;21667588888;22167588888
4855;21725460000;21667588888;22167588888
4856;21725461000;21667588888;22167588888
4857;21725462000;21667588888;22167588888
4858;21725462000;21667588888;22167588888
4859;21725463000;21667588888;22167588888
4860;21725464000;21667588888;22167588888
4861;21788153000;21667666666;22167666666
4865;21788169000;21709222222;22209222222
4866;21788170000;21709222222;22209222222
4867;21788171000;21709222222;22209222222
4868;21788172000;21709222222;22209222222
4869;21788173000;21709222222;22209222222
4870;21788182000;21709222222;22209222222
4871;21788183000;21709222222;22209222222
4872;21817565000;21709300000;22209300000
4876;21817581000;21750911111;22250911111
4877;21817583000;21750911111;22250911111
4878;21817583000;21750911111;22250911111
4879;21817585000;21750911111;22250911111
4880;21817585000;21750911111;22250911111
4881;21817586000;21750911111;22250911111
4882;21817588000;21750911111;22250911111
4883;21848825000;21751000000;22251000000
4887;21848832000;21792555555;22292555555
4888;21848833000;21792555555;22292555555
4889;21848834000;21792555555;22292555555
4890;21848835000;21792555555;22292555555
4891;21848836000;21792555555;22292555555
4892;21848837000;21792555555;22292555555
4893;21848838000;21792555555;22292555555
4894;21880659000;21792633333;22292633333
4895;21880674000;21792922222;22292922222
4896;21880675000;21792922222;22292922222
4897;21880676000;21792922222;22292922222
4898;21997718000;21834233333;22334233333
4920;22073971000;21917555555;22417555555
4942;22140691000;22000888888;22500888888
4964;22198413000;22084244444;22584244444
4975;22290293000;22125888888;22625888888
4997;22367362000;22209222222;22709222222
5019;22437182000;22292555555;22792555555
5041;22496469000;22375922222;22875922222
5052;22525890000;22417555555;22917555555
5063;22557158000;22459244444;22959244444
5074;22588967000;22500888888;23000888888
5075;22588971000;22500888888;23000888888
5076;22588972000;22500888888;23000888888
5077;22588973000;22500888888;23000888888
5078;22588974000;22500888888;23000888888
5079;22588975000;22500888888;23000888888
5080;22588976000;22500888888;23000888888
5081;22589194000;22500966666;23000966666
5082;22589197000;22501288888;23001288888
5083;22589198000;22501288888;23001288888
5084;22589199000;22501288888;23001288888
5085;22623073000;22542555555;23042555555
5086;22623086000;22542555555;23042555555
5087;22623087000;22542555555;23042555555
5088;22623088000;22542555555;23042555555
5089;22623089000;22542555555;23042555555
5090;22623090000;22542555555;23042555555
5091;22623091000;22542555555;23042555555
5092;22623298000;22542633333;23042633333
5093;22623313000;22542922222;23042922222
5094;22623315000;22542922222;23042922222
5095;22623316000;22542922222;23042922222
5096;22655014000;22584233333;23084233333
5097;22655017000;22584233333;23084233333
5098;22655019000;22584233333;23084233333
5099;22655020000;22584233333;23084233333
5100;22655021000;22584233333;23084233333
5101;22655022000;22584233333;23084233333
5102;22655023000;22584233333;23084233333
5103;22655189000;22584311111;23084311111
5104;22655192000;22584622222;23084622222
5105;22655193000;22584622222;23084622222
5106;22655194000;22584622222;23084622222
5107;22692315000;22625888888;23125888888
5108;22692319000;22625888888;23125888888
5109;22692320000;22625888888;23125888888
5110;22692321000;22625888888;23125888888
5111;22692322000;22625888888;23125888888
5112;22692323000;22625888888;23125888888
5113;22692324000;22625888888;23125888888
5114;22692530000;22625966666;23125966666
5115;22692545000;22626277777;23126277777
5116;22692546000;22626277777;23126277777
5117;22692547000;22626277777;23126277777
5118;22731309000;22667555555;23167555555
5119;22731322000;22667555555;23167555555
5120;22731323000;22667555555;23167555555
5121;22731324000;22667555555;23167555555
5122;22731325000;22667555555;23167555555
5123;22731326000;22667555555;23167555555
5124;22731328000;22667555555;23167555555
5125;22731541000;22667633333;23167633333
5126;22731556000;22667933333;23167933333
5127;22731558000;22667933333;23167933333
5128;22731559000;22667933333;23167933333
5129;22832268000;22709222222;23209222222
5140;22954850000;22750911111;23250911111
5173;23055441000;22875922222;23375922222
5206;23131721000;23000888888;23500888888
5217;23157849000;23042555555;23542555555
5228;23288687000;23084222222;23584222222
5261;23386525000;23209222222;23709222222
5289;23436371000;23292588888;23792588888
5305;23481260000;23375888888;23875888888
5316;23514430000;23417555555;23917555555
5327;23542226000;23459222222;23959222222
5328;23542229000;23459222222;23959222222
5329;23542230000;23459222222;23959222222
5330;23542242000;23459222222;23959222222
5331;23542243000;23459222222;23959222222
5332;23542244000;23459222222;23959222222
5333;23542245000;23459222222;23959222222
5334;23542451000;23459300000;23959300000
5335;23542466000;23459633333;23959633333
5336;23542468000;23459633333;23959633333
5337;23542469000;23459633333;23959633333
5338;23573744000;23500888888;24000888888
5339;23573748000;23500888888;24000888888
5340;23573749000;23500888888;24000888888
5341;23573750000;23500888888;24000888888
5342;23573751000;23500888888;24000888888
5343;23573752000;23500888888;24000888888
5344;23573753000;23500888888;24000888888
5345;23573919000;23500966666;24000966666
5346;23573922000;23501288888;24001288888
5347;23573923000;23501288888;24001288888
5348;23573924000;23501288888;24001288888
5349;23610312000;23542555555;24042555555
5350;23610315000;23542555555;24042555555
5351;23610316000;23542555555;24042555555
5352;23610317000;23542555555;24042555555
5353;23610318000;23542555555;24042555555
5354;23610319000;23542555555;24042555555
5355;23610320000;23542555555;24042555555
5356;23610527000;23542633333;24042633333
5357;23610543000;23542922222;24042922222
5358;23610544000;23542922222;24042922222
5359;23610545000;23542922222;24042922222
5360;23648639000;23584222222;24084222222
5361;23648643000;23584222222;24084222222
5362;23648644000;23584222222;24084222222
5363;23648645000;23584222222;24084222222
5364;23648646000;23584222222;24084222222
5365;23648647000;23584222222;24084222222
5366;23648648000;23584222222;24084222222
5367;23648854000;23584300000;24084300000
5368;23648869000;23584611111;24084611111
5369;23648870000;23584611111;24084611111
5370;23648871000;23584611111;24084611111
5371;23688292000;23625888888;24125888888
5372;23688296000;23625888888;24125888888
5373;23688306000;23625888888;24125888888
5374;23688308000;23625888888;24125888888
5375;23688309000;23625888888;24125888888
5376;23688310000;23625888888;24125888888
5377;23688311000;23625888888;24125888888
5378;23688435000;23625966666;24125966666
5379;23688440000;23626288888;24126288888
5380;23688441000;23626288888;24126288888
5381;23688442000;23626288888;24126288888
5382;23728780000;23667555555;24167555555
5383;23728784000;23667555555;24167555555
5384;23728785000;23667555555;24167555555
5385;23728786000;23667555555;24167555555
5386;23728787000;23667555555;24167555555
5387;23728788000;23667555555;24167555555
5388;23728789000;23667555555;24167555555
5389;23728979000;23667633333;24167633333
5390;23728995000;23667922222;24167922222
5391;23728996000;23667922222;24167922222
5392;23728997000;23667922222;24167922222
5393;23832147000;23709222222;24209222222
5404;23872905000;23750922222;24250922222
5415;23913064000;23792555555;24292555555
5426;23952563000;23834222222;24334222222
5437;24118301000;23875888888;24375888888
5481;24217718000;24042555555;24542555555
5482;24217721000;24042555555;24542555555
5483;24217722000;24042555555;24542555555
5484;24217723000;24042555555;24542555555
5485;24217725000;24042555555;24542555555
5486;24217726000;24042555555;24542555555
5487;24217727000;24042555555;24542555555
5488;24217882000;24042633333;24542633333
5489;24217888000;24042922222;24542922222
5490;24217889000;24042922222;24542922222
5491;24217890000;24042922222;24542922222
5492;24237025000;24084222222;24584222222
5493;24237029000;24084222222;24584222222
5494;24237030000;24084222222;24584222222
5495;24237031000;24084222222;24584222222
5496;24237032000;24084222222;24584222222
5497;24237033000;24084222222;24584222222
5498;24237034000;24084222222;24584222222
5499;24237195000;24084300000;24584300000
