seqnum;now;rtptime;deadline
1;12313619000;11323500000;11823500000
5;12394587000;11354388888;11854388888
14;12435956000;11396044444;11896044444
15;12435961000;11396044444;11896044444
16;12435964000;11396044444;11896044444
17;12435969000;11396044444;11896044444
18;12435970000;11396044444;11896044444
19;12435972000;11396044444;11896044444
20;12435973000;11396044444;11896044444
21;12436176000;11396066666;11896066666
22;12436191000;11396488888;11896488888
23;12436193000;11396488888;11896488888
24;12436194000;11396488888;11896488888
25;12477249000;11437711111;11937711111
26;12477253000;11437711111;11937711111
27;12477254000;11437711111;11937711111
28;12713708000;11437711111;11937711111
29;12713730000;11437711111;11937711111
30;12713737000;11437711111;11937711111
31;12713747000;11437711111;11937711111
32;12764222000;11437733333;11937733333
36;12764237000;11479377777;11979377777
37;12764238000;11479377777;11979377777
38;12764239000;11479377777;11979377777
39;12764240000;11479377777;11979377777
40;12764241000;11479377777;11979377777
41;12764242000;11479377777;11979377777
42;12764243000;11479377777;11979377777
43;12805940000;11479400000;11979400000
44;12805955000;11479744444;11979744444
45;12805956000;11479744444;11979744444
46;12805957000;11479744444;11979744444
47;12847312000;11521044444;12021044444
48;12847325000;11521044444;12021044444
49;12847326000;11521044444;12021044444
50;12847327000;11521044444;12021044444
51;12847328000;11521044444;12021044444
52;12847329000;11521044444;12021044444
53;12847330000;11521044444;12021044444
54;12847544000;11521066666;12021066666
55;12847559000;11521400000;12021400000
56;12847560000;11521400000;12021400000
57;12847561000;11521400000;12021400000
58;13164341000;11562711111;12062711111
69;13205964000;11604377777;12104377777
70;13205968000;11604377777;12104377777
71;13205969000;11604377777;12104377777
72;13205970000;11604377777;12104377777
73;13205971000;11604377777;12104377777
74;13205972000;11604377777;12104377777
75;13205973000;11604377777;12104377777
76;13247459000;11604400000;12104400000
77;13247474000;11604744444;12104744444
78;13247475000;11604744444;12104744444
79;13247476000;11604744444;12104744444
80;13285804000;11646055555;12146055555
81;13285807000;11646055555;12146055555
82;13285808000;11646055555;12146055555
83;13285809000;11646055555;12146055555
84;13285810000;11646055555;12146055555
85;13285811000;11646055555;12146055555
86;13285812000;11646055555;12146055555
87;13287832000;11646077777;12146077777
88;13287847000;11646466666;12146466666
89;13287848000;11646466666;12146466666
90;13514630000;11646466666;12146466666
91;13611006000;11687711111;12187711111
113;13689256000;11771044444;12271044444
114;13689265000;11771044444;12271044444
115;13689267000;11771044444;12271044444
116;13689269000;11771044444;12271044444
117;13689270000;11771044444;12271044444
118;13689272000;11771044444;12271044444
119;13689273000;11771044444;12271044444
120;13689498000;11771066666;12271066666
121;13689515000;11771388888;12271388888
122;13689516000;11771388888;12271388888
123;13689517000;11771388888;12271388888
124;13728300000;11812711111;12312711111
125;13914961000;11812711111;12312711111
126;13914974000;11812711111;12312711111
127;13914987000;11812711111;12312711111
128;13914993000;11812711111;12312711111
129;13915003000;11812711111;12312711111
130;13915029000;11812711111;12312711111
131;13965359000;11812733333;12312733333
146;13965362000;11896044444;12396044444
147;13965364000;11896044444;12396044444
148;13965365000;11896044444;12396044444
149;13965366000;11896044444;12396044444
150;13965366000;11896044444;12396044444
151;13965367000;11896044444;12396044444
152;13965368000;11896044444;12396044444
153;14089691000;11896066666;12396066666
154;14089706000;11896400000;12396400000
155;14089707000;11896400000;12396400000
156;14089708000;11896400000;12396400000
157;14128878000;11937711111;12437711111
158;14128881000;11937711111;12437711111
159;14128883000;11937711111;12437711111
160;14128884000;11937711111;12437711111
161;14128885000;11937711111;12437711111
162;14315273000;11937711111;12437711111
163;14315282000;11937711111;12437711111
164;14365758000;11937733333;12437733333
188;14365763000;12021377777;12521377777
189;14365764000;12021377777;12521377777
190;14530183000;12062711111;12562711111
191;14530201000;12062711111;12562711111
192;14530203000;12062711111;12562711111
193;14530204000;12062711111;12562711111
194;14530207000;12062711111;12562711111
196;14530225000;12062711111;12562711111
197;14530454000;12062733333;12562733333
198;14530469000;12063011111;12563011111
199;14530471000;12063011111;12563011111
200;14530472000;12063011111;12563011111
201;14567005000;12104377777;12604377777
202;14567008000;12104377777;12604377777
203;14567010000;12104377777;12604377777
204;14567011000;12104377777;12604377777
205;14567012000;12104377777;12604377777
206;14567014000;12104377777;12604377777
207;14715653000;12104377777;12604377777
208;14766142000;12104400000;12604400000
233;14766157000;12188033333;12688033333
238;15116318000;12229377777;12729377777
247;15116357000;12271044444;12771044444
251;15116360000;12271044444;12771044444
252;15116462000;12271066666;12771066666
256;15116468000;12312711111;12812711111
257;15116474000;12312711111;12812711111
258;15116488000;12312711111;12812711111
259;15116490000;12312711111;12812711111
260;15116492000;12312711111;12812711111
261;15116494000;12312711111;12812711111
262;15116495000;12312711111;12812711111
263;15166665000;12312733333;12812733333
279;15166681000;12396033333;12896033333
296;15516683000;12437744444;12937744444
307;15516722000;12479400000;12979400000
308;15516727000;12479677777;12979677777
310;15516738000;12479677777;12979677777
311;15516746000;12521055555;13021055555
312;15516748000;12521055555;13021055555
313;15516750000;12521055555;13021055555
314;15516752000;12521055555;13021055555
315;15516754000;12521055555;13021055555
316;15516756000;12521055555;13021055555
317;15516758000;12521055555;13021055555
318;15566949000;12521066666;13021066666
331;15566964000;12563033333;13063033333
360;15916987000;12687711111;13187711111
365;15917025000;12688011111;13188011111
366;15917034000;12729377777;13229377777
368;15917036000;12729377777;13229377777
369;15917038000;12729377777;13229377777
370;15917040000;12729377777;13229377777
371;15917058000;12729377777;13229377777
373;15917235000;12729400000;13229400000
377;15917242000;12771044444;13271044444
378;15917244000;12771044444;13271044444
379;15917246000;12771044444;13271044444
380;15917247000;12771044444;13271044444
381;15917249000;12771044444;13271044444
382;15917251000;12771044444;13271044444
383;15917252000;12771044444;13271044444
384;15967278000;12771066666;13271066666
394;15967293000;12812711111;13312711111
425;16317264000;12937711111;13437711111
436;16317301000;12979377777;13479377777
437;16317304000;12979377777;13479377777
438;16317321000;12979377777;13479377777
440;16317337000;12979688888;13479688888
442;16317339000;12979688888;13479688888
443;16317348000;13021044444;13521044444
444;16317350000;13021044444;13521044444
445;16317351000;13021044444;13521044444
446;16317352000;13021044444;13521044444
447;16317353000;13021044444;13521044444
448;16317354000;13021044444;13521044444
449;16317355000;13021044444;13521044444
450;16367546000;13021066666;13521066666
453;16367561000;13021366666;13521366666
496;16717550000;13188022222;13688022222
501;16717589000;13229377777;13729377777
503;16717592000;13229377777;13729377777
505;16717744000;13229400000;13729400000
508;16717760000;13229677777;13729677777
509;16717772000;13271044444;13771044444
510;16717773000;13271044444;13771044444
511;16717784000;13271044444;13771044444
512;16717785000;13271044444;13771044444
513;16717787000;13271044444;13771044444
514;16717789000;13271044444;13771044444
515;16717790000;13271044444;13771044444
516;16717985000;13271066666;13771066666
517;16717998000;13271400000;13771400000
519;16718001000;13271400000;13771400000
520;16809285000;13312711111;13812711111
1099;16932170000;15479366666;15979366666
1100;16932185000;15479622222;15979622222
1101;16932186000;15479622222;15979622222
1102;16932187000;15479622222;15979622222
1103;16969218000;15521011111;16021011111
1104;16969222000;15521011111;16021011111
1105;16969244000;15521011111;16021011111
1106;16969245000;15521011111;16021011111
1107;16969246000;15521011111;16021011111
1108;16969247000;15521011111;16021011111
1109;16969248000;15521011111;16021011111
1110;16969507000;15521033333;16021033333
1111;16969523000;15521366666;16021366666
1112;16969524000;15521366666;16021366666
1113;16969525000;15521366666;16021366666
1115;17003869000;15562677777;16062677777
1116;17003873000;15562677777;16062677777
1117;17003874000;15562677777;16062677777
1118;17003875000;15562677777;16062677777
1119;17003876000;15562677777;16062677777
1120;17003877000;15562677777;16062677777
1121;17004004000;15562700000;16062700000
1122;17004019000;15562977777;16062977777
1123;17117695000;15562977777;16062977777
1124;17117705000;15562977777;16062977777
1125;17209644000;15604366666;16104366666
1179;17369749000;15771366666;16271366666
1180;17403386000;15812711111;16312711111
1181;17403389000;15812711111;16312711111
1182;17403390000;15812711111;16312711111
1183;17403391000;15812711111;16312711111
1184;17403392000;15812711111;16312711111
1185;17403393000;15812711111;16312711111
1186;17403394000;15812711111;16312711111
1187;17403600000;15812733333;16312733333
1188;17403615000;15813011111;16313011111
1189;17403616000;15813011111;16313011111
1190;17403618000;15813011111;16313011111
1191;17433076000;15854377777;16354377777
1192;17433080000;15854377777;16354377777
1193;17433081000;15854377777;16354377777
1194;17433082000;15854377777;16354377777
1195;17433083000;15854377777;16354377777
1196;17433084000;15854377777;16354377777
1197;17433085000;15854377777;16354377777
1198;17433291000;15854400000;16354400000
1199;17433306000;15854666666;16354666666
1200;17433307000;15854666666;16354666666
1201;17433308000;15854666666;16354666666
1202;17568284000;15896044444;16396044444
1258;17770438000;16104366666;16604366666
1259;17770441000;16104366666;16604366666
1260;17770442000;16104366666;16604366666
1261;17770443000;16104366666;16604366666
1262;17770444000;16104366666;16604366666
1263;17770455000;16104366666;16604366666
1264;17770596000;16104388888;16604388888
1265;17770599000;16104688888;16604688888
1266;17770600000;16104688888;16604688888
1267;17770601000;16104688888;16604688888
1268;17803877000;16146055555;16646055555
1269;17803879000;16146055555;16646055555
1270;17803880000;16146055555;16646055555
1271;17803881000;16146055555;16646055555
1272;17803882000;16146055555;16646055555
1273;17803883000;16146055555;16646055555
1274;17803884000;16146055555;16646055555
1275;17804032000;16146066666;16646066666
1276;17804035000;16146388888;16646388888
1277;17804036000;16146388888;16646388888
1278;17804037000;16146388888;16646388888
1279;17833549000;16187711111;16687711111
1280;17833551000;16187711111;16687711111
1281;17918241000;16187711111;16687711111
1282;17918252000;16187711111;16687711111
1283;17918276000;16187711111;16687711111
1284;17918285000;16187711111;16687711111
1285;17918294000;16187711111;16687711111
1286;17968679000;16187733333;16687733333
1337;17968683000;16396033333;16896033333
1338;17968684000;16396033333;16896033333
1339;17968685000;16396033333;16896033333
1340;17968686000;16396033333;16896033333
1341;18170815000;16396055555;16896055555
1342;18170819000;16396377777;16896377777
1343;18170820000;16396377777;16896377777
1344;18170821000;16396377777;16896377777
1345;18204140000;16437688888;16937688888
1346;18204142000;16437688888;16937688888
1347;18204143000;16437688888;16937688888
1349;18205347000;16437688888;16937688888
1350;18205348000;16437688888;16937688888
1351;18205349000;16437688888;16937688888
1352;18205489000;16437711111;16937711111
1353;18205492000;16438000000;16938000000
1354;18205493000;16438000000;16938000000
1355;18205494000;16438000000;16938000000
1356;18233797000;16479344444;16979344444
1357;18233799000;16479344444;16979344444
1358;18233800000;16479344444;16979344444
1359;18233801000;16479344444;16979344444
1360;18233802000;16479344444;16979344444
1361;18318504000;16479344444;16979344444
1362;18318525000;16479344444;16979344444
1363;18368909000;16479366666;16979366666
1529;18368913000;17104677777;17604677777
1530;18368922000;17104677777;17604677777
1531;18368923000;17104677777;17604677777
1532;18791062000;17146033333;17646033333
1606;18791186000;17396388888;17896388888
1607;18791189000;17396388888;17896388888
1608;18791190000;17396388888;17896388888
1609;18791200000;17437711111;17937711111
1610;18791202000;17437711111;17937711111
1613;18791213000;17437711111;17937711111
1614;18791214000;17437711111;17937711111
1615;18791215000;17437711111;17937711111
1616;18791326000;17437733333;17937733333
1617;18791341000;17438011111;17938011111
1618;18791343000;17438011111;17938011111
1619;18791343000;17438011111;17938011111
1620;18791354000;17479377777;17979377777
1621;18791355000;17479377777;17979377777
1622;18791366000;17479377777;17979377777
1623;18791367000;17479377777;17979377777
1624;18791368000;17479377777;17979377777
1625;18791369000;17479377777;17979377777
1626;18791371000;17479377777;17979377777
1627;18791473000;17479400000;17979400000
1628;18791488000;17479677777;17979677777
1629;18791489000;17479677777;17979677777
1630;18791490000;17479677777;17979677777
1631;19169492000;17521033333;18021033333
1688;19371683000;17729355555;18229355555
1689;19371687000;17729355555;18229355555
1690;19371688000;17729355555;18229355555
1691;19371699000;17729355555;18229355555
1692;19371700000;17729355555;18229355555
1693;19371903000;17729377777;18229377777
1694;19371906000;17729644444;18229644444
1695;19371907000;17729644444;18229644444
1696;19371908000;17729644444;18229644444
1697;19405119000;17771044444;18271044444
1698;19405121000;17771044444;18271044444
1699;19405122000;17771044444;18271044444
1700;19405123000;17771044444;18271044444
1701;19405133000;17771044444;18271044444
1702;19405134000;17771044444;18271044444
1703;19405135000;17771044444;18271044444
1704;19405315000;17771066666;18271066666
1705;19405318000;17771377777;18271377777
1706;19405319000;17771377777;18271377777
1707;19405320000;17771377777;18271377777
1708;19434810000;17812711111;18312711111
1709;19434812000;17812711111;18312711111
1710;19434813000;17812711111;18312711111
1711;19519430000;17812711111;18312711111
1712;19519432000;17812711111;18312711111
1713;19519546000;17812711111;18312711111
1714;19519640000;17812711111;18312711111
1715;19570113000;17812733333;18312733333
1767;19570129000;18021033333;18521033333
1768;19570130000;18021033333;18521033333
1769;19570131000;18021033333;18521033333
1770;19772239000;18021055555;18521055555
1771;19772255000;18021377777;18521377777
1772;19772256000;18021377777;18521377777
1773;19772257000;18021377777;18521377777
1775;19806177000;18062700000;18562700000
1776;19806181000;18062700000;18562700000
1777;19806182000;18062700000;18562700000
1778;19806183000;18062700000;18562700000
1779;19806184000;18062700000;18562700000
1780;19806185000;18062700000;18562700000
1781;19806309000;18062722222;18562722222
1782;19806324000;18063011111;18563011111
1783;19806325000;18063011111;18563011111
1784;19806326000;18063011111;18563011111
1785;19835235000;18104366666;18604366666
1786;19835238000;18104366666;18604366666
1787;19835239000;18104366666;18604366666
1788;19835240000;18104366666;18604366666
1789;19835241000;18104366666;18604366666
1790;19835242000;18104366666;18604366666
1791;19919757000;18104366666;18604366666
1792;19970461000;18104388888;18604388888
2167;19970499000;19521444444;20021444444
2168;19970501000;19521444444;20021444444
2169;19970502000;19521444444;20021444444
2170;20206462000;19562700000;20062700000
2171;20206465000;19562700000;20062700000
2172;20206466000;19562700000;20062700000
2173;20206467000;19562700000;20062700000
2174;20206469000;19562700000;20062700000
2175;20206470000;19562700000;20062700000
2176;20206470000;19562700000;20062700000
2177;20206677000;19562722222;20062722222
2178;20206692000;19563033333;20063033333
2179;20206693000;19563033333;20063033333
2180;20206695000;19563033333;20063033333
2181;20235147000;19604366666;20104366666
2182;20235151000;19604366666;20104366666
2183;20235152000;19604366666;20104366666
2184;20235153000;19604366666;20104366666
2185;20235154000;19604366666;20104366666
2186;20235155000;19604366666;20104366666
2187;20235163000;19604366666;20104366666
2188;20235370000;19604388888;20104388888
2189;20235386000;19604700000;20104700000
2190;20320024000;19604700000;20104700000
2191;20320079000;19604700000;20104700000
2192;20370445000;19646044444;20146044444
2245;20534869000;19813055555;20313055555
2246;20534872000;19813055555;20313055555
2247;20571797000;19854377777;20354377777
2248;20571800000;19854377777;20354377777
2249;20571801000;19854377777;20354377777
2250;20571802000;19854377777;20354377777
2251;20571803000;19854377777;20354377777
2252;20571804000;19854377777;20354377777
2253;20571805000;19854377777;20354377777
2254;20572011000;19854400000;20354400000
2256;20572027000;19854688888;20354688888
2257;20572028000;19854688888;20354688888
2258;20606062000;19896044444;20396044444
2259;20606074000;19896044444;20396044444
2261;20606076000;19896044444;20396044444
2262;20606077000;19896044444;20396044444
2263;20606078000;19896044444;20396044444
2264;20606079000;19896044444;20396044444
2265;20606285000;19896066666;20396066666
2266;20606301000;19896400000;20396400000
2267;20606302000;19896400000;20396400000
2268;20606303000;19896400000;20396400000
2269;20635740000;19937700000;20437700000
2270;20720247000;19937700000;20437700000
2271;20720249000;19937700000;20437700000
2272;20720323000;19937700000;20437700000
2273;20720422000;19937700000;20437700000
2274;20720424000;19937700000;20437700000
2275;20720527000;19937700000;20437700000
2276;20770988000;19937722222;20437722222
2308;20771004000;20062711111;20562711111
2309;20895459000;20062722222;20562722222
2310;20895474000;20063033333;20563033333
2311;20895475000;20063033333;20563033333
2312;20895476000;20063033333;20563033333
2313;20934665000;20104366666;20604366666
2314;20934668000;20104366666;20604366666
2315;20934669000;20104366666;20604366666
2316;20934670000;20104366666;20604366666
2317;20934671000;20104366666;20604366666
2318;20934672000;20104366666;20604366666
2319;20934673000;20104366666;20604366666
2320;20934843000;20104388888;20604388888
2422;21120603000;20479755555;20979755555
2423;21270407000;20521511111;21021511111
2488;21270487000;20729677777;21229677777
2489;21270507000;20771033333;21271033333
2490;21270509000;20771033333;21271033333
2491;21270509000;20771033333;21271033333
2492;21270510000;20771033333;21271033333
2493;21270511000;20771033333;21271033333
2494;21270512000;20771033333;21271033333
2495;21270513000;20771033333;21271033333
2496;21270596000;20771055555;21271055555
2497;21270599000;20771377777;21271377777
2498;21270600000;20771377777;21271377777
2499;21270601000;20771377777;21271377777
2500;21270607000;20812700000;21312700000
2501;21270608000;20812700000;21312700000
2502;21270609000;20812700000;21312700000
2503;21270620000;20812700000;21312700000
2504;21270621000;20812700000;21312700000
2505;21270622000;20812700000;21312700000
2506;21270623000;20812700000;21312700000
2507;21270702000;20812722222;21312722222
2508;21270705000;20813022222;21313022222
2509;21270706000;20813022222;21313022222
2510;21270707000;20813022222;21313022222
2511;21571267000;20854366666;21354366666
2567;21773413000;21062711111;21562711111
2568;21773417000;21062711111;21562711111
2569;21773418000;21062711111;21562711111
2570;21773419000;21062711111;21562711111
2571;21773420000;21062711111;21562711111
2572;21773421000;21062711111;21562711111
2573;21773626000;21062733333;21562733333
2574;21773633000;21063011111;21563011111
2575;21773635000;21063011111;21563011111
2576;21773636000;21063011111;21563011111
2577;21806821000;21104377777;21604377777
2578;21806824000;21104377777;21604377777
2579;21806825000;21104377777;21604377777
2580;21806826000;21104377777;21604377777
2581;21806827000;21104377777;21604377777
2582;21806828000;21104377777;21604377777
2583;21806829000;21104377777;21604377777
2584;21807035000;21104400000;21604400000
2587;21807058000;21104688888;21604688888
2588;21836519000;21146033333;21646033333
2589;21836523000;21146033333;21646033333
2590;21836524000;21146033333;21646033333
2591;21921159000;21146033333;21646033333
2592;21921161000;21146033333;21646033333
2593;21921163000;21146033333;21646033333
2594;21921252000;21146033333;21646033333
2595;21971730000;21146055555;21646055555
2648;21971745000;21354388888;21854388888
2649;21971746000;21354388888;21854388888
2650;22173848000;21354411111;21854411111
2651;22173864000;21354677777;21854677777
2652;22173865000;21354677777;21854677777
2653;22173867000;21354677777;21854677777
2654;22207166000;21396044444;21896044444
2655;22207170000;21396044444;21896044444
2656;22207171000;21396044444;21896044444
2657;22207172000;21396044444;21896044444
2658;22207173000;21396044444;21896044444
2659;22207174000;21396044444;21896044444
2660;22207175000;21396044444;21896044444
2661;22207384000;21396066666;21896066666
2662;22207400000;21396366666;21896366666
2663;22207401000;21396366666;21896366666
2664;22207402000;21396366666;21896366666
2665;22236853000;21437711111;21937711111
2666;22236856000;21437711111;21937711111
2667;22236857000;21437711111;21937711111
2668;22236858000;21437711111;21937711111
2669;22236859000;21437711111;21937711111
2670;22236860000;21437711111;21937711111
2671;22321434000;21437711111;21937711111
2672;22371896000;21437733333;21937733333
2726;22371911000;21646033333;22146033333
2727;22574034000;21646055555;22146055555
2728;22574055000;21646366666;22146366666
2729;22574057000;21646366666;22146366666
2732;22608638000;21687700000;22187700000
2733;22608641000;21687700000;22187700000
2734;22608642000;21687700000;22187700000
2735;22608643000;21687700000;22187700000
2736;22608644000;21687700000;22187700000
2737;22608645000;21687700000;22187700000
2738;22608746000;21687722222;22187722222
2739;22608762000;21688000000;22188000000
2740;22608763000;21688000000;22188000000
2741;22608764000;21688000000;22188000000
2742;22637050000;21729388888;22229388888
2743;22637053000;21729388888;22229388888
2744;22637054000;21729388888;22229388888
2745;22637055000;21729388888;22229388888
2746;22637056000;21729388888;22229388888
2747;22637057000;21729388888;22229388888
2748;22637058000;21729388888;22229388888
2749;22637257000;21729400000;22229400000
2750;22637273000;21729644444;22229644444
2751;22721773000;21729644444;22229644444
2752;22721776000;21729644444;22229644444
2753;22772152000;21771044444;22271044444
2806;22936518000;21938011111;22438011111
2807;22936522000;21938011111;22438011111
2808;22973476000;21979366666;22479366666
2809;22973479000;21979366666;22479366666
2810;22973480000;21979366666;22479366666
2811;22973481000;21979366666;22479366666
2812;22973482000;21979366666;22479366666
2813;22973483000;21979366666;22479366666
2814;22973484000;21979366666;22479366666
2815;22973690000;21979388888;22479388888
2816;22973706000;21979677777;22479677777
2817;22973707000;21979677777;22479677777
2818;22973708000;21979677777;22479677777
2819;23007724000;22021033333;22521033333
2820;23007728000;22021033333;22521033333
2821;23007729000;22021033333;22521033333
2822;23007730000;22021033333;22521033333
2823;23007731000;22021033333;22521033333
2824;23007732000;22021033333;22521033333
2826;23008181000;22021055555;22521055555
2827;23008186000;22021355555;22521355555
2828;23008187000;22021355555;22521355555
2829;23008188000;22021355555;22521355555
2830;23172397000;22062711111;22562711111
2997;23622360000;22687711111;23187711111
3077;23622475000;22979377777;23479377777
3078;23622479000;22979377777;23479377777
3079;23622598000;22979400000;23479400000
3080;23622614000;22979666666;23479666666
3081;23622615000;22979666666;23479666666
3082;23622616000;22979666666;23479666666
3083;23622627000;23021044444;23521044444
3084;23622638000;23021044444;23521044444
3085;23622639000;23021044444;23521044444
3086;23622640000;23021044444;23521044444
3087;23622641000;23021044444;23521044444
3088;23622642000;23021044444;23521044444
3089;23622643000;23021044444;23521044444
3090;23622759000;23021066666;23521066666
3091;23622775000;23021344444;23521344444
3092;23622776000;23021344444;23521344444
3093;23622777000;23021344444;23521344444
3094;23622788000;23062711111;23562711111
3095;23622789000;23062711111;23562711111
3096;23622800000;23062711111;23562711111
3097;23622801000;23062711111;23562711111
3098;23622802000;23062711111;23562711111
3099;23622810000;23062711111;23562711111
3100;23922618000;23062711111;23562711111
3101;23973085000;23062733333;23562733333
3145;24137356000;23229388888;23729388888
3146;24137362000;23229644444;23729644444
3147;24137363000;23229644444;23729644444
3148;24137364000;23229644444;23729644444
3149;24174300000;23271044444;23771044444
3150;24174303000;23271044444;23771044444
3151;24174305000;23271044444;23771044444
3152;24174306000;23271044444;23771044444
3153;24174306000;23271044444;23771044444
3154;24174308000;23271044444;23771044444
3155;24174309000;23271044444;23771044444
3156;24174515000;23271055555;23771055555
3157;24174531000;23271377777;23771377777
3158;24174532000;23271377777;23771377777
3159;24174533000;23271377777;23771377777
3160;24208536000;23312700000;23812700000
3161;24208540000;23312700000;23812700000
3162;24208541000;23312700000;23812700000
3163;24208542000;23312700000;23812700000
3164;24208543000;23312700000;23812700000
3165;24208544000;23312700000;23812700000
3166;24208545000;23312700000;23812700000
3167;24208752000;23312722222;23812722222
3270;24323175000;23729355555;24229355555
3271;24323177000;23729355555;24229355555
3272;24323178000;23729355555;24229355555
3273;24323189000;23729355555;24229355555
3274;24323190000;23729355555;24229355555
3275;24323190000;23729355555;24229355555
3276;24323191000;23729355555;24229355555
3277;24576180000;23729377777;24229377777
3323;24576198000;23896377777;24396377777
3324;24576199000;23896377777;24396377777
3325;24576312000;23937733333;24437733333
3326;24576316000;23937733333;24437733333
3327;24576317000;23937733333;24437733333
3328;24576318000;23937733333;24437733333
3329;24576319000;23937733333;24437733333
3330;24576320000;23937733333;24437733333
3331;24576321000;23937733333;24437733333
3332;24576422000;23937755555;24437755555
3333;24576438000;23938066666;24438066666
3334;24576439000;23938066666;24438066666
3335;24576440000;23938066666;24438066666
3336;24576452000;23979388888;24479388888
3337;24576453000;23979388888;24479388888
3338;24576454000;23979388888;24479388888
3339;24576455000;23979388888;24479388888
3340;24576456000;23979388888;24479388888
3341;24576457000;23979388888;24479388888
3343;24576553000;23979411111;24479411111
3344;24576569000;23979700000;24479700000
3345;24576570000;23979700000;24479700000
3346;24576571000;23979700000;24479700000
3347;24773657000;24021044444;24521044444
3404;24975819000;24229377777;24729377777
3405;24975822000;24229377777;24729377777
3406;24975823000;24229377777;24729377777
3407;24975825000;24229377777;24729377777
3408;24975825000;24229377777;24729377777
3409;24976025000;24229400000;24729400000
3410;24976040000;24229666666;24729666666
3411;24976041000;24229666666;24729666666
3412;24976050000;24229666666;24729666666
3413;25009239000;24271044444;24771044444
3414;25009242000;24271044444;24771044444
3415;25009243000;24271044444;24771044444
3416;25009244000;24271044444;24771044444
3417;25009245000;24271044444;24771044444
3418;25009246000;24271044444;24771044444
3419;25009247000;24271044444;24771044444
3420;25009446000;24271066666;24771066666
3421;25009462000;24271377777;24771377777
3422;25009463000;24271377777;24771377777
3423;25009464000;24271377777;24771377777
3424;25038918000;24312711111;24812711111
3425;25038922000;24312711111;24812711111
3426;25038923000;24312711111;24812711111
3427;25123670000;24312711111;24812711111
3428;25123673000;24312711111;24812711111
3429;25123679000;24312711111;24812711111
3430;25123686000;24312711111;24812711111
3431;25174167000;24312733333;24812733333
3484;25174183000;24521044444;25021044444
3485;25174184000;24521044444;25021044444
3486;25376284000;24521066666;25021066666
3487;25376300000;24521377777;25021377777
3488;25376301000;24521377777;25021377777
3489;25376302000;24521377777;25021377777
3490;25409615000;24562722222;25062722222
3491;25409619000;24562722222;25062722222
3492;25409620000;24562722222;25062722222
3493;25409621000;24562722222;25062722222
3494;25409622000;24562722222;25062722222
3495;25409623000;24562722222;25062722222
3496;25409624000;24562722222;25062722222
3497;25409831000;24562733333;25062733333
3498;25409854000;24563022222;25063022222
3499;25409855000;24563022222;25063022222
3500;25409856000;24563022222;25063022222
3501;25439276000;24604377777;25104377777
3502;25439279000;24604377777;25104377777
3503;25439280000;24604377777;25104377777
3504;25439281000;24604377777;25104377777
3505;25439282000;24604377777;25104377777
3506;25439283000;24604377777;25104377777
3507;25523971000;24604377777;25104377777
3508;25574449000;24604400000;25104400000
3563;25776478000;24812733333;25312733333
3564;25776484000;24813033333;25313033333
3565;25776485000;24813033333;25313033333
3566;25776486000;24813033333;25313033333
3567;25809896000;24854388888;25354388888
3568;25809899000;24854388888;25354388888
3569;25809901000;24854388888;25354388888
3570;25809902000;24854388888;25354388888
3571;25809902000;24854388888;25354388888
3572;25809903000;24854388888;25354388888
3573;25809904000;24854388888;25354388888
3574;25810111000;24854400000;25354400000
3575;25810127000;24854688888;25354688888
3576;25810128000;24854688888;25354688888
3577;25810129000;24854688888;25354688888
3578;25839553000;24896044444;25396044444
3579;25839556000;24896044444;25396044444
3580;25839557000;24896044444;25396044444
3581;25839559000;24896044444;25396044444
3582;25839560000;24896044444;25396044444
3583;25839560000;24896044444;25396044444
3584;25839561000;24896044444;25396044444
3585;25839768000;24896066666;25396066666
3697;25924702000;25313088888;25813088888
3698;25924704000;25313088888;25813088888
3699;26221242000;25354388888;25854388888
3753;26221364000;25521366666;26021366666
3754;26221379000;25562700000;26062700000
3755;26221381000;25562700000;26062700000
3756;26221383000;25562700000;26062700000
3757;26221385000;25562700000;26062700000
3758;26221387000;25562700000;26062700000
3759;26221389000;25562700000;26062700000
3760;26221390000;25562700000;26062700000
3761;26221497000;25562722222;26062722222
3762;26221513000;25563000000;26063000000
3763;26221514000;25563000000;26063000000
3764;26221516000;25563000000;26063000000
3765;26221528000;25604377777;26104377777
3766;26221530000;25604377777;26104377777
3767;26221532000;25604377777;26104377777
3768;26221534000;25604377777;26104377777
3769;26221536000;25604377777;26104377777
3770;26221538000;25604377777;26104377777
3771;26221540000;25604377777;26104377777
3772;26221670000;25604400000;26104400000
3773;26221685000;25604677777;26104677777
3774;26221687000;25604677777;26104677777
3775;26221688000;25604677777;26104677777
3776;26374993000;25646044444;26146044444
3833;26577280000;25854377777;26354377777
3834;26577283000;25854377777;26354377777
3835;26577284000;25854377777;26354377777
3836;26577285000;25854377777;26354377777
3837;26577286000;25854377777;26354377777
3838;26577494000;25854400000;26354400000
3839;26577509000;25854666666;26354666666
3840;26577510000;25854666666;26354666666
3841;26577511000;25854666666;26354666666
3842;26610700000;25896044444;26396044444
3843;26610704000;25896044444;26396044444
3844;26610705000;25896044444;26396044444
3845;26610706000;25896044444;26396044444
3846;26610707000;25896044444;26396044444
3847;26610708000;25896044444;26396044444
3848;26610709000;25896044444;26396044444
3849;26610916000;25896066666;26396066666
3850;26610932000;25896366666;26396366666
3851;26610933000;25896366666;26396366666
3852;26610934000;25896366666;26396366666
3853;26640378000;25937700000;26437700000
3854;26640381000;25937700000;26437700000
3855;26640383000;25937700000;26437700000
3856;26724903000;25937700000;26437700000
3857;26724905000;25937700000;26437700000
3858;26724921000;25937700000;26437700000
3859;26724923000;25937700000;26437700000
3860;26775179000;25937722222;26437722222
3877;26775186000;26021033333;26521033333
3879;26775271000;26021033333;26521033333
3882;26858697000;26021055555;26521055555
3883;26858712000;26021366666;26521366666
3884;26858713000;26021366666;26521366666
3885;26858715000;26021366666;26521366666
3886;26899365000;26062711111;26562711111
3888;26899694000;26062711111;26562711111
3889;26899696000;26062711111;26562711111
3890;26899697000;26062711111;26562711111
3891;26899698000;26062711111;26562711111
3892;26899707000;26062711111;26562711111
3896;26899805000;26063000000;26563000000
3897;26939333000;26104366666;26604366666
3898;26939337000;26104366666;26604366666
3899;26939338000;26104366666;26604366666
3900;26939339000;26104366666;26604366666
3901;26939346000;26104366666;26604366666
3902;26939347000;26104366666;26604366666
3903;26939348000;26104366666;26604366666
3904;26939538000;26104388888;26604388888
4016;27125530000;26521477777;27021477777
4017;27125536000;26521477777;27021477777
4018;27405343000;26562733333;27062733333
4046;27710932000;26646044444;27146044444
4106;27925985000;26896044444;27396044444
4112;27925991000;26896044444;27396044444
4113;27926131000;26896066666;27396066666
4117;27926137000;26937722222;27437722222
4118;27926139000;26937722222;27437722222
4119;27926140000;26937722222;27437722222
4120;27926141000;26937722222;27437722222
4121;27926142000;26937722222;27437722222
4122;27926143000;26937722222;27437722222
4123;27926149000;26937722222;27437722222
4125;27926161000;26938077777;27438077777
4126;27926173000;26938077777;27438077777
4127;27926174000;26938077777;27438077777
4128;27976219000;26979377777;27479377777
4166;28329707000;27104377777;27604377777
4174;28329721000;27146033333;27646033333
4175;28329732000;27146033333;27646033333
4176;28329733000;27146033333;27646033333
4177;28329734000;27146033333;27646033333
4178;28329735000;27146033333;27646033333
4179;28329874000;27146055555;27646055555
4181;28329896000;27146377777;27646377777
4182;28329898000;27146377777;27646377777
4183;28329909000;27187700000;27687700000
4184;28329910000;27187700000;27687700000
4185;28329921000;27187700000;27687700000
4186;28329923000;27187700000;27687700000
4187;28329924000;27187700000;27687700000
4188;28329925000;27187700000;27687700000
4189;28329926000;27187700000;27687700000
4190;28380444000;27187722222;27687722222
4228;28733197000;27354388888;27854388888
4230;28733199000;27354388888;27854388888
4231;28733200000;27354388888;27854388888
4232;28733202000;27354388888;27854388888
4233;28733203000;27354388888;27854388888
4234;28733418000;27354400000;27854400000
4238;28733425000;27396044444;27896044444
4239;28733427000;27396044444;27896044444
4240;28733428000;27396044444;27896044444
4241;28733429000;27396044444;27896044444
4242;28733430000;27396044444;27896044444
4243;28733431000;27396044444;27896044444
4244;28733432000;27396044444;27896044444
4245;28733603000;27396066666;27896066666
4249;28733622000;27437711111;27937711111
4250;28733623000;27437711111;27937711111
4251;28733624000;27437711111;27937711111
4252;28733625000;27437711111;27937711111
4253;28733626000;27437711111;27937711111
4254;28733627000;27437711111;27937711111
4255;28733628000;27437711111;27937711111
4256;28784275000;27437733333;27937733333
4291;29136620000;27563011111;28063011111
4293;29136740000;27604366666;28104366666
4299;29136754000;27604366666;28104366666
4300;29136875000;27604388888;28104388888
4304;29136891000;27646044444;28146044444
4305;29136893000;27646044444;28146044444
4306;29136894000;27646044444;28146044444
4307;29136895000;27646044444;28146044444
4308;29136896000;27646044444;28146044444
4309;29136897000;27646044444;28146044444
4310;29136898000;27646044444;28146044444
4311;29137025000;27646066666;28146066666
4315;29137041000;27687711111;28187711111
4316;29137056000;27687711111;28187711111
4317;29137057000;27687711111;28187711111
4318;29137069000;27687711111;28187711111
4319;29137070000;27687711111;28187711111
4320;29137071000;27687711111;28187711111
4321;29137072000;27687711111;28187711111
4322;29187572000;27687733333;28187733333
4356;29539871000;27813022222;28313022222
4358;29539873000;27813022222;28313022222
4359;29540003000;27854377777;28354377777
4364;29540008000;27854377777;28354377777
4365;29540009000;27854377777;28354377777
4366;29540132000;27854400000;28354400000
4370;29540138000;27896044444;28396044444
4371;29540139000;27896044444;28396044444
4372;29540140000;27896044444;28396044444
4373;29540141000;27896044444;28396044444
4374;29540142000;27896044444;28396044444
4375;29540143000;27896044444;28396044444
4376;29540144000;27896044444;28396044444
4377;29540227000;27896066666;28396066666
4380;29540232000;27896377777;28396377777
4381;29632330000;27937700000;28437700000
4424;29943066000;28063011111;28563011111
4429;29943089000;28104377777;28604377777
4430;29943091000;28104377777;28604377777
4431;29943092000;28104377777;28604377777
4432;29943183000;28104400000;28604400000
4435;29943196000;28104688888;28604688888
4436;29943205000;28146055555;28646055555
4437;29943207000;28146055555;28646055555
4438;29943218000;28146055555;28646055555
4439;29943219000;28146055555;28646055555
4440;29943220000;28146055555;28646055555
4441;29943221000;28146055555;28646055555
4442;29943222000;28146055555;28646055555
4443;29943293000;28146077777;28646077777
4444;29943298000;28146411111;28646411111
4445;29943299000;28146411111;28646411111
4446;29943300000;28146411111;28646411111
4447;29993682000;28187711111;28687711111
4495;30345955000;28354366666;28854366666
4501;30345966000;28354688888;28854688888
4502;30345981000;28396033333;28896033333
4503;30345987000;28396033333;28896033333
4504;30345989000;28396033333;28896033333
4505;30345990000;28396033333;28896033333
4506;30345991000;28396033333;28896033333
4507;30345992000;28396033333;28896033333
4508;30345993000;28396033333;28896033333
4509;30346098000;28396055555;28896055555
4513;30346104000;28437700000;28937700000
4514;30346105000;28437700000;28937700000
4515;30346119000;28437700000;28937700000
4516;30346121000;28437700000;28937700000
4517;30346122000;28437700000;28937700000
4518;30346123000;28437700000;28937700000
4519;30346123000;28437700000;28937700000
4520;30396650000;28437722222;28937722222
4568;30748858000;28646011111;29146011111
4570;30748864000;28646011111;29146011111
4572;30748865000;28646011111;29146011111
4573;30748867000;28646011111;29146011111
4574;30748868000;28646011111;29146011111
4575;30749284000;28646033333;29146033333
4592;30749290000;28729366666;29229366666
4593;30749291000;28729366666;29229366666
4594;30749292000;28729366666;29229366666
4595;30749293000;28729366666;29229366666
4596;30749294000;28729366666;29229366666
4597;30799236000;28729388888;29229388888
4641;30963563000;28896055555;29396055555
4642;30963569000;28896355555;29396355555
4643;30963571000;28896355555;29396355555
4644;30963572000;28896355555;29396355555
4645;31000530000;28937722222;29437722222
4646;31000534000;28937722222;29437722222
4647;31000535000;28937722222;29437722222
4648;31000536000;28937722222;29437722222
4649;31000537000;28937722222;29437722222
4650;31000538000;28937722222;29437722222
4651;31000539000;28937722222;29437722222
4652;31000641000;28937733333;29437733333
4653;31000647000;28938011111;29438011111
4654;31000648000;28938011111;29438011111
4655;31000649000;28938011111;29438011111
4656;31034761000;28979377777;29479377777
4657;31034765000;28979377777;29479377777
4658;31034766000;28979377777;29479377777
4659;31034767000;28979377777;29479377777
4660;31034768000;28979377777;29479377777
4661;31034769000;28979377777;29479377777
4662;31034770000;28979377777;29479377777
4663;31078740000;28979400000;29479400000
4664;31151012000;28979666666;29479666666
4665;31151014000;28979666666;29479666666
4666;31151030000;28979666666;29479666666
4667;31242549000;29021044444;29521044444
4719;31403340000;29188022222;29688022222
4720;31403343000;29188022222;29688022222
4721;31403344000;29188022222;29688022222
4722;31436963000;29229366666;29729366666
4723;31436966000;29229366666;29729366666
4724;31436967000;29229366666;29729366666
4725;31436968000;29229366666;29729366666
4726;31436969000;29229366666;29729366666
4727;31436970000;29229366666;29729366666
4728;31436971000;29229366666;29729366666
4729;31437174000;29229388888;29729388888
4730;31437180000;29229644444;29729644444
4731;31437181000;29229644444;29729644444
4732;31437182000;29229644444;29729644444
4733;31466605000;29271033333;29771033333
4734;31466609000;29271033333;29771033333
4735;31466610000;29271033333;29771033333
4736;31466611000;29271033333;29771033333
4737;31466613000;29271033333;29771033333
4738;31466614000;29271033333;29771033333
4739;31466615000;29271033333;29771033333
4740;31466799000;29271055555;29771055555
4741;31466804000;29271366666;29771366666
4742;31553657000;29271366666;29771366666
4743;31553674000;29271366666;29771366666
4744;31604315000;29312700000;29812700000
5005;32279035000;30271388888;30771388888
5085;32279186000;30604366666;31104366666
5086;32279189000;30604366666;31104366666
5087;32279190000;30604366666;31104366666
5088;32279191000;30604366666;31104366666
5089;32279192000;30604366666;31104366666
5090;32279193000;30604366666;31104366666
5091;32279194000;30604366666;31104366666
5092;32279322000;30604388888;31104388888
5093;32279338000;30604711111;31104711111
5094;32279339000;30604711111;31104711111
5095;32279340000;30604711111;31104711111
5096;32279352000;30646033333;31146033333
5097;32279353000;30646033333;31146033333
5098;32279364000;30646033333;31146033333
5099;32279365000;30646033333;31146033333
5100;32279366000;30646033333;31146033333
5101;32279367000;30646033333;31146033333
5102;32279368000;30646033333;31146033333
5103;32279477000;30646055555;31146055555
5104;32279492000;30646366666;31146366666
5105;32279494000;30646366666;31146366666
5106;32279495000;30646366666;31146366666
5107;32279506000;30687700000;31187700000
5108;32359671000;30687700000;31187700000
5109;32359673000;30687700000;31187700000
5110;32359732000;30687700000;31187700000
5111;32359735000;30687700000;31187700000
5112;32359762000;30687700000;31187700000
5113;32359813000;30687700000;31187700000
5114;32410622000;30687722222;31187722222
5163;32410638000;30896044444;31396044444
5165;32612779000;30896044444;31396044444
5166;32612781000;30896044444;31396044444
5167;32612782000;30896044444;31396044444
5168;32612783000;30896044444;31396044444
5169;32612995000;30896066666;31396066666
5170;32613010000;30896388888;31396388888
5171;32613011000;30896388888;31396388888
5172;32613012000;30896388888;31396388888
5173;32645969000;30937722222;31437722222
5174;32645972000;30937722222;31437722222
5175;32645974000;30937722222;31437722222
5176;32645975000;30937722222;31437722222
5177;32645976000;30937722222;31437722222
5178;32645976000;30937722222;31437722222
5179;32645977000;30937722222;31437722222
5180;32646195000;30937733333;31437733333
5181;32646211000;30938033333;31438033333
5182;32646212000;30938033333;31438033333
5183;32646213000;30938033333;31438033333
5184;32675479000;30979377777;31479377777
5185;32675482000;30979377777;31479377777
5186;32675483000;30979377777;31479377777
5188;32763034000;30979377777;31479377777
5189;32763037000;30979377777;31479377777
5190;32763050000;30979377777;31479377777
5191;32813950000;30979400000;31479400000
5244;32813966000;31187711111;31687711111
5245;32813968000;31187711111;31687711111
5246;33016083000;31187733333;31687733333
5247;33016099000;31188022222;31688022222
5248;33016100000;31188022222;31688022222
5249;33016101000;31188022222;31688022222
5250;33049221000;31229377777;31729377777
5251;33049224000;31229377777;31729377777
5252;33049225000;31229377777;31729377777
5253;33049226000;31229377777;31729377777
5254;33049227000;31229377777;31729377777
5255;33049228000;31229377777;31729377777
5256;33049229000;31229377777;31729377777
5257;33049437000;31229400000;31729400000
5258;33049453000;31229688888;31729688888
5259;33049454000;31229688888;31729688888
5260;33049455000;31229688888;31729688888
5261;33078774000;31271044444;31771044444
5262;33078778000;31271044444;31771044444
5263;33078779000;31271044444;31771044444
5264;33078780000;31271044444;31771044444
5265;33078781000;31271044444;31771044444
5266;33078782000;31271044444;31771044444
5267;33166239000;31271044444;31771044444
5268;33216737000;31271066666;31771066666
5489;33915097000;32104766666;32604766666
5490;33915099000;32104766666;32604766666
5491;33915100000;32104766666;32604766666
5492;33915212000;32146055555;32646055555
5493;33915215000;32146055555;32646055555
5494;33915216000;32146055555;32646055555
5495;33915217000;32146055555;32646055555
5496;33915218000;32146055555;32646055555
5497;33915219000;32146055555;32646055555
5498;33915220000;32146055555;32646055555
5499;33915340000;32146077777;32646077777
