seqnum;now;rtptime;deadline
5;8245754000;7786555555;8286555555
6;8245759000;7786555555;8286555555
7;8245761000;7786555555;8286555555
8;8245763000;7786555555;8286555555
9;8245764000;7786555555;8286555555
10;8331619000;7786577777;8286577777
11;8331640000;7786922222;8286922222
12;8331646000;7786922222;8286922222
13;8331648000;7786922222;8286922222
14;8368283000;7828222222;8328222222
15;8368286000;7828222222;8328222222
16;8368288000;7828222222;8328222222
17;8368289000;7828222222;8328222222
18;8368290000;7828222222;8328222222
19;8368292000;7828222222;8328222222
20;8368293000;7828222222;8328222222
21;8368394000;7828233333;8328233333
22;8368401000;7828633333;8328633333
23;8368402000;7828633333;8328633333
24;8368403000;7828633333;8328633333
25;8409539000;7869888888;8369888888
26;8409542000;7869888888;8369888888
27;8409544000;7869888888;8369888888
28;8445728000;7869888888;8369888888
29;8445756000;7869888888;8369888888
30;8445766000;7869888888;8369888888
31;8445774000;7869888888;8369888888
32;8496258000;7869900000;8369900000
36;8496279000;7911555555;8411555555
37;8496281000;7911555555;8411555555
38;8496282000;7911555555;8411555555
39;8496284000;7911555555;8411555555
40;8496285000;7911555555;8411555555
41;8496286000;7911555555;8411555555
42;8496288000;7911555555;8411555555
43;8537761000;7911566666;8411566666
44;8537767000;7911888888;8411888888
45;8537769000;7911888888;8411888888
46;8537770000;7911888888;8411888888
47;8579200000;7953222222;8453222222
48;8579204000;7953222222;8453222222
49;8579205000;7953222222;8453222222
50;8579206000;7953222222;8453222222
51;8579207000;7953222222;8453222222
52;8579209000;7953222222;8453222222
53;8579210000;7953222222;8453222222
54;8579335000;7953233333;8453233333
55;8579340000;7953544444;8453544444
56;8579342000;7953544444;8453544444
57;8579343000;7953544444;8453544444
58;8696537000;7994888888;8494888888
95;8821014000;8119888888;8619888888
96;8821018000;8119888888;8619888888
97;8821019000;8119888888;8619888888
98;8821144000;8119900000;8619900000
99;8821149000;8120200000;8620200000
100;8821151000;8120200000;8620200000
101;8821152000;8120200000;8620200000
102;8860310000;8161555555;8661555555
165;9023285000;8370200000;8870200000
166;9023289000;8370200000;8870200000
167;9023290000;8370200000;8870200000
168;9047861000;8411555555;8911555555
224;9135230000;8619888888;9119888888
244;9156437000;8661833333;9161833333
245;9175236000;8703211111;9203211111
246;9175239000;8703211111;9203211111
247;9175240000;8703211111;9203211111
248;9175242000;8703211111;9203211111
249;9175243000;8703211111;9203211111
250;9175244000;8703211111;9203211111
251;9175245000;8703211111;9203211111
252;9175346000;8703222222;9203222222
253;9175352000;8703544444;9203544444
254;9175353000;8703544444;9203544444
255;9175354000;8703544444;9203544444
256;9185258000;8744888888;9244888888
257;9185262000;8744888888;9244888888
258;9185263000;8744888888;9244888888
259;9185264000;8744888888;9244888888
260;9185266000;8744888888;9244888888
261;9185267000;8744888888;9244888888
262;9185268000;8744888888;9244888888
263;9185383000;8744900000;9244900000
264;9185388000;8745188888;9245188888
265;9185390000;8745188888;9245188888
266;9185391000;8745188888;9245188888
267;9297990000;8786555555;9286555555
322;9500559000;8994888888;9494888888
389;9649862000;9244888888;9744888888
428;9859510000;9369900000;9869900000
469;9859518000;9536544444;10036544444
470;9859529000;9536544444;10036544444
471;9859531000;9536544444;10036544444
472;9923528000;9536555555;10036555555
473;9923535000;9536833333;10036833333
474;9923537000;9536833333;10036833333
475;9923538000;9536833333;10036833333
476;9934978000;9578222222;10078222222
477;9934982000;9578222222;10078222222
478;9934983000;9578222222;10078222222
479;9934984000;9578222222;10078222222
480;9934985000;9578222222;10078222222
481;9934986000;9578222222;10078222222
482;9934987000;9578222222;10078222222
484;9935191000;9578533333;10078533333
485;9935194000;9578533333;10078533333
486;9935195000;9578533333;10078533333
487;9957641000;9619888888;10119888888
488;9957645000;9619888888;10119888888
489;9957646000;9619888888;10119888888
490;9957647000;9619888888;10119888888
491;9957668000;9619888888;10119888888
492;9957669000;9619888888;10119888888
493;10049875000;9619888888;10119888888
494;10100253000;9619900000;10119900000
506;10100261000;9661844444;10161844444
507;10100262000;9661844444;10161844444
508;10100263000;9661844444;10161844444
509;10183484000;9703211111;10203211111
510;10183488000;9703211111;10203211111
511;10183489000;9703211111;10203211111
512;10183490000;9703211111;10203211111
513;10183492000;9703211111;10203211111
514;10183493000;9703211111;10203211111
515;10183494000;9703211111;10203211111
517;10183952000;9703533333;10203533333
518;10183964000;9703533333;10203533333
519;10183966000;9703533333;10203533333
520;10224367000;9744888888;10244888888
521;10224371000;9744888888;10244888888
522;10224372000;9744888888;10244888888
523;10224373000;9744888888;10244888888
524;10224374000;9744888888;10244888888
525;10224376000;9744888888;10244888888
526;10224377000;9744888888;10244888888
527;10224501000;9744900000;10244900000
528;10224506000;9745188888;10245188888
529;10250530000;9745188888;10245188888
530;10250532000;9745188888;10245188888
531;10305383000;9786555555;10286555555
535;10305386000;9786555555;10286555555
536;10305387000;9786555555;10286555555
537;10305388000;9786555555;10286555555
538;10305490000;9786566666;10286566666
539;10305495000;9786844444;10286844444
540;10305497000;9786844444;10286844444
541;10305498000;9786844444;10286844444
542;10342810000;9828222222;10328222222
543;10342812000;9828222222;10328222222
544;10342813000;9828222222;10328222222
545;10342824000;9828222222;10328222222
546;10342825000;9828222222;10328222222
547;10342826000;9828222222;10328222222
548;10342827000;9828222222;10328222222
549;10342942000;9828233333;10328233333
550;10342947000;9828533333;10328533333
551;10342949000;9828533333;10328533333
552;10342950000;9828533333;10328533333
553;10378885000;9869877777;10369877777
554;10378888000;9869877777;10369877777
555;10378889000;9869877777;10369877777
556;10378899000;9869877777;10369877777
557;10451202000;9869877777;10369877777
558;10451254000;9869877777;10369877777
559;10451259000;9869877777;10369877777
560;10501739000;9869888888;10369888888
564;10501760000;9911544444;10411544444
565;10501762000;9911544444;10411544444
566;10501764000;9911544444;10411544444
567;10501766000;9911544444;10411544444
568;10501767000;9911544444;10411544444
569;10501768000;9911544444;10411544444
570;10501769000;9911544444;10411544444
571;10543218000;9911555555;10411555555
572;10543224000;9911833333;10411833333
573;10543226000;9911833333;10411833333
574;10543227000;9911833333;10411833333
575;10584684000;9953244444;10453244444
576;10584688000;9953244444;10453244444
577;10584689000;9953244444;10453244444
578;10584691000;9953244444;10453244444
579;10584692000;9953244444;10453244444
580;10584693000;9953244444;10453244444
581;10584695000;9953244444;10453244444
582;10584820000;9953255555;10453255555
583;10584826000;9953555555;10453555555
584;10584827000;9953555555;10453555555
585;10651881000;9953555555;10453555555
586;10702240000;9994888888;10494888888
592;10702243000;9994888888;10494888888
593;10702365000;9994900000;10494900000
594;10702370000;9995188888;10495188888
595;10702371000;9995188888;10495188888
596;10702373000;9995188888;10495188888
597;10743844000;10036555555;10536555555
598;10743847000;10036555555;10536555555
599;10743848000;10036555555;10536555555
600;10743849000;10036555555;10536555555
601;10743850000;10036555555;10536555555
602;10743852000;10036555555;10536555555
603;10743853000;10036555555;10536555555
604;10743974000;10036566666;10536566666
605;10743979000;10036855555;10536855555
606;10743980000;10036855555;10536855555
607;10743981000;10036855555;10536855555
608;10785301000;10078211111;10578211111
609;10785304000;10078211111;10578211111
610;10785314000;10078211111;10578211111
611;10785315000;10078211111;10578211111
612;10785316000;10078211111;10578211111
613;10785317000;10078211111;10578211111
617;10903234000;10078544444;10578544444
620;10944590000;10119877777;10619877777
621;10944594000;10119877777;10619877777
622;10944595000;10119877777;10619877777
623;10944605000;10119877777;10619877777
624;10944606000;10119877777;10619877777
625;10944608000;10119877777;10619877777
626;10944682000;10119888888;10619888888
627;10944687000;10120188888;10620188888
628;10944688000;10120188888;10620188888
629;10944689000;10120188888;10620188888
630;10986007000;10161555555;10661555555
631;10986011000;10161555555;10661555555
632;10986012000;10161555555;10661555555
633;10986014000;10161555555;10661555555
634;10986015000;10161555555;10661555555
635;10986016000;10161555555;10661555555
636;10986017000;10161555555;10661555555
637;10986153000;10161566666;10661566666
638;10986158000;10161822222;10661822222
639;10986159000;10161822222;10661822222
640;10986160000;10161822222;10661822222
641;11026957000;10203222222;10703222222
642;11053364000;10203222222;10703222222
643;11053379000;10203222222;10703222222
644;11053380000;10203222222;10703222222
645;11053382000;10203222222;10703222222
646;11053397000;10203222222;10703222222
647;11053399000;10203222222;10703222222
648;11103786000;10203233333;10703233333
652;11103792000;10244888888;10744888888
653;11103793000;10244888888;10744888888
654;11103795000;10244888888;10744888888
655;11103805000;10244888888;10744888888
656;11103806000;10244888888;10744888888
657;11103807000;10244888888;10744888888
658;11103808000;10244888888;10744888888
659;11145379000;10244900000;10744900000
660;11145385000;10245188888;10745188888
661;11145387000;10245188888;10745188888
662;11145388000;10245188888;10745188888
663;11186808000;10286544444;10786544444
664;11186811000;10286544444;10786544444
665;11186813000;10286544444;10786544444
666;11186814000;10286544444;10786544444
667;11186815000;10286544444;10786544444
668;11186816000;10286544444;10786544444
669;11186817000;10286544444;10786544444
670;11186922000;10286555555;10786555555
671;11186928000;10286833333;10786833333
672;11253954000;10286833333;10786833333
673;11253956000;10286833333;10786833333
674;11304290000;10328211111;10828211111
681;11304414000;10328222222;10828222222
682;11304420000;10328544444;10828544444
683;11304421000;10328544444;10828544444
684;11304423000;10328544444;10828544444
685;11345907000;10369888888;10869888888
686;11345910000;10369888888;10869888888
687;11345911000;10369888888;10869888888
688;11345913000;10369888888;10869888888
689;11345914000;10369888888;10869888888
690;11345915000;10369888888;10869888888
691;11345916000;10369888888;10869888888
692;11346037000;10369900000;10869900000
693;11346061000;10370200000;10870200000
694;11346062000;10370200000;10870200000
695;11346063000;10370200000;10870200000
696;11387340000;10411533333;10911533333
697;11387342000;10411533333;10911533333
698;11387343000;10411533333;10911533333
699;11387344000;10411533333;10911533333
700;11387345000;10411533333;10911533333
701;11387346000;10411533333;10911533333
702;11387347000;10411533333;10911533333
703;11505016000;10411544444;10911544444
711;11505022000;10453211111;10953211111
712;11505023000;10453211111;10953211111
713;11505025000;10453211111;10953211111
714;11546621000;10453222222;10953222222
715;11546627000;10453522222;10953522222
716;11546629000;10453522222;10953522222
717;11546630000;10453522222;10953522222
718;11588063000;10494877777;10994877777
719;11588068000;10494877777;10994877777
720;11588070000;10494877777;10994877777
721;11588071000;10494877777;10994877777
722;11588072000;10494877777;10994877777
723;11588073000;10494877777;10994877777
724;11588074000;10494877777;10994877777
725;11588197000;10494888888;10994888888
726;11588203000;10495188888;10995188888
727;11588204000;10495188888;10995188888
728;11588205000;10495188888;10995188888
729;11628989000;10536544444;11036544444
730;11628992000;10536544444;11036544444
731;11628993000;10536544444;11036544444
732;11629004000;10536544444;11036544444
734;11629613000;10536544444;11036544444
735;11655400000;10536544444;11036544444
736;11705789000;10536555555;11036555555
745;11705795000;10578222222;11078222222
746;11705797000;10578222222;11078222222
747;11747385000;10578233333;11078233333
748;11747391000;10578544444;11078544444
749;11747393000;10578544444;11078544444
750;11747394000;10578544444;11078544444
751;11788831000;10619888888;11119888888
752;11788835000;10619888888;11119888888
753;11788836000;10619888888;11119888888
754;11788837000;10619888888;11119888888
755;11788838000;10619888888;11119888888
756;11788839000;10619888888;11119888888
757;11788840000;10619888888;11119888888
758;11788959000;10619900000;11119900000
759;11788965000;10620200000;11120200000
760;11788966000;10620200000;11120200000
761;11788967000;10620200000;11120200000
762;11829738000;10661544444;11161544444
763;11829740000;10661544444;11161544444
764;11829751000;10661544444;11161544444
765;11829752000;10661544444;11161544444
766;11829753000;10661544444;11161544444
767;11829754000;10661544444;11161544444
768;11856105000;10661544444;11161544444
769;11906496000;10661555555;11161555555
778;11906502000;10703211111;11203211111
779;11906504000;10703211111;11203211111
780;11948100000;10703222222;11203222222
781;11948106000;10703544444;11203544444
782;11948108000;10703544444;11203544444
783;11948109000;10703544444;11203544444
784;11989539000;10744877777;11244877777
785;11989542000;10744877777;11244877777
786;11989543000;10744877777;11244877777
787;11989545000;10744877777;11244877777
788;11989546000;10744877777;11244877777
789;11989547000;10744877777;11244877777
790;11989548000;10744877777;11244877777
791;11989668000;10744888888;11244888888
792;11989674000;10745200000;11245200000
793;11989675000;10745200000;11245200000
794;11989676000;10745200000;11245200000
795;12030466000;10786555555;11286555555
796;12030469000;10786555555;11286555555
797;12030479000;10786555555;11286555555
798;12030480000;10786555555;11286555555
799;12030481000;10786555555;11286555555
800;12030482000;10786555555;11286555555
801;12056782000;10786555555;11286555555
802;12107166000;10786566666;11286566666
813;12148716000;10828233333;11328233333
814;12148722000;10828555555;11328555555
815;12148723000;10828555555;11328555555
816;12148724000;10828555555;11328555555
817;12190198000;10869877777;11369877777
819;12190202000;10869877777;11369877777
820;12190203000;10869877777;11369877777
821;12190204000;10869877777;11369877777
822;12190206000;10869877777;11369877777
823;12190207000;10869877777;11369877777
824;12190332000;10869888888;11369888888
825;12190337000;10870222222;11370222222
826;12190338000;10870222222;11370222222
827;12190339000;10870222222;11370222222
828;12231148000;10911544444;11411544444
829;12231152000;10911544444;11411544444
830;12231153000;10911544444;11411544444
831;12231154000;10911544444;11411544444
832;12231155000;10911544444;11411544444
833;12231156000;10911544444;11411544444
834;12231157000;10911544444;11411544444
835;12307670000;10911555555;11411555555
847;12307676000;10953533333;11453533333
848;12307677000;10953533333;11453533333
849;12307678000;10953533333;11453533333
850;12390933000;10994888888;11494888888
851;12390937000;10994888888;11494888888
852;12390938000;10994888888;11494888888
853;12390939000;10994888888;11494888888
854;12390940000;10994888888;11494888888
855;12390941000;10994888888;11494888888
856;12390942000;10994888888;11494888888
857;12391097000;10994900000;11494900000
858;12391103000;10995200000;11495200000
859;12391104000;10995200000;11495200000
860;12391105000;10995200000;11495200000
861;12431673000;11036555555;11536555555
862;12431676000;11036555555;11536555555
863;12431677000;11036555555;11536555555
864;12431678000;11036555555;11536555555
865;12431679000;11036555555;11536555555
866;12431681000;11036555555;11536555555
867;12431682000;11036555555;11536555555
868;12431803000;11036566666;11536566666
869;12431809000;11036877777;11536877777
870;12457653000;11036877777;11536877777
871;12457663000;11036877777;11536877777
872;12471529000;11078211111;11578211111
882;12471594000;11078544444;11578544444
883;12510557000;11119877777;11619877777
884;12510560000;11119877777;11619877777
885;12510561000;11119877777;11619877777
886;12510562000;11119877777;11619877777
887;12510563000;11119877777;11619877777
888;12510564000;11119877777;11619877777
889;12510565000;11119877777;11619877777
890;12510687000;11119888888;11619888888
891;12510692000;11120200000;11620200000
892;12510711000;11120200000;11620200000
893;12510712000;11120200000;11620200000
894;12548167000;11161555555;11661555555
895;12548170000;11161555555;11661555555
896;12548171000;11161555555;11661555555
897;12548172000;11161555555;11661555555
898;12548173000;11161555555;11661555555
899;12548175000;11161555555;11661555555
900;12548176000;11161555555;11661555555
901;12548294000;11161566666;11661566666
902;12548299000;11161833333;11661833333
903;12548301000;11161833333;11661833333
904;12548302000;11161833333;11661833333
905;12708279000;11203222222;11703222222
918;12749884000;11244888888;11744888888
919;12749888000;11244888888;11744888888
920;12749889000;11244888888;11744888888
921;12749890000;11244888888;11744888888
922;12749891000;11244888888;11744888888
923;12750013000;11244900000;11744900000
924;12750018000;11245200000;11745200000
925;12750019000;11245200000;11745200000
926;12750020000;11245200000;11745200000
927;12791363000;11286544444;11786544444
928;12791367000;11286544444;11786544444
929;12791368000;11286544444;11786544444
930;12791369000;11286544444;11786544444
931;12791370000;11286544444;11786544444
932;12791371000;11286544444;11786544444
933;12791372000;11286544444;11786544444
934;12791496000;11286555555;11786555555
935;12791502000;11286877777;11786877777
936;12791503000;11286877777;11786877777
937;12791504000;11286877777;11786877777
938;12832291000;11328211111;11828211111
939;12832294000;11328211111;11828211111
940;12832295000;11328211111;11828211111
941;12858479000;11328211111;11828211111
942;12858494000;11328211111;11828211111
943;12858495000;11328211111;11828211111
944;12858502000;11328211111;11828211111
945;12908833000;11328222222;11828222222
955;12908838000;11369888888;11869888888
956;12950496000;11369900000;11869900000
958;12950502000;11370200000;11870200000
959;12950504000;11370200000;11870200000
960;12991934000;11411555555;11911555555
961;12991938000;11411555555;11911555555
962;12991939000;11411555555;11911555555
963;12991940000;11411555555;11911555555
964;12991941000;11411555555;11911555555
965;12991942000;11411555555;11911555555
966;12991943000;11411555555;11911555555
967;12992056000;11411566666;11911566666
968;12992071000;11411866666;11911866666
969;12992073000;11411866666;11911866666
970;12992074000;11411866666;11911866666
971;13032905000;11453222222;11953222222
972;13032909000;11453222222;11953222222
973;13032910000;11453222222;11953222222
974;13032911000;11453222222;11953222222
975;13032912000;11453222222;11953222222
976;13032913000;11453222222;11953222222
977;13032914000;11453222222;11953222222
978;13109151000;11453233333;11953233333
992;13109158000;11495200000;11995200000
993;13192381000;11536544444;12036544444
994;13192385000;11536544444;12036544444
995;13192386000;11536544444;12036544444
996;13192387000;11536544444;12036544444
997;13192388000;11536544444;12036544444
998;13192389000;11536544444;12036544444
999;13192390000;11536544444;12036544444
1000;13192515000;11536555555;12036555555
1001;13192520000;11536855555;12036855555
1002;13192522000;11536855555;12036855555
1003;13192523000;11536855555;12036855555
1004;13233134000;11578222222;12078222222
1005;13233138000;11578222222;12078222222
1006;13233139000;11578222222;12078222222
1007;13233140000;11578222222;12078222222
1008;13233141000;11578222222;12078222222
1009;13233142000;11578222222;12078222222
1010;13233143000;11578222222;12078222222
1011;13233269000;11578233333;12078233333
1012;13233274000;11578544444;12078544444
1013;13233275000;11578544444;12078544444
1014;13233276000;11578544444;12078544444
1015;13273094000;11619888888;12119888888
1028;13312019000;11661544444;12161544444
1032;13312022000;11661544444;12161544444
1033;13312163000;11661555555;12161555555
1034;13312169000;11661844444;12161844444
1036;13312170000;11661844444;12161844444
1037;13349568000;11703211111;12203211111
1038;13349571000;11703211111;12203211111
1039;13349581000;11703211111;12203211111
1040;13349582000;11703211111;12203211111
1041;13349583000;11703211111;12203211111
1042;13349584000;11703211111;12203211111
1043;13349585000;11703211111;12203211111
1044;13349699000;11703222222;12203222222
1045;13349721000;11703555555;12203555555
1046;13349723000;11703555555;12203555555
1047;13349724000;11703555555;12203555555
1048;13385732000;11744888888;12244888888
1049;13385736000;11744888888;12244888888
1050;13385737000;11744888888;12244888888
1051;13385738000;11744888888;12244888888
1052;13385739000;11744888888;12244888888
1053;13385740000;11744888888;12244888888
1054;13459352000;11744888888;12244888888
1055;13509730000;11744900000;12244900000
1064;13509737000;11786555555;12286555555
1065;13509738000;11786555555;12286555555
1066;13551314000;11786566666;12286566666
1070;13551320000;11828222222;12328222222
1071;13551321000;11828222222;12328222222
1073;13593207000;11828222222;12328222222
1074;13593210000;11828222222;12328222222
1075;13593211000;11828222222;12328222222
1076;13593212000;11828222222;12328222222
1077;13593339000;11828233333;12328233333
1078;13593344000;11828533333;12328533333
1079;13593345000;11828533333;12328533333
1080;13593346000;11828533333;12328533333
1081;13633680000;11869877777;12369877777
1082;13633683000;11869877777;12369877777
1083;13633693000;11869877777;12369877777
1084;13633694000;11869877777;12369877777
1085;13633695000;11869877777;12369877777
1086;13633696000;11869877777;12369877777
1087;13633697000;11869877777;12369877777
1088;13633815000;11869888888;12369888888
1089;13633820000;11870166666;12370166666
1090;13633822000;11870166666;12370166666
1091;13633823000;11870166666;12370166666
1092;13673656000;11911544444;12411544444
1103;13712599000;11953211111;12453211111
1109;13712603000;11953211111;12453211111
1110;13712724000;11953222222;12453222222
1111;13712730000;11953533333;12453533333
1112;13712731000;11953533333;12453533333
1113;13712732000;11953533333;12453533333
1114;13750212000;11994888888;12494888888
1115;13750216000;11994888888;12494888888
1116;13750217000;11994888888;12494888888
1117;13750218000;11994888888;12494888888
1118;13750219000;11994888888;12494888888
1119;13750220000;11994888888;12494888888
1120;13750221000;11994888888;12494888888
1122;13750558000;11995200000;12495200000
1123;13750561000;11995200000;12495200000
1124;13750562000;11995200000;12495200000
1125;13787965000;12036555555;12536555555
1126;13787967000;12036555555;12536555555
1127;13787978000;12036555555;12536555555
1128;13787979000;12036555555;12536555555
1129;13787980000;12036555555;12536555555
1130;13787981000;12036555555;12536555555
1131;13859934000;12036555555;12536555555
1132;13910326000;12036566666;12536566666
1143;13951854000;12078222222;12578222222
1148;13951860000;12119877777;12619877777
1149;13951862000;12119877777;12619877777
1150;13951863000;12119877777;12619877777
1151;13951864000;12119877777;12619877777
1152;13951865000;12119877777;12619877777
1153;13951866000;12119877777;12619877777
1154;13993402000;12119888888;12619888888
1155;13993409000;12120188888;12620188888
1156;13993410000;12120188888;12620188888
1157;13993411000;12120188888;12620188888
1158;14034311000;12161555555;12661555555
1159;14034315000;12161555555;12661555555
1160;14034316000;12161555555;12661555555
1161;14034317000;12161555555;12661555555
1162;14034318000;12161555555;12661555555
1163;14034319000;12161555555;12661555555
1164;14034320000;12161555555;12661555555
1165;14034444000;12161566666;12661566666
1166;14034450000;12161811111;12661811111
1167;14034451000;12161811111;12661811111
1168;14034452000;12161811111;12661811111
1169;14074298000;12203222222;12703222222
1184;14113206000;12244888888;12744888888
1190;14113282000;12245188888;12745188888
1191;14150794000;12286544444;12786544444
1192;14150798000;12286544444;12786544444
1193;14150799000;12286544444;12786544444
1194;14150800000;12286544444;12786544444
1195;14150801000;12286544444;12786544444
1196;14150802000;12286544444;12786544444
1197;14150803000;12286544444;12786544444
1198;14150924000;12286555555;12786555555
1199;14150929000;12286833333;12786833333
1200;14150931000;12286833333;12786833333
1202;14187234000;12328233333;12828233333
1203;14187237000;12328233333;12828233333
1204;14187238000;12328233333;12828233333
1205;14187240000;12328233333;12828233333
1206;14187241000;12328233333;12828233333
1207;14187262000;12328233333;12828233333
1208;14187263000;12328233333;12828233333
1209;14187352000;12328244444;12828244444
1210;14187357000;12328577777;12828577777
1211;14260516000;12328577777;12828577777
1212;14260571000;12328577777;12828577777
1213;14310878000;12369900000;12869900000
1221;14310944000;12370222222;12870222222
1222;14310956000;12370222222;12870222222
1223;14310957000;12370222222;12870222222
1224;14352484000;12411566666;12911566666
1229;14352487000;12411566666;12911566666
1230;14352488000;12411566666;12911566666
1231;14352609000;12411577777;12911577777
1232;14352615000;12411866666;12911866666
1233;14352616000;12411866666;12911866666
1234;14352617000;12411866666;12911866666
1235;14393975000;12453233333;12953233333
1236;14393978000;12453233333;12953233333
1240;14394389000;12453233333;12953233333
1241;14394391000;12453233333;12953233333
1242;14394527000;12453244444;12953244444
1243;14394532000;12453533333;12953533333
1244;14394533000;12453533333;12953533333
1245;14394535000;12453533333;12953533333
1246;14435030000;12494877777;12994877777
1247;14435032000;12494877777;12994877777
1248;14435033000;12494877777;12994877777
1249;14435055000;12494877777;12994877777
1250;14435056000;12494877777;12994877777
1251;14461023000;12494877777;12994877777
1252;14461029000;12494877777;12994877777
1253;14511411000;12494888888;12994888888
1263;14511418000;12536544444;13036544444
1264;14553005000;12536555555;13036555555
1268;14553011000;12578222222;13078222222
1269;14553013000;12578222222;13078222222
1270;14553014000;12578222222;13078222222
1271;14553015000;12578222222;13078222222
1272;14553025000;12578222222;13078222222
1273;14553026000;12578222222;13078222222
1274;14553027000;12578222222;13078222222
1275;14594509000;12578233333;13078233333
1276;14594515000;12578533333;13078533333
1277;14594517000;12578533333;13078533333
1278;14594518000;12578533333;13078533333
1279;14635385000;12619888888;13119888888
1280;14635388000;12619888888;13119888888
1281;14635398000;12619888888;13119888888
1282;14635399000;12619888888;13119888888
1283;14635400000;12619888888;13119888888
1284;14635401000;12619888888;13119888888
1285;14635402000;12619888888;13119888888
1286;14635520000;12619900000;13119900000
1287;14635525000;12620188888;13120188888
1288;14635527000;12620188888;13120188888
1289;14635528000;12620188888;13120188888
1290;14675356000;12661544444;13161544444
1303;14714328000;12703222222;13203222222
1309;14714384000;12703544444;13203544444
1310;14714386000;12703544444;13203544444
1311;14714388000;12703544444;13203544444
1312;14751900000;12744888888;13244888888
1314;14752157000;12744888888;13244888888
1315;14752160000;12744888888;13244888888
1316;14752161000;12744888888;13244888888
1317;14752173000;12744888888;13244888888
1318;14752174000;12744888888;13244888888
1319;14752307000;12744900000;13244900000
1320;14752312000;12745200000;13245200000
1321;14752313000;12745200000;13245200000
1322;14752314000;12745200000;13245200000
1323;14788034000;12786555555;13286555555
1324;14788036000;12786555555;13286555555
1325;14788037000;12786555555;13286555555
1326;14788055000;12786555555;13286555555
1327;14788056000;12786555555;13286555555
1328;14788057000;12786555555;13286555555
1329;14788058000;12786555555;13286555555
1330;14788176000;12786566666;13286566666
1331;14861637000;12786844444;13286844444
1332;14861652000;12786844444;13286844444
1333;14861654000;12786844444;13286844444
1334;14953541000;12828222222;13328222222
1350;14994779000;12869877777;13369877777
1351;14994783000;12869877777;13369877777
1352;14994907000;12869888888;13369888888
1353;14994913000;12870177777;13370177777
1354;14994914000;12870177777;13370177777
1355;14994915000;12870177777;13370177777
1356;15035742000;12911555555;13411555555
1357;15035746000;12911555555;13411555555
1358;15035747000;12911555555;13411555555
1360;15035748000;12911555555;13411555555
1361;15035749000;12911555555;13411555555
1362;15035751000;12911555555;13411555555
1363;15035875000;12911566666;13411566666
1364;15035880000;12911833333;13411833333
1365;15035882000;12911833333;13411833333
1366;15035900000;12911833333;13411833333
1367;15075677000;12953222222;13453222222
1384;15114649000;12994888888;13494888888
1388;15114735000;12995188888;13495188888
1390;15152231000;13036555555;13536555555
1391;15152235000;13036555555;13536555555
1392;15152236000;13036555555;13536555555
1393;15152237000;13036555555;13536555555
1394;15152238000;13036555555;13536555555
1395;15152239000;13036555555;13536555555
1396;15152361000;13036566666;13536566666
1397;15152366000;13036855555;13536855555
1398;15152367000;13036855555;13536855555
1399;15152368000;13036855555;13536855555
1400;15188402000;13078222222;13578222222
1401;15188406000;13078222222;13578222222
1403;15188806000;13078222222;13578222222
1404;15188808000;13078222222;13578222222
1405;15188809000;13078222222;13578222222
1406;15188810000;13078222222;13578222222
1407;15188945000;13078233333;13578233333
1408;15188951000;13078544444;13578544444
1410;15188952000;13078544444;13578544444
1411;15223083000;13119888888;13619888888
1412;15223086000;13119888888;13619888888
1413;15262669000;13119888888;13619888888
1414;15262672000;13119888888;13619888888
1415;15262674000;13119888888;13619888888
1416;15262675000;13119888888;13619888888
1417;15262680000;13119888888;13619888888
1418;15313075000;13119900000;13619900000
1426;15313082000;13161555555;13661555555
1427;15313083000;13161555555;13661555555
1428;15313084000;13161555555;13661555555
1429;15354662000;13161566666;13661566666
1433;15354669000;13203222222;13703222222
1434;15354670000;13203222222;13703222222
1435;15354671000;13203222222;13703222222
1436;15354672000;13203222222;13703222222
1437;15354683000;13203222222;13703222222
1438;15354684000;13203222222;13703222222
1439;15354685000;13203222222;13703222222
1440;15396154000;13203233333;13703233333
1441;15396161000;13203522222;13703522222
1442;15396162000;13203522222;13703522222
1443;15396163000;13203522222;13703522222
1444;15437063000;13244888888;13744888888
1445;15437068000;13244888888;13744888888
1446;15437069000;13244888888;13744888888
1447;15437070000;13244888888;13744888888
1448;15437071000;13244888888;13744888888
1449;15437072000;13244888888;13744888888
1450;15437073000;13244888888;13744888888
1451;15437195000;13244900000;13744900000
1452;15437200000;13245188888;13745188888
1453;15437202000;13245188888;13745188888
1454;15463165000;13245188888;13745188888
1455;15476922000;13286544444;13786544444
1467;15515967000;13328222222;13828222222
1473;15516121000;13328233333;13828233333
1474;15516126000;13328555555;13828555555
1476;15516128000;13328555555;13828555555
1477;15553574000;13369888888;13869888888
1478;15553577000;13369888888;13869888888
1479;15553578000;13369888888;13869888888
1480;15553579000;13369888888;13869888888
1482;15553580000;13369888888;13869888888
1483;15553581000;13369888888;13869888888
1484;15553702000;13369900000;13869900000
1485;15553707000;13370200000;13870200000
1486;15553708000;13370200000;13870200000
1487;15553709000;13370200000;13870200000
1488;15589707000;13411555555;13911555555
1489;15589709000;13411555555;13911555555
1490;15589710000;13411555555;13911555555
1491;15589720000;13411555555;13911555555
1492;15589721000;13411555555;13911555555
1493;15589722000;13411555555;13911555555
1494;15589723000;13411555555;13911555555
1495;15714014000;13411566666;13911566666
1509;15714020000;13453522222;13953522222
1510;15797249000;13494877777;13994877777
1514;15797253000;13494877777;13994877777
1515;15797254000;13494877777;13994877777
1516;15797255000;13494877777;13994877777
1517;15797380000;13494888888;13994888888
1518;15797385000;13495177777;13995177777
1519;15797387000;13495177777;13995177777
1520;15797388000;13495177777;13995177777
1521;15837963000;13536544444;14036544444
1522;15837966000;13536544444;14036544444
1523;15837967000;13536544444;14036544444
1524;15837977000;13536544444;14036544444
1525;15837978000;13536544444;14036544444
1526;15837979000;13536544444;14036544444
1527;15837980000;13536544444;14036544444
1528;15838105000;13536555555;14036555555
1529;15838110000;13536855555;14036855555
1530;15838112000;13536855555;14036855555
1531;15838113000;13536855555;14036855555
1532;15877957000;13578222222;14078222222
1549;15916853000;13619888888;14119888888
1554;15954473000;13661544444;14161544444
1555;15954476000;13661544444;14161544444
1556;15954477000;13661544444;14161544444
1557;15954478000;13661544444;14161544444
1558;15954479000;13661544444;14161544444
1559;15954480000;13661544444;14161544444
1560;15954481000;13661544444;14161544444
1561;15954602000;13661555555;14161555555
1562;15954607000;13661833333;14161833333
1563;15954608000;13661833333;14161833333
1565;15990889000;13703211111;14203211111
1566;15990892000;13703211111;14203211111
1567;15990893000;13703211111;14203211111
1568;15990894000;13703211111;14203211111
1569;15990895000;13703211111;14203211111
1571;15990897000;13703211111;14203211111
1572;15990981000;13703222222;14203222222
1573;15990986000;13703566666;14203566666
1574;15990987000;13703566666;14203566666
1575;15990988000;13703566666;14203566666
1576;16025324000;13744888888;14244888888
1577;16064693000;13744888888;14244888888
1578;16064696000;13744888888;14244888888
1579;16064697000;13744888888;14244888888
1580;16064699000;13744888888;14244888888
1581;16064705000;13744888888;14244888888
1582;16064719000;13744888888;14244888888
1583;16115102000;13744900000;14244900000
1590;16115108000;13786555555;14286555555
1591;16115109000;13786555555;14286555555
1592;16115110000;13786555555;14286555555
1593;16115111000;13786555555;14286555555
1594;16156697000;13786566666;14286566666
1598;16156703000;13828222222;14328222222
1599;16156704000;13828222222;14328222222
1600;16156705000;13828222222;14328222222
1601;16156707000;13828222222;14328222222
1602;16156717000;13828222222;14328222222
1603;16156718000;13828222222;14328222222
1604;16156719000;13828222222;14328222222
1605;16198190000;13828233333;14328233333
1606;16198197000;13828544444;14328544444
1607;16198198000;13828544444;14328544444
1608;16198200000;13828544444;14328544444
1609;16239093000;13869877777;14369877777
1611;16239744000;13869877777;14369877777
1612;16239747000;13869877777;14369877777
1613;16239749000;13869877777;14369877777
1614;16239760000;13869877777;14369877777
1615;16239761000;13869877777;14369877777
1616;16239894000;13869888888;14369888888
1617;16239899000;13870188888;14370188888
1618;16239900000;13870188888;14370188888
1619;16265447000;13870188888;14370188888
1620;16278946000;13911544444;14411544444
1633;16317980000;13953211111;14453211111
1639;16318035000;13953555555;14453555555
1640;16318037000;13953555555;14453555555
1641;16318039000;13953555555;14453555555
1642;16355600000;13994888888;14494888888
1643;16355603000;13994888888;14494888888
1644;16355604000;13994888888;14494888888
1645;16355606000;13994888888;14494888888
1646;16355606000;13994888888;14494888888
1647;16355608000;13994888888;14494888888
1648;16355609000;13994888888;14494888888
1649;16355730000;13994900000;14494900000
1650;16355735000;13995200000;14495200000
1651;16355737000;13995200000;14495200000
1652;16355738000;13995200000;14495200000
1653;16391747000;14036555555;14536555555
1654;16391750000;14036555555;14536555555
1655;16391760000;14036555555;14536555555
1656;16391761000;14036555555;14536555555
1657;16391762000;14036555555;14536555555
1658;16391763000;14036555555;14536555555
1659;16391764000;14036555555;14536555555
1660;16391880000;14036577777;14536577777
1661;16465949000;14036866666;14536866666
1662;16465957000;14036866666;14536866666
1663;16465961000;14036866666;14536866666
1664;16557818000;14078211111;14578211111
1677;16599052000;14119877777;14619877777
1678;16599056000;14119877777;14619877777
1679;16599057000;14119877777;14619877777
1680;16599058000;14119877777;14619877777
1681;16599059000;14119877777;14619877777
1682;16599185000;14119888888;14619888888
1683;16599191000;14120211111;14620211111
1684;16599192000;14120211111;14620211111
1685;16599193000;14120211111;14620211111
1686;16640010000;14161555555;14661555555
1687;16640014000;14161555555;14661555555
1688;16640015000;14161555555;14661555555
1689;16640016000;14161555555;14661555555
1690;16640017000;14161555555;14661555555
1691;16640018000;14161555555;14661555555
1692;16640019000;14161555555;14661555555
1693;16640133000;14161566666;14661566666
1695;16640175000;14161833333;14661833333
1696;16640176000;14161833333;14661833333
1697;16679699000;14203222222;14703222222
1717;16717711000;14245200000;14745200000
1718;16717714000;14245200000;14745200000
1719;16753936000;14286544444;14786544444
1720;16753940000;14286544444;14786544444
1721;16753941000;14286544444;14786544444
1722;16753942000;14286544444;14786544444
1723;16753943000;14286544444;14786544444
1724;16753944000;14286544444;14786544444
1725;16753945000;14286544444;14786544444
1726;16754054000;14286555555;14786555555
1727;16754069000;14286855555;14786855555
1728;16754071000;14286855555;14786855555
1729;16754072000;14286855555;14786855555
1730;16788263000;14328222222;14828222222
1731;16788267000;14328222222;14828222222
1732;16788268000;14328222222;14828222222
1733;16788269000;14328222222;14828222222
1734;16788270000;14328222222;14828222222
1735;16788271000;14328222222;14828222222
1736;16788272000;14328222222;14828222222
1737;16788396000;14328233333;14828233333
1738;16788401000;14328566666;14828566666
1739;16788403000;14328566666;14828566666
1740;16788404000;14328566666;14828566666
1741;16820596000;14369888888;14869888888
1742;16866721000;14369888888;14869888888
1743;16866736000;14369888888;14869888888
1744;16866737000;14369888888;14869888888
1745;16866752000;14369888888;14869888888
1746;16866753000;14369888888;14869888888
1747;16866755000;14369888888;14869888888
1748;16917179000;14369900000;14869900000
1758;16917184000;14411555555;14911555555
1759;16958793000;14411566666;14911566666
1762;16958800000;14411855555;14911855555
1763;17000242000;14453222222;14953222222
1764;17000246000;14453222222;14953222222
1765;17000247000;14453222222;14953222222
1768;17000248000;14453222222;14953222222
1769;17000249000;14453222222;14953222222
1770;17000375000;14453233333;14953233333
1771;17000380000;14453533333;14953533333
1772;17000381000;14453533333;14953533333
1774;17041246000;14494877777;14994877777
1775;17041249000;14494877777;14994877777
1776;17041250000;14494877777;14994877777
1777;17041252000;14494877777;14994877777
1778;17041252000;14494877777;14994877777
1779;17041254000;14494877777;14994877777
1781;17041335000;14494888888;14994888888
1782;17041340000;14495200000;14995200000
1783;17041342000;14495200000;14995200000
1784;17067013000;14495200000;14995200000
1787;17081056000;14536544444;15036544444
1801;17120114000;14578233333;15078233333
1804;17120171000;14578577777;15078577777
1805;17120173000;14578577777;15078577777
1806;17120175000;14578577777;15078577777
1807;17157689000;14619888888;15119888888
1808;17157692000;14619888888;15119888888
1809;17157694000;14619888888;15119888888
1810;17157695000;14619888888;15119888888
1811;17157696000;14619888888;15119888888
1813;17157873000;14619888888;15119888888
1814;17157999000;14619900000;15119900000
1815;17158004000;14620222222;15120222222
1816;17158006000;14620222222;15120222222
1817;17158007000;14620222222;15120222222
1818;17193844000;14661544444;15161544444
1819;17193848000;14661544444;15161544444
1820;17193849000;14661544444;15161544444
1821;17193850000;14661544444;15161544444
1822;17193852000;14661544444;15161544444
1823;17193853000;14661544444;15161544444
1824;17193854000;14661544444;15161544444
1825;17193978000;14661555555;15161555555
1826;17267338000;14661844444;15161844444
1827;17267343000;14661844444;15161844444
1828;17267345000;14661844444;15161844444
1829;17359197000;14703211111;15203211111
1846;17400437000;14744877777;15244877777
1847;17400565000;14744888888;15244888888
1848;17400570000;14745177777;15245177777
1849;17400572000;14745177777;15245177777
1850;17400573000;14745177777;15245177777
1851;17441401000;14786555555;15286555555
1852;17441405000;14786555555;15286555555
1853;17441406000;14786555555;15286555555
1854;17441407000;14786555555;15286555555
1855;17441408000;14786555555;15286555555
1856;17441410000;14786555555;15286555555
1857;17441411000;14786555555;15286555555
1858;17441535000;14786566666;15286566666
1859;17441540000;14786833333;15286833333
1860;17441542000;14786833333;15286833333
1861;17441543000;14786833333;15286833333
1862;17481168000;14828255555;15328255555
1886;17555522000;14911544444;15411544444
1889;17555526000;14911544444;15411544444
1890;17555527000;14911544444;15411544444
1891;17555669000;14911555555;15411555555
1892;17555674000;14911822222;15411822222
1893;17555675000;14911822222;15411822222
1894;17555676000;14911822222;15411822222
1895;17589650000;14953211111;15453211111
1896;17589654000;14953211111;15453211111
1897;17589655000;14953211111;15453211111
1898;17589656000;14953211111;15453211111
1899;17589657000;14953211111;15453211111
1900;17589658000;14953211111;15453211111
1901;17589659000;14953211111;15453211111
1902;17589782000;14953222222;15453222222
1903;17589788000;14953533333;15453533333
1904;17589790000;14953533333;15453533333
1905;17589791000;14953533333;15453533333
1907;17622657000;14994888888;15494888888
1908;17622659000;14994888888;15494888888
1909;17622660000;14994888888;15494888888
1910;17622670000;14994888888;15494888888
1911;17622672000;14994888888;15494888888
1912;17667883000;14994888888;15494888888
1917;17759775000;15036555555;15536555555
1932;17868257000;15078211111;15578211111
1944;17868270000;15119888888;15619888888
1945;17868272000;15119888888;15619888888
1946;17868374000;15119900000;15619900000
1952;17868380000;15161555555;15661555555
1953;17868381000;15161555555;15661555555
1954;17868383000;15161555555;15661555555
1955;17868384000;15161555555;15661555555
1956;17868385000;15161555555;15661555555
1957;17881611000;15161566666;15661566666
1975;17881617000;15244888888;15744888888
1976;17881618000;15244888888;15744888888
1977;17881619000;15244888888;15744888888
1978;17881620000;15244888888;15744888888
1979;17956149000;15244900000;15744900000
1981;17956156000;15245177777;15745177777
1982;17956158000;15245177777;15745177777
1983;17990211000;15286544444;15786544444
1984;17990214000;15286544444;15786544444
1985;17990215000;15286544444;15786544444
1986;17990216000;15286544444;15786544444
1987;17990217000;15286544444;15786544444
1988;17990218000;15286544444;15786544444
1989;17990219000;15286544444;15786544444
1990;17990345000;15286555555;15786555555
1991;17990350000;15286833333;15786833333
1992;17990351000;15286833333;15786833333
1993;17990352000;15286833333;15786833333
1994;18022571000;15328211111;15828211111
1995;18022575000;15328211111;15828211111
1996;18022576000;15328211111;15828211111
1997;18022577000;15328211111;15828211111
1998;18022578000;15328211111;15828211111
1999;18022579000;15328211111;15828211111
2000;18068523000;15328211111;15828211111
2004;18118878000;15328544444;15828544444
2019;18201834000;15411555555;15911555555
2022;18201838000;15411555555;15911555555
2023;18201961000;15411566666;15911566666
2024;18201966000;15411844444;15911844444
2025;18201968000;15411844444;15911844444
2026;18201969000;15411844444;15911844444
2027;18242589000;15453222222;15953222222
2028;18242592000;15453222222;15953222222
2029;18242593000;15453222222;15953222222
2030;18242594000;15453222222;15953222222
2031;18242595000;15453222222;15953222222
2032;18242596000;15453222222;15953222222
2033;18242597000;15453222222;15953222222
2034;18242717000;15453233333;15953233333
2035;18242722000;15453500000;15953500000
2036;18242724000;15453500000;15953500000
2037;18242725000;15453500000;15953500000
2038;18282302000;15494877777;15994877777
2063;18356714000;15578222222;16078222222
2066;18356718000;15578222222;16078222222
2067;18356839000;15578233333;16078233333
2068;18356844000;15578533333;16078533333
2069;18356846000;15578533333;16078533333
2070;18356847000;15578533333;16078533333
2071;18390839000;15619888888;16119888888
2072;18390842000;15619888888;16119888888
2073;18390843000;15619888888;16119888888
2074;18390844000;15619888888;16119888888
2075;18390846000;15619888888;16119888888
2076;18390847000;15619888888;16119888888
2077;18390848000;15619888888;16119888888
2078;18390972000;15619900000;16119900000
2079;18390978000;15620200000;16120200000
2080;18390979000;15620200000;16120200000
2081;18390981000;15620200000;16120200000
2082;18423178000;15661555555;16161555555
2083;18423181000;15661555555;16161555555
2084;18423182000;15661555555;16161555555
2085;18423200000;15661555555;16161555555
2086;18423201000;15661555555;16161555555
2087;18423202000;15661555555;16161555555
2088;18469341000;15661555555;16161555555
2089;18519710000;15661566666;16161566666
2109;18519716000;15744888888;16244888888
2110;18519718000;15744888888;16244888888
2111;18603015000;15744900000;16244900000
2115;18603023000;15786555555;16286555555
2116;18603024000;15786555555;16286555555
2117;18603026000;15786555555;16286555555
2118;18603027000;15786555555;16286555555
2119;18603037000;15786555555;16286555555
2120;18603038000;15786555555;16286555555
2121;18603039000;15786555555;16286555555
2122;18643762000;15786566666;16286566666
2123;18643768000;15786866666;16286866666
2124;18643770000;15786866666;16286866666
2125;18643771000;15786866666;16286866666
2126;18683427000;15828222222;16328222222
2152;18757804000;15911544444;16411544444
2155;18757927000;15911555555;16411555555
2156;18757932000;15911866666;16411866666
2157;18757933000;15911866666;16411866666
2158;18757934000;15911866666;16411866666
2159;18791918000;15953211111;16453211111
2160;18791922000;15953211111;16453211111
2161;18791923000;15953211111;16453211111
2162;18791924000;15953211111;16453211111
2163;18791925000;15953211111;16453211111
2164;18791926000;15953211111;16453211111
2165;18791927000;15953211111;16453211111
2166;18792032000;15953222222;16453222222
2167;18792037000;15953577777;16453577777
2168;18792039000;15953577777;16453577777
2170;18824955000;15994888888;16494888888
2171;18824958000;15994888888;16494888888
2172;18824959000;15994888888;16494888888
2173;18824960000;15994888888;16494888888
2174;18824961000;15994888888;16494888888
2175;18824962000;15994888888;16494888888
2176;18824963000;15994888888;16494888888
2177;18825058000;15994900000;16494900000
2178;18869999000;15995211111;16495211111
2179;18870003000;15995211111;16495211111
2180;18870010000;15995211111;16495211111
2181;18961833000;16036555555;16536555555
2200;19003220000;16078555555;16578555555
2201;19003224000;16078555555;16578555555
2202;19003225000;16078555555;16578555555
2203;19044094000;16119877777;16619877777
2204;19044098000;16119877777;16619877777
2205;19044099000;16119877777;16619877777
2206;19044109000;16119877777;16619877777
2207;19044110000;16119877777;16619877777
2208;19044111000;16119877777;16619877777
2209;19044112000;16119877777;16619877777
2210;19044319000;16119888888;16619888888
2211;19044334000;16120233333;16620233333
2212;19044336000;16120233333;16620233333
2213;19044337000;16120233333;16620233333
2214;19083809000;16161555555;16661555555
2400;19573748000;16828544444;17328544444
2493;19573873000;17203222222;17703222222
2494;19573876000;17203222222;17703222222
2495;19573877000;17203222222;17703222222
2496;19573979000;17203233333;17703233333
2497;19573994000;17203533333;17703533333
2498;19573996000;17203533333;17703533333
2499;19573997000;17203533333;17703533333
2500;19574009000;17244888888;17744888888
2501;19574010000;17244888888;17744888888
2502;19574011000;17244888888;17744888888
2503;19574012000;17244888888;17744888888
2504;19574013000;17244888888;17744888888
2505;19574014000;17244888888;17744888888
2506;19574015000;17244888888;17744888888
2507;19574113000;17244900000;17744900000
2508;19574129000;17245200000;17745200000
2509;19574130000;17245200000;17745200000
2510;19574131000;17245200000;17745200000
2511;19574143000;17286544444;17786544444
2512;19574144000;17286544444;17786544444
2513;19574145000;17286544444;17786544444
2514;19574146000;17286544444;17786544444
2515;19574147000;17286544444;17786544444
2516;19671347000;17286544444;17786544444
2517;19671349000;17286544444;17786544444
2518;19721818000;17286555555;17786555555
2537;19721833000;17369888888;17869888888
2538;19721834000;17369888888;17869888888
2539;19721835000;17369888888;17869888888
2540;19805135000;17369900000;17869900000
2544;19805151000;17411555555;17911555555
2545;19805152000;17411555555;17911555555
2546;19805153000;17411555555;17911555555
2547;19805154000;17411555555;17911555555
2548;19805155000;17411555555;17911555555
2549;19805157000;17411555555;17911555555
2550;19805158000;17411555555;17911555555
2551;19845872000;17411566666;17911566666
2552;19845887000;17411866666;17911866666
2553;19845888000;17411866666;17911866666
2554;19845889000;17411866666;17911866666
2555;19885485000;17453222222;17953222222
2583;19959888000;17536555555;18036555555
2587;19960004000;17536855555;18036855555
2588;19994022000;17578222222;18078222222
2591;19994365000;17578222222;18078222222
2592;19994368000;17578222222;18078222222
2593;19994369000;17578222222;18078222222
2594;19994370000;17578222222;18078222222
2595;19994592000;17578233333;18078233333
2596;19994608000;17578544444;18078544444
2597;19994610000;17578544444;18078544444
2598;19994611000;17578544444;18078544444
2599;20026372000;17619888888;18119888888
2600;20026376000;17619888888;18119888888
2601;20026377000;17619888888;18119888888
2602;20026378000;17619888888;18119888888
2603;20026379000;17619888888;18119888888
2604;20026381000;17619888888;18119888888
2605;20026382000;17619888888;18119888888
2606;20026600000;17619900000;18119900000
2607;20026616000;17620233333;18120233333
2608;20026618000;17620233333;18120233333
2609;20026619000;17620233333;18120233333
2610;20056830000;17661555555;18161555555
2611;20071842000;17661555555;18161555555
2612;20071857000;17661555555;18161555555
2613;20071858000;17661555555;18161555555
2614;20071862000;17661555555;18161555555
2615;20071881000;17661555555;18161555555
2620;20122267000;17661844444;18161844444
2632;20205273000;17744888888;18244888888
2634;20205276000;17744888888;18244888888
2635;20205277000;17744888888;18244888888
2636;20205278000;17744888888;18244888888
2637;20205280000;17744888888;18244888888
2638;20205281000;17744888888;18244888888
2639;20205487000;17744900000;18244900000
2640;20205503000;17745177777;18245177777
2641;20205504000;17745177777;18245177777
2642;20205505000;17745177777;18245177777
2643;20246017000;17786555555;18286555555
2644;20246021000;17786555555;18286555555
2646;20246132000;17786555555;18286555555
2647;20246134000;17786555555;18286555555
2648;20246135000;17786555555;18286555555
2649;20246136000;17786555555;18286555555
2650;20246317000;17786566666;18286566666
2651;20246333000;17786833333;18286833333
2652;20246334000;17786833333;18286833333
2653;20246335000;17786833333;18286833333
2654;20285764000;17828222222;18328222222
2679;20360160000;17911544444;18411544444
2683;20360362000;17911555555;18411555555
2684;20360377000;17911822222;18411822222
2685;20360378000;17911822222;18411822222
2686;20360379000;17911822222;18411822222
2687;20394267000;17953222222;18453222222
2688;20394270000;17953222222;18453222222
2689;20394271000;17953222222;18453222222
2690;20394272000;17953222222;18453222222
2691;20394274000;17953222222;18453222222
2692;20394275000;17953222222;18453222222
2693;20394276000;17953222222;18453222222
2694;20394456000;17953233333;18453233333
2695;20394460000;17953522222;18453522222
2696;20394462000;17953522222;18453522222
2697;20394463000;17953522222;18453522222
2698;20426591000;17994888888;18494888888
2699;20426593000;17994888888;18494888888
2700;20426594000;17994888888;18494888888
2701;20426595000;17994888888;18494888888
2702;20426596000;17994888888;18494888888
2703;20426597000;17994888888;18494888888
2704;20426598000;17994888888;18494888888
2705;20522893000;17994900000;18494900000
2723;20522909000;18078211111;18578211111
2724;20522910000;18078211111;18578211111
2725;20522911000;18078211111;18578211111
2726;20522913000;18078211111;18578211111
2727;20606165000;18078233333;18578233333
2731;20606180000;18119877777;18619877777
2732;20606182000;18119877777;18619877777
2733;20606183000;18119877777;18619877777
2736;20647422000;18119877777;18619877777
2738;20647636000;18119888888;18619888888
2739;20647652000;18120177777;18620177777
2740;20647653000;18120177777;18620177777
2741;20647654000;18120177777;18620177777
2742;20686546000;18161544444;18661544444
2774;20760931000;18245188888;18745188888
2777;20795038000;18286544444;18786544444
2778;20795041000;18286544444;18786544444
2779;20795052000;18286544444;18786544444
2780;20795053000;18286544444;18786544444
2781;20795054000;18286544444;18786544444
2782;20795260000;18286555555;18786555555
2783;20795285000;18286833333;18786833333
2784;20795287000;18286833333;18786833333
2785;20795288000;18286833333;18786833333
2786;20827399000;18328222222;18828222222
2787;20827402000;18328222222;18828222222
2789;20827659000;18328222222;18828222222
2790;20827661000;18328222222;18828222222
2791;20827662000;18328222222;18828222222
2792;20827663000;18328222222;18828222222
2793;20827808000;18328233333;18828233333
2794;20827811000;18328522222;18828522222
2795;20827813000;18328522222;18828522222
2796;20827814000;18328522222;18828522222
2797;20857549000;18369888888;18869888888
2798;20857551000;18369888888;18869888888
2799;20857552000;18369888888;18869888888
2800;20857553000;18369888888;18869888888
2801;20873012000;18369888888;18869888888
2802;20873080000;18369888888;18869888888
2803;20873082000;18369888888;18869888888
2804;20923525000;18369900000;18869900000
2824;20923532000;18453222222;18953222222
2825;20923542000;18453222222;18953222222
2826;21006862000;18453233333;18953233333
2830;21006878000;18494877777;18994877777
2831;21006880000;18494877777;18994877777
2832;21006881000;18494877777;18994877777
2833;21006882000;18494877777;18994877777
2834;21006883000;18494877777;18994877777
2835;21006884000;18494877777;18994877777
2836;21006886000;18494877777;18994877777
2837;21047580000;18494888888;18994888888
2838;21047596000;18495188888;18995188888
2839;21047597000;18495188888;18995188888
2840;21047598000;18495188888;18995188888
2841;21087215000;18536544444;19036544444
2871;21161606000;18620188888;19120188888
2875;21195721000;18661555555;19161555555
2876;21195725000;18661555555;19161555555
2877;21195726000;18661555555;19161555555
2878;21195727000;18661555555;19161555555
2879;21195728000;18661555555;19161555555
2880;21195729000;18661555555;19161555555
2882;21196195000;18661822222;19161822222
2883;21196198000;18661822222;19161822222
2884;21196199000;18661822222;19161822222
2885;21230793000;18703188888;19203188888
2886;21230796000;18703188888;19203188888
2887;21230797000;18703188888;19203188888
2888;21230799000;18703188888;19203188888
2889;21230800000;18703188888;19203188888
2890;21230801000;18703188888;19203188888
2891;21230802000;18703188888;19203188888
2892;21231008000;18703200000;19203200000
2893;21231024000;18703511111;19203511111
2894;21231025000;18703511111;19203511111
2895;21231026000;18703511111;19203511111
2896;21261070000;18744888888;19244888888
2897;21261074000;18744888888;19244888888
2898;21273509000;18744888888;19244888888
2899;21273512000;18744888888;19244888888
2900;21273516000;18744888888;19244888888
2901;21273520000;18744888888;19244888888
2902;21273536000;18744888888;19244888888
2903;21324000000;18744900000;19244900000
3020;21325896000;19203222222;19703222222
3022;21325899000;19203222222;19703222222
3023;21325900000;19203222222;19703222222
3024;21746115000;19203233333;19703233333
3117;21874552000;19578244444;20078244444
3118;21874555000;19578244444;20078244444
3119;21874556000;19578244444;20078244444
3120;21874557000;19578244444;20078244444
3121;21874558000;19578244444;20078244444
3122;21874559000;19578244444;20078244444
3123;21874820000;19578255555;20078255555
3134;21874846000;19619900000;20119900000
3135;21874848000;19620177777;20120177777
3136;21874849000;19620177777;20120177777
3137;21874850000;19620177777;20120177777
3138;21874855000;19661555555;20161555555
3139;21874856000;19661555555;20161555555
3140;21874857000;19661555555;20161555555
3141;21874858000;19661555555;20161555555
3142;21874859000;19661555555;20161555555
3143;21874860000;19661555555;20161555555
3147;21925128000;19661822222;20161822222
3162;22008176000;19744855555;20244855555
3168;22008298000;19745166666;20245166666
3169;22008302000;19745166666;20245166666
3170;22008304000;19745166666;20245166666
3171;22048946000;19786555555;20286555555
3173;22049269000;19786555555;20286555555
3174;22049271000;19786555555;20286555555
3175;22049272000;19786555555;20286555555
3176;22049273000;19786555555;20286555555
3177;22049274000;19786555555;20286555555
3178;22049482000;19786566666;20286566666
3179;22049498000;19786833333;20286833333
3180;22049499000;19786833333;20286833333
3181;22049508000;19786833333;20286833333
3182;22088696000;19828244444;20328244444
3212;22163125000;19911822222;20411822222
3216;22197185000;19953211111;20453211111
3217;22197188000;19953211111;20453211111
3218;22197189000;19953211111;20453211111
3219;22197190000;19953211111;20453211111
3220;22197191000;19953211111;20453211111
3221;22197192000;19953211111;20453211111
3222;22197398000;19953222222;20453222222
3223;22197414000;19953522222;20453522222
3224;22197415000;19953522222;20453522222
3225;22197416000;19953522222;20453522222
3226;22229554000;19994888888;20494888888
3227;22229558000;19994888888;20494888888
3228;22229559000;19994888888;20494888888
3229;22229560000;19994888888;20494888888
3230;22229561000;19994888888;20494888888
3231;22229562000;19994888888;20494888888
3232;22229563000;19994888888;20494888888
3233;22229801000;19994900000;20494900000
3236;22229817000;19995188888;20495188888
3237;22260028000;20036555555;20536555555
3238;22260031000;20036555555;20536555555
3239;22275108000;20036555555;20536555555
3240;22275113000;20036555555;20536555555
3241;22275115000;20036555555;20536555555
3242;22275116000;20036555555;20536555555
3243;22275124000;20036555555;20536555555
3244;22325598000;20036566666;20536566666
3259;22325613000;20119877777;20619877777
3260;22325614000;20119877777;20619877777
3261;22325615000;20119877777;20619877777
3262;22325617000;20119877777;20619877777
3263;22325618000;20119877777;20619877777
3264;22325619000;20119877777;20619877777
3265;22325619000;20119877777;20619877777
3266;22408885000;20119888888;20619888888
3270;22408901000;20161544444;20661544444
3271;22408902000;20161544444;20661544444
3272;22408903000;20161544444;20661544444
3273;22408904000;20161544444;20661544444
3274;22408905000;20161544444;20661544444
3275;22408906000;20161544444;20661544444
3276;22408907000;20161544444;20661544444
3277;22449630000;20161555555;20661555555
3278;22449646000;20161811111;20661811111
3279;22449647000;20161811111;20661811111
3280;22449648000;20161811111;20661811111
3281;22489294000;20203222222;20703222222
3302;22527248000;20245177777;20745177777
3303;22563493000;20286544444;20786544444
3312;22563596000;20286833333;20786833333
3313;22563600000;20286833333;20786833333
3314;22597789000;20328211111;20828211111
3315;22597792000;20328211111;20828211111
3316;22597794000;20328211111;20828211111
3317;22597795000;20328211111;20828211111
3321;22597991000;20328222222;20828222222
3322;22597998000;20328522222;20828522222
3323;22597999000;20328522222;20828522222
3325;22630208000;20369877777;20869877777
3326;22630212000;20369877777;20869877777
3327;22630213000;20369877777;20869877777
3328;22630214000;20369877777;20869877777
3329;22630215000;20369877777;20869877777
3330;22630216000;20369877777;20869877777
3331;22630217000;20369877777;20869877777
3332;22630318000;20369888888;20869888888
3333;22630334000;20370188888;20870188888
3334;22630335000;20370188888;20870188888
3335;22630336000;20370188888;20870188888
3336;22725969000;20411555555;20911555555
3356;22767823000;20453511111;20953511111
3361;22809054000;20494877777;20994877777
3362;22809057000;20494877777;20994877777
3363;22809058000;20494877777;20994877777
3364;22809059000;20494877777;20994877777
3367;22809472000;20495177777;20995177777
3368;22809475000;20495177777;20995177777
3369;22850134000;20536544444;21036544444
3370;22850137000;20536544444;21036544444
3371;22850138000;20536544444;21036544444
3372;22850139000;20536544444;21036544444
3373;22850140000;20536544444;21036544444
3374;22850141000;20536544444;21036544444
3375;22850143000;20536544444;21036544444
3376;22850349000;20536555555;21036555555
3377;22850365000;20536833333;21036833333
3378;22850366000;20536833333;21036833333
3379;22850367000;20536833333;21036833333
3380;22890158000;20578222222;21078222222
3404;22966869000;20661555555;21161555555
3410;22966982000;20661822222;21161822222
3411;22966985000;20661822222;21161822222
3412;22966986000;20661822222;21161822222
3413;23002824000;20703211111;21203211111
3414;23002828000;20703211111;21203211111
3415;23002829000;20703211111;21203211111
3416;23002830000;20703211111;21203211111
3417;23002839000;20703211111;21203211111
3418;23002840000;20703211111;21203211111
3419;23002841000;20703211111;21203211111
3420;23003064000;20703222222;21203222222
3421;23003071000;20703522222;21203522222
3422;23003072000;20703522222;21203522222
3423;23003073000;20703522222;21203522222
3424;23037350000;20744888888;21244888888
3425;23037354000;20744888888;21244888888
3426;23037355000;20744888888;21244888888
3427;23037356000;20744888888;21244888888
3428;23037357000;20744888888;21244888888
3429;23037358000;20744888888;21244888888
3431;23037872000;20744900000;21244900000
3432;23037888000;20745188888;21245188888
3433;23076196000;20745188888;21245188888
3434;23076201000;20745188888;21245188888
3435;23126621000;20786555555;21286555555
3452;23168230000;20828266666;21328266666
3458;23209626000;20869888888;21369888888
3459;23209639000;20869888888;21369888888
3460;23209640000;20869888888;21369888888
3461;23209642000;20869888888;21369888888
3462;23209644000;20869888888;21369888888
3463;23209645000;20869888888;21369888888
3464;23209792000;20869900000;21369900000
3465;23209796000;20870177777;21370177777
3466;23209797000;20870177777;21370177777
3467;23209799000;20870177777;21370177777
3468;23250555000;20911544444;21411544444
3469;23250558000;20911544444;21411544444
3470;23250559000;20911544444;21411544444
3471;23250560000;20911544444;21411544444
3472;23250561000;20911544444;21411544444
3473;23250562000;20911544444;21411544444
3474;23250563000;20911544444;21411544444
3475;23250708000;20911555555;21411555555
3476;23250711000;20911844444;21411844444
3477;23250712000;20911844444;21411844444
3478;23250713000;20911844444;21411844444
3479;23290621000;20953211111;21453211111
3502;23368350000;21036555555;21536555555
3507;23368354000;21036555555;21536555555
3508;23368553000;21036566666;21536566666
3509;23368568000;21036855555;21536855555
3510;23368570000;21036855555;21536855555
3511;23368571000;21036855555;21536855555
3512;23404384000;21078222222;21578222222
3513;23404397000;21078222222;21578222222
3514;23404398000;21078222222;21578222222
3515;23404400000;21078222222;21578222222
3516;23404402000;21078222222;21578222222
3517;23404403000;21078222222;21578222222
3518;23404405000;21078222222;21578222222
3519;23404553000;21078233333;21578233333
3520;23404556000;21078533333;21578533333
3521;23404558000;21078533333;21578533333
3522;23404559000;21078533333;21578533333
3523;23438809000;21119877777;21619877777
3526;23438956000;21119877777;21619877777
3527;23438958000;21119877777;21619877777
3528;23438959000;21119877777;21619877777
3529;23476767000;21119877777;21619877777
3532;23527143000;21120177777;21620177777
3604;23810366000;21411555555;21911555555
3659;23878865000;21619888888;22119888888
3695;23888190000;21744900000;22244900000
3696;23888196000;21745177777;22245177777
3697;23888197000;21745177777;22245177777
3698;23888198000;21745177777;22245177777
3699;23899811000;21786555555;22286555555
3700;23899814000;21786555555;22286555555
3701;23899815000;21786555555;22286555555
3702;23899817000;21786555555;22286555555
3703;23899818000;21786555555;22286555555
3707;23899928000;21786833333;22286833333
3708;23899932000;21786833333;22286833333
3709;23899933000;21786833333;22286833333
3710;23923992000;21828233333;22328233333
3711;23923995000;21828233333;22328233333
3712;23923996000;21828233333;22328233333
3713;23923997000;21828233333;22328233333
3714;23923999000;21828233333;22328233333
3715;23924000000;21828233333;22328233333
3716;23924001000;21828233333;22328233333
3717;23924167000;21828255555;22328255555
3718;23924170000;21828544444;22328544444
3721;23944625000;21869888888;22369888888
3722;23944627000;21869888888;22369888888
3723;23944628000;21869888888;22369888888
3724;23944629000;21869888888;22369888888
3725;23944630000;21869888888;22369888888
3726;23944631000;21869888888;22369888888
3727;23944632000;21869888888;22369888888
3728;23944728000;21869900000;22369900000
3729;23944730000;21870166666;22370166666
3730;23944731000;21870166666;22370166666
3731;23944732000;21870166666;22370166666
3732;24127842000;21911544444;22411544444
3752;24169768000;21953511111;22453511111
3758;24210934000;21994888888;22494888888
3759;24210947000;21994888888;22494888888
3760;24210949000;21994888888;22494888888
3761;24211107000;21994900000;22494900000
3762;24211111000;21995177777;22495177777
3763;24211113000;21995177777;22495177777
3764;24211115000;21995177777;22495177777
3765;24251875000;22036555555;22536555555
3766;24251878000;22036555555;22536555555
3767;24251879000;22036555555;22536555555
3768;24251880000;22036555555;22536555555
3769;24251881000;22036555555;22536555555
3770;24251882000;22036555555;22536555555
3771;24251883000;22036555555;22536555555
3772;24252027000;22036566666;22536566666
3773;24252029000;22036844444;22536844444
3774;24252030000;22036844444;22536844444
3775;24252031000;22036844444;22536844444
3776;24291836000;22078211111;22578211111
3799;24368617000;22161544444;22661544444
3806;24368729000;22161800000;22661800000
3807;24368733000;22161800000;22661800000
3808;24368734000;22161800000;22661800000
3809;24404538000;22203222222;22703222222
3810;24404541000;22203222222;22703222222
3811;24404543000;22203222222;22703222222
3814;24404691000;22203222222;22703222222
3815;24404693000;22203222222;22703222222
3816;24404847000;22203233333;22703233333
3817;24404851000;22203511111;22703511111
3818;24404852000;22203511111;22703511111
3820;24439095000;22244888888;22744888888
3821;24439108000;22244888888;22744888888
3822;24439109000;22244888888;22744888888
3823;24439111000;22244888888;22744888888
3824;24439112000;22244888888;22744888888
3825;24439114000;22244888888;22744888888
3826;24439116000;22244888888;22744888888
3827;24439211000;22244900000;22744900000
3828;24439215000;22245177777;22745177777
3829;24439216000;22245177777;22745177777
3830;24439218000;22245177777;22745177777
3831;24528405000;22286544444;22786544444
3851;24570340000;22328522222;22828522222
3857;24611483000;22369877777;22869877777
3858;24611496000;22369877777;22869877777
3859;24611498000;22369877777;22869877777
3860;24611644000;22369888888;22869888888
3861;24611648000;22370188888;22870188888
3862;24611649000;22370188888;22870188888
3863;24611651000;22370188888;22870188888
3864;24652436000;22411555555;22911555555
3865;24652439000;22411555555;22911555555
3866;24652440000;22411555555;22911555555
3867;24652441000;22411555555;22911555555
3868;24652443000;22411555555;22911555555
3869;24652444000;22411555555;22911555555
3870;24652454000;22411555555;22911555555
3871;24652587000;22411566666;22911566666
3872;24652590000;22411844444;22911844444
3873;24652591000;22411844444;22911844444
3874;24652592000;22411844444;22911844444
3875;24692457000;22453222222;22953222222
3899;24769170000;22536544444;23036544444
3908;24805117000;22578244444;23078244444
3909;24805130000;22578244444;23078244444
3910;24805132000;22578244444;23078244444
3911;24805134000;22578244444;23078244444
3912;24805136000;22578244444;23078244444
3913;24805137000;22578244444;23078244444
3914;24805139000;22578244444;23078244444
3915;24805284000;22578255555;23078255555
3916;24805288000;22578544444;23078544444
3917;24805290000;22578544444;23078544444
3918;24805291000;22578544444;23078544444
3919;24839570000;22619888888;23119888888
3920;24839572000;22619888888;23119888888
3921;24839574000;22619888888;23119888888
3922;24839575000;22619888888;23119888888
3923;24839576000;22619888888;23119888888
3924;24839577000;22619888888;23119888888
3925;24839578000;22619888888;23119888888
3926;24839721000;22619900000;23119900000
3927;24839723000;22620188888;23120188888
3928;24839724000;22620188888;23120188888
3929;24839725000;22620188888;23120188888
3930;24928989000;22661555555;23161555555
3950;24970863000;22703522222;23203522222
3956;25012022000;22744877777;23244877777
3957;25012035000;22744877777;23244877777
3958;25012037000;22744877777;23244877777
3959;25012194000;22744888888;23244888888
3960;25012198000;22745177777;23245177777
3961;25012200000;22745177777;23245177777
3962;25012201000;22745177777;23245177777
3963;25053069000;22786555555;23286555555
3964;25053073000;22786555555;23286555555
3965;25053074000;22786555555;23286555555
3966;25053075000;22786555555;23286555555
3967;25053086000;22786555555;23286555555
3968;25053087000;22786555555;23286555555
3969;25053088000;22786555555;23286555555
3970;25053275000;22786566666;23286566666
3971;25053279000;22786833333;23286833333
3972;25053280000;22786833333;23286833333
3973;25053281000;22786833333;23286833333
3974;25092976000;22828222222;23328222222
4000;25169715000;22911544444;23411544444
4008;25205626000;22953211111;23453211111
4009;25205639000;22953211111;23453211111
4010;25205640000;22953211111;23453211111
4011;25205642000;22953211111;23453211111
4012;25205644000;22953211111;23453211111
4013;25205645000;22953211111;23453211111
4014;25205792000;22953222222;23453222222
4015;25205796000;22953522222;23453522222
4016;25205798000;22953522222;23453522222
4017;25205799000;22953522222;23453522222
4018;25240190000;22994888888;23494888888
4019;25240193000;22994888888;23494888888
4020;25240194000;22994888888;23494888888
4021;25240195000;22994888888;23494888888
4022;25240196000;22994888888;23494888888
4023;25240197000;22994888888;23494888888
4024;25240198000;22994888888;23494888888
4025;25240368000;22994900000;23494900000
4026;25240372000;22995188888;23495188888
4027;25240373000;22995188888;23495188888
4028;25240374000;22995188888;23495188888
4029;25272802000;23036555555;23536555555
4030;25272804000;23036555555;23536555555
4031;25272805000;23036555555;23536555555
4032;25279190000;23036555555;23536555555
4033;25279197000;23036555555;23536555555
4034;25279211000;23036555555;23536555555
4035;25279223000;23036555555;23536555555
4036;25329622000;23036577777;23536577777
4053;25329628000;23119877777;23619877777
4054;25329630000;23119877777;23619877777
4055;25329631000;23119877777;23619877777
4056;25329632000;23119877777;23619877777
4057;25329633000;23119877777;23619877777
4058;25412839000;23119888888;23619888888
4062;25412843000;23161544444;23661544444
4063;25412845000;23161544444;23661544444
4064;25412847000;23161544444;23661544444
4065;25412848000;23161544444;23661544444
4066;25412850000;23161544444;23661544444
4067;25412852000;23161544444;23661544444
4068;25412853000;23161544444;23661544444
4069;25453562000;23161555555;23661555555
4070;25453566000;23161811111;23661811111
4071;25453567000;23161811111;23661811111
4072;25453568000;23161811111;23661811111
4073;25493358000;23203222222;23703222222
4106;25602153000;23328211111;23828211111
4116;25602240000;23328522222;23828522222
4117;25634135000;23369900000;23869900000
4118;25634138000;23369900000;23869900000
4119;25634140000;23369900000;23869900000
4120;25634151000;23369900000;23869900000
4121;25634152000;23369900000;23869900000
4122;25634154000;23369900000;23869900000
4123;25634155000;23369900000;23869900000
4124;25634300000;23369911111;23869911111
4170;25679700000;23536888888;24036888888
4172;25803347000;23578233333;24078233333
4211;25803435000;23703211111;24203211111
4212;25803515000;23703222222;24203222222
4213;25803518000;23703522222;24203522222
4214;25803520000;23703522222;24203522222
4215;25803521000;23703522222;24203522222
4216;25803539000;23744888888;24244888888
4217;25803541000;23744888888;24244888888
4218;25803543000;23744888888;24244888888
4219;25803544000;23744888888;24244888888
4220;25803546000;23744888888;24244888888
4221;25803557000;23744888888;24244888888
4222;25803559000;23744888888;24244888888
4223;25803613000;23744900000;24244900000
4224;25803617000;23745188888;24245188888
4225;25803618000;23745188888;24245188888
4226;25803620000;23745188888;24245188888
4227;25814602000;23786555555;24286555555
4228;25814604000;23786555555;24286555555
4229;25814606000;23786555555;24286555555
4230;25814608000;23786555555;24286555555
4231;25814609000;23786555555;24286555555
4232;25814620000;23786555555;24286555555
4233;25814621000;23786555555;24286555555
4234;25930410000;23786566666;24286566666
4257;25930426000;23870188888;24370188888
4258;25930427000;23870188888;24370188888
4259;25930428000;23870188888;24370188888
4260;26054705000;23911544444;24411544444
4265;26054709000;23911544444;24411544444
4266;26054719000;23911544444;24411544444
4267;26054858000;23911555555;24411555555
4268;26054862000;23911833333;24411833333
4269;26054870000;23911833333;24411833333
4270;26054872000;23911833333;24411833333
4271;26094037000;23953211111;24453211111
4311;26203067000;24078222222;24578222222
4319;26203074000;24119877777;24619877777
4320;26203075000;24119877777;24619877777
4321;26203076000;24119877777;24619877777
4322;26234974000;24119900000;24619900000
4323;26234979000;24120200000;24620200000
4324;26234981000;24120200000;24620200000
4325;26234983000;24120200000;24620200000
4326;26265178000;24161544444;24661544444
4327;26265181000;24161544444;24661544444
4328;26265182000;24161544444;24661544444
4329;26265183000;24161544444;24661544444
4330;26265184000;24161544444;24661544444
4331;26265185000;24161544444;24661544444
4332;26265186000;24161544444;24661544444
4333;26265366000;24161555555;24661555555
4334;26265371000;24161822222;24661822222
4335;26265372000;24161822222;24661822222
4336;26265373000;24161822222;24661822222
4337;26293264000;24203222222;24703222222
4364;26346401000;24286544444;24786544444
4374;26371618000;24328211111;24828211111
4375;26371622000;24328211111;24828211111
4376;26371623000;24328211111;24828211111
4378;26372006000;24328533333;24828533333
4379;26372010000;24328533333;24828533333
4380;26372011000;24328533333;24828533333
4381;26401454000;24369877777;24869877777
4382;26401458000;24369877777;24869877777
4383;26401459000;24369877777;24869877777
4384;26401469000;24369877777;24869877777
4385;26401470000;24369877777;24869877777
4386;26401471000;24369877777;24869877777
4387;26401472000;24369877777;24869877777
4389;26401541000;24370200000;24870200000
4390;26401543000;24370200000;24870200000
4391;26401545000;24370200000;24870200000
4392;26431065000;24411555555;24911555555
4393;26431067000;24411555555;24911555555
4394;26431068000;24411555555;24911555555
4395;26431069000;24411555555;24911555555
4396;26431070000;24411555555;24911555555
4397;26431072000;24411555555;24911555555
4398;26481210000;24411555555;24911555555
4399;26531697000;24411566666;24911566666
4425;26534486000;24536544444;25036544444
4426;26534490000;24536544444;25036544444
4427;26534492000;24536544444;25036544444
4428;26534494000;24536544444;25036544444
4429;26534495000;24536544444;25036544444
4430;26534498000;24536544444;25036544444
4432;26656029000;24536555555;25036555555
4436;26656034000;24578233333;25078233333
4437;26656035000;24578233333;25078233333
4438;26656036000;24578233333;25078233333
4439;26656037000;24578233333;25078233333
4440;26656038000;24578233333;25078233333
4441;26656039000;24578233333;25078233333
4442;26656040000;24578233333;25078233333
4443;26695274000;24578511111;25078511111
4477;26695290000;24703544444;25203544444
4478;26695291000;24703544444;25203544444
4479;26695292000;24703544444;25203544444
4480;26836690000;24744877777;25244877777
4486;26836694000;24744877777;25244877777
4487;26836894000;24744888888;25244888888
4488;26836909000;24745166666;25245166666
4489;26836910000;24745166666;25245166666
4490;26836911000;24745166666;25245166666
4491;26866374000;24786555555;25286555555
4492;26866378000;24786555555;25286555555
4493;26866379000;24786555555;25286555555
4494;26866380000;24786555555;25286555555
4495;26866381000;24786555555;25286555555
4496;26866382000;24786555555;25286555555
4497;26866383000;24786555555;25286555555
4498;26866564000;24786566666;25286566666
4499;26866579000;24786822222;25286822222
4500;26866581000;24786822222;25286822222
4501;26866582000;24786822222;25286822222
4505;26894378000;24828222222;25328222222
4534;26947556000;24911811111;25411811111
4544;26972757000;24953511111;25453511111
4545;26972761000;24953511111;25453511111
4546;26997978000;24994888888;25494888888
4547;26997991000;24994888888;25494888888
4548;26997993000;24994888888;25494888888
4549;26997995000;24994888888;25494888888
4550;26997996000;24994888888;25494888888
4551;26997998000;24994888888;25494888888
4552;26997999000;24994888888;25494888888
4553;26998155000;24994900000;25494900000
4554;26998159000;24995177777;25495177777
4555;26998161000;24995177777;25495177777
4556;26998162000;24995177777;25495177777
4557;27023834000;25036555555;25536555555
4558;27023836000;25036555555;25536555555
4559;27023856000;25036555555;25536555555
4560;27023858000;25036555555;25536555555
4561;27023859000;25036555555;25536555555
4562;27023861000;25036555555;25536555555
4563;27023862000;25036555555;25536555555
4564;27024007000;25036566666;25536566666
4565;27024010000;25036833333;25536833333
4566;27082803000;25036833333;25536833333
4567;27082811000;25036833333;25536833333
4568;27133210000;25078244444;25578244444
4588;27175023000;25120166666;25620166666
4599;27216206000;25161800000;25661800000
4600;27216219000;25161800000;25661800000
4601;27257159000;25203222222;25703222222
4602;27257162000;25203222222;25703222222
4603;27257163000;25203222222;25703222222
4604;27257164000;25203222222;25703222222
4605;27257165000;25203222222;25703222222
4606;27257166000;25203222222;25703222222
4607;27257167000;25203222222;25703222222
4608;27257313000;25203233333;25703233333
4610;27257793000;25203511111;25703511111
4611;27257794000;25203511111;25703511111
4612;27297211000;25244888888;25744888888
4644;27373888000;25328522222;25828522222
4711;27618724000;25619888888;26119888888
4765;27618805000;25786855555;26286855555
4766;27618814000;25828222222;26328222222
4767;27618824000;25828222222;26328222222
4768;27618825000;25828222222;26328222222
4769;27618826000;25828222222;26328222222
4770;27618827000;25828222222;26328222222
4771;27618828000;25828222222;26328222222
4772;27618829000;25828222222;26328222222
4773;27618887000;25828233333;26328233333
4774;27618890000;25828544444;26328544444
4775;27618891000;25828544444;26328544444
4776;27618892000;25828544444;26328544444
4777;27618898000;25869888888;26369888888
4778;27618900000;25869888888;26369888888
4779;27618901000;25869888888;26369888888
4780;27618902000;25869888888;26369888888
4781;27618903000;25869888888;26369888888
4782;27618904000;25869888888;26369888888
4783;27618905000;25869888888;26369888888
4784;27618947000;25869900000;26369900000
4785;27618950000;25870188888;26370188888
4787;27618951000;25870188888;26370188888
4788;27618957000;25911544444;26411544444
4789;27684612000;25911544444;26411544444
4790;27684615000;25911544444;26411544444
4791;27684625000;25911544444;26411544444
4792;27684632000;25911544444;26411544444
4793;27684637000;25911544444;26411544444
4794;27684649000;25911544444;26411544444
4795;27735106000;25911555555;26411555555
4812;27735121000;25994888888;26494888888
4813;27735123000;25994888888;26494888888
4814;27735124000;25994888888;26494888888
4815;27735125000;25994888888;26494888888
4816;27735126000;25994888888;26494888888
4817;27818361000;25994900000;26494900000
4822;27818366000;26036555555;26536555555
4823;27818368000;26036555555;26536555555
4824;27818370000;26036555555;26536555555
4825;27818371000;26036555555;26536555555
4826;27818373000;26036555555;26536555555
4827;27818374000;26036555555;26536555555
4828;27859086000;26036566666;26536566666
4829;27859089000;26036855555;26536855555
4830;27859090000;26036855555;26536855555
4831;27859091000;26036855555;26536855555
4832;27898806000;26078222222;26578222222
4868;28009763000;26203222222;26703222222
4878;28041570000;26244888888;26744888888
4879;28041574000;26244888888;26744888888
4880;28041575000;26244888888;26744888888
4881;28041577000;26244888888;26744888888
4882;28041588000;26244888888;26744888888
4883;28041732000;26244900000;26744900000
4884;28041736000;26245188888;26745188888
4885;28041737000;26245188888;26745188888
4886;28041739000;26245188888;26745188888
4887;28071613000;26286544444;26786544444
4888;28071616000;26286544444;26786544444
4889;28071617000;26286544444;26786544444
4890;28071618000;26286544444;26786544444
4891;28071619000;26286544444;26786544444
4892;28071620000;26286544444;26786544444
4893;28071621000;26286544444;26786544444
4894;28071766000;26286555555;26786555555
4895;28071769000;26286844444;26786844444
4896;28071770000;26286844444;26786844444
4897;28071771000;26286844444;26786844444
4898;28099594000;26328188888;26828188888
4922;28151936000;26411555555;26911555555
4935;28176622000;26453222222;26953222222
4937;28176939000;26453222222;26953222222
4938;28177160000;26453233333;26953233333
4939;28177175000;26453522222;26953522222
4940;28177184000;26453522222;26953522222
4941;28177185000;26453522222;26953522222
4942;28201878000;26494877777;26994877777
4943;28201882000;26494877777;26994877777
4944;28201892000;26494877777;26994877777
4945;28201894000;26494877777;26994877777
4946;28201894000;26494877777;26994877777
4947;28201895000;26494877777;26994877777
4948;28201896000;26494877777;26994877777
4949;28202034000;26494888888;26994888888
4950;28202037000;26495200000;26995200000
4951;28202038000;26495200000;26995200000
4952;28202039000;26495200000;26995200000
4953;28227753000;26536544444;27036544444
4954;28227755000;26536544444;27036544444
4955;28227757000;26536544444;27036544444
4956;28227758000;26536544444;27036544444
4957;28227759000;26536544444;27036544444
4958;28286335000;26536544444;27036544444
4959;28286341000;26536544444;27036544444
4960;28336831000;26536555555;27036555555
4981;28336846000;26619888888;27119888888
4982;28420063000;26619900000;27119900000
4991;28420068000;26661555555;27161555555
4992;28420070000;26661555555;27161555555
4993;28460782000;26661566666;27161566666
4994;28460786000;26661844444;27161844444
4995;28460788000;26661844444;27161844444
4996;28460790000;26661844444;27161844444
4997;28500466000;26703211111;27203211111
5038;28609333000;26828577777;27328577777
5047;28641255000;26869888888;27369888888
5048;28641409000;26869900000;27369900000
5049;28641413000;26870177777;27370177777
5050;28641415000;26870177777;27370177777
5051;28641416000;26870177777;27370177777
5052;28671446000;26911544444;27411544444
5053;28671448000;26911544444;27411544444
5054;28671450000;26911544444;27411544444
5055;28671451000;26911544444;27411544444
5056;28671452000;26911544444;27411544444
5057;28671453000;26911544444;27411544444
5058;28671454000;26911544444;27411544444
5059;28671599000;26911555555;27411555555
5061;28671930000;26911844444;27411844444
5064;28699474000;26953211111;27453211111
5096;28777323000;27078222222;27578222222
5107;28802379000;27119877777;27619877777
5108;28802392000;27119877777;27619877777
5109;28802394000;27119877777;27619877777
5110;28802395000;27119877777;27619877777
5111;28802397000;27119877777;27619877777
5112;28802399000;27119877777;27619877777
5113;28802400000;27119877777;27619877777
5114;28802548000;27119888888;27619888888
5115;28802551000;27120188888;27620188888
5116;28802553000;27120188888;27620188888
5117;28802554000;27120188888;27620188888
5118;28824313000;27161544444;27661544444
5119;28824316000;27161544444;27661544444
5120;28824318000;27161544444;27661544444
5121;28824319000;27161544444;27661544444
5122;28824329000;27161544444;27661544444
5123;28824331000;27161544444;27661544444
5124;28824333000;27161544444;27661544444
5125;28824474000;27161555555;27661555555
5126;28824477000;27161822222;27661822222
5127;28824479000;27161822222;27661822222
5128;28824480000;27161822222;27661822222
5129;28937450000;27203222222;27703222222
5153;29020729000;27286544444;27786544444
5163;29061463000;27328211111;27828211111
5164;29061467000;27328211111;27828211111
5165;29061469000;27328211111;27828211111
5166;29061470000;27328211111;27828211111
5167;29061481000;27328211111;27828211111
5168;29061483000;27328211111;27828211111
5169;29061628000;27328222222;27828222222
5170;29061631000;27328533333;27828533333
5171;29061633000;27328533333;27828533333
5172;29061635000;27328533333;27828533333
5173;29101252000;27369877777;27869877777
5209;29210078000;27494877777;27994877777
5218;29242063000;27536544444;28036544444
5219;29242066000;27536544444;28036544444
5220;29242068000;27536544444;28036544444
5221;29242070000;27536544444;28036544444
5222;29242071000;27536544444;28036544444
5223;29242073000;27536544444;28036544444
5225;29242435000;27536844444;28036844444
5226;29242438000;27536844444;28036844444
5227;29242440000;27536844444;28036844444
5228;29275576000;27578211111;28078211111
5229;29275579000;27578211111;28078211111
5230;29275580000;27578211111;28078211111
5231;29275581000;27578211111;28078211111
5232;29275582000;27578211111;28078211111
5233;29275583000;27578211111;28078211111
5234;29275584000;27578211111;28078211111
5235;29275728000;27578222222;28078222222
5236;29275741000;27578533333;28078533333
5237;29275742000;27578533333;28078533333
5238;29275743000;27578533333;28078533333
5239;29303401000;27619888888;28119888888
5265;29355756000;27703211111;28203211111
5269;29355869000;27703544444;28203544444
5270;29355872000;27703544444;28203544444
5271;29355873000;27703544444;28203544444
5272;29380143000;27744877777;28244877777
5279;29380376000;27744888888;28244888888
5280;29380396000;27745188888;28245188888
5282;29380399000;27745188888;28245188888
5283;29405041000;27786555555;28286555555
5284;29405064000;27786555555;28286555555
5285;29405066000;27786555555;28286555555
5286;29405068000;27786555555;28286555555
5287;29405069000;27786555555;28286555555
5288;29405071000;27786555555;28286555555
5289;29405073000;27786555555;28286555555
5290;29405215000;27786566666;28286566666
5291;29405218000;27786844444;28286844444
5292;29405220000;27786844444;28286844444
5293;29405222000;27786844444;28286844444
5294;29430567000;27828222222;28328222222
5295;29430569000;27828222222;28328222222
5296;29430570000;27828222222;28328222222
5297;29430572000;27828222222;28328222222
5298;29430573000;27828222222;28328222222
5299;29430575000;27828222222;28328222222
5300;29487904000;27828222222;28328222222
5301;29538322000;27828233333;28328233333
5323;29621493000;27911555555;28411555555
5335;29621499000;27953533333;28453533333
5336;29621501000;27953533333;28453533333
5337;29621503000;27953533333;28453533333
5338;29702254000;27994888888;28494888888
5379;29810818000;28120200000;28620200000
5391;29842838000;28161822222;28661822222
5392;29842841000;28161822222;28661822222
5393;29873078000;28203222222;28703222222
5394;29873081000;28203222222;28703222222
5395;29873082000;28203222222;28703222222
5396;29873083000;28203222222;28703222222
5397;29873084000;28203222222;28703222222
5398;29873086000;28203222222;28703222222
5399;29873087000;28203222222;28703222222
5400;29873304000;28203233333;28703233333
5401;29873319000;28203533333;28703533333
5402;29873320000;28203533333;28703533333
5403;29873321000;28203533333;28703533333
5404;29901131000;28244888888;28744888888
5437;29979691000;28369877777;28869877777
5446;29979802000;28370200000;28870200000
5447;29979806000;28370200000;28870200000
5448;30004653000;28411555555;28911555555
5449;30004666000;28411555555;28911555555
5450;30004668000;28411555555;28911555555
5451;30004670000;28411555555;28911555555
5452;30004671000;28411555555;28911555555
5453;30004673000;28411555555;28911555555
5454;30004675000;28411555555;28911555555
5455;30004821000;28411566666;28911566666
5456;30004825000;28411855555;28911855555
5457;30004827000;28411855555;28911855555
5458;30004828000;28411855555;28911855555
5459;30026552000;28453222222;28953222222
5461;30026775000;28453222222;28953222222
5462;30026777000;28453222222;28953222222
5463;30026778000;28453222222;28953222222
5464;30026780000;28453222222;28953222222
5465;30026782000;28453222222;28953222222
5466;30026933000;28453233333;28953233333
5468;30026936000;28453522222;28953522222
5469;30026938000;28453522222;28953522222
5470;30044561000;28494877777;28994877777
5471;30088968000;28494877777;28994877777
5472;30088971000;28494877777;28994877777
5473;30088976000;28494877777;28994877777
5474;30088981000;28494877777;28994877777
5475;30089008000;28494877777;28994877777
5476;30089019000;28494877777;28994877777
5477;30139508000;28494888888;28994888888
5481;30139524000;28536544444;29036544444
5482;30139525000;28536544444;29036544444
5483;30139526000;28536544444;29036544444
5484;30139527000;28536544444;29036544444
5485;30139528000;28536544444;29036544444
5486;30139529000;28536544444;29036544444
5487;30139530000;28536544444;29036544444
5488;30181110000;28536555555;29036555555
5489;30181125000;28536844444;29036844444
5490;30181126000;28536844444;29036844444
5491;30181127000;28536844444;29036844444
5492;30222438000;28578211111;29078211111
5493;30222451000;28578211111;29078211111
5494;30222453000;28578211111;29078211111
5495;30222454000;28578211111;29078211111
5498;30222854000;28578211111;29078211111
5499;30223012000;28578222222;29078222222
