seqnum;now;rtptime;deadline
1;16968215000;15462422222;15962422222
2;16968218000;15462422222;15962422222
3;17050470000;15493611111;15993611111
4;17050487000;15493611111;15993611111
5;17050489000;15493611111;15993611111
6;17050491000;15493611111;15993611111
7;17050493000;15493611111;15993611111
8;17167628000;15493611111;15993611111
9;17167777000;15493611111;15993611111
10;17218177000;15493633333;15993633333
11;17218197000;15493977777;15993977777
12;17218198000;15493977777;15993977777
13;17218200000;15493977777;15993977777
14;17259555000;15535266666;16035266666
15;17259559000;15535266666;16035266666
16;17367923000;15535266666;16035266666
17;17367933000;15535266666;16035266666
19;17367983000;15535266666;16035266666
20;17368285000;15535266666;16035266666
21;17418628000;15535277777;16035277777
22;17418644000;15535655555;16035655555
23;17418645000;15535655555;16035655555
24;17418646000;15535655555;16035655555
25;17460115000;15576933333;16076933333
26;17568206000;15576933333;16076933333
27;17568211000;15576933333;16076933333
28;17568216000;15576933333;16076933333
30;17568267000;15576933333;16076933333
31;17568636000;15576933333;16076933333
32;17618876000;15576944444;16076944444
33;17618881000;15577277777;16077277777
34;17618882000;15577277777;16077277777
35;17618883000;15577277777;16077277777
36;17660391000;15618600000;16118600000
37;17660395000;15618600000;16118600000
38;17660396000;15618600000;16118600000
39;17768526000;15618600000;16118600000
40;17768541000;15618600000;16118600000
42;17768617000;15618600000;16118600000
43;17819036000;15618611111;16118611111
44;17819057000;15618944444;16118944444
45;17819059000;15618944444;16118944444
46;17819060000;15618944444;16118944444
47;17860692000;15660266666;16160266666
48;17860696000;15660266666;16160266666
49;17860697000;15660266666;16160266666
50;17860698000;15660266666;16160266666
51;17860699000;15660266666;16160266666
52;17860700000;15660266666;16160266666
53;17860701000;15660266666;16160266666
54;17860901000;15660277777;16160277777
55;17860916000;15660588888;16160588888
56;17860917000;15660588888;16160588888
57;17968772000;15660588888;16160588888
59;18019225000;15701933333;16201933333
60;18019228000;15701933333;16201933333
61;18019230000;15701933333;16201933333
62;18019230000;15701933333;16201933333
63;18019231000;15701933333;16201933333
64;18019232000;15701933333;16201933333
65;18019354000;15701944444;16201944444
66;18019369000;15702244444;16202244444
67;18019370000;15702244444;16202244444
68;18019371000;15702244444;16202244444
69;18060747000;15743600000;16243600000
70;18060751000;15743600000;16243600000
74;18060753000;15743600000;16243600000
75;18060754000;15743600000;16243600000
76;18060877000;15743622222;16243622222
77;18060882000;15744022222;16244022222
78;18060884000;15744022222;16244022222
79;18060885000;15744022222;16244022222
80;18102320000;15785266666;16285266666
81;18102324000;15785266666;16285266666
82;18102325000;15785266666;16285266666
83;18102326000;15785266666;16285266666
84;18169060000;15785266666;16285266666
85;18169107000;15785266666;16285266666
86;18169287000;15785266666;16285266666
87;18219460000;15785288888;16285288888
88;18219466000;15785588888;16285588888
89;18219468000;15785588888;16285588888
90;18219469000;15785588888;16285588888
91;18261003000;15826933333;16326933333
92;18261006000;15826933333;16326933333
93;18261007000;15826933333;16326933333
94;18261008000;15826933333;16326933333
95;18261009000;15826933333;16326933333
96;18261010000;15826933333;16326933333
97;18261011000;15826933333;16326933333
98;18261129000;15826955555;16326955555
99;18261135000;15827244444;16327244444
100;18261136000;15827244444;16327244444
101;18261137000;15827244444;16327244444
102;18302733000;15868600000;16368600000
104;18302887000;15868600000;16368600000
105;18302890000;15868600000;16368600000
106;18302901000;15868600000;16368600000
107;18302903000;15868600000;16368600000
108;18302903000;15868600000;16368600000
109;18303016000;15868611111;16368611111
110;18303022000;15868866666;16368866666
111;18369345000;15868866666;16368866666
112;18369351000;15868866666;16368866666
113;18419672000;15910266666;16410266666
114;18419686000;15910266666;16410266666
115;18419687000;15910266666;16410266666
116;18419688000;15910266666;16410266666
117;18419689000;15910266666;16410266666
118;18419690000;15910266666;16410266666
119;18419691000;15910266666;16410266666
120;18419814000;15910288888;16410288888
121;18419819000;15910588888;16410588888
122;18419821000;15910588888;16410588888
123;18419822000;15910588888;16410588888
124;18461293000;15951933333;16451933333
125;18461296000;15951933333;16451933333
126;18461297000;15951933333;16451933333
127;18461299000;15951933333;16451933333
128;18461299000;15951933333;16451933333
129;18461300000;15951933333;16451933333
130;18461301000;15951933333;16451933333
131;18461413000;15951944444;16451944444
133;18461546000;15952244444;16452244444
134;18461561000;15952244444;16452244444
135;18505873000;15993600000;16493600000
136;18505883000;15993600000;16493600000
137;18505884000;15993600000;16493600000
138;18505886000;15993600000;16493600000
139;18505888000;15993600000;16493600000
140;18505889000;15993600000;16493600000
141;18505891000;15993600000;16493600000
142;18623509000;15993611111;16493611111
143;18623532000;15993922222;16493922222
144;18623534000;15993922222;16493922222
145;18623536000;15993922222;16493922222
146;18661629000;16035266666;16535266666
151;18661638000;16035266666;16535266666
152;18661648000;16035266666;16535266666
153;18661913000;16035288888;16535288888
154;18661929000;16035600000;16535600000
155;18661931000;16035600000;16535600000
156;18661932000;16035600000;16535600000
157;18707096000;16076933333;16576933333
158;18707104000;16076933333;16576933333
159;18707106000;16076933333;16576933333
160;18707117000;16076933333;16576933333
161;18707119000;16076933333;16576933333
162;18707120000;16076933333;16576933333
163;18707121000;16076933333;16576933333
164;18707337000;16076944444;16576944444
165;18707353000;16077255555;16577255555
167;18707355000;16077255555;16577255555
168;18744487000;16118622222;16618622222
169;18744491000;16118622222;16618622222
170;18744492000;16118622222;16618622222
173;18744494000;16118622222;16618622222
174;18769961000;16118622222;16618622222
175;18820445000;16118633333;16618633333
176;18820460000;16118977777;16618977777
177;18820462000;16118977777;16618977777
178;18820463000;16118977777;16618977777
179;18861938000;16160277777;16660277777
184;18861942000;16160277777;16660277777
185;18861943000;16160277777;16660277777
186;18862155000;16160288888;16660288888
187;18862161000;16160577777;16660577777
188;18862172000;16160577777;16660577777
189;18862173000;16160577777;16660577777
190;18903474000;16201933333;16701933333
191;18903477000;16201933333;16701933333
192;18903478000;16201933333;16701933333
193;18903479000;16201933333;16701933333
194;18903480000;16201933333;16701933333
195;18903481000;16201933333;16701933333
196;18903482000;16201933333;16701933333
197;18903620000;16201955555;16701955555
198;18903623000;16202233333;16702233333
199;18903624000;16202233333;16702233333
200;18903625000;16202233333;16702233333
201;18944703000;16243600000;16743600000
202;18944706000;16243600000;16743600000
203;18944707000;16243600000;16743600000
204;18944708000;16243600000;16743600000
205;18944709000;16243600000;16743600000
206;18970215000;16243600000;16743600000
207;18970231000;16243600000;16743600000
208;19020706000;16243622222;16743622222
209;19020722000;16243900000;16743900000
211;19020835000;16243900000;16743900000
212;19062199000;16285266666;16785266666
220;19062311000;16285600000;16785600000
221;19062315000;16285600000;16785600000
222;19062316000;16285600000;16785600000
223;19103740000;16326933333;16826933333
224;19103743000;16326933333;16826933333
225;19103744000;16326933333;16826933333
226;19103746000;16326933333;16826933333
227;19103746000;16326933333;16826933333
228;19103748000;16326933333;16826933333
229;19103749000;16326933333;16826933333
230;19103910000;16326955555;16826955555
231;19103916000;16327255555;16827255555
232;19103917000;16327255555;16827255555
233;19103918000;16327255555;16827255555
234;19145033000;16368600000;16868600000
235;19145037000;16368600000;16868600000
236;19145066000;16368600000;16868600000
237;19145067000;16368600000;16868600000
238;19145068000;16368600000;16868600000
239;19145069000;16368600000;16868600000
240;19145070000;16368600000;16868600000
241;19145149000;16368611111;16868611111
242;19170482000;16368888888;16868888888
243;19170495000;16368888888;16868888888
244;19170504000;16368888888;16868888888
245;19262403000;16410266666;16910266666
256;19303715000;16451933333;16951933333
257;19303719000;16451933333;16951933333
258;19303720000;16451933333;16951933333
259;19303721000;16451933333;16951933333
260;19303722000;16451933333;16951933333
261;19303723000;16451933333;16951933333
262;19303724000;16451933333;16951933333
263;19303930000;16451944444;16951944444
264;19303946000;16452233333;16952233333
266;19303947000;16452233333;16952233333
267;19344962000;16493600000;16993600000
268;19344966000;16493600000;16993600000
269;19344967000;16493600000;16993600000
270;19344968000;16493600000;16993600000
271;19344969000;16493600000;16993600000
272;19344970000;16493600000;16993600000
273;19344971000;16493600000;16993600000
274;19345141000;16493611111;16993611111
275;19345147000;16493911111;16993911111
276;19345149000;16493911111;16993911111
277;19345150000;16493911111;16993911111
278;19385416000;16535277777;17035277777
279;19385419000;16535277777;17035277777
280;19385421000;16535277777;17035277777
281;19385422000;16535277777;17035277777
282;19385423000;16535277777;17035277777
283;19385424000;16535277777;17035277777
284;19385424000;16535277777;17035277777
285;19385594000;16535288888;17035288888
286;19385599000;16535622222;17035622222
287;19385600000;16535622222;17035622222
288;19385601000;16535622222;17035622222
289;19425529000;16576933333;17076933333
290;19425532000;16576933333;17076933333
291;19425533000;16576933333;17076933333
292;19425534000;16576933333;17076933333
293;19425535000;16576933333;17076933333
294;19425536000;16576933333;17076933333
295;19425537000;16576933333;17076933333
296;19425736000;16576955555;17076955555
297;19428430000;16577233333;17077233333
300;19520453000;16618600000;17118600000
301;19520458000;16618600000;17118600000
302;19520460000;16618600000;17118600000
303;19520462000;16618600000;17118600000
304;19520463000;16618600000;17118600000
305;19520465000;16618600000;17118600000
306;19520466000;16618600000;17118600000
307;19520602000;16618611111;17118611111
308;19520619000;16618888888;17118888888
309;19520620000;16618888888;17118888888
310;19520622000;16618888888;17118888888
311;19561572000;16660266666;17160266666
312;19561576000;16660266666;17160266666
313;19561577000;16660266666;17160266666
314;19561579000;16660266666;17160266666
315;19561580000;16660266666;17160266666
316;19561581000;16660266666;17160266666
317;19561583000;16660266666;17160266666
318;19621484000;16660288888;17160288888
321;19621500000;16660588888;17160588888
322;19662978000;16701933333;17201933333
335;19704545000;16743600000;17243600000
336;19704549000;16743600000;17243600000
337;19704550000;16743600000;17243600000
338;19704551000;16743600000;17243600000
339;19704552000;16743600000;17243600000
340;19704751000;16743622222;17243622222
341;19704766000;16743900000;17243900000
342;19704768000;16743900000;17243900000
343;19704769000;16743900000;17243900000
344;19745786000;16785266666;17285266666
345;19745790000;16785266666;17285266666
346;19745791000;16785266666;17285266666
347;19745792000;16785266666;17285266666
348;19745793000;16785266666;17285266666
350;19745934000;16785266666;17285266666
351;19746092000;16785288888;17285288888
352;19746098000;16785588888;17285588888
353;19746099000;16785588888;17285588888
354;19746100000;16785588888;17285588888
355;19786339000;16826933333;17326933333
356;19786343000;16826933333;17326933333
357;19786344000;16826933333;17326933333
358;19786345000;16826933333;17326933333
359;19786346000;16826933333;17326933333
360;19786347000;16826933333;17326933333
361;19786348000;16826933333;17326933333
362;19786547000;16826955555;17326955555
363;19786562000;16827233333;17327233333
364;19786563000;16827233333;17327233333
365;19786565000;16827233333;17327233333
366;19825665000;16868600000;17368600000
367;19825677000;16868600000;17368600000
368;19825678000;16868600000;17368600000
369;19825679000;16868600000;17368600000
370;19825680000;16868600000;17368600000
371;19825681000;16868600000;17368600000
372;19825682000;16868600000;17368600000
373;19825820000;16868611111;17368611111
374;19825823000;16868855555;17368855555
375;19825824000;16868855555;17368855555
376;19825825000;16868855555;17368855555
377;19863893000;16910266666;17410266666
378;19863896000;16910266666;17410266666
379;19863897000;16910266666;17410266666
380;19863898000;16910266666;17410266666
381;19863899000;16910266666;17410266666
382;19863900000;16910266666;17410266666
383;19863901000;16910266666;17410266666
384;19864110000;16910288888;17410288888
385;19864114000;16910577777;17410577777
386;19864115000;16910577777;17410577777
387;19864116000;16910577777;17410577777
388;19900942000;16951933333;17451933333
389;19900944000;16951933333;17451933333
390;19900945000;16951933333;17451933333
391;19900956000;16951933333;17451933333
392;19900956000;16951933333;17451933333
393;19900957000;16951933333;17451933333
394;19900958000;16951933333;17451933333
395;19901169000;16951944444;17451944444
396;19901172000;16952244444;17452244444
397;19901173000;16952244444;17452244444
398;19901174000;16952244444;17452244444
399;20022033000;16993588888;17493588888
400;20022037000;16993588888;17493588888
401;20022038000;16993588888;17493588888
402;20022039000;16993588888;17493588888
403;20022040000;16993588888;17493588888
404;20022041000;16993588888;17493588888
405;20022042000;16993588888;17493588888
406;20022255000;16993611111;17493611111
407;20022270000;16993911111;17493911111
408;20022271000;16993911111;17493911111
409;20022272000;16993911111;17493911111
410;20063638000;17035255555;17535255555
426;20105211000;17076933333;17576933333
427;20105215000;17076933333;17576933333
428;20105391000;17076955555;17576955555
429;20105396000;17077266666;17577266666
430;20105397000;17077266666;17577266666
431;20105398000;17077266666;17577266666
432;20146494000;17118600000;17618600000
433;20146498000;17118600000;17618600000
434;20146499000;17118600000;17618600000
435;20146500000;17118600000;17618600000
436;20146501000;17118600000;17618600000
437;20146502000;17118600000;17618600000
438;20146503000;17118600000;17618600000
439;20146679000;17118611111;17618611111
440;20146684000;17118922222;17618922222
441;20146685000;17118922222;17618922222
442;20146686000;17118922222;17618922222
443;20187007000;17160266666;17660266666
444;20187010000;17160266666;17660266666
445;20187011000;17160266666;17660266666
446;20187012000;17160266666;17660266666
447;20187013000;17160266666;17660266666
448;20187014000;17160266666;17660266666
449;20187015000;17160266666;17660266666
451;20187088000;17160566666;17660566666
452;20187090000;17160566666;17660566666
453;20187091000;17160566666;17660566666
454;20227008000;17201933333;17701933333
455;20227010000;17201933333;17701933333
456;20227012000;17201933333;17701933333
457;20227013000;17201933333;17701933333
458;20227013000;17201933333;17701933333
459;20227015000;17201933333;17701933333
460;20227016000;17201933333;17701933333
461;20227160000;17201944444;17701944444
462;20227162000;17202222222;17702222222
463;20227163000;17202222222;17702222222
464;20227164000;17202222222;17702222222
465;20265358000;17243600000;17743600000
504;20372495000;17368588888;17868588888
519;20403633000;17410588888;17910588888
522;20428784000;17451922222;17951922222
532;20448965000;17493600000;17993600000
581;20534827000;17660255555;18160255555
582;20535005000;17660266666;18160266666
705;20572485000;18118955555;18618955555
706;20572488000;18118955555;18618955555
707;20831182000;18160300000;18660300000
806;20912011000;18535277777;19035277777
858;21012177000;18702266666;19202266666
884;21037812000;18826922222;19326922222
919;21123700000;18951944444;19451944444
935;21164997000;18993911111;19493911111
936;21165001000;18993911111;19493911111
937;21165002000;18993911111;19493911111
938;21205928000;19035266666;19535266666
956;21245827000;19076955555;19576955555
1019;21245831000;19326933333;19826933333
1020;21245849000;19326933333;19826933333
1021;21245850000;19326933333;19826933333
1022;21432291000;19326944444;19826944444
1046;21432296000;19410600000;19910600000
1047;21432297000;19410600000;19910600000
1048;21441041000;19451922222;19951922222
1098;21529580000;19618588888;20118588888
1099;21529790000;19618611111;20118611111
1100;21529806000;19618877777;20118877777
1101;21529807000;19618877777;20118877777
1102;21529808000;19618877777;20118877777
1103;21551387000;19660255555;20160255555
1104;21551391000;19660255555;20160255555
1105;21551392000;19660255555;20160255555
1106;21551393000;19660255555;20160255555
1107;21551394000;19660255555;20160255555
1108;21551396000;19660255555;20160255555
1109;21551397000;19660255555;20160255555
1110;21551560000;19660266666;20160266666
1111;21551566000;19660588888;20160588888
1112;21551568000;19660588888;20160588888
1114;21563894000;19701933333;20201933333
1115;21563896000;19701933333;20201933333
1116;21563897000;19701933333;20201933333
1117;21563899000;19701933333;20201933333
1118;21563900000;19701933333;20201933333
1119;21563901000;19701933333;20201933333
1120;21563902000;19701933333;20201933333
1123;21624401000;19702244444;20202244444
1126;21624514000;19743611111;20243611111
1127;21624517000;19743611111;20243611111
1128;21624518000;19743611111;20243611111
1129;21624519000;19743611111;20243611111
1130;21624520000;19743611111;20243611111
1131;21624521000;19743611111;20243611111
1132;21665748000;19743622222;20243622222
1176;21827898000;19910288888;20410288888
1205;21827904000;20035266666;20535266666
1206;21827906000;20035266666;20535266666
1207;21827907000;20035266666;20535266666
1208;21827908000;20035266666;20535266666
1209;21915305000;20035277777;20535277777
1256;21915309000;20202233333;20702233333
1257;22028541000;20243588888;20743588888
1286;22028743000;20326944444;20826944444
1387;22032929000;20702288888;21202288888
1388;22032933000;20702288888;21202288888
1389;22414140000;20743600000;21243600000
1510;22434666000;21201922222;21701922222
1511;22434669000;21201922222;21701922222
1512;22434670000;21201922222;21701922222
1513;22434671000;21201922222;21701922222
1514;22434672000;21201922222;21701922222
1515;22434673000;21201922222;21701922222
1516;22434674000;21201922222;21701922222
1517;22434816000;21201933333;21701933333
1518;22434822000;21202233333;21702233333
1519;22434833000;21202233333;21702233333
1520;22434834000;21202233333;21702233333
1525;22446937000;21243588888;21743588888
1572;22579024000;21410266666;21910266666
1584;22579030000;21452255555;21952255555
1585;22579032000;21452255555;21952255555
1586;22579033000;21452255555;21952255555
1587;22633462000;21493600000;21993600000
1600;22655412000;21535277777;22035277777
1653;22711593000;21743600000;22243600000
1654;22711596000;21743600000;22243600000
1655;22711607000;21743600000;22243600000
1656;22711608000;21743600000;22243600000
1657;22711609000;21743600000;22243600000
1658;22711610000;21743600000;22243600000
1659;22711611000;21743600000;22243600000
1660;22711818000;21743611111;22243611111
1661;22711821000;21743911111;22243911111
1662;22711822000;21743911111;22243911111
1663;22711823000;21743911111;22243911111
1664;22732058000;21785255555;22285255555
1665;22732060000;21785255555;22285255555
1666;22732061000;21785255555;22285255555
1667;22732062000;21785255555;22285255555
1668;22732063000;21785255555;22285255555
1669;22732064000;21785255555;22285255555
1670;22732074000;21785255555;22285255555
1671;22732283000;21785266666;22285266666
1672;22732286000;21785588888;22285588888
1673;22732287000;21785588888;22285588888
1674;22732288000;21785588888;22285588888
1675;22747576000;21826922222;22326922222
1676;22747578000;21826922222;22326922222
1677;22747579000;21826922222;22326922222
1678;22747580000;21826922222;22326922222
1679;22747581000;21826922222;22326922222
1680;22747582000;21826922222;22326922222
1681;22747583000;21826922222;22326922222
1682;22747753000;21826933333;22326933333
1683;22747756000;21827244444;22327244444
1684;22747757000;21827244444;22327244444
1685;22747758000;21827244444;22327244444
1686;22762585000;21868588888;22368588888
1687;22762607000;21868588888;22368588888
1688;22762608000;21868588888;22368588888
1689;22762608000;21868588888;22368588888
1690;22762609000;21868588888;22368588888
1691;22762610000;21868588888;22368588888
1692;22762611000;21868588888;22368588888
1693;22825967000;21868600000;22368600000
1698;22825982000;21910277777;22410277777
1699;22825983000;21910277777;22410277777
1700;22825984000;21910277777;22410277777
1701;22825985000;21910277777;22410277777
1702;22825986000;21910277777;22410277777
1703;22825987000;21910277777;22410277777
1704;22867768000;21910288888;22410288888
1749;22867772000;22077277777;22577277777
1750;22867774000;22077277777;22577277777
1751;22867775000;22077277777;22577277777
1752;23065807000;22118611111;22618611111
1825;23196116000;22368611111;22868611111
1845;23196132000;22451922222;22951922222
1846;23196133000;22451922222;22951922222
1847;23222718000;22451933333;22951933333
1852;23222733000;22493600000;22993600000
1853;23222734000;22493600000;22993600000
1856;23233088000;22493600000;22993600000
1857;23233102000;22493600000;22993600000
1858;23233319000;22493611111;22993611111
1859;23233334000;22493877777;22993877777
1860;23233335000;22493877777;22993877777
1861;23233336000;22493877777;22993877777
1862;23234448000;22535277777;23035277777
1863;23234452000;22535277777;23035277777
1864;23234453000;22535277777;23035277777
1865;23234454000;22535277777;23035277777
1866;23234455000;22535277777;23035277777
1867;23234455000;22535277777;23035277777
1868;23234457000;22535277777;23035277777
1869;23234627000;22535288888;23035288888
1870;23234632000;22535611111;23035611111
1871;23234633000;22535611111;23035611111
1872;23234634000;22535611111;23035611111
1873;23258787000;22576922222;23076922222
1903;23309531000;22660566666;23160566666
1904;23309534000;22660566666;23160566666
1905;23309535000;22660566666;23160566666
1907;23333173000;22701944444;23201944444
1909;23333175000;22701944444;23201944444
1910;23333177000;22701944444;23201944444
1911;23333178000;22701944444;23201944444
1913;23333278000;22701955555;23201955555
1915;23333282000;22702233333;23202233333
1916;23333283000;22702233333;23202233333
1917;23349391000;22743677777;23243677777
1918;23349393000;22743677777;23243677777
1919;23349394000;22743677777;23243677777
1920;23349395000;22743677777;23243677777
1921;23349396000;22743677777;23243677777
1922;23349397000;22743677777;23243677777
1923;23349398000;22743677777;23243677777
1924;23349526000;22743733333;23243733333
1925;23349530000;22744033333;23244033333
1926;23349531000;22744033333;23244033333
1927;23349532000;22744033333;23244033333
1928;23356775000;22785255555;23285255555
1929;23376351000;22785255555;23285255555
1930;23376547000;22785255555;23285255555
1931;23376783000;22785255555;23285255555
1932;23376792000;22785255555;23285255555
1933;23377299000;22785255555;23285255555
1934;23377498000;22785255555;23285255555
1937;23427879000;22785566666;23285566666
1939;23469167000;22826922222;23326922222
1984;23631600000;22993588888;23493588888
2016;23720436000;23118600000;23618600000
2064;23796257000;23285266666;23785266666
2086;23824198000;23368611111;23868611111
2092;23824310000;23368877777;23868877777
2093;23834800000;23410255555;23910255555
2094;23834813000;23410255555;23910255555
2096;23834815000;23410255555;23910255555
2097;23834816000;23410255555;23910255555
2098;23834816000;23410255555;23910255555
2099;23834817000;23410255555;23910255555
2100;23835017000;23410266666;23910266666
2101;23835033000;23410611111;23910611111
2102;23835034000;23410611111;23910611111
2103;23835035000;23410611111;23910611111
2104;23836285000;23451922222;23951922222
2105;23836288000;23451922222;23951922222
2106;23836289000;23451922222;23951922222
2107;23836291000;23451922222;23951922222
2108;23836292000;23451922222;23951922222
2109;23836293000;23451922222;23951922222
2110;23836294000;23451922222;23951922222
2111;23836431000;23451933333;23951933333
2112;23836433000;23452255555;23952255555
2113;23836435000;23452255555;23952255555
2114;23836436000;23452255555;23952255555
2115;23860802000;23493600000;23993600000
2142;23919335000;23576944444;24076944444
2143;23919346000;23576944444;24076944444
2144;23919546000;23576955555;24076955555
2145;23919561000;23577288888;24077288888
2146;23919562000;23577288888;24077288888
2148;23943107000;23618600000;24118600000
2149;23943110000;23618600000;24118600000
2150;23943111000;23618600000;24118600000
2151;23943112000;23618600000;24118600000
2152;23943113000;23618600000;24118600000
2153;23943114000;23618600000;24118600000
2154;23943115000;23618600000;24118600000
2155;23943208000;23618611111;24118611111
2156;23943211000;23618911111;24118911111
2158;23943212000;23618911111;24118911111
2159;23955806000;23660266666;24160266666
2160;23955809000;23660266666;24160266666
2161;23955810000;23660266666;24160266666
2162;23955811000;23660266666;24160266666
2163;23955812000;23660266666;24160266666
2164;23955813000;23660266666;24160266666
2165;23977379000;23660266666;24160266666
2166;24028016000;23660277777;24160277777
2175;24028031000;23701933333;24201933333
2178;24069766000;23702255555;24202255555
2195;24152234000;23785255555;24285255555
2196;24152238000;23785255555;24285255555
2197;24152239000;23785255555;24285255555
2198;24152240000;23785255555;24285255555
2199;24152446000;23785277777;24285277777
2200;24152462000;23785600000;24285600000
2201;24152463000;23785600000;24285600000
2203;24192452000;23826922222;24326922222
2204;24192456000;23826922222;24326922222
2206;24192457000;23826922222;24326922222
2207;24192458000;23826922222;24326922222
2208;24192459000;23826922222;24326922222
2209;24192460000;23826922222;24326922222
2210;24192579000;23826933333;24326933333
2211;24192594000;23827277777;24327277777
2212;24192596000;23827277777;24327277777
2213;24192597000;23827277777;24327277777
2215;24231382000;23868588888;24368588888
2217;24231386000;23868588888;24368588888
2219;24412233000;23868588888;24368588888
2220;24412247000;23868588888;24368588888
2221;24412448000;23868600000;24368600000
2222;24412463000;23868888888;24368888888
2224;24412465000;23868888888;24368888888
2225;24412478000;23910266666;24410266666
2226;24412489000;23910266666;24410266666
2228;24439951000;23910266666;24410266666
2229;24441372000;23910266666;24410266666
2230;24444287000;23910266666;24410266666
2231;24444305000;23910266666;24410266666
2232;24494783000;23910277777;24410277777
2233;24494798000;23910633333;24410633333
2235;24579109000;23910633333;24410633333
2236;24637896000;23951933333;24451933333
2238;24640319000;23951933333;24451933333
2239;24641833000;23951933333;24451933333
2240;24644608000;23951933333;24451933333
2241;24644625000;23951933333;24451933333
2242;24644647000;23951933333;24451933333
2243;24695154000;23951955555;24451955555
2244;24695170000;23952288888;24452288888
2245;24779581000;23952288888;24452288888
2246;24779793000;23952288888;24452288888
2249;24891177000;23993588888;24493588888
2250;24891181000;23993588888;24493588888
2251;24891182000;23993588888;24493588888
2252;24891183000;23993588888;24493588888
2253;24891184000;23993588888;24493588888
2254;24891303000;23993611111;24493611111
2255;24891318000;23993933333;24493933333
2256;24891320000;23993933333;24493933333
2257;24980266000;23993933333;24493933333
2259;25091514000;24035255555;24535255555
2261;25091518000;24035255555;24535255555
2262;25091519000;24035255555;24535255555
2263;25091520000;24035255555;24535255555
2264;25091521000;24035255555;24535255555
2265;25091641000;24035277777;24535277777
2266;25091656000;24035622222;24535622222
2267;25091657000;24035622222;24535622222
2268;25091658000;24035622222;24535622222
2269;25231098000;24076922222;24576922222
2271;25241409000;24076922222;24576922222
2273;25241454000;24076922222;24576922222
2274;25243249000;24076922222;24576922222
2275;25245517000;24076922222;24576922222
2277;25295966000;24077266666;24577266666
2278;25295969000;24077266666;24577266666
2279;25295971000;24077266666;24577266666
2280;25337177000;24118600000;24618600000
2281;25381209000;24118600000;24618600000
2282;25441733000;24118600000;24618600000
2284;25441784000;24118600000;24618600000
2285;25442130000;24118600000;24618600000
2286;25446025000;24118600000;24618600000
2287;25496270000;24118622222;24618622222
2288;25496293000;24118922222;24618922222
2289;25496294000;24118922222;24618922222
2290;25496295000;24118922222;24618922222
2291;25537766000;24160266666;24660266666
2292;25537770000;24160266666;24660266666
2293;25537771000;24160266666;24660266666
2294;25537772000;24160266666;24660266666
2295;25581619000;24160266666;24660266666
2296;25642092000;24160266666;24660266666
2297;25642249000;24160266666;24660266666
2298;25692577000;24160288888;24660288888
2299;25692593000;24160588888;24660588888
2301;25734379000;24160588888;24660588888
2302;25734504000;24201933333;24701933333
2303;25734508000;24201933333;24701933333
2304;25734509000;24201933333;24701933333
2305;25734510000;24201933333;24701933333
2306;25734511000;24201933333;24701933333
2307;25734512000;24201933333;24701933333
2308;25734513000;24201933333;24701933333
2309;25860994000;24201944444;24701944444
2310;25861009000;24202244444;24702244444
2311;25861011000;24202244444;24702244444
2312;25861012000;24202244444;24702244444
2313;25902714000;24243622222;24743622222
2314;25902727000;24243622222;24743622222
2315;25902728000;24243622222;24743622222
2316;25902729000;24243622222;24743622222
2317;25902730000;24243622222;24743622222
2318;25902731000;24243622222;24743622222
2319;25902732000;24243622222;24743622222
2320;25902947000;24243633333;24743633333
2321;25902951000;24243977777;24743977777
2322;25902952000;24243977777;24743977777
2323;25902953000;24243977777;24743977777
2324;26061561000;24285266666;24785266666
2325;26061565000;24285266666;24785266666
2326;26061566000;24285266666;24785266666
2328;26061567000;24285266666;24785266666
2329;26061568000;24285266666;24785266666
2330;26061569000;24285266666;24785266666
2331;26061769000;24285288888;24785288888
2332;26061784000;24285600000;24785600000
2333;26061785000;24285600000;24785600000
2334;26061786000;24285600000;24785600000
2335;26103200000;24326933333;24826933333
2337;26103204000;24326933333;24826933333
2338;26103205000;24326933333;24826933333
2339;26103206000;24326933333;24826933333
2340;26237588000;24326933333;24826933333
2341;26242971000;24326933333;24826933333
2342;26293442000;24326955555;24826955555
2343;26293457000;24327255555;24827255555
2344;26293459000;24327255555;24827255555
2345;26293460000;24327255555;24827255555
2346;26334927000;24368600000;24868600000
2348;26335113000;24368600000;24868600000
2349;26335127000;24368600000;24868600000
2350;26335128000;24368600000;24868600000
2351;26335129000;24368600000;24868600000
2352;26335130000;24368600000;24868600000
2354;26335242000;24368900000;24868900000
2355;26335246000;24368900000;24868900000
2356;26335247000;24368900000;24868900000
2357;26488391000;24410266666;24910266666
2358;26488394000;24410266666;24910266666
2359;26488395000;24410266666;24910266666
2360;26488396000;24410266666;24910266666
2361;26488397000;24410266666;24910266666
2362;26488398000;24410266666;24910266666
2363;26488399000;24410266666;24910266666
2364;26488599000;24410288888;24910288888
2365;26488614000;24410600000;24910600000
2366;26488615000;24410600000;24910600000
2367;26488616000;24410600000;24910600000
2368;26530024000;24451933333;24951933333
2369;26530028000;24451933333;24951933333
2370;26530038000;24451933333;24951933333
2371;26530039000;24451933333;24951933333
2372;26530040000;24451933333;24951933333
2373;26530041000;24451933333;24951933333
2374;26638539000;24451933333;24951933333
2375;26693966000;24451944444;24951944444
2378;26693981000;24452266666;24952266666
2379;26735477000;24493600000;24993600000
2380;26735480000;24493600000;24993600000
2381;26735482000;24493600000;24993600000
2382;26735482000;24493600000;24993600000
2383;26735484000;24493600000;24993600000
2384;26735485000;24493600000;24993600000
2385;26735485000;24493600000;24993600000
2386;26735685000;24493611111;24993611111
2387;26735700000;24493900000;24993900000
2388;26735701000;24493900000;24993900000
2389;26735702000;24493900000;24993900000
2390;26777005000;24535277777;25035277777
2391;26777008000;24535277777;25035277777
2392;26777009000;24535277777;25035277777
2393;26838971000;24535277777;25035277777
2394;26843842000;24535277777;25035277777
2398;26898458000;24535611111;25035611111
2399;26898462000;24535611111;25035611111
2400;26898463000;24535611111;25035611111
2401;26939656000;24576933333;25076933333
2402;26939660000;24576933333;25076933333
2403;26939661000;24576933333;25076933333
2404;26939662000;24576933333;25076933333
2405;26939663000;24576933333;25076933333
2406;26939664000;24576933333;25076933333
2407;26939665000;24576933333;25076933333
2408;26939864000;24576955555;25076955555
2409;26939880000;24577244444;25077244444
2410;26939881000;24577244444;25077244444
2411;26939882000;24577244444;25077244444
2412;26981222000;24618600000;25118600000
2413;27044356000;24618600000;25118600000
2414;27044358000;24618600000;25118600000
2416;27048566000;24618600000;25118600000
2417;27048569000;24618600000;25118600000
2418;27048580000;24618600000;25118600000
2419;27099039000;24618611111;25118611111
2420;27099062000;24618900000;25118900000
2421;27099063000;24618900000;25118900000
2422;27099064000;24618900000;25118900000
2423;27140561000;24660266666;25160266666
2424;27140564000;24660266666;25160266666
2425;27140565000;24660266666;25160266666
2426;27140566000;24660266666;25160266666
2427;27140567000;24660266666;25160266666
2430;27140870000;24660288888;25160288888
2431;27140885000;24660611111;25160611111
2432;27140886000;24660611111;25160611111
2433;27244572000;24660611111;25160611111
2434;27295119000;24701933333;25201933333
2435;27295123000;24701933333;25201933333
2436;27295124000;24701933333;25201933333
2437;27295125000;24701933333;25201933333
2441;27295593000;24701944444;25201944444
2442;27295608000;24702255555;25202255555
2443;27295609000;24702255555;25202255555
2444;27295610000;24702255555;25202255555
2445;27336748000;24743600000;25243600000
2446;27336752000;24743600000;25243600000
2447;27336753000;24743600000;25243600000
2448;27336754000;24743600000;25243600000
2449;27336755000;24743600000;25243600000
2450;27336756000;24743600000;25243600000
2451;27336756000;24743600000;25243600000
2452;27336955000;24743622222;25243622222
2453;27444845000;24743911111;25243911111
2454;27445246000;24743911111;25243911111
2455;27449147000;24743911111;25243911111
2456;27536547000;24785266666;25285266666
2457;27536550000;24785266666;25285266666
2458;27536551000;24785266666;25285266666
2459;27536552000;24785266666;25285266666
2460;27536553000;24785266666;25285266666
2461;27536554000;24785266666;25285266666
2462;27536555000;24785266666;25285266666
2463;27536754000;24785288888;25285288888
2464;27536770000;24785588888;25285588888
2465;27536771000;24785588888;25285588888
2466;27536772000;24785588888;25285588888
2467;27577950000;24826933333;25326933333
2468;27577953000;24826933333;25326933333
2469;27577954000;24826933333;25326933333
2470;27577955000;24826933333;25326933333
2471;27577956000;24826933333;25326933333
2472;27577957000;24826933333;25326933333
2473;27645096000;24826933333;25326933333
2474;27696076000;24826944444;25326944444
2476;27696091000;24827244444;25327244444
2477;27696093000;24827244444;25327244444
2478;27737612000;24868600000;25368600000
2479;27737616000;24868600000;25368600000
2480;27737617000;24868600000;25368600000
2481;27737618000;24868600000;25368600000
2482;27737619000;24868600000;25368600000
2483;27737620000;24868600000;25368600000
2484;27737621000;24868600000;25368600000
2485;27737820000;24868611111;25368611111
2486;27737835000;24868877777;25368877777
2487;27737836000;24868877777;25368877777
2488;27737837000;24868877777;25368877777
2489;27779122000;24910266666;25410266666
2490;27779125000;24910266666;25410266666
2491;27779126000;24910266666;25410266666
2492;27779127000;24910266666;25410266666
2493;27779128000;24910266666;25410266666
2494;27845343000;24910266666;25410266666
2495;27846090000;24910266666;25410266666
2496;27900352000;24910288888;25410288888
2499;27900367000;24910577777;25410577777
2500;27941792000;24951944444;25451944444
2501;27941796000;24951944444;25451944444
2502;27941797000;24951944444;25451944444
2503;27941798000;24951944444;25451944444
2504;27941799000;24951944444;25451944444
2505;27941800000;24951944444;25451944444
2506;27941810000;24951944444;25451944444
2507;27942009000;24951955555;25451955555
2508;27942015000;24952300000;25452300000
2509;27942017000;24952300000;25452300000
2510;27942018000;24952300000;25452300000
2511;27983332000;24993600000;25493600000
2512;27983336000;24993600000;25493600000
2513;27983337000;24993600000;25493600000
2514;27983338000;24993600000;25493600000
2515;27983339000;24993600000;25493600000
2516;27983340000;24993600000;25493600000
2517;28046321000;24993600000;25493600000
2518;28096928000;24993622222;25493622222
2522;28096943000;25035266666;25535266666
2523;28096944000;25035266666;25535266666
2524;28096946000;25035266666;25535266666
2525;28096947000;25035266666;25535266666
2526;28096948000;25035266666;25535266666
2527;28096948000;25035266666;25535266666
2528;28096949000;25035266666;25535266666
2529;28138540000;25035288888;25535288888
2530;28138556000;25035600000;25535600000
2531;28138557000;25035600000;25535600000
2533;28180389000;25076933333;25576933333
2534;28180393000;25076933333;25576933333
2535;28180394000;25076933333;25576933333
2536;28180395000;25076933333;25576933333
2537;28180396000;25076933333;25576933333
2540;28244364000;25076955555;25576955555
2543;28250990000;25077255555;25577255555
2545;28338523000;25118600000;25618600000
2546;28338527000;25118600000;25618600000
2548;28338528000;25118600000;25618600000
2550;28338529000;25118600000;25618600000
2551;28338649000;25118611111;25618611111
2552;28338664000;25118911111;25618911111
2553;28338666000;25118911111;25618911111
2554;28338667000;25118911111;25618911111
2555;28380114000;25160277777;25660277777
2556;28380118000;25160277777;25660277777
2557;28380119000;25160277777;25660277777
2558;28380120000;25160277777;25660277777
2559;28380121000;25160277777;25660277777
2560;28380122000;25160277777;25660277777
2561;28380123000;25160277777;25660277777
2562;28380330000;25160288888;25660288888
2563;28380345000;25160577777;25660577777
2564;28394324000;25160577777;25660577777
2565;28394524000;25160577777;25660577777
2566;28421038000;25201933333;25701933333
2568;28447372000;25201933333;25701933333
2570;28450931000;25201933333;25701933333
2571;28450934000;25201933333;25701933333
2572;28450950000;25201933333;25701933333
2573;28501514000;25201944444;25701944444
2574;28501529000;25202244444;25702244444
2575;28501530000;25202244444;25702244444
2576;28501531000;25202244444;25702244444
2577;28543078000;25243600000;25743600000
2578;28543081000;25243600000;25743600000
2579;28543082000;25243600000;25743600000
2581;28543259000;25243600000;25743600000
2582;28543273000;25243600000;25743600000
2583;28543274000;25243600000;25743600000
2584;28543476000;25243611111;25743611111
2585;28543492000;25243900000;25743900000
2586;28543493000;25243900000;25743900000
2587;28543494000;25243900000;25743900000
2588;28584583000;25285266666;25785266666
2589;28584586000;25285266666;25785266666
2590;28594824000;25285266666;25785266666
2591;28594989000;25285266666;25785266666
2592;28595224000;25285266666;25785266666
2594;28647644000;25285266666;25785266666
2595;28701659000;25285277777;25785277777
2599;28701675000;25326933333;25826933333
2600;28701677000;25326933333;25826933333
2601;28701678000;25326933333;25826933333
2602;28701679000;25326933333;25826933333
2603;28701680000;25326933333;25826933333
2604;28701681000;25326933333;25826933333
2605;28701682000;25326933333;25826933333
2606;28743231000;25326944444;25826944444
2607;28743247000;25327255555;25827255555
2608;28743248000;25327255555;25827255555
2609;28743249000;25327255555;25827255555
2610;28784629000;25368600000;25868600000
2611;28784633000;25368600000;25868600000
2612;28784634000;25368600000;25868600000
2613;28784635000;25368600000;25868600000
2614;28784636000;25368600000;25868600000
2615;28784637000;25368600000;25868600000
2616;28795295000;25368600000;25868600000
2617;28845966000;25368611111;25868611111
2618;28845981000;25368888888;25868888888
2619;28847908000;25368888888;25868888888
2620;28848126000;25368888888;25868888888
2622;28887545000;25410266666;25910266666
2624;28887549000;25410266666;25910266666
2625;28887550000;25410266666;25910266666
2626;28887559000;25410266666;25910266666
2627;28887560000;25410266666;25910266666
2628;28887679000;25410288888;25910288888
2629;28887695000;25410588888;25910588888
2630;28887696000;25410588888;25910588888
2631;28887697000;25410588888;25910588888
2632;28929102000;25451933333;25951933333
2633;28929105000;25451933333;25951933333
2634;28929106000;25451933333;25951933333
2635;28929107000;25451933333;25951933333
2636;28929108000;25451933333;25951933333
2637;28929109000;25451933333;25951933333
2638;28929110000;25451933333;25951933333
2639;28929309000;25451944444;25951944444
2640;28929324000;25452244444;25952244444
2641;28944990000;25452244444;25952244444
2642;28995798000;25452244444;25952244444
2643;29046346000;25493600000;25993600000
2644;29046350000;25493600000;25993600000
2645;29046351000;25493600000;25993600000
2646;29048317000;25493600000;25993600000
2647;29048540000;25493600000;25993600000
2648;29051766000;25493600000;25993600000
2649;29052005000;25493600000;25993600000
2650;29102227000;25493622222;25993622222
2651;29102242000;25493888888;25993888888
2652;29102243000;25493888888;25993888888
2653;29102245000;25493888888;25993888888
2654;29143935000;25535266666;26035266666
2655;29143939000;25535266666;26035266666
2656;29143940000;25535266666;26035266666
2657;29143941000;25535266666;26035266666
2658;29143942000;25535266666;26035266666
2659;29143943000;25535266666;26035266666
2660;29143944000;25535266666;26035266666
2661;29144151000;25535288888;26035288888
2662;29144167000;25535577777;26035577777
2663;29144168000;25535577777;26035577777
2664;29144169000;25535577777;26035577777
2665;29185513000;25576933333;26076933333
2668;29185517000;25576933333;26076933333
2669;29196227000;25576933333;26076933333
2670;29196467000;25576933333;26076933333
2671;29196669000;25576933333;26076933333
2672;29276770000;25576944444;26076944444
2676;29276785000;25618600000;26118600000
2677;29276787000;25618600000;26118600000
2678;29276788000;25618600000;26118600000
2679;29276789000;25618600000;26118600000
2680;29276790000;25618600000;26118600000
2681;29276791000;25618600000;26118600000
2682;29276792000;25618600000;26118600000
2683;29318523000;25618622222;26118622222
2685;29318746000;25618877777;26118877777
2686;29318760000;25618877777;26118877777
2687;29359938000;25660255555;26160255555
2688;29359942000;25660255555;26160255555
2689;29359943000;25660255555;26160255555
2690;29359944000;25660255555;26160255555
2691;29359945000;25660255555;26160255555
2692;29359946000;25660255555;26160255555
2693;29359947000;25660255555;26160255555
2694;29360090000;25660277777;26160277777
2695;29360093000;25660577777;26160577777
2696;29360094000;25660577777;26160577777
2697;29396683000;25660577777;26160577777
2698;29400967000;25701922222;26201922222
2699;29400970000;25701922222;26201922222
2700;29426939000;25701922222;26201922222
2701;29448906000;25701922222;26201922222
2702;29449461000;25701922222;26201922222
2703;29452427000;25701922222;26201922222
2706;29503127000;25702233333;26202233333
2709;29544416000;25743611111;26243611111
2710;29544420000;25743611111;26243611111
2711;29544421000;25743611111;26243611111
2712;29544422000;25743611111;26243611111
2713;29544423000;25743611111;26243611111
2714;29544424000;25743611111;26243611111
2715;29544425000;25743611111;26243611111
2716;29544624000;25743622222;26243622222
2717;29544639000;25743922222;26243922222
2718;29544641000;25743922222;26243922222
2719;29544642000;25743922222;26243922222
2720;29585899000;25785266666;26285266666
2721;29585902000;25785266666;26285266666
2722;29585903000;25785266666;26285266666
2723;29585904000;25785266666;26285266666
2724;29585906000;25785266666;26285266666
2725;29585907000;25785266666;26285266666
2726;29597188000;25785266666;26285266666
2727;29647880000;25785288888;26285288888
2728;29647896000;25785577777;26285577777
2729;29647897000;25785577777;26285577777
2730;29649209000;25785577777;26285577777
2731;29689341000;25826933333;26326933333
2733;29689344000;25826933333;26326933333
2734;29689345000;25826933333;26326933333
2735;29689346000;25826933333;26326933333
2736;29689347000;25826933333;26326933333
2737;29689356000;25826933333;26326933333
2738;29689555000;25826944444;26326944444
2739;29689571000;25827233333;26327233333
2740;29689572000;25827233333;26327233333
2741;29689573000;25827233333;26327233333
2742;29730976000;25868588888;26368588888
2743;29730979000;25868588888;26368588888
2744;29730980000;25868588888;26368588888
2745;29730981000;25868588888;26368588888
2747;29730983000;25868588888;26368588888
2748;29730984000;25868588888;26368588888
2749;29731190000;25868600000;26368600000
2750;29731206000;25868855555;26368855555
2751;29731207000;25868855555;26368855555
2752;29746747000;25868855555;26368855555
2754;29772390000;25910266666;26410266666
2756;29797917000;25910266666;26410266666
2757;29798015000;25910266666;26410266666
2758;29827863000;25910266666;26410266666
2759;29849474000;25910266666;26410266666
2760;29900814000;25910288888;26410288888
2765;30028335000;25951933333;26451933333
2766;30028338000;25951933333;26451933333
2767;30028340000;25951933333;26451933333
2768;30028341000;25951933333;26451933333
2769;30028342000;25951933333;26451933333
2770;30028343000;25951933333;26451933333
2771;30028559000;25951944444;26451944444
2772;30028574000;25952255555;26452255555
2773;30028575000;25952255555;26452255555
2775;30028587000;25993600000;26493600000
2776;30028599000;25993600000;26493600000
2777;30028600000;25993600000;26493600000
2778;30028601000;25993600000;26493600000
2779;30028602000;25993600000;26493600000
2780;30028603000;25993600000;26493600000
2781;30028604000;25993600000;26493600000
2783;30028617000;25993911111;26493911111
2784;30028619000;25993911111;26493911111
2785;30028620000;25993911111;26493911111
2786;30028626000;26035266666;26535266666
2787;30028627000;26035266666;26535266666
2788;30049769000;26035266666;26535266666
2791;30053386000;26035266666;26535266666
2794;30103819000;26035588888;26535588888
2795;30103822000;26035588888;26535588888
2796;30103823000;26035588888;26535588888
2797;30145062000;26076933333;26576933333
2798;30145066000;26076933333;26576933333
2799;30145067000;26076933333;26576933333
2800;30145068000;26076933333;26576933333
2801;30145069000;26076933333;26576933333
2802;30145070000;26076933333;26576933333
2803;30145071000;26076933333;26576933333
2804;30145270000;26076944444;26576944444
2805;30145286000;26077244444;26577244444
2806;30145287000;26077244444;26577244444
2807;30145288000;26077244444;26577244444
2808;30187114000;26118600000;26618600000
2809;30187118000;26118600000;26618600000
2810;30187119000;26118600000;26618600000
2811;30187121000;26118600000;26618600000
2812;30187121000;26118600000;26618600000
2813;30198791000;26118600000;26618600000
2814;30198970000;26118600000;26618600000
2815;30249663000;26118611111;26618611111
2816;30249679000;26118900000;26618900000
2817;30250060000;26118900000;26618900000
2818;30253840000;26118900000;26618900000
2819;30291165000;26160277777;26660277777
2820;30291169000;26160277777;26660277777
2823;30291170000;26160277777;26660277777
2824;30291172000;26160277777;26660277777
2825;30291173000;26160277777;26660277777
2826;30291378000;26160288888;26660288888
2827;30291394000;26160577777;26660577777
2828;30291395000;26160577777;26660577777
2829;30291396000;26160577777;26660577777
2830;30387319000;26201933333;26701933333
2831;30387322000;26201933333;26701933333
2832;30387323000;26201933333;26701933333
2833;30387324000;26201933333;26701933333
2834;30387325000;26201933333;26701933333
2835;30387326000;26201933333;26701933333
2836;30387327000;26201933333;26701933333
2837;30387534000;26201955555;26701955555
2838;30387549000;26202233333;26702233333
2839;30387551000;26202233333;26702233333
2840;30387552000;26202233333;26702233333
2841;30428124000;26243600000;26743600000
2842;30428127000;26243600000;26743600000
2843;30428129000;26243600000;26743600000
2844;30428130000;26243600000;26743600000
2845;30429271000;26243600000;26743600000
2846;30450404000;26243600000;26743600000
2847;30454166000;26243600000;26743600000
2850;30504360000;26243888888;26743888888
2852;30545683000;26285266666;26785266666
2853;30545686000;26285266666;26785266666
2854;30545687000;26285266666;26785266666
2855;30545696000;26285266666;26785266666
2856;30545697000;26285266666;26785266666
2857;30545698000;26285266666;26785266666
2858;30545699000;26285266666;26785266666
2859;30546025000;26285288888;26785288888
2860;30546041000;26285600000;26785600000
2861;30546051000;26285600000;26785600000
2862;30546053000;26285600000;26785600000
2863;30587629000;26326933333;26826933333
2864;30587633000;26326933333;26826933333
2865;30587634000;26326933333;26826933333
2866;30587635000;26326933333;26826933333
2867;30587636000;26326933333;26826933333
2868;30587637000;26326933333;26826933333
2869;30587638000;26326933333;26826933333
2870;30587815000;26326944444;26826944444
2871;30599693000;26327244444;26827244444
2872;30599912000;26327244444;26827244444
2873;30600104000;26327244444;26827244444
2874;30691451000;26368600000;26868600000
2875;30691455000;26368600000;26868600000
2876;30691456000;26368600000;26868600000
2877;30691457000;26368600000;26868600000
2878;30691458000;26368600000;26868600000
2879;30691459000;26368600000;26868600000
2880;30691460000;26368600000;26868600000
2881;30691666000;26368611111;26868611111
2882;30691681000;26368877777;26868877777
2883;30691683000;26368877777;26868877777
2884;30691684000;26368877777;26868877777
2885;30732970000;26410266666;26910266666
2886;30732973000;26410266666;26910266666
2887;30732975000;26410266666;26910266666
2888;30732976000;26410266666;26910266666
2889;30732977000;26410266666;26910266666
2890;30732978000;26410266666;26910266666
2891;30732979000;26410266666;26910266666
2892;30733196000;26410288888;26910288888
2894;30733212000;26410588888;26910588888
2895;30733213000;26410588888;26910588888
2896;30774225000;26451922222;26951922222
2897;30774228000;26451922222;26951922222
2898;30774229000;26451922222;26951922222
2899;30774230000;26451922222;26951922222
2900;30800129000;26451922222;26951922222
2901;30800354000;26451922222;26951922222
2902;30800539000;26451922222;26951922222
2903;30880443000;26451933333;26951933333
2907;30880458000;26493600000;26993600000
2908;30880460000;26493600000;26993600000
2909;30880461000;26493600000;26993600000
2910;30880462000;26493600000;26993600000
2911;30880463000;26493600000;26993600000
2913;30922147000;26493600000;26993600000
2914;30922363000;26493611111;26993611111
2915;30922378000;26493877777;26993877777
2916;30922380000;26493877777;26993877777
2917;30922381000;26493877777;26993877777
2918;30963645000;26535266666;27035266666
2919;30963648000;26535266666;27035266666
2920;30963649000;26535266666;27035266666
2921;30963651000;26535266666;27035266666
2922;30963652000;26535266666;27035266666
2923;30963653000;26535266666;27035266666
2924;30963654000;26535266666;27035266666
2925;30963830000;26535277777;27035277777
2927;30963835000;26535577777;27035577777
2928;30963836000;26535577777;27035577777
2929;31004898000;26576933333;27076933333
2930;31004901000;26576933333;27076933333
2931;31004902000;26576933333;27076933333
2932;31004903000;26576933333;27076933333
2933;31030544000;26576933333;27076933333
2934;31051295000;26576933333;27076933333
2935;31054819000;26576933333;27076933333
2936;31105319000;26576944444;27076944444
2940;31105334000;26618600000;27118600000
2941;31105335000;26618600000;27118600000
2942;31105336000;26618600000;27118600000
2943;31105338000;26618600000;27118600000
2944;31105339000;26618600000;27118600000
2945;31105340000;26618600000;27118600000
2946;31105341000;26618600000;27118600000
2947;31146884000;26618611111;27118611111
2948;31146900000;26618866666;27118866666
2949;31146901000;26618866666;27118866666
2950;31146902000;26618866666;27118866666
2951;31188287000;26660255555;27160255555
2952;31188290000;26660255555;27160255555
2953;31188291000;26660255555;27160255555
2954;31188292000;26660255555;27160255555
2955;31188293000;26660255555;27160255555
2956;31188294000;26660255555;27160255555
2957;31188295000;26660255555;27160255555
2958;31188466000;26660277777;27160277777
2959;31188470000;26660577777;27160577777
2961;31201262000;26660577777;27160577777
2962;31229321000;26701933333;27201933333
2963;31231011000;26701933333;27201933333
2964;31251572000;26701933333;27201933333
2965;31255138000;26701933333;27201933333
2966;31255145000;26701933333;27201933333
2967;31255158000;26701933333;27201933333
2968;31255380000;26701933333;27201933333
2969;31305709000;26701955555;27201955555
2970;31305725000;26702233333;27202233333
2971;31305726000;26702233333;27202233333
2972;31305727000;26702233333;27202233333
2973;31347144000;26743600000;27243600000
2974;31347148000;26743600000;27243600000
2975;31347149000;26743600000;27243600000
2976;31347150000;26743600000;27243600000
2977;31347151000;26743600000;27243600000
2978;31347152000;26743600000;27243600000
2979;31347153000;26743600000;27243600000
2980;31347352000;26743611111;27243611111
2981;31347368000;26743888888;27243888888
2982;31347369000;26743888888;27243888888
2983;31347370000;26743888888;27243888888
2984;31388831000;26785277777;27285277777
2985;31388834000;26785277777;27285277777
2986;31388835000;26785277777;27285277777
2987;31388837000;26785277777;27285277777
2988;31388837000;26785277777;27285277777
2989;31388838000;26785277777;27285277777
2990;31401745000;26785277777;27285277777
2991;31452395000;26785300000;27285300000
2992;31452410000;26785577777;27285577777
2993;31452412000;26785577777;27285577777
2994;31452413000;26785577777;27285577777
2996;31493941000;26826933333;27326933333
2997;31493944000;26826933333;27326933333
2998;31493945000;26826933333;27326933333
2999;31493946000;26826933333;27326933333
3000;31493948000;26826933333;27326933333
3001;31493948000;26826933333;27326933333
3002;31494068000;26826944444;27326944444
3003;31494074000;26827222222;27327222222
3004;31494075000;26827222222;27327222222
3005;31494076000;26827222222;27327222222
3006;31535519000;26868588888;27368588888
3007;31535522000;26868588888;27368588888
3008;31535523000;26868588888;27368588888
3009;31535524000;26868588888;27368588888
3010;31535525000;26868588888;27368588888
3011;31535526000;26868588888;27368588888
3012;31535527000;26868588888;27368588888
3013;31535727000;26868600000;27368600000
3014;31535743000;26868844444;27368844444
3015;31550602000;26868844444;27368844444
3016;31551201000;26868844444;27368844444
3017;31576883000;26910255555;27410255555
3018;31576887000;26910255555;27410255555
3019;31578280000;26910255555;27410255555
3022;31631775000;26910255555;27410255555
3025;31702927000;26910566666;27410566666
3028;31744248000;26951944444;27451944444
3029;31744251000;26951944444;27451944444
3030;31744252000;26951944444;27451944444
3031;31744253000;26951944444;27451944444
3032;31744254000;26951944444;27451944444
3033;31744255000;26951944444;27451944444
3034;31744256000;26951944444;27451944444
3035;31744455000;26951955555;27451955555
3036;31744471000;26952255555;27452255555
3037;31744472000;26952255555;27452255555
3038;31744473000;26952255555;27452255555
3039;31785715000;26993600000;27493600000
3040;31785718000;26993600000;27493600000
3041;31785719000;26993600000;27493600000
3042;31785721000;26993600000;27493600000
3044;31785864000;26993600000;27493600000
3045;31785868000;26993600000;27493600000
3046;31786111000;26993622222;27493622222
3047;31786127000;26993900000;27493900000
3048;31786128000;26993900000;27493900000
3054;31882445000;27035266666;27535266666
3059;31882677000;27035588888;27535588888
3060;31882681000;27035588888;27535588888
3061;31924035000;27076922222;27576922222
3062;31924038000;27076922222;27576922222
3063;31924039000;27076922222;27576922222
3065;31924064000;27076922222;27576922222
3066;31924065000;27076922222;27576922222
3067;31924066000;27076922222;27576922222
3068;31924240000;27076944444;27576944444
3069;31924256000;27077233333;27577233333
3071;31924258000;27077233333;27577233333
3072;31965740000;27118600000;27618600000
3073;31965744000;27118600000;27618600000
3074;31965745000;27118600000;27618600000
3075;31965746000;27118600000;27618600000
3076;31965747000;27118600000;27618600000
3078;31965748000;27118600000;27618600000
3079;31965925000;27118611111;27618611111
3080;32032667000;27118888888;27618888888
3081;32032860000;27118888888;27618888888
3082;32033063000;27118888888;27618888888
3083;32124605000;27160266666;27660266666
3085;32124609000;27160266666;27660266666
3086;32124617000;27160266666;27660266666
3088;32124619000;27160266666;27660266666
3089;32124620000;27160266666;27660266666
3090;32124820000;27160277777;27660277777
3091;32124835000;27160544444;27660544444
3092;32124836000;27160544444;27660544444
3094;32165925000;27201933333;27701933333
3095;32165929000;27201933333;27701933333
3096;32165930000;27201933333;27701933333
3097;32165931000;27201933333;27701933333
3098;32165932000;27201933333;27701933333
3099;32165933000;27201933333;27701933333
3100;32165934000;27201933333;27701933333
3101;32166058000;27201944444;27701944444
3102;32166064000;27202211111;27702211111
3103;32166065000;27202211111;27702211111
3104;32166066000;27202211111;27702211111
3105;32207001000;27243600000;27743600000
3106;32207004000;27243600000;27743600000
3109;32207006000;27243600000;27743600000
3110;32207007000;27243600000;27743600000
3111;32233138000;27243600000;27743600000
3112;32283714000;27243611111;27743611111
3116;32283730000;27285255555;27785255555
3117;32283731000;27285255555;27785255555
3118;32283732000;27285255555;27785255555
3119;32283733000;27285255555;27785255555
3120;32283734000;27285255555;27785255555
3121;32283735000;27285255555;27785255555
3122;32283736000;27285255555;27785255555
3123;32325424000;27285277777;27785277777
3124;32325440000;27285577777;27785577777
3125;32325441000;27285577777;27785577777
3126;32325442000;27285577777;27785577777
3127;32366900000;27326933333;27826933333
3128;32366903000;27326933333;27826933333
3129;32366904000;27326933333;27826933333
3130;32366905000;27326933333;27826933333
3131;32366906000;27326933333;27826933333
3132;32366907000;27326933333;27826933333
3133;32366908000;27326933333;27826933333
3134;32367108000;27326955555;27826955555
3135;32367124000;27327266666;27827266666
3136;32367125000;27327266666;27827266666
3137;32367126000;27327266666;27827266666
3138;32408024000;27368611111;27868611111
3139;32408028000;27368611111;27868611111
3140;32408029000;27368611111;27868611111
3141;32408030000;27368611111;27868611111
3142;32433621000;27368611111;27868611111
3143;32433836000;27368611111;27868611111
3144;32434015000;27368611111;27868611111
3145;32484709000;27368622222;27868622222
3149;32484724000;27410266666;27910266666
3150;32484726000;27410266666;27910266666
3151;32484727000;27410266666;27910266666
3152;32484728000;27410266666;27910266666
3153;32484729000;27410266666;27910266666
3154;32484730000;27410266666;27910266666
3155;32484731000;27410266666;27910266666
3156;32526174000;27410288888;27910288888
3157;32526189000;27410588888;27910588888
3158;32526191000;27410588888;27910588888
3159;32526192000;27410588888;27910588888
3160;32567678000;27451922222;27951922222
3161;32567692000;27451922222;27951922222
3162;32567693000;27451922222;27951922222
3163;32567695000;27451922222;27951922222
3164;32567696000;27451922222;27951922222
3165;32567698000;27451922222;27951922222
3166;32567699000;27451922222;27951922222
3167;32567847000;27451933333;27951933333
3168;32567851000;27452244444;27952244444
3169;32567853000;27452244444;27952244444
3170;32567854000;27452244444;27952244444
3171;32608805000;27493588888;27993588888
3172;32608808000;27493588888;27993588888
3173;32634164000;27493588888;27993588888
3174;32634366000;27493588888;27993588888
3175;32634567000;27493588888;27993588888
3177;32653721000;27493588888;27993588888
3178;32704746000;27493600000;27993600000
3182;32746421000;27535255555;28035255555
3183;32746434000;27535255555;28035255555
3184;32746435000;27535255555;28035255555
3185;32746436000;27535255555;28035255555
3186;32746437000;27535255555;28035255555
3187;32746438000;27535255555;28035255555
3188;32746439000;27535255555;28035255555
3189;32746668000;27535277777;28035277777
3190;32746683000;27535588888;28035588888
3191;32746685000;27535588888;28035588888
3192;32746686000;27535588888;28035588888
3193;32787738000;27576933333;28076933333
3194;32787741000;27576933333;28076933333
3195;32787743000;27576933333;28076933333
3196;32787744000;27576933333;28076933333
3197;32787745000;27576933333;28076933333
3198;32787746000;27576933333;28076933333
3199;32787747000;27576933333;28076933333
3200;32787954000;27576955555;28076955555
3201;32787969000;27577244444;28077244444
3202;32787970000;27577244444;28077244444
3203;32787971000;27577244444;28077244444
3204;32828879000;27618600000;28118600000
3205;32828882000;27618600000;28118600000
3206;32828883000;27618600000;28118600000
3207;32834822000;27618600000;28118600000
3208;32835051000;27618600000;28118600000
3209;32854028000;27618600000;28118600000
3210;32854272000;27618600000;28118600000
3211;32904916000;27618611111;28118611111
3215;32904931000;27660266666;28160266666
3216;32904932000;27660266666;28160266666
3217;32904933000;27660266666;28160266666
3218;32904934000;27660266666;28160266666
3219;32904935000;27660266666;28160266666
3220;32904936000;27660266666;28160266666
3221;32904937000;27660266666;28160266666
3222;32946496000;27660277777;28160277777
3223;32946511000;27660600000;28160600000
3224;32946513000;27660600000;28160600000
3225;32946514000;27660600000;28160600000
3226;32987906000;27701922222;28201922222
3227;32987909000;27701922222;28201922222
3228;32987910000;27701922222;28201922222
3229;32987911000;27701922222;28201922222
3230;32987912000;27701922222;28201922222
3231;32987913000;27701922222;28201922222
3232;32987914000;27701922222;28201922222
3233;32988113000;27701944444;28201944444
3234;32988128000;27702255555;28202255555
3235;32988130000;27702255555;28202255555
3236;32988131000;27702255555;28202255555
3237;33028869000;27743588888;28243588888
3238;33028873000;27743588888;28243588888
3239;33028874000;27743588888;28243588888
3240;33028875000;27743588888;28243588888
3241;33035321000;27743588888;28243588888
3242;33035535000;27743588888;28243588888
3243;33054314000;27743588888;28243588888
3244;33105287000;27743611111;28243611111
3248;33105302000;27785266666;28285266666
3249;33105303000;27785266666;28285266666
3250;33105304000;27785266666;28285266666
3251;33105305000;27785266666;28285266666
3252;33105306000;27785266666;28285266666
3253;33105307000;27785266666;28285266666
3254;33105308000;27785266666;28285266666
3255;33146717000;27785288888;28285288888
3256;33146732000;27785566666;28285566666
3257;33146733000;27785566666;28285566666
3258;33146734000;27785566666;28285566666
3259;33188096000;27826933333;28326933333
3260;33188100000;27826933333;28326933333
3261;33188101000;27826933333;28326933333
3262;33188102000;27826933333;28326933333
3264;33188437000;27826933333;28326933333
3265;33188439000;27826933333;28326933333
3266;33188647000;27826944444;28326944444
3267;33188662000;27827233333;28327233333
3268;33188664000;27827233333;28327233333
3269;33188665000;27827233333;28327233333
3270;33229184000;27868600000;28368600000
3271;33229187000;27868600000;28368600000
3272;33229188000;27868600000;28368600000
3273;33229189000;27868600000;28368600000
3274;33229190000;27868600000;28368600000
3275;33229191000;27868600000;28368600000
3276;33235989000;27868600000;28368600000
3277;33286638000;27868611111;28368611111
3281;33286654000;27910255555;28410255555
3282;33286655000;27910255555;28410255555
3285;33320497000;27910255555;28410255555
3286;33320509000;27910255555;28410255555
3287;33320510000;27910255555;28410255555
3288;33328087000;27910277777;28410277777
3289;33328102000;27910577777;28410577777
3290;33328103000;27910577777;28410577777
3291;33328104000;27910577777;28410577777
3292;33369665000;27951933333;28451933333
3295;33454924000;27951933333;28451933333
3296;33454935000;27951933333;28451933333
3297;33454936000;27951933333;28451933333
3299;33455164000;27951955555;28451955555
3300;33455179000;27952266666;28452266666
3301;33455180000;27952266666;28452266666
3302;33455181000;27952266666;28452266666
3303;33455193000;27993600000;28493600000
3304;33455194000;27993600000;28493600000
3305;33455205000;27993600000;28493600000
3306;33455206000;27993600000;28493600000
3307;33455207000;27993600000;28493600000
3308;33455208000;27993600000;28493600000
3310;33455311000;27993622222;28493622222
3311;33455326000;27993911111;28493911111
3312;33455327000;27993911111;28493911111
3313;33455328000;27993911111;28493911111
3314;33455340000;28035266666;28535266666
3315;33455341000;28035266666;28535266666
3316;33456020000;28035266666;28535266666
3317;33458600000;28035266666;28535266666
3319;33458605000;28035266666;28535266666
3325;33550810000;28076922222;28576922222
3327;33557457000;28076922222;28576922222
3328;33557461000;28076922222;28576922222
3329;33557473000;28076922222;28576922222
3330;33557474000;28076922222;28576922222
3331;33557475000;28076922222;28576922222
3332;33557646000;28076944444;28576944444
3335;33557650000;28077244444;28577244444
3336;33592226000;28118600000;28618600000
3338;33592230000;28118600000;28618600000
3339;33592231000;28118600000;28618600000
3340;33592232000;28118600000;28618600000
3341;33592233000;28118600000;28618600000
3342;33592234000;28118600000;28618600000
3343;33592434000;28118611111;28618611111
3927;33608248000;30327277777;30827277777
3928;33608250000;30327277777;30827277777
3929;33608251000;30327277777;30827277777
3930;33648909000;30368600000;30868600000
3931;33648912000;30368600000;30868600000
3932;33648913000;30368600000;30868600000
3934;33655279000;30368600000;30868600000
3935;33656565000;30368600000;30868600000
3936;33658866000;30368600000;30868600000
3942;33750869000;30410255555;30910255555
3943;33750873000;30410255555;30910255555
3944;33750874000;30410255555;30910255555
3945;33750875000;30410255555;30910255555
3946;33750876000;30410255555;30910255555
3947;33750877000;30410255555;30910255555
3948;33750996000;30410277777;30910277777
3949;33751011000;30410577777;30910577777
3950;33751012000;30410577777;30910577777
3951;33751013000;30410577777;30910577777
3952;33792066000;30451933333;30951933333
3953;33792069000;30451933333;30951933333
3954;33792071000;30451933333;30951933333
3955;33792072000;30451933333;30951933333
3956;33792073000;30451933333;30951933333
3957;33792074000;30451933333;30951933333
3958;33792075000;30451933333;30951933333
3959;33792281000;30451955555;30951955555
3960;33792297000;30452255555;30952255555
3961;33792298000;30452255555;30952255555
3962;33792299000;30452255555;30952255555
3963;33833388000;30493600000;30993600000
3964;33833391000;30493600000;30993600000
3965;33833393000;30493600000;30993600000
3967;33833463000;30493600000;30993600000
3968;33855507000;30493600000;30993600000
3972;33906191000;30493888888;30993888888
3974;33947618000;30535277777;31035277777
3975;33947621000;30535277777;31035277777
3976;33947623000;30535277777;31035277777
3977;33947623000;30535277777;31035277777
3978;33947624000;30535277777;31035277777
3979;33947625000;30535277777;31035277777
3980;33947626000;30535277777;31035277777
3981;33947825000;30535288888;31035288888
3982;33947840000;30535611111;31035611111
3983;33947842000;30535611111;31035611111
3984;33947843000;30535611111;31035611111
3985;33989121000;30576933333;31076933333
3986;33989125000;30576933333;31076933333
3987;33989126000;30576933333;31076933333
3988;33989127000;30576933333;31076933333
3989;33989128000;30576933333;31076933333
3990;33989129000;30576933333;31076933333
3991;33989130000;30576933333;31076933333
3992;33989328000;30576955555;31076955555
3993;33989343000;30577233333;31077233333
3994;33989345000;30577233333;31077233333
3995;33989346000;30577233333;31077233333
3996;34029908000;30618600000;31118600000
3997;34029911000;30618600000;31118600000
3998;34029912000;30618600000;31118600000
3999;34029914000;30618600000;31118600000
4000;34029915000;30618600000;31118600000
4001;34029916000;30618600000;31118600000
4002;34029916000;30618600000;31118600000
4003;34030116000;30618622222;31118622222
4004;34030131000;30618877777;31118877777
4005;34055801000;30618877777;31118877777
4006;34056152000;30618877777;31118877777
4007;34070367000;30660255555;31160255555
4012;34070370000;30660255555;31160255555
4013;34070371000;30660255555;31160255555
4014;34070570000;30660277777;31160277777
4015;34070586000;30660577777;31160577777
4016;34070587000;30660577777;31160577777
4017;34070588000;30660577777;31160577777
4018;34110400000;30701933333;31201933333
4019;34110404000;30701933333;31201933333
4020;34110405000;30701933333;31201933333
4021;34110406000;30701933333;31201933333
4022;34110407000;30701933333;31201933333
4023;34110408000;30701933333;31201933333
4024;34110416000;30701933333;31201933333
4025;34110637000;30701955555;31201955555
4026;34110640000;30702266666;31202266666
4028;34110642000;30702266666;31202266666
4029;34148997000;30743600000;31243600000
4030;34149000000;30743600000;31243600000
4031;34149001000;30743600000;31243600000
4032;34149002000;30743600000;31243600000
4033;34157891000;30743600000;31243600000
4034;34158107000;30743600000;31243600000
4035;34158585000;30743600000;31243600000
4036;34209318000;30743622222;31243622222
4037;34209333000;30743900000;31243900000
4038;34209335000;30743900000;31243900000
4039;34209336000;30743900000;31243900000
4040;34250812000;30785266666;31285266666
4041;34256115000;30785266666;31285266666
4042;34256608000;30785266666;31285266666
4043;34257757000;30785266666;31285266666
4045;34259774000;30785266666;31285266666
4046;34259777000;30785266666;31285266666
4052;34359664000;30826922222;31326922222
4053;34359678000;30826922222;31326922222
4054;34359679000;30826922222;31326922222
4056;34359681000;30826922222;31326922222
4057;34359682000;30826922222;31326922222
4058;34359792000;30826944444;31326944444
4060;34359808000;30827233333;31327233333
4061;34359810000;30827233333;31327233333
4062;34392898000;30868600000;31368600000
4063;34392901000;30868600000;31368600000
4064;34392902000;30868600000;31368600000
4065;34392903000;30868600000;31368600000
4066;34392905000;30868600000;31368600000
4067;34392905000;30868600000;31368600000
4068;34392906000;30868600000;31368600000
4069;34393221000;30868611111;31368611111
4070;34393237000;30868866666;31368866666
4071;34393238000;30868866666;31368866666
4072;34393239000;30868866666;31368866666
4073;34434361000;30910266666;31410266666
4074;34434365000;30910266666;31410266666
4075;34434366000;30910266666;31410266666
4076;34434367000;30910266666;31410266666
4077;34434368000;30910266666;31410266666
4078;34456345000;30910266666;31410266666
4079;34457128000;30910266666;31410266666
4080;34508494000;30910288888;31410288888
4089;34508501000;30951944444;31451944444
4090;34508502000;30951944444;31451944444
4091;34549072000;30951955555;31451955555
4093;34549079000;30952266666;31452266666
4094;34549081000;30952266666;31452266666
4095;34591565000;30993600000;31493600000
4096;34591569000;30993600000;31493600000
4097;34591570000;30993600000;31493600000
4098;34591571000;30993600000;31493600000
4099;34591572000;30993600000;31493600000
4100;34591573000;30993600000;31493600000
4101;34591574000;30993600000;31493600000
4102;34591676000;30993622222;31493622222
4103;34591681000;30993911111;31493911111
4104;34591682000;30993911111;31493911111
4105;34591683000;30993911111;31493911111
4106;34632373000;31035255555;31535255555
4107;34632376000;31035255555;31535255555
4108;34632377000;31035255555;31535255555
4109;34632378000;31035255555;31535255555
4110;34632379000;31035255555;31535255555
4111;34632381000;31035255555;31535255555
4112;34632381000;31035255555;31535255555
4113;34632503000;31035277777;31535277777
4114;34632508000;31035577777;31535577777
4115;34632509000;31035577777;31535577777
4116;34656624000;31035577777;31535577777
4117;34671759000;31076933333;31576933333
4126;34671871000;31077244444;31577244444
4127;34671875000;31077244444;31577244444
4128;34710861000;31118600000;31618600000
4130;34710865000;31118600000;31618600000
4131;34710866000;31118600000;31618600000
4132;34710867000;31118600000;31618600000
4133;34710868000;31118600000;31618600000
4134;34710869000;31118600000;31618600000
4135;34711067000;31118611111;31618611111
4136;34711074000;31118900000;31618900000
4137;34711075000;31118900000;31618900000
4138;34711076000;31118900000;31618900000
4139;34747792000;31160266666;31660266666
4140;34747795000;31160266666;31660266666
4141;34747797000;31160266666;31660266666
4142;34747798000;31160266666;31660266666
4143;34747798000;31160266666;31660266666
4144;34747800000;31160266666;31660266666
4145;34749655000;31160266666;31660266666
4146;34800058000;31160288888;31660288888
4147;34800064000;31160566666;31660566666
4148;34800065000;31160566666;31660566666
4149;34800066000;31160566666;31660566666
4150;34841622000;31201933333;31701933333
4151;34841634000;31201933333;31701933333
4152;34841635000;31201933333;31701933333
4153;34856948000;31201933333;31701933333
4155;34859321000;31201933333;31701933333
4156;34859489000;31201933333;31701933333
4157;34911089000;31201955555;31701955555
4161;34952432000;31243600000;31743600000
4162;34952434000;31243600000;31743600000
4163;34952435000;31243600000;31743600000
4164;34952436000;31243600000;31743600000
4165;34952437000;31243600000;31743600000
4166;34952438000;31243600000;31743600000
4167;34952439000;31243600000;31743600000
4168;34952640000;31243622222;31743622222
4169;34952655000;31243888888;31743888888
4170;34952656000;31243888888;31743888888
4171;34952657000;31243888888;31743888888
4172;34994100000;31285266666;31785266666
4173;34994104000;31285266666;31785266666
4174;34994105000;31285266666;31785266666
4176;34994106000;31285266666;31785266666
4177;34994107000;31285266666;31785266666
4178;34994108000;31285266666;31785266666
4179;34994306000;31285288888;31785288888
4180;34994322000;31285588888;31785588888
4181;34994323000;31285588888;31785588888
4182;34994324000;31285588888;31785588888
4183;35035146000;31326933333;31826933333
4184;35035150000;31326933333;31826933333
4185;35035151000;31326933333;31826933333
4186;35035152000;31326933333;31826933333
4189;35035153000;31326933333;31826933333
4190;35107678000;31326955555;31826955555
4201;35149183000;31368622222;31868622222
4202;35149189000;31368877777;31868877777
4203;35149190000;31368877777;31868877777
4204;35149191000;31368877777;31868877777
4205;35190666000;31410255555;31910255555
4206;35190669000;31410255555;31910255555
4207;35190670000;31410255555;31910255555
4208;35190671000;31410255555;31910255555
4209;35190672000;31410255555;31910255555
4210;35190673000;31410255555;31910255555
4211;35190674000;31410255555;31910255555
4212;35190873000;31410277777;31910277777
4213;35190888000;31410577777;31910577777
4214;35190889000;31410577777;31910577777
4215;35190890000;31410577777;31910577777
4217;35232209000;31451933333;31951933333
4218;35232212000;31451933333;31951933333
4219;35232213000;31451933333;31951933333
4220;35232214000;31451933333;31951933333
4221;35232215000;31451933333;31951933333
4222;35232216000;31451933333;31951933333
4223;35232336000;31451955555;31951955555
4224;35232352000;31452266666;31952266666
4225;35232353000;31452266666;31952266666
4226;35232354000;31452266666;31952266666
4227;35270779000;31493600000;31993600000
4238;35309838000;31535266666;32035266666
4239;35309842000;31535266666;32035266666
4240;35309843000;31535266666;32035266666
4241;35309844000;31535266666;32035266666
4242;35309844000;31535266666;32035266666
4243;35309845000;31535266666;32035266666
4244;35309847000;31535266666;32035266666
4245;35310062000;31535277777;32035277777
4246;35310068000;31535588888;32035588888
4247;35310069000;31535588888;32035588888
4250;35346424000;31576933333;32076933333
4251;35346428000;31576933333;32076933333
4252;35346429000;31576933333;32076933333
4253;35346430000;31576933333;32076933333
4254;35346431000;31576933333;32076933333
4255;35346432000;31576933333;32076933333
4256;35346547000;31576955555;32076955555
4257;35346551000;31577233333;32077233333
4258;35346552000;31577233333;32077233333
4260;35379518000;31618600000;32118600000
4261;35379521000;31618600000;32118600000
4262;35379522000;31618600000;32118600000
4263;35379523000;31618600000;32118600000
4264;35379524000;31618600000;32118600000
4265;35379525000;31618600000;32118600000
4266;35379526000;31618600000;32118600000
4267;35508188000;31618611111;32118611111
4279;35508193000;31660577777;32160577777
4280;35508195000;31660577777;32160577777
4281;35508197000;31660577777;32160577777
4282;35591538000;31701933333;32201933333
4285;35591542000;31701933333;32201933333
4286;35591552000;31701933333;32201933333
4287;35591553000;31701933333;32201933333
4288;35591554000;31701933333;32201933333
4289;35591754000;31701944444;32201944444
4290;35591769000;31702244444;32202244444
4291;35591771000;31702244444;32202244444
4292;35591772000;31702244444;32202244444
4293;35632009000;31743611111;32243611111
4294;35632020000;31743611111;32243611111
4295;35632021000;31743611111;32243611111
4296;35632023000;31743611111;32243611111
4297;35632023000;31743611111;32243611111
4298;35632024000;31743611111;32243611111
4299;35632025000;31743611111;32243611111
4300;35632232000;31743622222;32243622222
4302;35632247000;31743922222;32243922222
4303;35632249000;31743922222;32243922222
4304;35671365000;31785266666;32285266666
4316;35752196000;31826933333;32326933333
4317;35752200000;31826933333;32326933333
4319;35752201000;31826933333;32326933333
4320;35752202000;31826933333;32326933333
4321;35752203000;31826933333;32326933333
4322;35752324000;31826944444;32326944444
4323;35752340000;31827244444;32327244444
4324;35752341000;31827244444;32327244444
4325;35752342000;31827244444;32327244444
4326;35752354000;31868600000;32368600000
4327;35752356000;31868600000;32368600000
4328;35752357000;31868600000;32368600000
4329;35752359000;31868600000;32368600000
4330;35752361000;31868600000;32368600000
4331;35752362000;31868600000;32368600000
4332;35752364000;31868600000;32368600000
4333;35752473000;31868622222;32368622222
4334;35752476000;31868877777;32368877777
4335;35752477000;31868877777;32368877777
4336;35752478000;31868877777;32368877777
4337;35837096000;31910266666;32410266666
4338;35837100000;31910266666;32410266666
4339;35837101000;31910266666;32410266666
4340;35837102000;31910266666;32410266666
4341;35837103000;31910266666;32410266666
4343;35837104000;31910266666;32410266666
4344;35912086000;31910288888;32410288888
4357;35912102000;31952266666;32452266666
4358;35912103000;31952266666;32452266666
4359;35995270000;31993600000;32493600000
4361;35995273000;31993600000;32493600000
4362;35995274000;31993600000;32493600000
4363;35995275000;31993600000;32493600000
4364;35995276000;31993600000;32493600000
4365;35995277000;31993600000;32493600000
4366;35995476000;31993622222;32493622222
4367;35995491000;31993911111;32493911111
4368;35995492000;31993911111;32493911111
4369;35995493000;31993911111;32493911111
4370;36035839000;32035266666;32535266666
4371;36035842000;32035266666;32535266666
4372;36035843000;32035266666;32535266666
4373;36035844000;32035266666;32535266666
4374;36035845000;32035266666;32535266666
4375;36035846000;32035266666;32535266666
4376;36035847000;32035266666;32535266666
4377;36036063000;32035288888;32535288888
4379;36036069000;32035588888;32535588888
4380;36036070000;32035588888;32535588888
4381;36074978000;32076922222;32576922222
4393;36163755000;32118588888;32618588888
4395;36163758000;32118588888;32618588888
4396;36163759000;32118588888;32618588888
4397;36163770000;32118588888;32618588888
4398;36163771000;32118588888;32618588888
4399;36163836000;32118600000;32618600000
4400;36163839000;32118900000;32618900000
4401;36163840000;32118900000;32618900000
4402;36163841000;32118900000;32618900000
4403;36163859000;32160277777;32660277777
4404;36163861000;32160277777;32660277777
4405;36163862000;32160277777;32660277777
4406;36163864000;32160277777;32660277777
4407;36163866000;32160277777;32660277777
4408;36163868000;32160277777;32660277777
4409;36163869000;32160277777;32660277777
4410;36163954000;32160288888;32660288888
4411;36163958000;32160588888;32660588888
4412;36163959000;32160588888;32660588888
4417;36182612000;32201933333;32701933333
4418;36182616000;32201933333;32701933333
4419;36182617000;32201933333;32701933333
4420;36182618000;32201933333;32701933333
4421;36182738000;32201955555;32701955555
4422;36182753000;32202244444;32702244444
4423;36262226000;32202244444;32702244444
4424;36262466000;32202244444;32702244444
4425;36312631000;32243600000;32743600000
4436;36354466000;32285255555;32785255555
4437;36354469000;32285255555;32785255555
4438;36354470000;32285255555;32785255555
4439;36354472000;32285255555;32785255555
4440;36354473000;32285255555;32785255555
4443;36395545000;32285277777;32785277777
4446;36395551000;32285588888;32785588888
4447;36436476000;32326922222;32826922222
4448;36436480000;32326922222;32826922222
4449;36436481000;32326922222;32826922222
4450;36436482000;32326922222;32826922222
4451;36436483000;32326922222;32826922222
4452;36436491000;32326922222;32826922222
4455;36436556000;32327244444;32827244444
4456;36436568000;32327244444;32827244444
4457;36436569000;32327244444;32827244444
4458;36476057000;32368600000;32868600000
4475;36515129000;32410266666;32910266666
4476;36515262000;32410288888;32910288888
4477;36515268000;32410588888;32910588888
4478;36515269000;32410588888;32910588888
4480;36551912000;32451933333;32951933333
4481;36551916000;32451933333;32951933333
4482;36551917000;32451933333;32951933333
4483;36551918000;32451933333;32951933333
4484;36551919000;32451933333;32951933333
4485;36551920000;32451933333;32951933333
4487;36551990000;32451944444;32951944444
4488;36551995000;32452222222;32952222222
4489;36551996000;32452222222;32952222222
4490;36551997000;32452222222;32952222222
4491;36585886000;32493588888;32993588888
4492;36585890000;32493588888;32993588888
4493;36585891000;32493588888;32993588888
4494;36585892000;32493588888;32993588888
4495;36585893000;32493588888;32993588888
4496;36585894000;32493588888;32993588888
4497;36585895000;32493588888;32993588888
4498;36586018000;32493611111;32993611111
4499;36586023000;32493877777;32993877777
4500;36586024000;32493877777;32993877777
4506;36713233000;32535266666;33035266666
4513;36754465000;32576933333;33076933333
4514;36754468000;32576933333;33076933333
4515;36754470000;32576933333;33076933333
4516;36754471000;32576933333;33076933333
4517;36754472000;32576933333;33076933333
4518;36754473000;32576933333;33076933333
4519;36754474000;32576933333;33076933333
4520;36754693000;32576955555;33076955555
4521;36754698000;32577211111;33077211111
4522;36754699000;32577211111;33077211111
4523;36754701000;32577211111;33077211111
4524;36796317000;32618600000;33118600000
4525;36796321000;32618600000;33118600000
4526;36796322000;32618600000;33118600000
4527;36796323000;32618600000;33118600000
4528;36796324000;32618600000;33118600000
4529;36796325000;32618600000;33118600000
4530;36796326000;32618600000;33118600000
4531;36796448000;32618611111;33118611111
4532;36796453000;32618866666;33118866666
4533;36796454000;32618866666;33118866666
4534;36796455000;32618866666;33118866666
4535;36837324000;32660255555;33160255555
4536;36837328000;32660255555;33160255555
4537;36837329000;32660255555;33160255555
4538;36837330000;32660255555;33160255555
4539;36837331000;32660255555;33160255555
4540;36863226000;32660255555;33160255555
4543;36913813000;32660555555;33160555555
4555;36955418000;32702222222;33202222222
4556;36955421000;32702222222;33202222222
4557;36996649000;32743600000;33243600000
4558;36996653000;32743600000;33243600000
4559;36996654000;32743600000;33243600000
4560;36996655000;32743600000;33243600000
4561;36996656000;32743600000;33243600000
4564;36996870000;32743611111;33243611111
4565;36996876000;32743888888;33243888888
4566;36996877000;32743888888;33243888888
4567;36996878000;32743888888;33243888888
4568;37037811000;32785266666;33285266666
4570;37037814000;32785266666;33285266666
4571;37037815000;32785266666;33285266666
4572;37037816000;32785266666;33285266666
4573;37037817000;32785266666;33285266666
4574;37037818000;32785266666;33285266666
4575;37037939000;32785288888;33285288888
4578;37037945000;32785566666;33285566666
4579;37076882000;32826933333;33326933333
4591;37165567000;32868588888;33368588888
4592;37165570000;32868588888;33368588888
4593;37165572000;32868588888;33368588888
4594;37165573000;32868588888;33368588888
4595;37165574000;32868588888;33368588888
4597;37165653000;32868611111;33368611111
4598;37165658000;32868844444;33368844444
4599;37165660000;32868844444;33368844444
4600;37165661000;32868844444;33368844444
4601;37165678000;32910255555;33410255555
4602;37165680000;32910255555;33410255555
4603;37165680000;32910255555;33410255555
4604;37165681000;32910255555;33410255555
4605;37165692000;32910255555;33410255555
4606;37165693000;32910255555;33410255555
4607;37165694000;32910255555;33410255555
4608;37165757000;32910277777;33410277777
4609;37165762000;32910555555;33410555555
4613;37183960000;32951933333;33451933333
4614;37183963000;32951933333;33451933333
4616;37183964000;32951933333;33451933333
4617;37183972000;32951933333;33451933333
4618;37183973000;32951933333;33451933333
4619;37184062000;32951944444;33451944444
4620;37263837000;32952233333;33452233333
4623;37355677000;32993600000;33493600000
4634;37396059000;33035266666;33535266666
4635;37396063000;33035266666;33535266666
4638;37396920000;33035266666;33535266666
4639;37396924000;33035266666;33535266666
4640;37396936000;33035266666;33535266666
4642;37396998000;33035577777;33535577777
4643;37397001000;33035577777;33535577777
4644;37397002000;33035577777;33535577777
4645;37438017000;33076933333;33576933333
4646;37438020000;33076933333;33576933333
4647;37438021000;33076933333;33576933333
4648;37438023000;33076933333;33576933333
4649;37438024000;33076933333;33576933333
4650;37438025000;33076933333;33576933333
4651;37438026000;33076933333;33576933333
4652;37438131000;33076944444;33576944444
4653;37438137000;33077233333;33577233333
4654;37438138000;33077233333;33577233333
4655;37464389000;33077233333;33577233333
4657;37556157000;33118600000;33618600000
4658;37556160000;33118600000;33618600000
4659;37556161000;33118600000;33618600000
4660;37556162000;33118600000;33618600000
4661;37556163000;33118600000;33618600000
4662;37556164000;33118600000;33618600000
4663;37556285000;33118611111;33618611111
4664;37556290000;33118900000;33618900000
4665;37556291000;33118900000;33618900000
4666;37556292000;33118900000;33618900000
4667;37556310000;33160266666;33660266666
4668;37556312000;33160266666;33660266666
4670;37597474000;33160266666;33660266666
4671;37597478000;33160266666;33660266666
4672;37597488000;33160266666;33660266666
4673;37597489000;33160266666;33660266666
4674;37714963000;33160277777;33660277777
4675;37714981000;33160544444;33660544444
4676;37714983000;33160544444;33660544444
4677;37714984000;33160544444;33660544444
4678;37756523000;33201944444;33701944444
4679;37756526000;33201944444;33701944444
4680;37756528000;33201944444;33701944444
4681;37756529000;33201944444;33701944444
4682;37756530000;33201944444;33701944444
4683;37756531000;33201944444;33701944444
4684;37756532000;33201944444;33701944444
4685;37756652000;33201955555;33701955555
4686;37756657000;33202211111;33702211111
4687;37756658000;33202211111;33702211111
4688;37767720000;33202211111;33702211111
4689;37859589000;33243600000;33743600000
4690;37859592000;33243600000;33743600000
4691;37859593000;33243600000;33743600000
4693;37864812000;33243600000;33743600000
4695;37864826000;33243600000;33743600000
4696;37915315000;33243611111;33743611111
4697;37915321000;33243877777;33743877777
4698;37915323000;33243877777;33743877777
4699;37915324000;33243877777;33743877777
4700;37956848000;33285255555;33785255555
4701;37956852000;33285255555;33785255555
4702;37956853000;33285255555;33785255555
4703;37956854000;33285255555;33785255555
4704;37956855000;33285255555;33785255555
4705;37956856000;33285255555;33785255555
4706;37956857000;33285255555;33785255555
4707;37956979000;33285277777;33785277777
4708;37968123000;33285588888;33785588888
4709;37968372000;33285588888;33785588888
4710;37968532000;33285588888;33785588888
4711;38059680000;33326944444;33826944444
4712;38059684000;33326944444;33826944444
4713;38065030000;33326944444;33826944444
4715;38065119000;33326944444;33826944444
4716;38065519000;33326944444;33826944444
4718;38115614000;33326955555;33826955555
4719;38115629000;33327255555;33827255555
4720;38115631000;33327255555;33827255555
4721;38115632000;33327255555;33827255555
4722;38157229000;33368611111;33868611111
4723;38157232000;33368611111;33868611111
4724;38157233000;33368611111;33868611111
4725;38157234000;33368611111;33868611111
4726;38157235000;33368611111;33868611111
4727;38157236000;33368611111;33868611111
4728;38157237000;33368611111;33868611111
4729;38218963000;33368622222;33868622222
4730;38218979000;33368877777;33868877777
4731;38218980000;33368877777;33868877777
4732;38218981000;33368877777;33868877777
4733;38260458000;33410266666;33910266666
4734;38260462000;33410266666;33910266666
4735;38265350000;33410266666;33910266666
4736;38265355000;33410266666;33910266666
4738;38265416000;33410266666;33910266666
4739;38265427000;33410266666;33910266666
4740;38315848000;33410288888;33910288888
4741;38315864000;33410588888;33910588888
4742;38315865000;33410588888;33910588888
4743;38315866000;33410588888;33910588888
4744;38357340000;33451933333;33951933333
4745;38357344000;33451933333;33951933333
4746;38357345000;33451933333;33951933333
4747;38357346000;33451933333;33951933333
4748;38357347000;33451933333;33951933333
4749;38357348000;33451933333;33951933333
4750;38357349000;33451933333;33951933333
4751;38357555000;33451944444;33951944444
5247;38357592000;35327300000;35827300000
5248;38369231000;35327300000;35827300000
5249;38369419000;35327300000;35827300000
5250;38419962000;35368611111;35868611111
5251;38419975000;35368611111;35868611111
5252;38419976000;35368611111;35868611111
5253;38465633000;35368611111;35868611111
5254;38465647000;35368611111;35868611111
5256;38465663000;35368611111;35868611111
5257;38516141000;35368622222;35868622222
5258;38516156000;35368900000;35868900000
5259;38516157000;35368900000;35868900000
5260;38516158000;35368900000;35868900000
5261;38557803000;35410266666;35910266666
5263;38557990000;35410266666;35910266666
5264;38557994000;35410266666;35910266666
5265;38558006000;35410266666;35910266666
5266;38558007000;35410266666;35910266666
5267;38558007000;35410266666;35910266666
5268;38558224000;35410288888;35910288888
5269;38558239000;35410588888;35910588888
5270;38558240000;35410588888;35910588888
5271;38558241000;35410588888;35910588888
5272;38599333000;35451933333;35951933333
5273;38599337000;35451933333;35951933333
5275;38599338000;35451933333;35951933333
5276;38599339000;35451933333;35951933333
5277;38599340000;35451933333;35951933333
5278;38665912000;35451933333;35951933333
5279;38716379000;35451955555;35951955555
5283;38716394000;35493600000;35993600000
5284;38716395000;35493600000;35993600000
5285;38716396000;35493600000;35993600000
5286;38716397000;35493600000;35993600000
5287;38716398000;35493600000;35993600000
5288;38716399000;35493600000;35993600000
5289;38716400000;35493600000;35993600000
5291;38758459000;35493888888;35993888888
5292;38758463000;35493888888;35993888888
5293;38758464000;35493888888;35993888888
5294;38799386000;35535266666;36035266666
5295;38799390000;35535266666;36035266666
5296;38799391000;35535266666;36035266666
5297;38799392000;35535266666;36035266666
5298;38799393000;35535266666;36035266666
5299;38799394000;35535266666;36035266666
5300;38799395000;35535266666;36035266666
5301;38799593000;35535277777;36035277777
5302;38799608000;35535588888;36035588888
5303;38799610000;35535588888;36035588888
5304;38799611000;35535588888;36035588888
5305;38840315000;35576944444;36076944444
5306;38840319000;35576944444;36076944444
5308;38840416000;35576944444;36076944444
5309;38866251000;35576944444;36076944444
5310;38866254000;35576944444;36076944444
5311;38866256000;35576944444;36076944444
5312;38916746000;35576955555;36076955555
5316;38916761000;35618600000;36118600000
5317;38916762000;35618600000;36118600000
5318;38916763000;35618600000;36118600000
5319;38916765000;35618600000;36118600000
5320;38916766000;35618600000;36118600000
5321;38916766000;35618600000;36118600000
5322;38916767000;35618600000;36118600000
5323;38958356000;35618622222;36118622222
5324;38958362000;35618888888;36118888888
5325;38958372000;35618888888;36118888888
5326;38958373000;35618888888;36118888888
5328;39000228000;35660266666;36160266666
5329;39000232000;35660266666;36160266666
5330;39000233000;35660266666;36160266666
5331;39000234000;35660266666;36160266666
5333;39000235000;35660266666;36160266666
5334;39000354000;35660288888;36160288888
5335;39000369000;35660577777;36160577777
5336;39000371000;35660577777;36160577777
5337;39000372000;35660577777;36160577777
5338;39040834000;35701933333;36201933333
5339;39040838000;35701933333;36201933333
5340;39066518000;35701933333;36201933333
5341;39066521000;35701933333;36201933333
5342;39066577000;35701933333;36201933333
5343;39066590000;35701933333;36201933333
5344;39066592000;35701933333;36201933333
5345;39117057000;35701955555;36201955555
5349;39158741000;35743611111;36243611111
5350;39158761000;35743611111;36243611111
5351;39158762000;35743611111;36243611111
5352;39158763000;35743611111;36243611111
5353;39158764000;35743611111;36243611111
5354;39158765000;35743611111;36243611111
5355;39158766000;35743611111;36243611111
5356;39158943000;35743622222;36243622222
5357;39158946000;35743922222;36243922222
5358;39158947000;35743922222;36243922222
5359;39158948000;35743922222;36243922222
5360;39200020000;35785266666;36285266666
5361;39200024000;35785266666;36285266666
5362;39200025000;35785266666;36285266666
5363;39200026000;35785266666;36285266666
5364;39200027000;35785266666;36285266666
5365;39200028000;35785266666;36285266666
5366;39200029000;35785266666;36285266666
5367;39200236000;35785277777;36285277777
5368;39200251000;35785588888;36285588888
5369;39200252000;35785588888;36285588888
5371;39317169000;35826922222;36326922222
5372;39317173000;35826922222;36326922222
5373;39317174000;35826922222;36326922222
5374;39317184000;35826922222;36326922222
5375;39317185000;35826922222;36326922222
5376;39317186000;35826922222;36326922222
5377;39317187000;35826922222;36326922222
5379;39317197000;35827244444;36327244444
5380;39317209000;35827244444;36327244444
5381;39317210000;35827244444;36327244444
5382;39358751000;35868600000;36368600000
5383;39358764000;35868600000;36368600000
5384;39358765000;35868600000;36368600000
5385;39358766000;35868600000;36368600000
5386;39358767000;35868600000;36368600000
5387;39358768000;35868600000;36368600000
5388;39358769000;35868600000;36368600000
5389;39358942000;35868622222;36368622222
5390;39358945000;35868877777;36368877777
5391;39358946000;35868877777;36368877777
5392;39358947000;35868877777;36368877777
5394;39400318000;35910266666;36410266666
5395;39400321000;35910266666;36410266666
5396;39400322000;35910266666;36410266666
5397;39400323000;35910266666;36410266666
5398;39400324000;35910266666;36410266666
5399;39400325000;35910266666;36410266666
5400;39400444000;35910288888;36410288888
5401;39467112000;35910577777;36410577777
5404;39558929000;35951933333;36451933333
5405;39558933000;35951933333;36451933333
5406;39558934000;35951933333;36451933333
5407;39558935000;35951933333;36451933333
5408;39558936000;35951933333;36451933333
5409;39558937000;35951933333;36451933333
5410;39558938000;35951933333;36451933333
5411;39559062000;35951955555;36451955555
5412;39559078000;35952311111;36452311111
5413;39559081000;35952311111;36452311111
5414;39559082000;35952311111;36452311111
5415;39600193000;35993611111;36493611111
5416;39600196000;35993611111;36493611111
5417;39600198000;35993611111;36493611111
5418;39600199000;35993611111;36493611111
5419;39600200000;35993611111;36493611111
5420;39600201000;35993611111;36493611111
5421;39600202000;35993611111;36493611111
5422;39600313000;35993622222;36493622222
5423;39600318000;35993922222;36493922222
5424;39600320000;35993922222;36493922222
5425;39600321000;35993922222;36493922222
5426;39641121000;36035266666;36535266666
5427;39641125000;36035266666;36535266666
5429;39641266000;36035266666;36535266666
5430;39641269000;36035266666;36535266666
5431;39667396000;36035266666;36535266666
5432;39667409000;36035266666;36535266666
5433;39717840000;36035288888;36535288888
5437;39717846000;36076933333;36576933333
5438;39717848000;36076933333;36576933333
5439;39717849000;36076933333;36576933333
5440;39717850000;36076933333;36576933333
5441;39717861000;36076933333;36576933333
5442;39717862000;36076933333;36576933333
5443;39717863000;36076933333;36576933333
5444;39759432000;36076955555;36576955555
5445;39759438000;36077255555;36577255555
5446;39759440000;36077255555;36577255555
5447;39759441000;36077255555;36577255555
5448;39800840000;36118600000;36618600000
5449;39800843000;36118600000;36618600000
5450;39800845000;36118600000;36618600000
5451;39800845000;36118600000;36618600000
5452;39800847000;36118600000;36618600000
5454;39800848000;36118600000;36618600000
5455;39800970000;36118622222;36618622222
5456;39800975000;36118911111;36618911111
5457;39800976000;36118911111;36618911111
5458;39800977000;36118911111;36618911111
5459;39841949000;36160266666;36660266666
5460;39841960000;36160266666;36660266666
5461;39841961000;36160266666;36660266666
5462;39841963000;36160266666;36660266666
5463;39867667000;36160266666;36660266666
5464;39867670000;36160266666;36660266666
5465;39867676000;36160266666;36660266666
5466;39918115000;36160288888;36660288888
5470;39918121000;36201933333;36701933333
5471;39918123000;36201933333;36701933333
5472;39918124000;36201933333;36701933333
5473;39918125000;36201933333;36701933333
5474;39918135000;36201933333;36701933333
5475;39918136000;36201933333;36701933333
5476;39918137000;36201933333;36701933333
5477;39959362000;36201955555;36701955555
5478;39959368000;36202233333;36702233333
5479;39959369000;36202233333;36702233333
5480;39959370000;36202233333;36702233333
5481;40001162000;36243600000;36743600000
5482;40001166000;36243600000;36743600000
5483;40001167000;36243600000;36743600000
5484;40001168000;36243600000;36743600000
5485;40001169000;36243600000;36743600000
5486;40001170000;36243600000;36743600000
5487;40001171000;36243600000;36743600000
5488;40001293000;36243622222;36743622222
5489;40001298000;36243900000;36743900000
5490;40001300000;36243900000;36743900000
5491;40001300000;36243900000;36743900000
5492;40042272000;36285266666;36785266666
5493;40042276000;36285266666;36785266666
5494;40042277000;36285266666;36785266666
5495;40042278000;36285266666;36785266666
5496;40067965000;36285266666;36785266666
5497;40067970000;36285266666;36785266666
5498;40067975000;36285266666;36785266666
5499;40118355000;36285288888;36785288888
