seqnum;now;rtptime;deadline
0;25725979000;24983455555;25483455555
1;25725983000;24983455555;25483455555
2;25725984000;24983455555;25483455555
3;25757007000;25014644444;25514644444
4;25975944000;25014644444;25514644444
5;25975946000;25014644444;25514644444
6;25975950000;25014644444;25514644444
7;25975951000;25014644444;25514644444
8;25975972000;25014644444;25514644444
9;25975974000;25014644444;25514644444
10;26056660000;25014666666;25514666666
11;26056666000;25015066666;25515066666
12;26276258000;25015066666;25515066666
13;26276260000;25015066666;25515066666
14;26326588000;25056277777;25556277777
15;26326592000;25056277777;25556277777
16;26326593000;25056277777;25556277777
17;26326594000;25056277777;25556277777
18;26326595000;25056277777;25556277777
19;26326596000;25056277777;25556277777
20;26326597000;25056277777;25556277777
21;26326718000;25056288888;25556288888
22;26326723000;25056688888;25556688888
23;26326725000;25056688888;25556688888
24;26326726000;25056688888;25556688888
25;26368208000;25097944444;25597944444
26;26368211000;25097944444;25597944444
27;26368213000;25097944444;25597944444
28;26576614000;25097944444;25597944444
29;26576617000;25097944444;25597944444
30;26576622000;25097944444;25597944444
31;26576629000;25097944444;25597944444
32;26627030000;25097955555;25597955555
36;26627037000;25139611111;25639611111
37;26627038000;25139611111;25639611111
38;26627039000;25139611111;25639611111
39;26627040000;25139611111;25639611111
40;26627041000;25139611111;25639611111
42;26668806000;25139611111;25639611111
43;26668951000;25139622222;25639622222
44;26668956000;25139977777;25639977777
45;26668958000;25139977777;25639977777
46;26668959000;25139977777;25639977777
48;26710116000;25181277777;25681277777
49;26710119000;25181277777;25681277777
50;26710120000;25181277777;25681277777
51;26710121000;25181277777;25681277777
52;26710122000;25181277777;25681277777
53;26710123000;25181277777;25681277777
54;26710205000;25181288888;25681288888
55;26710210000;25181611111;25681611111
56;26710211000;25181611111;25681611111
57;26710212000;25181611111;25681611111
59;26751205000;25222944444;25722944444
60;26876956000;25222944444;25722944444
61;26876958000;25222944444;25722944444
62;26876963000;25222944444;25722944444
63;26876981000;25222944444;25722944444
64;26876982000;25222944444;25722944444
65;26931851000;25222955555;25722955555
77;26931867000;25264955555;25764955555
78;26931868000;25264955555;25764955555
79;26931870000;25264955555;25764955555
80;27010636000;25306277777;25806277777
85;27010850000;25306277777;25806277777
86;27010853000;25306277777;25806277777
87;27010970000;25306288888;25806288888
88;27010975000;25306600000;25806600000
89;27010976000;25306600000;25806600000
91;27051484000;25347944444;25847944444
92;27051489000;25347944444;25847944444
93;27051491000;25347944444;25847944444
94;27051492000;25347944444;25847944444
95;27051493000;25347944444;25847944444
96;27051495000;25347944444;25847944444
97;27051496000;25347944444;25847944444
98;27051589000;25347955555;25847955555
99;27051594000;25348255555;25848255555
100;27051596000;25348255555;25848255555
101;27051597000;25348255555;25848255555
102;27091361000;25389611111;25889611111
103;27091371000;25389611111;25889611111
104;27091372000;25389611111;25889611111
105;27091374000;25389611111;25889611111
106;27177294000;25389611111;25889611111
107;27177297000;25389611111;25889611111
108;27177299000;25389611111;25889611111
109;27227740000;25389622222;25889622222
124;27227746000;25472944444;25972944444
125;27227748000;25472944444;25972944444
126;27227748000;25472944444;25972944444
127;27227749000;25472944444;25972944444
128;27227759000;25472944444;25972944444
129;27227760000;25472944444;25972944444
130;27227762000;25472944444;25972944444
131;27310991000;25472955555;25972955555
135;27310997000;25514611111;26014611111
136;27310999000;25514611111;26014611111
138;27351865000;25514611111;26014611111
139;27351867000;25514611111;26014611111
140;27351868000;25514611111;26014611111
141;27351869000;25514611111;26014611111
142;27351986000;25514622222;26014622222
143;27351992000;25514911111;26014911111
145;27352024000;25514911111;26014911111
146;27391602000;25556277777;26056277777
147;27391606000;25556277777;26056277777
148;27391607000;25556277777;26056277777
149;27391608000;25556277777;26056277777
150;27391608000;25556277777;26056277777
151;27391609000;25556277777;26056277777
153;27391735000;25556288888;26056288888
154;27391740000;25556611111;26056611111
155;27477584000;25556611111;26056611111
156;27477587000;25556611111;26056611111
157;27527922000;25597944444;26097944444
179;27611253000;25681277777;26181277777
184;27611256000;25681277777;26181277777
185;27611257000;25681277777;26181277777
186;27611379000;25681288888;26181288888
187;27611384000;25681577777;26181577777
188;27611385000;25681577777;26181577777
189;27611386000;25681577777;26181577777
190;27651996000;25722955555;26222955555
191;27652000000;25722955555;26222955555
192;27652001000;25722955555;26222955555
193;27652002000;25722955555;26222955555
194;27652003000;25722955555;26222955555
195;27652003000;25722955555;26222955555
196;27652004000;25722955555;26222955555
197;27652134000;25722966666;26222966666
198;27652140000;25723288888;26223288888
199;27652142000;25723288888;26223288888
200;27652143000;25723288888;26223288888
201;27691960000;25764600000;26264600000
202;27691964000;25764600000;26264600000
203;27691965000;25764600000;26264600000
204;27691966000;25764600000;26264600000
205;27691967000;25764600000;26264600000
206;27777877000;25764600000;26264600000
207;27777881000;25764600000;26264600000
212;27869778000;25806288888;26306288888
235;27952166000;25889611111;26389611111
238;27952170000;25889611111;26389611111
239;27952171000;25889611111;26389611111
240;27952172000;25889611111;26389611111
241;27952297000;25889622222;26389622222
242;27952302000;25889900000;26389900000
243;27952304000;25889900000;26389900000
244;27952305000;25889900000;26389900000
245;27991680000;25931277777;26431277777
246;27991684000;25931277777;26431277777
247;27991684000;25931277777;26431277777
248;27991686000;25931277777;26431277777
249;27991687000;25931277777;26431277777
250;27991688000;25931277777;26431277777
251;27991688000;25931277777;26431277777
252;27991814000;25931288888;26431288888
253;27991819000;25931611111;26431611111
254;27991821000;25931611111;26431611111
255;27991821000;25931611111;26431611111
256;28029648000;25972944444;26472944444
257;28029652000;25972944444;26472944444
258;28029653000;25972944444;26472944444
259;28029654000;25972944444;26472944444
260;28029655000;25972944444;26472944444
261;28078206000;25972944444;26472944444
262;28078208000;25972944444;26472944444
263;28128604000;25972955555;26472955555
291;28138529000;26097933333;26597933333
294;28138532000;26097933333;26597933333
295;28138534000;26097933333;26597933333
297;28252927000;26098233333;26598233333
300;28292289000;26139611111;26639611111
301;28292293000;26139611111;26639611111
302;28292294000;26139611111;26639611111
303;28292295000;26139611111;26639611111
304;28292296000;26139611111;26639611111
305;28292297000;26139611111;26639611111
306;28292298000;26139611111;26639611111
307;28292422000;26139622222;26639622222
308;28292428000;26139888888;26639888888
309;28292429000;26139888888;26639888888
310;28292430000;26139888888;26639888888
312;28330495000;26181277777;26681277777
313;28330498000;26181277777;26681277777
314;28330499000;26181277777;26681277777
315;28330500000;26181277777;26681277777
316;28330501000;26181277777;26681277777
317;28330502000;26181277777;26681277777
318;28330586000;26181288888;26681288888
319;28330591000;26181588888;26681588888
320;28378917000;26181588888;26681588888
321;28378920000;26181588888;26681588888
322;28429269000;26222944444;26722944444
349;28512644000;26306277777;26806277777
358;28553319000;26347944444;26847944444
359;28553323000;26347944444;26847944444
360;28553324000;26347944444;26847944444
361;28553325000;26347944444;26847944444
362;28553451000;26347955555;26847955555
363;28553457000;26348244444;26848244444
364;28553459000;26348244444;26848244444
365;28553460000;26348244444;26848244444
366;28593026000;26389611111;26889611111
367;28593030000;26389611111;26889611111
368;28593031000;26389611111;26889611111
369;28593056000;26389611111;26889611111
370;28593057000;26389611111;26889611111
371;28593059000;26389611111;26889611111
372;28593060000;26389611111;26889611111
373;28593165000;26389622222;26889622222
374;28593170000;26389866666;26889866666
375;28593172000;26389866666;26889866666
376;28593173000;26389866666;26889866666
377;28630944000;26431277777;26931277777
378;28630947000;26431277777;26931277777
379;28630948000;26431277777;26931277777
381;28679565000;26431277777;26931277777
382;28679572000;26431277777;26931277777
383;28679590000;26431277777;26931277777
384;28729964000;26431288888;26931288888
412;28729970000;26556277777;27056277777
413;28729972000;26556277777;27056277777
414;28729973000;26556277777;27056277777
418;28854321000;26556600000;27056600000
422;28893732000;26597944444;27097944444
423;28893744000;26597944444;27097944444
424;28893745000;26597944444;27097944444
425;28893746000;26597944444;27097944444
426;28893747000;26597944444;27097944444
427;28893748000;26597944444;27097944444
428;28893822000;26597955555;27097955555
429;28893827000;26598255555;27098255555
430;28893828000;26598255555;27098255555
431;28893829000;26598255555;27098255555
432;28931213000;26639611111;27139611111
433;28931217000;26639611111;27139611111
434;28931218000;26639611111;27139611111
435;28931219000;26639611111;27139611111
436;28931220000;26639611111;27139611111
437;28931221000;26639611111;27139611111
438;28931222000;26639611111;27139611111
439;28931336000;26639622222;27139622222
440;28931341000;26639911111;27139911111
441;28931342000;26639911111;27139911111
442;28931343000;26639911111;27139911111
443;28966074000;26681277777;27181277777
444;28980155000;26681277777;27181277777
445;28980171000;26681277777;27181277777
446;28980172000;26681277777;27181277777
447;28980178000;26681277777;27181277777
448;28980183000;26681277777;27181277777
449;28980190000;26681277777;27181277777
450;29030552000;26681288888;27181288888
478;29030558000;26806288888;27306288888
479;29030570000;26806288888;27306288888
480;29030571000;26806288888;27306288888
481;29030572000;26806288888;27306288888
482;29030573000;26806288888;27306288888
483;29155057000;26806300000;27306300000
488;29155072000;26847944444;27347944444
489;29155074000;26847944444;27347944444
490;29155075000;26847944444;27347944444
491;29155076000;26847944444;27347944444
492;29155077000;26847944444;27347944444
493;29155078000;26847944444;27347944444
494;29194338000;26847955555;27347955555
495;29194345000;26848244444;27348244444
497;29194685000;26848244444;27348244444
498;29231834000;26889611111;27389611111
499;29231838000;26889611111;27389611111
500;29231839000;26889611111;27389611111
501;29231840000;26889611111;27389611111
502;29231841000;26889611111;27389611111
503;29231842000;26889611111;27389611111
504;29231843000;26889611111;27389611111
505;29231958000;26889622222;27389622222
506;29231963000;26889888888;27389888888
507;29231964000;26889888888;27389888888
508;29231965000;26889888888;27389888888
509;29266660000;26931266666;27431266666
510;29266663000;26931266666;27431266666
511;29280714000;26931266666;27431266666
512;29280717000;26931266666;27431266666
513;29280719000;26931266666;27431266666
514;29280735000;26931266666;27431266666
515;29280736000;26931266666;27431266666
516;29331129000;26931277777;27431277777
549;29455528000;27056288888;27556288888
562;29455534000;27098244444;27598244444
563;29455535000;27098244444;27598244444
564;29533625000;27139611111;27639611111
565;29533629000;27139611111;27639611111
566;29533630000;27139611111;27639611111
567;29533631000;27139611111;27639611111
568;29533632000;27139611111;27639611111
569;29533633000;27139611111;27639611111
570;29533634000;27139611111;27639611111
571;29533735000;27139622222;27639622222
572;29533740000;27139900000;27639900000
573;29533741000;27139900000;27639900000
574;29533742000;27139900000;27639900000
575;29568219000;27181277777;27681277777
576;29568222000;27181277777;27681277777
577;29568223000;27181277777;27681277777
578;29568224000;27181277777;27681277777
579;29568225000;27181277777;27681277777
580;29568226000;27181277777;27681277777
581;29568234000;27181277777;27681277777
582;29568348000;27181288888;27681288888
583;29568353000;27181588888;27681588888
584;29581245000;27181588888;27681588888
585;29581254000;27181588888;27681588888
586;29600491000;27222944444;27722944444
625;29683830000;27347955555;27847955555
632;29707548000;27389611111;27889611111
633;29707551000;27389611111;27889611111
634;29707552000;27389611111;27889611111
635;29707553000;27389611111;27889611111
636;29707554000;27389611111;27889611111
637;29707665000;27389622222;27889622222
638;29707670000;27389888888;27889888888
639;29707671000;27389888888;27889888888
640;29707672000;27389888888;27889888888
641;29730220000;27431288888;27931288888
642;29730223000;27431288888;27931288888
643;29730225000;27431288888;27931288888
644;29730225000;27431288888;27931288888
645;29730226000;27431288888;27931288888
646;29730227000;27431288888;27931288888
647;29730228000;27431288888;27931288888
650;29730514000;27431600000;27931600000
651;29730517000;27431600000;27931600000
652;29757918000;27472944444;27972944444
653;29757921000;27472944444;27972944444
654;29757922000;27472944444;27972944444
656;29757923000;27472944444;27972944444
657;29757924000;27472944444;27972944444
662;29931903000;27473255555;27973255555
703;30096024000;27639611111;28139611111
709;30096030000;27681277777;28181277777
710;30096031000;27681277777;28181277777
711;30096032000;27681277777;28181277777
712;30096033000;27681277777;28181277777
713;30096051000;27681277777;28181277777
714;30132961000;27681288888;28181288888
715;30132967000;27681577777;28181577777
719;30168248000;27722955555;28222955555
720;30168251000;27722955555;28222955555
721;30168252000;27722955555;28222955555
722;30168254000;27722955555;28222955555
723;30168254000;27722955555;28222955555
724;30168255000;27722955555;28222955555
725;30168335000;27722966666;28222966666
727;30168340000;27723244444;28223244444
728;30168342000;27723244444;28223244444
729;30197434000;27764611111;28264611111
780;30288862000;27931277777;28431277777
791;30306740000;27972955555;28472955555
794;30307194000;27973266666;28473266666
795;30323807000;28014611111;28514611111
796;30323811000;28014611111;28514611111
797;30323812000;28014611111;28514611111
798;30323813000;28014611111;28514611111
799;30323814000;28014611111;28514611111
800;30323815000;28014611111;28514611111
801;30323816000;28014611111;28514611111
802;30323936000;28014622222;28514622222
803;30323942000;28014911111;28514911111
804;30323943000;28014911111;28514911111
805;30323944000;28014911111;28514911111
806;30341776000;28056277777;28556277777
807;30341780000;28056277777;28556277777
808;30341781000;28056277777;28556277777
809;30341782000;28056277777;28556277777
810;30341783000;28056277777;28556277777
811;30341784000;28056277777;28556277777
812;30341785000;28056277777;28556277777
813;30341910000;28056288888;28556288888
814;30341916000;28056600000;28556600000
815;30482149000;28056600000;28556600000
816;30482163000;28056600000;28556600000
817;30532512000;28097944444;28597944444
866;30696821000;28264600000;28764600000
872;30733809000;28306277777;28806277777
873;30733812000;28306277777;28806277777
874;30733813000;28306277777;28806277777
875;30733814000;28306277777;28806277777
876;30733815000;28306277777;28806277777
877;30733816000;28306277777;28806277777
878;30733817000;28306277777;28806277777
879;30733941000;28306288888;28806288888
880;30733947000;28306600000;28806600000
881;30733948000;28306600000;28806600000
882;30733949000;28306600000;28806600000
883;30768057000;28347944444;28847944444
884;30768060000;28347944444;28847944444
885;30768061000;28347944444;28847944444
886;30768062000;28347944444;28847944444
887;30768063000;28347944444;28847944444
888;30768064000;28347944444;28847944444
889;30768065000;28347944444;28847944444
890;30768185000;28347955555;28847955555
891;30768191000;28348255555;28848255555
892;30768192000;28348255555;28848255555
893;30768193000;28348255555;28848255555
894;30798444000;28389611111;28889611111
939;30893627000;28556277777;29056277777
950;30912025000;28597944444;29097944444
951;30912028000;28597944444;29097944444
952;30912029000;28597944444;29097944444
953;30912037000;28597944444;29097944444
954;30912038000;28597944444;29097944444
955;30912039000;28597944444;29097944444
956;30912191000;28597955555;29097955555
957;30912196000;28598266666;29098266666
958;30912197000;28598266666;29098266666
959;30912198000;28598266666;29098266666
960;30929899000;28639622222;29139622222
961;30929902000;28639622222;29139622222
962;30929903000;28639622222;29139622222
963;30929904000;28639622222;29139622222
965;30929978000;28639622222;29139622222
966;30929981000;28639622222;29139622222
967;30930110000;28639633333;29139633333
968;30930115000;28639944444;29139944444
969;30930117000;28639944444;29139944444
970;30930118000;28639944444;29139944444
971;30949198000;28681277777;29181277777
972;30949200000;28681277777;29181277777
973;31082806000;28681277777;29181277777
974;31082820000;28681277777;29181277777
975;31082824000;28681277777;29181277777
976;31082830000;28681277777;29181277777
977;31082836000;28681277777;29181277777
978;31133215000;28681288888;29181288888
1190;31143380000;29473288888;29973288888
1191;31804942000;29514611111;30014611111
1348;31805012000;30097944444;30597944444
1349;31805024000;30097944444;30597944444
1350;31805025000;30097944444;30597944444
1351;31805026000;30097944444;30597944444
1352;31805112000;30097966666;30597966666
1353;31805117000;30098244444;30598244444
1354;31805119000;30098244444;30598244444
1355;31805119000;30098244444;30598244444
1356;31805139000;30139611111;30639611111
1357;31805140000;30139611111;30639611111
1358;31805141000;30139611111;30639611111
1359;31805152000;30139611111;30639611111
1360;31805153000;30139611111;30639611111
1361;31805154000;30139611111;30639611111
1362;31805155000;30139611111;30639611111
1363;31805207000;30139622222;30639622222
1364;31805212000;30139922222;30639922222
1365;31805213000;30139922222;30639922222
1366;31805214000;30139922222;30639922222
1367;31805231000;30181277777;30681277777
1368;31805233000;30181277777;30681277777
1369;31805233000;30181277777;30681277777
1370;31805234000;30181277777;30681277777
1371;31805236000;30181277777;30681277777
1372;31805237000;30181277777;30681277777
1373;31983804000;30181277777;30681277777
1374;32034163000;30181288888;30681288888
1421;32034179000;30348255555;30848255555
1422;32236243000;30389611111;30889611111
1428;32236247000;30389611111;30889611111
1429;32236372000;30389622222;30889622222
1430;32236377000;30389877777;30889877777
1433;32270944000;30431277777;30931277777
1434;32270946000;30431277777;30931277777
1435;32270956000;30431277777;30931277777
1436;32270957000;30431277777;30931277777
1437;32270958000;30431277777;30931277777
1438;32270959000;30431277777;30931277777
1439;32270960000;30431277777;30931277777
1440;32271026000;30431288888;30931288888
1441;32271041000;30431588888;30931588888
1442;32271049000;30431588888;30931588888
1443;32271050000;30431588888;30931588888
1444;32299863000;30472944444;30972944444
1500;32416459000;30681277777;31181277777
1507;32416525000;30681588888;31181588888
1508;32416537000;30681588888;31181588888
1509;32416538000;30681588888;31181588888
1510;32431119000;30722944444;31222944444
1511;32431122000;30722944444;31222944444
1512;32431123000;30722944444;31222944444
1513;32431124000;30722944444;31222944444
1514;32431125000;30722944444;31222944444
1515;32431126000;30722944444;31222944444
1516;32431127000;30722944444;31222944444
1517;32431239000;30722955555;31222955555
1518;32431244000;30723277777;31223277777
1519;32431245000;30723277777;31223277777
1520;32431246000;30723277777;31223277777
1521;32446211000;30764611111;31264611111
1522;32446215000;30764611111;31264611111
1523;32446216000;30764611111;31264611111
1524;32446217000;30764611111;31264611111
1525;32446218000;30764611111;31264611111
1526;32446219000;30764611111;31264611111
1527;32446220000;30764611111;31264611111
1528;32446338000;30764622222;31264622222
1532;32584606000;30806277777;31306277777
1533;32584609000;30806277777;31306277777
1534;32584610000;30806277777;31306277777
1535;32584613000;30806277777;31306277777
1536;32584614000;30806277777;31306277777
1537;32584616000;30806277777;31306277777
1538;32584626000;30806277777;31306277777
1539;32676357000;30806288888;31306288888
1581;32676363000;30972944444;31472944444
1582;32676364000;30972944444;31472944444
1583;32836578000;30972955555;31472955555
1584;32836585000;30973277777;31473277777
1585;32836586000;30973277777;31473277777
1587;32870404000;31014633333;31514633333
1588;32870407000;31014633333;31514633333
1589;32870408000;31014633333;31514633333
1590;32870409000;31014633333;31514633333
1591;32870410000;31014633333;31514633333
1594;32870492000;31014644444;31514644444
1595;32870497000;31014955555;31514955555
1596;32870498000;31014955555;31514955555
1597;32870499000;31014955555;31514955555
1598;32899807000;31056277777;31556277777
1658;32997202000;31264600000;31764600000
1664;33018510000;31306288888;31806288888
1665;33018514000;31306288888;31806288888
1666;33018515000;31306288888;31806288888
1667;33018515000;31306288888;31806288888
1668;33018516000;31306288888;31806288888
1669;33018517000;31306288888;31806288888
1670;33018518000;31306288888;31806288888
1671;33018630000;31306300000;31806300000
1672;33018635000;31306600000;31806600000
1673;33018636000;31306600000;31806600000
1674;33018637000;31306600000;31806600000
1675;33031853000;31347944444;31847944444
1676;33031856000;31347944444;31847944444
1677;33031857000;31347944444;31847944444
1678;33031858000;31347944444;31847944444
1679;33031859000;31347944444;31847944444
1680;33031860000;31347944444;31847944444
1681;33031861000;31347944444;31847944444
1682;33031963000;31347955555;31847955555
1683;33031968000;31348255555;31848255555
1684;33031969000;31348255555;31848255555
1685;33031970000;31348255555;31848255555
1686;33048206000;31389611111;31889611111
1687;33185127000;31389611111;31889611111
1688;33185130000;31389611111;31889611111
1689;33185131000;31389611111;31889611111
1690;33185140000;31389611111;31889611111
1691;33185149000;31389611111;31889611111
1692;33185155000;31389611111;31889611111
1693;33235526000;31389622222;31889622222
1741;33235541000;31597944444;32097944444
1742;33235543000;31597944444;32097944444
1743;33235544000;31597944444;32097944444
1744;33235545000;31597944444;32097944444
1745;33235546000;31597944444;32097944444
1746;33235547000;31597944444;32097944444
1747;33235548000;31597944444;32097944444
1748;33437669000;31597966666;32097966666
1751;33437676000;31598277777;32098277777
1752;33471014000;31639611111;32139611111
1753;33471017000;31639611111;32139611111
1754;33471018000;31639611111;32139611111
1755;33471019000;31639611111;32139611111
1756;33471020000;31639611111;32139611111
1757;33471021000;31639611111;32139611111
1758;33471022000;31639611111;32139611111
1759;33471154000;31639622222;32139622222
1760;33471159000;31639922222;32139922222
1761;33471161000;31639922222;32139922222
1762;33471162000;31639922222;32139922222
1763;33501470000;31681277777;32181277777
1813;33600479000;31847933333;32347933333
1817;33785825000;31848277777;32348277777
1825;33785904000;31889622222;32389622222
1836;33785917000;31931288888;32431288888
1837;33785919000;31931611111;32431611111
1838;33785931000;31931611111;32431611111
1839;33785933000;31931611111;32431611111
1841;33785937000;31972944444;32472944444
1842;33785940000;31972944444;32472944444
1843;33785941000;31972944444;32472944444
1844;33785943000;31972944444;32472944444
1845;33785944000;31972944444;32472944444
1846;33785945000;31972944444;32472944444
1847;33836141000;31972955555;32472955555
1900;33846431000;32181266666;32681266666
1902;34038223000;32181277777;32681277777
1903;34038230000;32181577777;32681577777
1904;34038231000;32181577777;32681577777
1905;34038232000;32181577777;32681577777
1906;34071655000;32222955555;32722955555
1907;34071658000;32222955555;32722955555
1908;34071659000;32222955555;32722955555
1909;34071660000;32222955555;32722955555
1910;34071661000;32222955555;32722955555
1911;34071662000;32222955555;32722955555
1912;34071663000;32222955555;32722955555
1913;34071774000;32222966666;32722966666
1914;34071779000;32223266666;32723266666
1915;34071781000;32223266666;32723266666
1916;34071782000;32223266666;32723266666
1917;34101300000;32264611111;32764611111
1970;34183233000;32431566666;32931566666
1977;34386404000;32472933333;32972933333
1985;34386426000;32514622222;33014622222
1986;34386428000;32514622222;33014622222
1987;34386429000;32514622222;33014622222
1988;34386430000;32514622222;33014622222
1989;34386431000;32514622222;33014622222
1990;34386502000;32514633333;33014633333
1994;34386518000;32556277777;33056277777
1995;34386519000;32556277777;33056277777
1996;34386520000;32556277777;33056277777
1997;34386521000;32556277777;33056277777
1998;34386538000;32556277777;33056277777
2000;34386541000;32556277777;33056277777
2001;34386632000;32556288888;33056288888
2005;34386637000;32597944444;33097944444
2006;34386649000;32597944444;33097944444
2007;34386650000;32597944444;33097944444
2008;34386651000;32597944444;33097944444
2009;34386652000;32597944444;33097944444
2010;34386653000;32597944444;33097944444
2011;34386654000;32597944444;33097944444
2012;34478227000;32597955555;33097955555
2057;34478233000;32764900000;33264900000
2058;34478235000;32764900000;33264900000
2059;34478236000;32764900000;33264900000
2060;34672699000;32806277777;33306277777
2061;34672703000;32806277777;33306277777
2062;34672704000;32806277777;33306277777
2063;34672705000;32806277777;33306277777
2064;34672706000;32806277777;33306277777
2065;34672707000;32806277777;33306277777
2066;34672708000;32806277777;33306277777
2067;34672829000;32806300000;33306300000
2068;34672834000;32806588888;33306588888
2069;34672836000;32806588888;33306588888
2070;34672837000;32806588888;33306588888
2071;34701583000;32847944444;33347944444
2128;34806277000;33056266666;33556266666
2133;34987247000;33056288888;33556288888
2140;34987260000;33097944444;33597944444
2142;34987263000;33097944444;33597944444
2143;34987264000;33097944444;33597944444
2146;34987275000;33098266666;33598266666
2148;34987290000;33139611111;33639611111
2150;34987292000;33139611111;33639611111
2152;34987293000;33139611111;33639611111
2153;34987294000;33139611111;33639611111
2154;34987295000;33139611111;33639611111
2155;34987353000;33139622222;33639622222
2159;34987358000;33181277777;33681277777
2160;34987360000;33181277777;33681277777
2161;34987361000;33181277777;33681277777
2162;34987362000;33181277777;33681277777
2163;34987377000;33181277777;33681277777
2164;34987378000;33181277777;33681277777
2165;34987379000;33181277777;33681277777
2166;35037451000;33181300000;33681300000
2213;35037466000;33348266666;33848266666
2214;35239535000;33389611111;33889611111
2217;35239539000;33389611111;33889611111
2218;35239541000;33389611111;33889611111
2219;35239542000;33389611111;33889611111
2220;35239544000;33389611111;33889611111
2221;35239874000;33389622222;33889622222
2222;35239879000;33389900000;33889900000
2223;35239881000;33389900000;33889900000
2224;35239882000;33389900000;33889900000
2225;35272956000;33431288888;33931288888
2226;35272960000;33431288888;33931288888
2227;35272961000;33431288888;33931288888
2228;35272962000;33431288888;33931288888
2229;35272963000;33431288888;33931288888
2230;35272964000;33431288888;33931288888
2231;35272965000;33431288888;33931288888
2232;35273076000;33431300000;33931300000
2233;35273082000;33431611111;33931611111
2234;35273083000;33431611111;33931611111
2235;35273084000;33431611111;33931611111
2236;35303453000;33472966666;33972966666
2287;35398621000;33639611111;34139611111
2294;35398627000;33681266666;34181266666
2295;35398629000;33681266666;34181266666
2296;35398630000;33681266666;34181266666
2297;35398630000;33681266666;34181266666
2298;35417716000;33681277777;34181277777
2299;35417723000;33681600000;34181600000
2300;35417724000;33681600000;34181600000
2301;35417725000;33681600000;34181600000
2302;35435970000;33722955555;34222955555
2303;35435973000;33722955555;34222955555
2304;35435974000;33722955555;34222955555
2305;35435975000;33722955555;34222955555
2306;35435976000;33722955555;34222955555
2307;35435977000;33722955555;34222955555
2309;35436107000;33722966666;34222966666
2310;35436112000;33723266666;34223266666
2311;35436114000;33723266666;34223266666
2312;35436115000;33723266666;34223266666
2313;35454789000;33764611111;34264611111
2314;35454798000;33764611111;34264611111
2315;35454799000;33764611111;34264611111
2316;35454800000;33764611111;34264611111
2317;35587590000;33764611111;34264611111
2318;35587592000;33764611111;34264611111
2319;35587596000;33764611111;34264611111
2320;35637978000;33764633333;34264633333
2372;35637984000;33972933333;34472933333
2373;35637985000;33972933333;34472933333
2374;35637986000;33972933333;34472933333
2375;35840093000;33972955555;34472955555
2377;35887929000;33973266666;34473266666
2379;35887999000;34014622222;34514622222
2387;35888010000;34014922222;34514922222
2390;35903064000;34056277777;34556277777
2443;35985104000;34223333333;34723333333
2454;36188245000;34264933333;34764933333
2463;36188341000;34306300000;34806300000
2466;36188346000;34306600000;34806600000
2467;36188355000;34347944444;34847944444
2470;36188356000;34347944444;34847944444
2471;36188357000;34347944444;34847944444
2472;36188369000;34347944444;34847944444
2473;36188371000;34347944444;34847944444
2475;36238455000;34348266666;34848266666
2530;36440284000;34556600000;35056600000
2532;36440288000;34556600000;35056600000
2533;36473740000;34597955555;35097955555
2534;36473744000;34597955555;35097955555
2535;36473745000;34597955555;35097955555
2536;36473746000;34597955555;35097955555
2537;36473747000;34597955555;35097955555
2538;36473748000;34597955555;35097955555
2539;36473749000;34597955555;35097955555
2540;36473870000;34597966666;35097966666
2541;36473875000;34598277777;35098277777
2542;36473876000;34598277777;35098277777
2543;36473877000;34598277777;35098277777
2544;36503419000;34639622222;35139622222
2601;36600998000;34847944444;35347944444
2609;36601083000;34848266666;35348266666
2610;36614672000;34889622222;35389622222
2611;36614675000;34889622222;35389622222
2613;36614676000;34889622222;35389622222
2614;36614677000;34889622222;35389622222
2615;36614678000;34889622222;35389622222
2616;36614679000;34889622222;35389622222
2617;36614782000;34889633333;35389633333
2618;36614787000;34889922222;35389922222
2619;36614788000;34889922222;35389922222
2620;36614789000;34889922222;35389922222
2621;36629734000;34931277777;35431277777
2622;36629738000;34931277777;35431277777
2623;36629739000;34931277777;35431277777
2624;36629740000;34931277777;35431277777
2625;36629741000;34931277777;35431277777
2627;36629742000;34931277777;35431277777
2628;36629859000;34931288888;35431288888
2629;36629865000;34931600000;35431600000
2630;36629866000;34931600000;35431600000
2631;36629867000;34931600000;35431600000
2632;36647550000;34972944444;35472944444
2634;36788819000;34972944444;35472944444
2636;36788821000;34972944444;35472944444
2637;36788835000;34972944444;35472944444
2638;36788837000;34972944444;35472944444
2639;36839224000;34972955555;35472955555
2685;36839231000;35139888888;35639888888
2686;36839232000;35139888888;35639888888
2687;37041428000;35181266666;35681266666
2690;37041431000;35181266666;35681266666
2691;37041433000;35181266666;35681266666
2694;37041554000;35181277777;35681277777
2695;37041559000;35181577777;35681577777
2696;37041560000;35181577777;35681577777
2697;37041561000;35181577777;35681577777
2698;37074850000;35222944444;35722944444
2699;37074853000;35222944444;35722944444
2700;37074854000;35222944444;35722944444
2701;37074855000;35222944444;35722944444
2702;37074856000;35222944444;35722944444
2703;37074857000;35222944444;35722944444
2704;37074858000;35222944444;35722944444
2705;37074969000;35222966666;35722966666
2706;37074974000;35223244444;35723244444
2707;37074976000;35223244444;35723244444
2708;37074977000;35223244444;35723244444
2709;37105291000;35264611111;35764611111
2760;37200524000;35431300000;35931300000
2766;37200531000;35472933333;35972933333
2767;37200532000;35472933333;35972933333
2768;37200533000;35472933333;35972933333
2769;37200534000;35472933333;35972933333
2770;37200535000;35472933333;35972933333
2771;37219598000;35472944444;35972944444
2772;37219604000;35473244444;35973244444
2773;37219605000;35473244444;35973244444
2774;37219606000;35473244444;35973244444
2775;37237849000;35514622222;36014622222
2776;37237852000;35514622222;36014622222
2777;37237860000;35514622222;36014622222
2778;37237862000;35514622222;36014622222
2779;37237863000;35514622222;36014622222
2780;37237864000;35514622222;36014622222
2781;37237864000;35514622222;36014622222
2782;37237976000;35514633333;36014633333
2783;37237982000;35514900000;36014900000
2784;37237983000;35514900000;36014900000
2785;37237984000;35514900000;36014900000
2786;37256733000;35556288888;36056288888
2787;37256736000;35556288888;36056288888
2788;37256737000;35556288888;36056288888
2789;37256738000;35556288888;36056288888
2790;37389341000;35556288888;36056288888
2792;37389354000;35556288888;36056288888
2793;37439710000;35556300000;36056300000
2842;37439716000;35764600000;36264600000
2845;37450166000;35764600000;36264600000
2847;37450169000;35764600000;36264600000
2848;37641781000;35764611111;36264611111
2850;37641788000;35764888888;36264888888
2851;37641789000;35764888888;36264888888
2852;37675229000;35806288888;36306288888
2853;37675232000;35806288888;36306288888
2854;37675233000;35806288888;36306288888
2855;37675234000;35806288888;36306288888
2856;37675235000;35806288888;36306288888
2857;37675236000;35806288888;36306288888
2858;37675237000;35806288888;36306288888
2859;37675359000;35806300000;36306300000
2860;37675364000;35806600000;36306600000
2861;37675365000;35806600000;36306600000
2862;37675366000;35806600000;36306600000
2863;37705484000;35847955555;36347955555
2916;37796770000;36014888888;36514888888
2922;37815168000;36056266666;36556266666
2923;37815172000;36056266666;36556266666
2924;37815173000;36056266666;36556266666
2925;37815372000;36056288888;36556288888
2926;37815388000;36056577777;36556577777
2927;37815389000;36056577777;36556577777
2928;37815390000;36056577777;36556577777
2930;37832675000;36097955555;36597955555
2933;37832678000;36097955555;36597955555
2934;37832679000;36097955555;36597955555
2935;37832680000;36097955555;36597955555
2936;37832800000;36097966666;36597966666
2937;37832816000;36098233333;36598233333
2938;37832817000;36098233333;36598233333
2939;37832818000;36098233333;36598233333
2940;37848485000;36139611111;36639611111
2941;37848489000;36139611111;36639611111
2942;37848490000;36139611111;36639611111
2943;37848491000;36139611111;36639611111
2944;37848492000;36139611111;36639611111
2945;37848493000;36139611111;36639611111
2946;37848494000;36139611111;36639611111
2947;37848637000;36139622222;36639622222
2948;37990022000;36139877777;36639877777
2949;37990024000;36139877777;36639877777
2950;37990026000;36139877777;36639877777
2951;38081944000;36181277777;36681277777
3002;38242027000;36347944444;36847944444
3003;38242034000;36348233333;36848233333
3004;38242035000;36348233333;36848233333
3005;38242036000;36348233333;36848233333
3006;38275609000;36389611111;36889611111
3007;38275613000;36389611111;36889611111
3008;38275614000;36389611111;36889611111
3009;38275615000;36389611111;36889611111
3012;38276191000;36389611111;36889611111
3013;38276328000;36389633333;36889633333
3014;38276334000;36389866666;36889866666
3015;38276335000;36389866666;36889866666
3016;38276336000;36389866666;36889866666
3017;38305274000;36431277777;36931277777
3076;38410597000;36639611111;37139611111
3083;38422750000;36681266666;37181266666
3085;38422857000;36681266666;37181266666
3086;38422861000;36681266666;37181266666
3087;38422873000;36681266666;37181266666
3088;38422874000;36681266666;37181266666
3089;38422874000;36681266666;37181266666
3090;38422988000;36681288888;37181288888
3091;38422993000;36681566666;37181566666
3092;38422994000;36681566666;37181566666
3093;38422995000;36681566666;37181566666
3094;38436469000;36722955555;37222955555
3095;38436472000;36722955555;37222955555
3096;38436473000;36722955555;37222955555
3097;38436474000;36722955555;37222955555
3098;38436475000;36722955555;37222955555
3099;38436476000;36722955555;37222955555
3100;38436477000;36722955555;37222955555
3101;38436599000;36722966666;37222966666
3102;38436604000;36723244444;37223244444
3103;38436605000;36723244444;37223244444
3104;38436606000;36723244444;37223244444
3105;38453083000;36764611111;37264611111
3106;38590639000;36764611111;37264611111
3107;38590652000;36764611111;37264611111
3108;38590661000;36764611111;37264611111
3109;38590676000;36764611111;37264611111
3110;38590678000;36764611111;37264611111
3111;38590679000;36764611111;37264611111
3112;38641073000;36764622222;37264622222
3158;38641080000;36931600000;37431600000
3159;38641081000;36931600000;37431600000
3160;38843121000;36972933333;37472933333
3163;38890978000;36972933333;37472933333
3165;38890980000;36972933333;37472933333
3166;38890981000;36972933333;37472933333
3167;38891122000;36972944444;37472944444
3175;38891128000;37014633333;37514633333
3176;38891130000;37014633333;37514633333
3177;38891132000;37014633333;37514633333
3179;38891143000;37015011111;37515011111
3182;38906738000;37056288888;37556288888
3236;38998391000;37223244444;37723244444
3239;39016400000;37264600000;37764600000
3240;39016403000;37264600000;37764600000
3241;39016405000;37264600000;37764600000
3242;39016406000;37264600000;37764600000
3243;39016406000;37264600000;37764600000
3244;39016527000;37264611111;37764611111
3245;39016532000;37264900000;37764900000
3246;39016534000;37264900000;37764900000
3247;39016535000;37264900000;37764900000
3248;39033555000;37306288888;37806288888
3249;39033559000;37306288888;37806288888
3250;39033560000;37306288888;37806288888
3251;39033561000;37306288888;37806288888
3252;39033562000;37306288888;37806288888
3253;39033563000;37306288888;37806288888
3254;39033564000;37306288888;37806288888
3255;39033684000;37306300000;37806300000
3256;39033689000;37306588888;37806588888
3257;39033690000;37306588888;37806588888
3258;39033692000;37306588888;37806588888
3259;39051576000;37347977777;37847977777
3260;39051578000;37347977777;37847977777
3262;39051743000;37347977777;37847977777
3263;39191266000;37347977777;37847977777
3264;39191269000;37347977777;37847977777
3265;39191275000;37347977777;37847977777
3266;39241646000;37347988888;37847988888
3316;39241652000;37556266666;38056266666
3317;39241653000;37556266666;38056266666
3318;39241654000;37556266666;38056266666
3319;39241655000;37556266666;38056266666
3320;39241656000;37556266666;38056266666
3321;39443745000;37556288888;38056288888
3324;39443751000;37556588888;38056588888
3325;39477113000;37597955555;38097955555
3326;39477117000;37597955555;38097955555
3327;39477117000;37597955555;38097955555
3328;39477118000;37597955555;38097955555
3329;39477120000;37597955555;38097955555
3330;39477121000;37597955555;38097955555
3331;39477122000;37597955555;38097955555
3332;39477223000;37597966666;38097966666
3333;39477228000;37598255555;38098255555
3334;39477229000;37598255555;38098255555
3335;39477230000;37598255555;38098255555
3336;39506743000;37639611111;38139611111
3389;39588660000;37806600000;38306600000
3392;39603700000;37847955555;38347955555
3393;39603703000;37847955555;38347955555
3394;39603704000;37847955555;38347955555
3395;39603706000;37847955555;38347955555
3396;39603707000;37847955555;38347955555
3397;39603707000;37847955555;38347955555
3398;39603810000;37847966666;38347966666
3399;39603816000;37848266666;38348266666
3400;39603817000;37848266666;38348266666
3401;39603818000;37848266666;38348266666
3402;39617737000;37889622222;38389622222
3403;39617740000;37889622222;38389622222
3405;39617749000;37889622222;38389622222
3406;39617750000;37889622222;38389622222
3407;39617751000;37889622222;38389622222
3408;39617752000;37889622222;38389622222
3409;39617860000;37889633333;38389633333
3410;39617865000;37889900000;38389900000
3411;39617867000;37889900000;38389900000
3412;39617868000;37889900000;38389900000
3416;39632742000;37931277777;38431277777
3418;39632745000;37931277777;38431277777
3419;39632746000;37931277777;38431277777
3420;39632823000;37931300000;38431300000
3421;39632828000;37931588888;38431588888
3422;39791893000;37931588888;38431588888
3423;39791899000;37931588888;38431588888
3424;39842222000;37972966666;38472966666
3474;40006572000;38139588888;38639588888
3477;40006640000;38139888888;38639888888
3478;40006652000;38139888888;38639888888
3479;40043492000;38181255555;38681255555
3480;40043495000;38181255555;38681255555
3481;40043497000;38181255555;38681255555
3482;40043505000;38181255555;38681255555
3483;40043506000;38181255555;38681255555
3485;40043882000;38181255555;38681255555
3486;40043999000;38181266666;38681266666
3487;40044005000;38181577777;38681577777
3489;40044006000;38181577777;38681577777
3490;40077739000;38222944444;38722944444
3491;40077743000;38222944444;38722944444
3492;40077744000;38222944444;38722944444
3493;40077745000;38222944444;38722944444
3494;40077746000;38222944444;38722944444
3495;40077747000;38222944444;38722944444
3496;40077748000;38222944444;38722944444
3497;40077872000;38222966666;38722966666
3498;40077878000;38223300000;38723300000
3499;40077879000;38223300000;38723300000
3500;40077880000;38223300000;38723300000
3501;40108124000;38264600000;38764600000
3547;40203228000;38431255555;38931255555
3556;40222307000;38472922222;38972922222
3557;40222310000;38472922222;38972922222
3558;40222311000;38472922222;38972922222
3560;40222312000;38472922222;38972922222
3561;40222313000;38472922222;38972922222
3562;40222314000;38472922222;38972922222
3563;40222436000;38472933333;38972933333
3564;40222441000;38473244444;38973244444
3565;40222442000;38473244444;38973244444
3566;40222443000;38473244444;38973244444
3567;40240562000;38514611111;39014611111
3568;40240566000;38514611111;39014611111
3569;40240567000;38514611111;39014611111
3570;40240568000;38514611111;39014611111
3572;40240569000;38514611111;39014611111
3573;40240570000;38514611111;39014611111
3574;40240680000;38514622222;39014622222
3575;40240685000;38514900000;39014900000
3576;40240686000;38514900000;39014900000
3577;40240687000;38514900000;39014900000
3578;40259610000;38556266666;39056266666
3579;40259613000;38556266666;39056266666
3580;40392538000;38556266666;39056266666
3581;40392540000;38556266666;39056266666
3582;40392595000;38556266666;39056266666
3583;40392598000;38556266666;39056266666
3584;40392600000;38556266666;39056266666
3585;40442967000;38556277777;39056277777
3632;40442973000;38723277777;39223277777
3636;40645458000;38764600000;39264600000
3637;40645461000;38764600000;39264600000
3638;40645462000;38764600000;39264600000
3639;40645463000;38764600000;39264600000
3640;40645575000;38764611111;39264611111
3641;40645580000;38764900000;39264900000
3642;40645581000;38764900000;39264900000
3643;40645582000;38764900000;39264900000
3644;40678928000;38806277777;39306277777
3645;40678932000;38806277777;39306277777
3646;40678933000;38806277777;39306277777
3647;40678934000;38806277777;39306277777
3649;40678935000;38806277777;39306277777
3650;40678936000;38806277777;39306277777
3651;40679027000;38806288888;39306288888
3652;40679033000;38806588888;39306588888
3653;40679034000;38806588888;39306588888
3654;40679035000;38806588888;39306588888
3657;40709061000;38847933333;39347933333
3707;40800591000;39014877777;39514877777
3715;40818573000;39056266666;39556266666
3716;40818576000;39056266666;39556266666
3717;40818697000;39056277777;39556277777
3718;40818702000;39056588888;39556588888
3719;40818704000;39056588888;39556588888
3720;40818705000;39056588888;39556588888
3721;40835099000;39097944444;39597944444
3722;40835102000;39097944444;39597944444
3723;40835103000;39097944444;39597944444
3724;40835104000;39097944444;39597944444
3725;40835105000;39097944444;39597944444
3726;40835106000;39097944444;39597944444
3727;40835107000;39097944444;39597944444
3728;40835227000;39097955555;39597955555
3729;40835232000;39098233333;39598233333
3730;40835234000;39098233333;39598233333
3731;40835235000;39098233333;39598233333
3732;40853184000;39139600000;39639600000
3733;40853187000;39139600000;39639600000
3734;40853188000;39139600000;39639600000
3735;40853189000;39139600000;39639600000
3736;40853190000;39139600000;39639600000
3737;40853191000;39139600000;39639600000
3738;40993259000;39139600000;39639600000
3739;41043666000;39139622222;39639622222
3791;41043672000;39347922222;39847922222
3792;41043673000;39347922222;39847922222
3793;41043674000;39347922222;39847922222
3794;41245764000;39347944444;39847944444
3797;41245770000;39348222222;39848222222
3798;41279172000;39389644444;39889644444
3799;41279176000;39389644444;39889644444
3800;41279184000;39389644444;39889644444
3801;41279185000;39389644444;39889644444
3802;41279186000;39389644444;39889644444
3803;41279187000;39389644444;39889644444
3804;41279188000;39389644444;39889644444
3805;41279311000;39389655555;39889655555
3806;41279325000;39389900000;39889900000
3808;41279326000;39389900000;39889900000
3809;41309396000;39431277777;39931277777
3865;41419535000;39639588888;40139588888
3874;41419601000;39639888888;40139888888
3875;41443068000;39681266666;40181266666
3876;41443072000;39681266666;40181266666
3877;41443073000;39681266666;40181266666
3878;41443074000;39681266666;40181266666
3879;41443075000;39681266666;40181266666
3880;41443076000;39681266666;40181266666
3881;41443077000;39681266666;40181266666
3882;41443199000;39681277777;40181277777
3883;41443205000;39681555555;40181555555
3884;41443206000;39681555555;40181555555
3885;41443207000;39681555555;40181555555
3886;41457790000;39722944444;40222944444
3887;41457794000;39722944444;40222944444
3888;41457795000;39722944444;40222944444
3889;41457796000;39722944444;40222944444
3890;41457797000;39722944444;40222944444
3891;41457798000;39722944444;40222944444
3892;41457799000;39722944444;40222944444
3893;41457917000;39722955555;40222955555
3894;41457922000;39723222222;40223222222
3895;41457924000;39723222222;40223222222
3896;41593907000;39723222222;40223222222
3897;41644225000;39764600000;40264600000
3950;41808613000;39931577777;40431577777
3951;41808617000;39931577777;40431577777
3952;41845539000;39972922222;40472922222
3953;41845543000;39972922222;40472922222
3954;41845544000;39972922222;40472922222
3955;41845545000;39972922222;40472922222
3956;41845546000;39972922222;40472922222
3957;41845547000;39972922222;40472922222
3958;41845548000;39972922222;40472922222
3959;41845672000;39972933333;40472933333
3960;41845677000;39973233333;40473233333
3961;41845679000;39973233333;40473233333
3962;41845680000;39973233333;40473233333
3963;41879798000;40014611111;40514611111
3964;41879801000;40014611111;40514611111
3965;41879803000;40014611111;40514611111
3966;41879804000;40014611111;40514611111
3967;41879804000;40014611111;40514611111
3968;41879805000;40014611111;40514611111
3969;41879807000;40014611111;40514611111
3970;41879931000;40014622222;40514622222
3971;41879937000;40014900000;40514900000
3972;41879938000;40014900000;40514900000
3977;41910217000;40056266666;40556266666
4023;42005417000;40222933333;40722933333
4029;42023837000;40264611111;40764611111
4030;42023840000;40264611111;40764611111
4031;42023842000;40264611111;40764611111
4032;42023843000;40264611111;40764611111
4033;42023844000;40264611111;40764611111
4034;42023844000;40264611111;40764611111
4035;42023845000;40264611111;40764611111
4036;42023956000;40264622222;40764622222
4037;42023962000;40264911111;40764911111
4038;42023963000;40264911111;40764911111
4039;42023964000;40264911111;40764911111
4040;42041695000;40306277777;40806277777
4041;42041699000;40306277777;40806277777
4042;42041699000;40306277777;40806277777
4043;42041701000;40306277777;40806277777
4044;42041702000;40306277777;40806277777
4045;42041703000;40306277777;40806277777
4046;42041704000;40306277777;40806277777
4047;42041823000;40306288888;40806288888
4048;42041828000;40306577777;40806577777
4049;42041830000;40306577777;40806577777
4050;42041831000;40306577777;40806577777
4051;42060842000;40347933333;40847933333
4052;42194571000;40347933333;40847933333
4053;42194574000;40347933333;40847933333
4055;42194649000;40347933333;40847933333
4056;42194652000;40347933333;40847933333
4057;42194653000;40347933333;40847933333
4058;42244981000;40347944444;40847944444
4108;42244987000;40556255555;41056255555
4109;42244988000;40556255555;41056255555
4110;42244989000;40556255555;41056255555
4111;42244991000;40556255555;41056255555
4112;42244992000;40556255555;41056255555
4113;42447121000;40556277777;41056277777
4114;42447127000;40556577777;41056577777
4115;42447129000;40556577777;41056577777
4116;42447130000;40556577777;41056577777
4117;42480484000;40597944444;41097944444
4118;42480487000;40597944444;41097944444
4119;42480496000;40597944444;41097944444
4120;42480497000;40597944444;41097944444
4121;42480498000;40597944444;41097944444
4122;42480498000;40597944444;41097944444
4123;42480500000;40597944444;41097944444
4124;42480615000;40597955555;41097955555
4125;42480620000;40598288888;41098288888
4126;42480621000;40598288888;41098288888
4127;42480622000;40598288888;41098288888
4128;42510755000;40639622222;41139622222
4178;42602384000;40806255555;41306255555
4185;42620423000;40847933333;41347933333
4186;42620427000;40847933333;41347933333
4187;42620428000;40847933333;41347933333
4188;42620429000;40847933333;41347933333
4189;42620430000;40847933333;41347933333
4190;42620524000;40847955555;41347955555
4191;42620529000;40848244444;41348244444
4192;42620531000;40848244444;41348244444
4193;42620532000;40848244444;41348244444
4195;42637250000;40889611111;41389611111
4196;42637253000;40889611111;41389611111
4199;42637255000;40889611111;41389611111
4200;42637256000;40889611111;41389611111
4201;42637343000;40889622222;41389622222
4202;42637348000;40889877777;41389877777
4203;42637349000;40889877777;41389877777
4204;42637350000;40889877777;41389877777
4205;42655160000;40931266666;41431266666
4206;42655163000;40931266666;41431266666
4207;42655164000;40931266666;41431266666
4208;42655165000;40931266666;41431266666
4209;42655166000;40931266666;41431266666
4210;42795155000;40931266666;41431266666
4211;42795178000;40931266666;41431266666
4212;42845558000;40931288888;41431288888
4265;42845564000;41139600000;41639600000
4266;42845566000;41139600000;41639600000
4267;43047678000;41139611111;41639611111
4268;43047684000;41139888888;41639888888
4269;43047686000;41139888888;41639888888
4270;43047687000;41139888888;41639888888
4271;43081055000;41181255555;41681255555
4272;43081059000;41181255555;41681255555
4273;43081060000;41181255555;41681255555
4274;43081061000;41181255555;41681255555
4275;43081062000;41181255555;41681255555
4277;43081063000;41181255555;41681255555
4278;43081185000;41181277777;41681277777
4279;43081190000;41181577777;41681577777
4280;43081191000;41181577777;41681577777
4281;43081192000;41181577777;41681577777
4282;43110710000;41222966666;41722966666
4334;43192545000;41389866666;41889866666
4342;43207610000;41431266666;41931266666
4343;43207613000;41431266666;41931266666
4344;43207736000;41431277777;41931277777
4345;43207741000;41431588888;41931588888
4347;43207743000;41431588888;41931588888
4348;43221605000;41472922222;41972922222
4353;43221609000;41472922222;41972922222
4354;43221610000;41472922222;41972922222
4355;43221729000;41472944444;41972944444
4356;43221734000;41473255555;41973255555
4357;43221736000;41473255555;41973255555
4358;43221737000;41473255555;41973255555
4359;43236594000;41514622222;42014622222
4360;43236596000;41514622222;42014622222
4361;43236597000;41514622222;42014622222
4362;43236598000;41514622222;42014622222
4363;43236599000;41514622222;42014622222
4364;43236600000;41514622222;42014622222
4365;43236601000;41514622222;42014622222
4366;43236712000;41514644444;42014644444
4367;43236717000;41514922222;42014922222
4368;43236718000;41514922222;42014922222
4369;43396105000;41514922222;42014922222
4370;43446449000;41556288888;42056288888
4423;43610802000;41723255555;42223255555
4424;43610806000;41723255555;42223255555
4425;43647743000;41764600000;42264600000
4426;43647746000;41764600000;42264600000
4427;43647747000;41764600000;42264600000
4428;43647748000;41764600000;42264600000
4429;43647749000;41764600000;42264600000
4430;43647750000;41764600000;42264600000
4431;43647751000;41764600000;42264600000
4432;43647845000;41764611111;42264611111
4433;43647850000;41764900000;42264900000
4434;43647851000;41764900000;42264900000
4436;43682423000;41806277777;42306277777
4437;43682427000;41806277777;42306277777
4438;43682428000;41806277777;42306277777
4439;43682429000;41806277777;42306277777
4440;43682430000;41806277777;42306277777
4441;43682431000;41806277777;42306277777
4444;43682440000;41806600000;42306600000
4445;43682442000;41806600000;42306600000
4446;43682453000;41806600000;42306600000
4447;43715578000;41847977777;42347977777
4497;43806211000;42014600000;42514600000
4504;43823942000;42056266666;42556266666
4505;43823946000;42056266666;42556266666
4506;43823947000;42056266666;42556266666
4507;43823948000;42056266666;42556266666
4508;43823949000;42056266666;42556266666
4509;43824078000;42056288888;42556288888
4510;43824084000;42056566666;42556566666
4511;43824085000;42056566666;42556566666
4512;43824086000;42056566666;42556566666
4513;43840207000;42097944444;42597944444
4514;43840211000;42097944444;42597944444
4515;43840212000;42097944444;42597944444
4516;43840213000;42097944444;42597944444
4517;43840214000;42097944444;42597944444
4518;43840215000;42097944444;42597944444
4519;43840215000;42097944444;42597944444
4520;43840305000;42097955555;42597955555
4521;43840310000;42098222222;42598222222
4522;43840312000;42098222222;42598222222
4523;43840313000;42098222222;42598222222
4524;43858041000;42139600000;42639600000
4525;43858051000;42139600000;42639600000
4526;43858052000;42139600000;42639600000
4527;43997207000;42139600000;42639600000
4529;43997227000;42139600000;42639600000
4530;43997230000;42139600000;42639600000
4531;44047579000;42139622222;42639622222
4581;44047595000;42347933333;42847933333
4582;44047596000;42347933333;42847933333
4583;44047597000;42347933333;42847933333
4584;44047598000;42347933333;42847933333
4585;44047599000;42347933333;42847933333
4586;44250145000;42347944444;42847944444
4587;44250152000;42348222222;42848222222
4588;44250153000;42348222222;42848222222
4589;44250154000;42348222222;42848222222
4590;44283467000;42389600000;42889600000
4591;44283471000;42389600000;42889600000
4592;44283472000;42389600000;42889600000
4594;44283846000;42389600000;42889600000
4596;44283848000;42389600000;42889600000
4597;44283964000;42389611111;42889611111
4598;44283970000;42389855555;42889855555
4599;44283971000;42389855555;42889855555
4600;44283972000;42389855555;42889855555
4601;44313720000;42431277777;42931277777
4654;44405324000;42598233333;43098233333
4661;44423348000;42639600000;43139600000
4662;44423352000;42639600000;43139600000
4663;44423463000;42639611111;43139611111
4664;44423468000;42639900000;43139900000
4665;44423469000;42639900000;43139900000
4666;44423470000;42639900000;43139900000
4667;44440477000;42681255555;43181255555
4668;44440481000;42681255555;43181255555
4669;44440482000;42681255555;43181255555
4670;44440483000;42681255555;43181255555
4671;44440484000;42681255555;43181255555
4672;44440485000;42681255555;43181255555
4673;44440486000;42681255555;43181255555
4674;44440606000;42681277777;43181277777
4676;44440627000;42681555555;43181555555
4677;44440628000;42681555555;43181555555
4678;44458524000;42722944444;43222944444
4679;44458527000;42722944444;43222944444
4680;44458528000;42722944444;43222944444
4681;44458529000;42722944444;43222944444
4683;44458530000;42722944444;43222944444
4684;44458531000;42722944444;43222944444
4685;44648456000;42722955555;43222955555
4738;44648463000;42931277777;43431277777
4739;44648464000;42931277777;43431277777
4740;44850590000;42931288888;43431288888
4742;44850597000;42931577777;43431577777
4743;44850598000;42931577777;43431577777
4744;44883949000;42972933333;43472933333
4745;44883953000;42972933333;43472933333
4746;44883954000;42972933333;43472933333
4747;44883955000;42972933333;43472933333
4748;44883956000;42972933333;43472933333
4749;44883957000;42972933333;43472933333
4750;44883958000;42972933333;43472933333
4751;44884088000;42972955555;43472955555
4752;44884094000;42973255555;43473255555
4754;44884095000;42973255555;43473255555
4755;44913612000;43014611111;43514611111
4811;45017366000;43222933333;43722933333
4818;45017432000;43223255555;43723255555
4819;45017444000;43223255555;43723255555
4820;45017445000;43223255555;43723255555
4821;45029770000;43264600000;43764600000
4822;45029774000;43264600000;43764600000
4823;45029779000;43264600000;43764600000
4824;45029780000;43264600000;43764600000
4827;45029782000;43264600000;43764600000
4828;45029893000;43264611111;43764611111
4829;45029898000;43264933333;43764933333
4830;45029899000;43264933333;43764933333
4831;45029900000;43264933333;43764933333
4832;45043694000;43306277777;43806277777
4833;45043698000;43306277777;43806277777
4834;45043699000;43306277777;43806277777
4835;45043700000;43306277777;43806277777
4836;45043701000;43306277777;43806277777
4837;45043702000;43306277777;43806277777
4839;45043804000;43306288888;43806288888
4840;45043809000;43306588888;43806588888
4841;45043811000;43306588888;43806588888
4842;45043812000;43306588888;43806588888
4843;45249104000;43347944444;43847944444
4899;45451222000;43556255555;44056255555
4900;45451226000;43556255555;44056255555
4901;45451227000;43556255555;44056255555
4902;45451228000;43556255555;44056255555
4903;45451229000;43556255555;44056255555
4904;45451230000;43556255555;44056255555
4905;45451331000;43556277777;44056277777
4906;45451337000;43556588888;44056588888
4907;45451338000;43556588888;44056588888
4908;45451339000;43556588888;44056588888
4909;45484644000;43597944444;44097944444
4910;45484647000;43597944444;44097944444
4911;45484648000;43597944444;44097944444
4913;45484826000;43597944444;44097944444
4914;45484829000;43597944444;44097944444
4915;45484841000;43597944444;44097944444
4916;45484953000;43597955555;44097955555
4917;45484958000;43598266666;44098266666
4918;45484960000;43598266666;44098266666
4919;45484961000;43598266666;44098266666
4920;45514885000;43639600000;44139600000
4970;45606636000;43806266666;44306266666
4978;45624689000;43847933333;44347933333
4979;45624692000;43847933333;44347933333
4980;45624693000;43847933333;44347933333
4981;45624694000;43847933333;44347933333
4983;45625271000;43848266666;44348266666
4984;45625274000;43848266666;44348266666
4985;45625275000;43848266666;44348266666
4986;45648678000;43889600000;44389600000
4987;45648681000;43889600000;44389600000
4988;45648682000;43889600000;44389600000
4989;45648683000;43889600000;44389600000
4990;45648684000;43889600000;44389600000
4991;45648685000;43889600000;44389600000
4992;45648686000;43889600000;44389600000
4993;45648780000;43889611111;44389611111
4994;45648794000;43889900000;44389900000
4995;45648795000;43889900000;44389900000
4996;45648796000;43889900000;44389900000
4997;45665297000;43931277777;44431277777
4998;45665301000;43931277777;44431277777
4999;45665302000;43931277777;44431277777
5000;45665303000;43931277777;44431277777
5001;45799730000;43931277777;44431277777
5002;45799733000;43931277777;44431277777
5003;45799734000;43931277777;44431277777
5004;45850108000;43931288888;44431288888
5057;45850115000;44139600000;44639600000
5058;45850116000;44139600000;44639600000
5059;46052249000;44139622222;44639622222
5060;46052255000;44139888888;44639888888
5061;46052256000;44139888888;44639888888
5062;46052257000;44139888888;44639888888
5063;46085608000;44181277777;44681277777
5064;46085611000;44181277777;44681277777
5065;46085612000;44181277777;44681277777
5066;46085613000;44181277777;44681277777
5067;46085614000;44181277777;44681277777
5068;46085615000;44181277777;44681277777
5069;46085616000;44181277777;44681277777
5070;46085727000;44181288888;44681288888
5071;46085732000;44181588888;44681588888
5072;46085733000;44181588888;44681588888
5076;46115781000;44222944444;44722944444
5128;46207591000;44389877777;44889877777
5135;46225641000;44431266666;44931266666
5136;46225755000;44431277777;44931277777
5137;46225763000;44431577777;44931577777
5138;46225765000;44431577777;44931577777
5139;46225766000;44431577777;44931577777
5140;46242821000;44472933333;44972933333
5141;46242824000;44472933333;44972933333
5142;46242825000;44472933333;44972933333
5143;46242826000;44472933333;44972933333
5144;46242827000;44472933333;44972933333
5145;46242828000;44472933333;44972933333
5146;46242829000;44472933333;44972933333
5149;46242995000;44473255555;44973255555
5150;46242998000;44473255555;44973255555
5151;46265883000;44514611111;45014611111
5152;46265886000;44514611111;45014611111
5153;46265887000;44514611111;45014611111
5154;46265888000;44514611111;45014611111
5155;46265898000;44514611111;45014611111
5156;46265899000;44514611111;45014611111
5157;46265900000;44514611111;45014611111
5158;46266014000;44514622222;45014622222
5159;46400882000;44514911111;45014911111
5160;46400896000;44514911111;45014911111
5161;46400897000;44514911111;45014911111
5162;46492740000;44556277777;45056277777
5214;46653241000;44723366666;45223366666
5215;46653244000;44723366666;45223366666
5217;46689491000;44764611111;45264611111
5219;46689494000;44764611111;45264611111
5220;46689496000;44764611111;45264611111
5221;46689496000;44764611111;45264611111
5222;46689497000;44764611111;45264611111
5223;46689498000;44764611111;45264611111
5224;46689579000;44764622222;45264622222
5225;46689584000;44764900000;45264900000
5226;46689585000;44764900000;45264900000
5227;46689586000;44764900000;45264900000
5228;46718921000;44806277777;45306277777
5285;46822987000;45014600000;45514600000
5293;46823059000;45014888888;45514888888
5294;46835522000;45056266666;45556266666
5295;46835525000;45056266666;45556266666
5296;46835526000;45056266666;45556266666
5297;46835527000;45056266666;45556266666
5298;46835528000;45056266666;45556266666
5299;46835529000;45056266666;45556266666
5300;46835530000;45056266666;45556266666
5301;46835652000;45056277777;45556277777
5302;46835657000;45056600000;45556600000
5303;46835658000;45056600000;45556600000
5304;46835659000;45056600000;45556600000
5305;46848753000;45097944444;45597944444
5306;46848756000;45097944444;45597944444
5307;46848757000;45097944444;45597944444
5308;46848758000;45097944444;45597944444
5309;46848759000;45097944444;45597944444
5310;46848760000;45097944444;45597944444
5311;46848764000;45097944444;45597944444
5312;46848882000;45097955555;45597955555
5313;46848888000;45098266666;45598266666
5314;46848889000;45098266666;45598266666
5315;47002059000;45098266666;45598266666
5316;47052380000;45139611111;45639611111
5372;47254519000;45347933333;45847933333
5373;47254523000;45347933333;45847933333
5374;47254524000;45347933333;45847933333
5375;47254525000;45347933333;45847933333
5376;47254526000;45347933333;45847933333
5377;47254527000;45347933333;45847933333
5378;47254620000;45347944444;45847944444
5379;47254625000;45348244444;45848244444
5380;47254627000;45348244444;45848244444
5381;47254628000;45348244444;45848244444
5382;47287916000;45389600000;45889600000
5383;47287920000;45389600000;45889600000
5384;47287921000;45389600000;45889600000
5385;47287922000;45389600000;45889600000
5386;47287923000;45389600000;45889600000
5387;47287924000;45389600000;45889600000
5388;47287925000;45389600000;45889600000
5389;47288040000;45389611111;45889611111
5390;47288050000;45389877777;45889877777
5391;47288051000;45389877777;45889877777
5392;47288052000;45389877777;45889877777
5393;47318210000;45431288888;45931288888
5443;47409816000;45597933333;46097933333
5450;47427835000;45639600000;46139600000
5451;47427839000;45639600000;46139600000
5453;47428150000;45639600000;46139600000
5454;47428153000;45639600000;46139600000
5455;47428276000;45639611111;46139611111
5456;47428282000;45639911111;46139911111
5457;47428283000;45639911111;46139911111
5458;47428284000;45639911111;46139911111
5459;47444413000;45681266666;46181266666
5460;47444416000;45681266666;46181266666
5461;47444417000;45681266666;46181266666
5462;47444418000;45681266666;46181266666
5463;47444419000;45681266666;46181266666
5464;47444420000;45681266666;46181266666
5465;47444421000;45681266666;46181266666
5467;47444474000;45681566666;46181566666
5468;47444477000;45681566666;46181566666
5469;47444478000;45681566666;46181566666
5470;47469487000;45722977777;46222977777
5471;47469490000;45722977777;46222977777
5472;47469491000;45722977777;46222977777
5473;47469493000;45722977777;46222977777
5474;47603104000;45722977777;46222977777
5475;47603107000;45722977777;46222977777
5476;47603112000;45722977777;46222977777
5477;47653469000;45722988888;46222988888
5481;47653475000;45764611111;46264611111
5482;47653476000;45764611111;46264611111
5483;47653477000;45764611111;46264611111
5484;47653478000;45764611111;46264611111
5485;47653479000;45764611111;46264611111
5487;47695230000;45764611111;46264611111
5488;47695376000;45764622222;46264622222
5489;47695381000;45764900000;46264900000
5490;47695382000;45764900000;46264900000
5491;47695383000;457649