seqnum;now;rtptime;deadline
6;8384567000;8025600000;8525600000
30;8548585000;8108933333;8608933333
75;8689257000;8275600000;8775600000
76;8689466000;8275611111;8775611111
77;8689473000;8275944444;8775944444
78;8689478000;8275944444;8775944444
79;8689479000;8275944444;8775944444
80;8840148000;8317266666;8817266666
141;9074854000;8525600000;9025600000
238;9311071000;8900566666;9400566666
286;9466405000;9067544444;9567544444
335;9582602000;9275600000;9775600000
369;9721180000;9400588888;9900588888
401;9797427000;9525622222;10025622222
425;9836904000;9608922222;10108922222
435;9862160000;9650588888;10150588888
447;9878415000;9692255555;10192255555
448;9878426000;9692255555;10192255555
449;9878428000;9692255555;10192255555
450;9878576000;9692300000;10192300000
451;9878582000;9692588888;10192588888
452;9878585000;9692588888;10192588888
453;9878586000;9692588888;10192588888
454;10060104000;9733955555;10233955555
494;10143085000;9858966666;10358966666
518;10143100000;9942622222;10442622222
519;10143102000;9942622222;10442622222
520;10296162000;9983922222;10483922222
555;10438656000;10108922222;10608922222
593;10523825000;10233966666;10733966666
624;10523833000;10358922222;10858922222
625;10523835000;10358922222;10858922222
626;10685971000;10358977777;10858977777
656;10685977000;10483955555;10983955555
659;10774025000;10484000000;10984000000
690;10774032000;10608922222;11108922222
691;10774033000;10608922222;11108922222
692;10925625000;10608966666;11108966666
727;10932869000;10734288888;11234288888
728;10932881000;10734288888;11234288888
729;11105669000;10775588888;11275588888
771;11232608000;10900944444;11400944444
812;11345694000;11067255555;11567255555
841;11503745000;11192255555;11692255555
878;11556177000;11317255555;11817255555
889;11688227000;11358922222;11858922222
925;11765033000;11484333333;11984333333
943;11817976000;11567266666;12067266666
968;11953761000;11650966666;12150966666
1002;12023909000;11775944444;12275944444
1019;12227684000;11858955555;12358955555
1062;12394360000;12025611111;12525611111
1114;12493830000;12233922222;12733922222
1144;12630465000;12317644444;12817644444
1176;12703842000;12442300000;12942300000
1196;12703848000;12525622222;13025622222
1197;12703849000;12525622222;13025622222
1198;12746020000;12525666666;13025666666
1206;12746026000;12567288888;13067288888
1209;12897020000;12567344444;13067344444
1243;12897026000;12692600000;13192600000
1244;12897027000;12692600000;13192600000
1245;12897028000;12692600000;13192600000
1246;12996709000;12733922222;13233922222
1274;13132135000;12817255555;13317255555
1310;13184591000;12942644444;13442644444
1319;13234288000;12983966666;13483966666
1336;13234296000;13067233333;13567233333
1337;13234298000;13067233333;13567233333
1338;13234299000;13067233333;13567233333
1339;13234301000;13067233333;13567233333
1340;13234302000;13067233333;13567233333
1341;13387212000;13067277777;13567277777
1377;13387218000;13192644444;13692644444
1378;13559118000;13233955555;13733955555
1410;13687494000;13317644444;13817644444
1447;13778522000;13483955555;13983955555
1473;13880003000;13567300000;14067300000
1499;13880009000;13692266666;14192266666
1500;13880011000;13692266666;14192266666
1501;13880012000;13692266666;14192266666
1502;13880013000;13692266666;14192266666
1503;13880023000;13692266666;14192266666
1504;13880024000;13692266666;14192266666
1505;13880025000;13692266666;14192266666
1506;14030841000;13692300000;14192300000
1552;14058016000;13859288888;14359288888
1553;14058019000;13859288888;14359288888
1554;14238101000;13900622222;14400622222
1601;14393976000;14067255555;14567255555
1637;14495354000;14192288888;14692288888
1668;14544755000;14317288888;14817288888
1673;14649141000;14317666666;14817666666
1710;14772599000;14483955555;14983955555
1729;14854686000;14525933333;15025933333
1747;14928815000;14608955555;15108955555
1772;15043129000;14692577777;15192577777
1801;15113030000;14817255555;15317255555
1812;15218888000;14858955555;15358955555
1846;15303145000;14983933333;15483933333
1866;15353594000;15067266666;15567266666
1878;15376018000;15108944444;15608944444
1882;15492093000;15109255555;15609255555
1917;15603053000;15275600000;15775600000
1941;15638622000;15358933333;15858933333
1953;15659719000;15400566666;15900566666
1964;15812684000;15442266666;15942266666
2006;15928091000;15608933333;16108933333
2038;15996590000;15733944444;16233944444
2053;16021581000;15775600000;16275600000
2059;16021699000;15775888888;16275888888
2060;16037543000;15817288888;16317288888
2066;16037547000;15817288888;16317288888
2067;16037691000;15817300000;16317300000
2068;16037696000;15817611111;16317611111
2069;16037698000;15817611111;16317611111
2070;16037699000;15817611111;16317611111
2071;16058377000;15858944444;16358944444
2075;16058380000;15858944444;16358944444
2076;16058382000;15858944444;16358944444
2077;16058383000;15858944444;16358944444
2078;16058476000;15858955555;16358955555
2079;16058481000;15859266666;16359266666
2080;16058483000;15859266666;16359266666
2081;16058484000;15859266666;16359266666
2082;16260150000;15900611111;16400611111
2124;16351521000;16025911111;16525911111
2144;16403841000;16108944444;16608944444
2156;16403847000;16150944444;16650944444
2157;16403849000;16150944444;16650944444
2158;16403850000;16150944444;16650944444
2159;16449918000;16192266666;16692266666
2176;16578788000;16233922222;16733922222
2197;16710522000;16317266666;16817266666
2235;16788967000;16442577777;16942577777
2252;16899340000;16525588888;17025588888
2279;16964408000;16609266666;17109266666
2295;17024375000;16692233333;17192233333
2311;17051325000;16734266666;17234266666
2317;17076814000;16775600000;17275600000
2329;17213143000;16817266666;17317266666
2349;17280112000;16900588888;17400588888
2369;17332566000;16983933333;17483933333
2387;17359140000;17025888888;17525888888
2388;17359144000;17025888888;17525888888
2389;17359145000;17025888888;17525888888
2390;17384457000;17067266666;17567266666
2398;17384524000;17067600000;17567600000
2399;17384535000;17067600000;17567600000
2400;17384537000;17067600000;17567600000
2401;17408521000;17108933333;17608933333
2404;17408524000;17108933333;17608933333
2405;17408525000;17108933333;17608933333
2406;17408526000;17108933333;17608933333
2407;17408527000;17108933333;17608933333
2408;17408650000;17108944444;17608944444
2409;17408655000;17109244444;17609244444
2410;17408656000;17109244444;17609244444
2411;17408657000;17109244444;17609244444
2415;17582268000;17150600000;17650600000
2445;17682403000;17275600000;17775600000
2460;17709302000;17317266666;17817266666
2472;17803640000;17358933333;17858933333
2487;17840555000;17400900000;17900900000
2495;17926071000;17442266666;17942266666
2519;17995364000;17525888888;18025888888
2534;18051272000;17608911111;18108911111
2558;18109447000;17692233333;18192233333
2560;18128257000;17692233333;18192233333
2561;18128260000;17692233333;18192233333
2562;18128542000;17692244444;18192244444
2568;18128577000;17733911111;18233911111
2569;18128579000;17733911111;18233911111
2573;18128705000;17733922222;18233922222
2574;18128720000;17734233333;18234233333
2575;18128722000;17734233333;18234233333
2576;18128722000;17734233333;18234233333
2577;18287581000;17775600000;18275600000
2597;18321700000;17817600000;18317600000
2605;18348529000;17858933333;18358933333
2618;18363678000;17900911111;18400911111
2632;18410758000;17983922222;18483922222
2633;18410771000;17983922222;18483922222
2634;18410772000;17983922222;18483922222
2635;18410773000;17983922222;18483922222
2636;18410774000;17983922222;18483922222
2638;18410776000;17983922222;18483922222
2640;18410881000;17984222222;18484222222
2641;18410883000;17984222222;18484222222
2642;18410884000;17984222222;18484222222
2643;18442065000;18025555555;18525555555
2644;18442075000;18025555555;18525555555
2645;18442077000;18025555555;18525555555
2646;18442079000;18025555555;18525555555
2647;18442081000;18025555555;18525555555
2648;18442083000;18025555555;18525555555
2649;18442084000;18025555555;18525555555
2650;18568496000;18025566666;18525566666
2670;18568502000;18108933333;18608933333
2671;18568503000;18108933333;18608933333
2672;18640663000;18108944444;18608944444
2682;18640679000;18150611111;18650611111
2683;18670226000;18150622222;18650622222
2698;18670242000;18233933333;18733933333
2699;18670252000;18233933333;18733933333
2700;18670253000;18233933333;18733933333
2701;18670254000;18233933333;18733933333
2702;18670255000;18233933333;18733933333
2703;18670256000;18233933333;18733933333
2704;18670257000;18233933333;18733933333
2705;18728253000;18233944444;18733944444
2709;18728269000;18275611111;18775611111
2710;18728270000;18275611111;18775611111
2711;18728272000;18275611111;18775611111
2712;18728273000;18275611111;18775611111
2713;18728273000;18275611111;18775611111
2714;18728275000;18275611111;18775611111
2715;18728276000;18275611111;18775611111
2716;18743829000;18275622222;18775622222
2718;18743844000;18275888888;18775888888
2719;18743845000;18275888888;18775888888
2720;18769349000;18317266666;18817266666
2722;18769640000;18317266666;18817266666
2723;18769642000;18317266666;18817266666
2724;18769643000;18317266666;18817266666
2725;18769644000;18317266666;18817266666
2726;18769645000;18317266666;18817266666
2727;18769861000;18317277777;18817277777
2728;18769876000;18317577777;18817577777
2729;18769878000;18317577777;18817577777
2730;18769878000;18317577777;18817577777
2731;18794164000;18358900000;18858900000
2733;18794167000;18358900000;18858900000
2735;18794168000;18358900000;18858900000
2736;18794169000;18358900000;18858900000
2737;18794170000;18358900000;18858900000
2738;18794371000;18358922222;18858922222
2739;18794386000;18359222222;18859222222
2740;18794387000;18359222222;18859222222
2741;18794388000;18359222222;18859222222
2742;18818141000;18400600000;18900600000
2743;18818144000;18400600000;18900600000
2744;18818145000;18400600000;18900600000
2746;18818147000;18400600000;18900600000
2747;18818148000;18400600000;18900600000
2748;18818149000;18400600000;18900600000
2749;18818348000;18400611111;18900611111
2750;18827608000;18400877777;18900877777
2751;18827610000;18400877777;18900877777
2752;18827727000;18400877777;18900877777
2753;18903208000;18442266666;18942266666
2754;18903211000;18442266666;18942266666
2755;18903212000;18442266666;18942266666
2756;18903213000;18442266666;18942266666
2758;18903214000;18442266666;18942266666
2759;18903215000;18442266666;18942266666
2760;18903415000;18442277777;18942277777
2762;18903422000;18442566666;18942566666
2763;18903423000;18442566666;18942566666
2764;18944549000;18483922222;18983922222
2765;18944552000;18483922222;18983922222
2766;18944554000;18483922222;18983922222
2767;18944554000;18483922222;18983922222
2768;18944555000;18483922222;18983922222
2769;18944556000;18483922222;18983922222
2770;18944557000;18483922222;18983922222
2771;18944757000;18483933333;18983933333
2772;18944760000;18484222222;18984222222
2773;18944761000;18484222222;18984222222
2774;18944762000;18484222222;18984222222
2775;18985755000;18525566666;19025566666
2776;18985759000;18525566666;19025566666
2777;18985760000;18525566666;19025566666
2778;18985770000;18525566666;19025566666
2779;18985771000;18525566666;19025566666
2780;18985772000;18525566666;19025566666
2781;18985773000;18525566666;19025566666
2782;18985957000;18525588888;19025588888
2783;18985963000;18525844444;19025844444
2784;18985965000;18525844444;19025844444
2785;18985965000;18525844444;19025844444
2786;19026643000;18567266666;19067266666
2787;19026646000;18567266666;19067266666
2788;19026647000;18567266666;19067266666
2789;19026648000;18567266666;19067266666
2792;19026650000;18567266666;19067266666
2793;19026722000;18567288888;19067288888
2794;19026725000;18567633333;19067633333
2795;19026726000;18567633333;19067633333
2796;19026727000;18567633333;19067633333
2797;19067066000;18608933333;19108933333
2798;19067070000;18608933333;19108933333
2799;19067071000;18608933333;19108933333
2800;19067072000;18608933333;19108933333
2801;19067073000;18608933333;19108933333
2802;19067074000;18608933333;19108933333
2803;19067075000;18608933333;19108933333
2804;19067301000;18608944444;19108944444
2805;19067316000;18609244444;19109244444
2806;19067317000;18609244444;19109244444
2807;19067318000;18609244444;19109244444
2808;19106710000;18650566666;19150566666
2809;19106713000;18650566666;19150566666
2810;19106722000;18650566666;19150566666
2811;19106723000;18650566666;19150566666
2812;19106724000;18650566666;19150566666
2813;19106725000;18650566666;19150566666
2814;19106725000;18650566666;19150566666
2815;19106926000;18650577777;19150577777
2816;19106941000;18650866666;19150866666
2817;19106942000;18650866666;19150866666
2818;19106943000;18650866666;19150866666
2819;19145520000;18692233333;19192233333
2821;19145524000;18692233333;19192233333
2822;19145525000;18692233333;19192233333
2823;19145526000;18692233333;19192233333
2824;19145527000;18692233333;19192233333
2825;19145528000;18692233333;19192233333
2826;19145745000;18692244444;19192244444
2827;19148422000;18692522222;19192522222
2828;19148425000;18692522222;19192522222
2829;19150744000;18692522222;19192522222
2830;19240448000;18733933333;19233933333
2831;19240461000;18733933333;19233933333
2832;19240462000;18733933333;19233933333
2833;19240464000;18733933333;19233933333
2834;19240465000;18733933333;19233933333
2835;19240467000;18733933333;19233933333
2836;19240468000;18733933333;19233933333
2837;19240677000;18733944444;19233944444
2838;19240692000;18734233333;19234233333
2839;19240694000;18734233333;19234233333
2840;19240696000;18734233333;19234233333
2841;19281569000;18775588888;19275588888
2842;19281573000;18775588888;19275588888
2843;19281575000;18775588888;19275588888
2844;19281576000;18775588888;19275588888
2845;19281577000;18775588888;19275588888
2846;19281578000;18775588888;19275588888
2847;19281580000;18775588888;19275588888
2850;19281646000;18775855555;19275855555
2851;19281658000;18775855555;19275855555
2852;19322841000;18817233333;19317233333
2874;19403452000;18900600000;19400600000
2876;19403455000;18900600000;19400600000
2877;19403457000;18900600000;19400600000
2878;19403458000;18900600000;19400600000
2879;19403459000;18900600000;19400600000
2880;19403460000;18900600000;19400600000
2881;19403552000;18900611111;19400611111
2882;19403557000;18900900000;19400900000
2883;19403558000;18900900000;19400900000
2884;19403559000;18900900000;19400900000
2885;19441699000;18942255555;19442255555
2887;19441703000;18942255555;19442255555
2888;19441704000;18942255555;19442255555
2889;19441705000;18942255555;19442255555
2890;19441706000;18942255555;19442255555
2891;19441707000;18942255555;19442255555
2892;19441905000;18942266666;19442266666
2893;19441920000;18942577777;19442577777
2894;19441922000;18942577777;19442577777
2895;19441923000;18942577777;19442577777
2896;19478910000;18983900000;19483900000
2926;19543265000;19067577777;19567577777
2927;19543268000;19067577777;19567577777
2928;19543269000;19067577777;19567577777
2929;19575505000;19108922222;19608922222
2943;19603693000;19150566666;19650566666
2944;19603697000;19150566666;19650566666
2945;19603698000;19150566666;19650566666
2946;19603699000;19150566666;19650566666
2947;19603900000;19150588888;19650588888
2948;19603915000;19150900000;19650900000
2949;19603916000;19150900000;19650900000
2950;19603917000;19150900000;19650900000
2951;19632753000;19192266666;19692266666
2972;19632910000;19234244444;19734244444
2973;19663177000;19275588888;19775588888
2986;19692498000;19317233333;19817233333
2987;19692502000;19317233333;19817233333
2988;19692504000;19317233333;19817233333
2989;19692505000;19317233333;19817233333
2990;19692506000;19317233333;19817233333
2991;19692647000;19317255555;19817255555
2992;19692651000;19317544444;19817544444
2993;19692652000;19317544444;19817544444
2994;19692654000;19317544444;19817544444
2995;19722280000;19358933333;19858933333
2996;19722283000;19358933333;19858933333
2998;19722285000;19358933333;19858933333
3000;19722286000;19358933333;19858933333
3001;19722287000;19358933333;19858933333
3002;19935531000;19358955555;19858955555
3058;19935547000;19567577777;20067577777
3059;19935548000;19567577777;20067577777
3060;19935549000;19567577777;20067577777
3061;20135228000;19608922222;20108922222
3144;20419279000;19900566666;20400566666
3220;20470315000;20192233333;20692233333
3241;20697098000;20275566666;20775566666
3311;20848964000;20525933333;21025933333
3339;20932247000;20650622222;21150622222
3362;21053997000;20733955555;21233955555
3393;21122397000;20858922222;21358922222
3412;21226658000;20900933333;21400933333
3435;21307414000;21025622222;21525622222
3459;21347849000;21108944444;21608944444
3468;21440797000;21150622222;21650622222
3506;21597416000;21275588888;21775588888
3537;21728535000;21400622222;21900622222
3568;21815090000;21525611111;22025611111
3593;21921283000;21608955555;22108955555
3627;22004719000;21733955555;22233955555
3643;22102857000;21775955555;22275955555
3666;22269953000;21900611111;22400611111
3706;22333501000;22025633333;22525633333
3736;22355806000;22150622222;22650622222
3738;22355808000;22150622222;22650622222
3739;22382881000;22150666666;22650666666
3745;22382897000;22192288888;22692288888
3746;22382898000;22192288888;22692288888
3747;22382899000;22192288888;22692288888
3748;22382900000;22192288888;22692288888
3749;22382901000;22192288888;22692288888
3750;22394751000;22192333333;22692333333
3751;22394757000;22192644444;22692644444
3752;22394758000;22192644444;22692644444
3753;22394759000;22192644444;22692644444
3754;22564578000;22233955555;22733955555
3803;22665821000;22400611111;22900611111
3819;22771202000;22442622222;22942622222
3847;22874073000;22567255555;23067255555
3877;23022131000;22692255555;23192255555
3911;23110778000;22817266666;23317266666
3941;23293795000;22942277777;23442277777
3990;23369182000;23108944444;23608944444
4013;23509162000;23192288888;23692288888
4039;23602313000;23275955555;23775955555
4066;23708817000;23400622222;23900622222
4092;23747219000;23484300000;23984300000
4106;23936537000;23567255555;24067255555
4149;23979345000;23692577777;24192577777
4162;24028346000;23775622222;24275622222
4183;24051456000;23858955555;24358955555
4184;24051467000;23858955555;24358955555
4185;24051468000;23858955555;24358955555
4186;24051470000;23858955555;24358955555
4187;24051472000;23858955555;24358955555
4188;24051474000;23858955555;24358955555
4189;24051475000;23858955555;24358955555
4190;24051683000;23859000000;24359000000
4191;24051698000;23859311111;24359311111
4192;24051700000;23859311111;24359311111
4193;24051701000;23859311111;24359311111
4194;24069428000;23900611111;24400611111
4205;24272169000;23942255555;24442255555
4249;24440684000;24108955555;24608955555
4298;24601285000;24275611111;24775611111
4331;24689183000;24400622222;24900622222
4353;24799388000;24483955555;24983955555
4385;24966183000;24608955555;25108955555
4426;25026241000;24775622222;25275622222
4449;25211226000;24858944444;25358944444
4489;25316135000;24984300000;25484300000
4526;25499461000;25150611111;25650611111
4566;25629294000;25275900000;25775900000
4606;25732699000;25442255555;25942255555
4632;25833004000;25525911111;26025911111
4653;25883292000;25609300000;26109300000
4668;25951833000;25692277777;26192277777
4686;26066780000;25734266666;26234266666
4721;26163965000;25859277777;26359277777
4745;26242292000;25983955555;26483955555
4768;26275232000;26067288888;26567288888
4777;26302472000;26108955555;26608955555
4779;26302475000;26108955555;26608955555
4780;26302476000;26108955555;26608955555
4781;26302477000;26108955555;26608955555
4782;26302478000;26108955555;26608955555
4783;26302479000;26108955555;26608955555
4784;26302678000;26109000000;26609000000
4785;26302693000;26109311111;26609311111
4786;26302694000;26109311111;26609311111
4787;26302695000;26109311111;26609311111
4788;26464749000;26150622222;26650622222
4829;26615152000;26275955555;26775955555
4871;26714244000;26442255555;26942255555
4892;26735563000;26525611111;27025611111
4905;26766989000;26567344444;27067344444
4906;26767005000;26567677777;27067677777
4907;26767007000;26567677777;27067677777
4908;26767008000;26567677777;27067677777
4909;26789842000;26608966666;27108966666
4920;26807488000;26650588888;27150588888
4921;26807492000;26650588888;27150588888
4922;26807493000;26650588888;27150588888
4923;26807494000;26650588888;27150588888
4924;26807495000;26650588888;27150588888
4925;26807496000;26650588888;27150588888
4926;26807497000;26650588888;27150588888
4927;26813487000;26650633333;27150633333
4928;26813513000;26650966666;27150966666
4929;26813514000;26650966666;27150966666
4930;26813515000;26650966666;27150966666
4931;26845010000;26692300000;27192300000
4932;26845030000;26692300000;27192300000
4933;26845032000;26692300000;27192300000
4934;26845035000;26692300000;27192300000
4935;26845036000;26692300000;27192300000
4936;26845038000;26692300000;27192300000
4937;26845039000;26692300000;27192300000
4938;26845294000;26692355555;27192355555
4939;26845310000;26692666666;27192666666
4940;26845312000;26692666666;27192666666
4941;26845314000;26692666666;27192666666
4942;27058686000;26733955555;27233955555
4982;27138691000;26859000000;27359000000
5005;27138697000;26942622222;27442622222
5006;27138698000;26942622222;27442622222
5007;27138700000;26942622222;27442622222
5008;27304122000;26983955555;27483955555
5047;27370620000;27108944444;27608944444
5071;27396252000;27192644444;27692644444
5072;27396255000;27192644444;27692644444
5073;27396256000;27192644444;27692644444
5074;27441327000;27233955555;27733955555
5090;27461898000;27275622222;27775622222
5092;27462103000;27275666666;27775666666
5093;27462118000;27275955555;27775955555
5094;27462119000;27275955555;27775955555
5095;27462120000;27275955555;27775955555
5096;27485909000;27317277777;27817277777
5104;27671651000;27317644444;27817644444
5143;27783328000;27483966666;27983966666
5170;27898285000;27567611111;28067611111
5199;28000609000;27692255555;28192255555
5225;28056525000;27775900000;28275900000
5242;28210807000;27858933333;28358933333
5276;28300461000;27983933333;28483933333
5309;28380425000;28108933333;28608933333
5332;28418753000;28192266666;28692266666
5341;28617834000;28233933333;28733933333
5392;28712271000;28400888888;28900888888
5416;28891191000;28525588888;29025588888
5458;29027502000;28650922222;29150922222
5475;29095438000;28733933333;29233933333
5476;29095441000;28733933333;29233933333
5477;29095655000;28733944444;29233944444
5478;29095659000;28734244444;29234244444
5479;29095660000;28734244444;29234244444
5480;29095661000;28734244444;29234244444
5481;29121792000;28775688888;29275688888
5482;29121795000;28775688888;29275688888
5483;29121796000;28775688888;29275688888
5484;29121798000;28775688888;29275688888
5485;29121798000;28775688888;29275688888
5486;29121799000;28775688888;29275688888
5487;29121801000;28775688888;29275688888
5488;29122001000;28775711111;29275711111
5489;29122016000;28775988888;29275988888
5490;29122018000;28775988888;29275988888
5491;29122019000;28775988888;29275988888
5492;29143288000;28817233333;29317233333
5493;29143292000;28817233333;29317233333
5494;29143293000;28817233333;29317233333
5495;29143294000;28817233333;29317233333
5496;29143296000;28817233333;29317233333
5497;29143297000;28817233333;29317233333
5498;29143298000;28817233333;29317233333
5499;29143497000;28817244444;29317244444
