seqnum;now;rtptime;deadline
1;6768336000;6477500000;6977500000
3;6849254000;6508777777;7008777777
52;7005987000;6675444444;7175444444
93;7227137000;6842122222;7342122222
151;7319700000;7050455555;7550455555
183;7420562000;7175455555;7675455555
203;7474662000;7258800000;7758800000
218;7500923000;7300455555;7800455555
231;7641462000;7342466666;7842466666
263;7725488000;7467177777;7967177777
286;7725494000;7550800000;8050800000
287;7725495000;7550800000;8050800000
288;7725496000;7550800000;8050800000
289;7861188000;7592122222;8092122222
326;7960552000;7717133333;8217133333
345;8014663000;7800466666;8300466666
358;8112120000;7842122222;8342122222
392;8211916000;7967122222;8467122222
414;8320330000;8050455555;8550455555
448;8417215000;8175455555;8675455555
470;8469381000;8258800000;8758800000
480;8569673000;8300455555;8800455555
515;8663160000;8425466666;8925466666
536;8780336000;8508788888;9008788888
569;8875500000;8633800000;9133800000
593;8928443000;8717177777;9217177777
603;8928459000;8758788888;9258788888
604;8953245000;8758833333;9258833333
621;8985198000;8842122222;9342122222
622;8985201000;8842122222;9342122222
623;8985212000;8842122222;9342122222
624;8985213000;8842122222;9342122222
625;8985214000;8842122222;9342122222
626;9114204000;8842177777;9342177777
660;9151543000;8967488888;9467488888
661;9151545000;8967488888;9467488888
662;9151546000;8967488888;9467488888
666;9236659000;9008800000;9508800000
691;9275958000;9092122222;9592122222
692;9282188000;9092177777;9592177777
704;9282203000;9134155555;9634155555
709;9439685000;9175466666;9675466666
735;9496696000;9258800000;9758800000
756;9549161000;9342122222;9842122222
769;9566539000;9383844444;9883844444
770;9566554000;9384144444;9884144444
771;9566555000;9384144444;9884144444
772;9566556000;9384144444;9884144444
775;9695101000;9425455555;9925455555
811;9790051000;9550455555;10050455555
838;9838821000;9634155555;10134155555
848;9947929000;9675822222;10175822222
877;10053125000;9800466666;10300466666
900;10108741000;9883788888;10383788888
911;10128533000;9925466666;10425466666
923;10236195000;9967166666;10467166666
955;10236213000;10092122222;10592122222
956;10337330000;10092166666;10592166666
979;10337335000;10175811111;10675811111
980;10337336000;10175811111;10675811111
981;10337337000;10175811111;10675811111
982;10517320000;10217133333;10717133333
1024;10566781000;10342477777;10842477777
1035;10654272000;10384155555;10884155555
1064;10765501000;10508788888;11008788888
1087;10816559000;10592122222;11092122222
1099;10839574000;10633844444;11133844444
1110;10985890000;10675500000;11175500000
1154;11091079000;10842177777;11342177777
1176;11194331000;10925511111;11425511111
1211;11194337000;11050822222;11550822222
1214;11386127000;11092122222;11592122222
1249;11524658000;11217122222;11717122222
1286;11599695000;11342177777;11842177777
1306;11599711000;11425466666;11925466666
1307;11599717000;11425466666;11925466666
1308;11637899000;11425511111;11925511111
1323;11637914000;11508822222;12008822222
1324;11637916000;11508822222;12008822222
1325;11637917000;11508822222;12008822222
1326;11637918000;11508822222;12008822222
1327;11637918000;11508822222;12008822222
1328;11637919000;11508822222;12008822222
1329;11637920000;11508822222;12008822222
1330;11679049000;11508888888;12008888888
1334;11679064000;11550455555;12050455555
1335;11679065000;11550455555;12050455555
1336;11679066000;11550455555;12050455555
1337;11679067000;11550455555;12050455555
1338;11679068000;11550455555;12050455555
1339;11679069000;11550455555;12050455555
1340;11679070000;11550455555;12050455555
1341;11819743000;11550511111;12050511111
1373;11819758000;11675455555;12175455555
1374;11918325000;11675500000;12175500000
1387;11918340000;11717511111;12217511111
1388;11918341000;11717511111;12217511111
1389;11975655000;11758788888;12258788888
1403;12070294000;11800455555;12300455555
1434;12171544000;11925455555;12425455555
1462;12278684000;12008833333;12508833333
1497;12318530000;12134222222;12634222222
1498;12318533000;12134222222;12634222222
1503;12412047000;12175455555;12675455555
1520;12489100000;12217477777;12717477777
1549;12686283000;12342122222;12842122222
1589;12762879000;12508800000;13008800000
1610;12863010000;12592122222;13092122222
1644;12962644000;12717122222;13217122222
1665;13071338000;12800455555;13300455555
1694;13131119000;12884144444;13384144444
1707;13161411000;12925822222;13425822222
1718;13199556000;12967477777;13467477777
1731;13320964000;13050455555;13550455555
1763;13424979000;13175455555;13675455555
1784;13436439000;13217455555;13717455555
1785;13480780000;13258788888;13758788888
1797;13571949000;13300466666;13800466666
1829;13670983000;13425466666;13925466666
1855;13730128000;13508788888;14008788888
1865;13742840000;13550466666;14050466666
1877;13765427000;13592122222;14092122222
1878;13765430000;13592122222;14092122222
1879;13765431000;13592122222;14092122222
1880;13765639000;13592166666;14092166666
1881;13765654000;13592433333;14092433333
1882;13765655000;13592433333;14092433333
1883;13765656000;13592433333;14092433333
1886;13903282000;13633800000;14133800000
1927;13994445000;13759155555;14259155555
1945;14111688000;13842155555;14342155555
1976;14213088000;13967133333;14467133333
1995;14270405000;14050455555;14550455555
2009;14361680000;14092122222;14592122222
2045;14460296000;14217166666;14717166666
2066;14460311000;14300455555;14800455555
2067;14608422000;14300511111;14800511111
2102;14608437000;14425811111;14925811111
2103;14608439000;14425811111;14925811111
2104;14713819000;14467122222;14967122222
2133;14819435000;14550511111;15050511111
2167;14819441000;14675855555;15175855555
2168;14819442000;14675855555;15175855555
2169;14819443000;14675855555;15175855555
2170;14943937000;14717122222;15217122222
2198;14988615000;14800455555;15300455555
2208;15014607000;14842133333;15342133333
2209;15014610000;14842133333;15342133333
2210;15014744000;14842177777;15342177777
2211;15014747000;14842477777;15342477777
2214;15155335000;14883788888;15383788888
2255;15237681000;15009211111;15509211111
2276;15361834000;15092177777;15592177777
2304;15361850000;15217122222;15717122222
2305;15361851000;15217122222;15717122222
2308;15401514000;15217122222;15717122222
2315;15496125000;15258800000;15758800000
2341;15547589000;15342133333;15842133333
2350;15652686000;15383788888;15883788888
2383;15752352000;15508800000;16008800000
2407;15797836000;15592122222;16092122222
2417;15901819000;15633800000;16133800000
2443;16017147000;15717477777;16217477777
2472;16111163000;15842133333;16342133333
2504;16246499000;15967122222;16467122222
2538;16304809000;16092122222;16592122222
2550;16401207000;16133788888;16633788888
2570;16467557000;16217144444;16717144444
2590;16526205000;16300455555;16800455555
2606;16552275000;16342177777;16842177777
2617;16653388000;16383844444;16883844444
2650;16819746000;16508833333;17008833333
2690;16819752000;16675455555;17175455555
2694;16918762000;16675511111;17175511111
2713;16918778000;16758800000;17258800000
2714;16918779000;16758800000;17258800000
2715;16918780000;16758800000;17258800000
2716;16953282000;16758844444;17258844444
2729;16953297000;16800800000;17300800000
2730;16953298000;16800800000;17300800000
2731;17104465000;16842122222;17342122222
2760;17163636000;16925500000;17425500000
2783;17163652000;17009211111;17509211111
2784;17163653000;17009211111;17509211111
2785;17163654000;17009211111;17509211111
2786;17315936000;17050466666;17550466666
2814;17373463000;17133777777;17633777777
2839;17407072000;17217455555;17717455555
2850;17530863000;17259144444;17759144444
2882;17633854000;17384133333;17884133333
2905;17738237000;17467444444;17967444444
2935;17841703000;17592133333;18092133333
2957;17963494000;17675466666;18175466666
2986;18043961000;17800455555;18300455555
3009;18067481000;17883788888;18383788888
3010;18067485000;17883788888;18383788888
3011;18067486000;17883788888;18383788888
3012;18067487000;17883788888;18383788888
3013;18067685000;17883833333;18383833333
3014;18067701000;17884111111;18384111111
3015;18067702000;17884111111;18384111111
3016;18067703000;17884111111;18384111111
3019;18194701000;17925455555;18425455555
3058;18292842000;18050822222;18550822222
3079;18353744000;18133844444;18633844444
3088;18353767000;18175455555;18675455555
3089;18353769000;18175455555;18675455555
3092;18443977000;18175777777;18675777777
3124;18542106000;18300811111;18800811111
3144;18651264000;18383788888;18883788888
3167;18719916000;18467177777;18967177777
3188;18719931000;18550455555;19050455555
3189;18777980000;18550500000;19050500000
3213;18777995000;18634188888;19134188888
3214;18777997000;18634188888;19134188888
3215;18851646000;18675466666;19175466666
3219;18851649000;18675466666;19175466666
3220;18851650000;18675466666;19175466666
3221;18851651000;18675466666;19175466666
3222;18851849000;18675511111;19175511111
3223;18851864000;18675811111;19175811111
3224;18851866000;18675811111;19175811111
3225;18851866000;18675811111;19175811111
3226;18987719000;18717122222;19217122222
3265;19079686000;18842133333;19342133333
3291;19191419000;18925800000;19425800000
3307;19263287000;19008788888;19508788888
3331;19322784000;19092122222;19592122222
3351;19372695000;19175455555;19675455555
3363;19486594000;19217122222;19717122222
3388;19546670000;19300822222;19800822222
3402;19612958000;19383788888;19883788888
3425;19674756000;19467133333;19967133333
3431;19674958000;19467177777;19967177777
3432;19674964000;19467466666;19967466666
3433;19674965000;19467466666;19967466666
3434;19674966000;19467466666;19967466666
3435;19819653000;19508788888;20008788888
3481;19921686000;19675455555;20175455555
3504;20050846000;19758788888;20258788888
3537;20123001000;19883788888;20383788888
3558;20166370000;19967144444;20467144444
3570;20277015000;20008788888;20508788888
3601;20380557000;20133788888;20633788888
3628;20420055000;20217122222;20717122222
3638;20528786000;20258788888;20758788888
3668;20629219000;20383800000;20883800000
3691;20688171000;20467122222;20967122222
3703;20777672000;20508788888;21008788888
3740;20943879000;20634144444;21134144444
3780;21051491000;20800466666;21300466666
3801;21097010000;20883788888;21383788888
3809;21196283000;20925455555;21425455555
3850;21280284000;21050822222;21550822222
3866;21402924000;21133788888;21633788888
3899;21543973000;21258811111;21758811111
3936;21590818000;21383788888;21883788888
3948;21695262000;21425511111;21925511111
3981;21792057000;21550511111;22050511111
4001;21792063000;21633788888;22133788888
4002;21792064000;21633788888;22133788888
4003;21843679000;21633844444;22133844444
4014;21865940000;21675511111;22175511111
4025;21988372000;21717177777;22217177777
4052;21988387000;21842122222;22342122222
4053;21988388000;21842122222;22342122222
4054;21988389000;21842122222;22342122222
4055;21988389000;21842122222;22342122222
4056;21988390000;21842122222;22342122222
4061;22082819000;21842466666;22342466666
4084;22236634000;21967122222;22467122222
4093;23286308000;21967455555;22467455555
4094;23286320000;21967455555;22467455555
4095;23286332000;22008788888;22508788888
4097;23286334000;22008788888;22508788888
4098;23286336000;22008788888;22508788888
4099;23286338000;22008788888;22508788888
4100;23286340000;22008788888;22508788888
4101;23286341000;22008788888;22508788888
4102;23286395000;22008833333;22508833333
4106;23286398000;22050455555;22550455555
4107;23286399000;22050455555;22550455555
4108;23286400000;22050455555;22550455555
4109;23286401000;22050455555;22550455555
4111;23286402000;22050455555;22550455555
4113;23286444000;22050500000;22550500000
4114;23286447000;22050800000;22550800000
4115;23286448000;22050800000;22550800000
4116;23286449000;22050800000;22550800000
4117;23286456000;22092122222;22592122222
4118;23286457000;22092122222;22592122222
4202;23336755000;22384055555;22884055555
4214;23378146000;22425766666;22925766666
4216;23419605000;22467111111;22967111111
4291;23583737000;22717433333;23217433333
4370;23676163000;23050444444;23550444444
4437;23862319000;23300422222;23800422222
4515;23974445000;23592277777;24092277777
4561;24238562000;23758766666;24258766666
4634;24321546000;24050455555;24550455555
4655;24343771000;24092455555;24592455555
4656;24390159000;24133800000;24633800000
4669;24482647000;24175455555;24675455555
4691;24535048000;24258800000;24758800000
4715;24583062000;24342133333;24842133333
4729;24602142000;24383844444;24883844444
4730;24602158000;24384122222;24884122222
4731;24602159000;24384122222;24884122222
4732;24602160000;24384122222;24884122222
4733;24694656000;24425455555;24925455555
4762;24815530000;24508844444;25008844444
4789;24818192000;24633788888;25133788888
4790;24818194000;24633788888;25133788888
4791;24818205000;24633788888;25133788888
4792;24818206000;24633788888;25133788888
4793;24818207000;24633788888;25133788888
4794;24818208000;24633788888;25133788888
4795;24898806000;24633833333;25133833333
4811;24898821000;24717122222;25217122222
4812;24898822000;24717122222;25217122222
4813;24898823000;24717122222;25217122222
4814;24898824000;24717122222;25217122222
4815;24898825000;24717122222;25217122222
4816;24898826000;24717122222;25217122222
4819;24987736000;24717466666;25217466666
4850;25097373000;24842177777;25342177777
4867;25097388000;24925455555;25425455555
4868;25097389000;24925455555;25425455555
4869;25097390000;24925455555;25425455555
4870;25097391000;24925455555;25425455555
4871;25097392000;24925455555;25425455555
4872;25221071000;24925511111;25425511111
4905;25286389000;25050511111;25550511111
4926;25316063000;25133788888;25633788888
4931;25446716000;25175455555;25675455555
4967;25546492000;25300455555;25800455555
4987;25595607000;25383800000;25883800000
4998;25626880000;25425466666;25925466666
5014;25778513000;25467122222;25967122222
5058;25937210000;25633788888;26133788888
5090;26018322000;25758800000;26258800000
5112;26152313000;25842133333;26342133333
5150;26273599000;25967466666;26467466666
5178;26372302000;26092122222;26592122222
5213;26431812000;26217177777;26717177777
5222;26431828000;26258800000;26758800000
5223;26431829000;26258800000;26758800000
5224;26442136000;26258844444;26758844444
5225;26442151000;26259155555;26759155555
5226;26442152000;26259155555;26759155555
5227;26442153000;26259155555;26759155555
5228;26569504000;26300466666;26800466666
5266;26666273000;26425466666;26925466666
5290;26812718000;26508833333;27008833333
5320;26814159000;26633800000;27133800000
5326;26874130000;26634155555;27134155555
5346;27027302000;26717466666;27217466666
5383;27154685000;26883800000;27383800000
5414;27239621000;26967455555;27467455555
5440;27350344000;27092133333;27592133333
5461;27397531000;27175455555;27675455555
5473;27485969000;27217122222;27717122222
5477;27486141000;27217166666;27717166666
5478;27486145000;27217455555;27717455555
5479;27486146000;27217455555;27717455555
5480;27486147000;27217455555;27717455555
5481;27572690000;27258800000;27758800000
5482;27572693000;27258800000;27758800000
5483;27572694000;27258800000;27758800000
5484;27572695000;27258800000;27758800000
5485;27572696000;27258800000;27758800000
5486;27572697000;27258800000;27758800000
5487;27572698000;27258800000;27758800000
5488;27572897000;27258844444;27758844444
5489;27572912000;27259155555;27759155555
5490;27572913000;27259155555;27759155555
5491;27572914000;27259155555;27759155555
5492;27572928000;27300455555;27800455555
5493;27572930000;27300455555;27800455555
5494;27572932000;27300455555;27800455555
5495;27572933000;27300455555;27800455555
5496;27572935000;27300455555;27800455555
5497;27572936000;27300455555;27800455555
5498;27572938000;27300455555;27800455555
5499;27573011000;27300500000;27800500000
