seqnum;now;rtptime;deadline
3;12430256000;11500200000;12000200000
4;12430262000;11500200000;12000200000
5;12430266000;11500200000;12000200000
6;12430268000;11500200000;12000200000
7;12430269000;11500200000;12000200000
8;12430273000;11500200000;12000200000
9;12430274000;11500200000;12000200000
10;12511810000;11500222222;12000222222
13;12511830000;11500566666;12000566666
14;12553007000;11541877777;12041877777
15;12553011000;11541877777;12041877777
16;12553012000;11541877777;12041877777
17;12553013000;11541877777;12041877777
19;12553080000;11541877777;12041877777
21;12553236000;11541900000;12041900000
22;12553252000;11542366666;12042366666
23;12553254000;11542366666;12042366666
24;12553255000;11542366666;12042366666
25;12594233000;11583533333;12083533333
26;12594237000;11583533333;12083533333
27;12594238000;11583533333;12083533333
28;12830262000;11583533333;12083533333
30;12830267000;11583533333;12083533333
31;12830273000;11583533333;12083533333
32;12880749000;11583544444;12083544444
36;12880764000;11625200000;12125200000
37;12880765000;11625200000;12125200000
38;12880766000;11625200000;12125200000
39;12880767000;11625200000;12125200000
43;12922661000;11625211111;12125211111
44;12922676000;11625555555;12125555555
45;12922677000;11625555555;12125555555
46;12922678000;11625555555;12125555555
47;12963752000;11666866666;12166866666
48;12963755000;11666866666;12166866666
49;12963756000;11666866666;12166866666
50;12963757000;11666866666;12166866666
51;12963758000;11666866666;12166866666
52;12963759000;11666866666;12166866666
53;12963760000;11666866666;12166866666
54;12963930000;11666877777;12166877777
55;12963934000;11667200000;12167200000
56;13230805000;11667200000;12167200000
57;13230808000;11667200000;12167200000
58;13281202000;11708533333;12208533333
67;13281316000;11708833333;12208833333
68;13281319000;11708833333;12208833333
69;13322800000;11750200000;12250200000
70;13322804000;11750200000;12250200000
71;13322805000;11750200000;12250200000
72;13322806000;11750200000;12250200000
73;13322807000;11750200000;12250200000
74;13322807000;11750200000;12250200000
75;13322808000;11750200000;12250200000
76;13323008000;11750211111;12250211111
77;13323023000;11750544444;12250544444
78;13323024000;11750544444;12250544444
79;13323026000;11750544444;12250544444
80;13364299000;11791866666;12291866666
81;13364302000;11791866666;12291866666
82;13364303000;11791866666;12291866666
83;13364304000;11791866666;12291866666
84;13364305000;11791866666;12291866666
85;13364306000;11791866666;12291866666
86;13364307000;11791866666;12291866666
87;13364507000;11791877777;12291877777
88;13631077000;11792200000;12292200000
89;13631085000;11792200000;12292200000
90;13631092000;11792200000;12292200000
91;13722969000;11833533333;12333533333
97;13722980000;11833533333;12333533333
98;13723180000;11833544444;12333544444
99;13723193000;11833822222;12333822222
100;13723195000;11833822222;12333822222
101;13723197000;11833822222;12333822222
102;13764219000;11875200000;12375200000
103;13764229000;11875200000;12375200000
104;13764231000;11875200000;12375200000
105;13764233000;11875200000;12375200000
106;13764235000;11875200000;12375200000
107;13764237000;11875200000;12375200000
108;13764239000;11875200000;12375200000
109;13764459000;11875211111;12375211111
110;13764464000;11875466666;12375466666
111;13764466000;11875466666;12375466666
112;13764468000;11875466666;12375466666
113;13808010000;11916877777;12416877777
114;13808020000;11916877777;12416877777
118;13808022000;11916877777;12416877777
119;13808024000;11916877777;12416877777
120;13813202000;11916888888;12416888888
121;13813225000;11917222222;12417222222
122;14031403000;11917222222;12417222222
123;14031407000;11917222222;12417222222
124;14081833000;11958533333;12458533333
157;14206385000;12083533333;12583533333
158;14206389000;12083533333;12583533333
159;14206390000;12083533333;12583533333
160;14206391000;12083533333;12583533333
161;14206392000;12083533333;12583533333
162;14206393000;12083533333;12583533333
163;14206394000;12083533333;12583533333
164;14206602000;12083544444;12583544444
165;14206618000;12083844444;12583844444
166;14206632000;12083844444;12583844444
167;14206633000;12083844444;12583844444
168;14245675000;12125200000;12625200000
169;14245679000;12125200000;12625200000
170;14245680000;12125200000;12625200000
171;14245681000;12125200000;12625200000
172;14245682000;12125200000;12625200000
173;14245683000;12125200000;12625200000
174;14245684000;12125200000;12625200000
175;14245891000;12125211111;12625211111
176;14245906000;12125511111;12625511111
177;14431684000;12125511111;12625511111
181;14486100000;12166866666;12666866666
208;14565529000;12250211111;12750211111
209;14565546000;12250500000;12750500000
210;14565548000;12250500000;12750500000
211;14565549000;12250500000;12750500000
212;14606138000;12291866666;12791866666
213;14606141000;12291866666;12791866666
214;14606143000;12291866666;12791866666
215;14606144000;12291866666;12791866666
216;14606146000;12291866666;12791866666
217;14606147000;12291866666;12791866666
218;14606149000;12291866666;12791866666
221;14606260000;12292211111;12792211111
222;14606263000;12292211111;12792211111
223;14646265000;12333533333;12833533333
224;14646269000;12333533333;12833533333
225;14646270000;12333533333;12833533333
226;14646272000;12333533333;12833533333
227;14646273000;12333533333;12833533333
228;14646275000;12333533333;12833533333
229;14646276000;12333533333;12833533333
230;14646483000;12333544444;12833544444
231;14646490000;12333844444;12833844444
232;14832005000;12333844444;12833844444
233;14832013000;12333844444;12833844444
234;14882431000;12375200000;12875200000
270;15006876000;12500200000;13000200000
271;15006879000;12500200000;13000200000
272;15006880000;12500200000;13000200000
273;15006881000;12500200000;13000200000
274;15007088000;12500211111;13000211111
275;15007104000;12500488888;13000488888
276;15007105000;12500488888;13000488888
277;15007106000;12500488888;13000488888
278;15046169000;12541866666;13041866666
279;15046172000;12541866666;13041866666
280;15046173000;12541866666;13041866666
281;15046174000;12541866666;13041866666
282;15046175000;12541866666;13041866666
283;15046176000;12541866666;13041866666
284;15046177000;12541866666;13041866666
285;15046384000;12541877777;13041877777
286;15046399000;12542200000;13042200000
287;15046401000;12542200000;13042200000
288;15046402000;12542200000;13042200000
289;15083713000;12583533333;13083533333
290;15083717000;12583533333;13083533333
291;15083718000;12583533333;13083533333
292;15083719000;12583533333;13083533333
293;15232534000;12583533333;13083533333
294;15232537000;12583533333;13083533333
295;15232538000;12583533333;13083533333
296;15283013000;12583544444;13083544444
332;15283029000;12708944444;13208944444
333;15447749000;12750200000;13250200000
334;15447753000;12750200000;13250200000
335;15447754000;12750200000;13250200000
336;15447755000;12750200000;13250200000
337;15447756000;12750200000;13250200000
338;15447757000;12750200000;13250200000
339;15447758000;12750200000;13250200000
340;15447964000;12750222222;13250222222
344;15485796000;12791866666;13291866666
346;15485798000;12791866666;13291866666
347;15485799000;12791866666;13291866666
348;15485800000;12791866666;13291866666
349;15485801000;12791866666;13291866666
350;15485802000;12791866666;13291866666
351;15486010000;12791877777;13291877777
352;15486025000;12792188888;13292188888
353;15486026000;12792188888;13292188888
354;15486027000;12792188888;13292188888
355;15519855000;12833533333;13333533333
356;15519858000;12833533333;13333533333
357;15519859000;12833533333;13333533333
358;15519860000;12833533333;13333533333
360;15633029000;12833533333;13333533333
361;15633032000;12833533333;13333533333
362;15683496000;12833544444;13333544444
412;15683512000;13041866666;13541866666
413;15683513000;13041866666;13541866666
414;15683514000;13041866666;13541866666
415;15683515000;13041866666;13541866666
416;15683516000;13041866666;13541866666
417;15885619000;13041877777;13541877777
418;15885626000;13042200000;13542200000
419;15885627000;13042200000;13542200000
420;15885628000;13042200000;13542200000
421;15918922000;13083533333;13583533333
422;15918925000;13083533333;13583533333
423;15918926000;13083533333;13583533333
424;15918936000;13083533333;13583533333
425;15918937000;13083533333;13583533333
426;15918938000;13083533333;13583533333
427;15918939000;13083533333;13583533333
428;15919152000;13083544444;13583544444
429;15919168000;13083833333;13583833333
430;15919169000;13083833333;13583833333
431;15919170000;13083833333;13583833333
432;15948573000;13125211111;13625211111
433;15948576000;13125211111;13625211111
434;15948577000;13125211111;13625211111
436;16033545000;13125211111;13625211111
437;16033547000;13125211111;13625211111
441;16084233000;13125533333;13625533333
489;16286024000;13333533333;13833533333
490;16286028000;13333533333;13833533333
491;16286029000;13333533333;13833533333
492;16286030000;13333533333;13833533333
493;16286031000;13333533333;13833533333
494;16286245000;13333555555;13833555555
495;16286252000;13333855555;13833855555
498;16319617000;13375188888;13875188888
499;16319621000;13375188888;13875188888
500;16319622000;13375188888;13875188888
501;16319623000;13375188888;13875188888
502;16319624000;13375188888;13875188888
503;16319625000;13375188888;13875188888
504;16319626000;13375188888;13875188888
505;16319752000;13375200000;13875200000
506;16319768000;13375477777;13875477777
507;16319769000;13375477777;13875477777
508;16319770000;13375477777;13875477777
509;16349051000;13416855555;13916855555
510;16349055000;13416855555;13916855555
512;16349056000;13416855555;13916855555
513;16349057000;13416855555;13916855555
514;16434050000;13416855555;13916855555
515;16434052000;13416855555;13916855555
516;16484516000;13416866666;13916866666
569;16484532000;13625200000;14125200000
570;16484533000;13625200000;14125200000
571;16686660000;13625211111;14125211111
572;16686677000;13625488888;14125488888
573;16686678000;13625488888;14125488888
574;16686679000;13625488888;14125488888
575;16720002000;13666855555;14166855555
576;16720005000;13666855555;14166855555
577;16720006000;13666855555;14166855555
578;16720007000;13666855555;14166855555
580;16720008000;13666855555;14166855555
581;16720009000;13666855555;14166855555
582;16720208000;13666866666;14166866666
583;16720223000;13667200000;14167200000
584;16720224000;13667200000;14167200000
585;16720226000;13667200000;14167200000
586;16749619000;13708522222;14208522222
587;16749622000;13708522222;14208522222
588;16749623000;13708522222;14208522222
589;16749624000;13708522222;14208522222
590;16749625000;13708522222;14208522222
591;16749626000;13708522222;14208522222
592;16834575000;13708522222;14208522222
593;16885038000;13708533333;14208533333
644;16885060000;13916866666;14416866666
646;17086215000;13916866666;14416866666
647;17086228000;13916866666;14416866666
648;17086431000;13916888888;14416888888
649;17086446000;13917200000;14417200000
650;17086448000;13917200000;14417200000
653;17120561000;13958544444;14458544444
654;17120565000;13958544444;14458544444
655;17120566000;13958544444;14458544444
656;17120567000;13958544444;14458544444
657;17120568000;13958544444;14458544444
658;17120568000;13958544444;14458544444
660;17120579000;13958866666;14458866666
661;17120580000;13958866666;14458866666
663;17153498000;14000200000;14500200000
664;17153502000;14000200000;14500200000
665;17153503000;14000200000;14500200000
666;17153504000;14000200000;14500200000
667;17153504000;14000200000;14500200000
669;17153506000;14000200000;14500200000
670;17153625000;14000211111;14500211111
671;17235094000;14000500000;14500500000
674;17326993000;14041866666;14541866666
724;17487078000;14208522222;14708522222
725;17487300000;14208533333;14708533333
726;17487316000;14208822222;14708822222
727;17487317000;14208822222;14708822222
728;17487319000;14208822222;14708822222
729;17520679000;14250188888;14750188888
730;17520682000;14250188888;14750188888
731;17520683000;14250188888;14750188888
734;17520685000;14250188888;14750188888
735;17520686000;14250188888;14750188888
736;17520893000;14250200000;14750200000
737;17520909000;14250500000;14750500000
738;17520910000;14250500000;14750500000
739;17520911000;14250500000;14750500000
740;17550366000;14291866666;14791866666
741;17550370000;14291866666;14791866666
743;17550379000;14291866666;14791866666
744;17550380000;14291866666;14791866666
745;17550381000;14291866666;14791866666
746;17550382000;14291866666;14791866666
747;17550582000;14291877777;14791877777
748;17635400000;14292200000;14792200000
749;17635403000;14292200000;14792200000
750;17635410000;14292200000;14792200000
751;17727296000;14333533333;14833533333
801;17887337000;14500188888;15000188888
802;17887546000;14500200000;15000200000
803;17887562000;14500511111;15000511111
804;17887563000;14500511111;15000511111
805;17887564000;14500511111;15000511111
806;17920954000;14541855555;15041855555
807;17920958000;14541855555;15041855555
808;17920959000;14541855555;15041855555
809;17920960000;14541855555;15041855555
810;17920961000;14541855555;15041855555
811;17920962000;14541855555;15041855555
812;17920963000;14541855555;15041855555
813;17921171000;14541866666;15041866666
814;17921186000;14542211111;15042211111
815;17921188000;14542211111;15042211111
816;17921189000;14542211111;15042211111
817;17950595000;14583522222;15083522222
818;17950598000;14583522222;15083522222
819;17950599000;14583522222;15083522222
822;17950877000;14583522222;15083522222
823;17950879000;14583522222;15083522222
824;17951063000;14583533333;15083533333
825;17951068000;14583833333;15083833333
830;18086117000;14625188888;15125188888
879;18250591000;14791877777;15291877777
880;18250608000;14792200000;15292200000
881;18250609000;14792200000;15292200000
882;18250610000;14792200000;15292200000
883;18287415000;14833533333;15333533333
884;18287419000;14833533333;15333533333
885;18287420000;14833533333;15333533333
886;18287421000;14833533333;15333533333
887;18287422000;14833533333;15333533333
888;18287423000;14833533333;15333533333
889;18287424000;14833533333;15333533333
890;18287616000;14833544444;15333544444
891;18287619000;14833833333;15333833333
892;18287620000;14833833333;15333833333
893;18287621000;14833833333;15333833333
894;18321637000;14875188888;15375188888
895;18321641000;14875188888;15375188888
896;18321642000;14875188888;15375188888
897;18321643000;14875188888;15375188888
898;18321644000;14875188888;15375188888
899;18321645000;14875188888;15375188888
900;18321646000;14875188888;15375188888
905;18527975000;14916855555;15416855555
952;18689321000;15083533333;15583533333
953;18689325000;15083533333;15583533333
954;18689326000;15083533333;15583533333
955;18689327000;15083533333;15583533333
961;18727304000;15125200000;15625200000
962;18727307000;15125200000;15625200000
964;18727309000;15125200000;15625200000
965;18727310000;15125200000;15625200000
966;18727311000;15125200000;15625200000
967;18727406000;15125222222;15625222222
968;18727421000;15125522222;15625522222
969;18727422000;15125522222;15625522222
970;18727423000;15125522222;15625522222
971;18756451000;15166866666;15666866666
972;18756454000;15166866666;15666866666
973;18756455000;15166866666;15666866666
974;18756457000;15166866666;15666866666
975;18756457000;15166866666;15666866666
976;18756458000;15166866666;15666866666
977;18756459000;15166866666;15666866666
978;18756658000;15166877777;15666877777
980;18756673000;15167188888;15667188888
981;18836346000;15167188888;15667188888
982;18886694000;15208533333;15708533333
1036;19051111000;15375500000;15875500000
1037;19088021000;15416855555;15916855555
1038;19088024000;15416855555;15916855555
1039;19088025000;15416855555;15916855555
1040;19088026000;15416855555;15916855555
1041;19088027000;15416855555;15916855555
1042;19088028000;15416855555;15916855555
1043;19088029000;15416855555;15916855555
1044;19088245000;15416866666;15916866666
1045;19088260000;15417211111;15917211111
1046;19088262000;15417211111;15917211111
1047;19088263000;15417211111;15917211111
1048;19122245000;15458522222;15958522222
1049;19122249000;15458522222;15958522222
1050;19122250000;15458522222;15958522222
1051;19122251000;15458522222;15958522222
1053;19122339000;15458522222;15958522222
1054;19122341000;15458522222;15958522222
1056;19122456000;15458822222;15958822222
1057;19122460000;15458822222;15958822222
1058;19122461000;15458822222;15958822222
1059;19155159000;15500200000;16000200000
1060;19236834000;15500200000;16000200000
1061;19236837000;15500200000;16000200000
1062;19236838000;15500200000;16000200000
1064;19236891000;15500200000;16000200000
1065;19236893000;15500200000;16000200000
1066;19287286000;15500211111;16000211111
1113;19287293000;15667177777;16167177777
1114;19489357000;15708522222;16208522222
1115;19489360000;15708522222;16208522222
1116;19489361000;15708522222;16208522222
1117;19489362000;15708522222;16208522222
1118;19489363000;15708522222;16208522222
1119;19489364000;15708522222;16208522222
1120;19489365000;15708522222;16208522222
1122;19489479000;15708833333;16208833333
1125;19524741000;15750188888;16250188888
1126;19524745000;15750188888;16250188888
1127;19524746000;15750188888;16250188888
1128;19524747000;15750188888;16250188888
1129;19524748000;15750188888;16250188888
1130;19524749000;15750188888;16250188888
1131;19524750000;15750188888;16250188888
1132;19524848000;15750200000;16250200000
1133;19524863000;15750500000;16250500000
1134;19524865000;15750500000;16250500000
1135;19524866000;15750500000;16250500000
1136;19554251000;15791855555;16291855555
1137;19554254000;15791855555;16291855555
1138;19554255000;15791855555;16291855555
1139;19637312000;15791855555;16291855555
1140;19637317000;15791855555;16291855555
1141;19637321000;15791855555;16291855555
1142;19637336000;15791855555;16291855555
1143;19687829000;15791866666;16291866666
1193;19687844000;16000200000;16500200000
1194;19687845000;16000200000;16500200000
1195;19687846000;16000200000;16500200000
1196;19687847000;16000200000;16500200000
1197;19687848000;16000200000;16500200000
1198;19889930000;16000211111;16500211111
1199;19889946000;16000488888;16500488888
1200;19889947000;16000488888;16500488888
1201;19889948000;16000488888;16500488888
1202;19923228000;16041866666;16541866666
1203;19923231000;16041866666;16541866666
1204;19923232000;16041866666;16541866666
1205;19923233000;16041866666;16541866666
1207;19923234000;16041866666;16541866666
1208;19923236000;16041866666;16541866666
1209;19923441000;16041877777;16541877777
1210;19923457000;16042188888;16542188888
1212;19923458000;16042188888;16542188888
1213;19952857000;16083522222;16583522222
1214;19952860000;16083522222;16583522222
1215;19952862000;16083522222;16583522222
1216;19952863000;16083522222;16583522222
1217;19952863000;16083522222;16583522222
1218;20037810000;16083522222;16583522222
1219;20037812000;16083522222;16583522222
1220;20088296000;16083533333;16583533333
1690;20088311000;17875200000;18375200000
1693;20130098000;17875211111;18375211111
1694;20130113000;17875477777;18375477777
1695;20130115000;17875477777;18375477777
1696;20130116000;17875477777;18375477777
1697;20171490000;17916866666;18416866666
1698;20171493000;17916866666;18416866666
1699;20171494000;17916866666;18416866666
1700;20171495000;17916866666;18416866666
1701;20171496000;17916866666;18416866666
1702;20171497000;17916866666;18416866666
1703;20171498000;17916866666;18416866666
1704;20171697000;17916877777;18416877777
1705;20171712000;17917200000;18417200000
1706;20171713000;17917200000;18417200000
1707;20171714000;17917200000;18417200000
1708;20212430000;17958533333;18458533333
1709;20212433000;17958533333;18458533333
1710;20212434000;17958533333;18458533333
1711;20212435000;17958533333;18458533333
1713;20212436000;17958533333;18458533333
1714;20212437000;17958533333;18458533333
1715;20488760000;17958555555;18458555555
1767;20488775000;18166855555;18666855555
1769;20689896000;18166855555;18666855555
1770;20690103000;18166866666;18666866666
1771;20690118000;18167188888;18667188888
1772;20690119000;18167188888;18667188888
1773;20690120000;18167188888;18667188888
1774;20724197000;18208522222;18708522222
1775;20724200000;18208522222;18708522222
1776;20724201000;18208522222;18708522222
1780;20724202000;18208522222;18708522222
1781;20724401000;18208533333;18708533333
1783;20724416000;18208822222;18708822222
1784;20724417000;18208822222;18708822222
1785;20753823000;18250188888;18750188888
1786;20753826000;18250188888;18750188888
1787;20753827000;18250188888;18750188888
1788;20753828000;18250188888;18750188888
1789;20753837000;18250188888;18750188888
1790;20753838000;18250188888;18750188888
1791;20753839000;18250188888;18750188888
1792;20754037000;18250200000;18750200000
1793;20754059000;18250500000;18750500000
1794;20838607000;18250500000;18750500000
1795;20838609000;18250500000;18750500000
1796;20888945000;18291866666;18791866666
1850;21053341000;18458811111;18958811111
1851;21090250000;18500188888;19000188888
1852;21090254000;18500188888;19000188888
1853;21090255000;18500188888;19000188888
1854;21090256000;18500188888;19000188888
1855;21090257000;18500188888;19000188888
1856;21090258000;18500188888;19000188888
1857;21090259000;18500188888;19000188888
1858;21090382000;18500200000;19000200000
1859;21090388000;18500477777;19000477777
1860;21090389000;18500477777;19000477777
1861;21090390000;18500477777;19000477777
1862;21124480000;18541855555;19041855555
1863;21124484000;18541855555;19041855555
1864;21124485000;18541855555;19041855555
1865;21124486000;18541855555;19041855555
1866;21124487000;18541855555;19041855555
1867;21124488000;18541855555;19041855555
1868;21124489000;18541855555;19041855555
1869;21124593000;18541866666;19041866666
1870;21124598000;18542177777;19042177777
1871;21124599000;18542177777;19042177777
1872;21124600000;18542177777;19042177777
1873;21289224000;18583522222;19083522222
1929;21491754000;18791866666;19291866666
1931;21491758000;18791866666;19291866666
1932;21491759000;18791866666;19291866666
1933;21491760000;18791866666;19291866666
1934;21491761000;18791866666;19291866666
1935;21491885000;18791877777;19291877777
1936;21491891000;18792177777;19292177777
1937;21491892000;18792177777;19292177777
1938;21491893000;18792177777;19292177777
1939;21525140000;18833533333;19333533333
1940;21525143000;18833533333;19333533333
1941;21525144000;18833533333;19333533333
1942;21525145000;18833533333;19333533333
1943;21525146000;18833533333;19333533333
1944;21525147000;18833533333;19333533333
1945;21525148000;18833533333;19333533333
1946;21525272000;18833544444;19333544444
1947;21525278000;18833811111;19333811111
1948;21525279000;18833811111;19333811111
1949;21525280000;18833811111;19333811111
1950;21554726000;18875188888;19375188888
1951;21554729000;18875188888;19375188888
1952;21639126000;18875188888;19375188888
1953;21639129000;18875188888;19375188888
1954;21639130000;18875188888;19375188888
1955;21639132000;18875188888;19375188888
1956;21639148000;18875188888;19375188888
1957;21689526000;18875200000;19375200000
2006;21689532000;19083533333;19583533333
2007;21689533000;19083533333;19583533333
2010;21891421000;19083533333;19583533333
2011;21891423000;19083533333;19583533333
2012;21891539000;19083555555;19583555555
2013;21891545000;19083855555;19583855555
2014;21891546000;19083855555;19583855555
2015;21891547000;19083855555;19583855555
2016;21925444000;19125200000;19625200000
2017;21925447000;19125200000;19625200000
2019;21925449000;19125200000;19625200000
2020;21925450000;19125200000;19625200000
2021;21925451000;19125200000;19625200000
2022;21925451000;19125200000;19625200000
2023;21925576000;19125222222;19625222222
2024;21925581000;19125500000;19625500000
2025;21925582000;19125500000;19625500000
2026;21925583000;19125500000;19625500000
2027;21955075000;19166866666;19666866666
2028;21955088000;19166866666;19666866666
2029;21955089000;19166866666;19666866666
2031;22039435000;19166866666;19666866666
2032;22039440000;19166866666;19666866666
2033;22039461000;19166866666;19666866666
2034;22089851000;19166877777;19666877777
2083;22089857000;19375188888;19875188888
2084;22089859000;19375188888;19875188888
2085;22089860000;19375188888;19875188888
2086;22089861000;19375188888;19875188888
2087;22089862000;19375188888;19875188888
2088;22089872000;19375188888;19875188888
2089;22292378000;19375200000;19875200000
2090;22292385000;19375466666;19875466666
2091;22292386000;19375466666;19875466666
2092;22292387000;19375466666;19875466666
2094;22325978000;19416855555;19916855555
2096;22325982000;19416855555;19916855555
2099;22325992000;19416855555;19916855555
2100;22326076000;19416866666;19916866666
2101;22326081000;19417177777;19917177777
2102;22326090000;19417177777;19917177777
2103;22326091000;19417177777;19917177777
2104;22355334000;19458522222;19958522222
2105;22355338000;19458522222;19958522222
2106;22355339000;19458522222;19958522222
2107;22355340000;19458522222;19958522222
2108;22355341000;19458522222;19958522222
2109;22439658000;19458522222;19958522222
2110;22439660000;19458522222;19958522222
2111;22490031000;19458533333;19958533333
2165;22490037000;19666855555;20166855555
2166;22692301000;19666866666;20166866666
2167;22692308000;19667200000;20167200000
2170;22725710000;19708522222;20208522222
2171;22725713000;19708522222;20208522222
2172;22725714000;19708522222;20208522222
2173;22725715000;19708522222;20208522222
2174;22725716000;19708522222;20208522222
2175;22725717000;19708522222;20208522222
2176;22725718000;19708522222;20208522222
2177;22725799000;19708533333;20208533333
2179;22725805000;19708844444;20208844444
2180;22725806000;19708844444;20208844444
2181;22755278000;19750188888;20250188888
2182;22755281000;19750188888;20250188888
2183;22755282000;19750188888;20250188888
2184;22755283000;19750188888;20250188888
2185;22755284000;19750188888;20250188888
2186;22755285000;19750188888;20250188888
2187;22755286000;19750188888;20250188888
2188;22890318000;19750200000;20250200000
2353;23365347000;20375211111;20875211111
2431;23365356000;20667211111;21167211111
2432;23365357000;20667211111;21167211111
2433;23365358000;20667211111;21167211111
2434;23365422000;20708533333;21208533333
2435;23365424000;20708533333;21208533333
2436;23365435000;20708533333;21208533333
2437;23365436000;20708533333;21208533333
2438;23365436000;20708533333;21208533333
2439;23365438000;20708533333;21208533333
2440;23365438000;20708533333;21208533333
2442;23365449000;20708844444;21208844444
2443;23365450000;20708844444;21208844444
2444;23365461000;20708844444;21208844444
2445;23365465000;20750200000;21250200000
2447;23365466000;20750200000;21250200000
2448;23365467000;20750200000;21250200000
2449;23365468000;20750200000;21250200000
2451;23365469000;20750200000;21250200000
2452;23365521000;20750211111;21250211111
2453;23365526000;20750511111;21250511111
2454;23365527000;20750511111;21250511111
2455;23365528000;20750511111;21250511111
2456;23690835000;20791866666;21291866666
2512;23892957000;21000200000;21500200000
2513;23892961000;21000200000;21500200000
2514;23892962000;21000200000;21500200000
2515;23892963000;21000200000;21500200000
2516;23892964000;21000200000;21500200000
2517;23892965000;21000200000;21500200000
2518;23893097000;21000211111;21500211111
2519;23893102000;21000500000;21500500000
2520;23893103000;21000500000;21500500000
2521;23893105000;21000500000;21500500000
2522;23926359000;21041866666;21541866666
2523;23926363000;21041866666;21541866666
2524;23926364000;21041866666;21541866666
2525;23926365000;21041866666;21541866666
2526;23926366000;21041866666;21541866666
2527;23926367000;21041866666;21541866666
2528;23926368000;21041866666;21541866666
2529;23926482000;21041877777;21541877777
2530;23926487000;21042200000;21542200000
2531;23926489000;21042200000;21542200000
2532;23926489000;21042200000;21542200000
2533;23955991000;21083544444;21583544444
2534;23955993000;21083544444;21583544444
2535;24041029000;21083544444;21583544444
2536;24041038000;21083544444;21583544444
2537;24041091000;21083544444;21583544444
2538;24041093000;21083544444;21583544444
2539;24041095000;21083544444;21583544444
2540;24091463000;21083555555;21583555555
2590;24091469000;21291855555;21791855555
2591;24091470000;21291855555;21791855555
2592;24091471000;21291855555;21791855555
2593;24091472000;21291855555;21791855555
2594;24091473000;21291855555;21791855555
2596;24292755000;21292200000;21792200000
2597;24292767000;21292200000;21792200000
2598;24292768000;21292200000;21792200000
2599;24328890000;21333522222;21833522222
2600;24328894000;21333522222;21833522222
2601;24328895000;21333522222;21833522222
2602;24328896000;21333522222;21833522222
2603;24328897000;21333522222;21833522222
2604;24328898000;21333522222;21833522222
2605;24328899000;21333522222;21833522222
2606;24329002000;21333533333;21833533333
2607;24329029000;21333844444;21833844444
2608;24329030000;21333844444;21833844444
2609;24329031000;21333844444;21833844444
2610;24358425000;21375188888;21875188888
2611;24358429000;21375188888;21875188888
2612;24358430000;21375188888;21875188888
2613;24358431000;21375188888;21875188888
2614;24441294000;21375188888;21875188888
2615;24441300000;21375188888;21875188888
2616;24441355000;21375188888;21875188888
2617;24491738000;21375200000;21875200000
2664;24656063000;21542200000;22042200000
2667;24693051000;21583533333;22083533333
2668;24693054000;21583533333;22083533333
2669;24693055000;21583533333;22083533333
2670;24693056000;21583533333;22083533333
2671;24693057000;21583533333;22083533333
2672;24693137000;21583544444;22083544444
2673;24693142000;21583811111;22083811111
2674;24693144000;21583811111;22083811111
2675;24693144000;21583811111;22083811111
2676;24727231000;21625200000;22125200000
2677;24727234000;21625200000;22125200000
2678;24727235000;21625200000;22125200000
2679;24727236000;21625200000;22125200000
2682;24727238000;21625200000;22125200000
2683;24727358000;21625211111;22125211111
2684;24727363000;21625477777;22125477777
2685;24727364000;21625477777;22125477777
2686;24727365000;21625477777;22125477777
2687;24756868000;21666866666;22166866666
2688;24756871000;21666866666;22166866666
2690;24756872000;21666866666;22166866666
2691;24756873000;21666866666;22166866666
2693;24841613000;21666866666;22166866666
2694;24891979000;21666877777;22166877777
2747;24891985000;21875222222;22375222222
2748;24891986000;21875222222;22375222222
2749;25095276000;21875233333;22375233333
2750;25095283000;21875500000;22375500000
2751;25095284000;21875500000;22375500000
2752;25095285000;21875500000;22375500000
2753;25128560000;21916866666;22416866666
2755;25128735000;21916866666;22416866666
2756;25128746000;21916866666;22416866666
2757;25128747000;21916866666;22416866666
2758;25128748000;21916866666;22416866666
2759;25128749000;21916866666;22416866666
2760;25128864000;21916877777;22416877777
2761;25128869000;21917177777;22417177777
2762;25128870000;21917177777;22417177777
2763;25128871000;21917177777;22417177777
2764;25158161000;21958533333;22458533333
2765;25158165000;21958533333;22458533333
2767;25158166000;21958533333;22458533333
2768;25158167000;21958533333;22458533333
2769;25158168000;21958533333;22458533333
2770;25158169000;21958533333;22458533333
2771;25292454000;21958544444;22458544444
2825;25292460000;22166855555;22666855555
2826;25494705000;22166866666;22666866666
2827;25494711000;22167155555;22667155555
2828;25494713000;22167155555;22667155555
2829;25494714000;22167155555;22667155555
2830;25528040000;22208522222;22708522222
2832;25528197000;22208522222;22708522222
2833;25528200000;22208522222;22708522222
2834;25528201000;22208522222;22708522222
2835;25528202000;22208522222;22708522222
2838;25528265000;22208800000;22708800000
2839;25528268000;22208800000;22708800000
2840;25528269000;22208800000;22708800000
2841;25560945000;22250188888;22750188888
2842;25560949000;22250188888;22750188888
2843;25560949000;22250188888;22750188888
2844;25560950000;22250188888;22750188888
2845;25560951000;22250188888;22750188888
2846;25560952000;22250188888;22750188888
2847;25560953000;22250188888;22750188888
2848;25561085000;22250200000;22750200000
2849;25561091000;22250477777;22750477777
2850;25642448000;22250477777;22750477777
2851;25642450000;22250477777;22750477777
2852;25692796000;22291866666;22791866666
2903;25857355000;22458544444;22958544444
2904;25857363000;22458811111;22958811111
2905;25857364000;22458811111;22958811111
2906;25857365000;22458811111;22958811111
2907;25894212000;22500200000;23000200000
2908;25894216000;22500200000;23000200000
2909;25894217000;22500200000;23000200000
2910;25894218000;22500200000;23000200000
2911;25894219000;22500200000;23000200000
2912;25894220000;22500200000;23000200000
2913;25894221000;22500200000;23000200000
2914;25894331000;22500222222;23000222222
2915;25894337000;22500488888;23000488888
2916;25894339000;22500488888;23000488888
2917;25894340000;22500488888;23000488888
2918;25928420000;22541855555;23041855555
2919;25928424000;22541855555;23041855555
2920;25928425000;22541855555;23041855555
2921;25928426000;22541855555;23041855555
2922;25928427000;22541855555;23041855555
2923;25928428000;22541855555;23041855555
2927;25928858000;22542166666;23042166666
2928;25928861000;22542166666;23042166666
2929;26092998000;22583522222;23083522222
3193;26809265000;23583533333;24083533333
3270;26809337000;23875222222;24375222222
3271;26809339000;23875222222;24375222222
3272;26809340000;23875222222;24375222222
3273;26809341000;23875222222;24375222222
3274;26809342000;23875222222;24375222222
3275;26809343000;23875222222;24375222222
3276;26809344000;23875222222;24375222222
3277;26809412000;23875233333;24375233333
3278;26809417000;23875488888;24375488888
3279;26809418000;23875488888;24375488888
3280;26809419000;23875488888;24375488888
3281;26809427000;23916866666;24416866666
3282;26809428000;23916866666;24416866666
3283;26809429000;23916866666;24416866666
3284;26809440000;23916866666;24416866666
3285;26809441000;23916866666;24416866666
3286;26809441000;23916866666;24416866666
3288;26809492000;23916877777;24416877777
3289;26809497000;23917177777;24417177777
3290;26809498000;23917177777;24417177777
3291;26809499000;23917177777;24417177777
3292;26809506000;23958533333;24458533333
3293;26809508000;23958533333;24458533333
3294;26809518000;23958533333;24458533333
3295;26809519000;23958533333;24458533333
3296;26843290000;23958533333;24458533333
3297;26843357000;23958533333;24458533333
3298;26843359000;23958533333;24458533333
3301;26893658000;23958833333;24458833333
3349;27095484000;24166855555;24666855555
3352;27095488000;24166855555;24666855555
3353;27095489000;24166855555;24666855555
3354;27095603000;24166866666;24666866666
3355;27095608000;24167166666;24667166666
3356;27095609000;24167166666;24667166666
3357;27095610000;24167166666;24667166666
3358;27128912000;24208522222;24708522222
3360;27128916000;24208522222;24708522222
3361;27128917000;24208522222;24708522222
3362;27128918000;24208522222;24708522222
3364;27128919000;24208522222;24708522222
3365;27129052000;24208533333;24708533333
3366;27129067000;24208811111;24708811111
3367;27129068000;24208811111;24708811111
3368;27129069000;24208811111;24708811111
3369;27158549000;24250188888;24750188888
3370;27158552000;24250188888;24750188888
3371;27158553000;24250188888;24750188888
3372;27158554000;24250188888;24750188888
3373;27158555000;24250188888;24750188888
3374;27158556000;24250188888;24750188888
3375;27243550000;24250188888;24750188888
3378;27293895000;24250488888;24750488888
3428;27495745000;24458533333;24958533333
3429;27495749000;24458533333;24958533333
3430;27495751000;24458533333;24958533333
3431;27495870000;24458544444;24958544444
3432;27495876000;24458833333;24958833333
3433;27495877000;24458833333;24958833333
3434;27495878000;24458833333;24958833333
3435;27529137000;24500188888;25000188888
3436;27529141000;24500188888;25000188888
3437;27529142000;24500188888;25000188888
3438;27529143000;24500188888;25000188888
3439;27529144000;24500188888;25000188888
3440;27529145000;24500188888;25000188888
3442;27529629000;24500211111;25000211111
3443;27529635000;24500488888;25000488888
3444;27529636000;24500488888;25000488888
3445;27529637000;24500488888;25000488888
3446;27558804000;24541855555;25041855555
3447;27558807000;24541855555;25041855555
3448;27558808000;24541855555;25041855555
3451;27558809000;24541855555;25041855555
3452;27558810000;24541855555;25041855555
3453;27558905000;24541866666;25041866666
3454;27643815000;24542188888;25042188888
3455;27643818000;24542188888;25042188888
3456;27643819000;24542188888;25042188888
3457;27735658000;24583522222;25083522222
3507;27895613000;24750200000;25250200000
3508;27895822000;24750222222;25250222222
3509;27895837000;24750533333;25250533333
3510;27895838000;24750533333;25250533333
3511;27895839000;24750533333;25250533333
3512;27929391000;24791866666;25291866666
3513;27929394000;24791866666;25291866666
3514;27929395000;24791866666;25291866666
3515;27929396000;24791866666;25291866666
3516;27929397000;24791866666;25291866666
3517;27929407000;24791866666;25291866666
3518;27929408000;24791866666;25291866666
3519;27929614000;24791877777;25291877777
3520;27929630000;24792188888;25292188888
3521;27929631000;24792188888;25292188888
3522;27929632000;24792188888;25292188888
3523;27959053000;24833533333;25333533333
3524;27959057000;24833533333;25333533333
3525;27959058000;24833533333;25333533333
3527;27959059000;24833533333;25333533333
3528;27959060000;24833533333;25333533333
3529;27959061000;24833533333;25333533333
3532;27959174000;24833822222;25333822222
3533;28044141000;24833822222;25333822222
3534;28094534000;24875188888;25375188888
3585;28259010000;25041877777;25541877777
3586;28259026000;25042188888;25542188888
3588;28259028000;25042188888;25542188888
3589;28295844000;25083544444;25583544444
3590;28295847000;25083544444;25583544444
3591;28295848000;25083544444;25583544444
3592;28295849000;25083544444;25583544444
3593;28295850000;25083544444;25583544444
3594;28295852000;25083544444;25583544444
3595;28295852000;25083544444;25583544444
3597;28295968000;25083833333;25583833333
3598;28295972000;25083833333;25583833333
3599;28295973000;25083833333;25583833333
3600;28332025000;25125200000;25625200000
3601;28332029000;25125200000;25625200000
3602;28332030000;25125200000;25625200000
3604;28332031000;25125200000;25625200000
3606;28332032000;25125200000;25625200000
3607;28332228000;25125211111;25625211111
3608;28332234000;25125511111;25625511111
3609;28332236000;25125511111;25625511111
3610;28332237000;25125511111;25625511111
3611;28361579000;25166877777;25666877777
3612;28444418000;25166877777;25666877777
3613;28444420000;25166877777;25666877777
3614;28444421000;25166877777;25666877777
3615;28444438000;25166877777;25666877777
3616;28444445000;25166877777;25666877777
3617;28444451000;25166877777;25666877777
3618;28494918000;25166888888;25666888888
3668;28696695000;25375188888;25875188888
3670;28696708000;25375188888;25875188888
3671;28696709000;25375188888;25875188888
3672;28696710000;25375188888;25875188888
3673;28696911000;25375200000;25875200000
3674;28696926000;25375500000;25875500000
3675;28696927000;25375500000;25875500000
3676;28696928000;25375500000;25875500000
3677;28730751000;25416855555;25916855555
3678;28730754000;25416855555;25916855555
3679;28730755000;25416855555;25916855555
3680;28730756000;25416855555;25916855555
3681;28730757000;25416855555;25916855555
3682;28730758000;25416855555;25916855555
3683;28730759000;25416855555;25916855555
3684;28730958000;25416866666;25916866666
3685;28730973000;25417188888;25917188888
3686;28730974000;25417188888;25917188888
3687;28730975000;25417188888;25917188888
3689;28760612000;25458533333;25958533333
3690;28760616000;25458533333;25958533333
3691;28844697000;25458533333;25958533333
3692;28844699000;25458533333;25958533333
3693;28844708000;25458533333;25958533333
3694;28844714000;25458533333;25958533333
3695;28895195000;25458544444;25958544444
3747;28895210000;25666855555;26166855555
3748;28895211000;25666855555;26166855555
3749;28895212000;25666855555;26166855555
3750;29097727000;25666866666;26166866666
3751;29097742000;25667166666;26167166666
3752;29097744000;25667166666;26167166666
3753;29097745000;25667166666;26167166666
3754;29131013000;25708522222;26208522222
3756;29131107000;25708522222;26208522222
3757;29131109000;25708522222;26208522222
3758;29131110000;25708522222;26208522222
3759;29131111000;25708522222;26208522222
3760;29131112000;25708522222;26208522222
3761;29131320000;25708533333;26208533333
3762;29131335000;25708811111;26208811111
3763;29131337000;25708811111;26208811111
3764;29131338000;25708811111;26208811111
3765;29160566000;25750188888;26250188888
3766;29160568000;25750188888;26250188888
3767;29160569000;25750188888;26250188888
3768;29160570000;25750188888;26250188888
3769;29160571000;25750188888;26250188888
3770;29245180000;25750188888;26250188888
3771;29245185000;25750188888;26250188888
3772;29295650000;25750200000;26250200000
4041;29295666000;26791866666;27291866666
4046;29645665000;26791866666;27291866666
4049;30028335000;26792177777;27292177777
4122;30028451000;27083533333;27583533333
4123;30028465000;27083533333;27583533333
4125;30029960000;27083833333;27583833333
4128;30029967000;27125200000;27625200000
4129;30029968000;27125200000;27625200000
4130;30029969000;27125200000;27625200000
4131;30029970000;27125200000;27625200000
4132;30029970000;27125200000;27625200000
4133;30029972000;27125200000;27625200000
4134;30029972000;27125200000;27625200000
4135;30030070000;27125211111;27625211111
4136;30030076000;27125488888;27625488888
4137;30030078000;27125488888;27625488888
4138;30030079000;27125488888;27625488888
4139;30030100000;27166866666;27666866666
4140;30030101000;27166866666;27666866666
4141;30030102000;27166866666;27666866666
4142;30030103000;27166866666;27666866666
4143;30030104000;27166866666;27666866666
4144;30030105000;27166866666;27666866666
4145;30030106000;27166866666;27666866666
4146;30030202000;27166888888;27666888888
4147;30046162000;27167177777;27667177777
4148;30046165000;27167177777;27667177777
4149;30046166000;27167177777;27667177777
4150;30138068000;27208533333;27708533333
4198;30299154000;27375188888;27875188888
4199;30299157000;27375188888;27875188888
4201;30299364000;27375200000;27875200000
4202;30299379000;27375466666;27875466666
4203;30299381000;27375466666;27875466666
4204;30299381000;27375466666;27875466666
4205;30332734000;27416855555;27916855555
4206;30332737000;27416855555;27916855555
4207;30332738000;27416855555;27916855555
4208;30332739000;27416855555;27916855555
4209;30332740000;27416855555;27916855555
4210;30332741000;27416855555;27916855555
4211;30332742000;27416855555;27916855555
4213;30332855000;27417200000;27917200000
4214;30332859000;27417200000;27917200000
4215;30332860000;27417200000;27917200000
4216;30365628000;27458522222;27958522222
4217;30365631000;27458522222;27958522222
4218;30365632000;27458522222;27958522222
4219;30365633000;27458522222;27958522222
4221;30365635000;27458522222;27958522222
4222;30365635000;27458522222;27958522222
4223;30497117000;27458533333;27958533333
4277;30497132000;27666866666;28166866666
4278;30699258000;27666877777;28166877777
4279;30699273000;27667188888;28167188888
4280;30699274000;27667188888;28167188888
4281;30699275000;27667188888;28167188888
4282;30732541000;27708522222;28208522222
4283;30732545000;27708522222;28208522222
4284;30732546000;27708522222;28208522222
4285;30732547000;27708522222;28208522222
4286;30732548000;27708522222;28208522222
4288;30732658000;27708522222;28208522222
4289;30732874000;27708533333;28208533333
4290;30732889000;27708822222;28208822222
4291;30732890000;27708822222;28208822222
4292;30732891000;27708822222;28208822222
4294;30762226000;27750188888;28250188888
4295;30762230000;27750188888;28250188888
4296;30762231000;27750188888;28250188888
4297;30762232000;27750188888;28250188888
4298;30762233000;27750188888;28250188888
4299;30762234000;27750188888;28250188888
4300;30762352000;27750200000;28250200000
4301;30762368000;27750500000;28250500000
4302;30847163000;27750500000;28250500000
4303;30847170000;27750500000;28250500000
4307;30897564000;27791855555;28291855555
4356;31061962000;27958833333;28458833333
4357;31061966000;27958833333;28458833333
4358;31061967000;27958833333;28458833333
4359;31098863000;28000188888;28500188888
4360;31098866000;28000188888;28500188888
4363;31098868000;28000188888;28500188888
4364;31098869000;28000188888;28500188888
4365;31098869000;28000188888;28500188888
4366;31099085000;28000200000;28500200000
4367;31099100000;28000488888;28500488888
4368;31099101000;28000488888;28500488888
4369;31099102000;28000488888;28500488888
4370;31133110000;28041866666;28541866666
4371;31133113000;28041866666;28541866666
4372;31133114000;28041866666;28541866666
4373;31133115000;28041866666;28541866666
4375;31133116000;28041866666;28541866666
4376;31133118000;28041866666;28541866666
4377;31133324000;28041877777;28541877777
4378;31133340000;28042211111;28542211111
4379;31133341000;28042211111;28542211111
4380;31133342000;28042211111;28542211111
4381;31298005000;28083522222;28583522222
4432;31462471000;28250200000;28750200000
4433;31462487000;28250488888;28750488888
4434;31462488000;28250488888;28750488888
4435;31462497000;28250488888;28750488888
4436;31499306000;28291866666;28791866666
4438;31499310000;28291866666;28791866666
4439;31499311000;28291866666;28791866666
4440;31499312000;28291866666;28791866666
4441;31499313000;28291866666;28791866666
4442;31499314000;28291866666;28791866666
4445;31499428000;28292200000;28792200000
4446;31499432000;28292200000;28792200000
4447;31535505000;28333533333;28833533333
4448;31535508000;28333533333;28833533333
4449;31535509000;28333533333;28833533333
4450;31535510000;28333533333;28833533333
4451;31535511000;28333533333;28833533333
4452;31535512000;28333533333;28833533333
4453;31535513000;28333533333;28833533333
4455;31535627000;28333844444;28833844444
4456;31535630000;28333844444;28833844444
4458;31568430000;28375200000;28875200000
4459;31568433000;28375200000;28875200000
4460;31648175000;28375200000;28875200000
4461;31648178000;28375200000;28875200000
4462;31648179000;28375200000;28875200000
4463;31648180000;28375200000;28875200000
4464;31648190000;28375200000;28875200000
4465;31698668000;28375211111;28875211111
4514;31698683000;28583522222;29083522222
4515;31698684000;28583522222;29083522222
4516;31698685000;28583522222;29083522222
4517;31698686000;28583522222;29083522222
4518;31698687000;28583522222;29083522222
4519;31698688000;28583522222;29083522222
4520;31900770000;28583533333;29083533333
4521;31900786000;28583800000;29083800000
4522;31900787000;28583800000;29083800000
4523;31900788000;28583800000;29083800000
4524;31934065000;28625188888;29125188888
4525;31934069000;28625188888;29125188888
4527;31934171000;28625188888;29125188888
4528;31934174000;28625188888;29125188888
4529;31934175000;28625188888;29125188888
4530;31934176000;28625188888;29125188888
4531;31934384000;28625200000;29125200000
4532;31934399000;28625455555;29125455555
4533;31934400000;28625455555;29125455555
4535;31963706000;28666855555;29166855555
4536;31963709000;28666855555;29166855555
4537;31963710000;28666855555;29166855555
4538;31963711000;28666855555;29166855555
4539;32048637000;28666855555;29166855555
4540;32048642000;28666855555;29166855555
4541;32048647000;28666855555;29166855555
4542;32099112000;28666866666;29166866666
4594;32099128000;28875188888;29375188888
4595;32099129000;28875188888;29375188888
4596;32099130000;28875188888;29375188888
4597;32301231000;28875200000;29375200000
4598;32301247000;28875444444;29375444444
4599;32301248000;28875444444;29375444444
4600;32301249000;28875444444;29375444444
4601;32334471000;28916855555;29416855555
4602;32334484000;28916855555;29416855555
4603;32334486000;28916855555;29416855555
4605;32334628000;28916855555;29416855555
4606;32334630000;28916855555;29416855555
4607;32334631000;28916855555;29416855555
4608;32334842000;28916866666;29416866666
4609;32334857000;28917155555;29417155555
4610;32334858000;28917155555;29417155555
4611;32334859000;28917155555;29417155555
4612;32364174000;28958522222;29458522222
4613;32364177000;28958522222;29458522222
4614;32364178000;28958522222;29458522222
4615;32364179000;28958522222;29458522222
4616;32364180000;28958522222;29458522222
4617;32364181000;28958522222;29458522222
4618;32449134000;28958522222;29458522222
4619;32499610000;28958533333;29458533333
4883;33233914000;29958555555;30458555555
4958;33233929000;30250188888;30750188888
4959;33233930000;30250188888;30750188888
4960;33234145000;30250200000;30750200000
4961;33234161000;30250500000;30750500000
4962;33234162000;30250500000;30750500000
4963;33234163000;30250500000;30750500000
4964;33234177000;30291866666;30791866666
4965;33234179000;30291866666;30791866666
4966;33234180000;30291866666;30791866666
4967;33234181000;30291866666;30791866666
4968;33234182000;30291866666;30791866666
4969;33234183000;30291866666;30791866666
4970;33234184000;30291866666;30791866666
4971;33234281000;30291888888;30791888888
4972;33234297000;30292222222;30792222222
4975;33234309000;30333544444;30833544444
4976;33234311000;30333544444;30833544444
4978;33234312000;30333544444;30833544444
4979;33234313000;30333544444;30833544444
4980;33234314000;30333544444;30833544444
4981;33234315000;30333544444;30833544444
4982;33234422000;30333566666;30833566666
4983;33234437000;30333933333;30833933333
4987;33234450000;30375200000;30875200000
4988;33250134000;30375200000;30875200000
4989;33250137000;30375200000;30875200000
4990;33250138000;30375200000;30875200000
4991;33250140000;30375200000;30875200000
4992;33250149000;30375200000;30875200000
4993;33300624000;30375211111;30875211111
5040;33300630000;30542188888;31042188888
5041;33502620000;30583533333;31083533333
5042;33502624000;30583533333;31083533333
5043;33502625000;30583533333;31083533333
5044;33502627000;30583533333;31083533333
5045;33502627000;30583533333;31083533333
5046;33502629000;30583533333;31083533333
5047;33502630000;30583533333;31083533333
5048;33502753000;30583544444;31083544444
5049;33502758000;30583822222;31083822222
5050;33502759000;30583822222;31083822222
5051;33502760000;30583822222;31083822222
5052;33536031000;30625200000;31125200000
5053;33536035000;30625200000;31125200000
5054;33536036000;30625200000;31125200000
5055;33536037000;30625200000;31125200000
5056;33536038000;30625200000;31125200000
5057;33536039000;30625200000;31125200000
5058;33536040000;30625200000;31125200000
5059;33536253000;30625211111;31125211111
5060;33536268000;30625477777;31125477777
5063;33566072000;30666866666;31166866666
5064;33650446000;30666866666;31166866666
5065;33650448000;30666866666;31166866666
5066;33650455000;30666866666;31166866666
5067;33650482000;30666866666;31166866666
5068;33650488000;30666866666;31166866666
5072;33700845000;30667188888;31167188888
5120;33902673000;30875200000;31375200000
5121;33902677000;30875200000;31375200000
5122;33902678000;30875200000;31375200000
5123;33902679000;30875200000;31375200000
5124;33902680000;30875200000;31375200000
5126;33902793000;30875477777;31375477777
5127;33902796000;30875477777;31375477777
5128;33902797000;30875477777;31375477777
5129;33938036000;30916855555;31416855555
5130;33938039000;30916855555;31416855555
5131;33938041000;30916855555;31416855555
5132;33938042000;30916855555;31416855555
5133;33938049000;30916855555;31416855555
5134;33938050000;30916855555;31416855555
5135;33938051000;30916855555;31416855555
5136;33938256000;30916866666;31416866666
5137;33938272000;30917200000;31417200000
5138;33938273000;30917200000;31417200000
5139;33938274000;30917200000;31417200000
5140;33967589000;30958522222;31458522222
5141;33967592000;30958522222;31458522222
5142;33967593000;30958522222;31458522222
5143;34050756000;30958522222;31458522222
5144;34050758000;30958522222;31458522222
5145;34050760000;30958522222;31458522222
5146;34050764000;30958522222;31458522222
5147;34101193000;30958533333;31458533333
5199;34101199000;31166866666;31666866666
5200;34101201000;31166866666;31666866666
5201;34101202000;31166866666;31666866666
5202;34303371000;31166888888;31666888888
5203;34303387000;31167188888;31667188888
5204;34303388000;31167188888;31667188888
5205;34303389000;31167188888;31667188888
5206;34336675000;31208533333;31708533333
5207;34336679000;31208533333;31708533333
5208;34336680000;31208533333;31708533333
5210;34336772000;31208533333;31708533333
5211;34336774000;31208533333;31708533333
5212;34336775000;31208533333;31708533333
5213;34336983000;31208544444;31708544444
5214;34336998000;31208822222;31708822222
5215;34337000000;31208822222;31708822222
5216;34337001000;31208822222;31708822222
5217;34366322000;31250200000;31750200000
5218;34366326000;31250200000;31750200000
5219;34366327000;31250200000;31750200000
5220;34366328000;31250200000;31750200000
5221;34366329000;31250200000;31750200000
5222;34451028000;31250200000;31750200000
5223;34451034000;31250200000;31750200000
5224;34501450000;31250211111;31750211111
5276;34501457000;31458522222;31958522222
5277;34501458000;31458522222;31958522222
5278;34501459000;31458522222;31958522222
5279;34704059000;31458533333;31958533333
5280;34704066000;31458822222;31958822222
5281;34704067000;31458822222;31958822222
5282;34704068000;31458822222;31958822222
5283;34737339000;31500200000;32000200000
5284;34737342000;31500200000;32000200000
5285;34737343000;31500200000;32000200000
5286;34737344000;31500200000;32000200000
5287;34737353000;31500200000;32000200000
5288;34737354000;31500200000;32000200000
5289;34737355000;31500200000;32000200000
5290;34737560000;31500222222;32000222222
5291;34737576000;31500488888;32000488888
5292;34737577000;31500488888;32000488888
5295;34767591000;31541866666;32041866666
5296;34767594000;31541866666;32041866666
5297;34767595000;31541866666;32041866666
5298;34767596000;31541866666;32041866666
5299;34767597000;31541866666;32041866666
5300;34767598000;31541866666;32041866666
5301;34901719000;31541877777;32041877777
5355;35103280000;31750188888;32250188888
5356;35103488000;31750200000;32250200000
5357;35103504000;31750500000;32250500000
5360;35137207000;31791855555;32291855555
5361;35137210000;31791855555;32291855555
5362;35137211000;31791855555;32291855555
5363;35137212000;31791855555;32291855555
5364;35137213000;31791855555;32291855555
5365;35137214000;31791855555;32291855555
5366;35137215000;31791855555;32291855555
5367;35137316000;31791866666;32291866666
5368;35137331000;31792177777;32292177777
5369;35137333000;31792177777;32292177777
5370;35137334000;31792177777;32292177777
5371;35166844000;31833533333;32333533333
5372;35166848000;31833533333;32333533333
5373;35166849000;31833533333;32333533333
5374;35166850000;31833533333;32333533333
5375;35166851000;31833533333;32333533333
5376;35166852000;31833533333;32333533333
5377;35166853000;31833533333;32333533333
5378;35167060000;31833544444;32333544444
5379;35167067000;31833822222;32333822222
5380;35251602000;31833822222;32333822222
5381;35251607000;31833822222;32333822222
5382;35301962000;31875200000;32375200000
5436;35465775000;32042188888;32542188888
5437;35503285000;32083522222;32583522222
5438;35503288000;32083522222;32583522222
5439;35503289000;32083522222;32583522222
5440;35503290000;32083522222;32583522222
5441;35503291000;32083522222;32583522222
5442;35503292000;32083522222;32583522222
5443;35503293000;32083522222;32583522222
5444;35503499000;32083533333;32583533333
5445;35503515000;32083833333;32583833333
5447;35503516000;32083833333;32583833333
5448;35537509000;32125188888;32625188888
5449;35537512000;32125188888;32625188888
5450;35537513000;32125188888;32625188888
5452;35537515000;32125188888;32625188888
5453;35537516000;32125188888;32625188888
5454;35537517000;32125188888;32625188888
5455;35537722000;32125200000;32625200000
5456;35537738000;32125500000;32625500000
5457;35537739000;32125500000;32625500000
5458;35537740000;32125500000;32625500000
5459;35702237000;32166855555;32666855555
5466;35702438000;32166866666;32666866666
5467;35702454000;32167177777;32667177777
5468;35702455000;32167177777;32667177777
5469;35702456000;32167177777;32667177777
5470;35743839000;32208522222;32708522222
5471;35743843000;32208522222;32708522222
5472;35743844000;32208522222;32708522222
5474;35744032000;32208522222;32708522222
5475;35744035000;32208522222;32708522222
5476;35744052000;32208522222;32708522222
5477;35744253000;32208533333;32708533333
5478;35744269000;32208811111;32708811111
5480;35744270000;32208811111;32708811111
5481;35785338000;32250188888;32750188888
5482;35785341000;32250188888;32750188888
5483;35785342000;32250188888;32750188888
5484;35785343000;32250188888;32750188888
5485;35785344000;32250188888;32750188888
5486;35785345000;32250188888;32750188888
5487;35785346000;32250188888;32750188888
