seqnum;now;rtptime;deadline
1;10491398000;9898788888;10398788888
3;10571703000;9930155555;10430155555
19;10613043000;9971811111;10471811111
20;10613051000;9971811111;10471811111
21;10613277000;9971822222;10471822222
22;10613293000;9972233333;10472233333
23;10613295000;9972233333;10472233333
24;10613296000;9972233333;10472233333
25;10653840000;10013477777;10513477777
26;10653847000;10013477777;10513477777
27;10653848000;10013477777;10513477777
28;10653850000;10013477777;10513477777
29;10653851000;10013477777;10513477777
30;10653852000;10013477777;10513477777
31;10653853000;10013477777;10513477777
32;10654052000;10013488888;10513488888
33;10654068000;10013822222;10513822222
34;10654069000;10013822222;10513822222
35;10654070000;10013822222;10513822222
36;10692127000;10055144444;10555144444
37;10692131000;10055144444;10555144444
38;10692132000;10055144444;10555144444
39;10730510000;10055144444;10555144444
40;10730680000;10055144444;10555144444
41;10730847000;10055144444;10555144444
42;10730860000;10055144444;10555144444
43;10781577000;10055155555;10555155555
65;10864400000;10138500000;10638500000
66;10864406000;10138800000;10638800000
67;10864407000;10138800000;10638800000
68;10864408000;10138800000;10638800000
70;10905494000;10180144444;10680144444
71;10905506000;10180144444;10680144444
72;10905508000;10180144444;10680144444
73;10905509000;10180144444;10680144444
74;10905510000;10180144444;10680144444
75;10905511000;10180144444;10680144444
76;10905631000;10180166666;10680166666
77;10905647000;10180511111;10680511111
78;10905648000;10180511111;10680511111
79;10905649000;10180511111;10680511111
80;10943139000;10221822222;10721822222
81;10943142000;10221822222;10721822222
82;10943143000;10221822222;10721822222
83;10943144000;10221822222;10721822222
84;10943145000;10221822222;10721822222
86;10943147000;10221822222;10721822222
87;10943350000;10221844444;10721844444
88;10943366000;10222211111;10722211111
89;10971331000;10222211111;10722211111
90;10971593000;10222211111;10722211111
91;11146438000;10263488888;10763488888
122;11208769000;10347144444;10847144444
123;11208773000;10347144444;10847144444
124;11246089000;10388466666;10888466666
178;11494205000;10555466666;11055466666
233;11847691000;10763822222;11263822222
288;12251810000;10972166666;11472166666
387;12876090000;11347177777;11847177777
485;13459200000;11722155555;12222155555
610;13459337000;12221800000;12721800000
611;13459341000;12221800000;12721800000
612;13459342000;12221800000;12721800000
613;13459344000;12221800000;12721800000
614;13459345000;12221800000;12721800000
615;13459466000;12221811111;12721811111
616;13459489000;12222155555;12722155555
618;13459490000;12222155555;12722155555
619;13459501000;12263466666;12763466666
623;13459513000;12263466666;12763466666
624;13459515000;12263466666;12763466666
625;13459516000;12263466666;12763466666
626;13459626000;12263488888;12763488888
627;13459641000;12263788888;12763788888
628;13459642000;12263788888;12763788888
629;13459643000;12263788888;12763788888
630;13459654000;12305155555;12805155555
631;13459666000;12305155555;12805155555
632;13459668000;12305155555;12805155555
633;13459669000;12305155555;12805155555
634;13459670000;12305155555;12805155555
635;13459671000;12305155555;12805155555
636;13459672000;12305155555;12805155555
638;13459683000;12305422222;12805422222
639;13459684000;12305422222;12805422222
640;13459685000;12305422222;12805422222
641;13473597000;12346811111;12846811111
642;13473600000;12346811111;12846811111
643;13473601000;12346811111;12846811111
644;13473602000;12346811111;12846811111
645;13473603000;12346811111;12846811111
646;13473604000;12346811111;12846811111
647;13473605000;12346811111;12846811111
648;13473726000;12346822222;12846822222
649;13473741000;12347122222;12847122222
650;13473742000;12347122222;12847122222
651;13473743000;12347122222;12847122222
652;13473754000;12388477777;12888477777
653;13473765000;12388477777;12888477777
654;13473766000;12388477777;12888477777
655;13473767000;12388477777;12888477777
657;13473769000;12388477777;12888477777
659;13473842000;12388488888;12888488888
660;13473845000;12388777777;12888777777
661;13473867000;12388777777;12888777777
662;13473868000;12388777777;12888777777
663;13476498000;12430144444;12930144444
665;13476511000;12430144444;12930144444
666;13476512000;12430144444;12930144444
669;13476513000;12430144444;12930144444
671;13476523000;12430444444;12930444444
672;13476524000;12430444444;12930444444
673;13476535000;12430444444;12930444444
674;13476539000;12471811111;12971811111
675;13476541000;12471811111;12971811111
677;13476542000;12471811111;12971811111
679;13476543000;12471811111;12971811111
680;13476544000;12471811111;12971811111
681;13476646000;12471822222;12971822222
682;13476661000;12472155555;12972155555
683;13476662000;12472155555;12972155555
684;13476663000;12472155555;12972155555
686;13480348000;12513477777;13013477777
687;13621799000;12513477777;13013477777
688;13622278000;12513477777;13013477777
689;13622487000;12513477777;13013477777
690;13622867000;12513477777;13013477777
691;13622869000;12513477777;13013477777
692;13673701000;12513488888;13013488888
716;13676271000;12597144444;13097144444
717;13676273000;12597144444;13097144444
718;13718281000;12638477777;13138477777
719;13718285000;12638477777;13138477777
720;13718286000;12638477777;13138477777
721;13718287000;12638477777;13138477777
722;13718288000;12638477777;13138477777
723;13718289000;12638477777;13138477777
724;13718290000;12638477777;13138477777
725;13718509000;12638500000;13138500000
726;13718524000;12638777777;13138777777
727;13718525000;12638777777;13138777777
728;13718526000;12638777777;13138777777
729;13720674000;12680133333;13180133333
730;13720677000;12680133333;13180133333
731;13720678000;12680133333;13180133333
732;13720679000;12680133333;13180133333
733;13720680000;12680133333;13180133333
734;13720681000;12680133333;13180133333
735;13720682000;12680133333;13180133333
736;13720800000;12680155555;13180155555
737;13720815000;12680444444;13180444444
738;13863223000;12680444444;13180444444
739;13863588000;12680444444;13180444444
740;13955485000;12721800000;13221800000
770;13955597000;12805433333;13305433333
771;13955600000;12805433333;13305433333
772;13955601000;12805433333;13305433333
773;13959499000;12846811111;13346811111
774;13959503000;12846811111;13346811111
775;13959504000;12846811111;13346811111
776;13959505000;12846811111;13346811111
777;13959506000;12846811111;13346811111
778;13959507000;12846811111;13346811111
779;13959508000;12846811111;13346811111
780;13959627000;12846822222;13346822222
781;13959643000;12847155555;13347155555
782;13959644000;12847155555;13347155555
783;13959645000;12847155555;13347155555
784;13962261000;12888477777;13388477777
785;13962265000;12888477777;13388477777
786;13962266000;12888477777;13388477777
787;13962267000;12888477777;13388477777
788;13962268000;12888477777;13388477777
789;13962269000;12888477777;13388477777
790;13962270000;12888477777;13388477777
791;13962345000;12888500000;13388500000
792;14104327000;12888788888;13388788888
798;14156027000;12930133333;13430133333
818;14158697000;13013500000;13513500000
821;14158700000;13013500000;13513500000
822;14158701000;13013500000;13513500000
824;14159612000;13013522222;13513522222
827;14159682000;13013822222;13513822222
828;14160581000;13055166666;13555166666
830;14160899000;13055166666;13555166666
833;14161355000;13055166666;13555166666
834;14161358000;13055166666;13555166666
835;14161986000;13055188888;13555188888
836;14161989000;13055477777;13555477777
837;14161991000;13055477777;13555477777
838;14161992000;13055477777;13555477777
839;14203620000;13096811111;13596811111
840;14203624000;13096811111;13596811111
841;14203625000;13096811111;13596811111
842;14203626000;13096811111;13596811111
843;14203627000;13096811111;13596811111
844;14203628000;13096811111;13596811111
845;14345024000;13096811111;13596811111
846;14396086000;13096833333;13596833333
860;14396090000;13138788888;13638788888
861;14439830000;13180144444;13680144444
862;14439834000;13180144444;13680144444
863;14439835000;13180144444;13680144444
864;14439836000;13180144444;13680144444
865;14439837000;13180144444;13680144444
866;14439838000;13180144444;13680144444
867;14439847000;13180144444;13680144444
868;14440045000;13180166666;13680166666
869;14440060000;13180466666;13680466666
870;14440061000;13180466666;13680466666
871;14440062000;13180466666;13680466666
872;14440947000;13221811111;13721811111
873;14440950000;13221811111;13721811111
874;14440952000;13221811111;13721811111
875;14440952000;13221811111;13721811111
877;14440954000;13221811111;13721811111
878;14440955000;13221811111;13721811111
879;14441074000;13221822222;13721822222
880;14441089000;13222177777;13722177777
881;14441091000;13222177777;13722177777
883;14444587000;13263477777;13763477777
884;14444590000;13263477777;13763477777
885;14587180000;13263477777;13763477777
886;14587584000;13263477777;13763477777
887;14587847000;13263477777;13763477777
888;14587860000;13263477777;13763477777
892;14638571000;13264000000;13764000000
894;14639022000;13305144444;13805144444
895;14639025000;13305144444;13805144444
896;14639026000;13305144444;13805144444
897;14639027000;13305144444;13805144444
898;14639028000;13305144444;13805144444
899;14639029000;13305144444;13805144444
901;14640804000;13305155555;13805155555
902;14640819000;13305422222;13805422222
903;14640820000;13305422222;13805422222
904;14640822000;13305422222;13805422222
906;14643418000;13346811111;13846811111
907;14643422000;13346811111;13846811111
908;14643423000;13346811111;13846811111
909;14643423000;13346811111;13846811111
910;14643424000;13346811111;13846811111
911;14827866000;13346811111;13846811111
912;14878693000;13346822222;13846822222
917;14920771000;13388466666;13888466666
918;14920784000;13388466666;13888466666
919;14920785000;13388466666;13888466666
920;14920786000;13388466666;13888466666
921;14920787000;13388466666;13888466666
922;14920788000;13388466666;13888466666
923;14920986000;13388488888;13888488888
924;14921001000;13388811111;13888811111
925;14921002000;13388811111;13888811111
926;14921003000;13388811111;13888811111
927;14921015000;13430133333;13930133333
928;14921017000;13430133333;13930133333
929;14921019000;13430133333;13930133333
930;14921020000;13430133333;13930133333
931;15069752000;13430133333;13930133333
932;15069769000;13430133333;13930133333
933;15070367000;13430133333;13930133333
934;15120839000;13430144444;13930144444
935;15120854000;13430477777;13930477777
936;15120856000;13430477777;13930477777
937;15120857000;13430477777;13930477777
938;15124885000;13471800000;13971800000
939;15124888000;13471800000;13971800000
940;15124890000;13471800000;13971800000
941;15124891000;13471800000;13971800000
942;15124892000;13471800000;13971800000
943;15124893000;13471800000;13971800000
944;15124893000;13471800000;13971800000
945;15360793000;13471811111;13971811111
946;15360808000;13472166666;13972166666
947;15360810000;13472166666;13972166666
948;15360810000;13472166666;13972166666
949;15366231000;13513477777;14013477777
950;15366235000;13513477777;14013477777
951;15366236000;13513477777;14013477777
952;15366237000;13513477777;14013477777
953;15551234000;13513477777;14013477777
954;15551878000;13513477777;14013477777
956;15606925000;13513500000;14013500000
957;15606941000;13513800000;14013800000
958;15606942000;13513800000;14013800000
959;15606943000;13513800000;14013800000
960;15648802000;13555144444;14055144444
961;15648805000;13555144444;14055144444
962;15791989000;13555144444;14055144444
963;15792713000;13555144444;14055144444
964;15792715000;13555144444;14055144444
965;15797336000;13555144444;14055144444
966;15797572000;13555144444;14055144444
967;15848034000;13555155555;14055155555
968;15848049000;13555455555;14055455555
969;15848050000;13555455555;14055455555
971;16084419000;13596811111;14096811111
972;16084422000;13596811111;14096811111
973;16084423000;13596811111;14096811111
974;16084424000;13596811111;14096811111
976;16273493000;13596811111;14096811111
978;16329874000;13596833333;14096833333
979;16329889000;13597133333;14097133333
981;16520249000;13597133333;14097133333
982;16612109000;13638466666;14138466666
983;16761257000;13638466666;14138466666
984;16761270000;13638466666;14138466666
986;16811542000;13638466666;14138466666
987;16811544000;13638466666;14138466666
988;17002222000;13638466666;14138466666
989;17052694000;13638488888;14138488888
1037;17052709000;13846811111;14346811111
1038;17052710000;13846811111;14346811111
1039;17052711000;13846811111;14346811111
1040;17052712000;13846811111;14346811111
1041;17052713000;13846811111;14346811111
1042;17052714000;13846811111;14346811111
1043;17052715000;13846811111;14346811111
1044;17254961000;13846833333;14346833333
1114;17254976000;14138466666;14638466666
1115;17254977000;14138466666;14638466666
1116;17254978000;14138466666;14638466666
1117;17254979000;14138466666;14638466666
1118;17254980000;14138466666;14638466666
1119;17254981000;14138466666;14638466666
1120;17254982000;14138466666;14638466666
1121;17418708000;14138488888;14638488888
1122;17418724000;14138788888;14638788888
1123;17418726000;14138788888;14638788888
1124;17418727000;14138788888;14638788888
1125;17431169000;14180133333;14680133333
1126;17431173000;14180133333;14680133333
1127;17431174000;14180133333;14680133333
1128;17431175000;14180133333;14680133333
1130;17431176000;14180133333;14680133333
1131;17431177000;14180133333;14680133333
1132;17431363000;14180155555;14680155555
1133;17431370000;14180466666;14680466666
1134;17431371000;14180466666;14680466666
1135;17431372000;14180466666;14680466666
1136;17441680000;14221800000;14721800000
1137;17483478000;14221800000;14721800000
1138;17483481000;14221800000;14721800000
1139;17483719000;14221800000;14721800000
1140;17483722000;14221800000;14721800000
1142;17484100000;14221800000;14721800000
1143;17534531000;14221811111;14721811111
1189;17534546000;14388777777;14888777777
1190;17534548000;14388777777;14888777777
1191;17736711000;14430133333;14930133333
1269;17900166000;14721811111;15221811111
1270;17900171000;14721811111;15221811111
1271;17900172000;14721811111;15221811111
1272;17900173000;14721811111;15221811111
1273;17900173000;14721811111;15221811111
1274;17900174000;14721811111;15221811111
1276;17900288000;14722155555;15222155555
1277;17900292000;14722155555;15222155555
1278;17900293000;14722155555;15222155555
1279;17920988000;14763477777;15263477777
1280;17920991000;14763477777;15263477777
1281;17920992000;14763477777;15263477777
1282;17920993000;14763477777;15263477777
1283;17920994000;14763477777;15263477777
1284;17920995000;14763477777;15263477777
1285;17920996000;14763477777;15263477777
1286;17921201000;14763488888;15263488888
1287;17921217000;14763788888;15263788888
1288;17921218000;14763788888;15263788888
1289;17921219000;14763788888;15263788888
1290;17929795000;14805144444;15305144444
1291;17929798000;14805144444;15305144444
1292;17929799000;14805144444;15305144444
1293;17964537000;14805144444;15305144444
1294;17965088000;14805144444;15305144444
1295;17965676000;14805144444;15305144444
1296;17965678000;14805144444;15305144444
1297;18016363000;14805155555;15305155555
1348;18016378000;15013477777;15513477777
1349;18016379000;15013477777;15513477777
1350;18016380000;15013477777;15513477777
1351;18016381000;15013477777;15513477777
1352;18218693000;15013488888;15513488888
1425;18218709000;15305144444;15805144444
1426;18218710000;15305144444;15805144444
1427;18218711000;15305144444;15805144444
1428;18218712000;15305144444;15805144444
1429;18382994000;15305155555;15805155555
1430;18383010000;15305422222;15805422222
1431;18383011000;15305422222;15805422222
1432;18383012000;15305422222;15805422222
1433;18395525000;15346811111;15846811111
1434;18395529000;15346811111;15846811111
1435;18395530000;15346811111;15846811111
1436;18395531000;15346811111;15846811111
1437;18395532000;15346811111;15846811111
1438;18395532000;15346811111;15846811111
1439;18395533000;15346811111;15846811111
1440;18395744000;15346822222;15846822222
1441;18395760000;15347155555;15847155555
1442;18395761000;15347155555;15847155555
1443;18395762000;15347155555;15847155555
1444;18406008000;15388477777;15888477777
1445;18406011000;15388477777;15888477777
1446;18406013000;15388477777;15888477777
1447;18406014000;15388477777;15888477777
1448;18445576000;15388477777;15888477777
1450;18446172000;15388477777;15888477777
1451;18496886000;15388488888;15888488888
1500;18496910000;15596811111;16096811111
1501;18496911000;15596811111;16096811111
1504;18685990000;15596811111;16096811111
1505;18685992000;15596811111;16096811111
1509;18698224000;15597133333;16097133333
1578;18868240000;15888466666;16388466666
1581;18868244000;15888466666;16388466666
1582;18868245000;15888466666;16388466666
1583;18868443000;15888477777;16388477777
1584;18868458000;15888800000;16388800000
1585;18868459000;15888800000;16388800000
1586;18868460000;15888800000;16388800000
1588;18881200000;15930144444;16430144444
1589;18881203000;15930144444;16430144444
1590;18881204000;15930144444;16430144444
1591;18881205000;15930144444;16430144444
1592;18881206000;15930144444;16430144444
1593;18881207000;15930144444;16430144444
1594;18881301000;15930155555;16430155555
1595;18881316000;15930466666;16430466666
1596;18881318000;15930466666;16430466666
1597;18881319000;15930466666;16430466666
1598;18890670000;15971811111;16471811111
1599;18890674000;15971811111;16471811111
1600;18890675000;15971811111;16471811111
1601;18890676000;15971811111;16471811111
1602;18890677000;15971811111;16471811111
1603;18890678000;15971811111;16471811111
1604;18890679000;15971811111;16471811111
1605;18890814000;15971822222;16471822222
1606;18926980000;15972166666;16472166666
1607;18928149000;15972166666;16472166666
1610;19018817000;16013477777;16513477777
1656;19180294000;16180166666;16680166666
1728;19332870000;16430466666;16930466666
1731;19347970000;16471811111;16971811111
1732;19347973000;16471811111;16971811111
1733;19347974000;16471811111;16971811111
1734;19347976000;16471811111;16971811111
1735;19347977000;16471811111;16971811111
1736;19347977000;16471811111;16971811111
1737;19348208000;16471822222;16971822222
1739;19348223000;16472166666;16972166666
1740;19348224000;16472166666;16972166666
1743;19361676000;16513477777;17013477777
1745;19361680000;16513477777;17013477777
1746;19361682000;16513477777;17013477777
1747;19361682000;16513477777;17013477777
1748;19361776000;16513488888;17013488888
1749;19361791000;16513811111;17013811111
1750;19361792000;16513811111;17013811111
1751;19361793000;16513811111;17013811111
1752;19371585000;16555144444;17055144444
1753;19371588000;16555144444;17055144444
1754;19371589000;16555144444;17055144444
1755;19371590000;16555144444;17055144444
1756;19371592000;16555144444;17055144444
1757;19371592000;16555144444;17055144444
1758;19371594000;16555144444;17055144444
1762;19460952000;16555477777;17055477777
1811;19663008000;16763477777;17263477777
1883;19816279000;17013755555;17513755555
1886;19831212000;17055133333;17555133333
1887;19831216000;17055133333;17555133333
1888;19831217000;17055133333;17555133333
1889;19831218000;17055133333;17555133333
1890;19831219000;17055133333;17555133333
1891;19831417000;17055155555;17555155555
1892;19831432000;17055422222;17555422222
1893;19831433000;17055422222;17555422222
1894;19831434000;17055422222;17555422222
1895;19845268000;17096800000;17596800000
1898;19845281000;17096800000;17596800000
1899;19845282000;17096800000;17596800000
1901;19845283000;17096800000;17596800000
1902;19845453000;17096811111;17596811111
1903;19845457000;17097133333;17597133333
1904;19845458000;17097133333;17597133333
1905;19845459000;17097133333;17597133333
1906;19854964000;17138544444;17638544444
1907;19854967000;17138544444;17638544444
1908;19854968000;17138544444;17638544444
1909;19854969000;17138544444;17638544444
1910;19854970000;17138544444;17638544444
1911;19854971000;17138544444;17638544444
1912;19854972000;17138544444;17638544444
1913;19855172000;17138566666;17638566666
1914;19855178000;17138844444;17638844444
1915;19892256000;17138844444;17638844444
1916;19892713000;17138844444;17638844444
1917;19943323000;17180144444;17680144444
1966;20107448000;17346811111;17846811111
1967;20107452000;17346811111;17846811111
1968;20107651000;17346822222;17846822222
1969;20107666000;17347133333;17847133333
1970;20107667000;17347133333;17847133333
1971;20107668000;17347133333;17847133333
1972;20144915000;17388477777;17888477777
2043;20308309000;17638488888;18138488888
2045;20308525000;17638511111;18138511111
2046;20308541000;17638766666;18138766666
2047;20308542000;17638766666;18138766666
2048;20308543000;17638766666;18138766666
2049;20326533000;17680144444;18180144444
2050;20326537000;17680144444;18180144444
2051;20326538000;17680144444;18180144444
2052;20326539000;17680144444;18180144444
2053;20326540000;17680144444;18180144444
2054;20326540000;17680144444;18180144444
2055;20326541000;17680144444;18180144444
2056;20326739000;17680166666;18180166666
2058;20326754000;17680433333;18180433333
2059;20326756000;17680433333;18180433333
2060;20340413000;17721811111;18221811111
2063;20340417000;17721811111;18221811111
2064;20340418000;17721811111;18221811111
2065;20340419000;17721811111;18221811111
2066;20340420000;17721811111;18221811111
2067;20340624000;17721822222;18221822222
2068;20340639000;17722144444;18222144444
2069;20340640000;17722144444;18222144444
2070;20373917000;17722144444;18222144444
2071;20424322000;17763466666;18263466666
2123;20589017000;17930455555;18430455555
2125;20589020000;17930455555;18430455555
2126;20626048000;17971800000;18471800000
2196;20795836000;18221800000;18721800000
2201;20795952000;18222155555;18722155555
2202;20795956000;18222155555;18722155555
2203;20813120000;18263466666;18763466666
2204;20813124000;18263466666;18763466666
2205;20813125000;18263466666;18763466666
2206;20813126000;18263466666;18763466666
2208;20813127000;18263466666;18763466666
2209;20813128000;18263466666;18763466666
2210;20813333000;18263488888;18763488888
2211;20813348000;18263800000;18763800000
2213;20813349000;18263800000;18763800000
2214;20826101000;18305133333;18805133333
2215;20826104000;18305133333;18805133333
2216;20826105000;18305133333;18805133333
2217;20826106000;18305133333;18805133333
2218;20826107000;18305133333;18805133333
2219;20826108000;18305133333;18805133333
2220;20826109000;18305133333;18805133333
2221;20826314000;18305144444;18805144444
2222;20826330000;18305433333;18805433333
2223;20826331000;18305433333;18805433333
2224;20854897000;18305433333;18805433333
2225;20905942000;18346822222;18846822222
2280;21108356000;18555133333;19055133333
2335;21240167000;18763466666;19263466666
2339;21240170000;18763466666;19263466666
2340;21240171000;18763466666;19263466666
2341;21240172000;18763466666;19263466666
2343;21240282000;18763800000;19263800000
2344;21240285000;18763800000;19263800000
2345;21240286000;18763800000;19263800000
2347;21264381000;18805133333;19305133333
2348;21264384000;18805133333;19305133333
2349;21264385000;18805133333;19305133333
2350;21264386000;18805133333;19305133333
2351;21264387000;18805133333;19305133333
2352;21264388000;18805133333;19305133333
2353;21264513000;18805155555;19305155555
2354;21264528000;18805455555;19305455555
2356;21264530000;18805455555;19305455555
2358;21278954000;18846822222;19346822222
2359;21278958000;18846822222;19346822222
2360;21278959000;18846822222;19346822222
2361;21278960000;18846822222;19346822222
2362;21278961000;18846822222;19346822222
2363;21278962000;18846822222;19346822222
2364;21279080000;18846844444;19346844444
2365;21279095000;18847177777;19347177777
2367;21279096000;18847177777;19347177777
2368;21291560000;18888477777;19388477777
2369;21291563000;18888477777;19388477777
2370;21291565000;18888477777;19388477777
2371;21291565000;18888477777;19388477777
2372;21291566000;18888477777;19388477777
2373;21291567000;18888477777;19388477777
2374;21291568000;18888477777;19388477777
2376;21291678000;18888788888;19388788888
2377;21291681000;18888788888;19388788888
2378;21291682000;18888788888;19388788888
2379;21309610000;18930144444;19430144444
2380;21309613000;18930144444;19430144444
2381;21336867000;18930144444;19430144444
2382;21337155000;18930144444;19430144444
2383;21337715000;18930144444;19430144444
2384;21337953000;18930144444;19430144444
2385;21337965000;18930144444;19430144444
2386;21388635000;18930166666;19430166666
2436;21388650000;19138477777;19638477777
2437;21388652000;19138477777;19638477777
2438;21388652000;19138477777;19638477777
2439;21388653000;19138477777;19638477777
2440;21388654000;19138477777;19638477777
2441;21590442000;19138488888;19638488888
2511;21590446000;19430133333;19930133333
2512;21590447000;19430133333;19930133333
2513;21590448000;19430133333;19930133333
2514;21590449000;19430133333;19930133333
2515;21590450000;19430133333;19930133333
2516;21590451000;19430133333;19930133333
2517;21590454000;19430133333;19930133333
2518;21767193000;19430155555;19930155555
2521;21767209000;19430455555;19930455555
2522;21778520000;19471800000;19971800000
2523;21778523000;19471800000;19971800000
2524;21778524000;19471800000;19971800000
2525;21778525000;19471800000;19971800000
2526;21778526000;19471800000;19971800000
2527;21778527000;19471800000;19971800000
2528;21778528000;19471800000;19971800000
2529;21778667000;19471822222;19971822222
2530;21778670000;19472166666;19972166666
2531;21778671000;19472166666;19972166666
2532;21778672000;19472166666;19972166666
2534;21787481000;19513466666;20013466666
2535;21787484000;19513466666;20013466666
2536;21787485000;19513466666;20013466666
2537;21818304000;19513466666;20013466666
2538;21818914000;19513466666;20013466666
2539;21819158000;19513466666;20013466666
2540;21870075000;19513488888;20013488888
2583;21870091000;19680133333;20180133333
2584;22034577000;19680155555;20180155555
2585;22034593000;19680444444;20180444444
2587;22034594000;19680444444;20180444444
2588;22071503000;19721800000;20221800000
2655;22221550000;19971811111;20471811111
2663;22221662000;19972133333;20472133333
2664;22221665000;19972133333;20472133333
2665;22236490000;20013488888;20513488888
2666;22236494000;20013488888;20513488888
2667;22236495000;20013488888;20513488888
2669;22236496000;20013488888;20513488888
2670;22236497000;20013488888;20513488888
2671;22236498000;20013488888;20513488888
2672;22236706000;20013588888;20513588888
2673;22236721000;20013911111;20513911111
2674;22236722000;20013911111;20513911111
2675;22236723000;20013911111;20513911111
2676;22250245000;20055144444;20555144444
2677;22250248000;20055144444;20555144444
2680;22250249000;20055144444;20555144444
2681;22250251000;20055144444;20555144444
2682;22250252000;20055144444;20555144444
2683;22250386000;20055166666;20555166666
2684;22250389000;20055433333;20555433333
2685;22250390000;20055433333;20555433333
2686;22250391000;20055433333;20555433333
2687;22260991000;20096811111;20596811111
2688;22299277000;20096811111;20596811111
2689;22299533000;20096811111;20596811111
2690;22300816000;20096811111;20596811111
2691;22300818000;20096811111;20596811111
2692;22301353000;20096811111;20596811111
2693;22302065000;20096811111;20596811111
2694;22352793000;20096833333;20596833333
2743;22352799000;20305144444;20805144444
2744;22352801000;20305144444;20805144444
2745;22352802000;20305144444;20805144444
2746;22352803000;20305144444;20805144444
2747;22352804000;20305144444;20805144444
2748;22352805000;20305144444;20805144444
2749;22555148000;20305166666;20805166666
2817;22555153000;20555444444;21055444444
2818;22555154000;20555444444;21055444444
2819;22720381000;20596811111;21096811111
2820;22720385000;20596811111;21096811111
2821;22720386000;20596811111;21096811111
2822;22720387000;20596811111;21096811111
2824;22720388000;20596811111;21096811111
2826;22720595000;20596822222;21096822222
2827;22720610000;20597111111;21097111111
2828;22720611000;20597111111;21097111111
2829;22720612000;20597111111;21097111111
2830;22733770000;20638466666;21138466666
2831;22733773000;20638466666;21138466666
2832;22733774000;20638466666;21138466666
2833;22733775000;20638466666;21138466666
2834;22733776000;20638466666;21138466666
2835;22733777000;20638466666;21138466666
2836;22733778000;20638466666;21138466666
2837;22733913000;20638477777;21138477777
2838;22733916000;20638755555;21138755555
2839;22733917000;20638755555;21138755555
2842;22744255000;20680133333;21180133333
2843;22744256000;20680133333;21180133333
2844;22780301000;20680133333;21180133333
2845;22780919000;20680133333;21180133333
2846;22781510000;20680133333;21180133333
2847;22781774000;20680133333;21180133333
2848;22832843000;20680155555;21180155555
2896;22832858000;20888466666;21388466666
2897;22832860000;20888466666;21388466666
2898;22832869000;20888466666;21388466666
2899;22832870000;20888466666;21388466666
2900;22832871000;20888466666;21388466666
2901;22832872000;20888466666;21388466666
2902;22832873000;20888466666;21388466666
2903;23035288000;20888488888;21388488888
2961;23035307000;21097144444;21597144444
2962;23184759000;21138477777;21638477777
2977;23200625000;21180144444;21680144444
2978;23200628000;21180144444;21680144444
2979;23200629000;21180144444;21680144444
2980;23200748000;21180166666;21680166666
2981;23200763000;21180433333;21680433333
2982;23200764000;21180433333;21680433333
2983;23200765000;21180433333;21680433333
2984;23214258000;21221811111;21721811111
2985;23214261000;21221811111;21721811111
2986;23214262000;21221811111;21721811111
2991;23214459000;21221833333;21721833333
2992;23214481000;21222188888;21722188888
2993;23214482000;21222188888;21722188888
2994;23214483000;21222188888;21722188888
2995;23224906000;21263488888;21763488888
2996;23224909000;21263488888;21763488888
2997;23224910000;21263488888;21763488888
2998;23224911000;21263488888;21763488888
2999;23224912000;21263488888;21763488888
3000;23261854000;21263488888;21763488888
3001;23262344000;21263488888;21763488888
3002;23313587000;21263500000;21763500000
3051;23313603000;21471822222;21971822222
3052;23313604000;21471822222;21971822222
3055;23502953000;21471822222;21971822222
3056;23502955000;21471822222;21971822222
3057;23515155000;21471844444;21971844444
3110;23515330000;21680133333;22180133333
3112;23648289000;21680155555;22180155555
3131;23648305000;21763477777;22263477777
3133;23681857000;21763477777;22263477777
3135;23681981000;21763766666;22263766666
3136;23681984000;21763766666;22263766666
3137;23681985000;21763766666;22263766666
3138;23703613000;21805144444;22305144444
3139;23703616000;21805144444;22305144444
3140;23703617000;21805144444;22305144444
3141;23703618000;21805144444;22305144444
3142;23703619000;21805144444;22305144444
3143;23703620000;21805144444;22305144444
3145;23703818000;21805166666;22305166666
3146;23703833000;21805411111;22305411111
3149;23712678000;21846800000;22346800000
3150;23712682000;21846800000;22346800000
3151;23712683000;21846800000;22346800000
3152;23712684000;21846800000;22346800000
3153;23712685000;21846800000;22346800000
3154;23712686000;21846800000;22346800000
3155;23712687000;21846800000;22346800000
3156;23712806000;21846811111;22346811111
3157;23744203000;21847122222;22347122222
3158;23744463000;21847122222;22347122222
3159;23744804000;21847122222;22347122222
3160;23836117000;21888466666;22388466666
3211;23996730000;22055155555;22555155555
3257;23996735000;22222133333;22722133333
3258;23996736000;22222133333;22722133333
3259;24129336000;22263477777;22763477777
3286;24163225000;22346800000;22846800000
3287;24163229000;22346800000;22846800000
3290;24163467000;22347144444;22847144444
3291;24163488000;22347144444;22847144444
3292;24184981000;22388466666;22888466666
3293;24184984000;22388466666;22888466666
3294;24184985000;22388466666;22888466666
3295;24184986000;22388466666;22888466666
3296;24184987000;22388466666;22888466666
3297;24184988000;22388466666;22888466666
3298;24184989000;22388466666;22888466666
3299;24185159000;22388488888;22888488888
3301;24185163000;22388788888;22888788888
3302;24185165000;22388788888;22888788888
3303;24194224000;22430266666;22930266666
3305;24194228000;22430266666;22930266666
3306;24194229000;22430266666;22930266666
3307;24194230000;22430266666;22930266666
3309;24194231000;22430266666;22930266666
3310;24194400000;22430388888;22930388888
3311;24194404000;22430811111;22930811111
3312;24194406000;22430811111;22930811111
3318;24276099000;22471811111;22971811111
3367;24440701000;22638766666;23138766666
3368;24440705000;22638766666;23138766666
3369;24477946000;22680155555;23180155555
3405;24568985000;22805133333;23305133333
3437;24639586000;22930155555;23430155555
3438;24639589000;22930155555;23430155555
3439;24639590000;22930155555;23430155555
3443;24639699000;22930455555;23430455555
3444;24639703000;22930455555;23430455555
3445;24639704000;22930455555;23430455555
3446;24661607000;22971811111;23471811111
3447;24661619000;22971811111;23471811111
3448;24661620000;22971811111;23471811111
3449;24661621000;22971811111;23471811111
3450;24661622000;22971811111;23471811111
3451;24661623000;22971811111;23471811111
3452;24661624000;22971811111;23471811111
3453;24661849000;22971822222;23471822222
3455;24661864000;22972144444;23472144444
3457;24672723000;23013477777;23513477777
3458;24672726000;23013477777;23513477777
3459;24672727000;23013477777;23513477777
3463;24672729000;23013477777;23513477777
3465;24672739000;23013766666;23513766666
3470;24757845000;23055155555;23555155555
3518;24922112000;23221811111;23721811111
3519;24922233000;23221822222;23721822222
3520;24922249000;23222133333;23722133333
3521;24922250000;23222133333;23722133333
3522;24922251000;23222133333;23722133333
3523;24959699000;23263477777;23763477777
3557;25054010000;23388477777;23888477777
3597;25129246000;23513888888;24013888888
3598;25129250000;23513888888;24013888888
3599;25129251000;23513888888;24013888888
3600;25148281000;23555133333;24055133333
3601;25148284000;23555133333;24055133333
3602;25148285000;23555133333;24055133333
3603;25148286000;23555133333;24055133333
3604;25148287000;23555133333;24055133333
3605;25148288000;23555133333;24055133333
3606;25148289000;23555133333;24055133333
3607;25148511000;23555155555;24055155555
3608;25148527000;23555466666;24055466666
3609;25148528000;23555466666;24055466666
3610;25148529000;23555466666;24055466666
3611;25161782000;23596811111;24096811111
3612;25161785000;23596811111;24096811111
3613;25161786000;23596811111;24096811111
3614;25161787000;23596811111;24096811111
3615;25161788000;23596811111;24096811111
3616;25161789000;23596811111;24096811111
3617;25161790000;23596811111;24096811111
3618;25161960000;23596822222;24096822222
3619;25161964000;23597133333;24097133333
3620;25189236000;23597133333;24097133333
3621;25189812000;23597133333;24097133333
3622;25241959000;23638477777;24138477777
3673;25406619000;23805155555;24305155555
3674;25406635000;23805433333;24305433333
3675;25406637000;23805433333;24305433333
3676;25406637000;23805433333;24305433333
3677;25443625000;23846811111;24346811111
3729;25569642000;24013755555;24513755555
3752;25612298000;24097133333;24597133333
3753;25612312000;24097133333;24597133333
3754;25630693000;24138511111;24638511111
3755;25630697000;24138511111;24638511111
3756;25630698000;24138511111;24638511111
3757;25630699000;24138511111;24638511111
3759;25630700000;24138511111;24638511111
3760;25630701000;24138511111;24638511111
3761;25630906000;24138522222;24638522222
3762;25630922000;24138811111;24638811111
3763;25630923000;24138811111;24638811111
3764;25630924000;24138811111;24638811111
3765;25644035000;24180144444;24680144444
3766;25644039000;24180144444;24680144444
3767;25644040000;24180144444;24680144444
3768;25644041000;24180144444;24680144444
3769;25644042000;24180144444;24680144444
3770;25644042000;24180144444;24680144444
3771;25644044000;24180144444;24680144444
3772;25644242000;24180166666;24680166666
3773;25644257000;24180444444;24680444444
3774;25644258000;24180444444;24680444444
3775;25644259000;24180444444;24680444444
3776;25721315000;24221811111;24721811111
3831;25923953000;24430144444;24930144444
3863;25990051000;24513777777;25013777777
3902;26075794000;24680144444;25180144444
3903;26075797000;24680144444;25180144444
3904;26076003000;24680166666;25180166666
3905;26076020000;24680444444;25180444444
3906;26076022000;24680444444;25180444444
3907;26076023000;24680444444;25180444444
3908;26092064000;24721800000;25221800000
3909;26092067000;24721800000;25221800000
3910;26092068000;24721800000;25221800000
3912;26092188000;24721800000;25221800000
3913;26092190000;24721800000;25221800000
3914;26092191000;24721800000;25221800000
3915;26092369000;24721822222;25221822222
3916;26092373000;24722177777;25222177777
3917;26092375000;24722177777;25222177777
3918;26092376000;24722177777;25222177777
3919;26105956000;24763466666;25263466666
3920;26105959000;24763466666;25263466666
3921;26105960000;24763466666;25263466666
3922;26105961000;24763466666;25263466666
3923;26105962000;24763466666;25263466666
3924;26105970000;24763466666;25263466666
3925;26105971000;24763466666;25263466666
3926;26106183000;24763488888;25263488888
3927;26106186000;24763800000;25263800000
3928;26106187000;24763800000;25263800000
3929;26106188000;24763800000;25263800000
3930;26116789000;24805133333;25305133333
3931;26116793000;24805133333;25305133333
3932;26116794000;24805133333;25305133333
3933;26152751000;24805133333;25305133333
3935;26153110000;24805133333;25305133333
3936;26153905000;24805133333;25305133333
3937;26205274000;24805144444;25305144444
3989;26205290000;25013466666;25513466666
3990;26205291000;25013466666;25513466666
3991;26205292000;25013466666;25513466666
3992;26407800000;25013488888;25513488888
4034;26407808000;25180144444;25680144444
4035;26407825000;25180144444;25680144444
4037;26520241000;25180466666;25680466666
4063;26573155000;25305144444;25805144444
4064;26573158000;25305144444;25805144444
4065;26573159000;25305144444;25805144444
4066;26573160000;25305144444;25805144444
4068;26573161000;25305144444;25805144444
4069;26573359000;25305155555;25805155555
4070;26573374000;25305411111;25805411111
4071;26573376000;25305411111;25805411111
4072;26573377000;25305411111;25805411111
4073;26586979000;25346822222;25846822222
4074;26586982000;25346822222;25846822222
4075;26586983000;25346822222;25846822222
4076;26586984000;25346822222;25846822222
4077;26586985000;25346822222;25846822222
4078;26586986000;25346822222;25846822222
4079;26586987000;25346822222;25846822222
4080;26587200000;25346833333;25846833333
4081;26587203000;25347144444;25847144444
4082;26587204000;25347144444;25847144444
4083;26587205000;25347144444;25847144444
4084;26598026000;25388477777;25888477777
4085;26598029000;25388477777;25888477777
4086;26598030000;25388477777;25888477777
4087;26598032000;25388477777;25888477777
4088;26598033000;25388477777;25888477777
4090;26633918000;25388477777;25888477777
4091;26685072000;25388488888;25888488888
4145;26685087000;25596811111;26096811111
4146;26887731000;25596833333;26096833333
4181;26887740000;25722144444;26222144444
4183;27000548000;25763466666;26263466666
4218;27054725000;25888477777;26388477777
4219;27054729000;25888477777;26388477777
4220;27054730000;25888477777;26388477777
4221;27054731000;25888477777;26388477777
4222;27054732000;25888477777;26388477777
4223;27054943000;25888500000;26388500000
4224;27054946000;25888788888;26388788888
4226;27054947000;25888788888;26388788888
4227;27068570000;25930133333;26430133333
4228;27068573000;25930133333;26430133333
4229;27068575000;25930133333;26430133333
4231;27068576000;25930133333;26430133333
4232;27068577000;25930133333;26430133333
4233;27068578000;25930133333;26430133333
4234;27068790000;25930155555;26430155555
4237;27068805000;25930444444;26430444444
4238;27079648000;25971811111;26471811111
4239;27079651000;25971811111;26471811111
4240;27079652000;25971811111;26471811111
4241;27079653000;25971811111;26471811111
4242;27079654000;25971811111;26471811111
4243;27079655000;25971811111;26471811111
4244;27079656000;25971811111;26471811111
4246;27079765000;25972155555;26472155555
4247;27116070000;25972155555;26472155555
4248;27116898000;25972155555;26472155555
4249;27167962000;26013477777;26513477777
4295;27332590000;26180144444;26680144444
4296;27332594000;26180144444;26680144444
4297;27332595000;26180144444;26680144444
4303;27332705000;26180455555;26680455555
4304;27370758000;26221811111;26721811111
4347;27467908000;26347144444;26847144444
4373;27537356000;26471811111;26971811111
4374;27537360000;26471811111;26971811111
4375;27537361000;26471811111;26971811111
4376;27537362000;26471811111;26971811111
4377;27537578000;26471833333;26971833333
4378;27537598000;26472155555;26972155555
4379;27537599000;26472155555;26972155555
4386;27556199000;26513477777;27013477777
4388;27556294000;26513488888;27013488888
4389;27556309000;26513800000;27013800000
4390;27556310000;26513800000;27013800000
4391;27556311000;26513800000;27013800000
4392;27570206000;26555155555;27055155555
4393;27570210000;26555155555;27055155555
4394;27570211000;26555155555;27055155555
4395;27570212000;26555155555;27055155555
4396;27570222000;26555155555;27055155555
4397;27570222000;26555155555;27055155555
4398;27570223000;26555155555;27055155555
4399;27570422000;26555177777;27055177777
4400;27570437000;26555477777;27055477777
4401;27597727000;26555477777;27055477777
4402;27600488000;26555477777;27055477777
4403;27651441000;26596811111;27096811111
4449;27816434000;26763477777;27263477777
4450;27816438000;26763477777;27263477777
4451;27816439000;26763477777;27263477777
4454;27816654000;26763488888;27263488888
4457;27816670000;26763788888;27263788888
4458;27853586000;26805144444;27305144444
4505;27973330000;26971811111;27471811111
4531;28017691000;27055166666;27555166666
4532;28017706000;27055433333;27555433333
4533;28017707000;27055433333;27555433333
4534;28017708000;27055433333;27555433333
4535;28036761000;27096811111;27596811111
4536;28036764000;27096811111;27596811111
4537;28036765000;27096811111;27596811111
4538;28036766000;27096811111;27596811111
4539;28036767000;27096811111;27596811111
4540;28036768000;27096811111;27596811111
4541;28036769000;27096811111;27596811111
4542;28036968000;27096822222;27596822222
4543;28036983000;27097122222;27597122222
4544;28036984000;27097122222;27597122222
4545;28036985000;27097122222;27597122222
4546;28051036000;27138466666;27638466666
4547;28051039000;27138466666;27638466666
4548;28051040000;27138466666;27638466666
4549;28051041000;27138466666;27638466666
4551;28051406000;27138466666;27638466666
4552;28051409000;27138466666;27638466666
4553;28051626000;27138488888;27638488888
4554;28051641000;27138788888;27638788888
4555;28051643000;27138788888;27638788888
4556;28051644000;27138788888;27638788888
4557;28132833000;27180133333;27680133333
4611;28297776000;27347111111;27847111111
4612;28334944000;27388466666;27888466666
4659;28449981000;27555133333;28055133333
4690;28502707000;27680144444;28180144444
4691;28502712000;27680144444;28180144444
4692;28502713000;27680144444;28180144444
4693;28502714000;27680144444;28180144444
4694;28502715000;27680144444;28180144444
4695;28502716000;27680144444;28180144444
4696;28502915000;27680166666;28180166666
4697;28502931000;27680422222;28180422222
4698;28502932000;27680422222;28180422222
4699;28502933000;27680422222;28180422222
4700;28516464000;27721822222;28221822222
4701;28516468000;27721822222;28221822222
4702;28516469000;27721822222;28221822222
4703;28516483000;27721822222;28221822222
4704;28516484000;27721822222;28221822222
4705;28516485000;27721822222;28221822222
4706;28516486000;27721822222;28221822222
4707;28516656000;27721833333;28221833333
4708;28516660000;27722200000;28222200000
4709;28516661000;27722200000;28222200000
4711;28527508000;27763500000;28263500000
4712;28527510000;27763500000;28263500000
4713;28563605000;27763500000;28263500000
4714;28564217000;27763500000;28263500000
4716;28564875000;27763500000;28263500000
4717;28565075000;27763500000;28263500000
4720;28615935000;27763788888;28263788888
4767;28819118000;27971800000;28471800000
4821;28955311000;28180133333;28680133333
4843;28988038000;28263477777;28763477777
4846;28988042000;28263477777;28763477777
4847;28988043000;28263477777;28763477777
4848;28988044000;28263477777;28763477777
4849;28988045000;28263477777;28763477777
4850;28988259000;28263500000;28763500000
4851;28988274000;28263800000;28763800000
4852;28988275000;28263800000;28763800000
4853;28988276000;28263800000;28763800000
4854;29001867000;28305144444;28805144444
4855;29001870000;28305144444;28805144444
4856;29001871000;28305144444;28805144444
4857;29001872000;28305144444;28805144444
4858;29001873000;28305144444;28805144444
4859;29001874000;28305144444;28805144444
4860;29001875000;28305144444;28805144444
4861;29002044000;28305166666;28805166666
4862;29002048000;28305433333;28805433333
4863;29002049000;28305433333;28805433333
4864;29002050000;28305433333;28805433333
4865;29012041000;28346811111;28846811111
4866;29012043000;28346811111;28846811111
4867;29012044000;28346811111;28846811111
4868;29046017000;28346811111;28846811111
4869;29046078000;28346811111;28846811111
4870;29046302000;28346811111;28846811111
4871;29046572000;28346811111;28846811111
4872;29097500000;28346844444;28846844444
4919;29097515000;28513800000;29013800000
4920;29299763000;28555144444;29055144444
4969;29412570000;28721833333;29221833333
4998;29472501000;28846800000;29346800000
4999;29472504000;28846800000;29346800000
5000;29472505000;28846800000;29346800000
5001;29472506000;28846800000;29346800000
5002;29472507000;28846800000;29346800000
5003;29472508000;28846800000;29346800000
5004;29472706000;28846822222;29346822222
5006;29472722000;28847155555;29347155555
5008;29485809000;28888466666;29388466666
5009;29485812000;28888466666;29388466666
5010;29485813000;28888466666;29388466666
5011;29485814000;28888466666;29388466666
5012;29485815000;28888466666;29388466666
5013;29485816000;28888466666;29388466666
5015;29485912000;28888488888;29388488888
5016;29485928000;28888788888;29388788888
5017;29485929000;28888788888;29388788888
5018;29485930000;28888788888;29388788888
5020;29495834000;28930344444;29430344444
5021;29495838000;28930344444;29430344444
5022;29495839000;28930344444;29430344444
5023;29495840000;28930344444;29430344444
5025;29527788000;28930344444;29430344444
5026;29578651000;28930377777;29430377777
5072;29578666000;29097144444;29597144444
5073;29578667000;29097144444;29597144444
5074;29780622000;29138466666;29638466666
5122;29893801000;29305155555;29805155555
5152;29955444000;29430155555;29930155555
5153;29955448000;29430155555;29930155555
5154;29955449000;29430155555;29930155555
5158;29955657000;29430166666;29930166666
5159;29955672000;29430444444;29930444444
5160;29955673000;29430444444;29930444444
5161;29955674000;29430444444;29930444444
5162;29968504000;29471811111;29971811111
5163;29968517000;29471811111;29971811111
5164;29968518000;29471811111;29971811111
5165;29968519000;29471811111;29971811111
5166;29968520000;29471811111;29971811111
5167;29968521000;29471811111;29971811111
5168;29968522000;29471811111;29971811111
5169;29968728000;29471833333;29971833333
5170;29968743000;29472166666;29972166666
5171;29968745000;29472166666;29972166666
5172;29968746000;29472166666;29972166666
5173;29978148000;29513477777;30013477777
5174;29978151000;29513477777;30013477777
5175;29978152000;29513477777;30013477777
5176;29978154000;29513477777;30013477777
5177;30009066000;29513477777;30013477777
5178;30009282000;29513477777;30013477777
5179;30009283000;29513477777;30013477777
5180;30060028000;29513500000;30013500000
5232;30060043000;29721811111;30221811111
5233;30060044000;29721811111;30221811111
5234;30060045000;29721811111;30221811111
5235;30263555000;29721822222;30221822222
5287;30263751000;29930166666;30430166666
5288;30263753000;29930166666;30430166666
5289;30263754000;29930166666;30430166666
5290;30396189000;29930177777;30430177777
5310;30396204000;30013477777;30513477777
5311;30396205000;30013477777;30513477777
5313;30430032000;30013788888;30513788888
5316;30451918000;30055144444;30555144444
5317;30451922000;30055144444;30555144444
5318;30451923000;30055144444;30555144444
5319;30451924000;30055144444;30555144444
5320;30451925000;30055144444;30555144444
5321;30451926000;30055144444;30555144444
5323;30452020000;30055166666;30555166666
5324;30452035000;30055444444;30555444444
5325;30452036000;30055444444;30555444444
5326;30452037000;30055444444;30555444444
5328;30461205000;30096811111;30596811111
5329;30461208000;30096811111;30596811111
5330;30461209000;30096811111;30596811111
5331;30461210000;30096811111;30596811111
5332;30461212000;30096811111;30596811111
5333;30461212000;30096811111;30596811111
5337;30541448000;30097133333;30597133333
5386;30743682000;30305133333;30805133333
5422;30834255000;30430155555;30930155555
5448;30834270000;30555133333;31055133333
5449;30834272000;30555133333;31055133333
5450;30834273000;30555133333;31055133333
5452;30894639000;30555133333;31055133333
5454;30894641000;30555133333;31055133333
5455;30894814000;30555155555;31055155555
5456;30894818000;30555455555;31055455555
5457;30894819000;30555455555;31055455555
5459;30911729000;30596800000;31096800000
5460;30911732000;30596800000;31096800000
5461;30911734000;30596800000;31096800000
5463;30911744000;30596800000;31096800000
5464;30911755000;30596800000;31096800000
5465;30911756000;30596800000;31096800000
5466;30911825000;30596811111;31096811111
5467;30911829000;30597122222;31097122222
5468;30911831000;30597122222;31097122222
5469;30911832000;30597122222;31097122222
5470;30929118000;30639566666;31139566666
5471;30929121000;30639566666;31139566666
5472;30929123000;30639566666;31139566666
5474;30929133000;30639566666;31139566666
5475;30929135000;30639566666;31139566666
5476;30929137000;30639566666;31139566666
5477;30929280000;30640611111;31140611111
5478;30972840000;30641433333;31141433333
5479;30972843000;30641433333;31141433333
5480;30973103000;30641433333;31141433333
5481;31062109000;30680188888;31180188888
5482;31062112000;30680188888;31180188888
5483;31062113000;30680188888;31180188888
5486;31062114000;30680188888;31180188888
5487;31062116000;30680188888;31180188888
5488;31062296000;30680200000;31180200000
5489;31062300000;30680488888;31180488888
5490;31062301000;30680488888;31180488888
5491;31062302000;30680488888;31180488888
5492;31103352000;30721811111;31221811111
5493;31103365000;30721811111;31221811111
5494;31103367000;30721811111;31221811111
5495;31103368000;30721811111;31221811111
5496;31103370000;30721811111;31221811111
5497;31103371000;30721811111;31221811111
5498;31103373000;30721811111;31221811111
5499;31103524000;30721833333;31221833333
