seqnum;now;rtptime;deadline
1;6360632000;3159444444;3659444444
3;6764205000;3190555555;3690555555
759;7627221000;6024211111;6524211111
974;8126149000;6857255555;7357255555
1066;8311805000;7190566666;7690566666
1110;8415370000;7357244444;7857244444
1136;8415377000;7482211111;7982211111
1137;8415378000;7482211111;7982211111
1138;8415380000;7482211111;7982211111
1139;8415382000;7482211111;7982211111
1140;8415383000;7482211111;7982211111
1141;8415384000;7482211111;7982211111
1142;8415386000;7482211111;7982211111
1143;8492546000;7482244444;7982244444
1172;8492564000;7607233333;8107233333
1173;8492566000;7607233333;8107233333
1174;8492567000;7607233333;8107233333
1175;8492568000;7607233333;8107233333
1176;8573485000;7607255555;8107255555
1186;8573501000;7648877777;8148877777
1187;8603737000;7648900000;8148900000
1189;8603742000;7649211111;8149211111
1190;8603743000;7649211111;8149211111
1191;8634291000;7690555555;8190555555
1195;8634296000;7690555555;8190555555
1196;8634297000;7690555555;8190555555
1197;8634298000;7690555555;8190555555
1198;8634476000;7690577777;8190577777
1199;8634481000;7690833333;8190833333
1200;8634482000;7690833333;8190833333
1201;8634483000;7690833333;8190833333
1202;8665191000;7732222222;8232222222
1205;8665194000;7732222222;8232222222
1206;8665196000;7732222222;8232222222
1207;8665197000;7732222222;8232222222
1208;8665199000;7732222222;8232222222
1209;8665342000;7732244444;8232244444
1210;8665344000;7732544444;8232544444
1211;8665346000;7732544444;8232544444
1212;8665348000;7732544444;8232544444
1213;8696352000;7773888888;8273888888
1220;8696553000;7773911111;8273911111
1221;8696568000;7774211111;8274211111
1222;8696570000;7774211111;8274211111
1223;8696571000;7774211111;8274211111
1224;8714353000;7815544444;8315544444
1229;8714357000;7815544444;8315544444
1230;8714358000;7815544444;8315544444
1231;8727736000;7815566666;8315566666
1232;8727752000;7815877777;8315877777
1233;8727753000;7815877777;8315877777
1234;8727755000;7815877777;8315877777
1235;8759389000;7857222222;8357222222
1245;8759501000;7857544444;8357544444
1246;8784855000;7898888888;8398888888
1253;8785060000;7898911111;8398911111
1254;8785064000;7899188888;8399188888
1255;8785066000;7899188888;8399188888
1256;8785067000;7899188888;8399188888
1257;8817121000;7940555555;8440555555
1271;8843606000;7982233333;8482233333
1280;8876479000;8023888888;8523888888
1288;8876591000;8024211111;8524211111
1289;8876595000;8024211111;8524211111
1290;8909529000;8065555555;8565555555
1297;8909730000;8065588888;8565588888
1298;8909746000;8065866666;8565866666
1299;8909747000;8065866666;8565866666
1300;8909748000;8065866666;8565866666
1301;8939984000;8107222222;8607222222
1307;8939988000;8107222222;8607222222
1308;8940221000;8107255555;8607255555
1309;8940236000;8107600000;8607600000
1310;8940237000;8107600000;8607600000
1311;8940239000;8107600000;8607600000
1312;8973590000;8148900000;8648900000
1315;8973593000;8148900000;8648900000
1316;8973595000;8148900000;8648900000
1317;8973596000;8148900000;8648900000
1318;8973597000;8148900000;8648900000
1319;8973795000;8149000000;8649000000
1320;8973802000;8149311111;8649311111
1321;8973803000;8149311111;8649311111
1322;8973805000;8149311111;8649311111
1323;9007271000;8190555555;8690555555
1330;9007471000;8190588888;8690588888
1331;9007477000;8190855555;8690855555
1332;9007479000;8190855555;8690855555
1333;9007480000;8190855555;8690855555
1334;9043801000;8232244444;8732244444
1343;9043887000;8232588888;8732588888
1344;9043890000;8232588888;8732588888
1345;9070327000;8273888888;8773888888
1351;9070331000;8273888888;8773888888
1352;9070530000;8273922222;8773922222
1353;9070545000;8274222222;8774222222
1354;9070547000;8274222222;8774222222
1355;9070548000;8274222222;8774222222
1356;9104759000;8315555555;8815555555
1364;9104864000;8315877777;8815877777
1365;9104867000;8315877777;8815877777
1366;9104868000;8315877777;8815877777
1367;9139357000;8357255555;8857255555
1371;9139360000;8357255555;8857255555
1372;9139362000;8357255555;8857255555
1373;9139363000;8357255555;8857255555
1374;9139570000;8357277777;8857277777
1375;9139586000;8357588888;8857588888
1376;9139603000;8357588888;8857588888
1377;9139604000;8357588888;8857588888
1378;9174028000;8398888888;8898888888
1379;9174032000;8398888888;8898888888
1380;9174033000;8398888888;8898888888
1381;9174034000;8398888888;8898888888
1382;9174035000;8398888888;8898888888
1383;9174037000;8398888888;8898888888
1384;9174038000;8398888888;8898888888
1385;9174202000;8398922222;8898922222
1386;9174208000;8399233333;8899233333
1387;9174210000;8399233333;8899233333
1388;9174211000;8399233333;8899233333
1389;9208856000;8440555555;8940555555
1390;9208860000;8440555555;8940555555
1391;9208861000;8440555555;8940555555
1392;9208872000;8440555555;8940555555
1393;9208873000;8440555555;8940555555
1394;9208874000;8440555555;8940555555
1395;9208875000;8440555555;8940555555
1396;9209007000;8440588888;8940588888
1397;9209013000;8440877777;8940877777
1398;9209014000;8440877777;8940877777
1399;9209015000;8440877777;8940877777
1400;9237512000;8482266666;8982266666
1401;9237515000;8482266666;8982266666
1402;9237516000;8482266666;8982266666
1403;9237517000;8482266666;8982266666
1404;9237518000;8482266666;8982266666
1405;9237519000;8482266666;8982266666
1406;9237520000;8482266666;8982266666
1407;9237637000;8482300000;8982300000
1408;9237641000;8482600000;8982600000
1409;9237643000;8482600000;8982600000
1410;9237644000;8482600000;8982600000
1411;9273307000;8523888888;9023888888
1412;9273310000;8523888888;9023888888
1413;9273311000;8523888888;9023888888
1414;9273312000;8523888888;9023888888
1415;9273313000;8523888888;9023888888
1416;9273314000;8523888888;9023888888
1417;9273315000;8523888888;9023888888
1418;9273413000;8523922222;9023922222
1419;9273417000;8524222222;9024222222
1420;9273419000;8524222222;9024222222
1421;9273420000;8524222222;9024222222
1422;9309248000;8565555555;9065555555
1423;9309251000;8565555555;9065555555
1424;9309272000;8565555555;9065555555
1425;9309273000;8565555555;9065555555
1426;9309274000;8565555555;9065555555
1427;9309275000;8565555555;9065555555
1428;9309277000;8565555555;9065555555
1429;9309394000;8565588888;9065588888
1430;9309399000;8565866666;9065866666
1431;9309400000;8565866666;9065866666
1432;9309401000;8565866666;9065866666
1433;9345378000;8607255555;9107255555
1434;9345381000;8607255555;9107255555
1435;9345382000;8607255555;9107255555
1436;9345383000;8607255555;9107255555
1437;9345384000;8607255555;9107255555
1438;9345385000;8607255555;9107255555
1439;9345386000;8607255555;9107255555
1440;9345484000;8607288888;9107288888
1441;9345488000;8607577777;9107577777
1442;9345490000;8607577777;9107577777
1443;9345491000;8607577777;9107577777
1444;9381556000;8648888888;9148888888
1445;9381559000;8648888888;9148888888
1446;9381560000;8648888888;9148888888
1447;9381561000;8648888888;9148888888
1448;9381561000;8648888888;9148888888
1449;9381562000;8648888888;9148888888
1450;9381563000;8648888888;9148888888
1451;9381651000;8648922222;9148922222
1452;9381655000;8649222222;9149222222
1453;9381657000;8649222222;9149222222
1454;9381658000;8649222222;9149222222
1455;9416259000;8690555555;9190555555
1456;9416261000;8690555555;9190555555
1457;9416262000;8690555555;9190555555
1458;9416264000;8690555555;9190555555
1459;9416264000;8690555555;9190555555
1460;9416265000;8690555555;9190555555
1461;9416266000;8690555555;9190555555
1462;9416364000;8690588888;9190588888
1463;9416369000;8690866666;9190866666
1464;9416370000;8690866666;9190866666
1465;9416371000;8690866666;9190866666
1466;9453085000;8732222222;9232222222
1467;9453088000;8732222222;9232222222
1468;9453089000;8732222222;9232222222
1469;9453090000;8732222222;9232222222
1470;9453091000;8732222222;9232222222
1471;9453092000;8732222222;9232222222
1472;9453093000;8732222222;9232222222
1473;9453212000;8732255555;9232255555
1474;9453217000;8732588888;9232588888
1475;9453219000;8732588888;9232588888
1476;9453220000;8732588888;9232588888
1477;9490192000;8773888888;9273888888
1478;9490204000;8773888888;9273888888
1479;9490205000;8773888888;9273888888
1480;9490206000;8773888888;9273888888
1481;9490208000;8773888888;9273888888
1482;9490209000;8773888888;9273888888
1483;9490210000;8773888888;9273888888
1484;9490331000;8773922222;9273922222
1485;9490336000;8774255555;9274255555
1486;9490337000;8774255555;9274255555
1487;9490338000;8774255555;9274255555
1488;9527330000;8815555555;9315555555
1489;9527342000;8815555555;9315555555
1490;9527343000;8815555555;9315555555
1491;9527344000;8815555555;9315555555
1492;9527345000;8815555555;9315555555
1493;9527346000;8815555555;9315555555
1494;9527347000;8815555555;9315555555
1495;9527464000;8815611111;9315611111
1496;9527469000;8815955555;9315955555
1497;9527470000;8815955555;9315955555
1498;9527471000;8815955555;9315955555
1499;9564488000;8857233333;9357233333
1500;9564491000;8857233333;9357233333
1501;9564492000;8857233333;9357233333
1502;9564493000;8857233333;9357233333
1503;9564494000;8857233333;9357233333
1504;9564495000;8857233333;9357233333
1505;9564496000;8857233333;9357233333
1506;9564610000;8857277777;9357277777
1507;9564615000;8857600000;9357600000
1508;9564616000;8857600000;9357600000
1509;9564617000;8857600000;9357600000
1510;9599078000;8898888888;9398888888
1511;9599082000;8898888888;9398888888
1512;9599083000;8898888888;9398888888
1513;9599084000;8898888888;9398888888
1514;9599085000;8898888888;9398888888
1515;9599086000;8898888888;9398888888
1516;9599087000;8898888888;9398888888
1517;9599208000;8898933333;9398933333
1518;9599213000;8899211111;9399211111
1519;9599214000;8899211111;9399211111
1520;9599215000;8899211111;9399211111
1521;9636616000;8940555555;9440555555
1522;9636620000;8940555555;9440555555
1523;9636621000;8940555555;9440555555
1524;9636622000;8940555555;9440555555
1525;9636623000;8940555555;9440555555
1526;9636624000;8940555555;9440555555
1527;9636625000;8940555555;9440555555
1528;9636750000;8940600000;9440600000
1529;9636756000;8940888888;9440888888
1530;9636757000;8940888888;9440888888
1531;9636758000;8940888888;9440888888
1532;9674602000;8982222222;9482222222
1533;9674605000;8982222222;9482222222
1534;9674606000;8982222222;9482222222
1535;9674608000;8982222222;9482222222
1536;9674608000;8982222222;9482222222
1537;9674609000;8982222222;9482222222
1538;9674610000;8982222222;9482222222
1539;9674732000;8982266666;9482266666
1540;9674737000;8982577777;9482577777
1541;9674739000;8982577777;9482577777
1542;9674740000;8982577777;9482577777
1543;9712955000;9023900000;9523900000
1544;9712959000;9023900000;9523900000
1545;9712960000;9023900000;9523900000
1546;9712961000;9023900000;9523900000
1547;9712962000;9023900000;9523900000
1548;9712963000;9023900000;9523900000
1549;9712964000;9023900000;9523900000
1550;9713092000;9023933333;9523933333
1551;9713097000;9024233333;9524233333
1552;9713099000;9024233333;9524233333
1553;9713100000;9024233333;9524233333
1554;9751262000;9065555555;9565555555
1555;9751266000;9065555555;9565555555
1556;9751267000;9065555555;9565555555
1557;9751268000;9065555555;9565555555
1558;9751269000;9065555555;9565555555
1559;9751270000;9065555555;9565555555
1560;9751271000;9065555555;9565555555
1561;9751393000;9065600000;9565600000
1562;9751398000;9065888888;9565888888
1563;9751399000;9065888888;9565888888
1564;9751400000;9065888888;9565888888
1565;9789669000;9107233333;9607233333
1566;9789673000;9107233333;9607233333
1567;9789674000;9107233333;9607233333
1568;9789675000;9107233333;9607233333
1569;9789676000;9107233333;9607233333
1570;9789677000;9107233333;9607233333
1571;9789678000;9107233333;9607233333
1572;9789797000;9107266666;9607266666
1573;9789802000;9107588888;9607588888
1574;9789803000;9107588888;9607588888
1575;9789804000;9107588888;9607588888
1576;9828122000;9148900000;9648900000
1577;9828125000;9148900000;9648900000
1578;9828126000;9148900000;9648900000
1579;9828127000;9148900000;9648900000
1580;9828128000;9148900000;9648900000
1581;9828129000;9148900000;9648900000
1582;9828130000;9148900000;9648900000
1583;9828248000;9148933333;9648933333
1584;9828253000;9149244444;9649244444
1585;9828254000;9149244444;9649244444
1586;9828255000;9149244444;9649244444
1587;9866680000;9190566666;9690566666
1588;9866692000;9190566666;9690566666
1589;9866693000;9190566666;9690566666
1590;9866694000;9190566666;9690566666
1591;9866703000;9190566666;9690566666
1592;9866704000;9190566666;9690566666
1593;9866705000;9190566666;9690566666
1594;9866813000;9190600000;9690600000
1595;9866818000;9190877777;9690877777
1596;9866819000;9190877777;9690877777
1597;9866820000;9190877777;9690877777
1598;9905101000;9232222222;9732222222
1599;9905104000;9232222222;9732222222
1600;9905105000;9232222222;9732222222
1601;9905106000;9232222222;9732222222
1602;9905107000;9232222222;9732222222
1603;9905108000;9232222222;9732222222
1604;9905109000;9232222222;9732222222
1605;9905205000;9232266666;9732266666
1606;9905210000;9232600000;9732600000
1607;9905211000;9232600000;9732600000
1608;9905212000;9232600000;9732600000
1609;9943910000;9273900000;9773900000
1610;9943922000;9273900000;9773900000
1611;9943923000;9273900000;9773900000
1612;9943924000;9273900000;9773900000
1613;9943925000;9273900000;9773900000
1614;9943926000;9273900000;9773900000
1615;9943927000;9273900000;9773900000
1616;9944051000;9273933333;9773933333
1617;9944066000;9274233333;9774233333
1618;9944067000;9274233333;9774233333
1619;9944068000;9274233333;9774233333
1620;9981807000;9315555555;9815555555
1621;9981819000;9315555555;9815555555
1622;9981820000;9315555555;9815555555
1623;9981821000;9315555555;9815555555
1624;9981822000;9315555555;9815555555
1625;9981823000;9315555555;9815555555
1626;9981824000;9315555555;9815555555
1627;9981912000;9315588888;9815588888
1628;9981916000;9315911111;9815911111
1629;9981917000;9315911111;9815911111
1630;9981918000;9315911111;9815911111
1631;10020682000;9357233333;9857233333
1632;10020694000;9357233333;9857233333
1633;10020695000;9357233333;9857233333
1634;10020696000;9357233333;9857233333
1635;10020697000;9357233333;9857233333
1636;10020698000;9357233333;9857233333
1637;10020699000;9357233333;9857233333
1638;10020807000;9357266666;9857266666
1639;10020811000;9357588888;9857588888
1640;10020812000;9357588888;9857588888
1641;10020813000;9357588888;9857588888
1642;10057655000;9398888888;9898888888
1643;10057658000;9398888888;9898888888
1644;10057659000;9398888888;9898888888
1645;10057660000;9398888888;9898888888
1646;10057661000;9398888888;9898888888
1647;10057662000;9398888888;9898888888
1648;10057663000;9398888888;9898888888
1649;10057780000;9398922222;9898922222
1650;10057784000;9399255555;9899255555
1651;10057785000;9399255555;9899255555
1652;10057786000;9399255555;9899255555
1653;10096869000;9440566666;9940566666
1654;10096873000;9440566666;9940566666
1655;10096874000;9440566666;9940566666
1656;10096875000;9440566666;9940566666
1657;10096876000;9440566666;9940566666
1658;10096877000;9440566666;9940566666
1659;10096878000;9440566666;9940566666
1660;10097000000;9440611111;9940611111
1661;10097005000;9440911111;9940911111
1662;10097006000;9440911111;9940911111
1663;10097007000;9440911111;9940911111
1664;10135974000;9482244444;9982244444
1665;10135978000;9482244444;9982244444
1666;10135979000;9482244444;9982244444
1667;10135980000;9482244444;9982244444
1668;10135981000;9482244444;9982244444
1669;10135982000;9482244444;9982244444
1670;10135983000;9482244444;9982244444
1671;10136107000;9482288888;9982288888
1672;10136112000;9482622222;9982622222
1673;10136114000;9482622222;9982622222
1674;10136115000;9482622222;9982622222
1675;10175126000;9524044444;10024044444
1676;10175129000;9524044444;10024044444
1677;10175130000;9524044444;10024044444
1678;10175131000;9524044444;10024044444
1679;10175132000;9524044444;10024044444
1680;10175133000;9524044444;10024044444
1681;10175134000;9524044444;10024044444
1682;10175253000;9524177777;10024177777
1683;10175258000;9524511111;10024511111
1684;10175260000;9524511111;10024511111
1685;10175261000;9524511111;10024511111
1686;10214334000;9565666666;10065666666
1687;10214346000;9565666666;10065666666
1688;10214347000;9565666666;10065666666
1689;10214348000;9565666666;10065666666
1690;10214349000;9565666666;10065666666
1691;10214350000;9565666666;10065666666
1692;10214351000;9565666666;10065666666
1693;10214458000;9565844444;10065844444
1694;10214462000;9566155555;10066155555
1695;10214463000;9566155555;10066155555
1696;10214464000;9566155555;10066155555
1697;10252013000;9607211111;10107211111
1698;10252025000;9607211111;10107211111
1699;10252025000;9607211111;10107211111
1700;10252026000;9607211111;10107211111
1701;10252027000;9607211111;10107211111
1702;10252028000;9607211111;10107211111
1703;10252029000;9607211111;10107211111
1704;10252142000;9607255555;10107255555
1705;10252147000;9607566666;10107566666
1706;10252148000;9607566666;10107566666
1707;10252149000;9607566666;10107566666
1708;10291402000;9648900000;10148900000
1709;10291405000;9648900000;10148900000
1710;10291406000;9648900000;10148900000
1711;10291407000;9648900000;10148900000
1712;10291408000;9648900000;10148900000
1713;10291409000;9648900000;10148900000
1714;10291410000;9648900000;10148900000
1715;10291527000;9648944444;10148944444
1716;10291532000;9649266666;10149266666
1717;10291533000;9649266666;10149266666
1718;10291534000;9649266666;10149266666
1719;10330089000;9690566666;10190566666
1720;10330091000;9690566666;10190566666
1721;10330092000;9690566666;10190566666
1722;10330093000;9690566666;10190566666
1723;10330094000;9690566666;10190566666
1724;10330095000;9690566666;10190566666
1725;10330096000;9690566666;10190566666
1726;10330213000;9690611111;10190611111
1727;10330217000;9690888888;10190888888
1728;10330218000;9690888888;10190888888
1729;10330219000;9690888888;10190888888
1730;10369680000;9732255555;10232255555
1731;10369684000;9732255555;10232255555
1732;10369685000;9732255555;10232255555
1733;10369686000;9732255555;10232255555
1734;10369687000;9732255555;10232255555
1735;10369688000;9732255555;10232255555
1736;10369689000;9732255555;10232255555
1737;10369888000;9732311111;10232311111
1738;10369894000;9732622222;10232622222
1739;10369895000;9732622222;10232622222
1740;10369896000;9732622222;10232622222
1741;10407829000;9773900000;10273900000
1742;10407832000;9773900000;10273900000
1743;10407833000;9773900000;10273900000
1744;10407834000;9773900000;10273900000
1745;10407835000;9773900000;10273900000
1746;10407836000;9773900000;10273900000
1747;10407837000;9773900000;10273900000
1748;10408036000;9773944444;10273944444
1749;10408050000;9774277777;10274277777
1750;10408051000;9774277777;10274277777
1751;10408052000;9774277777;10274277777
1752;10447450000;9815566666;10315566666
1753;10447454000;9815566666;10315566666
1754;10447455000;9815566666;10315566666
1755;10447456000;9815566666;10315566666
1756;10447456000;9815566666;10315566666
1757;10457382000;9815566666;10315566666
1758;10457569000;9815566666;10315566666
1759;10940190000;9815611111;10315611111
1763;10940205000;9857266666;10357266666
1764;10940206000;9857266666;10357266666
1765;10940207000;9857266666;10357266666
1766;10940208000;9857266666;10357266666
1767;10940209000;9857266666;10357266666
1768;10940210000;9857266666;10357266666
1769;10940211000;9857266666;10357266666
1770;10979620000;9857311111;10357311111
1774;10979627000;9898900000;10398900000
1775;10979628000;9898900000;10398900000
1776;10979629000;9898900000;10398900000
1777;10979630000;9898900000;10398900000
1778;10979631000;9898900000;10398900000
1779;10979632000;9898900000;10398900000
1780;10979633000;9898900000;10398900000
1781;11021225000;9898944444;10398944444
1788;11032980000;9940566666;10440566666
1789;11032983000;9940566666;10440566666
1790;11032993000;9940566666;10440566666
1791;11032994000;9940566666;10440566666
1792;11062725000;9940611111;10440611111
1796;11062732000;9982255555;10482255555
1797;11062743000;9982255555;10482255555
1798;11062744000;9982255555;10482255555
1799;11062745000;9982255555;10482255555
1800;11062745000;9982255555;10482255555
1801;11062746000;9982255555;10482255555
1802;11062747000;9982255555;10482255555
1803;11104151000;9982311111;10482311111
1808;11104167000;10023900000;10523900000
1809;11104168000;10023900000;10523900000
1810;11104169000;10023900000;10523900000
1811;11104170000;10023900000;10523900000
1812;11104171000;10023900000;10523900000
1813;11104172000;10023900000;10523900000
1814;11145303000;10023955555;10523955555
1819;11145318000;10065566666;10565566666
1820;11145319000;10065566666;10565566666
1821;11145320000;10065566666;10565566666
1822;11145330000;10065566666;10565566666
1823;11145331000;10065566666;10565566666
1824;11145332000;10065566666;10565566666
1825;11186232000;10065622222;10565622222
1831;11186248000;10107255555;10607255555
1832;11186249000;10107255555;10607255555
1833;11186250000;10107255555;10607255555
1834;11186251000;10107255555;10607255555
1835;11186252000;10107255555;10607255555
1836;11226831000;10107311111;10607311111
1843;11226847000;10148900000;10648900000
1844;11226848000;10148900000;10648900000
1845;11226849000;10148900000;10648900000
1846;11226850000;10148900000;10648900000
1847;11267085000;10148966666;10648966666
1854;11267100000;10190566666;10690566666
1855;11267101000;10190566666;10690566666
1856;11267102000;10190566666;10690566666
1857;11267104000;10190566666;10690566666
1858;11306956000;10190644444;10690644444
1867;11306972000;10232233333;10732233333
1868;11306973000;10232233333;10732233333
1869;11346549000;10232288888;10732288888
1879;11346554000;10273900000;10773900000
1880;11385573000;10273955555;10773955555
1890;11385588000;10315566666;10815566666
1891;11421828000;10315622222;10815622222
1894;11421843000;10315911111;10815911111
1895;11457514000;10357233333;10857233333
1908;11490641000;10398900000;10898900000
1922;11527730000;10440566666;10940566666
1933;11565247000;10482233333;10982233333
1939;11600777000;10523900000;11023900000
1951;11630066000;10565566666;11065566666
1963;11666547000;10607233333;11107233333
1970;11666658000;10607577777;11107577777
1971;11666662000;10607577777;11107577777
1972;11704272000;10648900000;11148900000
1982;11704383000;10649255555;11149255555
1983;11742985000;10690566666;11190566666
1993;11743095000;10690911111;11190911111
1994;11782464000;10732233333;11232233333
2004;11782577000;10732611111;11232611111
2005;11818580000;10773900000;11273900000
2016;11850657000;10815566666;11315566666
2022;11850660000;10815566666;11315566666
2023;11850881000;10815633333;11315633333
2025;11850897000;10815944444;11315944444
2026;11850898000;10815944444;11315944444
2027;11887364000;10857500000;11357500000
2032;11887367000;10857500000;11357500000
2033;11887368000;10857500000;11357500000
2034;11887568000;10857555555;11357555555
2035;11887583000;10857866666;11357866666
2036;11887585000;10857866666;11357866666
2037;11887585000;10857866666;11357866666
2038;11925438000;10898900000;11398900000
2045;11925622000;10898966666;11398966666
2046;11925628000;10899266666;11399266666
2047;11925629000;10899266666;11399266666
2048;11925631000;10899266666;11399266666
2049;11966184000;10940788888;11440788888
2057;11966300000;10941122222;11441122222
2058;11966303000;10941122222;11441122222
2059;11966304000;10941122222;11441122222
2060;12006873000;10982266666;11482266666
2069;12007002000;10982633333;11482633333
2070;12007006000;10982633333;11482633333
2071;12040774000;11023911111;11523911111
2080;12040886000;11024311111;11524311111
2081;12040889000;11024311111;11524311111
2082;12072349000;11065577777;11565577777
2088;12073265000;11065577777;11565577777
2089;12073422000;11065633333;11565633333
2090;12073428000;11065922222;11565922222
2091;12073430000;11065922222;11565922222
2092;12073431000;11065922222;11565922222
2093;12110939000;11107266666;11607266666
2099;12110942000;11107266666;11607266666
2100;12111189000;11107333333;11607333333
2101;12111205000;11107633333;11607633333
2102;12111206000;11107633333;11607633333
2103;12111207000;11107633333;11607633333
2104;12151341000;11148933333;11648933333
2110;12151345000;11148933333;11648933333
2111;12151544000;11149000000;11649000000
2112;12151559000;11149344444;11649344444
2113;12151561000;11149344444;11649344444
2114;12151562000;11149344444;11649344444
2115;12191923000;11190577777;11690577777
2121;12191927000;11190577777;11690577777
2122;12192174000;11190633333;11690633333
2123;12192180000;11190933333;11690933333
2124;12192181000;11190933333;11690933333
2125;12192183000;11190933333;11690933333
2126;12232490000;11232266666;11732266666
2135;12232619000;11232655555;11732655555
2136;12232623000;11232655555;11732655555
2137;12272957000;11273911111;11773911111
2145;12273088000;11274300000;11774300000
2146;12273111000;11274300000;11774300000
2147;12273112000;11274300000;11774300000
2148;12313447000;11315577777;11815577777
2157;12313559000;11315966666;11815966666
2158;12313562000;11315966666;11815966666
2161;12354437000;11357277777;11857277777
2170;12383987000;11398911111;11898911111
2175;12383990000;11398911111;11898911111
2176;12383991000;11398911111;11898911111
2177;12384198000;11398977777;11898977777
2178;12384213000;11399333333;11899333333
2179;12384214000;11399333333;11899333333
2180;12384215000;11399333333;11899333333
2181;12418315000;11440577777;11940577777
2187;12418319000;11440577777;11940577777
2188;12418520000;11440644444;11940644444
2189;12418536000;11440955555;11940955555
2190;12418537000;11440955555;11940955555
2191;12418538000;11440955555;11940955555
2192;12458839000;11482277777;11982277777
2202;12458953000;11482666666;11982666666
2203;12498680000;11523911111;12023911111
2210;12498905000;11523988888;12023988888
2211;12498908000;11524322222;12024322222
2212;12498909000;11524322222;12024322222
2213;12498910000;11524322222;12024322222
2214;12539267000;11565577777;12065577777
2219;12539270000;11565577777;12065577777
2220;12539272000;11565577777;12065577777
2221;12539470000;11565655555;12065655555
2222;12539486000;11565955555;12065955555
2223;12539487000;11565955555;12065955555
2224;12539488000;11565955555;12065955555
2225;12579955000;11607255555;12107255555
2226;12579958000;11607255555;12107255555
2227;12579959000;11607255555;12107255555
2228;12579960000;11607255555;12107255555
2229;12579961000;11607255555;12107255555
2230;12579962000;11607255555;12107255555
2231;12579963000;11607255555;12107255555
2232;12580163000;11607333333;12107333333
2233;12580169000;11607688888;12107688888
2234;12580170000;11607688888;12107688888
2235;12580171000;11607688888;12107688888
2236;12620781000;11648933333;12148933333
2237;12620784000;11648933333;12148933333
2238;12620785000;11648933333;12148933333
2239;12620786000;11648933333;12148933333
2240;12620787000;11648933333;12148933333
2241;12620788000;11648933333;12148933333
2242;12620789000;11648933333;12148933333
2243;12620989000;11649022222;12149022222
2244;12620995000;11649355555;12149355555
2245;12620996000;11649355555;12149355555
2246;12620997000;11649355555;12149355555
2247;12661989000;11690611111;12190611111
2248;12661993000;11690611111;12190611111
2249;12661994000;11690611111;12190611111
2250;12661995000;11690611111;12190611111
2251;12661996000;11690611111;12190611111
2252;12661997000;11690611111;12190611111
2253;12661997000;11690611111;12190611111
2254;12662204000;11690700000;12190700000
2255;12662210000;11691066666;12191066666
2256;12662211000;11691066666;12191066666
2257;12662212000;11691066666;12191066666
2258;12686231000;11732244444;12232244444
2259;12686234000;11732244444;12232244444
2260;12686236000;11732244444;12232244444
2261;12686237000;11732244444;12232244444
2262;12686238000;11732244444;12232244444
2263;12686239000;11732244444;12232244444
2264;12686240000;11732244444;12232244444
2265;12686439000;11732322222;12232322222
2266;12686455000;11732644444;12232644444
2267;12686456000;11732644444;12232644444
2268;12686457000;11732644444;12232644444
2269;12724299000;11773911111;12273911111
2270;12724303000;11773911111;12273911111
2271;12724304000;11773911111;12273911111
2272;12724305000;11773911111;12273911111
2273;12724306000;11773911111;12273911111
2274;12724307000;11773911111;12273911111
2275;12724308000;11773911111;12273911111
2276;12724516000;11773988888;12273988888
2277;12724520000;11774311111;12274311111
2278;12724522000;11774311111;12274311111
2279;12724523000;11774311111;12274311111
2280;12765276000;11815577777;12315577777
2281;12765279000;11815577777;12315577777
2282;12765280000;11815577777;12315577777
2283;12765281000;11815577777;12315577777
2284;12765282000;11815577777;12315577777
2285;12765284000;11815577777;12315577777
2286;12765284000;11815577777;12315577777
2287;12765483000;11815666666;12315666666
2288;12765489000;11816011111;12316011111
2289;12765491000;11816011111;12316011111
2290;12765492000;11816011111;12316011111
2291;12806792000;11857277777;12357277777
2292;12806803000;11857277777;12357277777
2293;12806804000;11857277777;12357277777
2294;12806805000;11857277777;12357277777
2295;12806806000;11857277777;12357277777
2296;12806808000;11857277777;12357277777
2297;12806808000;11857277777;12357277777
2298;12807018000;11857355555;12357355555
2299;12807023000;11857666666;12357666666
2300;12807024000;11857666666;12357666666
2301;12807025000;11857666666;12357666666
2302;12848523000;11898911111;12398911111
2303;12848526000;11898911111;12398911111
2304;12848527000;11898911111;12398911111
2305;12848528000;11898911111;12398911111
2306;12848529000;11898911111;12398911111
2307;12848530000;11898911111;12398911111
2308;12848531000;11898911111;12398911111
2309;12848699000;11899000000;12399000000
2310;12848715000;11899311111;12399311111
2311;12848716000;11899311111;12399311111
2312;12848717000;11899311111;12399311111
2313;12890183000;11940577777;12440577777
2314;12890187000;11940577777;12440577777
2315;12890188000;11940577777;12440577777
2316;12890189000;11940577777;12440577777
2317;12890190000;11940577777;12440577777
2318;12890191000;11940577777;12440577777
2319;12890191000;11940577777;12440577777
2320;12890390000;11940666666;12440666666
2321;12890405000;11940955555;12440955555
2322;12890406000;11940955555;12440955555
2323;12890407000;11940955555;12440955555
2324;12931670000;11982255555;12482255555
2325;12931674000;11982255555;12482255555
2326;12931675000;11982255555;12482255555
2327;12931676000;11982255555;12482255555
2328;12931677000;11982255555;12482255555
2329;12931678000;11982255555;12482255555
2330;12931679000;11982255555;12482255555
2331;12931879000;11982333333;12482333333
2332;12931886000;11982677777;12482677777
2333;12931887000;11982677777;12482677777
2334;12931888000;11982677777;12482677777
2335;12972291000;12023922222;12523922222
2336;12972294000;12023922222;12523922222
2337;12972295000;12023922222;12523922222
2338;12972296000;12023922222;12523922222
2339;12972297000;12023922222;12523922222
2340;12972298000;12023922222;12523922222
2341;12972299000;12023922222;12523922222
2342;12972499000;12024000000;12524000000
2343;12972505000;12024333333;12524333333
2344;12972506000;12024333333;12524333333
2345;12972507000;12024333333;12524333333
2346;13013480000;12065588888;12565588888
2347;13013484000;12065588888;12565588888
2348;13013485000;12065588888;12565588888
2349;13013486000;12065588888;12565588888
2350;13013487000;12065588888;12565588888
2351;13013488000;12065588888;12565588888
2352;13013489000;12065588888;12565588888
2353;13013688000;12065666666;12565666666
2354;13013694000;12065988888;12565988888
2355;13013695000;12065988888;12565988888
2356;13013696000;12065988888;12565988888
2357;13054338000;12107255555;12607255555
2358;13054342000;12107255555;12607255555
2359;13054343000;12107255555;12607255555
2360;13054343000;12107255555;12607255555
2361;13054344000;12107255555;12607255555
2362;13054346000;12107255555;12607255555
2363;13054347000;12107255555;12607255555
2364;13054546000;12107344444;12607344444
2365;13054561000;12107677777;12607677777
2366;13054562000;12107677777;12607677777
2367;13054563000;12107677777;12607677777
2368;13095514000;12148911111;12648911111
2369;13095517000;12148911111;12648911111
2370;13095518000;12148911111;12648911111
2371;13095519000;12148911111;12648911111
2372;13095520000;12148911111;12648911111
2373;13095521000;12148911111;12648911111
2374;13095522000;12148911111;12648911111
2375;13095720000;12149000000;12649000000
2376;13095736000;12149322222;12649322222
2377;13095737000;12149322222;12649322222
2378;13095738000;12149322222;12649322222
2379;13136708000;12190588888;12690588888
2380;13136712000;12190588888;12690588888
2381;13136713000;12190588888;12690588888
2382;13136714000;12190588888;12690588888
2383;13136715000;12190588888;12690588888
2384;13136716000;12190588888;12690588888
2385;13136717000;12190588888;12690588888
2386;13136916000;12190677777;12690677777
2387;13136923000;12190966666;12690966666
2388;13136924000;12190966666;12690966666
2389;13136925000;12190966666;12690966666
2390;13177920000;12232266666;12732266666
2391;13177923000;12232266666;12732266666
2392;13177931000;12232266666;12732266666
2393;13177932000;12232266666;12732266666
2394;13177933000;12232266666;12732266666
2395;13177934000;12232266666;12732266666
2396;13177935000;12232266666;12732266666
2397;13178139000;12232355555;12732355555
2398;13178145000;12232688888;12732688888
2399;13178146000;12232688888;12732688888
2400;13178147000;12232688888;12732688888
2401;13219296000;12274088888;12774088888
2402;13219299000;12274088888;12774088888
2403;13219300000;12274088888;12774088888
2404;13219301000;12274088888;12774088888
2405;13219302000;12274088888;12774088888
2406;13219303000;12274088888;12774088888
2407;13219304000;12274088888;12774088888
2408;13219520000;12274200000;12774200000
2409;13219526000;12274544444;12774544444
2410;13219528000;12274544444;12774544444
2411;13219529000;12274544444;12774544444
2412;13260424000;12315655555;12815655555
2413;13260428000;12315655555;12815655555
2414;13260429000;12315655555;12815655555
2415;13260430000;12315655555;12815655555
2416;13260431000;12315655555;12815655555
2417;13260432000;12315655555;12815655555
2418;13260433000;12315655555;12815655555
2419;13260632000;12315888888;12815888888
2420;13260638000;12316233333;12816233333
2421;13260639000;12316233333;12816233333
2422;13260641000;12316233333;12816233333
2423;13301587000;12357277777;12857277777
2424;13301590000;12357277777;12857277777
2425;13301591000;12357277777;12857277777
2426;13301592000;12357277777;12857277777
2427;13309453000;12357277777;12857277777
2428;13310810000;12357277777;12857277777
2429;13329946000;12357277777;12857277777
2430;13836434000;12357366666;12857366666
2431;13836450000;12357688888;12857688888
2433;13836546000;12357688888;12857688888
2434;13875726000;12398955555;12898955555
2435;13875730000;12398955555;12898955555
2436;13875731000;12398955555;12898955555
2437;13875732000;12398955555;12898955555
2438;13875733000;12398955555;12898955555
2439;13875734000;12398955555;12898955555
2440;13875735000;12398955555;12898955555
2441;13875934000;12399177777;12899177777
2442;13875949000;12399477777;12899477777
2443;13875950000;12399477777;12899477777
2444;13875951000;12399477777;12899477777
2445;13917356000;12440588888;12940588888
2446;13917360000;12440588888;12940588888
2447;13917361000;12440588888;12940588888
2448;13917362000;12440588888;12940588888
2449;13917363000;12440588888;12940588888
2450;13917364000;12440588888;12940588888
2451;13917365000;12440588888;12940588888
2452;13917564000;12440677777;12940677777
2453;13917579000;12440977777;12940977777
2454;13917580000;12440977777;12940977777
2455;13917581000;12440977777;12940977777
2456;13959040000;12482277777;12982277777
2457;13959050000;12482277777;12982277777
2458;13959051000;12482277777;12982277777
2459;13959052000;12482277777;12982277777
2460;13959053000;12482277777;12982277777
2461;13959054000;12482277777;12982277777
2462;13959055000;12482277777;12982277777
2463;13959254000;12482377777;12982377777
2464;13959260000;12482688888;12982688888
2465;13959262000;12482688888;12982688888
2466;13959263000;12482688888;12982688888
2467;14000632000;12523944444;13023944444
2468;14000635000;12523944444;13023944444
2469;14000636000;12523944444;13023944444
2470;14000637000;12523944444;13023944444
2471;14000638000;12523944444;13023944444
2472;14000639000;12523944444;13023944444
2473;14000640000;12523944444;13023944444
2474;14000839000;12524044444;13024044444
2475;14000845000;12524366666;13024366666
2476;14000847000;12524366666;13024366666
2477;14000848000;12524366666;13024366666
2478;14042215000;12565588888;13065588888
2479;14042219000;12565588888;13065588888
2480;14042220000;12565588888;13065588888
2481;14042221000;12565588888;13065588888
2482;14042222000;12565588888;13065588888
2483;14042223000;12565588888;13065588888
2484;14042224000;12565588888;13065588888
2485;14042423000;12565677777;13065677777
2486;14042429000;12565977777;13065977777
2487;14042430000;12565977777;13065977777
2488;14042431000;12565977777;13065977777
2489;14083762000;12607277777;13107277777
2490;14083766000;12607277777;13107277777
2491;14083766000;12607277777;13107277777
2492;14083767000;12607277777;13107277777
2493;14083776000;12607277777;13107277777
2494;14083777000;12607277777;13107277777
2495;14083778000;12607277777;13107277777
2496;14083951000;12607377777;13107377777
2497;14083966000;12607688888;13107688888
2498;14083967000;12607688888;13107688888
2499;14083968000;12607688888;13107688888
2500;14125248000;12648922222;13148922222
2501;14125252000;12648922222;13148922222
2502;14125253000;12648922222;13148922222
2503;14125254000;12648922222;13148922222
2504;14125254000;12648922222;13148922222
2505;14125255000;12648922222;13148922222
2506;14130445000;12648922222;13148922222
2507;14626118000;12649011111;13149011111
2508;14626135000;12649344444;13149344444
2509;14626136000;12649344444;13149344444
2510;14626137000;12649344444;13149344444
2511;14665386000;12690588888;13190588888
2512;14665390000;12690588888;13190588888
2513;14665391000;12690588888;13190588888
2514;14665392000;12690588888;13190588888
2515;14665393000;12690588888;13190588888
2516;14665394000;12690588888;13190588888
2517;14665395000;12690588888;13190588888
2518;14665602000;12690688888;13190688888
2519;14665618000;12690977777;13190977777
2520;14665619000;12690977777;13190977777
2521;14665620000;12690977777;13190977777
2522;14707128000;12732277777;13232277777
2523;14707131000;12732277777;13232277777
2524;14707132000;12732277777;13232277777
2525;14707133000;12732277777;13232277777
2526;14707134000;12732277777;13232277777
2527;14707135000;12732277777;13232277777
2528;14707136000;12732277777;13232277777
2529;14707342000;12732366666;13232366666
2530;14707358000;12732722222;13232722222
2531;14707359000;12732722222;13232722222
2532;14707360000;12732722222;13232722222
2533;14748816000;12773922222;13273922222
2534;14748819000;12773922222;13273922222
2535;14748820000;12773922222;13273922222
2536;14748821000;12773922222;13273922222
2537;14748822000;12773922222;13273922222
2538;14748823000;12773922222;13273922222
2539;14748824000;12773922222;13273922222
2540;14749031000;12774022222;13274022222
2541;14749038000;12774366666;13274366666
2542;14749039000;12774366666;13274366666
2543;14749040000;12774366666;13274366666
2544;14790568000;12815588888;13315588888
2545;14790571000;12815588888;13315588888
2546;14790572000;12815588888;13315588888
2547;14790573000;12815588888;13315588888
2548;14790574000;12815588888;13315588888
2549;14790575000;12815588888;13315588888
2550;14790576000;12815588888;13315588888
2551;14790782000;12815688888;13315688888
2552;14790788000;12816022222;13316022222
2553;14790789000;12816022222;13316022222
2554;14790790000;12816022222;13316022222
2555;14832378000;12857277777;13357277777
2556;14832382000;12857277777;13357277777
2557;14832383000;12857277777;13357277777
2558;14832384000;12857277777;13357277777
2559;14832385000;12857277777;13357277777
2560;14832386000;12857277777;13357277777
2561;14832387000;12857277777;13357277777
2562;14832592000;12857377777;13357377777
2563;14832599000;12857700000;13357700000
2564;14832600000;12857700000;13357700000
2565;14832601000;12857700000;13357700000
2566;14874293000;12898922222;13398922222
2567;14874296000;12898922222;13398922222
2568;14874297000;12898922222;13398922222
2569;14874298000;12898922222;13398922222
2570;14874299000;12898922222;13398922222
2571;14874300000;12898922222;13398922222
2572;14874301000;12898922222;13398922222
2573;14874501000;12899022222;13399022222
2574;14874516000;12899333333;13399333333
2575;14874517000;12899333333;13399333333
2576;14874518000;12899333333;13399333333
2577;14916142000;12940588888;13440588888
2578;14916145000;12940588888;13440588888
2579;14916146000;12940588888;13440588888
2580;14916147000;12940588888;13440588888
2581;14931317000;12940588888;13440588888
2582;14931528000;12940588888;13440588888
2583;14951864000;12940588888;13440588888
2584;15434707000;12940688888;13440688888
2585;15434714000;12941033333;13441033333
2586;15434716000;12941033333;13441033333
2587;15434717000;12941033333;13441033333
2588;15473982000;12982277777;13482277777
2589;15473985000;12982277777;13482277777
2590;15473986000;12982277777;13482277777
2591;15473988000;12982277777;13482277777
2592;15473989000;12982277777;13482277777
2593;15473998000;12982277777;13482277777
2594;15473999000;12982277777;13482277777
2595;15474206000;12982377777;13482377777
2597;15476002000;12982722222;13482722222
2598;15476016000;12982722222;13482722222
2599;15515624000;13023933333;13523933333
2600;15515628000;13023933333;13523933333
2601;15515629000;13023933333;13523933333
2602;15515630000;13023933333;13523933333
2603;15515630000;13023933333;13523933333
2604;15515632000;13023933333;13523933333
2605;15515633000;13023933333;13523933333
2606;15515831000;13024033333;13524033333
2607;15515846000;13024377777;13524377777
2608;15515847000;13024377777;13524377777
2609;15515848000;13024377777;13524377777
2610;15557302000;13065588888;13565588888
2611;15557305000;13065588888;13565588888
2612;15557306000;13065588888;13565588888
2613;15557307000;13065588888;13565588888
2614;15557308000;13065588888;13565588888
2615;15557309000;13065588888;13565588888
2616;15557310000;13065588888;13565588888
2617;15557509000;13065688888;13565688888
2618;15557515000;13066011111;13566011111
2619;15557516000;13066011111;13566011111
2620;15557517000;13066011111;13566011111
2621;15598960000;13107300000;13607300000
2622;15598964000;13107300000;13607300000
2623;15598965000;13107300000;13607300000
2624;15598966000;13107300000;13607300000
2625;15598967000;13107300000;13607300000
2626;15598967000;13107300000;13607300000
2627;15598968000;13107300000;13607300000
2628;15599166000;13107411111;13607411111
2629;15599172000;13107744444;13607744444
2630;15599173000;13107744444;13607744444
2631;15599174000;13107744444;13607744444
2632;15640564000;13148922222;13648922222
2633;15640567000;13148922222;13648922222
2634;15640568000;13148922222;13648922222
2635;15640569000;13148922222;13648922222
2636;15640570000;13148922222;13648922222
2637;15640571000;13148922222;13648922222
2638;15640572000;13148922222;13648922222
2639;15640770000;13149022222;13649022222
2640;15640777000;13149322222;13649322222
2641;15640778000;13149322222;13649322222
2642;15640779000;13149322222;13649322222
2643;15682252000;13190588888;13690588888
2644;15682255000;13190588888;13690588888
2645;15682256000;13190588888;13690588888
2646;15682259000;13190588888;13690588888
2647;15682260000;13190588888;13690588888
2648;15682261000;13190588888;13690588888
2649;15682262000;13190588888;13690588888
2650;15682460000;13190688888;13690688888
2651;15686727000;13190988888;13690988888
2652;15686919000;13190988888;13690988888
2653;15707277000;13190988888;13690988888
2654;16210580000;13232255555;13732255555
2655;16210583000;13232255555;13732255555
2656;16210586000;13232255555;13732255555
2657;16210587000;13232255555;13732255555
2658;16210588000;13232255555;13732255555
2659;16210589000;13232255555;13732255555
2660;16210590000;13232255555;13732255555
2661;16210789000;13232355555;13732355555
2662;16210804000;13232677777;13732677777
2663;16210805000;13232677777;13732677777
2664;16210806000;13232677777;13732677777
2665;16249905000;13273922222;13773922222
2666;16249908000;13273922222;13773922222
2667;16249909000;13273922222;13773922222
2668;16249910000;13273922222;13773922222
2669;16249911000;13273922222;13773922222
2670;16249912000;13273922222;13773922222
2671;16249913000;13273922222;13773922222
2672;16250142000;13274022222;13774022222
2673;16250148000;13274311111;13774311111
2674;16250149000;13274311111;13774311111
2675;16250150000;13274311111;13774311111
2676;16291397000;13315588888;13815588888
2677;16291401000;13315588888;13815588888
2678;16291402000;13315588888;13815588888
2679;16291402000;13315588888;13815588888
2680;16291403000;13315588888;13815588888
2681;16291404000;13315588888;13815588888
2682;16291405000;13315588888;13815588888
2683;16291604000;13315688888;13815688888
2684;16291610000;13315988888;13815988888
2685;16291611000;13315988888;13815988888
2686;16291612000;13315988888;13815988888
2687;16332780000;13357255555;13857255555
2688;16332784000;13357255555;13857255555
2689;16332785000;13357255555;13857255555
2690;16332785000;13357255555;13857255555
2691;16332786000;13357255555;13857255555
2692;16332787000;13357255555;13857255555
2693;16332795000;13357255555;13857255555
2694;16333010000;13357355555;13857355555
2695;16333016000;13357666666;13857666666
2696;16333017000;13357666666;13857666666
2697;16333018000;13357666666;13857666666
2698;16373992000;13398922222;13898922222
2699;16373995000;13398922222;13898922222
2700;16373996000;13398922222;13898922222
2701;16373997000;13398922222;13898922222
2702;16373998000;13398922222;13898922222
2703;16373999000;13398922222;13898922222
2704;16374000000;13398922222;13898922222
2705;16374208000;13399033333;13899033333
2706;16374214000;13399344444;13899344444
2707;16374215000;13399344444;13899344444
2708;16374216000;13399344444;13899344444
2709;16415004000;13440600000;13940600000
2710;16415007000;13440600000;13940600000
2711;16415008000;13440600000;13940600000
2712;16415009000;13440600000;13940600000
2713;16415010000;13440600000;13940600000
2714;16415011000;13440600000;13940600000
2715;16415012000;13440600000;13940600000
2717;16415274000;13441000000;13941000000
2718;16415277000;13441000000;13941000000
2719;16415279000;13441000000;13941000000
2720;16456052000;13482255555;13982255555
2721;16456055000;13482255555;13982255555
2722;16456056000;13482255555;13982255555
2723;16456057000;13482255555;13982255555
2724;16456058000;13482255555;13982255555
2725;16456069000;13482255555;13982255555
2726;16473202000;13482255555;13982255555
2727;16955296000;13482366666;13982366666
2728;16955312000;13482677777;13982677777
2729;16955313000;13482677777;13982677777
2730;16955314000;13482677777;13982677777
2731;16995236000;13523922222;14023922222
2732;16995239000;13523922222;14023922222
2733;16995240000;13523922222;14023922222
2734;16995241000;13523922222;14023922222
2735;16995242000;13523922222;14023922222
2736;16995243000;13523922222;14023922222
2737;16995244000;13523922222;14023922222
2738;16995442000;13524022222;14024022222
2739;16995457000;13524322222;14024322222
2740;16995458000;13524322222;14024322222
2741;16995459000;13524322222;14024322222
2742;17036926000;13565588888;14065588888
2743;17036929000;13565588888;14065588888
2744;17036930000;13565588888;14065588888
2745;17036931000;13565588888;14065588888
2746;17036932000;13565588888;14065588888
2747;17036933000;13565588888;14065588888
2748;17036934000;13565588888;14065588888
2749;17037176000;13565700000;14065700000
2750;17037191000;13565977777;14065977777
2751;17037192000;13565977777;14065977777
2753;17079227000;13607255555;14107255555
2754;17079231000;13607255555;14107255555
2755;17079232000;13607255555;14107255555
2756;17079233000;13607255555;14107255555
2757;17079234000;13607255555;14107255555
2758;17079235000;13607255555;14107255555
2759;17079236000;13607255555;14107255555
2760;17079404000;13607388888;14107388888
2761;17079419000;13607711111;14107711111
2762;17079420000;13607711111;14107711111
2763;17079421000;13607711111;14107711111
2764;17120250000;13648922222;14148922222
2765;17120253000;13648922222;14148922222
2766;17120254000;13648922222;14148922222
2767;17120255000;13648922222;14148922222
2768;17120256000;13648922222;14148922222
2769;17120257000;13648922222;14148922222
2770;17120258000;13648922222;14148922222
2771;17120458000;13649033333;14149033333
2772;17120474000;13649366666;14149366666
2773;17120475000;13649366666;14149366666
2774;17120476000;13649366666;14149366666
2775;17161903000;13690588888;14190588888
2776;17161907000;13690588888;14190588888
2777;17161908000;13690588888;14190588888
2778;17161909000;13690588888;14190588888
2779;17161910000;13690588888;14190588888
2780;17161911000;13690588888;14190588888
2781;17161912000;13690588888;14190588888
2782;17162110000;13690688888;14190688888
2783;17162116000;13690966666;14190966666
2784;17162127000;13690966666;14190966666
2785;17162127000;13690966666;14190966666
2786;17203579000;13732277777;14232277777
2787;17203582000;13732277777;14232277777
2788;17203583000;13732277777;14232277777
2789;17203584000;13732277777;14232277777
2790;17203585000;13732277777;14232277777
2791;17203586000;13732277777;14232277777
2792;17203587000;13732277777;14232277777
2793;17203772000;13732388888;14232388888
2794;17203776000;13732711111;14232711111
2795;17203784000;13732711111;14232711111
2796;17203785000;13732711111;14232711111
2797;17245178000;13773922222;14273922222
2798;17245181000;13773922222;14273922222
2799;17245182000;13773922222;14273922222
2800;17245183000;13773922222;14273922222
2801;17245184000;13773922222;14273922222
2802;17253961000;13773922222;14273922222
2804;17755349000;13774033333;14274033333
2805;17755365000;13774366666;14274366666
2806;17755366000;13774366666;14274366666
2807;17755367000;13774366666;14274366666
2808;17796263000;13815588888;14315588888
2809;17796275000;13815588888;14315588888
2810;17796276000;13815588888;14315588888
2811;17796277000;13815588888;14315588888
2812;17796278000;13815588888;14315588888
2813;17796279000;13815588888;14315588888
2814;17796280000;13815588888;14315588888
2815;17796490000;13815700000;14315700000
2816;17796493000;13816011111;14316011111
2817;17796494000;13816011111;14316011111
2818;17796495000;13816011111;14316011111
2819;17837963000;13857288888;14357288888
2820;17837966000;13857288888;14357288888
2821;17837967000;13857288888;14357288888
2822;17837968000;13857288888;14357288888
2823;17837969000;13857288888;14357288888
2824;17837970000;13857288888;14357288888
2825;17837971000;13857288888;14357288888
2826;17838142000;13857388888;14357388888
2827;17838146000;13857688888;14357688888
2828;17838147000;13857688888;14357688888
2829;17838149000;13857688888;14357688888
2830;17879609000;13898922222;14398922222
2831;17879613000;13898922222;14398922222
2832;17879614000;13898922222;14398922222
2833;17879615000;13898922222;14398922222
2834;17879615000;13898922222;14398922222
2835;17879617000;13898922222;14398922222
2836;17879617000;13898922222;14398922222
2837;17879817000;13899033333;14399033333
2838;17879823000;13899344444;14399344444
2839;17879824000;13899344444;14399344444
2840;17879825000;13899344444;14399344444
2842;17921926000;13940588888;14440588888
2843;17921929000;13940588888;14440588888
2844;17921930000;13940588888;14440588888
2845;17921931000;13940588888;14440588888
2846;17921932000;13940588888;14440588888
2847;17921933000;13940588888;14440588888
2848;17922028000;13940700000;14440700000
2849;17922034000;13940977777;14440977777
2850;17922036000;13940977777;14440977777
2851;17922037000;13940977777;14440977777
2852;17962920000;13982255555;14482255555
2853;17962924000;13982255555;14482255555
2854;17962925000;13982255555;14482255555
2855;17962926000;13982255555;14482255555
2856;17962927000;13982255555;14482255555
2857;17962928000;13982255555;14482255555
2858;17962929000;13982255555;14482255555
2859;17963103000;13982366666;14482366666
2860;17963110000;13982688888;14482688888
2861;17963111000;13982688888;14482688888
2862;17963112000;13982688888;14482688888
2864;18004845000;14023922222;14523922222
2865;18004848000;14023922222;14523922222
2866;18004849000;14023922222;14523922222
2867;18004850000;14023922222;14523922222
2868;18004851000;14023922222;14523922222
2869;18004852000;14023922222;14523922222
2870;18004971000;14024033333;14524033333
2871;18004987000;14024366666;14524366666
2872;18004988000;14024366666;14524366666
2873;18004989000;14024366666;14524366666
2874;18046247000;14065588888;14565588888
2875;18046250000;14065588888;14565588888
2876;18046251000;14065588888;14565588888
2877;18046252000;14065588888;14565588888
2878;18046253000;14065588888;14565588888
2879;18055769000;14065588888;14565588888
2880;18055942000;14065588888;14565588888
2881;18558822000;14065700000;14565700000
2882;18558838000;14066000000;14566000000
2883;18558839000;14066000000;14566000000
2884;18558840000;14066000000;14566000000
2885;18598101000;14107266666;14607266666
2886;18598104000;14107266666;14607266666
2887;18598105000;14107266666;14607266666
2888;18598106000;14107266666;14607266666
2889;18598107000;14107266666;14607266666
2890;18598108000;14107266666;14607266666
2891;18598109000;14107266666;14607266666
2892;18598308000;14107377777;14607377777
2893;18598323000;14107722222;14607722222
2894;18598324000;14107722222;14607722222
2895;18598325000;14107722222;14607722222
2896;18639758000;14148922222;14648922222
2898;18641463000;14148922222;1