seqnum;now;rtptime;deadline
4;6889705000;6449244444;6649244444
5;6889708000;6449244444;6649244444
6;6889711000;6449244444;6649244444
7;6889712000;6449244444;6649244444
10;7000434000;6449244444;6649244444
14;7000442000;6480033333;6680033333
15;7000443000;6480033333;6680033333
17;7160231000;6480033333;6680033333
22;7160486000;6521744444;6721744444
24;7320720000;6521744444;6721744444
26;7320912000;6521744444;6721744444
29;7321121000;6521744444;6721744444
30;7321124000;6521744444;6721744444
32;7481155000;6521744444;6721744444
33;7481390000;6563355555;6763355555
36;7481607000;6563355555;6763355555
38;7481850000;6563355555;6763355555
40;7641620000;6563355555;6763355555
41;7641846000;6563355555;6763355555
43;7642099000;6563355555;6763355555
44;7642305000;6605033333;6805033333
47;7642308000;6605033333;6805033333
48;7642467000;6605033333;6805033333
49;7802339000;6605033333;6805033333
50;7802729000;6605033333;6805033333
54;7802750000;6605033333;6805033333
56;7802949000;6646655555;6846655555
58;7803089000;6646655555;6846655555
59;7803092000;6646655555;6846655555
60;7962823000;6646655555;6846655555
61;7963013000;6646655555;6846655555
63;7963207000;6646655555;6846655555
64;7963409000;6646655555;6846655555
66;7963432000;6688311111;6888311111
68;7963638000;6688311111;6888311111
69;7963640000;6688311111;6888311111
70;7963841000;6688311111;6888311111
72;7963921000;6688311111;6888311111
73;8123339000;6688311111;6888311111
74;8123475000;6688311111;6888311111
75;8123705000;6688311111;6888311111
76;8123918000;6688311111;6888311111
78;8123932000;6730000000;6930000000
80;8124135000;6730000000;6930000000
82;8124294000;6730000000;6930000000
83;8124297000;6730000000;6930000000
84;8124465000;6730000000;6930000000
85;8124737000;6730000000;6930000000
87;8124870000;6730000000;6930000000
88;8124883000;6771655555;6971655555
89;8283819000;6771655555;6971655555
90;8283967000;6771655555;6971655555
91;8284159000;6771655555;6971655555
92;8284355000;6771655555;6971655555
93;8284358000;6771655555;6971655555
94;8284522000;6771655555;6971655555
95;8284681000;6771655555;6971655555
96;8284796000;6771655555;6971655555
97;8284798000;6771655555;6971655555
98;8284827000;6771655555;6971655555
103;8285029000;6813333333;7013333333
104;8285175000;6813333333;7013333333
107;8285211000;6813333333;7013333333
108;8444374000;6813333333;7013333333
111;8444725000;6854955555;7054955555
112;8444824000;6854955555;7054955555
113;8445040000;6854955555;7054955555
114;8445042000;6854955555;7054955555
115;8445238000;6854955555;7054955555
118;8445465000;6854955555;7054955555
119;8445467000;6854955555;7054955555
120;8445692000;6854955555;7054955555
121;8445695000;6896644444;7096644444
122;8445839000;6896644444;7096644444
123;8445841000;6896644444;7096644444
124;8445846000;6896644444;7096644444
125;8446080000;6896644444;7096644444
126;8446089000;6896644444;7096644444
128;8446103000;6896644444;7096644444
129;8446217000;6896644444;7096644444
130;8604851000;6896644444;7096644444
131;8605019000;6896644444;7096644444
132;8605220000;6938300000;7138300000
133;8605398000;6938300000;7138300000
134;8605734000;6938300000;7138300000
135;8605947000;6938300000;7138300000
136;8605949000;6938300000;7138300000
137;8606147000;6938300000;7138300000
139;8606174000;6938300000;7138300000
142;8606377000;6938300000;7138300000
143;8606489000;6979944444;7179944444
144;8606492000;6979944444;7179944444
145;8606687000;6979944444;7179944444
146;8606690000;6979944444;7179944444
147;8606698000;6979944444;7179944444
150;8606758000;6979944444;7179944444
155;8607015000;7021655555;7221655555
156;8607114000;7021655555;7221655555
157;8607120000;7021655555;7221655555
158;8765326000;7021655555;7221655555
159;8765486000;7021655555;7221655555
160;8765868000;7021655555;7221655555
162;8766061000;7021655555;7221655555
163;8766063000;7021655555;7221655555
164;8766451000;7021655555;7221655555
165;8766455000;7063322222;7263322222
166;8766624000;7063322222;7263322222
167;8766884000;7063322222;7263322222
168;8766886000;7063322222;7263322222
169;8767083000;7063322222;7263322222
170;8767088000;7063322222;7263322222
173;8767154000;7063322222;7263322222
174;8767197000;7063322222;7263322222
178;8767364000;7104988888;7304988888
179;8767449000;7104988888;7304988888
182;8767619000;7104988888;7304988888
184;8767624000;7104988888;7304988888
186;8767741000;7104988888;7304988888
187;8767879000;7146633333;7346633333
188;8767881000;7146633333;7346633333
191;8767920000;7146633333;7346633333
193;8767921000;7146633333;7346633333
194;8768093000;7146633333;7346633333
195;8768096000;7146633333;7346633333
196;8925875000;7146633333;7346633333
197;8926072000;7146633333;7346633333
200;8926509000;7188300000;7388300000
201;8926725000;7188300000;7388300000
202;8926925000;7188300000;7388300000
203;8927112000;7188300000;7388300000
204;8927114000;7188300000;7388300000
205;8927297000;7188300000;7388300000
206;8927460000;7188300000;7388300000
207;8927461000;7188300000;7388300000
209;8927770000;7229944444;7429944444
212;8927930000;7229944444;7429944444
213;8927932000;7229944444;7429944444
216;8928130000;7229944444;7429944444
217;8928132000;7229944444;7429944444
218;8928307000;7229944444;7429944444
219;8928338000;7229944444;7429944444
220;8928508000;7271700000;7471700000
222;8928510000;7271700000;7471700000
223;8928730000;7271700000;7471700000
224;8928731000;7271700000;7471700000
225;8928739000;7271700000;7471700000
228;8928779000;7271700000;7471700000
229;8928988000;7271700000;7471700000
230;8929005000;7271700000;7471700000
231;8929115000;7313322222;7513322222
232;8929252000;7313322222;7513322222
233;8929304000;7313322222;7513322222
234;8929311000;7313322222;7513322222
237;9087102000;7313322222;7513322222
238;9087230000;7313322222;7513322222
239;9087234000;7313322222;7513322222
240;9087389000;7313322222;7513322222
241;9087411000;7313322222;7513322222
242;9087533000;7354977777;7554977777
243;9087857000;7354977777;7554977777
244;9087860000;7354977777;7554977777
245;9088082000;7354977777;7554977777
247;9088214000;7354977777;7554977777
248;9088408000;7354977777;7554977777
249;9088410000;7354977777;7554977777
252;9088658000;7354977777;7554977777
253;9088871000;7396666666;7596666666
259;9089066000;7396666666;7596666666
261;9089068000;7396666666;7596666666
262;9089213000;7396666666;7596666666
265;9089280000;7438300000;7638300000
266;9089336000;7438300000;7638300000
268;9089688000;7438300000;7638300000
269;9089690000;7438300000;7638300000
272;9089861000;7438300000;7638300000
275;9090009000;7479933333;7679933333
278;9090056000;7479933333;7679933333
280;9247496000;7479933333;7679933333
281;9247654000;7479933333;7679933333
282;9247869000;7479933333;7679933333
283;9247871000;7479933333;7679933333
284;9248110000;7479933333;7679933333
285;9248136000;7479933333;7679933333
286;9248317000;7521655555;7721655555
287;9248319000;7521655555;7721655555
288;9248463000;7521655555;7721655555
289;9248466000;7521655555;7721655555
290;9248715000;7521655555;7721655555
291;9248914000;7521655555;7721655555
293;9248954000;7521655555;7721655555
294;9249052000;7521655555;7721655555
295;9249135000;7521655555;7721655555
297;9249366000;7563288888;7763288888
298;9249379000;7563288888;7763288888
299;9249380000;7563288888;7763288888
300;9249476000;7563288888;7763288888
301;9249763000;7563288888;7763288888
304;9249769000;7563288888;7763288888
305;9249910000;7563288888;7763288888
306;9249912000;7563288888;7763288888
310;9250126000;7604966666;7804966666
311;9250128000;7604966666;7804966666
312;9250330000;7604966666;7804966666
314;9250366000;7604966666;7804966666
315;9250487000;7604966666;7804966666
317;9250589000;7604966666;7804966666
319;9250600000;7646666666;7846666666
321;9250844000;7646666666;7846666666
324;9250848000;7646666666;7846666666
325;9251049000;7646666666;7846666666
326;9407923000;7646666666;7846666666
327;9408129000;7646666666;7846666666
328;9408131000;7646666666;7846666666
329;9408331000;7646666666;7846666666
330;9408335000;7688333333;7888333333
331;9408490000;7688333333;7888333333
332;9408727000;7688333333;7888333333
333;9408729000;7688333333;7888333333
334;9408948000;7688333333;7888333333
335;9408951000;7688333333;7888333333
336;9409146000;7688333333;7888333333
337;9409346000;7688333333;7888333333
338;9409348000;7688333333;7888333333
339;9409519000;7688333333;7888333333
340;9409767000;7688333333;7888333333
341;9409773000;7729944444;7929944444
342;9409775000;7729944444;7929944444
343;9410008000;7729944444;7929944444
345;9410017000;7729944444;7929944444
346;9410047000;7729944444;7929944444
348;9410226000;7729944444;7929944444
351;9410449000;7729944444;7929944444
352;9410463000;7771644444;7971644444
354;9410583000;7771644444;7971644444
355;9410712000;7771644444;7971644444
356;9410736000;7771644444;7971644444
357;9410895000;7771644444;7971644444
358;9410951000;7771644444;7971644444
359;9410953000;7771644444;7971644444
360;9411162000;7771644444;7971644444
361;9411164000;7771644444;7971644444
362;9411180000;7771644444;7971644444
363;9411193000;7813300000;8013300000
364;9411342000;7813300000;8013300000
365;9411379000;7813300000;8013300000
366;9411382000;7813300000;8013300000
368;9411384000;7813300000;8013300000
369;9411665000;7813300000;8013300000
370;9411667000;7813300000;8013300000
371;9411786000;7813300000;8013300000
372;9411788000;7813300000;8013300000
373;9411905000;7813300000;8013300000
374;9411918000;7854944444;8054944444
375;9568408000;7854944444;8054944444
378;9568642000;7854944444;8054944444
379;9568831000;7854944444;8054944444
380;9568834000;7854944444;8054944444
381;9569051000;7854944444;8054944444
382;9569053000;7854944444;8054944444
385;9569303000;7896655555;8096655555
386;9569417000;7896655555;8096655555
387;9569654000;7896655555;8096655555
388;9569656000;7896655555;8096655555
389;9569831000;7896655555;8096655555
390;9570051000;7896655555;8096655555
391;9570053000;7896655555;8096655555
392;9570216000;7896655555;8096655555
393;9570455000;7896655555;8096655555
394;9570458000;7896655555;8096655555
395;9570479000;7896655555;8096655555
396;9570685000;7938300000;8138300000
397;9570874000;7938300000;8138300000
398;9570877000;7938300000;8138300000
400;9571093000;7938300000;8138300000
403;9571096000;7938300000;8138300000
406;9571225000;7938300000;8138300000
407;9571450000;7979911111;8179911111
409;9571722000;7979911111;8179911111
411;9571725000;7979911111;8179911111
412;9571906000;7979911111;8179911111
414;9571916000;7979911111;8179911111
415;9572008000;7979911111;8179911111
416;9572112000;7979911111;8179911111
419;9572283000;8021611111;8221611111
420;9572285000;8021611111;8221611111
421;9572287000;8021611111;8221611111
422;9572479000;8021611111;8221611111
423;9572481000;8021611111;8221611111
424;9572482000;8021611111;8221611111
425;9572484000;8021611111;8221611111
427;9572734000;8021611111;8221611111
431;9572758000;8063311111;8263311111
432;9573215000;8063311111;8263311111
433;9728900000;8063311111;8263311111
434;9729099000;8063311111;8263311111
437;9729347000;8063311111;8263311111
438;9729500000;8063311111;8263311111
439;9729534000;8063311111;8263311111
440;9729737000;8105000000;8305000000
441;9729739000;8105000000;8305000000
442;9729937000;8105000000;8305000000
443;9730142000;8105000000;8305000000
444;9730144000;8105000000;8305000000
445;9730327000;8105000000;8305000000
446;9730329000;8105000000;8305000000
447;9730492000;8105000000;8305000000
448;9730720000;8105000000;8305000000
449;9730723000;8105000000;8305000000
450;9730979000;8105000000;8305000000
451;9730982000;8146600000;8346600000
452;9731176000;8146600000;8346600000
453;9731179000;8146600000;8346600000
454;9731304000;8146600000;8346600000
455;9731521000;8146600000;8346600000
456;9731534000;8146600000;8346600000
458;9731818000;8146600000;8346600000
464;9731832000;8188244444;8388244444
465;9731936000;8188244444;8388244444
466;9731948000;8188244444;8388244444
467;9732112000;8188244444;8388244444
468;9732378000;8188244444;8388244444
469;9732405000;8188244444;8388244444
470;9732406000;8188244444;8388244444
471;9732531000;8188244444;8388244444
472;9732569000;8188244444;8388244444
474;9732712000;8229944444;8429944444
475;9732823000;8229944444;8429944444
476;9732967000;8229944444;8429944444
477;9732970000;8229944444;8429944444
478;9732971000;8229944444;8429944444
479;9732986000;8229944444;8429944444
480;9733197000;8229944444;8429944444
484;9733264000;8271655555;8471655555
486;9733435000;8271655555;8471655555
489;9733446000;8271655555;8471655555
491;9733653000;8271655555;8471655555
492;9733656000;8271655555;8471655555
493;9734146000;8271655555;8471655555
495;9889998000;8313333333;8513333333
498;9890173000;8313333333;8513333333
499;9890175000;8313333333;8513333333
500;9890351000;8313333333;8513333333
501;9890540000;8313333333;8513333333
502;9890565000;8313333333;8513333333
503;9890799000;8313333333;8513333333
504;9890801000;8313333333;8513333333
505;9890973000;8313333333;8513333333
506;9890985000;8354966666;8554966666
507;9891114000;8354966666;8554966666
508;9891325000;8354966666;8554966666
509;9891328000;8354966666;8554966666
510;9891525000;8354966666;8554966666
511;9891527000;8354966666;8554966666
512;9891780000;8354966666;8554966666
513;9891783000;8354966666;8554966666
514;9891997000;8354966666;8554966666
515;9892174000;8354966666;8554966666
516;9892198000;8354966666;8554966666
517;9892363000;8396644444;8596644444
519;9892365000;8396644444;8596644444
520;9892477000;8396644444;8596644444
521;9892561000;8396644444;8596644444
522;9892563000;8396644444;8596644444
523;9892765000;8396644444;8596644444
524;9892767000;8396644444;8596644444
526;9892819000;8396644444;8596644444
527;9892841000;8396644444;8596644444
528;9892995000;8438311111;8638311111
529;9893184000;8438311111;8638311111
530;9893185000;8438311111;8638311111
532;9893302000;8438311111;8638311111
533;9893304000;8438311111;8638311111
534;9893402000;8438311111;8638311111
539;9893593000;8480044444;8680044444
542;9893840000;8480044444;8680044444
543;9893843000;8480044444;8680044444
545;9893854000;8480044444;8680044444
546;9894016000;8480044444;8680044444
551;9894303000;8521755555;8721755555
554;9894306000;8521755555;8721755555
556;9894316000;8521755555;8721755555
558;9894546000;8521755555;8721755555
560;9894628000;8521755555;8721755555
561;9941719000;8563300000;8763300000
562;10050419000;8563300000;8763300000
563;10050608000;8563300000;8763300000
565;10050831000;8563300000;8763300000
566;10050889000;8563300000;8763300000
569;10051053000;8563300000;8763300000
570;10051222000;8563300000;8763300000
571;10051244000;8563300000;8763300000
572;10051400000;8605022222;8805022222
573;10051402000;8605022222;8805022222
574;10051670000;8605022222;8805022222
575;10051673000;8605022222;8805022222
576;10051829000;8605022222;8805022222
577;10052044000;8605022222;8805022222
578;10052046000;8605022222;8805022222
579;10052250000;8605022222;8805022222
580;10052429000;8605022222;8805022222
581;10052431000;8605022222;8805022222
582;10052653000;8605022222;8805022222
583;10052657000;8646655555;8846655555
584;10052857000;8646655555;8846655555
585;10053064000;8646655555;8846655555
586;10053066000;8646655555;8846655555
587;10053184000;8646655555;8846655555
588;10053280000;8646655555;8846655555
591;10053283000;8646655555;8846655555
592;10053438000;8646655555;8846655555
593;10053718000;8646655555;8846655555
594;10053721000;8688322222;8888322222
598;10053723000;8688322222;8888322222
599;10053883000;8688322222;8888322222
600;10053885000;8688322222;8888322222
601;10054073000;8688322222;8888322222
602;10054075000;8688322222;8888322222
603;10054196000;8688322222;8888322222
604;10054228000;8688322222;8888322222
608;10054314000;8729977777;8929977777
611;10054469000;8729977777;8929977777
612;10054661000;8729977777;8929977777
613;10054673000;8729977777;8929977777
614;10054768000;8729977777;8929977777
615;10054781000;8729977777;8929977777
617;10054918000;8771733333;8971733333
620;10054920000;8771733333;8971733333
621;10055084000;8771733333;8971733333
623;10055296000;8771733333;8971733333
624;10055315000;8771733333;8971733333
626;10055374000;8771733333;8971733333
628;10055498000;8813366666;9013366666
630;10055707000;8813366666;9013366666
631;10102655000;8813366666;9013366666
632;10210856000;8813366666;9013366666
633;10211080000;8813366666;9013366666
634;10211294000;8813366666;9013366666
636;10211487000;8813366666;9013366666
637;10211510000;8813366666;9013366666
639;10211715000;8854966666;9054966666
640;10211912000;8854966666;9054966666
641;10211915000;8854966666;9054966666
643;10212110000;8854966666;9054966666
644;10212129000;8854966666;9054966666
646;10212298000;8854966666;9054966666
647;10212444000;8854966666;9054966666
648;10212478000;8854966666;9054966666
649;10212699000;8896633333;9096633333
650;10212724000;8896633333;9096633333
651;10212910000;8896633333;9096633333
652;10212922000;8896633333;9096633333
653;10213090000;8896633333;9096633333
654;10213317000;8896633333;9096633333
655;10213319000;8896633333;9096633333
656;10213488000;8896633333;9096633333
657;10213746000;8896633333;9096633333
659;10213840000;8896633333;9096633333
660;10213968000;8938322222;9138322222
662;10213999000;8938322222;9138322222
664;10214163000;8938322222;9138322222
665;10214165000;8938322222;9138322222
667;10214374000;8938322222;9138322222
670;10214387000;8938322222;9138322222
672;10214535000;8979955555;9179955555
674;10214777000;8979955555;9179955555
676;10214780000;8979955555;9179955555
677;10214930000;8979955555;9179955555
679;10215005000;8979955555;9179955555
680;10215129000;8979955555;9179955555
681;10215288000;8979955555;9179955555
682;10215294000;9021655555;9221655555
683;10215312000;9021655555;9221655555
684;10215522000;9021655555;9221655555
685;10215525000;9021655555;9221655555
687;10215654000;9021655555;9221655555
688;10215656000;9021655555;9221655555
690;10215793000;9021655555;9221655555
691;10215909000;9021655555;9221655555
693;10216022000;9063311111;9263311111
694;10216034000;9063311111;9263311111
695;10216160000;9063311111;9263311111
696;10216162000;9063311111;9263311111
698;10216382000;9063311111;9263311111
699;10216398000;9063311111;9263311111
700;10216413000;9063311111;9263311111
701;10216563000;9063311111;9263311111
703;10216606000;9063311111;9263311111
704;10263718000;9105077777;9305077777
705;10371291000;9105077777;9305077777
706;10371466000;9105077777;9305077777
707;10371722000;9105077777;9305077777
711;10372168000;9105077777;9305077777
712;10372344000;9105077777;9305077777
713;10372521000;9105077777;9305077777
714;10372548000;9105077777;9305077777
715;10372769000;9146611111;9346611111
716;10372771000;9146611111;9346611111
719;10372988000;9146611111;9346611111
720;10372991000;9146611111;9346611111
721;10373159000;9146611111;9346611111
722;10373162000;9146611111;9346611111
723;10373330000;9146611111;9346611111
724;10373523000;9146611111;9346611111
725;10373558000;9146611111;9346611111
726;10373758000;9188300000;9388300000
727;10373761000;9188300000;9388300000
728;10373982000;9188300000;9388300000
729;10373984000;9188300000;9388300000
730;10374176000;9188300000;9388300000
731;10374179000;9188300000;9388300000
732;10374332000;9188300000;9388300000
733;10374450000;9188300000;9388300000
736;10374564000;9188300000;9388300000
737;10374710000;9229944444;9429944444
739;10374795000;9229944444;9429944444
740;10374798000;9229944444;9429944444
742;10374974000;9229944444;9429944444
744;10375201000;9229944444;9429944444
746;10375213000;9229944444;9429944444
748;10375419000;9271733333;9471733333
749;10375422000;9271733333;9471733333
750;10375493000;9271733333;9471733333
751;10375590000;9271733333;9471733333
752;10375592000;9271733333;9471733333
754;10375775000;9271733333;9471733333
755;10376025000;9271733333;9471733333
756;10376027000;9271733333;9471733333
757;10376094000;9271733333;9471733333
758;10376244000;9271733333;9471733333
759;10376249000;9313377777;9513377777
760;10376381000;9313377777;9513377777
761;10376388000;9313377777;9513377777
763;10376551000;9313377777;9513377777
764;10376554000;9313377777;9513377777
765;10376796000;9313377777;9513377777
768;10376837000;9313377777;9513377777
769;10377099000;9313377777;9513377777
771;10377104000;9354988888;9554988888
772;10377106000;9354988888;9554988888
774;10377108000;9354988888;9554988888
775;10377211000;9354988888;9554988888
776;10377222000;9354988888;9554988888
777;10377277000;9354988888;9554988888
778;10377480000;9354988888;9554988888
779;10424659000;9354988888;9554988888
780;10531721000;9354988888;9554988888
781;10531895000;9396655555;9596655555
782;10532104000;9396655555;9596655555
783;10532287000;9396655555;9596655555
784;10532556000;9396655555;9596655555
787;10532807000;9396655555;9596655555
788;10532949000;9396655555;9596655555
789;10532958000;9396655555;9596655555
790;10533171000;9396655555;9596655555
791;10533185000;9396655555;9596655555
793;10533427000;9438300000;9638300000
794;10533429000;9438300000;9638300000
795;10533565000;9438300000;9638300000
796;10533832000;9438300000;9638300000
797;10533835000;9438300000;9638300000
798;10533986000;9438300000;9638300000
799;10533988000;9438300000;9638300000
800;10534177000;9438300000;9638300000
801;10534432000;9438300000;9638300000
803;10534474000;9479944444;9679944444
804;10534647000;9479944444;9679944444
805;10534649000;9479944444;9679944444
806;10534848000;9479944444;9679944444
807;10534850000;9479944444;9679944444
808;10535062000;9479944444;9679944444
809;10535064000;9479944444;9679944444
810;10535253000;9479944444;9679944444
814;10535372000;9521655555;9721655555
815;10535631000;9521655555;9721655555
816;10535633000;9521655555;9721655555
821;10535725000;9521655555;9721655555
822;10536058000;9521655555;9721655555
823;10536099000;9521655555;9721655555
824;10536121000;9521655555;9721655555
825;10536124000;9563322222;9763322222
826;10536265000;9563322222;9763322222
827;10536353000;9563322222;9763322222
830;10536395000;9563322222;9763322222
831;10536631000;9563322222;9763322222
832;10536633000;9563322222;9763322222
833;10536871000;9563322222;9763322222
837;10536985000;9605044444;9805044444
838;10537107000;9605044444;9805044444
839;10537108000;9605044444;9805044444
840;10537281000;9605044444;9805044444
842;10537359000;9605044444;9805044444
843;10537437000;9605044444;9805044444
844;10537438000;9605044444;9805044444
845;10537601000;9605044444;9805044444
846;10537632000;9605044444;9805044444
847;10537727000;9646655555;9846655555
849;10537879000;9646655555;9846655555
850;10537881000;9646655555;9846655555
853;10537983000;9646655555;9846655555
854;10538163000;9646655555;9846655555
857;10538477000;9646655555;9846655555
859;10692256000;9688322222;9888322222
861;10692466000;9688322222;9888322222
862;10692855000;9688322222;9888322222
863;10693059000;9688322222;9888322222
865;10693242000;9688322222;9888322222
866;10693428000;9688322222;9888322222
867;10693431000;9688322222;9888322222
868;10693687000;9688322222;9888322222
869;10693692000;9730066666;9930066666
870;10693872000;9730066666;9930066666
871;10693874000;9730066666;9930066666
873;10694099000;9730066666;9930066666
874;10694257000;9730066666;9930066666
875;10694260000;9730066666;9930066666
877;10694489000;9730066666;9930066666
878;10694677000;9730066666;9930066666
879;10694699000;9730066666;9930066666
880;10694875000;9771688888;9971688888
881;10695104000;9771688888;9971688888
882;10695106000;9771688888;9971688888
883;10695268000;9771688888;9971688888
884;10695270000;9771688888;9971688888
885;10695435000;9771688888;9971688888
886;10695725000;9771688888;9971688888
888;10695751000;9771688888;9971688888
889;10695918000;9771688888;9971688888
891;10695979000;9813344444;10013344444
892;10696142000;9813344444;10013344444
894;10696217000;9813344444;10013344444
897;10696327000;9813344444;10013344444
903;10696505000;9854966666;10054966666
905;10696829000;9854966666;10054966666
909;10697063000;9854966666;10054966666
910;10697065000;9854966666;10054966666
911;10697234000;9854966666;10054966666
912;10697475000;9854966666;10054966666
914;10697481000;9896733333;10096733333
915;10697698000;9896733333;10096733333
916;10697715000;9896733333;10096733333
917;10697716000;9896733333;10096733333
918;10697870000;9896733333;10096733333
921;10697899000;9896733333;10096733333
922;10698106000;9896733333;10096733333
923;10698142000;9896733333;10096733333
925;10698275000;9938311111;10138311111
926;10698419000;9938311111;10138311111
927;10698421000;9938311111;10138311111
928;10698665000;9938311111;10138311111
929;10698667000;9938311111;10138311111
930;10698873000;9938311111;10138311111
931;10698986000;9938311111;10138311111
933;10699052000;9938311111;10138311111
935;10699217000;9979977777;10179977777
936;10699298000;9979977777;10179977777
937;10852681000;9979977777;10179977777
938;10853002000;9979977777;10179977777
940;10853303000;9979977777;10179977777
942;10853437000;9979977777;10179977777
943;10853695000;9979977777;10179977777
945;10853929000;9979977777;10179977777
946;10854099000;10021655555;10221655555
948;10854305000;10021655555;10221655555
949;10854307000;10021655555;10221655555
950;10854465000;10021655555;10221655555
954;10854720000;10021655555;10221655555
955;10854920000;10021655555;10221655555
956;10855117000;10021655555;10221655555
957;10855122000;10063422222;10263422222
958;10855300000;10063422222;10263422222
959;10855490000;10063422222;10263422222
960;10855492000;10063422222;10263422222
961;10855715000;10063422222;10263422222
964;10855986000;10063422222;10263422222
965;10856119000;10063422222;10263422222
966;10856130000;10063422222;10263422222
967;10856312000;10063422222;10263422222
968;10856509000;10105055555;10305055555
970;10856526000;10105055555;10305055555
971;10856748000;10105055555;10305055555
972;10856762000;10105055555;10305055555
973;10856950000;10105055555;10305055555
974;10856953000;10105055555;10305055555
978;10857019000;10105055555;10305055555
979;10857124000;10146644444;10346644444
982;10857401000;10146644444;10346644444
984;10857403000;10146644444;10346644444
986;10857562000;10146644444;10346644444
987;10857564000;10146644444;10346644444
989;10857856000;10146644444;10346644444
990;10857869000;10188322222;10388322222
991;10857981000;10188322222;10388322222
992;10857984000;10188322222;10388322222
994;10858196000;10188322222;10388322222
995;10858405000;10188322222;10388322222
997;10858416000;10188322222;10388322222
1000;10858534000;10188322222;10388322222
1001;10858558000;10230022222;10430022222
1002;10858782000;10230022222;10430022222
1004;10858808000;10230022222;10430022222
1005;10858956000;10230022222;10430022222
1006;10859172000;10230022222;10430022222
1007;10859186000;10230022222;10430022222
1008;10859390000;10230022222;10430022222
1010;10859655000;10230022222;10430022222
1014;10859789000;10271655555;10471655555
1015;10860092000;10271655555;10471655555
1016;11013475000;10271655555;10471655555
1019;11013805000;10271655555;10471655555
1021;11013976000;10271655555;10471655555
1022;11013999000;10271655555;10471655555
1024;11014372000;10313322222;10513322222
1025;11014574000;10313322222;10513322222
1026;11014799000;10313322222;10513322222
1028;11014911000;10313322222;10513322222
1029;11015027000;10313322222;10513322222
1030;11015188000;10313322222;10513322222
1032;11015271000;10313322222;10513322222
1033;11015390000;10313322222;10513322222
1034;11015395000;10354977777;10554977777
1035;11015547000;10354977777;10554977777
1036;11015775000;10354977777;10554977777
1037;11015777000;10354977777;10554977777
1038;11016008000;10354977777;10554977777
1039;11016011000;10354977777;10554977777
1040;11016263000;10354977777;10554977777
1041;11016414000;10354977777;10554977777
1042;11016653000;10354977777;10554977777
1044;11016690000;10354977777;10554977777
1045;11016782000;10396766666;10596766666
1046;11016795000;10396766666;10596766666
1047;11016967000;10396766666;10596766666
1048;11016974000;10396766666;10596766666
1050;11017227000;10396766666;10596766666
1051;11017397000;10396766666;10596766666
1052;11017399000;10396766666;10596766666
1055;11017634000;10396766666;10596766666
1056;11017847000;10438300000;10638300000
1057;11017850000;10438300000;10638300000
1058;11017851000;10438300000;10638300000
1060;11018042000;10438300000;10638300000
1061;11018045000;10438300000;10638300000
1063;11018141000;10438300000;10638300000
1064;11018263000;10438300000;10638300000
1065;11018366000;10438300000;10638300000
1066;11018465000;10438300000;10638300000
1069;11018468000;10479933333;10679933333
1070;11018652000;10479933333;10679933333
1071;11018808000;10479933333;10679933333
1072;11018874000;10479933333;10679933333
1073;11018887000;10479933333;10679933333
1074;11019056000;10479933333;10679933333
1075;11019057000;10479933333;10679933333
1077;11019300000;10479933333;10679933333
1078;11019303000;10521644444;10721644444
1079;11019361000;10521644444;10721644444
1080;11019366000;10521644444;10721644444
1081;11019619000;10521644444;10721644444
1082;11019654000;10521644444;10721644444
1086;11019708000;10521644444;10721644444
1087;11019800000;10521644444;10721644444
1089;11020123000;10563288888;10763288888
1091;11020245000;10563288888;10763288888
1092;11020409000;10563288888;10763288888
1093;11020495000;10563288888;10763288888
1094;11020709000;10563288888;10763288888
1095;11064567000;10563288888;10763288888
1096;11174210000;10563288888;10763288888
1100;11174560000;10604977777;10804977777
1103;11174806000;10604977777;10804977777
1105;11175037000;10604977777;10804977777
1107;11175256000;10604977777;10804977777
1108;11175582000;10604977777;10804977777
1109;11175794000;10604977777;10804977777
1110;11175823000;10604977777;10804977777
1111;11176027000;10646644444;10846644444
1113;11176277000;10646644444;10846644444
1114;11176279000;10646644444;10846644444
1115;11176400000;10646644444;10846644444
1116;11176402000;10646644444;10846644444
1117;11176665000;10646644444;10846644444
1118;11176667000;10646644444;10846644444
1119;11176865000;10646644444;10846644444
1120;11177047000;10646644444;10846644444
1121;11177069000;10646644444;10846644444
1122;11177257000;10688300000;10888300000
1123;11177259000;10688300000;10888300000
1126;11177481000;10688300000;10888300000
1127;11177483000;10688300000;10888300000
1128;11177702000;10688300000;10888300000
1130;11177912000;10688300000;10888300000
1132;11178135000;10688300000;10888300000
1133;11178140000;10730022222;10930022222
1134;11178431000;10730022222;10930022222
1137;11178448000;10730022222;10930022222
1138;11178713000;10730022222;10930022222
1143;11178760000;10730022222;10930022222
1144;11178917000;10771644444;10971644444
1147;11180884000;10771644444;10971644444
1148;11180887000;10771644444;10971644444
1149;11180888000;10771644444;10971644444
1150;11180889000;10771644444;10971644444
1151;11180890000;10771644444;10971644444
1152;11180891000;10771644444;10971644444
1153;11180892000;10771644444;10971644444
1154;11211946000;10771644444;10971644444
1155;11211952000;10813300000;11013300000
1156;11211953000;10813300000;11013300000
1157;11211954000;10813300000;11013300000
1158;11211955000;10813300000;11013300000
1159;11211956000;10813300000;11013300000
1160;11211957000;10813300000;11013300000
1161;11211958000;10813300000;11013300000
1162;11211959000;10813300000;11013300000
1163;11211960000;10813300000;11013300000
1164;11211960000;10813300000;11013300000
1165;11253629000;10813300000;11013300000
1166;11253634000;10855088888;11055088888
1167;11253636000;10855088888;11055088888
1168;11253637000;10855088888;11055088888
1169;11253638000;10855088888;11055088888
1170;11253638000;10855088888;11055088888
1171;11253639000;10855088888;11055088888
1172;11253640000;10855088888;11055088888
1173;11253641000;10855088888;11055088888
1174;11253642000;10855088888;11055088888
1175;11334680000;10855088888;11055088888
1176;11335270000;10855088888;11055088888
1177;11335299000;10896700000;11096700000
1178;11335303000;10896700000;11096700000
1179;11335304000;10896700000;11096700000
1180;11335305000;10896700000;11096700000
1181;11335556000;10896700000;11096700000
1182;11335811000;10896700000;11096700000
1183;11335813000;10896700000;11096700000
1184;11335814000;10896700000;11096700000
1185;11336118000;10896700000;11096700000
1186;11336120000;10896700000;11096700000
1187;11336859000;10896700000;11096700000
1188;11336873000;10938344444;11138344444
1189;11336874000;10938344444;11138344444
1190;11336875000;10938344444;11138344444
1191;11336876000;10938344444;11138344444
1192;11336920000;10938344444;11138344444
1193;11336921000;10938344444;11138344444
1196;11338868000;10938344444;11138344444
1197;11338880000;10938344444;11138344444
1198;11378663000;10938344444;11138344444
1229;11378669000;11063311111;11263311111
1230;11378670000;11063311111;11263311111
1231;11503673000;11063311111;11263311111
1287;11518395000;11313311111;11513311111
1288;11518408000;11313311111;11513311111
1289;11518410000;11313311111;11513311111
1290;11518411000;11313311111;11513311111
1291;11518412000;11313311111;11513311111
1292;11518413000;11313311111;11513311111
1293;11518424000;11313311111;11513311111
1294;11518433000;11313311111;11513311111
1295;11518434000;11313311111;11513311111
1296;11518435000;11313311111;11513311111
1297;11754602000;11313311111;11513311111
1346;11754619000;11521744444;11721744444
1347;11754620000;11521744444;11721744444
1348;11754621000;11521744444;11721744444
1349;11754622000;11521744444;11721744444
1350;11754623000;11521744444;11721744444
1351;11754633000;11521744444;11721744444
1352;11962913000;11521744444;11721744444
1400;11962919000;11730133333;11930133333
1401;11962920000;11730133333;11930133333
1402;11962921000;11730133333;11930133333
1403;11962922000;11730133333;11930133333
1404;11962923000;11730133333;11930133333
1409;12212994000;11771700000;11971700000
1465;12421170000;11980000000;12180000000
1519;12629535000;12188355555;12388355555
1574;12837883000;12396711111;12596711111
1624;13004326000;12563377777;12763377777
1667;13170926000;12730022222;12930022222
1710;13337588000;12896700000;13096700000
1744;13462444000;13021688888;13221688888
1777;13587465000;13146722222;13346722222
1814;13712562000;13271722222;13471722222
1844;13712577000;13396711111;13596711111
1845;13712578000;13396711111;13596711111
1846;13712579000;13396711111;13596711111
1847;13837477000;13396711111;13596711111
1877;13837482000;13521688888;13721688888
1878;13837483000;13521688888;13721688888
1879;13837484000;13521688888;13721688888
1880;13962444000;13521688888;13721688888
1917;13976744000;13688355555;13888355555
1918;13976755000;13688355555;13888355555
1919;13976756000;13688355555;13888355555
1920;13976757000;13688355555;13888355555
1921;13976758000;13688355555;13888355555
1922;13976759000;13688355555;13888355555
1923;13976760000;13688355555;13888355555
1924;14129230000;13688355555;13888355555
1961;14129236000;13855000000;14055000000
1962;14129237000;13855000000;14055000000
1963;14129238000;13855000000;14055000000
1964;14129239000;13855000000;14055000000
1965;14129240000;13855000000;14055000000
1966;14129241000;13855000000;14055000000
1967;14129242000;13855000000;14055000000
1968;14295962000;13855000000;14055000000
2017;14295968000;14063355555;14263355555
2018;14295970000;14063355555;14263355555
2019;14295970000;14063355555;14263355555
2020;14295971000;14063355555;14263355555
2021;14295972000;14063355555;14263355555
2022;14295973000;14063355555;14263355555
2023;14504518000;14063355555;14263355555
2071;14518406000;14271788888;14471788888
2072;14518408000;14271788888;14471788888
2073;14518409000;14271788888;14471788888
2074;14518410000;14271788888;14471788888
2075;14518411000;14271788888;14471788888
2076;14518412000;14271788888;14471788888
2077;14518413000;14271788888;14471788888
2078;14712887000;14271788888;14471788888
2132;14712893000;14480133333;14680133333
2133;14921296000;14480133333;14680133333
2183;14935079000;14688388888;14888388888
2184;14935081000;14688388888;14888388888
2185;14935083000;14688388888;14888388888
2186;14935084000;14688388888;14888388888
2187;14935094000;14688388888;14888388888
2188;15129489000;14688388888;14888388888
2242;15143355000;14896711111;15096711111
2243;15337812000;14896711111;15096711111
2291;15337818000;15105166666;15305166666
2292;15337819000;15105166666;15305166666
2293;15337820000;15105166666;15305166666
2294;15337821000;15105166666;15305166666
2295;15337821000;15105166666;15305166666
2296;15337822000;15105166666;15305166666
2297;15337823000;15105166666;15305166666
2298;15546322000;15105166666;15305166666
2353;15754587000;15313400000;15513400000
2398;15754602000;15521800000;15721800000
2401;15768381000;15521800000;15721800000
2402;15768383000;15521800000;15721800000
2403;15768384000;15521800000;15721800000
2404;15768385000;15521800000;15721800000
2405;15768386000;15521800000;15721800000
2406;15768396000;15521800000;15721800000
2407;15768397000;15521800000;15721800000
2408;15962899000;15521800000;15721800000
2461;15962914000;15730022222;15930022222
2462;15962915000;15730022222;15930022222
2463;16171176000;15730022222;15930022222
2517;16185056000;15938366666;16138366666
2518;16379466000;15938366666;16138366666
2568;16379472000;16146777777;16346777777
2569;16379473000;16146777777;16346777777
2570;16379482000;16146777777;16346777777
2571;16379482000;16146777777;16346777777
2572;16379483000;16146777777;16346777777
2573;16587948000;16146777777;16346777777
2621;16587953000;16355033333;16555033333
2622;16587955000;16355033333;16555033333
2623;16587956000;16355033333;16555033333
2624;16587957000;16355033333;16555033333
2625;16587958000;16355033333;16555033333
2626;16587959000;16355033333;16555033333
2627;16587959000;16355033333;16555033333
2628;16796204000;16355033333;16555033333
2683;17004510000;16563355555;16763355555
2730;17004522000;16771688888;16971688888
2731;17004523000;16771688888;16971688888
2732;17004524000;16771688888;16971688888
2733;17004525000;16771688888;16971688888
2734;17004526000;16771688888;16971688888
2735;17004527000;16771688888;16971688888
2736;17004528000;16771688888;16971688888
2737;17004529000;16771688888;16971688888
2741;17254657000;16813344444;17013344444
2801;17462886000;17021700000;17221700000
2853;17671158000;17230000000;17430000000
2908;17879457000;17438355555;17638355555
2958;18046060000;17605022222;17805022222
2999;18060067000;17771755555;17971755555
3000;18060070000;17771755555;17971755555
3003;18254464000;17813377777;18013377777
3054;18420953000;17979988888;18179988888
3094;18587616000;18146666666;18346666666
3137;18754294000;18313344444;18513344444
3181;18921054000;18480088888;18680088888
3216;19045766000;18605011111;18805011111
3252;19170728000;18730000000;18930000000
3284;19295758000;18855000000;19055000000
3310;19379015000;18938377777;19138377777
3332;19462230000;19021700000;19221700000
3349;19462235000;19105033333;19305033333
3350;19462236000;19105033333;19305033333
3351;19462237000;19105033333;19305033333
3352;19462239000;19105033333;19305033333
3353;19462239000;19105033333;19305033333
3354;19545587000;19105033333;19305033333
3384;19545593000;19230000000;19430000000
3385;19545594000;19230000000;19430000000
3386;19545595000;19230000000;19430000000
3387;19670753000;19230000000;19430000000
3412;19670759000;19355011111;19555011111
3415;19685045000;19355011111;19555011111
3416;19685047000;19355011111;19555011111
3417;19685048000;19355011111;19555011111
3418;19685059000;19355011111;19555011111
3419;19685060000;19355011111;19555011111
3420;19795693000;19355011111;19555011111
3450;19795698000;19480000000;19680000000
3451;19795699000;19480000000;19680000000
3452;19795700000;19480000000;19680000000
3453;19920753000;19480000000;19680000000
3486;20045510000;19605022222;19805022222
3516;20045522000;19730033333;19930033333
3517;20045523000;19730033333;19930033333
3518;20045524000;19730033333;19930033333
3519;20170773000;19730033333;19930033333
3553;20170779000;19896688888;20096688888
3554;20170780000;19896688888;20096688888
3555;20170781000;19896688888;20096688888
3556;20170782000;19896688888;20096688888
3557;20170783000;19896688888;20096688888
3558;20170784000;19896688888;20096688888
3559;20170785000;19896688888;20096688888
3560;20170786000;19896688888;20096688888
3561;20170787000;19896688888;20096688888
3562;20170788000;19896688888;20096688888
3563;20337163000;19896688888;20096688888
3605;20337168000;20063366666;20263366666
3606;20337169000;20063366666;20263366666
3607;20504336000;20063366666;20263366666
3648;20504341000;20230000000;20430000000
3649;20504342000;20230000000;20430000000
3650;20504343000;20230000000;20430000000
3651;20670946000;20230000000;20430000000
3696;20685389000;20438444444;20638444444
3698;20685392000;20438444444;20638444444
3699;20685393000;20438444444;20638444444
3700;20685394000;20438444444;20638444444
3701;20685395000;20438444444;20638444444
3702;20685396000;20438444444;20638444444
3703;20685397000;20438444444;20638444444
3706;20879535000;20438444444;20638444444
3753;20879550000;20646766666;20846766666
3754;20879551000;20646766666;20846766666
3755;20879552000;20646766666;20846766666
3756;20879553000;20646766666;20846766666
3757;20879554000;20646766666;20846766666
3758;20879555000;20646766666;20846766666
3759;20879556000;20646766666;20846766666
3760;20879557000;20646766666;20846766666
3761;21087922000;20646766666;20846766666
3814;21101962000;20855000000;21055000000
3815;21101995000;20855000000;21055000000
3816;21296085000;20855000000;21055000000
3864;21296091000;21063377777;21263377777
3865;21296092000;21063377777;21263377777
3866;21296093000;21063377777;21263377777
3867;21296094000;21063377777;21263377777
3868;21296095000;21063377777;21263377777
3869;21296096000;21063377777;21263377777
3870;21296097000;21063377777;21263377777
3871;21504543000;21063377777;21263377777
3920;21504549000;21271777777;21471777777
3921;21504550000;21271777777;21471777777
3922;21504551000;21271777777;21471777777
3923;21504552000;21271777777;21471777777
3926;21712869000;21271777777;21471777777
3977;21712875000;21480066666;21680066666
3978;21712876000;21480066666;21680066666
3979;21712877000;21480066666;21680066666
3980;21712878000;21480066666;21680066666
3981;21921213000;21480066666;21680066666
4029;21921220000;21688377777;21888377777
4034;21935267000;21688377777;21888377777
4035;21935270000;21688377777;21888377777
4036;22129462000;21688377777;21888377777
4085;22129468000;21896688888;22096688888
4086;22129469000;21896688888;22096688888
4087;22129470000;21896688888;22096688888
4088;22129471000;21896688888;22096688888
4089;22129472000;21896688888;22096688888
4090;22129473000;21896688888;22096688888
4093;22379365000;21938366666;22138366666
4154;22587929000;22146766666;22346766666
4201;22754448000;22313377777;22513377777
4246;22754463000;22521711111;22721711111
4247;22754464000;22521711111;22721711111
4248;22754465000;22521711111;22721711111
4249;22754466000;22521711111;22721711111
4250;22754467000;22521711111;22721711111
4251;22754468000;22521711111;22721711111
4252;22754469000;22521711111;22721711111
4253;22754470000;22521711111;22721711111
4254;22754471000;22521711111;22721711111
4255;22754472000;22521711111;22721711111
4256;22962882000;22521711111;22721711111
4304;22962888000;22730011111;22930011111
4305;22962889000;22730011111;22930011111
4306;22962890000;22730011111;22930011111
4307;22962891000;22730011111;22930011111
4308;22962892000;22730011111;22930011111
4309;22962893000;22730011111;22930011111
4310;22962893000;22730011111;22930011111
4311;23171180000;22730011111;22930011111
4360;23171186000;22938366666;23138366666
4361;23171187000;22938366666;23138366666
4362;23171188000;22938366666;23138366666
4363;23171189000;22938366666;23138366666
4364;23171190000;22938366666;23138366666
4365;23171191000;22938366666;23138366666
4366;23379535000;22938366666;23138366666
4418;23379541000;23146688888;23346688888
4419;23379542000;23146688888;23346688888
4420;23379544000;23146688888;23346688888
4421;23587847000;23146688888;23346688888
4470;23587853000;23355022222;23555022222
4471;23587854000;23355022222;23555022222
4472;23587855000;23355022222;23555022222
4473;23587856000;23355022222;23555022222
4474;23587857000;23355022222;23555022222
4475;23587858000;23355022222;23555022222
4476;23796192000;23355022222;23555022222
4527;23796197000;23563333333;23763333333
4528;23796198000;23563333333;23763333333
4529;23796199000;23563333333;23763333333
4530;23796201000;23563333333;23763333333
4531;24004529000;23563333333;23763333333
4579;24004535000;23771677777;23971677777
4580;24004536000;23771677777;23971677777
4586;24212781000;23771677777;23971677777
4638;24212787000;23979955555;24179955555
4639;24212788000;23979955555;24179955555
4640;24212789000;23979955555;24179955555
4641;24421118000;23979955555;24179955555
4695;24421124000;24188355555;24388355555
4696;24629524000;24188355555;24388355555
4750;24629530000;24396688888;24596688888
4751;24837863000;24396688888;24596688888
4804;24837869000;24605033333;24805033333
4805;24837870000;24605033333;24805033333
4806;25046191000;24605033333;24805033333
4860;25046196000;24813366666;25013366666
4861;25254543000;24813366666;25013366666
4908;25254549000;25021711111;25221711111
4909;25254550000;25021711111;25221711111
4910;25254551000;25021711111;25221711111
4911;25254552000;25021711111;25221711111
4912;25254553000;25021711111;25221711111
4915;25268416000;25021711111;25221711111
4916;25462811000;25021711111;25221711111
4971;25671200000;25230033333;25430033333
5014;25671206000;25396800000;25596800000
5015;25837758000;25396800000;25596800000
5065;25837764000;25605022222;25805022222
5066;25837765000;25605022222;25805022222
5067;25837766000;25605022222;25805022222
5068;25837767000;25605022222;25805022222
5069;25837768000;25605022222;25805022222
5070;26046175000;25605022222;25805022222
5115;26046180000;25813355555;26013355555
5116;26046182000;25813355555;26013355555
5117;26046183000;25813355555;26013355555
5118;26046184000;25813355555;26013355555
5119;26046185000;25813355555;26013355555
5120;26046185000;25813355555;26013355555
5121;26046186000;25813355555;26013355555
5122;26046187000;25813355555;26013355555
5123;26046188000;25813355555;26013355555
5124;26046189000;25813355555;26013355555
5125;26254531000;25813355555;26013355555
5176;26254537000;26021788888;26221788888
5177;26254538000;26021788888;26221788888
5178;26254539000;26021788888;26221788888
5179;26254540000;26021788888;26221788888
5180;26462960000;26021788888;26221788888
5231;26462966000;26230000000;26430000000
5232;26462967000;26230000000;26430000000
5233;26462968000;26230000000;26430000000
5234;26462969000;26230000000;26430000000
5235;26670241000;26230000000;26430000000
5288;26670247000;26438366666;26638366666
5289;26670248000;26438366666;26638366666
5290;26879531000;26438366666;26638366666
5336;26879546000;26646788888;26846788888
5337;26879547000;26646788888;26846788888
5338;26879549000;26646788888;26846788888
5339;26879549000;26646788888;26846788888
5340;26879550000;26646788888;26846788888
5341;26879551000;26646788888;26846788888
5342;26879552000;26646788888;26846788888
5345;27087875000;26646788888;26846788888
5392;27087881000;26855011111;27055011111
5393;27087882000;26855011111;27055011111
5394;27087883000;26855011111;27055011111
5395;27087884000;26855011111;27055011111
5396;27087885000;26855011111;27055011111
5397;27087886000;26855011111;27055011111
5398;27087887000;26855011111;27055011111
5399;27087888000;26855011111;27055011111
5400;27296178000;26855011111;27055011111
5452;27310052000;27063388888;27263388888
5453;27310054000;27063388888;27263388888
5454;27310055000;27063388888;27263388888
5455;27504491000;27063388888;27263388888
5476;27504496000;27146688888;27346688888
5477;27587234000;27146688888;27346688888
5478;27587240000;27188355555;27388355555
5479;27587241000;27188355555;27388355555
5480;27587242000;27188355555;27388355555
5483;27628630000;27188355555;27388355555
5484;27628643000;27188355555;27388355555
5485;27628644000;27188355555;27388355555
5486;27628645000;27188355555;27388355555
5487;27628646000;27188355555;27388355555
5488;27628754000;27188355555;27388355555
5489;27628760000;27230011111;27430011111
5490;27628761000;27230011111;27430011111
5491;27628762000;27230011111;27430011111
5492;27628763000;27230011111;27430011111
5493;27628764000;27230011111;27430011111
5494;27628765000;27230011111;27430011111
5495;27628766000;27230011111;27430011111
5496;27628767000;27230011111;27430011111
5497;27628768000;27230011111;27430011111
5498;27628769000;27230011111;27430011111
5499;27670351000;27230011111;27430011111
