seqnum;now;rtptime;deadline
1;2875539000;2807311111;3307311111
3;2915050000;2838333333;3338333333
4;2915068000;2838333333;3338333333
5;2915069000;2838333333;3338333333
6;2915072000;2838333333;3338333333
7;2915074000;2838333333;3338333333
8;2915076000;2838333333;3338333333
9;2915078000;2838333333;3338333333
10;2915353000;2838422222;3338422222
11;2915372000;2838788888;3338788888
12;2915373000;2838788888;3338788888
13;2915375000;2838788888;3338788888
14;2956683000;2879955555;3379955555
15;2956694000;2879955555;3379955555
16;2956696000;2879955555;3379955555
17;2956698000;2879955555;3379955555
18;2956700000;2879955555;3379955555
19;2956701000;2879955555;3379955555
20;2956703000;2879955555;3379955555
21;2957014000;2880033333;3380033333
22;2957039000;2880455555;3380455555
23;2957041000;2880455555;3380455555
24;2957056000;2880455555;3380455555
25;3001386000;2921655555;3421655555
36;3043288000;2963322222;3463322222
47;3082237000;3004988888;3504988888
48;3082248000;3004988888;3504988888
49;3082250000;3004988888;3504988888
50;3082252000;3004988888;3504988888
51;3082254000;3004988888;3504988888
52;3082255000;3004988888;3504988888
53;3082257000;3004988888;3504988888
54;3082505000;3005066666;3505066666
55;3082523000;3005422222;3505422222
56;3082525000;3005422222;3505422222
57;3082526000;3005422222;3505422222
58;3119860000;3046655555;3546655555
59;3119879000;3046655555;3546655555
60;3119881000;3046655555;3546655555
61;3119884000;3046655555;3546655555
62;3119885000;3046655555;3546655555
63;3119887000;3046655555;3546655555
64;3119889000;3046655555;3546655555
65;3120106000;3046733333;3546733333
66;3120122000;3047033333;3547033333
67;3120124000;3047033333;3547033333
68;3120125000;3047033333;3547033333
69;3159458000;3088344444;3588344444
70;3159462000;3088344444;3588344444
71;3159463000;3088344444;3588344444
72;3159465000;3088344444;3588344444
73;3159466000;3088344444;3588344444
74;3159467000;3088344444;3588344444
75;3159469000;3088344444;3588344444
76;3159668000;3088433333;3588433333
77;3159683000;3088822222;3588822222
78;3159685000;3088822222;3588822222
79;3159686000;3088822222;3588822222
80;3197800000;3129988888;3629988888
81;3197803000;3129988888;3629988888
82;3197804000;3129988888;3629988888
83;3197805000;3129988888;3629988888
84;3197806000;3129988888;3629988888
85;3197807000;3129988888;3629988888
86;3197808000;3129988888;3629988888
87;3198008000;3130066666;3630066666
88;3198023000;3130422222;3630422222
89;3198024000;3130422222;3630422222
90;3198025000;3130422222;3630422222
91;3235936000;3171633333;3671633333
92;3235946000;3171633333;3671633333
93;3235947000;3171633333;3671633333
94;3235949000;3171633333;3671633333
95;3235951000;3171633333;3671633333
96;3235953000;3171633333;3671633333
97;3235955000;3171633333;3671633333
98;3236172000;3171711111;3671711111
99;3236189000;3172022222;3672022222
100;3236190000;3172022222;3672022222
101;3236192000;3172022222;3672022222
102;3274213000;3213288888;3713288888
103;3274217000;3213288888;3713288888
104;3274218000;3213288888;3713288888
105;3274219000;3213288888;3713288888
106;3274220000;3213288888;3713288888
107;3274222000;3213288888;3713288888
108;3274223000;3213288888;3713288888
109;3274422000;3213377777;3713377777
110;3274438000;3213633333;3713633333
111;3274439000;3213633333;3713633333
112;3274440000;3213633333;3713633333
113;3393715000;3254988888;3754988888
135;3470804000;3338322222;3838322222
157;3540996000;3421622222;3921622222
170;3573399000;3463322222;3963322222
179;3605684000;3504988888;4004988888
190;3635449000;3546655555;4046655555
201;3666617000;3588322222;4088322222
202;3666620000;3588322222;4088322222
203;3666621000;3588322222;4088322222
204;3666622000;3588322222;4088322222
205;3666623000;3588322222;4088322222
206;3666624000;3588322222;4088322222
207;3666625000;3588322222;4088322222
208;3666825000;3588400000;4088400000
209;3666840000;3588711111;4088711111
210;3666841000;3588711111;4088711111
211;3666842000;3588711111;4088711111
212;3697748000;3629988888;4129988888
213;3697752000;3629988888;4129988888
214;3697753000;3629988888;4129988888
215;3697754000;3629988888;4129988888
216;3697755000;3629988888;4129988888
217;3697770000;3629988888;4129988888
218;3697771000;3629988888;4129988888
219;3697970000;3630066666;4130066666
220;3697986000;3630433333;4130433333
221;3697987000;3630433333;4130433333
222;3697988000;3630433333;4130433333
223;3731837000;3671622222;4171622222
224;3731840000;3671622222;4171622222
225;3731842000;3671622222;4171622222
226;3731843000;3671622222;4171622222
227;3731844000;3671622222;4171622222
228;3731845000;3671622222;4171622222
229;3731845000;3671622222;4171622222
230;3732062000;3671700000;4171700000
231;3732068000;3672000000;4172000000
232;3732069000;3672000000;4172000000
233;3732070000;3672000000;4172000000
234;3768942000;3713322222;4213322222
235;3768945000;3713322222;4213322222
236;3768946000;3713322222;4213322222
237;3768947000;3713322222;4213322222
238;3768948000;3713322222;4213322222
239;3768949000;3713322222;4213322222
240;3768950000;3713322222;4213322222
241;3769157000;3713400000;4213400000
242;3769163000;3713677777;4213677777
243;3769165000;3713677777;4213677777
244;3769166000;3713677777;4213677777
245;3806405000;3754955555;4254955555
246;3806408000;3754955555;4254955555
247;3806409000;3754955555;4254955555
248;3806410000;3754955555;4254955555
249;3806411000;3754955555;4254955555
250;3806413000;3754955555;4254955555
251;3806414000;3754955555;4254955555
252;3806612000;3755033333;4255033333
253;3806618000;3755400000;4255400000
254;3806619000;3755400000;4255400000
255;3806620000;3755400000;4255400000
256;3936068000;3796655555;4296655555
278;4012696000;3879988888;4379988888
300;4083617000;3963322222;4463322222
311;4113509000;4004988888;4504988888
322;4143675000;4046655555;4546655555
333;4176099000;4088322222;4588322222
344;4207249000;4129988888;4629988888
345;4207252000;4129988888;4629988888
346;4207253000;4129988888;4629988888
347;4207254000;4129988888;4629988888
348;4207255000;4129988888;4629988888
349;4207256000;4129988888;4629988888
350;4207257000;4129988888;4629988888
351;4207495000;4130066666;4630066666
352;4207510000;4130400000;4630400000
353;4207512000;4130400000;4630400000
354;4207512000;4130400000;4630400000
355;4238798000;4171655555;4671655555
356;4238801000;4171655555;4671655555
357;4238802000;4171655555;4671655555
358;4238803000;4171655555;4671655555
359;4238804000;4171655555;4671655555
360;4238805000;4171655555;4671655555
361;4238806000;4171655555;4671655555
362;4239004000;4171733333;4671733333
363;4239019000;4172022222;4672022222
364;4239020000;4172022222;4672022222
365;4239021000;4172022222;4672022222
366;4272922000;4213322222;4713322222
367;4272925000;4213322222;4713322222
368;4272927000;4213322222;4713322222
369;4272928000;4213322222;4713322222
370;4272928000;4213322222;4713322222
371;4272929000;4213322222;4713322222
372;4272930000;4213322222;4713322222
373;4273138000;4213400000;4713400000
374;4273154000;4213677777;4713677777
375;4273155000;4213677777;4713677777
376;4273156000;4213677777;4713677777
377;4308407000;4254977777;4754977777
378;4308410000;4254977777;4754977777
379;4308411000;4254977777;4754977777
380;4308413000;4254977777;4754977777
381;4308414000;4254977777;4754977777
382;4308415000;4254977777;4754977777
383;4308415000;4254977777;4754977777
384;4308613000;4255055555;4755055555
385;4308619000;4255400000;4755400000
386;4308621000;4255400000;4755400000
387;4308622000;4255400000;4755400000
388;4435491000;4296655555;4796655555
410;4512786000;4379988888;4879988888
432;4583344000;4463322222;4963322222
443;4613376000;4504955555;5004955555
454;4643594000;4546655555;5046655555
465;4727890000;4588322222;5088322222
487;4804996000;4671655555;5171655555
509;4873269000;4754988888;5254988888
520;4905579000;4796622222;5296622222
531;4934344000;4838322222;5338322222
542;4969703000;4879966666;5379966666
555;5000664000;4921655555;5421655555
561;5061151000;4922022222;5422022222
575;5143681000;5004988888;5504988888
597;5220341000;5088333333;5588333333
619;5291130000;5171655555;5671655555
630;5322200000;5213311111;5713311111
641;5352293000;5254988888;5754988888
652;5382245000;5296655555;5796655555
663;5412013000;5338288888;5838288888
664;5412017000;5338288888;5838288888
665;5412028000;5338288888;5838288888
666;5412029000;5338288888;5838288888
667;5412030000;5338288888;5838288888
668;5412031000;5338288888;5838288888
669;5412032000;5338288888;5838288888
670;5412255000;5338366666;5838366666
671;5412271000;5338655555;5838655555
672;5412272000;5338655555;5838655555
673;5412273000;5338655555;5838655555
674;5447501000;5379955555;5879955555
675;5447504000;5379955555;5879955555
676;5447505000;5379955555;5879955555
677;5447506000;5379955555;5879955555
678;5447507000;5379955555;5879955555
679;5447508000;5379955555;5879955555
680;5447509000;5379955555;5879955555
681;5447709000;5380033333;5880033333
682;5447724000;5380400000;5880400000
683;5447726000;5380400000;5880400000
684;5447727000;5380400000;5880400000
685;5485510000;5421622222;5921622222
686;5485521000;5421622222;5921622222
687;5485523000;5421622222;5921622222
688;5485525000;5421622222;5921622222
689;5485528000;5421622222;5921622222
690;5485529000;5421622222;5921622222
691;5485531000;5421622222;5921622222
692;5485779000;5421700000;5921700000
693;5485796000;5422011111;5922011111
694;5485798000;5422011111;5922011111
695;5485800000;5422011111;5922011111
696;5517524000;5463344444;5963344444
697;5517528000;5463344444;5963344444
698;5517529000;5463344444;5963344444
699;5517531000;5463344444;5963344444
700;5517532000;5463344444;5963344444
701;5517534000;5463344444;5963344444
702;5517535000;5463344444;5963344444
703;5517761000;5463422222;5963422222
704;5517777000;5463733333;5963733333
705;5517778000;5463733333;5963733333
706;5517779000;5463733333;5963733333
707;5555574000;5504988888;6004988888
708;5555578000;5504988888;6004988888
709;5555579000;5504988888;6004988888
710;5555580000;5504988888;6004988888
711;5555581000;5504988888;6004988888
712;5555582000;5504988888;6004988888
713;5555584000;5504988888;6004988888
714;5555784000;5505077777;6005077777
715;5555799000;5505422222;6005422222
716;5555800000;5505422222;6005422222
717;5555801000;5505422222;6005422222
718;5686075000;5546655555;6046655555
740;5762576000;5629988888;6129988888
762;5832610000;5713322222;6213322222
773;5864842000;5754955555;6254955555
784;5893740000;5796655555;6296655555
795;5924971000;5838322222;6338322222
806;5956745000;5879966666;6379966666
807;5956748000;5879966666;6379966666
808;5956749000;5879966666;6379966666
809;5956750000;5879966666;6379966666
810;5956751000;5879966666;6379966666
811;5956752000;5879966666;6379966666
812;5956753000;5879966666;6379966666
813;5956952000;5880044444;6380044444
814;5956967000;5880411111;6380411111
815;5956969000;5880411111;6380411111
816;5956970000;5880411111;6380411111
817;5990284000;5921655555;6421655555
818;5990287000;5921655555;6421655555
819;5990288000;5921655555;6421655555
820;5990290000;5921655555;6421655555
821;5990291000;5921655555;6421655555
822;5990292000;5921655555;6421655555
823;5990293000;5921655555;6421655555
824;5990492000;5921733333;6421733333
825;5990507000;5922033333;6422033333
826;5990509000;5922033333;6422033333
827;5990510000;5922033333;6422033333
828;6102787000;5963322222;6463322222
850;6179459000;6046655555;6546655555
872;6247723000;6129988888;6629988888
883;6278909000;6171622222;6671622222
894;6312952000;6213288888;6713288888
905;6343788000;6254988888;6754988888
916;6365474000;6296677777;6796677777
917;6365478000;6296677777;6796677777
918;6365479000;6296677777;6796677777
919;6365480000;6296677777;6796677777
920;6365481000;6296677777;6796677777
921;6365482000;6296677777;6796677777
922;6365483000;6296677777;6796677777
923;6371756000;6296766666;6796766666
924;6371771000;6297077777;6797077777
925;6371772000;6297077777;6797077777
926;6371773000;6297077777;6797077777
927;6404658000;6338322222;6838322222
928;6404662000;6338322222;6838322222
929;6404663000;6338322222;6838322222
930;6404664000;6338322222;6838322222
931;6404665000;6338322222;6838322222
932;6404666000;6338322222;6838322222
933;6404667000;6338322222;6838322222
934;6404866000;6338400000;6838400000
935;6404881000;6338700000;6838700000
936;6404883000;6338700000;6838700000
937;6404884000;6338700000;6838700000
938;6435715000;6379988888;6879988888
939;6435718000;6379988888;6879988888
940;6435728000;6379988888;6879988888
941;6435729000;6379988888;6879988888
942;6435730000;6379988888;6879988888
943;6435731000;6379988888;6879988888
944;6435732000;6379988888;6879988888
945;6438240000;6380066666;6880066666
946;6438255000;6380433333;6880433333
947;6438256000;6380433333;6880433333
948;6438257000;6380433333;6880433333
949;6474202000;6421655555;6921655555
950;6474205000;6421655555;6921655555
951;6474206000;6421655555;6921655555
952;6474208000;6421655555;6921655555
953;6474209000;6421655555;6921655555
954;6474210000;6421655555;6921655555
955;6474211000;6421655555;6921655555
956;6474366000;6421733333;6921733333
957;6474372000;6422055555;6922055555
958;6474373000;6422055555;6922055555
959;6474374000;6422055555;6922055555
960;6512587000;6463322222;6963322222
961;6512590000;6463322222;6963322222
962;6512591000;6463322222;6963322222
963;6512592000;6463322222;6963322222
964;6512593000;6463322222;6963322222
965;6512594000;6463322222;6963322222
966;6512595000;6463322222;6963322222
967;6512796000;6463400000;6963400000
968;6512811000;6463711111;6963711111
969;6512813000;6463711111;6963711111
970;6512814000;6463711111;6963711111
971;6552671000;6505000000;7005000000
972;6552674000;6505000000;7005000000
973;6552676000;6505000000;7005000000
974;6552677000;6505000000;7005000000
975;6552678000;6505000000;7005000000
976;6552678000;6505000000;7005000000
977;6552679000;6505000000;7005000000
978;6552887000;6505088888;7005088888
979;6552893000;6505433333;7005433333
980;6552895000;6505433333;7005433333
981;6552896000;6505433333;7005433333
982;6685401000;6546655555;7046655555
1004;6762489000;6629988888;7129988888
1026;6831013000;6713344444;7213344444
1038;6864848000;6754988888;7254988888
1048;6895740000;6796622222;7296622222
1059;7056905000;6838322222;7338322222
1103;7156221000;7004955555;7504955555
1125;7198145000;7088322222;7588322222
1138;7221280000;7129955555;7629955555
1147;7245459000;7171655555;7671655555
1148;7245463000;7171655555;7671655555
1149;7245464000;7171655555;7671655555
1150;7245465000;7171655555;7671655555
1151;7245466000;7171655555;7671655555
1152;7245466000;7171655555;7671655555
1153;7245467000;7171655555;7671655555
1154;7245666000;7171733333;7671733333
1155;7245681000;7172022222;7672022222
1156;7245682000;7172022222;7672022222
1157;7245683000;7172022222;7672022222
1158;7352689000;7213322222;7713322222
1180;7429422000;7296622222;7796622222
1202;7499496000;7379955555;7879955555
1213;7531400000;7421622222;7921622222
1224;7562324000;7463322222;7963322222
1235;7594478000;7504966666;8004966666
1246;7629527000;7546622222;8046622222
1257;7657280000;7588322222;8088322222
1258;7657283000;7588322222;8088322222
1259;7657284000;7588322222;8088322222
1260;7657285000;7588322222;8088322222
1261;7657286000;7588322222;8088322222
1262;7657287000;7588322222;8088322222
1263;7657288000;7588322222;8088322222
1264;7657494000;7588400000;8088400000
1265;7657510000;7588688888;8088688888
1266;7657511000;7588688888;8088688888
1267;7657512000;7588688888;8088688888
1268;7690931000;7629988888;8129988888
1269;7690934000;7629988888;8129988888
1270;7690935000;7629988888;8129988888
1271;7690936000;7629988888;8129988888
1272;7690937000;7629988888;8129988888
1273;7690938000;7629988888;8129988888
1274;7690939000;7629988888;8129988888
1275;7691146000;7630066666;8130066666
1276;7691162000;7630422222;8130422222
1277;7691163000;7630422222;8130422222
1278;7691164000;7630422222;8130422222
1279;7726562000;7671622222;8171622222
1280;7726566000;7671622222;8171622222
1281;7726567000;7671622222;8171622222
1282;7726568000;7671622222;8171622222
1283;7726569000;7671622222;8171622222
1284;7726570000;7671622222;8171622222
1285;7726571000;7671622222;8171622222
1286;7726769000;7671700000;8171700000
1287;7726785000;7672000000;8172000000
1288;7726786000;7672000000;8172000000
1289;7726787000;7672000000;8172000000
1290;7763949000;7713322222;8213322222
1291;7763952000;7713322222;8213322222
1292;7763953000;7713322222;8213322222
1293;7763954000;7713322222;8213322222
1294;7763955000;7713322222;8213322222
1295;7763956000;7713322222;8213322222
1296;7763957000;7713322222;8213322222
1297;7764202000;7713400000;8213400000
1298;7764218000;7713677777;8213677777
1299;7764219000;7713677777;8213677777
1300;7764220000;7713677777;8213677777
1301;7802706000;7754955555;8254955555
1302;7802710000;7754955555;8254955555
1303;7802711000;7754955555;8254955555
1304;7802712000;7754955555;8254955555
1305;7802713000;7754955555;8254955555
1306;7802714000;7754955555;8254955555
1307;7802714000;7754955555;8254955555
1308;7803452000;7755033333;8255033333
1309;7803468000;7755388888;8255388888
1310;7803469000;7755388888;8255388888
1311;7803470000;7755388888;8255388888
1312;7935396000;7796622222;8296622222
1334;8013131000;7879955555;8379955555
1358;8083275000;7963288888;8463288888
1367;8118818000;8004988888;8504988888
1381;8226635000;8046622222;8546622222
1411;8391774000;8171655555;8671655555
1455;8485927000;8338322222;8838322222
1477;8519118000;8421622222;8921622222
1488;8549216000;8463322222;8963322222
1499;8575153000;8504988888;9004988888
1500;8575157000;8504988888;9004988888
1501;8575158000;8504988888;9004988888
1502;8575159000;8504988888;9004988888
1503;8575160000;8504988888;9004988888
1504;8575161000;8504988888;9004988888
1505;8575162000;8504988888;9004988888
1506;8575361000;8505066666;9005066666
1507;8575377000;8505411111;9005411111
1508;8575378000;8505411111;9005411111
1509;8575379000;8505411111;9005411111
1510;8605879000;8546622222;9046622222
1511;8605882000;8546622222;9046622222
1512;8605883000;8546622222;9046622222
1513;8605884000;8546622222;9046622222
1514;8605885000;8546622222;9046622222
1515;8605886000;8546622222;9046622222
1516;8605887000;8546622222;9046622222
1517;8606092000;8546711111;9046711111
1518;8606108000;8547000000;9047000000
1519;8606109000;8547000000;9047000000
1520;8606110000;8547000000;9047000000
1521;8642725000;8588322222;9088322222
1522;8642728000;8588322222;9088322222
1523;8642729000;8588322222;9088322222
1524;8642730000;8588322222;9088322222
1525;8642731000;8588322222;9088322222
1526;8642732000;8588322222;9088322222
1527;8642733000;8588322222;9088322222
1528;8642933000;8588400000;9088400000
1529;8642948000;8588700000;9088700000
1530;8642949000;8588700000;9088700000
1531;8642950000;8588700000;9088700000
1532;8769476000;8629955555;9129955555
1554;8847075000;8713322222;9213322222
1576;8916021000;8796622222;9296622222
1587;8948301000;8838322222;9338322222
1600;8977153000;8879988888;9379988888
1609;9009616000;8921655555;9421655555
1620;9102727000;8963322222;9463322222
1642;9180145000;9046655555;9546655555
1664;9251301000;9129955555;9629955555
1686;9313971000;9213322222;9713322222
1697;9343303000;9254988888;9754988888
1708;9373581000;9296655555;9796655555
1709;9373585000;9296655555;9796655555
1710;9373585000;9296655555;9796655555
1711;9373587000;9296655555;9796655555
1712;9373588000;9296655555;9796655555
1713;9373589000;9296655555;9796655555
1714;9373590000;9296655555;9796655555
1715;9373746000;9296733333;9796733333
1716;9373753000;9297044444;9797044444
1717;9373754000;9297044444;9797044444
1718;9373755000;9297044444;9797044444
1719;9404238000;9338322222;9838322222
1720;9404242000;9338322222;9838322222
1721;9404243000;9338322222;9838322222
1722;9404244000;9338322222;9838322222
1723;9404245000;9338322222;9838322222
1724;9404246000;9338322222;9838322222
1725;9404247000;9338322222;9838322222
1726;9404467000;9338400000;9838400000
1727;9404483000;9338711111;9838711111
1728;9404484000;9338711111;9838711111
1729;9404485000;9338711111;9838711111
1730;9438915000;9379988888;9879988888
1731;9438918000;9379988888;9879988888
1732;9438920000;9379988888;9879988888
1733;9438921000;9379988888;9879988888
1734;9438922000;9379988888;9879988888
1735;9438923000;9379988888;9879988888
1736;9438924000;9379988888;9879988888
1737;9439172000;9380066666;9880066666
1738;9439179000;9380455555;9880455555
1739;9439180000;9380455555;9880455555
1740;9439181000;9380455555;9880455555
1741;9475711000;9421622222;9921622222
1742;9475713000;9421622222;9921622222
1743;9475714000;9421622222;9921622222
1744;9475716000;9421622222;9921622222
1745;9475717000;9421622222;9921622222
1746;9475718000;9421622222;9921622222
1747;9475728000;9421622222;9921622222
1748;9475877000;9421711111;9921711111
1749;9475880000;9422033333;9922033333
1750;9475881000;9422033333;9922033333
1751;9475882000;9422033333;9922033333
1752;9513943000;9463333333;9963333333
1753;9513947000;9463333333;9963333333
1754;9513948000;9463333333;9963333333
1755;9513949000;9463333333;9963333333
1756;9513950000;9463333333;9963333333
1757;9513951000;9463333333;9963333333
1758;9513952000;9463333333;9963333333
1759;9514132000;9463411111;9963411111
1760;9514137000;9463744444;9963744444
1761;9514138000;9463744444;9963744444
1762;9514139000;9463744444;9963744444
1763;9644845000;9504988888;10004988888
1785;9722179000;9588322222;10088322222
1807;9793231000;9671644444;10171644444
1828;9820221000;9713700000;10213700000
1829;9854767000;9754955555;10254955555
1840;9976128000;9796655555;10296655555
1873;10074493000;9921666666;10421666666
1895;10130697000;10004955555;10504955555
1917;10180915000;10088322222;10588322222
1930;10212136000;10129988888;10629988888
1939;10242669000;10171655555;10671655555
1940;10242673000;10171655555;10671655555
1941;10242674000;10171655555;10671655555
1942;10242674000;10171655555;10671655555
1943;10242675000;10171655555;10671655555
1944;10242676000;10171655555;10671655555
1945;10242677000;10171655555;10671655555
1946;10242876000;10171733333;10671733333
1947;10242892000;10172022222;10672022222
1948;10242893000;10172022222;10672022222
1949;10242894000;10172022222;10672022222
1950;10352484000;10213322222;10713322222
1972;10429314000;10296655555;10796655555
1994;10498616000;10379988888;10879988888
2005;10529026000;10421655555;10921655555
2016;10562127000;10463322222;10963322222
2029;10587224000;10504988888;11004988888
2038;10623221000;10546655555;11046655555
2039;10623224000;10546655555;11046655555
2040;10623225000;10546655555;11046655555
2041;10623226000;10546655555;11046655555
2042;10623227000;10546655555;11046655555
2043;10623228000;10546655555;11046655555
2044;10623229000;10546655555;11046655555
2045;10623429000;10546744444;11046744444
2046;10623444000;10547011111;11047011111
2047;10623445000;10547011111;11047011111
2048;10623446000;10547011111;11047011111
2049;10726538000;10588322222;11088322222
2071;10803780000;10671655555;11171655555
2093;10871259000;10754988888;11254988888
2104;10903608000;10796655555;11296655555
2115;10930590000;10838322222;11338322222
2126;10964200000;10879988888;11379988888
2137;10997446000;10921622222;11421622222
2138;10997450000;10921622222;11421622222
2139;10997451000;10921622222;11421622222
2140;10997452000;10921622222;11421622222
2141;10997453000;10921622222;11421622222
2142;10997454000;10921622222;11421622222
2143;10997455000;10921622222;11421622222
2144;10997610000;10921711111;11421711111
2145;10997616000;10922011111;11422011111
2146;10997617000;10922011111;11422011111
2147;10997618000;10922011111;11422011111
2148;11030313000;10963322222;11463322222
2149;11030317000;10963322222;11463322222
2150;11030318000;10963322222;11463322222
2151;11030319000;10963322222;11463322222
2152;11030320000;10963322222;11463322222
2153;11030321000;10963322222;11463322222
2154;11030322000;10963322222;11463322222
2155;11030492000;10963400000;11463400000
2156;11030496000;10963711111;11463711111
2157;11030497000;10963711111;11463711111
2158;11030499000;10963711111;11463711111
2159;11065451000;11004955555;11504955555
2160;11065454000;11004955555;11504955555
2161;11065455000;11004955555;11504955555
2162;11065456000;11004955555;11504955555
2163;11065457000;11004955555;11504955555
2164;11065458000;11004955555;11504955555
2165;11065459000;11004955555;11504955555
2166;11065659000;11005033333;11505033333
2167;11065674000;11005411111;11505411111
2168;11065675000;11005411111;11505411111
2169;11065676000;11005411111;11505411111
2170;11102393000;11046655555;11546655555
2171;11102396000;11046655555;11546655555
2172;11102397000;11046655555;11546655555
2173;11102398000;11046655555;11546655555
2174;11102399000;11046655555;11546655555
2175;11102400000;11046655555;11546655555
2176;11102401000;11046655555;11546655555
2177;11102571000;11046733333;11546733333
2178;11102576000;11047055555;11547055555
2179;11102585000;11047055555;11547055555
2180;11102586000;11047055555;11547055555
2181;11138461000;11088322222;11588322222
2182;11138465000;11088322222;11588322222
2183;11138466000;11088322222;11588322222
2184;11138467000;11088322222;11588322222
2185;11138468000;11088322222;11588322222
2186;11138469000;11088322222;11588322222
2187;11138470000;11088322222;11588322222
2188;11138640000;11088400000;11588400000
2189;11138644000;11088722222;11588722222
2190;11138646000;11088722222;11588722222
2191;11138646000;11088722222;11588722222
2192;11177949000;11130000000;11630000000
2193;11177953000;11130000000;11630000000
2194;11177954000;11130000000;11630000000
2195;11177955000;11130000000;11630000000
2196;11177956000;11130000000;11630000000
2197;11177957000;11130000000;11630000000
2198;11177958000;11130000000;11630000000
2199;11178145000;11130077777;11630077777
2200;11178152000;11130444444;11630444444
2201;11178153000;11130444444;11630444444
2202;11178154000;11130444444;11630444444
2203;11218081000;11171655555;11671655555
2204;11218085000;11171655555;11671655555
2205;11218099000;11171655555;11671655555
2206;11218100000;11171655555;11671655555
2207;11218101000;11171655555;11671655555
2208;11218102000;11171655555;11671655555
2209;11218103000;11171655555;11671655555
2210;11218311000;11171733333;11671733333
2211;11218326000;11172044444;11672044444
2212;11218328000;11172044444;11672044444
2213;11218329000;11172044444;11672044444
2214;11311791000;11213322222;11713322222
2225;11352634000;11254955555;11754955555
2236;11392658000;11296655555;11796655555
2247;11431904000;11338322222;11838322222
2258;11469962000;11379955555;11879955555
2269;11506965000;11421655555;11921655555
2280;11543734000;11463322222;11963322222
2291;11577204000;11504988888;12004988888
2292;11577207000;11504988888;12004988888
2293;11577208000;11504988888;12004988888
2294;11577210000;11504988888;12004988888
2295;11577211000;11504988888;12004988888
2296;11577212000;11504988888;12004988888
2297;11577213000;11504988888;12004988888
2298;11579720000;11505077777;12005077777
2299;11579726000;11505433333;12005433333
2300;11579727000;11505433333;12005433333
2301;11579728000;11505433333;12005433333
2302;11615418000;11546655555;12046655555
2303;11615422000;11546655555;12046655555
2304;11615423000;11546655555;12046655555
2305;11615424000;11546655555;12046655555
2306;11615425000;11546655555;12046655555
2307;11615426000;11546655555;12046655555
2308;11615427000;11546655555;12046655555
2309;11615618000;11546744444;12046744444
2310;11615624000;11547044444;12047044444
2311;11615625000;11547044444;12047044444
2312;11615626000;11547044444;12047044444
2313;11649248000;11588322222;12088322222
2314;11649251000;11588322222;12088322222
2315;11649252000;11588322222;12088322222
2316;11649253000;11588322222;12088322222
2317;11649254000;11588322222;12088322222
2318;11649255000;11588322222;12088322222
2319;11649256000;11588322222;12088322222
2320;11651494000;11588400000;12088400000
2321;11651500000;11588722222;12088722222
2322;11651511000;11588722222;12088722222
2323;11651512000;11588722222;12088722222
2324;11688100000;11629988888;12129988888
2325;11688104000;11629988888;12129988888
2326;11688105000;11629988888;12129988888
2327;11688106000;11629988888;12129988888
2328;11688106000;11629988888;12129988888
2329;11688107000;11629988888;12129988888
2330;11688109000;11629988888;12129988888
2331;11688308000;11630066666;12130066666
2332;11688323000;11630444444;12130444444
2333;11688324000;11630444444;12130444444
2334;11688325000;11630444444;12130444444
2335;11726079000;11671655555;12171655555
2336;11726083000;11671655555;12171655555
2337;11726084000;11671655555;12171655555
2338;11726085000;11671655555;12171655555
2339;11726085000;11671655555;12171655555
2340;11726086000;11671655555;12171655555
2341;11726087000;11671655555;12171655555
2342;11726286000;11671733333;12171733333
2343;11726302000;11672055555;12172055555
2344;11726303000;11672055555;12172055555
2345;11726304000;11672055555;12172055555
2346;11763878000;11713344444;12213344444
2347;11763880000;11713344444;12213344444
2348;11763881000;11713344444;12213344444
2349;11763899000;11713344444;12213344444
2350;11763900000;11713344444;12213344444
2351;11763901000;11713344444;12213344444
2352;11763902000;11713344444;12213344444
2353;11764037000;11713422222;12213422222
2354;11764039000;11713722222;12213722222
2355;11764040000;11713722222;12213722222
2356;11764041000;11713722222;12213722222
2357;11934577000;11754988888;12254988888
2390;12033486000;11879988888;12379988888
2412;12081062000;11963322222;12463322222
2423;12106322000;12004955555;12504955555
2434;12136240000;12046655555;12546655555
2445;12161450000;12088322222;12588322222
2446;12161453000;12088322222;12588322222
2447;12161454000;12088322222;12588322222
2448;12161455000;12088322222;12588322222
2449;12161456000;12088322222;12588322222
2450;12161457000;12088322222;12588322222
2451;12161458000;12088322222;12588322222
2452;12161659000;12088400000;12588400000
2453;12161674000;12088722222;12588722222
2454;12161675000;12088722222;12588722222
2455;12161676000;12088722222;12588722222
2456;12194706000;12129955555;12629955555
2457;12194709000;12129955555;12629955555
2458;12194710000;12129955555;12629955555
2459;12194711000;12129955555;12629955555
2460;12194712000;12129955555;12629955555
2461;12194713000;12129955555;12629955555
2462;12194714000;12129955555;12629955555
2463;12194885000;12130066666;12630066666
2464;12194890000;12130433333;12630433333
2465;12194891000;12130433333;12630433333
2466;12194892000;12130433333;12630433333
2467;12227874000;12171622222;12671622222
2468;12227877000;12171622222;12671622222
2469;12227878000;12171622222;12671622222
2470;12227879000;12171622222;12671622222
2471;12227880000;12171622222;12671622222
2472;12227881000;12171622222;12671622222
2473;12227882000;12171622222;12671622222
2474;12228024000;12171711111;12671711111
2475;12228026000;12172022222;12672022222
2476;12228027000;12172022222;12672022222
2477;12228028000;12172022222;12672022222
2478;12264704000;12213311111;12713311111
2479;12264708000;12213311111;12713311111
2480;12264709000;12213311111;12713311111
2481;12264711000;12213311111;12713311111
2482;12264712000;12213311111;12713311111
2483;12264713000;12213311111;12713311111
2484;12264714000;12213311111;12713311111
2485;12264916000;12213400000;12713400000
2486;12264931000;12213677777;12713677777
2487;12264933000;12213677777;12713677777
2488;12264933000;12213677777;12713677777
2489;12393259000;12254955555;12754955555
2511;12470610000;12338322222;12838322222
2533;12540757000;12421655555;12921655555
2544;12570892000;12463322222;12963322222
2555;12598878000;12504988888;13004988888
2566;12632252000;12546655555;13046655555
2577;12663023000;12588322222;13088322222
2578;12663027000;12588322222;13088322222
2579;12663028000;12588322222;13088322222
2580;12663029000;12588322222;13088322222
2581;12663030000;12588322222;13088322222
2582;12663031000;12588322222;13088322222
2583;12663032000;12588322222;13088322222
2584;12663241000;12588400000;13088400000
2585;12663256000;12588700000;13088700000
2586;12663257000;12588700000;13088700000
2587;12663258000;12588700000;13088700000
2588;12694734000;12629966666;13129966666
2589;12694737000;12629966666;13129966666
2590;12694739000;12629966666;13129966666
2591;12694740000;12629966666;13129966666
2592;12694740000;12629966666;13129966666
2593;12694741000;12629966666;13129966666
2594;12694742000;12629966666;13129966666
2595;12694942000;12630066666;13130066666
2596;12694958000;12630544444;13130544444
2597;12694959000;12630544444;13130544444
2598;12694960000;12630544444;13130544444
2599;12729208000;12671633333;13171633333
2600;12729211000;12671633333;13171633333
2601;12729212000;12671633333;13171633333
2602;12729213000;12671633333;13171633333
2603;12729214000;12671633333;13171633333
2604;12729215000;12671633333;13171633333
2605;12729216000;12671633333;13171633333
2606;12729415000;12671733333;13171733333
2607;12729430000;12672133333;13172133333
2608;12729432000;12672133333;13172133333
2609;12729433000;12672133333;13172133333
2610;12766248000;12713333333;13213333333
2611;12766251000;12713333333;13213333333
2612;12766252000;12713333333;13213333333
2613;12766253000;12713333333;13213333333
2614;12766262000;12713333333;13213333333
2615;12766263000;12713333333;13213333333
2616;12766264000;12713333333;13213333333
2617;12766458000;12713422222;13213422222
2618;12766465000;12713722222;13213722222
2619;12766466000;12713722222;13213722222
2620;12766467000;12713722222;13213722222
2621;12803969000;12754988888;13254988888
2622;12803973000;12754988888;13254988888
2623;12803974000;12754988888;13254988888
2624;12803975000;12754988888;13254988888
2625;12803975000;12754988888;13254988888
2626;12803977000;12754988888;13254988888
2627;12803978000;12754988888;13254988888
2628;12804163000;12755066666;13255066666
2629;12804168000;12755433333;13255433333
2630;12804169000;12755433333;13255433333
2631;12804170000;12755433333;13255433333
2632;12894934000;12796622222;13296622222
2643;12936000000;12838322222;13338322222
2654;12976349000;12879988888;13379988888
2665;13015402000;12921655555;13421655555
2678;13053375000;12963322222;13463322222
2687;13091087000;13004988888;13504988888
2698;13186754000;13046655555;13546655555
2720;13264454000;13129988888;13629988888
2742;13335056000;13213322222;13713322222
2764;13397502000;13296622222;13796622222
2775;13428000000;13338322222;13838322222
2786;13459976000;13379966666;13879966666
2797;13601772000;13421622222;13921622222
2830;13699426000;13546655555;14046655555
2852;13747855000;13629988888;14129988888
2863;13775288000;13671655555;14171655555
2874;13801112000;13713322222;14213322222
2885;13830685000;13754988888;14254988888
2886;13830689000;13754988888;14254988888
2887;13830690000;13754988888;14254988888
2888;13830690000;13754988888;14254988888
2889;13830691000;13754988888;14254988888
2890;13830692000;13754988888;14254988888
2891;13830693000;13754988888;14254988888
2892;13830892000;13755066666;14255066666
2893;13830908000;13755422222;14255422222
2894;13830909000;13755422222;14255422222
2895;13830910000;13755422222;14255422222
2896;13862099000;13796633333;14296633333
2897;13862102000;13796633333;14296633333
2898;13862103000;13796633333;14296633333
2899;13862105000;13796633333;14296633333
2900;13862105000;13796633333;14296633333
2901;13862106000;13796633333;14296633333
2902;13862107000;13796633333;14296633333
2903;13862278000;13796733333;14296733333
2904;13862282000;13797000000;14297000000
2905;13862284000;13797000000;14297000000
2906;13862285000;13797000000;14297000000
2907;14018324000;13838322222;14338322222
2940;14116052000;13963322222;14463322222
2962;14279626000;14046622222;14546622222
3006;14342513000;14213322222;14713322222
3028;14378058000;14296666666;14796666666
3039;14402673000;14338288888;14838288888
3040;14402677000;14338288888;14838288888
3041;14402678000;14338288888;14838288888
3042;14402679000;14338288888;14838288888
3043;14402680000;14338288888;14838288888
3044;14402681000;14338288888;14838288888
3045;14402682000;14338288888;14838288888
3046;14402838000;14338366666;14838366666
3047;14402844000;14338644444;14838644444
3048;14402845000;14338644444;14838644444
3049;14402846000;14338644444;14838644444
3050;14434418000;14379988888;14879988888
3051;14434422000;14379988888;14879988888
3052;14434423000;14379988888;14879988888
3053;14434424000;14379988888;14879988888
3054;14434424000;14379988888;14879988888
3055;14434426000;14379988888;14879988888
3056;14434426000;14379988888;14879988888
3057;14434625000;14380066666;14880066666
3058;14434641000;14380400000;14880400000
3059;14434642000;14380400000;14880400000
3060;14434643000;14380400000;14880400000
3061;14472029000;14421622222;14921622222
3062;14472032000;14421622222;14921622222
3063;14472033000;14421622222;14921622222
3064;14472034000;14421622222;14921622222
3065;14472035000;14421622222;14921622222
3066;14472036000;14421622222;14921622222
3067;14472037000;14421622222;14921622222
3068;14472236000;14421700000;14921700000
3069;14472239000;14422011111;14922011111
3070;14472240000;14422011111;14922011111
3071;14472241000;14422011111;14922011111
3072;14602353000;14463322222;14963322222
3094;14680330000;14546655555;15046655555
3116;14750700000;14629977777;15129977777
3132;14780112000;14671655555;15171655555
3138;14809294000;14713322222;15213322222
3149;14837255000;14755000000;15255000000
3160;14871006000;14796655555;15296655555
3161;14871009000;14796655555;15296655555
3162;14871010000;14796655555;15296655555
3163;14871011000;14796655555;15296655555
3164;14871012000;14796655555;15296655555
3165;14871013000;14796655555;15296655555
3166;14871014000;14796655555;15296655555
3167;14871213000;14796733333;15296733333
3168;14871228000;14797022222;15297022222
3169;14871229000;14797022222;15297022222
3170;14871230000;14797022222;15297022222
3171;14904278000;14838322222;15338322222
3172;14904282000;14838322222;15338322222
3173;14904283000;14838322222;15338322222
3174;14904284000;14838322222;15338322222
3175;14904285000;14838322222;15338322222
3176;14904286000;14838322222;15338322222
3177;14904287000;14838322222;15338322222
3178;14904486000;14838400000;15338400000
3179;14904501000;14838700000;15338700000
3180;14904502000;14838700000;15338700000
3181;14904503000;14838700000;15338700000
3182;15019528000;14879988888;15379988888
3204;15094540000;14963322222;15463322222
3226;15164445000;15046666666;15546666666
3237;15195352000;15088322222;15588322222
3248;15228127000;15129966666;15629966666
3261;15261703000;15171655555;15671655555
3270;15292651000;15213322222;15713322222
3279;15352814000;15213655555;15713655555
3292;15433852000;15296655555;15796655555
3314;15507027000;15379988888;15879988888
3336;15571041000;15463322222;15963322222
3347;15603709000;15504955555;16004955555
3358;15633344000;15546655555;16046655555
3369;15662821000;15588322222;16088322222
3370;15662825000;15588322222;16088322222
3371;15662826000;15588322222;16088322222
3372;15662827000;15588322222;16088322222
3373;15662828000;15588322222;16088322222
3374;15662829000;15588322222;16088322222
3375;15662830000;15588322222;16088322222
3376;15663036000;15588400000;16088400000
3377;15663061000;15588688888;16088688888
3378;15663062000;15588688888;16088688888
3379;15663063000;15588688888;16088688888
3380;15698142000;15629955555;16129955555
3381;15698145000;15629955555;16129955555
3382;15698146000;15629955555;16129955555
3383;15698148000;15629955555;16129955555
3384;15698148000;15629955555;16129955555
3385;15698149000;15629955555;16129955555
3386;15698150000;15629955555;16129955555
3387;15698349000;15630033333;16130033333
3388;15698365000;15630388888;16130388888
3389;15698366000;15630388888;16130388888
3390;15698367000;15630388888;16130388888
3391;15731902000;15671622222;16171622222
3392;15731905000;15671622222;16171622222
3393;15731906000;15671622222;16171622222
3394;15731907000;15671622222;16171622222
3395;15731909000;15671622222;16171622222
3396;15731909000;15671622222;16171622222
3397;15731910000;15671622222;16171622222
3398;15732081000;15671700000;16171700000
3399;15732085000;15672000000;16172000000
3400;15732086000;15672000000;16172000000
3401;15732088000;15672000000;16172000000
3402;15767692000;15713322222;16213322222
3403;15767695000;15713322222;16213322222
3404;15767696000;15713322222;16213322222
3405;15767697000;15713322222;16213322222
3406;15767698000;15713322222;16213322222
3407;15767700000;15713322222;16213322222
3408;15767700000;15713322222;16213322222
3409;15767910000;15713400000;16213400000
3410;15767916000;15713677777;16213677777
3411;15767917000;15713677777;16213677777
3412;15767918000;15713677777;16213677777
3413;15804630000;15754988888;16254988888
3414;15804633000;15754988888;16254988888
3415;15804635000;15754988888;16254988888
3416;15804636000;15754988888;16254988888
3417;15804646000;15754988888;16254988888
3418;15804647000;15754988888;16254988888
3419;15804648000;15754988888;16254988888
3420;15804851000;15755066666;16255066666
3421;15804857000;15755411111;16255411111
3422;15804858000;15755411111;16255411111
3423;15804859000;15755411111;16255411111
3424;15844177000;15796655555;16296655555
3425;15844181000;15796655555;16296655555
3426;15844182000;15796655555;16296655555
3427;15844183000;15796655555;16296655555
3428;15844184000;15796655555;16296655555
3429;15844185000;15796655555;16296655555
3430;15844186000;15796655555;16296655555
3431;15844404000;15796744444;16296744444
3432;15844411000;15797033333;16297033333
3433;15844421000;15797033333;16297033333
3434;15844423000;15797033333;16297033333
3435;15884979000;15838322222;16338322222
3436;15884982000;15838322222;16338322222
3437;15884984000;15838322222;16338322222
3438;15884985000;15838322222;16338322222
3439;15884985000;15838322222;16338322222
3440;15884986000;15838322222;16338322222
3441;15884987000;15838322222;16338322222
3442;15885225000;15838400000;16338400000
3443;15885232000;15838688888;16338688888
3444;15885233000;15838688888;16338688888
3445;15885234000;15838688888;16338688888
3446;15925959000;15879955555;16379955555
3447;15925962000;15879955555;16379955555
3448;15925963000;15879955555;16379955555
3449;15925964000;15879955555;16379955555
3450;15925965000;15879955555;16379955555
3451;15925966000;15879955555;16379955555
3452;15925967000;15879955555;16379955555
3453;15926175000;15880044444;16380044444
3454;15926181000;15880411111;16380411111
3455;15926183000;15880411111;16380411111
3456;15926184000;15880411111;16380411111
3457;15967395000;15921655555;16421655555
3458;15967399000;15921655555;16421655555
3459;15967400000;15921655555;16421655555
3460;15967401000;15921655555;16421655555
3461;15967402000;15921655555;16421655555
3462;15967403000;15921655555;16421655555
3463;15967404000;15921655555;16421655555
3464;15967592000;15921733333;16421733333
3465;15967597000;15922033333;16422033333
3466;15967598000;15922033333;16422033333
3467;15967600000;15922033333;16422033333
3468;16142448000;15963322222;16463322222
3501;16241873000;16088322222;16588322222
3523;16294450000;16171655555;16671655555
3545;16345629000;16254988888;16754988888
3556;16371619000;16296655555;16796655555
3557;16371623000;16296655555;16796655555
3558;16371624000;16296655555;16796655555
3559;16371625000;16296655555;16796655555
3560;16371626000;16296655555;16796655555
3561;16371627000;16296655555;16796655555
3562;16371628000;16296655555;16796655555
3563;16371827000;16296733333;16796733333
3564;16371842000;16297022222;16797022222
3565;16371843000;16297022222;16797022222
3566;16371844000;16297022222;16797022222
3567;16398080000;16338322222;16838322222
3568;16398084000;16338322222;16838322222
3569;16398085000;16338322222;16838322222
3570;16398086000;16338322222;16838322222
3571;16398087000;16338322222;16838322222
3572;16398088000;16338322222;16838322222
3573;16398089000;16338322222;16838322222
3574;16401294000;16338411111;16838411111
3575;16401309000;16338700000;16838700000
3576;16401311000;16338700000;16838700000
3577;16401312000;16338700000;16838700000
3578;16435884000;16379988888;16879988888
3579;16435887000;16379988888;16879988888
3580;16435888000;16379988888;16879988888
3581;16435889000;16379988888;16879988888
3582;16435890000;16379988888;16879988888
3583;16435891000;16379988888;16879988888
3584;16435892000;16379988888;16879988888
3585;16436098000;16380066666;16880066666
3586;16436114000;16380422222;16880422222
3587;16436115000;16380422222;16880422222
3588;16436116000;16380422222;16880422222
3589;16472143000;16421655555;16921655555
3590;16472146000;16421655555;16921655555
3591;16472147000;16421655555;16921655555
3592;16472148000;16421655555;16921655555
3593;16472149000;16421655555;16921655555
3594;16472150000;16421655555;16921655555
3595;16472151000;16421655555;16921655555
3596;16472349000;16421733333;16921733333
3597;16472365000;16422044444;16922044444
3598;16472366000;16422044444;16922044444
3599;16472367000;16422044444;16922044444
3600;16511301000;16463322222;16963322222
3601;16511303000;16463322222;16963322222
3602;16511304000;16463322222;16963322222
3603;16511305000;16463322222;16963322222
3604;16511306000;16463322222;16963322222
3605;16511307000;16463322222;16963322222
3606;16511308000;16463322222;16963322222
3607;16511527000;16463400000;16963400000
3608;16511533000;16463711111;16963711111
3609;16511534000;16463711111;16963711111
3610;16511535000;16463711111;16963711111
3611;16602411000;16504988888;17004988888
3622;16643612000;16546655555;17046655555
3633;16683185000;16588322222;17088322222
3644;16723390000;16629988888;17129988888
3657;16760480000;16671655555;17171655555
3666;16799670000;16713322222;17213322222
3677;16894418000;16754988888;17254988888
3699;16971219000;16838322222;17338322222
3721;17039819000;16921622222;17421622222
3732;17140983000;16963322222;17463322222
3765;17240694000;17088333333;17588333333
3787;17287741000;17171655555;17671655555
3798;17311597000;17213322222;17713322222
3809;17337912000;17254955555;17754955555
3820;17371539000;17296655555;17796655555
3821;17371542000;17296655555;17796655555
3822;17371543000;17296655555;17796655555
3823;17371545000;17296655555;17796655555
3824;17371546000;17296655555;17796655555
3825;17371547000;17296655555;17796655555
3826;17371548000;17296655555;17796655555
3827;17371748000;17296733333;17796733333
3828;17371763000;17297022222;17797022222
3829;17371765000;17297022222;17797022222
3830;17371766000;17297022222;17797022222
3831;17403223000;17338322222;17838322222
3832;17403226000;17338322222;17838322222
3833;17403227000;17338322222;17838322222
3834;17403228000;17338322222;17838322222
3835;17403229000;17338322222;17838322222
3836;17403230000;17338322222;17838322222
3837;17403231000;17338322222;17838322222
3838;17403409000;17338400000;17838400000
3839;17403414000;17338677777;17838677777
3840;17403415000;17338677777;17838677777
3841;17403416000;17338677777;17838677777
3842;17436353000;17379955555;17879955555
3843;17436357000;17379955555;17879955555
3844;17436358000;17379955555;17879955555
3845;17436359000;17379955555;17879955555
3846;17436360000;17379955555;17879955555
3847;17436361000;17379955555;17879955555
3848;17436362000;17379955555;17879955555
3849;17436569000;17380033333;17880033333
3850;17436575000;17380377777;17880377777
3851;17436577000;17380377777;17880377777
3852;17436578000;17380377777;17880377777
3853;17473756000;17421622222;17921622222
3854;17473760000;17421622222;17921622222
3855;17473761000;17421622222;17921622222
3856;17473762000;17421622222;17921622222
3857;17473763000;17421622222;17921622222
3858;17473764000;17421622222;17921622222
3859;17473765000;17421622222;17921622222
3860;17473965000;17421700000;17921700000
3861;17473980000;17421988888;17921988888
3862;17473981000;17421988888;17921988888
3863;17473982000;17421988888;17921988888
3864;17512477000;17463322222;17963322222
3865;17512481000;17463322222;17963322222
3866;17512482000;17463322222;17963322222
3867;17512483000;17463322222;17963322222
3868;17512484000;17463322222;17963322222
3869;17512485000;17463322222;17963322222
3870;17512486000;17463322222;17963322222
3871;17512699000;17463400000;17963400000
3872;17512702000;17463688888;17963688888
3873;17512704000;17463688888;17963688888
3874;17512705000;17463688888;17963688888
3875;17645218000;17504988888;18004988888
3897;17720932000;17588322222;18088322222
3919;17790758000;17671655555;18171655555
3930;17822131000;17713322222;18213322222
3941;17852245000;17754988888;18254988888
3952;17882241000;17796655555;18296655555
3963;17914202000;17838322222;18338322222
3964;17914205000;17838322222;18338322222
3965;17914206000;17838322222;18338322222
3966;17914207000;17838322222;18338322222
3967;17914208000;17838322222;18338322222
3968;17914209000;17838322222;18338322222
3969;17914210000;17838322222;18338322222
3970;17914410000;17838400000;18338400000
3971;17914426000;17838688888;18338688888
3972;17914427000;17838688888;18338688888
3973;17914428000;17838688888;18338688888
3974;17947076000;17879988888;18379988888
3975;17947079000;17879988888;18379988888
3976;17947080000;17879988888;18379988888
3977;17947081000;17879988888;18379988888
3978;17947082000;17879988888;18379988888
3979;17947083000;17879988888;18379988888
3980;17947093000;17879988888;18379988888
3981;17947263000;17880066666;18380066666
3982;17947267000;17880411111;18380411111
3983;17947269000;17880411111;18380411111
3984;17947270000;17880411111;18380411111
3985;17980315000;17921655555;18421655555
3986;17980318000;17921655555;18421655555
3987;17980319000;17921655555;18421655555
3988;17980320000;17921655555;18421655555
3989;17980321000;17921655555;18421655555
3990;17980322000;17921655555;18421655555
3991;17980323000;17921655555;18421655555
3992;17980521000;17921733333;18421733333
3993;17980537000;17922011111;18422011111
3994;17980547000;17922011111;18422011111
3995;17980548000;17922011111;18422011111
3996;18016715000;17963322222;18463322222
3997;18016719000;17963322222;18463322222
3998;18016720000;17963322222;18463322222
3999;18016721000;17963322222;18463322222
4000;18016722000;17963322222;18463322222
4001;18016723000;17963322222;18463322222
4002;18016724000;17963322222;18463322222
4003;18016923000;17963400000;18463400000
4004;18016938000;17963677777;18463677777
4005;18016940000;17963677777;18463677777
4006;18016940000;17963677777;18463677777
4007;18054087000;18004955555;18504955555
4008;18054090000;18004955555;18504955555
4009;18054091000;18004955555;18504955555
4010;18054092000;18004955555;18504955555
4011;18054093000;18004955555;18504955555
4012;18054094000;18004955555;18504955555
4013;18054105000;18004955555;18504955555
4014;18054320000;18005033333;18505033333
4015;18054327000;18005366666;18505366666
4016;18054328000;18005366666;18505366666
4017;18054329000;18005366666;18505366666
4018;18093773000;18046655555;18546655555
4019;18093776000;18046655555;18546655555
4020;18093778000;18046655555;18546655555
4021;18093778000;18046655555;18546655555
4022;18093779000;18046655555;18546655555
4023;18093781000;18046655555;18546655555
4024;18093781000;18046655555;18546655555
4025;18094270000;18046733333;18546733333
4026;18094285000;18047033333;18547033333
4027;18094286000;18047033333;18547033333
4028;18094287000;18047033333;18547033333
4029;18186164000;18088322222;18588322222
4040;18227407000;18129988888;18629988888
4052;18267511000;18171622222;18671622222
4062;18307083000;18213322222;18713322222
4073;18342756000;18254988888;18754988888
4084;18381061000;18296655555;18796655555
4095;18417918000;18338322222;18838322222
4106;18454107000;18379988888;18879988888
4107;18454111000;18379988888;18879988888
4108;18454112000;18379988888;18879988888
4109;18454113000;18379988888;18879988888
4110;18454114000;18379988888;18879988888
4111;18454115000;18379988888;18879988888
4112;18454116000;18379988888;18879988888
4113;18454316000;18380066666;18880066666
4114;18454331000;18380400000;18880400000
4115;18454332000;18380400000;18880400000
4116;18454333000;18380400000;18880400000
4117;18490057000;18421655555;18921655555
4118;18490060000;18421655555;18921655555
4119;18490061000;18421655555;18921655555
4120;18490062000;18421655555;18921655555
4121;18490063000;18421655555;18921655555
4122;18490064000;18421655555;18921655555
4123;18490065000;18421655555;18921655555
4124;18490263000;18421733333;18921733333
4125;18490267000;18422033333;18922033333
4126;18490268000;18422033333;18922033333
4127;18490269000;18422033333;18922033333
4128;18602794000;18463322222;18963322222
4150;18678745000;18546655555;19046655555
4172;18748680000;18629955555;19129955555
4183;18778683000;18671655555;19171655555
4194;18810783000;18713322222;19213322222
4205;18842079000;18754988888;19254988888
4216;18875003000;18796655555;19296655555
4217;18875007000;18796655555;19296655555
4218;18875008000;18796655555;19296655555
4219;18875010000;18796655555;19296655555
4220;18875011000;18796655555;19296655555
4221;18875012000;18796655555;19296655555
4222;18875013000;18796655555;19296655555
4223;18875215000;18796733333;19296733333
4224;18875231000;18797033333;19297033333
4225;18875232000;18797033333;19297033333
4226;18875233000;18797033333;19297033333
4227;18900738000;18838322222;19338322222
4228;18900741000;18838322222;19338322222
4229;18900742000;18838322222;19338322222
4230;18900743000;18838322222;19338322222
4231;18900744000;18838322222;19338322222
4232;18900745000;18838322222;19338322222
4233;18900746000;18838322222;19338322222
4234;18903896000;18838400000;19338400000
4235;18903911000;18838688888;19338688888
4236;18903913000;18838688888;19338688888
4237;18903914000;18838688888;19338688888
4238;18938583000;18879977777;19379977777
4239;18938586000;18879977777;19379977777
4240;18938587000;18879977777;19379977777
4241;18938588000;18879977777;19379977777
4242;18938589000;18879977777;19379977777
4243;18938590000;18879977777;19379977777
4244;18938591000;18879977777;19379977777
4245;18938790000;18880055555;19380055555
4246;18938815000;18880411111;19380411111
4247;18938816000;18880411111;19380411111
4248;18938818000;18880411111;19380411111
4249;18975578000;18921633333;19421633333
4250;18975582000;18921633333;19421633333
4251;18975583000;18921633333;19421633333
4252;18975584000;18921633333;19421633333
4253;18975585000;18921633333;19421633333
4254;18975586000;18921633333;19421633333
4255;18975587000;18921633333;19421633333
4256;18975724000;18921711111;19421711111
4257;18975727000;18922000000;19422000000
4258;18975728000;18922000000;19422000000
4259;18975729000;18922000000;19422000000
4260;19103389000;18963300000;19463300000
4282;19180363000;19046644444;19546644444
4304;19247547000;19129955555;19629955555
4315;19276782000;19171655555;19671655555
4326;19308629000;19213322222;19713322222
4337;19339095000;19255011111;19755011111
4348;19373610000;19296622222;19796622222
4349;19373614000;19296622222;19796622222
4350;19373615000;19296622222;19796622222
4351;19373616000;19296622222;19796622222
4352;19373617000;19296622222;19796622222
4353;19373618000;19296622222;19796622222
4354;19373619000;19296622222;19796622222
4355;19373818000;19296711111;19796711111
4356;19373833000;19297011111;19797011111
4357;19373835000;19297011111;19797011111
4358;19373835000;19297011111;19797011111
4359;19405436000;19338311111;19838311111
4360;19405440000;19338311111;19838311111
4361;19405441000;19338311111;19838311111
4362;19405442000;19338311111;19838311111
4363;19405443000;19338311111;19838311111
4364;19405444000;19338311111;19838311111
4365;19405445000;19338311111;19838311111
4366;19405644000;19338400000;19838400000
4367;19405659000;19338700000;19838700000
4368;19405660000;19338700000;19838700000
4369;19405661000;19338700000;19838700000
4370;19440688000;19379955555;19879955555
4371;19440691000;19379955555;19879955555
4372;19440692000;19379955555;19879955555
4373;19440693000;19379955555;19879955555
4374;19440694000;19379955555;19879955555
4375;19440695000;19379955555;19879955555
4376;19440696000;19379955555;19879955555
4377;19440895000;19380033333;19880033333
4378;19440902000;19380388888;19880388888
4379;19440903000;19380388888;19880388888
4380;19440904000;19380388888;19880388888
4381;19474213000;19421655555;19921655555
4382;19474216000;19421655555;19921655555
4383;19474217000;19421655555;19921655555
4384;19474218000;19421655555;19921655555
4385;19474219000;19421655555;19921655555
4386;19474230000;19421655555;19921655555
4387;19474231000;19421655555;19921655555
4388;19474468000;19421733333;19921733333
4389;19474473000;19422033333;19922033333
4390;19474474000;19422033333;19922033333
4391;19474475000;19422033333;19922033333
4392;19512354000;19463322222;19963322222
4393;19512357000;19463322222;19963322222
4394;19512358000;19463322222;19963322222
4395;19512359000;19463322222;19963322222
4396;19512361000;19463322222;19963322222
4397;19512362000;19463322222;19963322222
4398;19512363000;19463322222;19963322222
4399;19561528000;19463400000;19963400000
4403;19561533000;19505044444;20005044444
4404;19561535000;19505044444;20005044444
4405;19561536000;19505044444;20005044444
4406;19561537000;19505044444;20005044444
4407;19561538000;19505044444;20005044444
4408;19561548000;19505044444;20005044444
4409;19561549000;19505044444;20005044444
4410;19561763000;19505122222;20005122222
4411;19561767000;19505511111;20005511111
4412;19561768000;19505511111;20005511111
4413;19561769000;19505511111;20005511111
4414;19644593000;19546655555;20046655555
4425;19685519000;19588322222;20088322222
4436;19725956000;19629988888;20129988888
4447;19765669000;19671622222;20171622222
4458;19804472000;19713322222;20213322222
4469;19973384000;19754988888;20254988888
4513;20160078000;19921633333;20421633333
4557;20224794000;20088322222;20588322222
4579;20254258000;20171655555;20671655555
4590;20279695000;20213322222;20713322222
4591;20279698000;20213322222;20713322222
4592;20279699000;20213322222;20713322222
4593;20279700000;20213322222;20713322222
4594;20279701000;20213322222;20713322222
4595;20279702000;20213322222;20713322222
4596;20279703000;20213322222;20713322222
4597;20279911000;20213400000;20713400000
4598;20279926000;20213644444;20713644444
4599;20279927000;20213644444;20713644444
4600;20279928000;20213644444;20713644444
4601;20311155000;20254988888;20754988888
4602;20311159000;20254988888;20754988888
4603;20311160000;20254988888;20754988888
4604;20311161000;20254988888;20754988888
4605;20311162000;20254988888;20754988888
4606;20311163000;20254988888;20754988888
4607;20311164000;20254988888;20754988888
4608;20311341000;20255066666;20755066666
4609;20311346000;20255388888;20755388888
4610;20311347000;20255388888;20755388888
4611;20311348000;20255388888;20755388888
4612;20347129000;20296655555;20796655555
4613;20347132000;20296655555;20796655555
4614;20347133000;20296655555;20796655555
4615;20347134000;20296655555;20796655555
4616;20347135000;20296655555;20796655555
4617;20347136000;20296655555;20796655555
4618;20347137000;20296655555;20796655555
4619;20347280000;20296733333;20796733333
4620;20347283000;20297011111;20797011111
4621;20347284000;20297011111;20797011111
4622;20347285000;20297011111;20797011111
4623;20436568000;20338322222;20838322222
4637;20477642000;20379955555;20879955555
4645;20518370000;20421655555;20921655555
4656;20557325000;20463322222;20963322222
4669;20595956000;20504988888;21004988888
4680;20633773000;20546622222;21046622222
4689;20727591000;20588322222;21088322222
4711;20805082000;20671655555;21171655555
4733;20874555000;20754988888;21254988888
4744;20907762000;20796655555;21296655555
4755;20936427000;20838322222;21338322222
4766;20965105000;20879955555;21379955555
4777;20996153000;20921666666;21421666666
4778;20996156000;20921666666;21421666666
4779;20996158000;20921666666;21421666666
4780;20996159000;20921666666;21421666666
4781;20996160000;20921666666;21421666666
4782;20996161000;20921666666;21421666666
4783;20996161000;20921666666;21421666666
4784;20996361000;20921755555;21421755555
4785;20996376000;20922044444;21422044444
4786;20996377000;20922044444;21422044444
4787;20996378000;20922044444;21422044444
4788;21026839000;20963322222;21463322222
4789;21026843000;20963322222;21463322222
4790;21026844000;20963322222;21463322222
4791;21026845000;20963322222;21463322222
4792;21026846000;20963322222;21463322222
4793;21026847000;20963322222;21463322222
4794;21026848000;20963322222;21463322222
4795;21030274000;20963400000;21463400000
4796;21030280000;20963688888;21463688888
4797;21030282000;20963688888;21463688888
4798;21030283000;20963688888;21463688888
4799;21063671000;21004988888;21504988888
4800;21063674000;21004988888;21504988888
4801;21063675000;21004988888;21504988888
4802;21063676000;21004988888;21504988888
4803;21063677000;21004988888;21504988888
4804;21063678000;21004988888;21504988888
4805;21063679000;21004988888;21504988888
4806;21063879000;21005066666;21505066666
4807;21063894000;21005422222;21505422222
4808;21063896000;21005422222;21505422222
4809;21063897000;21005422222;21505422222
4810;21100221000;21046655555;21546655555
4811;21100225000;21046655555;21546655555
4812;21100226000;21046655555;21546655555
4813;21100227000;21046655555;21546655555
4814;21100228000;21046655555;21546655555
4815;21100229000;21046655555;21546655555
4816;21100230000;21046655555;21546655555
4817;21100403000;21046733333;21546733333
4818;21100408000;21047044444;21547044444
4819;21100409000;21047044444;21547044444
4820;21100410000;21047044444;21547044444
4821;21307713000;21088322222;21588322222
4865;21401981000;21254988888;21754988888
4887;21439108000;21338322222;21838322222
4898;21464624000;21379988888;21879988888
4909;21492719000;21421644444;21921644444
4910;21492723000;21421644444;21921644444
4911;21492724000;21421644444;21921644444
4912;21492725000;21421644444;21921644444
4913;21492726000;21421644444;21921644444
4914;21492727000;21421644444;21921644444
4915;21492728000;21421644444;21921644444
4916;21492927000;21421722222;21921722222
4917;21492942000;21422066666;21922066666
4918;21492944000;21422066666;21922066666
4919;21492944000;21422066666;21922066666
4920;21518581000;21463288888;21963288888
4921;21518584000;21463288888;21963288888
4922;21518585000;21463288888;21963288888
4923;21518594000;21463288888;21963288888
4924;21518595000;21463288888;21963288888
4925;21518596000;21463288888;21963288888
4926;21518597000;21463288888;21963288888
4927;21521294000;21463366666;21963366666
4928;21521309000;21463688888;21963688888
4929;21521310000;21463688888;21963688888
4930;21521311000;21463688888;21963688888
4931;21556544000;21504988888;22004988888
4932;21556548000;21504988888;22004988888
4933;21556549000;21504988888;22004988888
4934;21556550000;21504988888;22004988888
4935;21556551000;21504988888;22004988888
4936;21556552000;21504988888;22004988888
4937;21556553000;21504988888;22004988888
4938;21556754000;21505066666;22005066666
4939;21556769000;21505422222;22005422222
4940;21556771000;21505422222;22005422222
4941;21556772000;21505422222;22005422222
4942;21594935000;21546655555;22046655555
4943;21594939000;21546655555;22046655555
4944;21594939000;21546655555;22046655555
4945;21594940000;21546655555;22046655555
4946;21594941000;21546655555;22046655555
4947;21594942000;21546655555;22046655555
4948;21594943000;21546655555;22046655555
4949;21595169000;21546755555;22046755555
4950;21595184000;21547044444;22047044444
4951;21595185000;21547044444;22047044444
4952;21595186000;21547044444;22047044444
4953;21686731000;21588322222;22088322222
4964;21727712000;21629955555;22129955555
4975;21768225000;21671622222;22171622222
4986;21806520000;21713322222;22213322222
4997;21845289000;21755011111;22255011111
5008;21882254000;21796655555;22296655555
5019;21918019000;21838300000;22338300000
5030;21953719000;21879988888;22379988888
5031;21953722000;21879988888;22379988888
5032;21953724000;21879988888;22379988888
5033;21953725000;21879988888;22379988888
5034;21953726000;21879988888;22379988888
5035;21953727000;21879988888;22379988888
5036;21953728000;21879988888;22379988888
5037;21953934000;21880066666;22380066666
5038;21953950000;21880422222;22380422222
5039;21953951000;21880422222;22380422222
5040;21953952000;21880422222;22380422222
5041;21988525000;21921655555;22421655555
5042;21988528000;21921655555;22421655555
5043;21988530000;21921655555;22421655555
5044;21988531000;21921655555;22421655555
5045;21988532000;21921655555;22421655555
5046;21988533000;21921655555;22421655555
5047;21988534000;21921655555;22421655555
5048;21988704000;21921733333;22421733333
5049;21988708000;21922022222;22422022222
5050;21988710000;21922022222;22422022222
5051;21988710000;21922022222;22422022222
5052;22024944000;21963322222;22463322222
5053;22024947000;21963322222;22463322222
5054;22024948000;21963322222;22463322222
5055;22024949000;21963322222;22463322222
5056;22024950000;21963322222;22463322222
5057;22024951000;21963322222;22463322222
5058;22024952000;21963322222;22463322222
5059;22025161000;21963400000;22463400000
5060;22025167000;21963711111;22463711111
5061;22025168000;21963711111;22463711111
5062;22025169000;21963711111;22463711111
5063;22143581000;22005000000;22505000000
5085;22218000000;22088322222;22588322222
5107;22288527000;22171655555;22671655555
5118;22319072000;22213322222;22713322222
5129;22347615000;22254988888;22754988888
5140;22380894000;22296622222;22796622222
5151;22414253000;22338322222;22838322222
5152;22414256000;22338322222;22838322222
5153;22414257000;22338322222;22838322222
5154;22414258000;22338322222;22838322222
5155;22414259000;22338322222;22838322222
5156;22414260000;22338322222;22838322222
5157;22414261000;22338322222;22838322222
5158;22414461000;22338411111;22838411111
5159;22414476000;22338711111;22838711111
5160;22414477000;22338711111;22838711111
5161;22414478000;22338711111;22838711111
5162;22447290000;22379988888;22879988888
5163;22447294000;22379988888;22879988888
5164;22447295000;22379988888;22879988888
5165;22447296000;22379988888;22879988888
5166;22447297000;22379988888;22879988888
5167;22447298000;22379988888;22879988888
5168;22447299000;22379988888;22879988888
5169;22447498000;22380077777;22880077777
5170;22447513000;22380444444;22880444444
5171;22447514000;22380444444;22880444444
5172;22447515000;22380444444;22880444444
5173;22561077000;22421655555;22921655555
5195;22635949000;22504955555;230