seqnum;now;rtptime;deadline
0;4698332000;3595944444;4095944444
3;4747967000;3626500000;4126500000
4;4747989000;3626500000;4126500000
5;4747991000;3626500000;4126500000
6;4747993000;3626500000;4126500000
7;4747994000;3626500000;4126500000
8;4747996000;3626500000;4126500000
9;4747998000;3626500000;4126500000
10;4781521000;3626511111;4126511111
11;4781536000;3626900000;4126900000
12;4781538000;3626900000;4126900000
13;4781539000;3626900000;4126900000
14;4820104000;3668155555;4168155555
15;4820110000;3668155555;4168155555
16;4820112000;3668155555;4168155555
18;4820114000;3668155555;4168155555
20;4820116000;3668155555;4168155555
22;4820308000;3668544444;4168544444
24;4820312000;3668544444;4168544444
25;4866173000;3709811111;4209811111
26;4866181000;3709811111;4209811111
27;4866183000;3709811111;4209811111
28;4866185000;3709811111;4209811111
29;4866186000;3709811111;4209811111
30;4866187000;3709811111;4209811111
31;4866189000;3709811111;4209811111
32;4866363000;3709833333;4209833333
34;4866370000;3710177777;4210177777
35;4866372000;3710177777;4210177777
36;4902900000;3751488888;4251488888
37;4902906000;3751488888;4251488888
38;4902907000;3751488888;4251488888
39;4902908000;3751488888;4251488888
40;4902910000;3751488888;4251488888
41;4902911000;3751488888;4251488888
42;4902913000;3751488888;4251488888
43;4903182000;3751500000;4251500000
44;4903198000;3751822222;4251822222
45;4903199000;3751822222;4251822222
46;4903201000;3751822222;4251822222
47;4944000000;3793155555;4293155555
48;4944008000;3793155555;4293155555
49;4944011000;3793155555;4293155555
50;4944012000;3793155555;4293155555
51;4944014000;3793155555;4293155555
52;4944015000;3793155555;4293155555
53;4944016000;3793155555;4293155555
54;4944239000;3793166666;4293166666
55;4944255000;3793477777;4293477777
56;4944256000;3793477777;4293477777
57;4944257000;3793477777;4293477777
58;4984781000;3834811111;4334811111
66;4984893000;3835122222;4335122222
67;4984897000;3835122222;4335122222
68;4984898000;3835122222;4335122222
69;5024454000;3876488888;4376488888
82;5061993000;3918155555;4418155555
98;5098616000;3959833333;4459833333
110;5098631000;4001755555;4501755555
111;5098632000;4001755555;4501755555
112;5098633000;4001755555;4501755555
113;5167395000;4043155555;4543155555
148;5241490000;4168155555;4668155555
196;5299062000;4334822222;4834822222
225;5344579000;4459811111;4959811111
271;5392426000;4626500000;5126500000
340;5446768000;4876500000;5376500000
386;5446773000;5043511111;5543511111
387;5446774000;5043511111;5543511111
388;5494368000;5084822222;5584822222
426;5509946000;5209811111;5709811111
447;5526352000;5293155555;5793155555
449;5526365000;5293155555;5793155555
450;5764901000;5293166666;5793166666
538;5836977000;5626555555;6126555555
560;5837103000;5709855555;6209855555
561;5837109000;5710133333;6210133333
562;5837110000;5710133333;6210133333
563;5837111000;5710133333;6210133333
564;5852789000;5751500000;6251500000
565;5852793000;5751500000;6251500000
566;5852794000;5751500000;6251500000
567;5852795000;5751500000;6251500000
568;5852796000;5751500000;6251500000
569;5852796000;5751500000;6251500000
570;5852797000;5751500000;6251500000
571;5852997000;5751544444;6251544444
572;5853957000;5751822222;6251822222
573;5853960000;5751822222;6251822222
574;5853961000;5751822222;6251822222
575;5945123000;5793155555;6293155555
595;5984947000;5835200000;6335200000
605;6023828000;5876866666;6376866666
617;6061385000;5918511111;6418511111
618;6061388000;5918511111;6418511111
619;6101645000;5959800000;6459800000
627;6101757000;5960133333;6460133333
628;6101761000;5960133333;6460133333
629;6101761000;5960133333;6460133333
630;6139857000;6001477777;6501477777
640;6139944000;6001800000;6501800000
641;6172269000;6043144444;6543144444
648;6172426000;6043222222;6543222222
649;6172430000;6043522222;6543522222
650;6172431000;6043522222;6543522222
651;6172433000;6043522222;6543522222
652;6209276000;6084811111;6584811111
666;6244812000;6126477777;6626477777
671;6245750000;6126800000;6626800000
672;6245755000;6126800000;6626800000
673;6245758000;6126800000;6626800000
674;6280923000;6168177777;6668177777
680;6280952000;6168177777;6668177777
681;6281037000;6168222222;6668222222
682;6281040000;6168533333;6668533333
683;6281041000;6168533333;6668533333
684;6281053000;6168533333;6668533333
685;6314373000;6209811111;6709811111
688;6314379000;6209811111;6709811111
689;6314381000;6209811111;6709811111
690;6314382000;6209811111;6709811111
691;6314383000;6209811111;6709811111
692;6314593000;6209855555;6709855555
693;6314596000;6210166666;6710166666
694;6314614000;6210166666;6710166666
695;6314615000;6210166666;6710166666
696;6486370000;6251466666;6751466666
723;6554773000;6334833333;6834833333
736;6587205000;6376511111;6876511111
738;6587221000;6376800000;6876800000
739;6587223000;6376800000;6876800000
740;6613988000;6418166666;6918166666
747;6614245000;6418188888;6918188888
748;6614261000;6418500000;6918500000
749;6614262000;6418500000;6918500000
750;6614263000;6418500000;6918500000
751;6642499000;6459811111;6959811111
752;6642503000;6459811111;6959811111
753;6642504000;6459811111;6959811111
754;6642505000;6459811111;6959811111
757;6642506000;6459811111;6959811111
758;6642689000;6459833333;6959833333
759;6642704000;6460122222;6960122222
760;6642706000;6460122222;6960122222
761;6642706000;6460122222;6960122222
762;6667074000;6501488888;7001488888
763;6667077000;6501488888;7001488888
764;6667078000;6501488888;7001488888
765;6667079000;6501488888;7001488888
766;6667080000;6501488888;7001488888
767;6667081000;6501488888;7001488888
768;6667082000;6501488888;7001488888
770;6667193000;6501788888;7001788888
771;6667197000;6501788888;7001788888
772;6675381000;6501788888;7001788888
773;6772380000;6543166666;7043166666
774;6772383000;6543166666;7043166666
775;6772384000;6543166666;7043166666
776;6772385000;6543166666;7043166666
777;6772386000;6543166666;7043166666
778;6772387000;6543166666;7043166666
779;6772388000;6543166666;7043166666
780;6772589000;6543188888;7043188888
781;6772594000;6543500000;7043500000
782;6772595000;6543500000;7043500000
783;6772596000;6543500000;7043500000
784;6813417000;6584811111;7084811111
785;6813420000;6584811111;7084811111
786;6813421000;6584811111;7084811111
787;6813422000;6584811111;7084811111
788;6813423000;6584811111;7084811111
789;6813424000;6584811111;7084811111
790;6813425000;6584811111;7084811111
791;6813626000;6584833333;7084833333
792;6813642000;6585111111;7085111111
793;6813643000;6585111111;7085111111
794;6813644000;6585111111;7085111111
795;6975248000;6626477777;7126477777
800;6975251000;6626477777;7126477777
801;6975252000;6626477777;7126477777
804;6975363000;6626777777;7126777777
805;6975366000;6626777777;7126777777
806;7015564000;6668155555;7168155555
809;7015568000;6668155555;7168155555
810;7015569000;6668155555;7168155555
811;7015570000;6668155555;7168155555
812;7015571000;6668155555;7168155555
813;7015769000;6668166666;7168166666
814;7015785000;6668477777;7168477777
815;7015786000;6668477777;7168477777
816;7015787000;6668477777;7168477777
817;7054263000;6709811111;7209811111
818;7054266000;6709811111;7209811111
819;7054267000;6709811111;7209811111
820;7054268000;6709811111;7209811111
821;7054269000;6709811111;7209811111
822;7054270000;6709811111;7209811111
823;7054271000;6709811111;7209811111
824;7054409000;6709833333;7209833333
825;7054411000;6710122222;7210122222
826;7054412000;6710122222;7210122222
827;7054414000;6710122222;7210122222
828;7093199000;6751477777;7251477777
829;7093202000;6751477777;7251477777
830;7093203000;6751477777;7251477777
831;7093204000;6751477777;7251477777
832;7093205000;6751477777;7251477777
833;7093206000;6751477777;7251477777
834;7093207000;6751477777;7251477777
835;7176569000;6751500000;7251500000
845;7176585000;6793155555;7293155555
846;7216431000;6793166666;7293166666
852;7216447000;6834822222;7334822222
853;7216448000;6834822222;7334822222
854;7216449000;6834822222;7334822222
855;7216450000;6834822222;7334822222
856;7216451000;6834822222;7334822222
857;7251955000;6834833333;7334833333
869;7251970000;6876800000;7376800000
870;7251972000;6876800000;7376800000
871;7251973000;6876800000;7376800000
872;7316134000;6918155555;7418155555
875;7316137000;6918155555;7418155555
876;7316148000;6918155555;7418155555
877;7316149000;6918155555;7418155555
878;7316150000;6918155555;7418155555
879;7324273000;6918166666;7418166666
883;7324289000;6959811111;7459811111
884;7324290000;6959811111;7459811111
885;7324291000;6959811111;7459811111
886;7324293000;6959811111;7459811111
887;7324294000;6959811111;7459811111
888;7324295000;6959811111;7459811111
889;7324296000;6959811111;7459811111
890;7362724000;6959833333;7459833333
894;7362740000;7001477777;7501477777
895;7362741000;7001477777;7501477777
896;7362742000;7001477777;7501477777
897;7362743000;7001477777;7501477777
898;7362744000;7001477777;7501477777
899;7362745000;7001477777;7501477777
900;7362746000;7001477777;7501477777
901;7395884000;7001500000;7501500000
905;7395900000;7043144444;7543144444
906;7395901000;7043144444;7543144444
910;7403905000;7043144444;7543144444
911;7403907000;7043144444;7543144444
912;7431253000;7043155555;7543155555
915;7431269000;7043477777;7543477777
916;7465833000;7084811111;7584811111
919;7465837000;7084811111;7584811111
920;7465838000;7084811111;7584811111
921;7465839000;7084811111;7584811111
923;7466021000;7084833333;7584833333
924;7466037000;7085122222;7585122222
925;7466038000;7085122222;7585122222
926;7466039000;7085122222;7585122222
927;7499868000;7126455555;7626455555
928;7499873000;7126455555;7626455555
929;7499874000;7126455555;7626455555
930;7499876000;7126455555;7626455555
931;7499877000;7126455555;7626455555
932;7499879000;7126455555;7626455555
933;7499880000;7126455555;7626455555
934;7500106000;7126466666;7626466666
935;7500121000;7126788888;7626788888
936;7500123000;7126788888;7626788888
937;7500124000;7126788888;7626788888
938;7529632000;7168122222;7668122222
939;7529635000;7168122222;7668122222
940;7529637000;7168122222;7668122222
941;7529638000;7168122222;7668122222
942;7529639000;7168122222;7668122222
943;7529640000;7168122222;7668122222
944;7529641000;7168122222;7668122222
945;7529841000;7168155555;7668155555
946;7529847000;7168588888;7668588888
947;7529849000;7168588888;7668588888
948;7529859000;7168588888;7668588888
949;7660616000;7209800000;7709800000
962;7699014000;7251477777;7751477777
973;7738099000;7293144444;7793144444
984;7775637000;7334822222;7834822222
990;7775750000;7335133333;7835133333
991;7775754000;7335133333;7835133333
992;7775755000;7335133333;7835133333
993;7811898000;7376466666;7876466666
1001;7812011000;7376777777;7876777777
1002;7812014000;7376777777;7876777777
1003;7812015000;7376777777;7876777777
1004;7833460000;7418144444;7918144444
1005;7833473000;7418144444;7918144444
1006;7833475000;7418144444;7918144444
1007;7833476000;7418144444;7918144444
1008;7833477000;7418144444;7918144444
1009;7833479000;7418144444;7918144444
1010;7833480000;7418144444;7918144444
1011;7843748000;7418155555;7918155555
1012;7843752000;7418488888;7918488888
1013;7843754000;7418488888;7918488888
1014;7843755000;7418488888;7918488888
1015;7877545000;7459800000;7959800000
1016;7877548000;7459800000;7959800000
1017;7877549000;7459800000;7959800000
1018;7877550000;7459800000;7959800000
1019;7877551000;7459800000;7959800000
1022;7877752000;7459822222;7959822222
1023;7877767000;7460133333;7960133333
1024;7877768000;7460133333;7960133333
1025;7877769000;7460133333;7960133333
1026;7905443000;7501477777;8001477777
1027;7905446000;7501477777;8001477777
1028;7905447000;7501477777;8001477777
1029;7905448000;7501477777;8001477777
1030;7905449000;7501477777;8001477777
1031;7905450000;7501477777;8001477777
1032;7905451000;7501477777;8001477777
1033;7905589000;7501500000;8001500000
1034;7905591000;7501777777;8001777777
1035;7905592000;7501777777;8001777777
1036;7905593000;7501777777;8001777777
1037;7937628000;7543144444;8043144444
1038;7937631000;7543144444;8043144444
1039;7937632000;7543144444;8043144444
1040;7937633000;7543144444;8043144444
1041;7937634000;7543144444;8043144444
1042;7937635000;7543144444;8043144444
1043;7968316000;7543144444;8043144444
1044;8062177000;7543166666;8043166666
1051;8062192000;7584811111;8084811111
1052;8062193000;7584811111;8084811111
1053;8062194000;7584811111;8084811111
1054;8062204000;7584811111;8084811111
1055;8103032000;7584833333;8084833333
1064;8103055000;7626477777;8126477777
1065;8103058000;7626477777;8126477777
1066;8143446000;7626500000;8126500000
1072;8143461000;7668166666;8168166666
1073;8143463000;7668166666;8168166666
1074;8143464000;7668166666;8168166666
1075;8143465000;7668166666;8168166666
1076;8143466000;7668166666;8168166666
1077;8183486000;7668188888;8168188888
1083;8183502000;7709811111;8209811111
1084;8183503000;7709811111;8209811111
1085;8183504000;7709811111;8209811111
1086;8183505000;7709811111;8209811111
1087;8183506000;7709811111;8209811111
1088;8222263000;7709833333;8209833333
1094;8222278000;7751477777;8251477777
1095;8222280000;7751477777;8251477777
1096;8222281000;7751477777;8251477777
1097;8222282000;7751477777;8251477777
1098;8222283000;7751477777;8251477777
1099;8257930000;7751500000;8251500000
1104;8257946000;7793166666;8293166666
1105;8257947000;7793166666;8293166666
1106;8257948000;7793166666;8293166666
1107;8257949000;7793166666;8293166666
1108;8257950000;7793166666;8293166666
1109;8257951000;7793166666;8293166666
1110;8294760000;7793188888;8293188888
1114;8294775000;7834811111;8334811111
1115;8294777000;7834811111;8334811111
1116;8294778000;7834811111;8334811111
1117;8294778000;7834811111;8334811111
1118;8294780000;7834811111;8334811111
1119;8294781000;7834811111;8334811111
1120;8294781000;7834811111;8334811111
1121;8326889000;7834833333;8334833333
1124;8326894000;7835111111;8335111111
1125;8362032000;7876522222;8376522222
1126;8362035000;7876522222;8376522222
1127;8362036000;7876522222;8376522222
1128;8362037000;7876522222;8376522222
1129;8362038000;7876522222;8376522222
1130;8362039000;7876522222;8376522222
1131;8362040000;7876522222;8376522222
1132;8362248000;7876533333;8376533333
1133;8362263000;7876822222;8376822222
1134;8362264000;7876822222;8376822222
1135;8362265000;7876822222;8376822222
1136;8396399000;7918155555;8418155555
1137;8396403000;7918155555;8418155555
1138;8396404000;7918155555;8418155555
1139;8396405000;7918155555;8418155555
1140;8396406000;7918155555;8418155555
1141;8396407000;7918155555;8418155555
1142;8396408000;7918155555;8418155555
1143;8396607000;7918166666;8418166666
1144;8396623000;7918466666;8418466666
1145;8396624000;7918466666;8418466666
1146;8396625000;7918466666;8418466666
1147;8426108000;7959811111;8459811111
1148;8426111000;7959811111;8459811111
1149;8426112000;7959811111;8459811111
1150;8426113000;7959811111;8459811111
1151;8426114000;7959811111;8459811111
1152;8426115000;7959811111;8459811111
1153;8426116000;7959811111;8459811111
1154;8426315000;7959833333;8459833333
1155;8426322000;7960122222;8460122222
1156;8426323000;7960122222;8460122222
1157;8426324000;7960122222;8460122222
1158;8456494000;8001488888;8501488888
1159;8456497000;8001488888;8501488888
1160;8456498000;8001488888;8501488888
1161;8456499000;8001488888;8501488888
1162;8456500000;8001488888;8501488888
1163;8456501000;8001488888;8501488888
1164;8456502000;8001488888;8501488888
1165;8456701000;8001500000;8501500000
1166;8456708000;8001755555;8501755555
1167;8456709000;8001755555;8501755555
1168;8459708000;8001755555;8501755555
1169;8491793000;8043166666;8543166666
1170;8491796000;8043166666;8543166666
1171;8491797000;8043166666;8543166666
1172;8492211000;8043166666;8543166666
1173;8492222000;8043166666;8543166666
1174;8492236000;8043166666;8543166666
1175;8492240000;8043166666;8543166666
1176;8543266000;8043177777;8543177777
1180;8543281000;8084811111;8584811111
1181;8543282000;8084811111;8584811111
1182;8543283000;8084811111;8584811111
1183;8543284000;8084811111;8584811111
1184;8543285000;8084811111;8584811111
1185;8543286000;8084811111;8584811111
1186;8543287000;8084811111;8584811111
1187;8584704000;8084833333;8584833333
1191;8584719000;8126477777;8626477777
1192;8584720000;8126477777;8626477777
1193;8584721000;8126477777;8626477777
1194;8584722000;8126477777;8626477777
1195;8584724000;8126477777;8626477777
1196;8584724000;8126477777;8626477777
1197;8584725000;8126477777;8626477777
1198;8626410000;8126500000;8626500000
1202;8626425000;8168155555;8668155555
1203;8626436000;8168155555;8668155555
1204;8626437000;8168155555;8668155555
1205;8626438000;8168155555;8668155555
1206;8626439000;8168155555;8668155555
1207;8626440000;8168155555;8668155555
1208;8626441000;8168155555;8668155555
1209;8667611000;8168166666;8668166666
1213;8667626000;8209811111;8709811111
1214;8667627000;8209811111;8709811111
1215;8667628000;8209811111;8709811111
1216;8667629000;8209811111;8709811111
1217;8667630000;8209811111;8709811111
1218;8667631000;8209811111;8709811111
1219;8667632000;8209811111;8709811111
1220;8708665000;8209833333;8709833333
1224;8708680000;8251477777;8751477777
1225;8708682000;8251477777;8751477777
1226;8708683000;8251477777;8751477777
1231;8749154000;8251488888;8751488888
1233;8749170000;8251777777;8751777777
1234;8749171000;8251777777;8751777777
1235;8785090000;8293177777;8793177777
1236;8785108000;8293177777;8793177777
1237;8785109000;8293177777;8793177777
1238;8785110000;8293177777;8793177777
1239;8785112000;8293177777;8793177777
1240;8785113000;8293177777;8793177777
1241;8785113000;8293177777;8793177777
1242;8789336000;8293200000;8793200000
1243;8789352000;8293488888;8793488888
1244;8789353000;8293488888;8793488888
1245;8789354000;8293488888;8793488888
1246;8828789000;8334811111;8834811111
1247;8828793000;8334811111;8834811111
1248;8828794000;8334811111;8834811111
1249;8828795000;8334811111;8834811111
1250;8828796000;8334811111;8834811111
1251;8828797000;8334811111;8834811111
1252;8828798000;8334811111;8834811111
1253;8828996000;8334833333;8834833333
1254;8865131000;8335088888;8835088888
1255;8865357000;8335088888;8835088888
1256;8865552000;8335088888;8835088888
1257;8956875000;8376477777;8876477777
1258;8956878000;8376477777;8876477777
1259;8956879000;8376477777;8876477777
1260;8956880000;8376477777;8876477777
1261;8956881000;8376477777;8876477777
1262;8956882000;8376477777;8876477777
1263;8956883000;8376477777;8876477777
1264;8957089000;8376500000;8876500000
1265;8957104000;8376766666;8876766666
1266;8986603000;8376766666;8876766666
1269;8998425000;8418166666;8918166666
1270;8998429000;8418166666;8918166666
1271;9027140000;8418166666;8918166666
1272;9027334000;8418166666;8918166666
1273;9027547000;8418166666;8918166666
1274;9027734000;8418166666;8918166666
1275;9078216000;8418177777;8918177777
1276;9078231000;8418500000;8918500000
1277;9078232000;8418500000;8918500000
1278;9078233000;8418500000;8918500000
1279;9119697000;8459811111;8959811111
1281;9119700000;8459811111;8959811111
1282;9119701000;8459811111;8959811111
1283;9119702000;8459811111;8959811111
1284;9119703000;8459811111;8959811111
1285;9119704000;8459811111;8959811111
1286;9119903000;8459822222;8959822222
1287;9119918000;8460111111;8960111111
1288;9119919000;8460111111;8960111111
1289;9148662000;8460111111;8960111111
1290;9161225000;8501488888;9001488888
1291;9161228000;8501488888;9001488888
1292;9161229000;8501488888;9001488888
1293;9161230000;8501488888;9001488888
1294;9161231000;8501488888;9001488888
1295;9189116000;8501488888;9001488888
1296;9189320000;8501488888;9001488888
1297;9239966000;8501500000;9001500000
1298;9239981000;8501755555;9001755555
1299;9239983000;8501755555;9001755555
1300;9239984000;8501755555;9001755555
1301;9281488000;8543155555;9043155555
1302;9281492000;8543155555;9043155555
1303;9281493000;8543155555;9043155555
1304;9281494000;8543155555;9043155555
1305;9281494000;8543155555;9043155555
1306;9281495000;8543155555;9043155555
1307;9281496000;8543155555;9043155555
1309;9281722000;8543477777;9043477777
1310;9281725000;8543477777;9043477777
1311;9281726000;8543477777;9043477777
1312;9323112000;8584811111;9084811111
1313;9323116000;8584811111;9084811111
1314;9323117000;8584811111;9084811111
1315;9323118000;8584811111;9084811111
1316;9323119000;8584811111;9084811111
1317;9323120000;8584811111;9084811111
1318;9323121000;8584811111;9084811111
1319;9401476000;8584833333;9084833333
1320;9401481000;8585111111;9085111111
1321;9401483000;8585111111;9085111111
1322;9401484000;8585111111;9085111111
1323;9443002000;8626477777;9126477777
1324;9443005000;8626477777;9126477777
1325;9443006000;8626477777;9126477777
1326;9443015000;8626477777;9126477777
1327;9443016000;8626477777;9126477777
1328;9443017000;8626477777;9126477777
1329;9443018000;8626477777;9126477777
1330;9443139000;8626488888;9126488888
1331;9443144000;8626777777;9126777777
1332;9443145000;8626777777;9126777777
1333;9443146000;8626777777;9126777777
1334;9484570000;8668144444;9168144444
1335;9484573000;8668144444;9168144444
1336;9484574000;8668144444;9168144444
1337;9484575000;8668144444;9168144444
1338;9484576000;8668144444;9168144444
1339;9484577000;8668144444;9168144444
1340;9484578000;8668144444;9168144444
1341;9484699000;8668166666;9168166666
1342;9484704000;8668477777;9168477777
1343;9513067000;8668477777;9168477777
1344;9513319000;8668477777;9168477777
1345;9525819000;8709811111;9209811111
1346;9525822000;8709811111;9209811111
1347;9525823000;8709811111;9209811111
1348;9525824000;8709811111;9209811111
1349;9553553000;8709811111;9209811111
1350;9553750000;8709811111;9209811111
1351;9553985000;8709811111;9209811111
1352;9604576000;8709833333;9209833333
1353;9604582000;8710100000;9210100000
1354;9604583000;8710100000;9210100000
1355;9604584000;8710100000;9210100000
1356;9646130000;8751477777;9251477777
1357;9646134000;8751477777;9251477777
1358;9646135000;8751477777;9251477777
1359;9646136000;8751477777;9251477777
1360;9646137000;8751477777;9251477777
1361;9646138000;8751477777;9251477777
1362;9646138000;8751477777;9251477777
1363;9646260000;8751500000;9251500000
1365;9646265000;8751766666;9251766666
1366;9646266000;8751766666;9251766666
1367;9687678000;8793144444;9293144444
1368;9687681000;8793144444;9293144444
1369;9687682000;8793144444;9293144444
1372;9687684000;8793144444;9293144444
1373;9715523000;8793144444;9293144444
1374;9766114000;8793166666;9293166666
1375;9766120000;8793477777;9293477777
1376;9766121000;8793477777;9293477777
1377;9766122000;8793477777;9293477777
1378;9807642000;8834811111;9334811111
1379;9807646000;8834811111;9334811111
1380;9807647000;8834811111;9334811111
1381;9807648000;8834811111;9334811111
1382;9807648000;8834811111;9334811111
1383;9807649000;8834811111;9334811111
1384;9807650000;8834811111;9334811111
1385;9807751000;8834833333;9334833333
1386;9807756000;8835122222;9335122222
1387;9807757000;8835122222;9335122222
1388;9807758000;8835122222;9335122222
1389;9849210000;8876477777;9376477777
1390;9849214000;8876477777;9376477777
1391;9849215000;8876477777;9376477777
1392;9849216000;8876477777;9376477777
1393;9849217000;8876477777;9376477777
1394;9849218000;8876477777;9376477777
1395;9849218000;8876477777;9376477777
1396;9849329000;8876500000;9376500000
1397;9849334000;8876788888;9376788888
1398;9849335000;8876788888;9376788888
1399;9849336000;8876788888;9376788888
1400;9890612000;8918155555;9418155555
1401;9890616000;8918155555;9418155555
1402;9890617000;8918155555;9418155555
1403;9890618000;8918155555;9418155555
1404;9890619000;8918155555;9418155555
1405;9890620000;8918155555;9418155555
1406;9890621000;8918155555;9418155555
1407;9890773000;8918166666;9418166666
1408;9890779000;8918477777;9418477777
1409;9890790000;8918477777;9418477777
1410;9890791000;8918477777;9418477777
1411;9931727000;8959800000;9459800000
1412;9931730000;8959800000;9459800000
1413;9931731000;8959800000;9459800000
1414;9931732000;8959800000;9459800000
1415;9931733000;8959800000;9459800000
1416;9931734000;8959800000;9459800000
1417;9931735000;8959800000;9459800000
1418;9931855000;8959811111;9459811111
1419;9931860000;8960200000;9460200000
1420;9931861000;8960200000;9460200000
1421;9931862000;8960200000;9460200000
1422;9972493000;9001488888;9501488888
1423;9972496000;9001488888;9501488888
1424;9972497000;9001488888;9501488888
1425;9972498000;9001488888;9501488888
1426;9972499000;9001488888;9501488888
1427;9972500000;9001488888;9501488888
1428;9972501000;9001488888;9501488888
1429;9972620000;9001500000;9501500000
1430;9972625000;9001744444;9501744444
1431;9972626000;9001744444;9501744444
1432;9972627000;9001744444;9501744444
1433;10012845000;9043155555;9543155555
1434;10012848000;9043155555;9543155555
1435;10012849000;9043155555;9543155555
1436;10012850000;9043155555;9543155555
1437;10012859000;9043155555;9543155555
1438;10012860000;9043155555;9543155555
1439;10012861000;9043155555;9543155555
1440;10012986000;9043166666;9543166666
1441;10012991000;9043466666;9543466666
1442;10012993000;9043466666;9543466666
1443;10012994000;9043466666;9543466666
1444;10052687000;9084811111;9584811111
1448;10052691000;9084811111;9584811111
1449;10052692000;9084811111;9584811111
1450;10052693000;9084811111;9584811111
1451;10052816000;9084833333;9584833333
1452;10052822000;9085111111;9585111111
1453;10052823000;9085111111;9585111111
1454;10052824000;9085111111;9585111111
1455;10092092000;9126477777;9626477777
1466;10130672000;9168133333;9668133333
1483;10167843000;9209822222;9709822222
1502;10237267000;9293155555;9793155555
1536;10312364000;9418155555;9918155555
1564;10347959000;9501766666;10001766666
1586;10379802000;9585133333;10085133333
1608;10411559000;9668522222;10168522222
1630;10447247000;9751777777;10251777777
1652;10481747000;9835122222;10335122222
1665;10518959000;9918133333;10418133333
1689;10554294000;10001466666;10501466666
1695;10554373000;10001755555;10501755555
1696;10554375000;10001755555;10501755555
1697;10573921000;10043133333;10543133333
1718;10575825000;10085144444;10585144444
1719;10608911000;10126477777;10626477777
1733;10628684000;10168144444;10668144444
1734;10628688000;10168144444;10668144444
1735;10628698000;10168144444;10668144444
1736;10628699000;10168144444;10668144444
1737;10628837000;10168155555;10668155555
1738;10628840000;10168477777;10668477777
1739;10628841000;10168477777;10668477777
1740;10628842000;10168477777;10668477777
1741;10650390000;10209800000;10709800000
1751;10729949000;10210122222;10710122222
1768;10811101000;10293166666;10793166666
1790;10886910000;10376488888;10876488888
1818;10993058000;10501500000;11001500000
1838;11014650000;10543500000;11043500000
1844;11014664000;10584811111;11084811111
1845;11014666000;10584811111;11084811111
1846;11014677000;10584811111;11084811111
1847;11024704000;10584833333;11084833333
1850;11039556000;10585122222;11085122222
1851;11056318000;10626488888;11126488888
1854;11056321000;10626488888;11126488888
1855;11056322000;10626488888;11126488888
1856;11056323000;10626488888;11126488888
1857;11056324000;10626488888;11126488888
1858;11056444000;10626500000;11126500000
1859;11056459000;10626788888;11126788888
1860;11056460000;10626788888;11126788888
1861;11056461000;10626788888;11126788888
1863;11064936000;10668155555;11168155555
1864;11064939000;10668155555;11168155555
1865;11064940000;10668155555;11168155555
1867;11064942000;10668155555;11168155555
1868;11064942000;10668155555;11168155555
1869;11065026000;10668177777;11168177777
1870;11065032000;10668466666;11168466666
1871;11065033000;10668466666;11168466666
1872;11065034000;10668466666;11168466666
1873;11082997000;10709811111;11209811111
1875;11083000000;10709811111;11209811111
1876;11083001000;10709811111;11209811111
1877;11083002000;10709811111;11209811111
1878;11083003000;10709811111;11209811111
1880;11172251000;10709833333;11209833333
1881;11172266000;10710111111;11210111111
1882;11172267000;10710111111;11210111111
1883;11172268000;10710111111;11210111111
1884;11213688000;10751488888;11251488888
1885;11213692000;10751488888;11251488888
1886;11213693000;10751488888;11251488888
1887;11213694000;10751488888;11251488888
1888;11213695000;10751488888;11251488888
1889;11213696000;10751488888;11251488888
1890;11213696000;10751488888;11251488888
1891;11213896000;10751500000;11251500000
1892;11213911000;10751755555;11251755555
1893;11241169000;10751755555;11251755555
1894;11241172000;10751755555;11251755555
1895;11255192000;10793155555;11293155555
1896;11255196000;10793155555;11293155555
1897;11255197000;10793155555;11293155555
1898;11281454000;10793155555;11293155555
1899;11281469000;10793155555;11293155555
1900;11281472000;10793155555;11293155555
1901;11281476000;10793155555;11293155555
1903;11332012000;10793455555;11293455555
1904;11332016000;10793455555;11293455555
1905;11332017000;10793455555;11293455555
1906;11373287000;10834822222;11334822222
1907;11373291000;10834822222;11334822222
1908;11373301000;10834822222;11334822222
1909;11373302000;10834822222;11334822222
1910;11373303000;10834822222;11334822222
1911;11373304000;10834822222;11334822222
1912;11373305000;10834822222;11334822222
1913;11373504000;10834833333;11334833333
1914;11373519000;10835111111;11335111111
1915;11373520000;10835111111;11335111111
1916;11373521000;10835111111;11335111111
1917;11414950000;10876488888;11376488888
1918;11414954000;10876488888;11376488888
1919;11414955000;10876488888;11376488888
1920;11414956000;10876488888;11376488888
1921;11414956000;10876488888;11376488888
1922;11414958000;10876488888;11376488888
1923;11414958000;10876488888;11376488888
1924;11415138000;10876500000;11376500000
1925;11442724000;10876777777;11376777777
1927;11493032000;10876777777;11376777777
1928;11534460000;10918177777;11418177777
1929;11534464000;10918177777;11418177777
1930;11534465000;10918177777;11418177777
1932;11534466000;10918177777;11418177777
1933;11534467000;10918177777;11418177777
1934;11534468000;10918177777;11418177777
1935;11534666000;10918188888;11418188888
1936;11534682000;10918522222;11418522222
1937;11534683000;10918522222;11418522222
1938;11534684000;10918522222;11418522222
1939;11575982000;10959811111;11459811111
1940;11575986000;10959811111;11459811111
1941;11575987000;10959811111;11459811111
1942;11575988000;10959811111;11459811111
1943;11575989000;10959811111;11459811111
1944;11575990000;10959811111;11459811111
1945;11575991000;10959811111;11459811111
1946;11576198000;10959833333;11459833333
1947;11576214000;10960100000;11460100000
1948;11576215000;10960100000;11460100000
1949;11576216000;10960100000;11460100000
1950;11617364000;11001488888;11501488888
1951;11617367000;11001488888;11501488888
1952;11617368000;11001488888;11501488888
1953;11617369000;11001488888;11501488888
1954;11617370000;11001488888;11501488888
1955;11617371000;11001488888;11501488888
1956;11617372000;11001488888;11501488888
1957;11617572000;11001500000;11501500000
1958;11617588000;11001733333;11501733333
1959;11644314000;11001733333;11501733333
1960;11644332000;11001733333;11501733333
1961;11658359000;11043155555;11543155555
1962;11658363000;11043155555;11543155555
1963;11658364000;11043155555;11543155555
1964;11658365000;11043155555;11543155555
1965;11658366000;11043155555;11543155555
1966;11684688000;11043155555;11543155555
1967;11684692000;11043155555;11543155555
1968;11735167000;11043177777;11543177777
1969;11735182000;11043455555;11543455555
1970;11735184000;11043455555;11543455555
1971;11735184000;11043455555;11543455555
1972;11776643000;11084811111;11584811111
1973;11776647000;11084811111;11584811111
1974;11776648000;11084811111;11584811111
1975;11776649000;11084811111;11584811111
1976;11776649000;11084811111;11584811111
1977;11776650000;11084811111;11584811111
1978;11776651000;11084811111;11584811111
1979;11776851000;11084833333;11584833333
1980;11776866000;11085100000;11585100000
1981;11776867000;11085100000;11585100000
1982;11776868000;11085100000;11585100000
1983;11818221000;11126488888;11626488888
1984;11818225000;11126488888;11626488888
1985;11818226000;11126488888;11626488888
1986;11818227000;11126488888;11626488888
1987;11818228000;11126488888;11626488888
1988;11818229000;11126488888;11626488888
1989;11818230000;11126488888;11626488888
1990;11818367000;11126500000;11626500000
1991;11818369000;11126788888;11626788888
1992;11818370000;11126788888;11626788888
1993;11845915000;11126788888;11626788888
1994;11859444000;11168133333;11668133333
1995;11859447000;11168133333;11668133333
1996;11859449000;11168133333;11668133333
1997;11859450000;11168133333;11668133333
1998;11859450000;11168133333;11668133333
1999;11859451000;11168133333;11668133333
2000;11886240000;11168133333;11668133333
2001;11936704000;11168155555;11668155555
2002;11936710000;11168455555;11668455555
2003;11936711000;11168455555;11668455555
2004;11936712000;11168455555;11668455555
2005;11978199000;11209800000;11709800000
2006;11978202000;11209800000;11709800000
2007;11978203000;11209800000;11709800000
2008;11978204000;11209800000;11709800000
2009;11978205000;11209800000;11709800000
2010;11978215000;11209800000;11709800000
2011;11978215000;11209800000;11709800000
2012;11978386000;11209822222;11709822222
2013;11978391000;11210122222;11710122222
2014;11978392000;11210122222;11710122222
2015;11978393000;11210122222;11710122222
2016;12019802000;11251500000;11751500000
2017;12019805000;11251500000;11751500000
2018;12019806000;11251500000;11751500000
2019;12019807000;11251500000;11751500000
2020;12019808000;11251500000;11751500000
2021;12019809000;11251500000;11751500000
2022;12019810000;11251500000;11751500000
2023;12019947000;11251511111;11751511111
2024;12019949000;11251800000;11751800000
2025;12019950000;11251800000;11751800000
2026;12019951000;11251800000;11751800000
2027;12061105000;11293155555;11793155555
2028;12061107000;11293155555;11793155555
2029;12061109000;11293155555;11793155555
2030;12061109000;11293155555;11793155555
2031;12061110000;11293155555;11793155555
2032;12061111000;11293155555;11793155555
2033;12061122000;11293155555;11793155555
2034;12061305000;11293166666;11793166666
2035;12087672000;11293444444;11793444444
2036;12087676000;11293444444;11793444444
2037;12087699000;11293444444;11793444444
2038;12179579000;11334811111;11834811111
2039;12179582000;11334811111;11834811111
2040;12179583000;11334811111;11834811111
2041;12179584000;11334811111;11834811111
2042;12179585000;11334811111;11834811111
2043;12179586000;11334811111;11834811111
2044;12179587000;11334811111;11834811111
2045;12179706000;11334822222;11834822222
2046;12179710000;11335111111;11835111111
2047;12179711000;11335111111;11835111111
2048;12179712000;11335111111;11835111111
2049;12220922000;11376477777;11876477777
2050;12220925000;11376477777;11876477777
2051;12220926000;11376477777;11876477777
2052;12220927000;11376477777;11876477777
2053;12220928000;11376477777;11876477777
2054;12220929000;11376477777;11876477777
2055;12220930000;11376477777;11876477777
2056;12221078000;11376488888;11876488888
2057;12221080000;11376755555;11876755555
2060;12262359000;11418144444;11918144444
2061;12262361000;11418144444;11918144444
2064;12262362000;11418144444;11918144444
2065;12262363000;11418144444;11918144444
2066;12262365000;11418144444;11918144444
2067;12262458000;11418166666;11918166666
2068;12262460000;11418466666;11918466666
2069;12289295000;11418466666;11918466666
2070;12289297000;11418466666;11918466666
2071;12303300000;11459822222;11959822222
2072;12303303000;11459822222;11959822222
2073;12303304000;11459822222;11959822222
2074;12303305000;11459822222;11959822222
2075;12303306000;11459822222;11959822222
2076;12329565000;11459822222;11959822222
2077;12329578000;11459822222;11959822222
2078;12380084000;11459844444;11959844444
2079;12380100000;11460122222;11960122222
2081;12380191000;11460122222;11960122222
2082;12421550000;11501477777;12001477777
2083;12421554000;11501477777;12001477777
2084;12421555000;11501477777;12001477777
2085;12421556000;11501477777;12001477777
2086;12421557000;11501477777;12001477777
2087;12421558000;11501477777;12001477777
2088;12421559000;11501477777;12001477777
2089;12421767000;11501488888;12001488888
2092;12421783000;11501744444;12001744444
2093;12463123000;11543144444;12043144444
2094;12463126000;11543144444;12043144444
2095;12463127000;11543144444;12043144444
2096;12463128000;11543144444;12043144444
2097;12463129000;11543144444;12043144444
2098;12463130000;11543144444;12043144444
2099;12491022000;11543144444;12043144444
2100;12541466000;11543166666;12043166666
2101;12541481000;11543500000;12043500000
2102;12541482000;11543500000;12043500000
2103;12541483000;11543500000;12043500000
2104;12582998000;11584822222;12084822222
2105;12583002000;11584822222;12084822222
2106;12583002000;11584822222;12084822222
2107;12583003000;11584822222;12084822222
2108;12583004000;11584822222;12084822222
2109;12583005000;11584822222;12084822222
2110;12583006000;11584822222;12084822222
2111;12583213000;11584833333;12084833333
2112;12583228000;11585133333;12085133333
2113;12583230000;11585133333;12085133333
2114;12583230000;11585133333;12085133333
2115;12624558000;11626488888;12126488888
2116;12624561000;11626488888;12126488888
2117;12624570000;11626488888;12126488888
2118;12624571000;11626488888;12126488888
2119;12624571000;11626488888;12126488888
2120;12624572000;11626488888;12126488888
2121;12652319000;11626488888;12126488888
2122;12702807000;11626500000;12126500000
2123;12702822000;11626800000;12126800000
2124;12702823000;11626800000;12126800000
2125;12702824000;11626800000;12126800000
2126;12744302000;11668166666;12168166666
2127;12744305000;11668166666;12168166666
2128;12744306000;11668166666;12168166666
2129;12744308000;11668166666;12168166666
2130;12744309000;11668166666;12168166666
2131;12744310000;11668166666;12168166666
2132;12744311000;11668166666;12168166666
2133;12744476000;11668188888;12168188888
2134;12744479000;11668511111;12168511111
2135;12744480000;11668511111;12168511111
2136;12744481000;11668511111;12168511111
2137;12785872000;11709822222;12209822222
2138;12785875000;11709822222;12209822222
2139;12785876000;11709822222;12209822222
2140;12785877000;11709822222;12209822222
2141;12785878000;11709822222;12209822222
2142;12785879000;11709822222;12209822222
2143;12813622000;11709822222;12209822222
2144;12864111000;11709833333;12209833333
2145;12864127000;11710122222;12210122222
2146;12864128000;11710122222;12210122222
2147;12864129000;11710122222;12210122222
2148;12905604000;11751477777;12251477777
2149;12905607000;11751477777;12251477777
2150;12905608000;11751477777;12251477777
2151;12905609000;11751477777;12251477777
2152;12905610000;11751477777;12251477777
2153;12905611000;11751477777;12251477777
2154;12905612000;11751477777;12251477777
2155;12905810000;11751500000;12251500000
2156;12905826000;11751811111;12251811111
2157;12905827000;11751811111;12251811111
2158;12905827000;11751811111;12251811111
2159;12947181000;11793155555;12293155555
2160;12947184000;11793155555;12293155555
2161;12947185000;11793155555;12293155555
2162;12947186000;11793155555;12293155555
2163;12947187000;11793155555;12293155555
2164;12947188000;11793155555;12293155555
2165;12974950000;11793155555;12293155555
2166;13025435000;11793166666;12293166666
2167;13025450000;11793488888;12293488888
2168;13025451000;11793488888;12293488888
2169;13025452000;11793488888;12293488888
2170;13066913000;11834811111;12334811111
2171;13066916000;11834811111;12334811111
2172;13066917000;11834811111;12334811111
2173;13066918000;11834811111;12334811111
2174;13066919000;11834811111;12334811111
2175;13066920000;11834811111;12334811111
2176;13066921000;11834811111;12334811111
2177;13067144000;11834833333;12334833333
2178;13067160000;11835133333;12335133333
2179;13067161000;11835133333;12335133333
2180;13067162000;11835133333;12335133333
2181;13108493000;11876477777;12376477777
2183;13108497000;11876477777;12376477777
2184;13108498000;11876477777;12376477777
2185;13108499000;11876477777;12376477777
2186;13108500000;11876477777;12376477777
2187;13136296000;11876477777;12376477777
2188;13186650000;11876500000;12376500000
2189;13186665000;11876800000;12376800000
2190;13186667000;11876800000;12376800000
2193;13228410000;11918155555;12418155555
2194;13228413000;11918155555;12418155555
2195;13228414000;11918155555;12418155555
2196;13228415000;11918155555;12418155555
2197;13228416000;11918155555;12418155555
2198;13228417000;11918155555;12418155555
2199;13228511000;11918166666;12418166666
2200;13228526000;11918488888;12418488888
2201;13228527000;11918488888;12418488888
2202;13257196000;11918488888;12418488888
2203;13269795000;11959811111;12459811111
2204;13269799000;11959811111;12459811111
2205;13269800000;11959811111;12459811111
2206;13269801000;11959811111;12459811111
2207;13297505000;11959811111;12459811111
2208;13297507000;11959811111;12459811111
2209;13297509000;11959811111;12459811111
2210;13348075000;11959833333;12459833333
2212;13348214000;11960155555;12460155555
2213;13348216000;11960155555;12460155555
2216;13389665000;12001488888;12501488888
2217;13389669000;12001488888;12501488888
2218;13389670000;12001488888;12501488888
2219;13389671000;12001488888;12501488888
2220;13389672000;12001488888;12501488888
2221;13389765000;12001500000;12501500000
2222;13389787000;12001766666;12501766666
2223;13389788000;12001766666;12501766666
2224;13418501000;12001766666;12501766666
2225;13431106000;12043155555;12543155555
2226;13431109000;12043155555;12543155555
2227;13431110000;12043155555;12543155555
2228;13431111000;12043155555;12543155555
2230;13458858000;12043155555;12543155555
2231;13458860000;12043155555;12543155555
2232;13509328000;12043177777;12543177777
2233;13509344000;12043500000;12543500000
2234;13509345000;12043500000;12543500000
2235;13509346000;12043500000;12543500000
2236;13550806000;12084811111;12584811111
2237;13550809000;12084811111;12584811111
2238;13550810000;12084811111;12584811111
2239;13550811000;12084811111;12584811111
2240;13550812000;12084811111;12584811111
2241;13550813000;12084811111;12584811111
2242;13550814000;12084811111;12584811111
2243;13551012000;12084833333;12584833333
2244;13551019000;12085133333;12585133333
2245;13551020000;12085133333;12585133333
2246;13551021000;12085133333;12585133333
2247;13592379000;12126477777;12626477777
2248;13592392000;12126477777;12626477777
2249;13592397000;12126477777;12626477777
2250;13592399000;12126477777;12626477777
2251;13592400000;12126477777;12626477777
2255;13592535000;12126800000;12626800000
2256;13592538000;12126800000;12626800000
2257;13592539000;12126800000;12626800000
2258;13633849000;12168166666;12668166666
2259;13633853000;12168166666;12668166666
2260;13633854000;12168166666;12668166666
2261;13633855000;12168166666;12668166666
2262;13633855000;12168166666;12668166666
2263;13633856000;12168166666;12668166666
2264;13633857000;12168166666;12668166666
2265;13634056000;12168177777;12668177777
2266;13634062000;12168533333;12668533333
2267;13634063000;12168533333;12668533333
2268;13660542000;12168533333;12668533333
2269;13674802000;12209811111;12709811111
2270;13674806000;12209811111;12709811111
2271;13674807000;12209811111;12709811111
2272;13674808000;12209811111;12709811111
2273;13674809000;12209811111;12709811111
2274;13674810000;12209811111;12709811111
2275;13700905000;12209811111;12709811111
2276;13751385000;12209833333;12709833333
2278;13751538000;12210155555;12710155555
2279;13751540000;12210155555;12710155555
2280;13792862000;12251477777;12751477777
2281;13792865000;12251477777;12751477777
2282;13792866000;12251477777;12751477777
2283;13792867000;12251477777;12751477777
2284;13792868000;12251477777;12751477777
2285;13792869000;12251477777;12751477777
2286;13792870000;12251477777;12751477777
2287;13793068000;12251488888;12751488888
2288;13793074000;12251811111;12751811111
2289;13793075000;12251811111;12751811111
2290;13793076000;12251811111;12751811111
2291;13834446000;12293144444;12793144444
2292;13834449000;12293144444;12793144444
2293;13834450000;12293144444;12793144444
2294;13834451000;12293144444;12793144444
2295;13834452000;12293144444;12793144444
2296;13834453000;12293144444;12793144444
2297;13834454000;12293144444;12793144444
2298;13834651000;12293155555;12793155555
2299;13834657000;12293477777;12793477777
2300;13834658000;12293477777;12793477777
2301;13834659000;12293477777;12793477777
2302;13875797000;12334800000;12834800000
2303;13875800000;12334800000;12834800000
2305;13875802000;12334800000;12834800000
2306;13875803000;12334800000;12834800000
2307;13875804000;12334800000;12834800000
2308;13875805000;12334800000;12834800000
2311;13875888000;12335122222;12835122222
2312;13875892000;12335122222;12835122222
2313;13917073000;12376488888;12876488888
2314;13917086000;12376488888;12876488888
2315;13917087000;12376488888;12876488888
2316;13917087000;12376488888;12876488888
2317;13917088000;12376488888;12876488888
2318;13917089000;12376488888;12876488888
2319;13917090000;12376488888;12876488888
2320;13917288000;12376500000;12876500000
2321;13917303000;12376822222;12876822222
2322;13942799000;12376822222;12876822222
2323;13942801000;12376822222;12876822222
2324;13957696000;12418155555;12918155555
2325;13957699000;12418155555;12918155555
2326;13957700000;12418155555;12918155555
2327;13957701000;12418155555;12918155555
2328;13957702000;12418155555;12918155555
2329;13983119000;12418155555;12918155555
2330;13983130000;12418155555;12918155555
2331;14033599000;12418166666;12918166666
2332;14033615000;12418500000;12918500000
2333;14033616000;12418500000;12918500000
2334;14033617000;12418500000;12918500000
2335;14075110000;12459800000;12959800000
2336;14075113000;12459800000;12959800000
2337;14075114000;12459800000;12959800000
2338;14075115000;12459800000;12959800000
2339;14075116000;12459800000;12959800000
2340;14075117000;12459800000;12959800000
2341;14075118000;12459800000;12959800000
2342;14075317000;12459822222;12959822222
2343;14075323000;12460133333;12960133333
2344;14075324000;12460133333;12960133333
2345;14075325000;12460133333;12960133333
2346;14116719000;12501500000;13001500000
2347;14116723000;12501500000;13001500000
2348;14116724000;12501500000;13001500000
2349;14116725000;12501500000;13001500000
2350;14116725000;12501500000;13001500000
2351;14116726000;12501500000;13001500000
2352;14116727000;12501500000;13001500000
2353;14116926000;12501511111;13001511111
2355;14116941000;12501811111;13001811111
2356;14116942000;12501811111;13001811111
2357;14158066000;12543166666;13043166666
2358;14158070000;12543166666;13043166666
2359;14158071000;12543166666;13043166666
2360;14158072000;12543166666;13043166666
2361;14158073000;12543166666;13043166666
2362;14158074000;12543166666;13043166666
2363;14158075000;12543166666;13043166666
2364;14158193000;12543177777;13043177777
2365;14158197000;12543522222;13043522222
2366;14158199000;12543522222;13043522222
2367;14158200000;12543522222;13043522222
2368;14199023000;12584811111;13084811111
2369;14199026000;12584811111;13084811111
2370;14199027000;12584811111;13084811111
2371;14199028000;12584811111;13084811111
2372;14199029000;12584811111;13084811111
2373;14199030000;12584811111;13084811111
2374;14199031000;12584811111;13084811111
2375;14275465000;12584822222;13084822222
2376;14275472000;12585155555;13085155555
2377;14275473000;12585155555;13085155555
2378;14275474000;12585155555;13085155555
2379;14316986000;12626488888;13126488888
2380;14316990000;12626488888;13126488888
2381;14316991000;12626488888;13126488888
2382;14316992000;12626488888;13126488888
2383;14316993000;12626488888;13126488888
2384;14316994000;12626488888;13126488888
2385;14316994000;12626488888;13126488888
2386;14317200000;12626511111;13126511111
2387;14317215000;12626800000;13126800000
2388;14317216000;12626800000;13126800000
2389;14317217000;12626800000;13126800000
2390;14358554000;12668144444;13168144444
2391;14358558000;12668144444;13168144444
2392;14358559000;12668144444;13168144444
2393;14358560000;12668144444;13168144444
2394;14358561000;12668144444;13168144444
2395;14358562000;12668144444;13168144444
2396;14358563000;12668144444;13168144444
2397;14358681000;12668166666;13168166666
2398;14358685000;12668488888;13168488888
2399;14358687000;12668488888;13168488888
2400;14358687000;12668488888;13168488888
2401;14399976000;12709833333;13209833333
2402;14399980000;12709833333;13209833333
2403;14399981000;12709833333;13209833333
2404;14399982000;12709833333;13209833333
2405;14399983000;12709833333;13209833333
2406;14399984000;12709833333;13209833333
2407;14399984000;12709833333;13209833333
2408;14400204000;12709844444;13209844444
2409;14400206000;12710133333;13210133333
2410;14400207000;12710133333;13210133333
2411;14400208000;12710133333;13210133333
2412;14441017000;12751477777;13251477777
2413;14441020000;12751477777;13251477777
2414;14441021000;12751477777;13251477777
2415;14441022000;12751477777;13251477777
2416;14441023000;12751477777;13251477777
2417;14441024000;12751477777;13251477777
2419;14441223000;12751500000;13251500000
2420;14441238000;12751788888;13251788888
2421;14441239000;12751788888;13251788888
2422;14441240000;12751788888;13251788888
2423;14481719000;12793144444;13293144444
2424;14481722000;12793144444;13293144444
2425;14481723000;12793144444;13293144444
2426;14481725000;12793144444;13293144444
2427;14481726000;12793144444;13293144444
2428;14481727000;12793144444;13293144444
2429;14481728000;12793144444;13293144444
2430;14481856000;12793155555;13293155555
2431;14481861000;12793500000;13293500000
2432;14481879000;12793500000;13293500000
2433;14481880000;12793500000;13293500000
2434;14522054000;12834811111;13334811111
2444;14522166000;12835144444;13335144444
2445;14561818000;12876477777;13376477777
2461;14601610000;12918166666;13418166666
2485;14663958000;13001500000;13501500000
2507;14718849000;13084833333;13584833333
2542;14718864000;13210155555;13710155555
2543;14718865000;13210155555;13710155555
2544;14800888000;13251488888;13751488888
2590;14860232000;13418155555;13918155555
2615;14923148000;13501500000;14001500000
2658;15079644000;13668166666;14168166666
2764;15184487000;14084811111;14584811111
2829;15225682000;14293477777;14793477777
2859;15252984000;14418177777;14918177777
2880;15252999000;14501488888;15001488888
2881;15258566000;14501500000;15001500000
2882;15258582000;14501777777;15001777777
2883;15258583000;14501777777;15001777777
2884;15258584000;14501777777;15001777777
2885;15283035000;14543155555;15043155555
2914;15316802000;14626500000;15126500000
2948;15316818000;14751822222;15251822222
2949;15316819000;14751822222;15251822222
2950;15316820000;14751822222;15251822222
2951;15364617000;14793122222;15293122222
2978;15385294000;14876477777;15376477777
2991;15401066000;14918166666;15418166666
3012;15401083000;15001488888;15501488888
3013;15436654000;15001500000;15501500000
3047;15436669000;15126777777;15626777777
3048;15436670000;15126777777;15626777777
3049;15436671000;15126777777;15626777777
3050;15491481000;15168166666;15668166666
3069;15493333000;15210100000;15710100000
3070;15493337000;15210100000;15710100000
3071;15493338000;15210100000;15710100000
3072;15493420000;15251488888;15751488888
3074;15493424000;15251488888;15751488888
3075;15493425000;15251488888;15751488888
3076;15493426000;15251488888;15751488888
3077;15493427000;15251488888;15751488888
3078;15493428000;15251488888;15751488888
3079;15493517000;15251500000;15751500000
3080;15493532000;15251777777;15751777777
3081;15493534000;15251777777;15751777777
3082;15493534000;15251777777;15751777777
3083;15515804000;15293155555;15793155555
3084;15515808000;15293155555;15793155555
3085;15515809000;15293155555;15793155555
3086;15515810000;15293155555;15793155555
3087;15515821000;15293155555;15793155555
3088;15515827000;15293155555;15793155555
3089;15515829000;15293155555;15793155555
3090;15649597000;15293166666;15793166666
3122;15649612000;15418166666;15918166666
3123;15761127000;15418188888;15918188888
3161;15761133000;15584811111;16084811111
3162;15761135000;15584811111;16084811111
3163;15761136000;15584811111;16084811111
3164;15761137000;15584811111;16084811111
3165;15761138000;15584811111;16084811111
3166;15761148000;15584811111;16084811111
3167;15874410000;15584833333;16084833333
3190;15874417000;15668466666;16168466666
3191;15874418000;15668466666;16168466666
3192;15874419000;15668466666;16168466666
3193;15940119000;15709811111;16209811111
3213;15946966000;15751777777;16251777777
3214;15946970000;15751777777;16251777777
3215;15974223000;15793155555;16293155555
3228;16003150000;15834811111;16334811111
3247;16032733000;15876777777;16376777777
3248;16058357000;15918155555;16418155555
3256;16058422000;15918455555;16418455555
3257;16058434000;15918455555;16418455555
3258;16058435000;15918455555;16418455555
3259;16081542000;15959811111;16459811111
3269;16202940000;15960111111;16460111111
3294;16317889000;16084833333;16584833333
3310;16341646000;16126511111;16626511111
3311;16341651000;16126777777;16626777777
3312;16341653000;16126777777;16626777777
3313;16341654000;16126777777;16626777777
3314;16386232000;16168155555;16668155555
3316;16386235000;16168155555;16668155555
3317;16386236000;16168155555;16668155555
3318;16386237000;16168155555;16668155555
3319;16386238000;16168155555;16668155555
3320;16386239000;16168155555;16668155555
3321;16386340000;16168188888;16668188888
3322;16386345000;16168511111;16668511111
3323;16386346000;16168511111;16668511111
3324;16386347000;16168511111;16668511111
3325;16413155000;16209822222;16709822222
3326;16413158000;16209822222;16709822222
3327;16413159000;16209822222;16709822222
3328;16413160000;16209822222;16709822222
3329;16413168000;16209822222;16709822222
3330;16413169000;16209822222;16709822222
3331;16413170000;16209822222;16709822222
3332;16413273000;16209844444;16709844444
3333;16413278000;16210122222;16710122222
3334;16428668000;16210122222;16710122222
3335;16428670000;16210122222;16710122222
3336;16520494000;16251477777;16751477777
3343;16520614000;16251500000;16751500000
3344;16520620000;16251777777;16751777777
3345;16520621000;16251777777;16751777777
3346;16520622000;16251777777;16751777777
3347;16561686000;16293166666;16793166666
3353;16561698000;16293166666;16793166666
3354;16844203000;16293188888;16793188888
3458;16844209000;16709822222;17209822222
3459;16844211000;16709822222;17209822222
3460;16844212000;16709822222;17209822222
3461;16844213000;16709822222;17209822222
3462;16844223000;16709822222;17209822222
3463;16844223000;16709822222;17209822222
3464;16914737000;16709833333;17209833333
3487;16914743000;16793466666;17293466666
3488;16914745000;16793466666;17293466666
3489;16914746000;16793466666;17293466666
3490;16967425000;16834800000;17334800000
3498;16967490000;16835133333;17335133333
3499;16967501000;16835133333;17335133333
3501;16977101000;16876488888;17376488888
3502;16977104000;16876488888;17376488888
3503;16977105000;16876488888;17376488888
3504;16977106000;16876488888;17376488888
3505;16977107000;16876488888;17376488888
3506;16977108000;16876488888;17376488888
3507;16977109000;16876488888;17376488888
3508;17045739000;16876511111;17376511111
3521;17045745000;16918500000;17418500000
3522;17045747000;16918500000;17418500000
3523;17125758000;16959800000;17459800000
3543;17159156000;17001811111;17501811111
3553;17195644000;17043511111;17543511111
3565;17227226000;17085144444;17585144444
3566;17227230000;17085144444;17585144444
3567;17266770000;17126477777;17626477777
3574;17271973000;17126522222;17626522222
3582;17271989000;17168144444;17668144444
3583;17271990000;17168144444;17668144444
3584;17271991000;17168144444;17668144444
3585;17300722000;17168211111;17668211111
3589;17300737000;17209811111;17709811111
3590;17300738000;17209811111;17709811111
3591;17312322000;17209811111;17709811111
3592;17312324000;17209811111;17709811111
3593;17312325000;17209811111;17709811111
3594;17312326000;17209811111;17709811111
3595;17312536000;17209811111;17709811111
3596;17336097000;17209855555;17709855555
3600;17336112000;17251477777;17751477777
3601;17336113000;17251477777;17751477777
3602;17336114000;17251477777;17751477777
3603;17336115000;17251477777;17751477777
3604;17336116000;17251477777;17751477777
3605;17336117000;17251477777;17751477777
3606;17336118000;17251477777;17751477777
3607;17367459000;17251522222;17751522222
3611;17367474000;17293144444;17793144444
3612;17367475000;17293144444;17793144444
3613;17367476000;17293144444;17793144444
3614;17367477000;17293144444;17793144444
3615;17367478000;17293144444;17793144444
3616;17367479000;17293144444;17793144444
3617;17395360000;17293144444;17793144444
3618;17445839000;17293200000;17793200000
3622;17445854000;17334844444;17834844444
3623;17445855000;17334844444;17834844444
3624;17445856000;17334844444;17834844444
3625;17445857000;17334844444;17834844444
3626;17445858000;17334844444;17834844444
3627;17445859000;17334844444;17834844444
3628;17445860000;17334844444;17834844444
3629;17446058000;17334888888;17834888888
3630;17446064000;17335188888;17835188888
3631;17446066000;17335188888;17835188888
3632;17446067000;17335188888;17835188888
3633;17529094000;17376477777;17876477777
3634;17529097000;17376477777;17876477777
3635;17529098000;17376477777;17876477777
3636;17529100000;17376477777;17876477777
3637;17529101000;17376477777;17876477777
3638;17529101000;17376477777;17876477777
3639;17529102000;17376477777;17876477777
3640;17529301000;17376500000;17876500000
3641;17529307000;17376777777;17876777777
3643;17529308000;17376777777;17876777777
3644;17570285000;17418166666;17918166666
3645;17570288000;17418166666;17918166666
3646;17570289000;17418166666;17918166666
3647;17570290000;17418166666;17918166666
3648;17570291000;17418166666;17918166666
3649;17570292000;17418166666;17918166666
3650;17570301000;17418166666;17918166666
3651;17648567000;17418188888;17918188888
3652;17648582000;17418511111;17918511111
3653;17648583000;17418511111;17918511111
3654;17648584000;17418511111;17918511111
3655;17689703000;17459811111;17959811111
3656;17689706000;17459811111;17959811111
3657;17689707000;17459811111;17959811111
3658;17689708000;17459811111;17959811111
3659;17689709000;17459811111;17959811111
3660;17689710000;17459811111;17959811111
3661;17689711000;17459811111;17959811111
3662;17689909000;17459833333;17959833333
3663;17689924000;17460111111;17960111111
3664;17689925000;17460111111;17960111111
3665;17689926000;17460111111;17960111111
3666;17731220000;17501488888;18001488888
3667;17731223000;17501488888;18001488888
3668;17731224000;17501488888;18001488888
3670;17731225000;17501488888;18001488888
3671;17731226000;17501488888;18001488888
3672;17731227000;17501488888;18001488888
3673;17731472000;17501500000;18001500000
3674;17758106000;17501766666;18001766666
3675;17758108000;17501766666;18001766666
3676;17798651000;17501766666;18001766666
3677;17849924000;17543166666;18043166666
3678;17849927000;17543166666;18043166666
3679;17849928000;17543166666;18043166666
3680;17849929000;17543166666;18043166666
3681;17849930000;17543166666;18043166666
3682;17849931000;17543166666;18043166666
3683;17849932000;17543166666;18043166666
3684;17850062000;17543188888;18043188888
3685;17850076000;17543488888;18043488888
3686;17850077000;17543488888;18043488888
3687;17850078000;17543488888;18043488888
3688;17891683000;17584811111;18084811111
3689;17891694000;17584811111;18084811111
3691;17891696000;17584811111;18084811111
3692;17891697000;17584811111;18084811111
3693;17891698000;17584811111;18084811111
3694;17891698000;17584811111;18084811111
3695;17891814000;17584833333;18084833333
3696;17891818000;17585100000;18085100000
3697;17891819000;17585100000;18085100000
3698;17891820000;17585100000;18085100000
3699;17933366000;17626488888;18126488888
3700;17933369000;17626488888;18126488888
3701;17933370000;17626488888;18126488888
3702;17933371000;17626488888;18126488888
3703;17933372000;17626488888;18126488888
3704;17933373000;17626488888;18126488888
3705;17933374000;17626488888;18126488888
3706;18011408000;17626500000;18126500000
3712;18011415000;17668155555;18168155555
3713;18011416000;17668155555;18168155555
3714;18011417000;17668155555;18168155555
3715;18011418000;17668155555;18168155555
3716;18011419000;17668155555;18168155555
3717;18052802000;17668166666;18168166666
3726;18052807000;17709811111;18209811111
3729;18093936000;17710088888;18210088888
3737;18134683000;17751488888;18251488888
3747;18174071000;17793155555;18293155555
3759;18211955000;17834811111;18334811111
3772;18247634000;17876500000;18376500000
3785;18247640000;17918455555;18418455555
3786;18247641000;17918455555;18418455555
3787;18320099000;17959811111;18459811111
3801;18351542000;18001455555;18501455555
3819;18380687000;18043455555;18543455555
3834;18446223000;18126488888;18626488888
3860;18489359000;18209833333;18709833333
3879;18489365000;18293155555;18793155555
3880;18489367000;18293155555;18793155555
3881;18489368000;18293155555;18793155555
3882;18535193000;18293166666;18793166666
3895;18535199000;18335177777;18835177777
3896;18535201000;18335177777;18835177777
3897;18572502000;18376477777;18876477777
3905;18572558000;18376755555;18876755555
3906;18572560000;18376755555;18876755555
3907;18572562000;18376755555;18876755555
3908;18598877000;18418155555;18918155555
3909;18598881000;18418155555;18918155555
3910;18598882000;18418155555;18918155555
3911;18598883000;18418155555;18918155555
3912;18598884000;18418155555;18918155555
3913;18598885000;18418155555;18918155555
3914;18598885000;18418155555;18918155555
3915;18659416000;18418166666;18918166666
3929;18659422000;18460100000;18960100000
3930;18741244000;18501477777;19001477777
3947;18776962000;18543155555;19043155555
3960;18811859000;18585211111;19085211111
3968;18848278000;18626455555;19126455555
3980;18883354000;18668166666;19168166666
3992;18917042000;18709833333;19209833333
4008;18917063000;18793166666;19293166666
4009;18917076000;18793166666;19293166666
4010;18917077000;18793166666;19293166666
4011;18917078000;18793166666;19293166666
4012;18917079000;18793166666;19293166666
4013;18917080000;18793166666;19293166666
4014;18980388000;18793188888;19293188888
4034;18980393000;18876500000;19376500000
4035;18980395000;18876500000;19376500000
4036;19035815000;18876533333;19376533333
4047;19044167000;18918222222;19418222222
4048;19044173000;18918511111;19418511111
4049;19044174000;18918511111;19418511111
4050;19044175000;18918511111;19418511111
4051;19072465000;18959833333;19459833333
4060;19072530000;18960177777;19460177777
4061;19072542000;18960177777;19460177777
4062;19090112000;19001477777;19501477777
4063;19090116000;19001477777;19501477777
4064;19090117000;19001477777;19501477777
4065;19090118000;19001477777;19501477777
4066;19090119000;19001477777;19501477777
4068;19097573000;19001477777;19501477777
4069;19097700000;19001522222;19501522222
4070;19103938000;19001766666;19501766666
4071;19103940000;19001766666;19501766666
4072;19104134000;19001766666;19501766666
4073;19124571000;19043177777;19543177777
4074;19124574000;19043177777;19543177777
4075;19124575000;19043177777;19543177777
4076;19124576000;19043177777;19543177777
4077;19124577000;19043177777;19543177777
4078;19124578000;19043177777;19543177777
4079;19124579000;19043177777;19543177777
4080;19129591000;19043222222;19543222222
4081;19129597000;19043511111;19543511111
4082;19129598000;19043511111;19543511111
4083;19129599000;19043511111;19543511111
4084;19237471000;19084833333;19584833333
4098;19277513000;19126500000;19626500000
4107;19317210000;19168200000;19668200000
4117;19352927000;19209833333;19709833333
4120;19352930000;19209833333;19709833333
4121;19352941000;19209833333;19709833333
4122;19352942000;19209833333;19709833333
4123;19352943000;19209833333;19709833333
4124;19357591000;19209877777;19709877777
4128;19357597000;19251500000;19751500000
4129;19357599000;19251500000;19751500000
4130;19357600000;19251500000;19751500000
4131;19357601000;19251500000;19751500000
4132;19357602000;19251500000;19751500000
4133;19357603000;19251500000;19751500000
4134;19357603000;19251500000;19751500000
4135;19393604000;19251533333;19751533333
4137;19393610000;19251811111;19751811111
4138;19393611000;19251811111;19751811111
4139;19431766000;19293133333;19793133333
4141;19431769000;19293133333;19793133333
4142;19431770000;19293133333;19793133333
4143;19431771000;19293133333;19793133333
4144;19431772000;19293133333;19793133333
4145;19431773000;19293133333;19793133333
4146;19431875000;19293155555;19793155555
4147;19431880000;19293433333;19793433333
4148;19431881000;19293433333;19793433333
4149;19431882000;19293433333;19793433333
4150;19469128000;19334811111;19834811111
4155;19469131000;19334811111;19834811111
4156;19469132000;19334811111;19834811111
4157;19560642000;19334833333;19834833333
4179;19639159000;19418188888;19918188888
4203;19639165000;19501800000;20001800000
4204;19639166000;19501800000;20001800000
4205;19739411000;19543188888;20043188888
4229;19779248000;19626522222;20126522222
4238;19798321000;19668177777;20168177777
4239;19798325000;19668177777;20168177777
4240;19798325000;19668177777;20168177777
4241;19798327000;19668177777;20168177777
4242;19798328000;19668177777;20168177777
4243;19798329000;19668177777;20168177777
4244;19798330000;19668177777;20168177777
4245;19813842000;19668222222;20168222222
4249;19813857000;19709833333;20209833333
4250;19813859000;19709833333;20209833333
4251;19813860000;19709833333;20209833333
4252;19813861000;19709833333;20209833333
4253;19813861000;19709833333;20209833333
4254;19813862000;19709833333;20209833333
4255;19813863000;19709833333;20209833333
4256;19904109000;19709866666;20209866666
4269;19904125000;19751811111;20251811111
4270;19904126000;19751811111;20251811111
4271;19985292000;19793166666;20293166666
4300;20063775000;19876511111;20376511111
4320;20063797000;19959833333;20459833333
4321;20063798000;19959833333;20459833333
4322;20130837000;19959877777;20459877777
4334;20130852000;20001777777;20501777777
4335;20130854000;20001777777;20501777777
4336;20130863000;20001777777;20501777777
4337;20183296000;20043166666;20543166666
4345;20183409000;20043522222;20543522222
4346;20183412000;20043522222;20543522222
4347;20183413000;20043522222;20543522222
4348;20218853000;20084800000;20584800000
4357;20218969000;20085166666;20585166666
4358;20218973000;20085166666;20585166666
4359;20240919000;20126466666;20626466666
4366;20246500000;20126511111;20626511111
4367;20246515000;20126788888;20626788888
4368;20246516000;20126788888;20626788888
4369;20246517000;20126788888;20626788888
4370;20273315000;20168133333;20668133333
4376;20273319000;20168133333;20668133333
4377;20273518000;20168188888;20668188888
4378;20273533000;20168511111;20668511111
4379;20273534000;20168511111;20668511111
4380;20273535000;20168511111;20668511111
4381;20298880000;20209811111;20709811111
4382;20298883000;20209811111;20709811111
4383;20298884000;20209811111;20709811111
4384;20298885000;20209811111;20709811111
4385;20298886000;20209811111;20709811111
4386;20298887000;20209811111;20709811111
4387;20298888000;20209811111;20709811111
4388;20304221000;20209855555;20709855555
4389;20304237000;20210166666;20710166666
4390;20304238000;20210166666;20710166666
4391;20304239000;20210166666;20710166666
4392;20337415000;20251500000;20751500000
4393;20337418000;20251500000;20751500000
4394;20337419000;20251500000;20751500000
4395;20337420000;20251500000;20751500000
4396;20337421000;20251500000;20751500000
4399;20337621000;20251533333;20751533333
4400;20337637000;20251822222;20751822222
4401;20337638000;20251822222;20751822222
4402;20337639000;20251822222;20751822222
4403;20372955000;20293188888;20793188888
4404;20372957000;20293188888;20793188888
4405;20372967000;20293188888;20793188888
4406;20372968000;20293188888;20793188888
4407;20372969000;20293188888;20793188888
4408;20372970000;20293188888;20793188888
4409;20372971000;20293188888;20793188888
4410;20373151000;20293222222;20793222222
4411;20373154000;20293511111;20793511111
4412;20373155000;20293511111;20793511111
4413;20373156000;20293511111;20793511111
4414;20487603000;20334833333;20834833333
4426;20528427000;20376500000;20876500000
4437;20568116000;20418177777;20918177777
4447;20602562000;20459811111;20959811111
4450;20602565000;20459811111;20959811111
4451;20602566000;20459811111;20959811111
4452;20602567000;20459811111;20959811111
4453;20602568000;20459811111;20959811111
4454;20607783000;20459833333;20959833333
4458;20607798000;20501500000;21001500000
4459;20607799000;20501500000;21001500000
4460;20607800000;20501500000;21001500000
4461;20607801000;20501500000;21001500000
4462;20607802000;20501500000;21001500000
4463;20607803000;20501500000;21001500000
4464;20607804000;20501500000;21001500000
4465;20643416000;20501533333;21001533333
4469;20643432000;20543200000;21043200000
4470;20643433000;20543200000;21043200000
4471;20643434000;20543200000;21043200000
4472;20643435000;20543200000;21043200000
4473;20643436000;20543200000;21043200000
4474;20643437000;20543200000;21043200000
4475;20643438000;20543200000;21043200000
4476;20680339000;20543211111;21043211111
4477;20680355000;20543522222;21043522222
4478;20680356000;20543522222;21043522222
4479;20680357000;20543522222;21043522222
4480;20717674000;20584822222;21084822222
4482;20717677000;20584822222;21084822222
4483;20717678000;20584822222;21084822222
4484;20717680000;20584822222;21084822222
4485;20717680000;20584822222;21084822222
4486;20717681000;20584822222;21084822222
4487;20717880000;20584844444;21084844444
4488;20717896000;20585100000;21085100000
4489;20717897000;20585100000;21085100000
4490;20717898000;20585100000;21085100000
4491;20754270000;20626488888;21126488888
4498;20754471000;20626500000;21126500000
4499;20754486000;20626755555;21126755555
4500;20754487000;20626755555;21126755555
4501;20754488000;20626755555;21126755555
4502;20790074000;20668200000;21168200000
4512;20790195000;20668488888;21168488888
4513;20823564000;20709833333;21209833333
4521;20823676000;20710122222;21210122222
4522;20823680000;20710122222;21210122222
4523;20823680000;20710122222;21210122222
4524;20855479000;20751500000;21251500000
4530;20855490000;20751500000;21251500000
4531;20855722000;20751544444;21251544444
4534;20855727000;20751800000;21251800000
4535;20883351000;20793177777;21293177777
4536;20883354000;20793177777;21293177777
4537;20883356000;20793177777;21293177777
4538;20883356000;20793177777;21293177777
4539;20883357000;20793177777;21293177777
4541;20887998000;20793177777;21293177777
4542;20888216000;20793222222;21293222222
4543;20888231000;20793511111;21293511111
4544;20888233000;20793511111;21293511111
4545;20888234000;20793511111;21293511111
4546;20921985000;20834811111;21334811111
4547;20921988000;20834811111;21334811111
4548;20921989000;20834811111;21334811111
4549;20921990000;20834811111;21334811111
4550;20921991000;20834811111;21334811111
4551;20921992000;20834811111;21334811111
4552;20921993000;20834811111;21334811111
4553;20922170000;20834855555;21334855555
4554;20922174000;20835122222;21335122222
4555;20922175000;20835122222;21335122222
4556;20922177000;20835122222;21335122222
4557;21028834000;20876477777;21376477777
4570;21069940000;20918177777;21418177777
4577;21070059000;20918511111;21418511111
4578;21070063000;20918511111;21418511111
4579;21109411000;20959800000;21459800000
4586;21109612000;20959844444;21459844444
4587;21109627000;20960111111;21460111111
4588;21109628000;20960111111;21460111111
4589;21109629000;20960111111;21460111111
4590;21147322000;21001500000;21501500000
4596;21147325000;21001500000;21501500000
4598;21147447000;21001766666;21501766666
4599;21147450000;21001766666;21501766666
4600;21147451000;21001766666;21501766666
4601;21187210000;21043200000;21543200000
4602;21187213000;21043200000;21543200000
4603;21187214000;21043200000;21543200000
4604;21187215000;21043200000;21543200000
4605;21187216000;21043200000;21543200000
4606;21187217000;21043200000;21543200000
4607;21187218000;21043200000;21543200000
4608;21236461000;21043222222;21543222222
4612;21236477000;21084811111;21584811111
4615;21236478000;21084811111;21584811111
4616;21236479000;21084811111;21584811111
4617;21236480000;21084811111;21584811111
4618;21236481000;21084811111;21584811111
4619;21277943000;21084833333;21584833333
4620;21277959000;21085100000;21585100000
4621;21277960000;21085100000;21585100000
4622;21277961000;21085100000;21585100000
4623;21319237000;21126477777;21626477777
4624;21319241000;21126477777;21626477777
4625;21319242000;21126477777;21626477777
4626;21319243000;21126477777;21626477777
4627;21319244000;21126477777;21626477777
4628;21319245000;21126477777;21626477777
4629;21319246000;21126477777;21626477777
4630;21319445000;21126500000;21626500000
4631;21319461000;21126755555;21626755555
4632;21319462000;21126755555;21626755555
4633;21319463000;21126755555;21626755555
4634;21360036000;21168166666;21668166666
4635;21360039000;21168166666;21668166666
4636;21360040000;21168166666;21668166666
4637;21360041000;21168166666;21668166666
4638;21360049000;21168166666;21668166666
4639;21360050000;21168166666;21668166666
4640;21360051000;21168166666;21668166666
4641;21360205000;21168188888;21668188888
4642;21360211000;21168477777;21668477777
4643;21360212000;21168477777;21668477777
4644;21360214000;21168477777;21668477777
4645;21400693000;21209811111;21709811111
4647;21400696000;21209811111;21709811111
4648;21400698000;21209811111;21709811111
4649;21400699000;21209811111;21709811111
4650;21400700000;21209811111;21709811111
4651;21400701000;21209811111;21709811111
4652;21400854000;21209833333;21709833333
4653;21400860000;21210100000;21710100000
4654;21400862000;21210100000;21710100000
4655;21400862000;21210100000;21710100000
4656;21441007000;21251488888;21751488888
4662;21441010000;21251488888;21751488888
4663;21441211000;21251500000;21751500000
4664;21441226000;21251766666;21751766666
4665;21441227000;21251766666;21751766666
4666;21441228000;21251766666;21751766666
4667;21480624000;21293155555;21793155555
4678;21519514000;21334811111;21834811111
4697;21557716000;21376755555;21876755555
4706;21593685000;21418155555;21918155555
4715;21626021000;21459811111;21959811111
4719;21626134000;21460100000;21960100000
4720;21626138000;21460100000;21960100000
4724;21723370000;21501500000;22001500000
4744;21799535000;21584811111;22084811111
4763;21816784000;21626788888;22126788888
4764;21816788000;21626788888;22126788888
4765;21816789000;21626788888;22126788888
4766;21868273000;21668155555;22168155555
4774;21868385000;21668488888;22168488888
4775;21868388000;21668488888;22168488888
4776;21868389000;21668488888;22168488888
4777;21901635000;21709811111;22209811111
4786;21901747000;21710122222;22210122222
4787;21901751000;21710122222;22210122222
4788;21928962000;21751455555;22251455555
4797;21929064000;21751766666;22251766666
4798;21929067000;21751766666;22251766666
4799;21963041000;21793144444;22293144444
4803;21963053000;21793144444;22293144444
4804;21963054000;21793144444;22293144444
4805;21963055000;21793144444;22293144444
4806;21963280000;21793155555;22293155555
4807;21963297000;21793477777;22293477777
4808;21963298000;21793477777;22293477777
4809;21963299000;21793477777;22293477777
4810;22045983000;21834811111;22334811111
4820;22046102000;21835122222;22335122222
4821;22087011000;21876477777;22376477777
4831;22087123000;21876788888;22376788888
4832;22127425000;21918144444;22418144444
4844;22167251000;21959811111;22459811111
4855;22206242000;22001488888;22501488888
4869;22244139000;22043155555;22543155555
4884;22280146000;22085122222;22585122222
4898;22350124000;22168155555;22668155555
4912;22383545000;22209811111;22709811111
4921;22383617000;22251477777;22751477777
4922;22383619000;22251477777;22751477777
4923;22383620000;22251477777;22751477777
4924;22383621000;22251477777;22751477777
4925;22383622000;22251477777;22751477777
4926;22383623000;22251477777;22751477777
4927;22407585000;22251488888;22751488888
4932;22407590000;22293144444;22793144444
4933;22407591000;22293144444;22793144444
4934;22407592000;22293144444;22793144444
4935;22407593000;22293144444;22793144444
4936;22407594000;22293144444;22793144444
4937;22407595000;22293144444;22793144444
4940;22415722000;22293466666;22793466666
4941;22415725000;22293466666;22793466666
4942;22449715000;22334811111;22834811111
4943;22449718000;22334811111;22834811111
4944;22449719000;22334811111;22834811111
4945;22449720000;22334811111;22834811111
4946;22449721000;22334811111;22834811111
4947;22449722000;22334811111;22834811111
4948;22449723000;22334811111;22834811111
4949;22449922000;22334833333;22834833333
4950;22449938000;22335111111;22835111111
4951;22449939000;22335111111;22835111111
4952;22449940000;22335111111;22835111111
4953;22481234000;22376488888;22876488888
4956;22481237000;22376488888;22876488888
4957;22481238000;22376488888;22876488888
4958;22481239000;22376488888;22876488888
4959;22481240000;22376488888;22876488888
4960;22481440000;22376500000;22876500000
4961;22481456000;22376788888;22876788888
4962;22481457000;22376788888;22876788888
4963;22481458000;22376788888;22876788888
4966;22514248000;22418166666;22918166666
4967;22514250000;22418166666;22918166666
4968;22514251000;22418166666;22918166666
4969;22514253000;22418166666;22918166666
4970;22514254000;22418166666;22918166666
4971;22514345000;22418188888;22918188888
4972;22514347000;22418500000;22918500000
4973;22514348000;22418500000;22918500000
4974;22514349000;22418500000;22918500000
4975;22548211000;22459833333;22959833333
4976;22548215000;22459833333;22959833333
4977;22548216000;22459833333;22959833333
4978;22548217000;22459833333;22959833333
4979;22548218000;22459833333;22959833333
4980;22548219000;22459833333;22959833333
4981;22548220000;22459833333;22959833333
4982;22734661000;22459866666;22959866666
5005;22734676000;22543500000;23043500000
5006;22734677000;22543500000;23043500000
5007;22734678000;22543500000;23043500000
5008;22844176000;22584833333;23084833333
5020;22855373000;22626500000;23126500000
5028;22865668000;22626800000;23126800000
5029;22865671000;22626800000;23126800000
5030;22893023000;22668177777;23168177777
5034;22893026000;22668177777;23168177777
5035;22893027000;22668177777;23168177777
5036;22893028000;22668177777;23168177777
5037;22893280000;22668200000;23168200000
5038;22893295000;22668500000;23168500000
5039;22893296000;22668500000;23168500000
5040;22893305000;22668500000;23168500000
5041;22916543000;22709811111;23209811111
5042;22916547000;22709811111;23209811111
5043;22916548000;22709811111;23209811111
5045;22916549000;22709811111;23209811111
5046;22916550000;22709811111;23209811111
5047;22916551000;22709811111;23209811111
5048;22916751000;22709833333;23209833333
5049;22916766000;22710100000;23210100000
5051;22916768000;22710100000;23210100000
5052;22938794000;22751477777;23251477777
5053;22938798000;22751477777;23251477777
5055;22938799000;22751477777;23251477777
5056;22938800000;22751477777;23251477777
5057;22938801000;22751477777;23251477777
5059;22939000000;22751500000;23251500000
5060;22939006000;22751766666;23251766666
5061;22939007000;22751766666;23251766666
5062;22939008000;22751766666;23251766666
5063;23019975000;22793166666;23293166666
5064;23019978000;22793166666;23293166666
5065;23019980000;22793166666;23293166666
5066;23019980000;22793166666;23293166666
5067;23019981000;22793166666;23293166666
5068;23019982000;22793166666;23293166666
5069;23050335000;22793166666;23293166666
5070;23103365000;22793188888;23293188888
5071;23103380000;22793488888;23293488888
5072;23103381000;22793488888;23293488888
5073;23103382000;22793488888;23293488888
5074;23144134000;22834822222;23334822222
5075;23144138000;22834822222;23334822222
5076;23144139000;22834822222;23334822222
5077;23144140000;22834822222;23334822222
5078;23144140000;22834822222;23334822222
5079;23144141000;22834822222;23334822222
5080;23144142000;22834822222;23334822222
5081;23144342000;22834833333;23334833333
5082;23144357000;22835111111;23335111111
5083;23144358000;22835111111;23335111111
5084;23144359000;22835111111;23335111111
5085;23184710000;22876477777;23376477777
5086;23184713000;22876477777;23376477777
5087;23184714000;22876477777;23376477777
5088;23184715000;22876477777;23376477777
5089;23184716000;22876477777;23376477777
5090;23184717000;22876477777;23376477777
5091;23184718000;22876477777;23376477777
5092;23184917000;22876500000;23376500000
5093;23184933000;22876777777;23376777777
5094;23184934000;22876777777;23376777777
5095;23184935000;22876777777;23376777777
5096;23224439000;22918177777;23418177777
5098;23224443000;22918177777;23418177777
5099;23224444000;22918177777;23418177777
5100;23224445000;22918177777;23418177777
5101;23224446000;22918177777;23418177777
5102;23224447000;22918177777;23418177777
5103;23224617000;22918200000;23418200000
5104;23224621000;22918500000;23418500000
5105;23224622000;22918500000;23418500000
5106;23224623000;22918500000;23418500000
5107;23263527000;22959811111;23459811111
5110;23263530000;22959811111;23459811111
5111;23263531000;22959811111;23459811111
5112;23263532000;22959811111;23459811111
5113;23263533000;22959811111;23459811111
5114;23263704000;22959833333;23459833333
5115;23263708000;22960111111;23460111111
5116;23263709000;22960111111;23460111111
5117;23263710000;22960111111;23460111111
5118;23301513000;23001488888;23501488888
5120;23301516000;23001488888;23501488888
5125;23332462000;23001500000;23501500000
5129;23332477000;23043155555;23543155555
5130;23332478000;23043155555;23543155555
5131;23332479000;23043155555;23543155555
5132;23332480000;23043155555;23543155555
5133;23332481000;23043155555;23543155555
5134;23332482000;23043155555;23543155555
5135;23332483000;23043155555;23543155555
5136;23336750000;23043166666;23543166666
5137;23336766000;23043466666;23543466666
5138;23336767000;23043466666;23543466666
5139;23336768000;23043466666;23543466666
5140;23373157000;23084811111;23584811111
5141;23373161000;23084811111;23584811111
5142;23373162000;23084811111;23584811111
5143;23373163000;23084811111;23584811111
5144;23373163000;23084811111;23584811111
5145;23373164000;23084811111;23584811111
5146;23373165000;23084811111;23584811111
5147;23428265000;23084833333;23584833333
5151;23428280000;23126477777;23626477777
5152;23428281000;23126477777;23626477777
5153;23428282000;23126477777;23626477777
5154;23428283000;23126477777;23626477777
5155;23428284000;23126477777;23626477777
5156;23428285000;23126477777;23626477777
5157;23428286000;23126477777;23626477777
5158;23469620000;23126500000;23626500000
5162;23469635000;23168155555;23668155555
5163;23469636000;23168155555;23668155555
5164;23469637000;23168155555;23668155555
5165;23469638000;23168155555;23668155555
5166;23469639000;23168155555;23668155555
5167;23469640000;23168155555;23668155555
5168;23469641000;23168155555;23668155555
5169;23509688000;23168166666;23668166666
5173;23509704000;23209811111;23709811111
5174;23509705000;23209811111;23709811111
5175;23509706000;23209811111;23709811111
5176;23509707000;23209811111;23709811111
5177;23509708000;23209811111;23709811111
5178;23509709000;23209811111;23709811111
5179;23509710000;23209811111;23709811111
5180;23549444000;23209833333;23709833333
5184;23549459000;23251477777;23751477777
5185;23549460000;23251477777;23751477777
5186;23549461000;23251477777;23751477777
5187;23549462000;23251477777;23751477777
5188;23549463000;23251477777;23751477777
5189;23549464000;23251477777;23751477777
5190;23549465000;23251477777;23751477777
5191;23586882000;23251500000;23751500000
5195;23586898000;23293144444;23793144444
5196;23586899000;23293144444;23793144444
5197;23586900000;23293144444;23793144444
5198;23586901000;23293144444;23793144444
5199;23586902000;23293144444;23793144444
5200;23586903000;23293144444;23793144444
5201;23586904000;23293144444;23793144444
5202;23624839000;23293155555;23793155555
5206;23624855000;23334822222;23834822222
5207;23624856000;23334822222;23834822222
5208;23624857000;23334822222;23834822222
5209;23624858000;23334822222;23834822222
5210;23624859000;23334822222;23834822222
5211;23624860000;23334822222;23834822222
5212;23624861000;23334822222;23834822222
5213;23661944000;23334833333;23834833333
5217;23661960000;23376477777;23876477777
5218;23661961000;23376477777;23876477777
5219;23661962000;23376477777;23876477777
5220;23661963000;23376477777;23876477777
5221;23661964000;23376477777;23876477777
5222;23661965000;23376477777;23876477777
5223;23661965000;23376477777;23876477777
5224;23692615000;23376488888;23876488888
5225;23692621000;23376766666;23876766666
5226;23692631000;23376766666;23876766666
5227;23692632000;23376766666;23876766666
5228;23729632000;23418155555;23918155555
5229;23729635000;23418155555;23918155555
5230;23729636000;23418155555;23918155555
5231;23729637000;23418155555;23918155555
5232;23729638000;23418155555;23918155555
5233;23729639000;23418155555;23918155555
5234;23729640000;23418155555;23918155555
5235;23729840000;23418166666;23918166666
5236;23729855000;23418488888;23918488888
5237;23729856000;23418488888;23918488888
5238;23729857000;23418488888;23918488888
5239;23763827000;23459800000;23959800000
5240;23763830000;23459800000;23959800000
5241;23763831000;23459800000;23959800000
5242;23763832000;23459800000;23959800000
5243;23763833000;23459800000;23959800000
5244;23763834000;23459800000;23959800000
5245;23763835000;23459800000;23959800000
5246;23764005000;23459811111;23959811111
5247;23764009000;23460211111;23960211111
5248;23764010000;23460211111;23960211111
5249;23764011000;23460211111;23960211111
5250;23787907000;23501477777;24001477777
5251;23787910000;23501477777;24001477777
5252;23787911000;23501477777;24001477777
5253;23787912000;23501477777;24001477777
5254;23787913000;23501477777;24001477777
5255;23787914000;23501477777;24001477777
5256;23787915000;23501477777;24001477777
5257;23788107000;23501488888;24001488888
5258;23788111000;23501755555;24001755555
5259;23788112000;23501755555;24001755555
5260;23788113000;23501755555;24001755555
5261;23822765000;23543144444;24043144444
5262;23822768000;23543144444;24043144444
5263;23822769000;23543144444;24043144444
5264;23822770000;23543144444;24043144444
5265;23822771000;23543144444;24043144444
5266;23822772000;23543144444;24043144444
5267;23822773000;23543144444;24043144444
5268;23822972000;23543155555;24043155555
5269;23822978000;23543500000;24043500000
5270;23822979000;23543500000;24043500000
5271;23822980000;23543500000;24043500000
5272;23858004000;23584822222;24084822222
5273;23858008000;23584822222;24084822222
5274;23858009000;23584822222;24084822222
5275;23858017000;23584822222;24084822222
5276;23858018000;23584822222;24084822222
5277;23858019000;23584822222;24084822222
5278;23858020000;23584822222;24084822222
5279;23858246000;23584844444;24084844444
5280;23858252000;23585133333;24085133333
5281;23861072000;23585133333;24085133333
5282;23861249000;23585133333;24085133333
5283;23893956000;23626488888;24126488888
5284;23893959000;23626488888;24126488888
5285;23893960000;23626488888;24126488888
5286;23893961000;23626488888;24126488888
5288;23896492000;23626488888;24126488888
5289;23896507000;23626488888;24126488888
5290;23946963000;23626500000;24126500000
5294;23946978000;23668155555;24168155555
5295;23946979000;23668155555;24168155555
5296;23946980000;23668155555;24168155555
5297;23946981000;23668155555;24168155555
5303;23988653000;23668477777;24168477777
5305;24030051000;23709811111;24209811111
5308;24057734000;23709811111;24209811111
5310;24057737000;23709811111;24209811111
5311;24057738000;23709811111;24209811111
5312;24070348000;23709833333;24209833333
5316;24070354000;23751477777;24251477777
5317;24070365000;23751477777;24251477777
5318;24070366000;23751477777;24251477777
5319;24070367000;23751477777;24251477777
5320;24070368000;23751477777;24251477777
5321;24070369000;23751477777;24251477777
5322;24070370000;23751477777;24251477777
5323;24110715000;23751500000;24251500000
5327;24110730000;23793144444;24293144444
5328;24110731000;23793144444;24293144444
5329;24110732000;23793144444;24293144444
5330;24110733000;23793144444;24293144444
5331;24110734000;23793144444;24293144444
5332;24110735000;23793144444;24293144444
5333;24110736000;23793144444;24293144444
5334;24151551000;23793166666;24293166666
5337;24151567000;23793466666;24293466666
5338;24191318000;23834788888;24334788888
5339;24191322000;23834788888;24334788888
5340;24191322000;23834788888;24334788888
5341;24191323000;23834788888;24334788888
5342;24191324000;23834788888;24334788888
5343;24191325000;23834788888;24334788888
5344;24191326000;23834788888;24334788888
5345;24191525000;23834811111;24334811111
5346;24191540000;23835200000;24335200000
5348;24191542000;23835200000;24335200000
5349;24229762000;23876477777;24376477777
5353;24229766000;23876477777;24376477777
5354;24229767000;23876477777;24376477777
5355;24229768000;23876477777;24376477777
5356;24229906000;23876488888;24376488888
5357;24229908000;23876777777;24376777777
5358;24229909000;23876777777;24376777777
5359;24229910000;23876777777;24376777777
5360;24265884000;23918144444;24418144444
5361;24265886000;23918144444;24418144444
5362;24265887000;23918144444;24418144444
5363;24265888000;23918144444;24418144444
5365;24265889000;23918144444;24418144444
5366;24265889000;23918144444;24418144444
5367;24266032000;23918166666;24418166666
5368;24266034000;23918466666;24418466666
5369;24266035000;23918466666;24418466666
5370;24266036000;23918466666;24418466666
5371;24303011000;23959811111;24459811111
5372;24303013000;23959811111;24459811111
5373;24303015000;23959811111;24459811111
5374;24303016000;23959811111;24459811111
5375;24303016000;23959811111;24459811111
5376;24339925000;23959811111;24459811111
5377;24339939000;23959811111;24459811111
5378;24391518000;23959833333;24459833333
5379;24391534000;23960122222;24460122222
5380;24391535000;23960122222;24460122222
5381;24391536000;23960122222;24460122222
5382;24432960000;24001477777;24501477777
5383;24432963000;24001477777;24501477777
5384;24432964000;24001477777;24501477777
5385;24432965000;24001477777;24501477777
5386;24432966000;24001477777;24501477777
5387;24432967000;24001477777;24501477777
5388;24432968000;24001477777;24501477777
5389;24433167000;24001500000;24501500000
5390;24433182000;24001744444;24501744444
5391;24433184000;24001744444;24501744444
5392;24433185000;24001744444;24501744444
5393;24474508000;24043188888;24543188888
5396;24474511000;24043188888;24543188888
5397;24474512000;24043188888;24543188888
5398;24474513000;24043188888;24543188888
5399;24474514000;24043188888;24543188888
5400;24474714000;24043200000;24543200000
5401;24474730000;24043522222;24543522222
5402;24474731000;24043522222;24543522222
5403;24474742000;24043522222;24543522222
5404;24515544000;24084811111;24584811111
5410;24515548000;24084811111;24584811111
5411;24515755000;24084822222;24584822222
5412;24515761000;24085111111;24585111111
5413;24515772000;24085111111;24585111111
5414;24515772000;24085111111;24585111111
5415;24556153000;24126477777;24626477777
5425;24556229000;24126766666;24626766666
5426;24596362000;24168155555;24668155555
5440;24635831000;24209811111;24709811111
5456;24674548000;24251788888;24751788888
5469;24711527000;24293455555;24793455555
5477;24747775000;24334833333;24834833333
5478;24747791000;24335100000;24835100000
5479;24747792000;24335100000;24835100000
5480;24747793000;24335100000;24835100000
5481;24779803000;24376488888;24876488888
5482;24779806000;24376488888;24876488888
5483;24779807000;24376488888;24876488888
5484;24779809000;24376488888;24876488888
5485;24779809000;24376488888;24876488888
5486;24779811000;24376488888;24876488888
5487;24779812000;24376488888;24876488888
5488;24780018000;24376500000;24876500000
5489;24780034000;24376800000;24876800000
5490;24780035000;24376800000;24876800000
5491;24780036000;24376800000;24876800000
5492;24806636000;24418155555;24918155555
5493;24806640000;24418155555;24918155555
5494;24806641000;24418155555;24918155555
5495;24806642000;24418155555;24918155555
5496;24806643000;24418155555;24918155555
5497;24806644000;24418155555;24918155555
5498;24806645000;24418155555;24918155555
5499;24806872000;24418166666;24918166666
