seqnum;now;rtptime;deadline
1;5032932000;4897266666;5097266666
2;5032935000;4897266666;5097266666
3;5032937000;4897266666;5097266666
4;5032938000;4897266666;5097266666
5;5032940000;4897266666;5097266666
6;5032941000;4897266666;5097266666
7;5032943000;4897266666;5097266666
10;5038788000;4897266666;5097266666
11;5038803000;4929122222;5129122222
12;5038805000;4929122222;5129122222
13;5038806000;4929122222;5129122222
14;5038808000;4929122222;5129122222
15;5038809000;4929122222;5129122222
16;5038810000;4929122222;5129122222
17;5038811000;4929122222;5129122222
18;5038813000;4929122222;5129122222
19;5038814000;4929122222;5129122222
20;5038815000;4929122222;5129122222
21;5070863000;4929122222;5129122222
23;5112589000;4970911111;5170911111
24;5112593000;4970911111;5170911111
25;5112595000;4970911111;5170911111
26;5112597000;4970911111;5170911111
27;5112598000;4970911111;5170911111
28;5112600000;4970911111;5170911111
29;5112601000;4970911111;5170911111
30;5112603000;4970911111;5170911111
31;5112604000;4970911111;5170911111
32;5118872000;4970911111;5170911111
33;5118884000;5012511111;5212511111
34;5118885000;5012511111;5212511111
35;5118887000;5012511111;5212511111
36;5118888000;5012511111;5212511111
37;5118890000;5012511111;5212511111
38;5118891000;5012511111;5212511111
39;5118893000;5012511111;5212511111
40;5118894000;5012511111;5212511111
41;5118895000;5012511111;5212511111
42;5118896000;5012511111;5212511111
44;5196165000;5054177777;5254177777
45;5196169000;5054177777;5254177777
46;5196171000;5054177777;5254177777
47;5196172000;5054177777;5254177777
48;5196173000;5054177777;5254177777
49;5196184000;5054177777;5254177777
50;5196185000;5054177777;5254177777
51;5196187000;5054177777;5254177777
52;5196188000;5054177777;5254177777
53;5196189000;5054177777;5254177777
54;5196203000;5054177777;5254177777
55;5196205000;5095800000;5295800000
56;5196217000;5095800000;5295800000
57;5196218000;5095800000;5295800000
58;5196219000;5095800000;5295800000
59;5196220000;5095800000;5295800000
60;5196221000;5095800000;5295800000
61;5196222000;5095800000;5295800000
64;5237455000;5095800000;5295800000
65;5237549000;5095800000;5295800000
66;5240984000;5137444444;5337444444
67;5240990000;5137444444;5337444444
68;5240996000;5137444444;5337444444
69;5241009000;5137444444;5337444444
70;5241011000;5137444444;5337444444
72;5279084000;5137444444;5337444444
73;5279087000;5137444444;5337444444
74;5279098000;5137444444;5337444444
75;5279099000;5137444444;5337444444
76;5279170000;5137444444;5337444444
77;5279183000;5179166666;5379166666
78;5279185000;5179166666;5379166666
79;5279185000;5179166666;5379166666
81;5320841000;5179166666;5379166666
82;5320844000;5179166666;5379166666
83;5320846000;5179166666;5379166666
84;5320848000;5179166666;5379166666
86;5320849000;5179166666;5379166666
87;5320956000;5179166666;5379166666
88;5320961000;5220766666;5420766666
89;5320963000;5220766666;5420766666
90;5324308000;5220766666;5420766666
91;5324325000;5220766666;5420766666
92;5324328000;5220766666;5420766666
93;5324331000;5220766666;5420766666
94;5324333000;5220766666;5420766666
95;5324336000;5220766666;5420766666
96;5324337000;5220766666;5420766666
97;5324339000;5220766666;5420766666
98;5362411000;5220766666;5420766666
99;5362417000;5262433333;5462433333
100;5365824000;5262433333;5462433333
101;5365827000;5262433333;5462433333
102;5365830000;5262433333;5462433333
103;5365831000;5262433333;5462433333
109;5404155000;5262433333;5462433333
110;5404168000;5304100000;5504100000
111;5404170000;5304100000;5504100000
112;5404170000;5304100000;5504100000
113;5404171000;5304100000;5504100000
114;5404172000;5304100000;5504100000
115;5404173000;5304100000;5504100000
116;5404174000;5304100000;5504100000
117;5404175000;5304100000;5504100000
118;5404176000;5304100000;5504100000
119;5404177000;5304100000;5504100000
120;5445760000;5304100000;5504100000
121;5445766000;5345755555;5545755555
122;5445767000;5345755555;5545755555
123;5445768000;5345755555;5545755555
124;5445769000;5345755555;5545755555
125;5445770000;5345755555;5545755555
126;5445771000;5345755555;5545755555
127;5445772000;5345755555;5545755555
128;5445792000;5345755555;5545755555
129;5445793000;5345755555;5545755555
130;5445793000;5345755555;5545755555
131;5487419000;5345755555;5545755555
132;5487425000;5387477777;5587477777
133;5487426000;5387477777;5587477777
134;5487427000;5387477777;5587477777
135;5487428000;5387477777;5587477777
136;5487429000;5387477777;5587477777
137;5487430000;5387477777;5587477777
138;5487431000;5387477777;5587477777
140;5529324000;5387477777;5587477777
141;5529327000;5387477777;5587477777
142;5529408000;5387477777;5587477777
143;5529421000;5429100000;5629100000
144;5529422000;5429100000;5629100000
145;5529423000;5429100000;5629100000
146;5529424000;5429100000;5629100000
147;5529425000;5429100000;5629100000
148;5529426000;5429100000;5629100000
149;5529427000;5429100000;5629100000
150;5529428000;5429100000;5629100000
151;5529429000;5429100000;5629100000
152;5529430000;5429100000;5629100000
153;5570762000;5429100000;5629100000
154;5570768000;5470777777;5670777777
155;5570769000;5470777777;5670777777
156;5570770000;5470777777;5670777777
157;5570771000;5470777777;5670777777
158;5570772000;5470777777;5670777777
160;5612616000;5470777777;5670777777
161;5612618000;5470777777;5670777777
162;5612619000;5470777777;5670777777
163;5612620000;5470777777;5670777777
164;5615755000;5470777777;5670777777
165;5615769000;5512444444;5712444444
166;5615771000;5512444444;5712444444
167;5615901000;5512444444;5712444444
168;5615910000;5512444444;5712444444
169;5615912000;5512444444;5712444444
170;5615914000;5512444444;5712444444
171;5616189000;5512444444;5712444444
172;5616214000;5512444444;5712444444
173;5616216000;5512444444;5712444444
174;5616232000;5512444444;5712444444
175;5654077000;5512444444;5712444444
176;5654083000;5554133333;5754133333
177;5654084000;5554133333;5754133333
179;5695716000;5554133333;5754133333
180;5695718000;5554133333;5754133333
181;5695719000;5554133333;5754133333
182;5695720000;5554133333;5754133333
183;5695721000;5554133333;5754133333
184;5695722000;5554133333;5754133333
185;5699218000;5554133333;5754133333
186;5699606000;5554133333;5754133333
187;5699619000;5595744444;5795744444
188;5699620000;5595744444;5795744444
189;5699622000;5595744444;5795744444
190;5699622000;5595744444;5795744444
191;5699623000;5595744444;5795744444
192;5699624000;5595744444;5795744444
193;5699625000;5595744444;5795744444
194;5699626000;5595744444;5795744444
195;5699627000;5595744444;5795744444
196;5699628000;5595744444;5795744444
197;5737380000;5595744444;5795744444
198;5737385000;5637388888;5837388888
199;5737386000;5637388888;5837388888
200;5737387000;5637388888;5837388888
201;5737388000;5637388888;5837388888
202;5737389000;5637388888;5837388888
203;5737390000;5637388888;5837388888
204;5737391000;5637388888;5837388888
205;5737392000;5637388888;5837388888
206;5737393000;5637388888;5837388888
208;5779309000;5637388888;5837388888
209;5779323000;5679133333;5879133333
210;5779324000;5679133333;5879133333
211;5782450000;5679133333;5879133333
212;5782453000;5679133333;5879133333
213;5782674000;5679133333;5879133333
214;5782677000;5679133333;5879133333
215;5782681000;5679133333;5879133333
216;5782684000;5679133333;5879133333
217;5782686000;5679133333;5879133333
218;5782688000;5679133333;5879133333
219;5820779000;5679133333;5879133333
220;5820785000;5720788888;5920788888
221;5820786000;5720788888;5920788888
223;5862635000;5720788888;5920788888
224;5862637000;5720788888;5920788888
225;5862638000;5720788888;5920788888
226;5862639000;5720788888;5920788888
227;5862640000;5720788888;5920788888
228;5862641000;5720788888;5920788888
229;5862642000;5720788888;5920788888
230;5862702000;5720788888;5920788888
231;5862706000;5762455555;5962455555
232;5865855000;5762455555;5962455555
233;5865858000;5762455555;5962455555
234;5865861000;5762455555;5962455555
235;5865862000;5762455555;5962455555
241;5904161000;5762455555;5962455555
242;5904175000;5804055555;6004055555
243;5904176000;5804055555;6004055555
244;5907930000;5804055555;6004055555
245;5907943000;5804055555;6004055555
246;5907945000;5804055555;6004055555
247;5907947000;5804055555;6004055555
248;5907949000;5804055555;6004055555
249;5907961000;5804055555;6004055555
250;5907962000;5804055555;6004055555
251;5907963000;5804055555;6004055555
252;5945662000;5804055555;6004055555
253;5945668000;5845777777;6045777777
254;5945669000;5845777777;6045777777
255;5945670000;5845777777;6045777777
257;5987613000;5845777777;6045777777
258;5987625000;5845777777;6045777777
260;5987626000;5845777777;6045777777
261;5987627000;5845777777;6045777777
263;5987687000;5845777777;6045777777
264;5987691000;5887488888;6087488888
265;5987692000;5887488888;6087488888
266;5987693000;5887488888;6087488888
267;5987694000;5887488888;6087488888
268;5987695000;5887488888;6087488888
269;5987696000;5887488888;6087488888
270;5987697000;5887488888;6087488888
271;5987698000;5887488888;6087488888
273;6029107000;5887488888;6087488888
274;6029181000;5887488888;6087488888
275;6029195000;5929088888;6129088888
276;6029196000;5929088888;6129088888
277;6029197000;5929088888;6129088888
278;6029198000;5929088888;6129088888
279;6029199000;5929088888;6129088888
280;6029200000;5929088888;6129088888
281;6029201000;5929088888;6129088888
282;6029202000;5929088888;6129088888
283;6029203000;5929088888;6129088888
284;6074064000;5929088888;6129088888
285;6074140000;5929088888;6129088888
286;6074144000;5970777777;6170777777
287;6074145000;5970777777;6170777777
288;6074146000;5970777777;6170777777
289;6074147000;5970777777;6170777777
290;6074148000;5970777777;6170777777
291;6074149000;5970777777;6170777777
292;6074150000;5970777777;6170777777
293;6074150000;5970777777;6170777777
294;6074151000;5970777777;6170777777
295;6074152000;5970777777;6170777777
296;6112405000;5970777777;6170777777
297;6112410000;6012377777;6212377777
298;6112411000;6012377777;6212377777
299;6112412000;6012377777;6212377777
300;6112413000;6012377777;6212377777
301;6112414000;6012377777;6212377777
302;6112415000;6012377777;6212377777
303;6112416000;6012377777;6212377777
304;6112417000;6012377777;6212377777
305;6112418000;6012377777;6212377777
306;6112419000;6012377777;6212377777
307;6154065000;6012377777;6212377777
308;6154071000;6054100000;6254100000
309;6154072000;6054100000;6254100000
310;6154073000;6054100000;6254100000
311;6154074000;6054100000;6254100000
312;6154075000;6054100000;6254100000
314;6195891000;6054100000;6254100000
315;6195893000;6054100000;6254100000
316;6195894000;6054100000;6254100000
317;6195894000;6054100000;6254100000
318;6195954000;6054100000;6254100000
319;6195958000;6095800000;6295800000
320;6195959000;6095800000;6295800000
321;6195960000;6095800000;6295800000
322;6195961000;6095800000;6295800000
323;6195962000;6095800000;6295800000
324;6195963000;6095800000;6295800000
325;6195964000;6095800000;6295800000
326;6195965000;6095800000;6295800000
327;6195966000;6095800000;6295800000
328;6195967000;6095800000;6295800000
329;6237464000;6095800000;6295800000
330;6237469000;6137577777;6337577777
331;6237470000;6137577777;6337577777
332;6240761000;6137577777;6337577777
333;6240764000;6137577777;6337577777
334;6240766000;6137577777;6337577777
335;6240767000;6137577777;6337577777
338;6279213000;6137577777;6337577777
339;6279215000;6137577777;6337577777
340;6279286000;6137577777;6337577777
341;6279299000;6179100000;6379100000
342;6279300000;6179100000;6379100000
343;6279301000;6179100000;6379100000
344;6279302000;6179100000;6379100000
345;6279303000;6179100000;6379100000
346;6282725000;6179100000;6379100000
347;6282741000;6179100000;6379100000
348;6282744000;6179100000;6379100000
349;6282746000;6179100000;6379100000
350;6282747000;6179100000;6379100000
351;6320757000;6179100000;6379100000
352;6320763000;6220788888;6420788888
354;6362639000;6220788888;6420788888
355;6362653000;6220788888;6420788888
356;6362654000;6220788888;6420788888
357;6362655000;6220788888;6420788888
358;6362656000;6220788888;6420788888
359;6362657000;6220788888;6420788888
360;6362658000;6220788888;6420788888
361;6362658000;6220788888;6420788888
362;6365690000;6220788888;6420788888
363;6365695000;6262388888;6462388888
364;6365821000;6262388888;6462388888
365;6365843000;6262388888;6462388888
366;6365846000;6262388888;6462388888
367;6365855000;6262388888;6462388888
368;6366005000;6262388888;6462388888
369;6366012000;6262388888;6462388888
371;6404016000;6262388888;6462388888
372;6404027000;6262388888;6462388888
373;6404098000;6262388888;6462388888
374;6404111000;6304066666;6504066666
375;6404112000;6304066666;6504066666
376;6404113000;6304066666;6504066666
377;6407773000;6304066666;6504066666
378;6407782000;6304066666;6504066666
379;6407784000;6304066666;6504066666
380;6407786000;6304066666;6504066666
381;6407788000;6304066666;6504066666
382;6407790000;6304066666;6504066666
383;6407791000;6304066666;6504066666
384;6445690000;6304066666;6504066666
385;6445696000;6345744444;6545744444
386;6445697000;6345744444;6545744444
387;6445698000;6345744444;6545744444
388;6445699000;6345744444;6545744444
389;6445700000;6345744444;6545744444
390;6445700000;6345744444;6545744444
391;6445701000;6345744444;6545744444
392;6445702000;6345744444;6545744444
393;6445703000;6345744444;6545744444
394;6445704000;6345744444;6545744444
395;6487459000;6345744444;6545744444
396;6487475000;6387477777;6587477777
397;6487478000;6387477777;6587477777
398;6487479000;6387477777;6587477777
399;6487480000;6387477777;6587477777
400;6487482000;6387477777;6587477777
401;6487483000;6387477777;6587477777
402;6487485000;6387477777;6587477777
403;6487486000;6387477777;6587477777
404;6487496000;6387477777;6587477777
405;6487498000;6387477777;6587477777
406;6529174000;6387477777;6587477777
407;6529192000;6429100000;6629100000
408;6529193000;6429100000;6629100000
409;6529196000;6429100000;6629100000
410;6529197000;6429100000;6629100000
411;6529199000;6429100000;6629100000
412;6529200000;6429100000;6629100000
413;6529201000;6429100000;6629100000
414;6529203000;6429100000;6629100000
415;6529205000;6429100000;6629100000
416;6529206000;6429100000;6629100000
417;6570839000;6429100000;6629100000
418;6570856000;6470788888;6670788888
419;6570857000;6470788888;6670788888
420;6570859000;6470788888;6670788888
421;6570861000;6470788888;6670788888
422;6570862000;6470788888;6670788888
423;6570864000;6470788888;6670788888
424;6570874000;6470788888;6670788888
425;6570875000;6470788888;6670788888
426;6570877000;6470788888;6670788888
427;6570878000;6470788888;6670788888
428;6612505000;6470788888;6670788888
429;6612535000;6512455555;6712455555
435;6654327000;6512455555;6712455555
436;6654331000;6512455555;6712455555
437;6654332000;6512455555;6712455555
438;6654334000;6512455555;6712455555
439;6654448000;6512455555;6712455555
440;6654453000;6554044444;6754044444
441;6654454000;6554044444;6754044444
442;6654455000;6554044444;6754044444
443;6654457000;6554044444;6754044444
444;6654458000;6554044444;6754044444
445;6654460000;6554044444;6754044444
446;6654461000;6554044444;6754044444
447;6654462000;6554044444;6754044444
448;6654463000;6554044444;6754044444
449;6654465000;6554044444;6754044444
450;6695755000;6554044444;6754044444
452;6741349000;6595733333;6795733333
454;6741352000;6595733333;6795733333
455;6741354000;6595733333;6795733333
456;6741357000;6595733333;6795733333
461;6791349000;6595733333;6795733333
470;6791355000;6637411111;6837411111
471;6791356000;6637411111;6837411111
472;6833003000;6637411111;6837411111
474;6866175000;6679100000;6879100000
476;6866177000;6679100000;6879100000
477;6866178000;6679100000;6879100000
478;6866179000;6679100000;6879100000
481;6866404000;6679100000;6879100000
483;6874607000;6679100000;6879100000
489;6874613000;6720833333;6920833333
490;6874614000;6720833333;6920833333
491;6874615000;6720833333;6920833333
492;6874616000;6720833333;6920833333
495;6958105000;6762433333;6962433333
513;6999699000;6804066666;7004066666
528;7085964000;6887422222;7087422222
546;7124745000;6929122222;7129122222
554;7166547000;6970866666;7170866666
565;7207949000;7012488888;7212488888
581;7249534000;7054055555;7254055555
592;7291411000;7095777777;7295777777
603;7333099000;7137466666;7337466666
614;7374698000;7179066666;7379066666
626;7416524000;7220788888;7420788888
637;7458085000;7262455555;7462455555
646;7458091000;7304066666;7504066666
647;7458092000;7304066666;7504066666
648;7499690000;7304066666;7504066666
657;7499707000;7345822222;7545822222
658;7499708000;7345822222;7545822222
659;7541469000;7345822222;7545822222
671;7541475000;7429100000;7629100000
672;7541476000;7429100000;7629100000
673;7541477000;7429100000;7629100000
674;7541478000;7429100000;7629100000
675;7541479000;7429100000;7629100000
676;7541480000;7429100000;7629100000
677;7541481000;7429100000;7629100000
678;7541482000;7429100000;7629100000
681;7624778000;7429100000;7629100000
691;7624784000;7470811111;7670811111
692;7666456000;7470811111;7670811111
704;7666462000;7554122222;7754122222
705;7666463000;7554122222;7754122222
706;7666464000;7554122222;7754122222
707;7666465000;7554122222;7754122222
708;7666466000;7554122222;7754122222
709;7666467000;7554122222;7754122222
710;7666468000;7554122222;7754122222
711;7666469000;7554122222;7754122222
712;7666470000;7554122222;7754122222
713;7666470000;7554122222;7754122222
714;7749963000;7554122222;7754122222
724;7749969000;7595788888;7795788888
725;7791414000;7595788888;7795788888
736;7832897000;7637411111;7837411111
745;7832902000;7679133333;7879133333
746;7832903000;7679133333;7879133333
747;7874779000;7679133333;7879133333
757;7874785000;7720766666;7920766666
758;7916319000;7720766666;7920766666
769;7958078000;7762433333;7962433333
780;7999763000;7804133333;8004133333
791;8041434000;7845788888;8045788888
800;8041439000;7887433333;8087433333
801;8041441000;7887433333;8087433333
802;8083062000;7887433333;8087433333
811;8083068000;7929133333;8129133333
812;8083069000;7929133333;8129133333
813;8124628000;7929133333;8129133333
822;8124634000;7970744444;8170744444
823;8124635000;7970744444;8170744444
824;8166365000;7970744444;8170744444
835;8208120000;8012477777;8212477777
847;8208126000;8095788888;8295788888
848;8208127000;8095788888;8295788888
849;8208128000;8095788888;8295788888
850;8208129000;8095788888;8295788888
851;8208130000;8095788888;8295788888
852;8208131000;8095788888;8295788888
853;8208131000;8095788888;8295788888
856;8241131000;8095788888;8295788888
857;8291446000;8095788888;8295788888
868;8333175000;8137544444;8337544444
878;8333181000;8179144444;8379144444
879;8374788000;8179144444;8379144444
889;8374794000;8220788888;8420788888
890;8416434000;8220788888;8420788888
901;8458029000;8262400000;8462400000
913;8458035000;8345766666;8545766666
914;8458036000;8345766666;8545766666
915;8458037000;8345766666;8545766666
916;8458038000;8345766666;8545766666
917;8458039000;8345766666;8545766666
918;8458040000;8345766666;8545766666
919;8458041000;8345766666;8545766666
920;8458042000;8345766666;8545766666
921;8458042000;8345766666;8545766666
922;8458043000;8345766666;8545766666
923;8541633000;8345766666;8545766666
930;8541639000;8387433333;8587433333
931;8541640000;8387433333;8587433333
932;8541641000;8387433333;8587433333
933;8541642000;8387433333;8587433333
934;8583057000;8387433333;8587433333
945;8624641000;8429122222;8629122222
953;8624647000;8470788888;8670788888
954;8624648000;8470788888;8670788888
955;8624649000;8470788888;8670788888
956;8666371000;8470788888;8670788888
966;8666378000;8512500000;8712500000
967;8708132000;8512500000;8712500000
978;8749755000;8554111111;8754111111
989;8791358000;8595777777;8795777777
1000;8833085000;8637455555;8837455555
1007;8833091000;8679166666;8879166666
1008;8833092000;8679166666;8879166666
1009;8833093000;8679166666;8879166666
1010;8833094000;8679166666;8879166666
1011;8874793000;8679166666;8879166666
1020;8874799000;8720800000;8920800000
1021;8874800000;8720800000;8920800000
1022;8916416000;8720800000;8920800000
1034;8916422000;8804122222;9004122222
1037;8949693000;8804122222;9004122222
1039;8949695000;8804122222;9004122222
1040;8949699000;8804122222;9004122222
1042;8949700000;8804122222;9004122222
1043;8949701000;8804122222;9004122222
1044;8999813000;8804122222;9004122222
1055;9041388000;8845744444;9045744444
1064;9041393000;8887477777;9087477777
1065;9041395000;8887477777;9087477777
1066;9082963000;8887477777;9087477777
1077;9124811000;8929166666;9129166666
1085;9124817000;8970777777;9170777777
1086;9124818000;8970777777;9170777777
1087;9124819000;8970777777;9170777777
1088;9166262000;8970777777;9170777777
1098;9166268000;9012500000;9212500000
1099;9208130000;9012500000;9212500000
1111;9208136000;9095777777;9295777777
1112;9208137000;9095777777;9295777777
1113;9208138000;9095777777;9295777777
1114;9208139000;9095777777;9295777777
1115;9208140000;9095777777;9295777777
1116;9208141000;9095777777;9295777777
1117;9208142000;9095777777;9295777777
1118;9208143000;9095777777;9295777777
1119;9208144000;9095777777;9295777777
1120;9208145000;9095777777;9295777777
1121;9291247000;9095777777;9295777777
1131;9291253000;9137422222;9337422222
1132;9332892000;9137422222;9337422222
1142;9332897000;9179122222;9379122222
1143;9374609000;9179122222;9379122222
1155;9374615000;9262488888;9462488888
1156;9374616000;9262488888;9462488888
1157;9374617000;9262488888;9462488888
1158;9374618000;9262488888;9462488888
1159;9374619000;9262488888;9462488888
1160;9374620000;9262488888;9462488888
1161;9374621000;9262488888;9462488888
1162;9374622000;9262488888;9462488888
1163;9374623000;9262488888;9462488888
1164;9374624000;9262488888;9462488888
1165;9458331000;9262488888;9462488888
1174;9458336000;9304044444;9504044444
1175;9458338000;9304044444;9504044444
1176;9499688000;9304044444;9504044444
1186;9499693000;9345844444;9545844444
1187;9541468000;9345844444;9545844444
1199;9541473000;9429033333;9629033333
1200;9541475000;9429033333;9629033333
1201;9541476000;9429033333;9629033333
1202;9541477000;9429033333;9629033333
1205;9574537000;9429033333;9629033333
1206;9574539000;9429033333;9629033333
1207;9574540000;9429033333;9629033333
1208;9574541000;9429033333;9629033333
1209;9624723000;9429033333;9629033333
1220;9666455000;9470811111;9670811111
1227;9666461000;9512444444;9712444444
1228;9666462000;9512444444;9712444444
1229;9666463000;9512444444;9712444444
1230;9666464000;9512444444;9712444444
1231;9707914000;9512444444;9712444444
1239;9707920000;9554155555;9754155555
1240;9707921000;9554155555;9754155555
1241;9707922000;9554155555;9754155555
1242;9749722000;9554155555;9754155555
1254;9749728000;9637422222;9837422222
1255;9749739000;9637422222;9837422222
1256;9749740000;9637422222;9837422222
1257;9749741000;9637422222;9837422222
1258;9749742000;9637422222;9837422222
1259;9749742000;9637422222;9837422222
1265;9874990000;9679111111;9879111111
1282;9916204000;9720777777;9920777777
1293;9958060000;9762466666;9962466666
1308;9999807000;9804088888;10004088888
1320;9999813000;9887433333;10087433333
1321;9999815000;9887433333;10087433333
1322;9999815000;9887433333;10087433333
1323;9999817000;9887433333;10087433333
1324;9999818000;9887433333;10087433333
1325;9999818000;9887433333;10087433333
1326;9999819000;9887433333;10087433333
1327;9999820000;9887433333;10087433333
1328;9999821000;9887433333;10087433333
1329;9999822000;9887433333;10087433333
1330;10083227000;9887433333;10087433333
1338;10083233000;9929166666;10129166666
1339;10083234000;9929166666;10129166666
1340;10083235000;9929166666;10129166666
1341;10124759000;9929166666;10129166666
1349;10124765000;9970833333;10170833333
1352;10166303000;9970833333;10170833333
1363;10208094000;10012466666;10212466666
1373;10208100000;10054100000;10254100000
1374;10249729000;10054100000;10254100000
1385;10291449000;10095822222;10295822222
1396;10333074000;10137444444;10337444444
1407;10374613000;10179133333;10379133333
1415;10374618000;10220777777;10420777777
1416;10374620000;10220777777;10420777777
1417;10374621000;10220777777;10420777777
1418;10416420000;10220777777;10420777777
1430;10416426000;10304088888;10504088888
1431;10416427000;10304088888;10504088888
1432;10416428000;10304088888;10504088888
1433;10416429000;10304088888;10504088888
1434;10416430000;10304088888;10504088888
1435;10416431000;10304088888;10504088888
1436;10416432000;10304088888;10504088888
1437;10416432000;10304088888;10504088888
1438;10416433000;10304088888;10504088888
1439;10416434000;10304088888;10504088888
1440;10499930000;10304088888;10504088888
1450;10499936000;10345744444;10545744444
1451;10541390000;10345744444;10545744444
1463;10541396000;10429122222;10629122222
1464;10541397000;10429122222;10629122222
1465;10541406000;10429122222;10629122222
1466;10541407000;10429122222;10629122222
1467;10541408000;10429122222;10629122222
1468;10541409000;10429122222;10629122222
1469;10541409000;10429122222;10629122222
1470;10541410000;10429122222;10629122222
1471;10541411000;10429122222;10629122222
1472;10541412000;10429122222;10629122222
1473;10624594000;10429122222;10629122222
1481;10624600000;10470777777;10670777777
1482;10624602000;10470777777;10670777777
1483;10624602000;10470777777;10670777777
1484;10666409000;10470777777;10670777777
1490;10666414000;10512533333;10712533333
1491;10666416000;10512533333;10712533333
1492;10666417000;10512533333;10712533333
1493;10666418000;10512533333;10712533333
1494;10666419000;10512533333;10712533333
1495;10708158000;10512533333;10712533333
1507;10708164000;10595766666;10795766666
1508;10708165000;10595766666;10795766666
1509;10708166000;10595766666;10795766666
1510;10708167000;10595766666;10795766666
1511;10708168000;10595766666;10795766666
1512;10708169000;10595766666;10795766666
1513;10708170000;10595766666;10795766666
1514;10708170000;10595766666;10795766666
1517;10791465000;10595766666;10795766666
1528;10833042000;10637411111;10837411111
1538;10833048000;10679088888;10879088888
1539;10874730000;10679088888;10879088888
1549;10874736000;10720788888;10920788888
1550;10916259000;10720788888;10920788888
1560;10916265000;10762411111;10962411111
1561;10958055000;10762411111;10962411111
1571;10958061000;10804044444;11004044444
1572;10999688000;10804044444;11004044444
1581;10999694000;10845766666;11045766666
1582;10999695000;10845766666;11045766666
1583;11041382000;10845766666;11045766666
1593;11041389000;10887455555;11087455555
1594;11082909000;10887455555;11087455555
1602;11082915000;10929133333;11129133333
1603;11082916000;10929133333;11129133333
1604;11082917000;10929133333;11129133333
1605;11124764000;10929133333;11129133333
1615;11124770000;10970822222;11170822222
1616;11166467000;10970822222;11170822222
1622;11166473000;11012411111;11212411111
1626;11199282000;11012411111;11212411111
1628;11249526000;11054044444;11254044444
1649;11291523000;11095800000;11295800000
1660;11333068000;11137444444;11337444444
1668;11333074000;11179144444;11379144444
1669;11333075000;11179144444;11379144444
1670;11333076000;11179144444;11379144444
1671;11374790000;11179144444;11379144444
1680;11374796000;11220822222;11420822222
1681;11374797000;11220822222;11420822222
1682;11416465000;11220822222;11420822222
1691;11416471000;11262444444;11462444444
1692;11416473000;11262444444;11462444444
1693;11458059000;11262444444;11462444444
1705;11458066000;11345755555;11545755555
1706;11458067000;11345755555;11545755555
1707;11458068000;11345755555;11545755555
1708;11458069000;11345755555;11545755555
1709;11458070000;11345755555;11545755555
1710;11458071000;11345755555;11545755555
1711;11458072000;11345755555;11545755555
1712;11458073000;11345755555;11545755555
1713;11490440000;11345755555;11545755555
1714;11490443000;11345755555;11545755555
1715;11541446000;11345755555;11545755555
1725;11541452000;11387444444;11587444444
1726;11583068000;11387444444;11587444444
1737;11624752000;11429122222;11629122222
1748;11666430000;11470800000;11670800000
1756;11666436000;11512466666;11712466666
1757;11666437000;11512466666;11712466666
1758;11666438000;11512466666;11712466666
1759;11708111000;11512466666;11712466666
1771;11708117000;11595755555;11795755555
1772;11708118000;11595755555;11795755555
1773;11708119000;11595755555;11795755555
1774;11708120000;11595755555;11795755555
1775;11708121000;11595755555;11795755555
1776;11708122000;11595755555;11795755555
1777;11708122000;11595755555;11795755555
1778;11708123000;11595755555;11795755555
1781;11791433000;11595755555;11795755555
1790;11791439000;11637433333;11837433333
1791;11791440000;11637433333;11837433333
1792;11833078000;11637433333;11837433333
1803;11874762000;11679133333;11879133333
1815;11874768000;11762466666;11962466666
1816;11874769000;11762466666;11962466666
1817;11874770000;11762466666;11962466666
1818;11874771000;11762466666;11962466666
1819;11874772000;11762466666;11962466666
1820;11874780000;11762466666;11962466666
1821;11874781000;11762466666;11962466666
1822;11874782000;11762466666;11962466666
1823;11874783000;11762466666;11962466666
1824;11874784000;11762466666;11962466666
1825;11958309000;11762466666;11962466666
1837;11958315000;11845844444;12045844444
1838;11958316000;11845844444;12045844444
1839;11958317000;11845844444;12045844444
1840;11958318000;11845844444;12045844444
1841;11958319000;11845844444;12045844444
1842;11958320000;11845844444;12045844444
1843;11958321000;11845844444;12045844444
1846;11991136000;11845844444;12045844444
1847;12041529000;11845844444;12045844444
1858;12083065000;11887422222;12087422222
1869;12124739000;11929111111;12129111111
1880;12166404000;11970777777;12170777777
1890;12166410000;12012400000;12212400000
1891;12207866000;12012400000;12212400000
1899;12207872000;12054100000;12254100000
1900;12207873000;12054100000;12254100000
1901;12207874000;12054100000;12254100000
1902;12249722000;12054100000;12254100000
1912;12249728000;12095766666;12295766666
1913;12291250000;12095766666;12295766666
1923;12291256000;12137422222;12337422222
1926;12374813000;12179122222;12379122222
1947;12458292000;12262433333;12462433333
1968;12499792000;12304055555;12504055555
1980;12499808000;12387477777;12587477777
1981;12499809000;12387477777;12587477777
1982;12499810000;12387477777;12587477777
1983;12499811000;12387477777;12587477777
1984;12499812000;12387477777;12587477777
1985;12499813000;12387477777;12587477777
1986;12499814000;12387477777;12587477777
1987;12499814000;12387477777;12587477777
1988;12499815000;12387477777;12587477777
1989;12499816000;12387477777;12587477777
1990;12583336000;12387477777;12587477777
2001;12624788000;12429144444;12629144444
2011;12624793000;12470777777;12670777777
2012;12666406000;12470777777;12670777777
2021;12666412000;12512466666;12712466666
2022;12666413000;12512466666;12712466666
2023;12707936000;12512466666;12712466666
2033;12707942000;12554055555;12754055555
2034;12749538000;12554055555;12754055555
2043;12749543000;12595777777;12795777777
2044;12749545000;12595777777;12795777777
2045;12791422000;12595777777;12795777777
2050;12791428000;12637477777;12837477777
2051;12791429000;12637477777;12837477777
2052;12791430000;12637477777;12837477777
2055;12823818000;12637477777;12837477777
2056;12832944000;12637477777;12837477777
2066;12832950000;12679044444;12879044444
2067;12874657000;12679044444;12879044444
2079;12874663000;12762455555;12962455555
2080;12874665000;12762455555;12962455555
2081;12874666000;12762455555;12962455555
2082;12874667000;12762455555;12962455555
2083;12874668000;12762455555;12962455555
2084;12874669000;12762455555;12962455555
2087;12907824000;12762455555;12962455555
2088;12907835000;12762455555;12962455555
2089;12958135000;12762455555;12962455555
2097;12958141000;12804055555;13004055555
2098;12958143000;12804055555;13004055555
2099;12958143000;12804055555;13004055555
2100;12999532000;12804055555;13004055555
2109;12999547000;12845844444;13045844444
2110;12999548000;12845844444;13045844444
2111;13041328000;12845844444;13045844444
2121;13041334000;12887488888;13087488888
2122;13083132000;12887488888;13087488888
2133;13124785000;12929155555;13129155555
2141;13124791000;12970777777;13170777777
2142;13124792000;12970777777;13170777777
2143;13124793000;12970777777;13170777777
2144;13166424000;12970777777;13170777777
2154;13166430000;13012444444;13212444444
2155;13208089000;13012444444;13212444444
2166;13249751000;13054122222;13254122222
2179;13282804000;13137500000;13337500000
2180;13282816000;13137500000;13337500000
2181;13282817000;13137500000;13337500000
2182;13282818000;13137500000;13337500000
2183;13282819000;13137500000;13337500000
2184;13282820000;13137500000;13337500000
2185;13282820000;13137500000;13337500000
2186;13282821000;13137500000;13337500000
2187;13282822000;13137500000;13337500000
2188;13333189000;13137500000;13337500000
2198;13333195000;13179144444;13379144444
2199;13374629000;13179144444;13379144444
2207;13374635000;13220844444;13420844444
2208;13374636000;13220844444;13420844444
2209;13374637000;13220844444;13420844444
2210;13416313000;13220844444;13420844444
2221;13457943000;13262466666;13462466666
2234;13491164000;13345844444;13545844444
2235;13491166000;13345844444;13545844444
2236;13491167000;13345844444;13545844444
2237;13491168000;13345844444;13545844444
2238;13491169000;13345844444;13545844444
2239;13491170000;13345844444;13545844444
2240;13491171000;13345844444;13545844444
2241;13491172000;13345844444;13545844444
2242;13491173000;13345844444;13545844444
2243;13541504000;13345844444;13545844444
2253;13541510000;13387444444;13587444444
2254;13583073000;13387444444;13587444444
2265;13624777000;13429133333;13629133333
2276;13666303000;13470800000;13670800000
2285;13666308000;13512466666;13712466666
2286;13666310000;13512466666;13712466666
2287;13707951000;13512466666;13712466666
2295;13707957000;13554177777;13754177777
2296;13707958000;13554177777;13754177777
2297;13707959000;13554177777;13754177777
2298;13749825000;13554177777;13754177777
2307;13749831000;13595777777;13795777777
2308;13749832000;13595777777;13795777777
2311;13833108000;13637433333;13837433333
2332;13916644000;13720800000;13920800000
2349;13958076000;13762444444;13962444444
2358;13999769000;13804122222;14004122222
2372;14041449000;13845788888;14045788888
2379;14083205000;13887544444;14087544444
2391;14124771000;13929111111;14129111111
2408;14166537000;13970811111;14170811111
2420;14166543000;14054122222;14254122222
2421;14166544000;14054122222;14254122222
2422;14166545000;14054122222;14254122222
2423;14166546000;14054122222;14254122222
2424;14166547000;14054122222;14254122222
2425;14166548000;14054122222;14254122222
2426;14166549000;14054122222;14254122222
2427;14166550000;14054122222;14254122222
2428;14166551000;14054122222;14254122222
2429;14166552000;14054122222;14254122222
2430;14249594000;14054122222;14254122222
2441;14291404000;14095777777;14295777777
2452;14333068000;14137422222;14337422222
2462;14333074000;14179144444;14379144444
2463;14374768000;14179144444;14379144444
2471;14374774000;14220788888;14420788888
2472;14374776000;14220788888;14420788888
2473;14374777000;14220788888;14420788888
2474;14416433000;14220788888;14420788888
2483;14416439000;14262466666;14462466666
2484;14416440000;14262466666;14462466666
2485;14458096000;14262466666;14462466666
2492;14458102000;14304100000;14504100000
2493;14458103000;14304100000;14504100000
2494;14458104000;14304100000;14504100000
2495;14458105000;14304100000;14504100000
2496;14499729000;14304100000;14504100000
2506;14499734000;14345811111;14545811111
2507;14541456000;14345811111;14545811111
2518;14583089000;14387444444;14587444444
2530;14583094000;14470833333;14670833333
2531;14583095000;14470833333;14670833333
2532;14583096000;14470833333;14670833333
2533;14583097000;14470833333;14670833333
2534;14583099000;14470833333;14670833333
2535;14583099000;14470833333;14670833333
2536;14583100000;14470833333;14670833333
2537;14583101000;14470833333;14670833333
2538;14583102000;14470833333;14670833333
2539;14583103000;14470833333;14670833333
2540;14666676000;14470833333;14670833333
2550;14666681000;14512511111;14712511111
2551;14708141000;14512511111;14712511111
2561;14708147000;14554233333;14754233333
2562;14749874000;14554233333;14754233333
2570;14749879000;14595788888;14795788888
2571;14749881000;14595788888;14795788888
2572;14749882000;14595788888;14795788888
2573;14791404000;14595788888;14795788888
2584;14833098000;14637455555;14837455555
2593;14833104000;14679088888;14879088888
2594;14833105000;14679088888;14879088888
2595;14874731000;14679088888;14879088888
2606;14916438000;14720800000;14920800000
2616;14949471000;14762500000;14962500000
2617;14957985000;14762500000;14962500000
2627;14957991000;14804122222;15004122222
2628;14999752000;14804122222;15004122222
2639;15041422000;14845777777;15045777777
2651;15041428000;14929122222;15129122222
2652;15041429000;14929122222;15129122222
2653;15041430000;14929122222;15129122222
2654;15041431000;14929122222;15129122222
2655;15041432000;14929122222;15129122222
2656;15041433000;14929122222;15129122222
2657;15041434000;14929122222;15129122222
2658;15041435000;14929122222;15129122222
2659;15041445000;14929122222;15129122222
2660;15041446000;14929122222;15129122222
2661;15124991000;14929122222;15129122222
2673;15124997000;15012444444;15212444444
2674;15124998000;15012444444;15212444444
2675;15124999000;15012444444;15212444444
2676;15125000000;15012444444;15212444444
2677;15125001000;15012444444;15212444444
2678;15125002000;15012444444;15212444444
2679;15125003000;15012444444;15212444444
2680;15125004000;15012444444;15212444444
2681;15125005000;15012444444;15212444444
2682;15125006000;15012444444;15212444444
2683;15208286000;15012444444;15212444444
2693;15208292000;15054100000;15254100000
2694;15249593000;15054100000;15254100000
2702;15249599000;15095766666;15295766666
2703;15249600000;15095766666;15295766666
2704;15249601000;15095766666;15295766666
2705;15291245000;15095766666;15295766666
2715;15291251000;15137455555;15337455555
2716;15332926000;15137455555;15337455555
2724;15332932000;15179133333;15379133333
2725;15332933000;15179133333;15379133333
2726;15332934000;15179133333;15379133333
2727;15374613000;15179133333;15379133333
2735;15374619000;15220744444;15420744444
2736;15374620000;15220744444;15420744444
2737;15374621000;15220744444;15420744444
2738;15416200000;15220744444;15420744444
2749;15458041000;15262411111;15462411111
2759;15458047000;15304044444;15504044444
2760;15499688000;15304044444;15504044444
2771;15541412000;15345766666;15545766666
2782;15583084000;15387455555;15587455555
2793;15624696000;15429066666;15629066666
2802;15624711000;15470766666;15670766666
2803;15624712000;15470766666;15670766666
2804;15666411000;15470766666;15670766666
2815;15708040000;15512411111;15712411111
2826;15749753000;15554122222;15754122222
2836;15749758000;15595755555;15795755555
2837;15791399000;15595755555;15795755555
2847;15791404000;15637400000;15837400000
2848;15833027000;15637400000;15837400000
2858;15833033000;15679100000;15879100000
2859;15874744000;15679100000;15879100000
2870;15916428000;15720800000;15920800000
2877;15916443000;15762433333;15962433333
2878;15916445000;15762433333;15962433333
2879;15916446000;15762433333;15962433333
2880;15916447000;15762433333;15962433333
2881;15957906000;15762433333;15962433333
2890;15957921000;15804066666;16004066666
2891;15957922000;15804066666;16004066666
2892;15999711000;15804066666;16004066666
2904;15999717000;15887400000;16087400000
2905;15999718000;15887400000;16087400000
2906;15999719000;15887400000;16087400000
2907;15999720000;15887400000;16087400000
2908;15999721000;15887400000;16087400000
2909;15999722000;15887400000;16087400000
2910;15999723000;15887400000;16087400000
2911;15999724000;15887400000;16087400000
2912;15999725000;15887400000;16087400000
2913;15999726000;15887400000;16087400000
2914;16083256000;15887400000;16087400000
2923;16083262000;15929055555;16129055555
2924;16083263000;15929055555;16129055555
2925;16124666000;15929055555;16129055555
2936;16166401000;15970766666;16170766666
2947;16208093000;16012433333;16212433333
2956;16208099000;16054055555;16254055555
2957;16208100000;16054055555;16254055555
2958;16249699000;16054055555;16254055555
2970;16249705000;16137433333;16337433333
2971;16249706000;16137433333;16337433333
2972;16249707000;16137433333;16337433333
2973;16249708000;16137433333;16337433333
2974;16249709000;16137433333;16337433333
2975;16249710000;16137433333;16337433333
2979;16282816000;16137433333;16337433333
2980;16333129000;16137433333;16337433333
2988;16333135000;16179122222;16379122222
2989;16333136000;16179122222;16379122222
2990;16333137000;16179122222;16379122222
2991;16374583000;16179122222;16379122222
3001;16374589000;16220766666;16420766666
3002;16416398000;16220766666;16420766666
3014;16416413000;16304066666;16504066666
3015;16416414000;16304066666;16504066666
3016;16416415000;16304066666;16504066666
3017;16416416000;16304066666;16504066666
3018;16416417000;16304066666;16504066666
3019;16416418000;16304066666;16504066666
3020;16416419000;16304066666;16504066666
3021;16416420000;16304066666;16504066666
3022;16416421000;16304066666;16504066666
3023;16416422000;16304066666;16504066666
3024;16499538000;16304066666;16504066666
3035;16541378000;16345744444;16545744444
3042;16541393000;16387500000;16587500000
3043;16541394000;16387500000;16587500000
3044;16541395000;16387500000;16587500000
3045;16541396000;16387500000;16587500000
3046;16582973000;16387500000;16587500000
3051;16582988000;16429111111;16629111111
3052;16582989000;16429111111;16629111111
3053;16582990000;16429111111;16629111111
3054;16582991000;16429111111;16629111111
3055;16582991000;16429111111;16629111111
3056;16582992000;16429111111;16629111111
3057;16624602000;16429111111;16629111111
3068;16666406000;16470788888;16670788888
3080;16666412000;16554144444;16754144444
3081;16666413000;16554144444;16754144444
3082;16666414000;16554144444;16754144444
3083;16666415000;16554144444;16754144444
3084;16666416000;16554144444;16754144444
3085;16666417000;16554144444;16754144444
3086;16666418000;16554144444;16754144444
3087;16666419000;16554144444;16754144444
3088;16666420000;16554144444;16754144444
3089;16666421000;16554144444;16754144444
3090;16750000000;16554144444;16754144444
3100;16750006000;16595744444;16795744444
3101;16791373000;16595744444;16795744444
3107;16791388000;16637466666;16837466666
3110;16824215000;16637466666;16837466666
3112;16832881000;16637466666;16837466666
3122;16832897000;16679188888;16879188888
3123;16874756000;16679188888;16879188888
3135;16874771000;16762477777;16962477777
3136;16874773000;16762477777;16962477777
3137;16874773000;16762477777;16962477777
3138;16874775000;16762477777;16962477777
3139;16874775000;16762477777;16962477777
3140;16874776000;16762477777;16962477777
3141;16874777000;16762477777;16962477777
3142;16874778000;16762477777;16962477777
3143;16874779000;16762477777;16962477777
3144;16874780000;16762477777;16962477777
3145;16958257000;16762477777;16962477777
3155;16958272000;16804044444;17004044444
3156;16999625000;16804044444;17004044444
3168;16999631000;16887433333;17087433333
3169;16999641000;16887433333;17087433333
3170;16999643000;16887433333;17087433333
3171;16999643000;16887433333;17087433333
3172;16999644000;16887433333;17087433333
3173;16999645000;16887433333;17087433333
3174;16999646000;16887433333;17087433333
3175;16999647000;16887433333;17087433333
3176;16999648000;16887433333;17087433333
3177;16999649000;16887433333;17087433333
3178;17083268000;16887433333;17087433333
3187;17083274000;16929200000;17129200000
3188;17083275000;16929200000;17129200000
3189;17124670000;16929200000;17129200000
3200;17166433000;16970788888;17170788888
3212;17166438000;17054088888;17254088888
3213;17166440000;17054088888;17254088888
3214;17166440000;17054088888;17254088888
3217;17199478000;17054088888;17254088888
3218;17199480000;17054088888;17254088888
3219;17199481000;17054088888;17254088888
3220;17199482000;17054088888;17254088888
3221;17199483000;17054088888;17254088888
3222;17249738000;17054088888;17254088888
3232;17249744000;17095877777;17295877777
3233;17291506000;17095877777;17295877777
3245;17291521000;17179200000;17379200000
3246;17291522000;17179200000;17379200000
3247;17291523000;17179200000;17379200000
3248;17291524000;17179200000;17379200000
3249;17291525000;17179200000;17379200000
3250;17291526000;17179200000;17379200000
3251;17291527000;17179200000;17379200000
3252;17291528000;17179200000;17379200000
3253;17291529000;17179200000;17379200000
3254;17291530000;17179200000;17379200000
3255;17374890000;17179200000;17379200000
3266;17416390000;17220766666;17420766666
3275;17416396000;17262466666;17462466666
3276;17416397000;17262466666;17462466666
3277;17457934000;17262466666;17462466666
3288;17499663000;17304033333;17504033333
3299;17541431000;17345788888;17545788888
3310;17583037000;17387455555;17587455555
3319;17583053000;17429088888;17629088888
3320;17583054000;17429088888;17629088888
3321;17624529000;17429088888;17629088888
3331;17624535000;17470800000;17670800000
3332;17666269000;17470800000;17670800000
3341;17666275000;17512477777;17712477777
3342;17666276000;17512477777;17712477777
3343;17708062000;17512477777;17712477777
3354;17749651000;17554088888;17754088888
3366;17749667000;17637622222;17837622222
3367;17749668000;17637622222;17837622222
3368;17749676000;17637622222;17837622222
3369;17749677000;17637622222;17837622222
3370;17749678000;17637622222;17837622222
3371;17749679000;17637622222;17837622222
3372;17749679000;17637622222;17837622222
3373;17749680000;17637622222;17837622222
3374;17749681000;17637622222;17837622222
3375;17749682000;17637622222;17837622222
3376;17833473000;17637622222;17837622222
3385;17833479000;17679133333;17879133333
3386;17833480000;17679133333;17879133333
3387;17874557000;17679133333;17879133333
3396;17874563000;17720788888;17920788888
3397;17874574000;17720788888;17920788888
3398;17916258000;17720788888;17920788888
3408;17916264000;17762488888;17962488888
3409;17957959000;17762488888;17962488888
3420;17999757000;17804111111;18004111111
3431;18041430000;17845788888;18045788888
3442;18083075000;17887444444;18087444444
3452;18083080000;17929255555;18129255555
3453;18124888000;17929255555;18129255555
3461;18124894000;17970811111;18170811111
3462;18124895000;17970811111;18170811111
3463;18124896000;17970811111;18170811111
3464;18166282000;17970811111;18170811111
3474;18166287000;18012455555;18212455555
3475;18208103000;18012455555;18212455555
3485;18208109000;18054122222;18254122222
3486;18249765000;18054122222;18254122222
3497;18291448000;18095788888;18295788888
3509;18291454000;18179144444;18379144444
3510;18291456000;18179144444;18379144444
3511;18291457000;18179144444;18379144444
3512;18291457000;18179144444;18379144444
3513;18291458000;18179144444;18379144444
3514;18291459000;18179144444;18379144444
3515;18291460000;18179144444;18379144444
3516;18291461000;18179144444;18379144444
3517;18291462000;18179144444;18379144444
3518;18291463000;18179144444;18379144444
3519;18374617000;18179144444;18379144444
3528;18374623000;18220800000;18420800000
3529;18374624000;18220800000;18420800000
3530;18416425000;18220800000;18420800000
3541;18458083000;18262455555;18462455555
3552;18499708000;18304077777;18504077777
3564;18499714000;18387622222;18587622222
3565;18499715000;18387622222;18587622222
3566;18499716000;18387622222;18587622222
3567;18499717000;18387622222;18587622222
3568;18499718000;18387622222;18587622222
3569;18499719000;18387622222;18587622222
3570;18499720000;18387622222;18587622222
3571;18499720000;18387622222;18587622222
3572;18499721000;18387622222;18587622222
3573;18499722000;18387622222;18587622222
3574;18583473000;18387622222;18587622222
3585;18624710000;18429088888;18629088888
3596;18666630000;18471000000;18671000000
3607;18708123000;18512477777;18712477777
3616;18708129000;18554111111;18754111111
3617;18708130000;18554111111;18754111111
3618;18749737000;18554111111;18754111111
3629;18791211000;18595788888;18795788888
3640;18833057000;18637411111;18837411111
3650;18833063000;18679133333;18879133333
3651;18874716000;18679133333;18879133333
3661;18874731000;18720766666;18920766666
3662;18916252000;18720766666;18920766666
3673;18958031000;18762466666;18962466666
3682;18958037000;18804100000;19004100000
3683;18958048000;18804100000;19004100000
3684;18999729000;18804100000;19004100000
3694;18999735000;18845811111;19045811111
3695;19041453000;18845811111;19045811111
3707;19041459000;18929133333;19129133333
3708;19041460000;18929133333;19129133333
3709;19041461000;18929133333;19129133333
3710;19041462000;18929133333;19129133333
3711;19041463000;18929133333;19129133333
3712;19041464000;18929133333;19129133333
3713;19041464000;18929133333;19129133333
3714;19041465000;18929133333;19129133333
3715;19041466000;18929133333;19129133333
3716;19041467000;18929133333;19129133333
3717;19124969000;18929133333;19129133333
3727;19124974000;18970800000;19170800000
3728;19166425000;18970800000;19170800000
3739;19208134000;19012488888;19212488888
3750;19249682000;19054055555;19254055555
3761;19291462000;19095833333;19295833333
3772;19333079000;19137433333;19337433333
3782;19333084000;19179188888;19379188888
3783;19374811000;19179188888;19379188888
3793;19374827000;19220777777;19420777777
3794;19416421000;19220777777;19420777777
3806;19416427000;19304044444;19504044444
3807;19416428000;19304044444;19504044444
3808;19416429000;19304044444;19504044444
3809;19416437000;19304044444;19504044444
3810;19416438000;19304044444;19504044444
3811;19416439000;19304044444;19504044444
3812;19416440000;19304044444;19504044444
3813;19416441000;19304044444;19504044444
3814;19416441000;19304044444;19504044444
3815;19416442000;19304044444;19504044444
3816;19499899000;19304044444;19504044444
3824;19499905000;19345788888;19545788888
3825;19499906000;19345788888;19545788888
3826;19499907000;19345788888;19545788888
3827;19541257000;19345788888;19545788888
3838;19583114000;19387488888;19587488888
3849;19624853000;19429222222;19629222222
3858;19624859000;19470777777;19670777777
3859;19624860000;19470777777;19670777777
3860;19666421000;19470777777;19670777777
3870;19666427000;19512455555;19712455555
3871;19708100000;19512455555;19712455555
3883;19708105000;19595788888;19795788888
3884;19708107000;19595788888;19795788888
3885;19708108000;19595788888;19795788888
3886;19708109000;19595788888;19795788888
3887;19708110000;19595788888;19795788888
3888;19708110000;19595788888;19795788888
3889;19708111000;19595788888;19795788888
3890;19708112000;19595788888;19795788888
3893;19791469000;19595788888;19795788888
3903;19791475000;19637444444;19837444444
3904;19833089000;19637444444;19837444444
3915;19874821000;19679177777;19879177777
3927;19874826000;19762477777;19962477777
3928;19874828000;19762477777;19962477777
3929;19874829000;19762477777;19962477777
3930;19874830000;19762477777;19962477777
3931;19874831000;19762477777;19962477777
3932;19874831000;19762477777;19962477777
3933;19874832000;19762477777;19962477777
3934;19874833000;19762477777;19962477777
3935;19874834000;19762477777;19962477777
3936;19874835000;19762477777;19962477777
3937;19958327000;19762477777;19962477777
3947;19958333000;19804111111;20004111111
3948;19999753000;19804111111;20004111111
3956;19999759000;19845777777;20045777777
3960;20083146000;19887466666;20087466666
3977;20124877000;19929244444;20129244444
3991;20166449000;19970788888;20170788888
4002;20208102000;20012433333;20212433333
4010;20249767000;20054122222;20254122222
4023;20291399000;20095755555;20295755555
4034;20333077000;20137444444;20337444444
4043;20374766000;20179133333;20379133333
4057;20416399000;20220766666;20420766666
4070;20499865000;20304022222;20504022222
4089;20541390000;20345744444;20545744444
4098;20582988000;20387500000;20587500000
4112;20624595000;20429100000;20629100000
4123;20666398000;20470766666;20670766666
4134;20707906000;20512433333;20712433333
4146;20749944000;20554222222;20754222222
4155;20749960000;20595777777;20795777777
4156;20749961000;20595777777;20795777777
4157;20791242000;20595777777;20795777777
4168;20833080000;20637433333;20837433333
4179;20874746000;20679122222;20879122222
4189;20874752000;20720800000;20920800000
4190;20916444000;20720800000;20920800000
4201;20958228000;20762600000;20962600000
4209;20958234000;20804277777;21004277777
4210;20958235000;20804277777;21004277777
4211;20958236000;20804277777;21004277777
4212;20999907000;20804277777;21004277777
4222;20999913000;20845777777;21045777777
4223;21041402000;20845777777;21045777777
4231;21041408000;20887466666;21087466666
4232;21041409000;20887466666;21087466666
4233;21041410000;20887466666;21087466666
4234;21083133000;20887466666;21087466666
4246;21083139000;20970822222;21170822222
4247;21083140000;20970822222;21170822222
4248;21083141000;20970822222;21170822222
4249;21083142000;20970822222;21170822222
4250;21083143000;20970822222;21170822222
4251;21083144000;20970822222;21170822222
4252;21083145000;20970822222;21170822222
4256;21166433000;20970822222;21170822222
4266;21166449000;21012511111;21212511111
4267;21208072000;21012511111;21212511111
4277;21208077000;21054066666;21254066666
4278;21249708000;21054066666;21254066666
4286;21249714000;21095811111;21295811111
4287;21249715000;21095811111;21295811111
4288;21249716000;21095811111;21295811111
4289;21291295000;21095811111;21295811111
4298;21291301000;21137522222;21337522222
4299;21291302000;21137522222;21337522222
4300;21333168000;21137522222;21337522222
4311;21374750000;21179122222;21379122222
4322;21416421000;21220777777;21420777777
4332;21416434000;21262444444;21462444444
4333;21458087000;21262444444;21462444444
4343;21458093000;21304111111;21504111111
4344;21499758000;21304111111;21504111111
4353;21499764000;21345866666;21545866666
4354;21499765000;21345866666;21545866666
4355;21541508000;21345866666;21545866666
4364;21541522000;21387566666;21587566666
4365;21541524000;21387566666;21587566666
4366;21583211000;21387566666;21587566666
4377;21624853000;21429211111;21629211111
4387;21624859000;21470800000;21670800000
4388;21666442000;21470800000;21670800000
4398;21666448000;21512455555;21712455555
4399;21707923000;21512455555;21712455555
4409;21707928000;21554200000;21754200000
4410;21749828000;21554200000;21754200000
4422;21749834000;21637455555;21837455555
4423;21749835000;21637455555;21837455555
4424;21749836000;21637455555;21837455555
4425;21749837000;21637455555;21837455555
4426;21749837000;21637455555;21837455555
4427;21749838000;21637455555;21837455555
4430;21782833000;21637455555;21837455555
4431;21782835000;21637455555;21837455555
4432;21833151000;21637455555;21837455555
4441;21833157000;21679100000;21879100000
4442;21833158000;21679100000;21879100000
4443;21874728000;21679100000;21879100000
4454;21916495000;21720844444;21920844444
4461;21916501000;21762533333;21962533333
4462;21916502000;21762533333;21962533333
4463;21916503000;21762533333;21962533333
4464;21916504000;21762533333;21962533333
4465;21957998000;21762533333;21962533333
4474;21958004000;21804100000;22004100000
4475;21958006000;21804100000;22004100000
4476;21999684000;21804100000;22004100000
4488;21999690000;21887422222;22087422222
4489;21999691000;21887422222;22087422222
4490;21999692000;21887422222;22087422222
4491;21999693000;21887422222;22087422222
4492;21999694000;21887422222;22087422222
4493;21999695000;21887422222;22087422222
4494;21999696000;21887422222;22087422222
4495;21999697000;21887422222;22087422222
4496;21999698000;21887422222;22087422222
4497;21999699000;21887422222;22087422222
4498;22083262000;21887422222;22087422222
4508;22083267000;21929200000;22129200000
4509;22124825000;21929200000;22129200000
4521;22124831000;22012444444;22212444444
4522;22124832000;22012444444;22212444444
4523;22124833000;22012444444;22212444444
4524;22124834000;22012444444;22212444444
4525;22124835000;22012444444;22212444444
4526;22124836000;22012444444;22212444444
4527;22124837000;22012444444;22212444444
4528;22124837000;22012444444;22212444444
4529;22124838000;22012444444;22212444444
4530;22124839000;22012444444;22212444444
4531;22208285000;22012444444;22212444444
4541;22208291000;22054022222;22254022222
4542;22249663000;22054022222;22254022222
4552;22249669000;22095766666;22295766666
4553;22291392000;22095766666;22295766666
4562;22291398000;22137544444;22337544444
4563;22291399000;22137544444;22337544444
4564;22333175000;22137544444;22337544444
4575;22374694000;22179066666;22379066666
4587;22374700000;22262444444;22462444444
4588;22374702000;22262444444;22462444444
4589;22374702000;22262444444;22462444444
4590;22374703000;22262444444;22462444444
4591;22374704000;22262444444;22462444444
4592;22374705000;22262444444;22462444444
4593;22374706000;22262444444;22462444444
4594;22374707000;22262444444;22462444444
4595;22374708000;22262444444;22462444444
4596;22374709000;22262444444;22462444444
4597;22457900000;22262444444;22462444444
4608;22499667000;22304022222;22504022222
4618;22499673000;22345766666;22545766666
4619;22541392000;22345766666;22545766666
4630;22582890000;22387466666;22587466666
4640;22582896000;22429055555;22629055555
4641;22624532000;22429055555;22629055555
4652;22666382000;22470755555;22670755555
4661;22666387000;22512433333;22712433333
4662;22666389000;22512433333;22712433333
4663;22707903000;22512433333;22712433333
4674;22749775000;22554133333;22754133333
4683;22749780000;22595755555;22795755555
4684;22749782000;22595755555;22795755555
4685;22791336000;22595755555;22795755555
4696;22833004000;22637422222;22837422222
4708;22866179000;22720777777;22920777777
4709;22866190000;22720777777;22920777777
4710;22866191000;22720777777;22920777777
4711;22866192000;22720777777;22920777777
4712;22866200000;22720777777;22920777777
4713;22866201000;22720777777;22920777777
4714;22866202000;22720777777;22920777777
4715;22866203000;22720777777;22920777777
4716;22866204000;22720777777;22920777777
4717;22866205000;22720777777;22920777777
4718;22916466000;22720777777;22920777777
4729;22958098000;22762455555;22962455555
4739;22958104000;22804044444;23004044444
4740;22999688000;22804044444;23004044444
4749;22999694000;22845777777;23045777777
4750;22999695000;22845777777;23045777777
4751;23041419000;22845777777;23045777777
4761;23041425000;22887422222;23087422222
4762;23083047000;22887422222;23087422222
4774;23083053000;22970822222;23170822222
4775;23083054000;22970822222;23170822222
4779;23116168000;22970822222;23170822222
4780;23116179000;22970822222;23170822222
4781;23116180000;22970822222;23170822222
4782;23116181000;22970822222;23170822222
4783;23116182000;22970822222;23170822222
4784;23166521000;22970822222;23170822222
4792;23166527000;23012544444;23212544444
4793;23166528000;23012544444;23212544444
4794;23166529000;23012544444;23212544444
4795;23208014000;23012544444;23212544444
4804;23208020000;23054111111;23254111111
4805;23208021000;23054111111;23254111111
4806;23249752000;23054111111;23254111111
4818;23249758000;23137488888;23337488888
4819;23249759000;23137488888;23337488888
4820;23249760000;23137488888;23337488888
4821;23249761000;23137488888;23337488888
4822;23249762000;23137488888;23337488888
4823;23249763000;23137488888;23337488888
4824;23249764000;23137488888;23337488888
4828;23333166000;23137488888;23337488888
4837;23333171000;23179177777;23379177777
4838;23333173000;23179177777;23379177777
4839;23374822000;23179177777;23379177777
4851;23374827000;23262566666;23462566666
4852;23374828000;23262566666;23462566666
4853;23374829000;23262566666;23462566666
4854;23374830000;23262566666;23462566666
4855;23374831000;23262566666;23462566666
4856;23374832000;23262566666;23462566666
4857;23374833000;23262566666;23462566666
4858;23374834000;23262566666;23462566666
4859;23374835000;23262566666;23462566666
4860;23374836000;23262566666;23462566666
4861;23458259000;23262566666;23462566666
4873;23458265000;23345788888;23545788888
4874;23458266000;23345788888;23545788888
4875;23458267000;23345788888;23545788888
4876;23458268000;23345788888;23545788888
4877;23458269000;23345788888;23545788888
4878;23458270000;23345788888;23545788888
4879;23458271000;23345788888;23545788888
4880;23458272000;23345788888;23545788888
4881;23458272000;23345788888;23545788888
4882;23458273000;23345788888;23545788888
4883;23541629000;23345788888;23545788888
4894;23582991000;23387522222;23587522222
4903;23582996000;23429177777;23629177777
4904;23582998000;23429177777;23629177777
4905;23624663000;23429177777;23629177777
4912;23624669000;23470800000;23670800000
4913;23624670000;23470800000;23670800000
4914;23624671000;23470800000;23670800000
4915;23624672000;23470800000;23670800000
4916;23666284000;23470800000;23670800000
4927;23708133000;23512488888;23712488888
4940;23741160000;23595811111;23795811111
4941;23741162000;23595811111;23795811111
4942;23741163000;23595811111;23795811111
4943;23741164000;23595811111;23795811111
4944;23741165000;23595811111;23795811111
4945;23741166000;23595811111;23795811111
4946;23741167000;23595811111;23795811111
4947;23741168000;23595811111;23795811111
4948;23741178000;23595811111;23795811111
4949;23791443000;23595811111;23795811111
4960;23833062000;23637422222;23837422222
4968;23833068000;23679144444;23879144444
4969;23833069000;23679144444;23879144444
4970;23833070000;23679144444;23879144444
4971;23874613000;23679144444;23879144444
4982;23916296000;23720811111;23920811111
4988;23916301000;23762533333;23962533333
4989;23916302000;23762533333;23962533333
4990;23916304000;23762533333;23962533333
4991;23916305000;23762533333;23962533333
4992;23916306000;23762533333;23962533333
4993;23957997000;23762533333;23962533333
5004;23999754000;23804111111;24004111111
5016;24032448000;23887455555;24087455555
5017;24032451000;23887455555;24087455555
5018;24032452000;23887455555;24087455555
5019;24032453000;23887455555;24087455555
5020;24032472000;23887455555;24087455555
5021;24032473000;23887455555;24087455555
5022;24032474000;23887455555;24087455555
5023;24032475000;23887455555;24087455555
5024;24032476000;23887455555;24087455555
5025;24032477000;23887455555;24087455555
5026;24082948000;23887455555;24087455555
5036;24082953000;23929100000;24129100000
5037;24124743000;23929100000;24129100000
5046;24124748000;23970955555;24170955555
5047;24124750000;23970955555;24170955555
5048;24166621000;23970955555;24170955555
5060;24166626000;24054188888;24254188888
5061;24166628000;24054188888;24254188888
5062;24166629000;24054188888;24254188888
5063;24166630000;24054188888;24254188888
5064;24166631000;24054188888;24254188888
5065;24166631000;24054188888;24254188888
5066;24166632000;24054188888;24254188888
5067;24166633000;24054188888;24254188888
5068;24166634000;24054188888;24254188888
5069;24166635000;24054188888;24254188888
5070;24250045000;24054188888;24254188888
5080;24250051000;24095788888;24295788888
5081;24291440000;24095788888;24295788888
5091;24291446000;24137577777;24337577777
5092;24333224000;24137577777;24337577777
5104;24333230000;24220788888;24420788888
5105;24333231000;24220788888;24420788888
5106;24333232000;24220788888;24420788888
5107;24333233000;24220788888;24420788888
5108;24333234000;24220788888;24420788888
5109;24333235000;24220788888;24420788888
5110;24333236000;24220788888;24420788888
5111;24333237000;24220788888;24420788888
5112;24333238000;24220788888;24420788888
5113;24333238000;24220788888;24420788888
5114;24416273000;24220788888;24420788888
5123;24416279000;24262488888;24462488888
5124;24416280000;24262488888;24462488888
5125;24457974000;24262488888;24462488888
5135;24457979000;24304022222;24504022222
5136;24499491000;24304022222;24504022222
5147;24541479000;24345833333;24545833333
5159;24574445000;24429177777;24629177777
5161;24574448000;24429177777;24629177777
5162;24574449000;24429177777;24629177777
5163;24574450000;24429177777;24629177777
5164;24574451000;24429177777;24629177777
5165;24574452000;24429177777;24629177777
5166;24574453000;24429177777;24629177777
5167;24574454000;24429177777;24629177777
5168;24574455000;24429177777;24629177777
5169;24624846000;24429177777;24629177777
5178;24624852000;24470922222;24670922222
5179;24624853000;24470922222;24670922222
5180;24666378000;24470922222;24670922222
5190;24666384000;24512477777;24712477777
5191;24707963000;24512477777;24712477777
5203;24707968000;24595777777;24795777777
5204;24707969000;24595777777;24795777777
5205;24707970000;24595777777;24795777777
5206;24707971000;24595777777;24795777777
5207;24707972000;24595777777;24795777777
5208;24707973000;24595777777;24795777777
5209;24707974000;24595777777;24795777777
5210;24707975000;24595777777;24795777777
5211;24707976000;24595777777;24795777777
5212;24707977000;24595777777;24795777777
5213;24791627000;24595777777;24795777777
5224;24832918000;24637433333;24837433333
5233;24832923000;24679255555;24879255555
5234;24832925000;24679255555;24879255555
5235;24874880000;24679255555;24879255555
5244;24874886000;24720800000;24920800000
5245;24874887000;24720800000;24920800000
5246;24916423000;24720800000;24920800000
5256;24916429000;24762477777;24962477777
5259;24999817000;24804122222;25004122222
5279;25041527000;24845811111;25045811111
5290;25083110000;24887466666;25087466666
5299;25083115000;24929133333;25129133333
5300;25083117000;24929133333;25129133333
5301;25124744000;24929133333;25129133333
5310;25124750000;24970800000;25170800000
5311;25124751000;24970800000;25170800000
5312;25166445000;24970800000;25170800000
5324;25166451000;25054055555;25254055555
5325;25166452000;25054055555;25254055555
5326;25166453000;25054055555;25254055555
5327;25166454000;25054055555;25254055555
5328;25166455000;25054055555;25254055555
5329;25166456000;25054055555;25254055555
5330;25166457000;25054055555;25254055555
5331;25166458000;25054055555;25254055555
5332;25166458000;25054055555;25254055555
5333;25166459000;25054055555;25254055555
5334;25249891000;25054055555;25254055555
5344;25249897000;25095800000;25295800000
5345;25291419000;25095800000;25295800000
5355;25291425000;25137588888;25337588888
5356;25333073000;25137588888;25337588888
5366;25333079000;25179122222;25379122222
5367;25374767000;25179122222;25379122222
5377;25374773000;25220788888;25420788888
5378;25416432000;25220788888;25420788888
5388;25416438000;25262544444;25462544444
5389;25458189000;25262544444;25462544444
5400;25499650000;25304022222;25504022222
5410;25499656000;25345800000;25545800000
5413;25583220000;25387533333;25587533333
5430;25624758000;25429111111;25629111111
5444;25666610000;25470855555;25670855555
5454;25666616000;25512455555;25712455555
5455;25708103000;25512455555;25712455555
5465;25708109000;25554144444;25754144444
5466;25749788000;25554144444;25754144444
5477;25791416000;25595788888;25795788888
5478;25791421000;25637433333;25837433333
5479;25791422000;25637433333;25837433333
5480;25791423000;25637433333;25837433333
5481;25791424000;25637433333;25837433333
5482;25791425000;25637433333;25837433333
5483;25791426000;25637433333;25837433333
5484;25791427000;25637433333;25837433333
5485;25791428000;25637433333;25837433333
5486;25791429000;25637433333;25837433333
5487;25791430000;25637433333;25837433333
5488;25833078000;25637433333;25837433333
5489;25833084000;25679111111;25879111111
5490;25833085000;25679111111;25879111111
5491;25833086000;25679111111;25879111111
5492;25833087000;25679111111;25879111111
5493;25833087000;25679111111;25879111111
5494;25833088000;25679111111;25879111111
5495;25833089000;25679111111;25879111111
5496;25833090000;25679111111;25879111111
5497;25833091000;25679111111;25879111111
5498;25833092000;25679111111;25879111111
5499;25874754000;25679111111;25879111111
