seqnum;now;rtptime;deadline
2;5424884000;5231288888;5431288888
5;5424898000;5231288888;5431288888
6;5424900000;5231288888;5431288888
7;5424901000;5231288888;5431288888
8;5424903000;5231288888;5431288888
9;5424904000;5231288888;5431288888
10;5472534000;5231288888;5431288888
22;5472559000;5304600000;5504600000
23;5472560000;5304600000;5504600000
24;5472562000;5304600000;5504600000
25;5472563000;5304600000;5504600000
26;5472564000;5304600000;5504600000
27;5472566000;5304600000;5504600000
28;5472567000;5304600000;5504600000
29;5472568000;5304600000;5504600000
30;5472570000;5304600000;5504600000
31;5472571000;5304600000;5504600000
32;5545684000;5304600000;5504600000
44;5545719000;5387933333;5587933333
45;5545720000;5387933333;5587933333
46;5545722000;5387933333;5587933333
47;5545724000;5387933333;5587933333
48;5545725000;5387933333;5587933333
49;5545727000;5387933333;5587933333
50;5545728000;5387933333;5587933333
51;5545730000;5387933333;5587933333
52;5545741000;5387933333;5587933333
53;5545742000;5387933333;5587933333
54;5629330000;5387933333;5587933333
66;5629342000;5471266666;5671266666
67;5629344000;5471266666;5671266666
68;5629345000;5471266666;5671266666
69;5629347000;5471266666;5671266666
70;5629349000;5471266666;5671266666
71;5629350000;5471266666;5671266666
72;5629351000;5471266666;5671266666
73;5629353000;5471266666;5671266666
74;5629354000;5471266666;5671266666
75;5629365000;5471266666;5671266666
76;5712690000;5471266666;5671266666
88;5712700000;5554566666;5754566666
89;5712702000;5554566666;5754566666
90;5712703000;5554566666;5754566666
91;5712705000;5554566666;5754566666
92;5712715000;5554566666;5754566666
93;5712716000;5554566666;5754566666
94;5712718000;5554566666;5754566666
95;5712719000;5554566666;5754566666
96;5712720000;5554566666;5754566666
97;5712722000;5554566666;5754566666
98;5795974000;5554566666;5754566666
110;5795980000;5637833333;5837833333
111;5795981000;5637833333;5837833333
112;5795982000;5637833333;5837833333
113;5795983000;5637833333;5837833333
114;5795984000;5637833333;5837833333
115;5795985000;5637833333;5837833333
116;5795986000;5637833333;5837833333
117;5795987000;5637833333;5837833333
118;5795988000;5637833333;5837833333
119;5795989000;5637833333;5837833333
120;5879224000;5637833333;5837833333
132;5879229000;5721222222;5921222222
133;5879231000;5721222222;5921222222
134;5879232000;5721222222;5921222222
135;5879233000;5721222222;5921222222
136;5879234000;5721222222;5921222222
137;5879234000;5721222222;5921222222
138;5879235000;5721222222;5921222222
139;5879236000;5721222222;5921222222
140;5879237000;5721222222;5921222222
141;5879238000;5721222222;5921222222
142;5962626000;5721222222;5921222222
154;5962632000;5804588888;6004588888
155;5962633000;5804588888;6004588888
156;5962634000;5804588888;6004588888
157;5962635000;5804588888;6004588888
158;5962636000;5804588888;6004588888
159;5962637000;5804588888;6004588888
160;5962638000;5804588888;6004588888
161;5962639000;5804588888;6004588888
162;5962640000;5804588888;6004588888
163;5962641000;5804588888;6004588888
164;6045982000;5804588888;6004588888
176;6045987000;5887855555;6087855555
177;6045988000;5887855555;6087855555
178;6045989000;5887855555;6087855555
179;6045991000;5887855555;6087855555
180;6045992000;5887855555;6087855555
181;6045992000;5887855555;6087855555
182;6045993000;5887855555;6087855555
183;6045994000;5887855555;6087855555
184;6045995000;5887855555;6087855555
185;6045996000;5887855555;6087855555
186;6129206000;5887855555;6087855555
198;6129211000;5971200000;6171200000
199;6129212000;5971200000;6171200000
200;6129213000;5971200000;6171200000
201;6129214000;5971200000;6171200000
202;6129216000;5971200000;6171200000
203;6129216000;5971200000;6171200000
204;6129217000;5971200000;6171200000
205;6129218000;5971200000;6171200000
206;6129219000;5971200000;6171200000
207;6129220000;5971200000;6171200000
208;6212590000;5971200000;6171200000
220;6212595000;6054566666;6254566666
221;6212597000;6054566666;6254566666
222;6212598000;6054566666;6254566666
223;6212599000;6054566666;6254566666
224;6212599000;6054566666;6254566666
225;6212600000;6054566666;6254566666
226;6212613000;6054566666;6254566666
227;6212614000;6054566666;6254566666
228;6212615000;6054566666;6254566666
229;6212616000;6054566666;6254566666
230;6295920000;6054566666;6254566666
242;6295925000;6137933333;6337933333
243;6295927000;6137933333;6337933333
244;6295928000;6137933333;6337933333
245;6295929000;6137933333;6337933333
246;6295930000;6137933333;6337933333
247;6295930000;6137933333;6337933333
248;6295932000;6137933333;6337933333
249;6295933000;6137933333;6337933333
250;6295933000;6137933333;6337933333
251;6295934000;6137933333;6337933333
252;6379340000;6137933333;6337933333
264;6379345000;6221211111;6421211111
265;6379346000;6221211111;6421211111
266;6379347000;6221211111;6421211111
267;6379348000;6221211111;6421211111
268;6379349000;6221211111;6421211111
269;6379350000;6221211111;6421211111
270;6379351000;6221211111;6421211111
271;6379352000;6221211111;6421211111
272;6379353000;6221211111;6421211111
273;6379354000;6221211111;6421211111
274;6462595000;6221211111;6421211111
286;6462601000;6304544444;6504544444
287;6462602000;6304544444;6504544444
288;6462604000;6304544444;6504544444
289;6462604000;6304544444;6504544444
290;6462605000;6304544444;6504544444
291;6462606000;6304544444;6504544444
292;6462607000;6304544444;6504544444
293;6462608000;6304544444;6504544444
294;6462609000;6304544444;6504544444
295;6462610000;6304544444;6504544444
296;6545936000;6304544444;6504544444
308;6545942000;6387833333;6587833333
309;6545943000;6387833333;6587833333
310;6545944000;6387833333;6587833333
311;6545945000;6387833333;6587833333
312;6545946000;6387833333;6587833333
313;6545947000;6387833333;6587833333
314;6545948000;6387833333;6587833333
315;6545949000;6387833333;6587833333
316;6545950000;6387833333;6587833333
317;6545951000;6387833333;6587833333
318;6629220000;6387833333;6587833333
330;6629225000;6471211111;6671211111
331;6629226000;6471211111;6671211111
332;6629227000;6471211111;6671211111
333;6629228000;6471211111;6671211111
334;6629229000;6471211111;6671211111
335;6629230000;6471211111;6671211111
336;6629231000;6471211111;6671211111
337;6629232000;6471211111;6671211111
338;6629233000;6471211111;6671211111
339;6629234000;6471211111;6671211111
340;6712602000;6471211111;6671211111
352;6712607000;6554533333;6754533333
353;6712609000;6554533333;6754533333
354;6712610000;6554533333;6754533333
355;6712611000;6554533333;6754533333
356;6712611000;6554533333;6754533333
357;6712612000;6554533333;6754533333
358;6712613000;6554533333;6754533333
359;6712614000;6554533333;6754533333
360;6712615000;6554533333;6754533333
361;6712616000;6554533333;6754533333
362;6795936000;6554533333;6754533333
374;6795942000;6637822222;6837822222
375;6795943000;6637822222;6837822222
376;6795944000;6637822222;6837822222
377;6795945000;6637822222;6837822222
378;6795946000;6637822222;6837822222
379;6795947000;6637822222;6837822222
380;6795948000;6637822222;6837822222
381;6795949000;6637822222;6837822222
382;6795950000;6637822222;6837822222
383;6795951000;6637822222;6837822222
384;6881179000;6637822222;6837822222
396;6881193000;6721244444;6921244444
397;6881195000;6721244444;6921244444
398;6881197000;6721244444;6921244444
399;6881198000;6721244444;6921244444
400;6881199000;6721244444;6921244444
401;6881201000;6721244444;6921244444
402;6881202000;6721244444;6921244444
403;6881204000;6721244444;6921244444
404;6881205000;6721244444;6921244444
405;6881207000;6721244444;6921244444
406;6964715000;6721244444;6921244444
418;6964732000;6804555555;7004555555
419;6964734000;6804555555;7004555555
420;6964737000;6804555555;7004555555
421;6964739000;6804555555;7004555555
422;6964741000;6804555555;7004555555
423;6964742000;6804555555;7004555555
424;6964744000;6804555555;7004555555
425;6964746000;6804555555;7004555555
426;6964749000;6804555555;7004555555
427;6964751000;6804555555;7004555555
428;7045673000;6804555555;7004555555
440;7045689000;6887855555;7087855555
441;7045691000;6887855555;7087855555
442;7045693000;6887855555;7087855555
443;7045695000;6887855555;7087855555
444;7045696000;6887855555;7087855555
445;7045697000;6887855555;7087855555
446;7045699000;6887855555;7087855555
447;7045716000;6887855555;7087855555
448;7045718000;6887855555;7087855555
449;7045720000;6887855555;7087855555
450;7129189000;6887855555;7087855555
462;7129201000;6971222222;7171222222
463;7129202000;6971222222;7171222222
464;7129204000;6971222222;7171222222
465;7129205000;6971222222;7171222222
466;7129207000;6971222222;7171222222
467;7129208000;6971222222;7171222222
468;7129209000;6971222222;7171222222
469;7129211000;6971222222;7171222222
470;7129212000;6971222222;7171222222
471;7129214000;6971222222;7171222222
472;7212587000;6971222222;7171222222
484;7212594000;7054555555;7254555555
485;7212595000;7054555555;7254555555
486;7212596000;7054555555;7254555555
487;7212597000;7054555555;7254555555
488;7212598000;7054555555;7254555555
489;7212599000;7054555555;7254555555
490;7212600000;7054555555;7254555555
491;7212601000;7054555555;7254555555
492;7212602000;7054555555;7254555555
493;7212603000;7054555555;7254555555
494;7295832000;7054555555;7254555555
506;7295838000;7137833333;7337833333
507;7295839000;7137833333;7337833333
508;7295840000;7137833333;7337833333
509;7295841000;7137833333;7337833333
510;7295842000;7137833333;7337833333
511;7295843000;7137833333;7337833333
512;7295844000;7137833333;7337833333
513;7295845000;7137833333;7337833333
514;7295846000;7137833333;7337833333
515;7295847000;7137833333;7337833333
516;7379178000;7137833333;7337833333
529;7386370000;7221255555;7421255555
530;7386373000;7221255555;7421255555
531;7386374000;7221255555;7421255555
532;7386375000;7221255555;7421255555
533;7386376000;7221255555;7421255555
534;7386377000;7221255555;7421255555
535;7386378000;7221255555;7421255555
536;7386379000;7221255555;7421255555
537;7386380000;7221255555;7421255555
538;7462565000;7221255555;7421255555
550;7462571000;7304555555;7504555555
551;7462572000;7304555555;7504555555
552;7462573000;7304555555;7504555555
553;7462574000;7304555555;7504555555
554;7462575000;7304555555;7504555555
555;7462576000;7304555555;7504555555
556;7462577000;7304555555;7504555555
557;7462578000;7304555555;7504555555
558;7462579000;7304555555;7504555555
559;7462580000;7304555555;7504555555
560;7545898000;7304555555;7504555555
572;7545903000;7387855555;7587855555
573;7545905000;7387855555;7587855555
574;7545906000;7387855555;7587855555
575;7545907000;7387855555;7587855555
576;7545908000;7387855555;7587855555
577;7545909000;7387855555;7587855555
578;7545910000;7387855555;7587855555
579;7545911000;7387855555;7587855555
580;7545912000;7387855555;7587855555
581;7545912000;7387855555;7587855555
582;7628950000;7387855555;7587855555
594;7628955000;7471200000;7671200000
595;7628957000;7471200000;7671200000
596;7628957000;7471200000;7671200000
597;7628958000;7471200000;7671200000
598;7628959000;7471200000;7671200000
599;7628960000;7471200000;7671200000
600;7628961000;7471200000;7671200000
601;7628962000;7471200000;7671200000
602;7628963000;7471200000;7671200000
603;7628964000;7471200000;7671200000
604;7712607000;7471200000;7671200000
616;7712613000;7554544444;7754544444
617;7712614000;7554544444;7754544444
618;7712615000;7554544444;7754544444
619;7712616000;7554544444;7754544444
620;7712617000;7554544444;7754544444
621;7712618000;7554544444;7754544444
622;7712619000;7554544444;7754544444
623;7712620000;7554544444;7754544444
624;7712621000;7554544444;7754544444
625;7712622000;7554544444;7754544444
626;7795948000;7554544444;7754544444
638;7795953000;7637833333;7837833333
639;7795954000;7637833333;7837833333
640;7795955000;7637833333;7837833333
641;7795956000;7637833333;7837833333
642;7795957000;7637833333;7837833333
643;7795958000;7637833333;7837833333
644;7795959000;7637833333;7837833333
645;7795960000;7637833333;7837833333
646;7795961000;7637833333;7837833333
647;7795962000;7637833333;7837833333
648;7879236000;7637833333;7837833333
660;7879242000;7721222222;7921222222
661;7879243000;7721222222;7921222222
662;7879244000;7721222222;7921222222
663;7879245000;7721222222;7921222222
664;7879246000;7721222222;7921222222
665;7879247000;7721222222;7921222222
666;7879248000;7721222222;7921222222
667;7879249000;7721222222;7921222222
668;7879258000;7721222222;7921222222
669;7879259000;7721222222;7921222222
670;7962590000;7721222222;7921222222
682;7962595000;7804544444;8004544444
683;7962597000;7804544444;8004544444
684;7962598000;7804544444;8004544444
685;7962599000;7804544444;8004544444
686;7962600000;7804544444;8004544444
687;7962601000;7804544444;8004544444
688;7962602000;7804544444;8004544444
689;7962603000;7804544444;8004544444
690;7962604000;7804544444;8004544444
691;7962605000;7804544444;8004544444
692;8045935000;7804544444;8004544444
704;8045950000;7887866666;8087866666
705;8045951000;7887866666;8087866666
706;8045952000;7887866666;8087866666
707;8045953000;7887866666;8087866666
708;8045954000;7887866666;8087866666
709;8045955000;7887866666;8087866666
710;8045956000;7887866666;8087866666
711;8045957000;7887866666;8087866666
712;8045958000;7887866666;8087866666
713;8045959000;7887866666;8087866666
714;8129289000;7887866666;8087866666
726;8129298000;7971211111;8171211111
727;8129300000;7971211111;8171211111
728;8129301000;7971211111;8171211111
729;8129302000;7971211111;8171211111
730;8129303000;7971211111;8171211111
731;8129305000;7971211111;8171211111
732;8129306000;7971211111;8171211111
733;8129307000;7971211111;8171211111
734;8129308000;7971211111;8171211111
735;8129309000;7971211111;8171211111
736;8212599000;7971211111;8171211111
748;8212605000;8054555555;8254555555
749;8212606000;8054555555;8254555555
750;8212607000;8054555555;8254555555
751;8212608000;8054555555;8254555555
752;8212609000;8054555555;8254555555
753;8212610000;8054555555;8254555555
754;8212611000;8054555555;8254555555
755;8212612000;8054555555;8254555555
756;8212613000;8054555555;8254555555
757;8212614000;8054555555;8254555555
758;8295954000;8054555555;8254555555
770;8295960000;8137844444;8337844444
771;8295961000;8137844444;8337844444
772;8295962000;8137844444;8337844444
773;8295963000;8137844444;8337844444
774;8295964000;8137844444;8337844444
775;8295965000;8137844444;8337844444
776;8295966000;8137844444;8337844444
777;8295967000;8137844444;8337844444
778;8295968000;8137844444;8337844444
779;8295969000;8137844444;8337844444
780;8379186000;8137844444;8337844444
792;8379192000;8221222222;8421222222
793;8379193000;8221222222;8421222222
794;8379194000;8221222222;8421222222
795;8379195000;8221222222;8421222222
796;8379196000;8221222222;8421222222
797;8379197000;8221222222;8421222222
798;8379198000;8221222222;8421222222
799;8379199000;8221222222;8421222222
800;8379200000;8221222222;8421222222
801;8379201000;8221222222;8421222222
802;8462562000;8221222222;8421222222
814;8462568000;8304555555;8504555555
815;8462569000;8304555555;8504555555
816;8462570000;8304555555;8504555555
817;8462571000;8304555555;8504555555
818;8462572000;8304555555;8504555555
819;8462573000;8304555555;8504555555
820;8462574000;8304555555;8504555555
821;8462575000;8304555555;8504555555
822;8462576000;8304555555;8504555555
823;8462577000;8304555555;8504555555
824;8545897000;8304555555;8504555555
837;8553056000;8387855555;8587855555
839;8553061000;8387855555;8587855555
841;8553063000;8387855555;8587855555
842;8553064000;8387855555;8587855555
843;8553065000;8387855555;8587855555
844;8553066000;8387855555;8587855555
845;8553067000;8387855555;8587855555
846;8629017000;8387855555;8587855555
858;8629023000;8471222222;8671222222
859;8629024000;8471222222;8671222222
860;8629025000;8471222222;8671222222
861;8629026000;8471222222;8671222222
862;8629027000;8471222222;8671222222
863;8629028000;8471222222;8671222222
864;8629029000;8471222222;8671222222
865;8629030000;8471222222;8671222222
866;8629031000;8471222222;8671222222
867;8629032000;8471222222;8671222222
868;8712600000;8471222222;8671222222
880;8712606000;8554566666;8754566666
881;8712607000;8554566666;8754566666
882;8712608000;8554566666;8754566666
883;8712609000;8554566666;8754566666
884;8712610000;8554566666;8754566666
885;8712611000;8554566666;8754566666
886;8712612000;8554566666;8754566666
887;8712613000;8554566666;8754566666
888;8712614000;8554566666;8754566666
889;8712615000;8554566666;8754566666
890;8795960000;8554566666;8754566666
902;8795966000;8637833333;8837833333
903;8795975000;8637833333;8837833333
904;8795976000;8637833333;8837833333
905;8795977000;8637833333;8837833333
906;8795978000;8637833333;8837833333
907;8795979000;8637833333;8837833333
908;8795980000;8637833333;8837833333
909;8795981000;8637833333;8837833333
910;8795982000;8637833333;8837833333
911;8795983000;8637833333;8837833333
912;8879208000;8637833333;8837833333
924;8879224000;8721222222;8921222222
925;8879225000;8721222222;8921222222
926;8879226000;8721222222;8921222222
927;8879227000;8721222222;8921222222
928;8879228000;8721222222;8921222222
929;8879229000;8721222222;8921222222
930;8879230000;8721222222;8921222222
931;8879231000;8721222222;8921222222
932;8879232000;8721222222;8921222222
933;8879233000;8721222222;8921222222
934;8962614000;8721222222;8921222222
946;8962620000;8804555555;9004555555
947;8962622000;8804555555;9004555555
948;8962623000;8804555555;9004555555
949;8962624000;8804555555;9004555555
950;8962625000;8804555555;9004555555
951;8962626000;8804555555;9004555555
952;8962627000;8804555555;9004555555
953;8962628000;8804555555;9004555555
954;8962629000;8804555555;9004555555
957;9087832000;8846255555;9046255555
979;9170953000;8929555555;9129555555
1001;9254277000;9012866666;9212866666
1023;9337668000;9096233333;9296233333
1045;9420979000;9179566666;9379566666
1067;9504068000;9262844444;9462844444
1089;9587603000;9346244444;9546244444
1111;9670887000;9429544444;9629544444
1133;9753965000;9512866666;9712866666
1155;9837320000;9596211111;9796211111
1177;9920625000;9679533333;9879533333
1199;10004197000;9762855555;9962855555
1221;10087581000;9846222222;10046222222
1243;10170876000;9929533333;10129533333
1265;10254190000;10012844444;10212844444
1287;10337564000;10096255555;10296255555
1309;10420897000;10179555555;10379555555
1331;10504000000;10262855555;10462855555
1353;10587601000;10346211111;10546211111
1375;10670932000;10429544444;10629544444
1397;10754233000;10512866666;10712866666
1419;10837274000;10596222222;10796222222
1441;10920688000;10679544444;10879544444
1463;11004248000;10762855555;10962855555
1485;11087615000;10846222222;11046222222
1507;11170943000;10929544444;11129544444
1529;11254251000;11012855555;11212855555
1551;11337618000;11096222222;11296222222
1573;11420951000;11179555555;11379555555
1595;11504246000;11262855555;11462855555
1617;11587644000;11346222222;11546222222
1639;11670953000;11429555555;11629555555
1661;11754322000;11512911111;11712911111
1683;11837634000;11596222222;11796222222
1705;11920987000;11679577777;11879577777
1727;12004273000;11762866666;11962866666
1749;12087682000;11846266666;12046266666
1771;12170888000;11929544444;12129544444
1793;12253966000;12012866666;12212866666
1815;12337580000;12096233333;12296233333
1837;12420921000;12179577777;12379577777
1859;12504190000;12262844444;12462844444
1881;12587592000;12346200000;12546200000
1903;12670941000;12429533333;12629533333
1925;12754232000;12512855555;12712855555
1947;12837373000;12596211111;12796211111
1969;12920942000;12679533333;12879533333
1991;13004240000;12762844444;12962844444
2013;13087629000;12846222222;13046222222
2035;13170892000;12929533333;13129533333
2057;13254244000;13012844444;13212844444
2079;13337618000;13096211111;13296211111
2101;13420965000;13179566666;13379566666
2123;13504401000;13263000000;13463000000
2145;13587635000;13346244444;13546244444
2167;13670976000;13429566666;13629566666
2189;13754303000;13512877777;13712877777
2211;13837667000;13596233333;13796233333
2233;13920714000;13679555555;13879555555
2255;14004283000;13762888888;13962888888
2277;14087633000;13846244444;14046244444
2299;14170945000;13929544444;14129544444
2321;14254266000;14012866666;14212866666
2343;14337592000;14096233333;14296233333
2365;14420983000;14179588888;14379588888
2387;14504270000;14262855555;14462855555
2409;14587615000;14346222222;14546222222
2431;14670952000;14429555555;14629555555
2453;14754307000;14512900000;14712900000
2475;14837625000;14596211111;14796211111
2497;14920943000;14679544444;14879544444
2519;15004267000;14762866666;14962866666
2541;15087631000;14846233333;15046233333
2563;15170944000;14929533333;15129533333
2585;15254026000;15012866666;15212866666
2607;15337654000;15096233333;15296233333
2629;15420955000;15179555555;15379555555
2651;15504244000;15262844444;15462844444
2673;15587592000;15346188888;15546188888
2695;15670706000;15429544444;15629544444
2717;15754264000;15512855555;15712855555
2739;15837587000;15596211111;15796211111
2761;15920943000;15679533333;15879533333
2783;16004005000;15762844444;15962844444
2805;16087565000;15846222222;16046222222
2827;16170940000;15929533333;16129533333
2849;16254038000;16012844444;16212844444
2871;16337321000;16096222222;16296222222
2893;16420880000;16179533333;16379533333
2915;16504179000;16262833333;16462833333
2937;16587541000;16346188888;16546188888
2959;16670900000;16429555555;16629555555
2981;16754150000;16512844444;16712844444
3003;16837551000;16596200000;16796200000
3025;16920870000;16679522222;16879522222
3047;17004192000;16762833333;16962833333
3069;17087560000;16846211111;17046211111
3091;17170880000;16929544444;17129544444
3113;17253930000;17012833333;17212833333
3135;17337541000;17096188888;17296188888
3157;17420890000;17179544444;17379544444
3179;17503943000;17262844444;17462844444
3201;17587552000;17346200000;17546200000
3223;17670878000;17429533333;17629533333
3245;17754201000;17512855555;17712855555
3267;17837561000;17596211111;17796211111
3289;17920882000;17679533333;17879533333
3311;18003964000;17762866666;17962866666
3333;18087531000;17846222222;18046222222
3355;18170868000;17929522222;18129522222
3377;18254152000;18012844444;18212844444
3399;18337569000;18096222222;18296222222
3421;18420665000;18179566666;18379566666
3443;18504185000;18262855555;18462855555
3465;18587578000;18346233333;18546233333
3487;18670890000;18429544444;18629544444
3509;18754211000;18512866666;18712866666
3531;18837589000;18596233333;18796233333
3553;18920645000;18679544444;18879544444
3575;19004203000;18762855555;18962855555
3597;19087578000;18846233333;19046233333
3619;19170880000;18929533333;19129533333
3641;19254201000;19012855555;19212855555
3663;19337580000;19096222222;19296222222
3685;19420902000;19179555555;19379555555
3707;19503934000;19262833333;19462833333
3729;19587592000;19346200000;19546200000
3751;19670868000;19429533333;19629533333
3773;19754190000;19512855555;19712855555
3795;19837568000;19596233333;19796233333
3817;19920868000;19679522222;19879522222
3839;20004175000;19762833333;19962833333
3861;20087570000;19846222222;20046222222
3883;20170879000;19929533333;20129533333
3905;20254189000;20012844444;20212844444
3927;20337550000;20096200000;20296200000
3949;20420917000;20179555555;20379555555
3971;20504189000;20262844444;20462844444
3993;20587551000;20346200000;20546200000
4015;20670882000;20429544444;20629544444
4037;20753953000;20512855555;20712855555
4059;20837567000;20596222222;20796222222
4081;20920868000;20679522222;20879522222
4103;21004233000;20762844444;20962844444
4125;21087617000;20846222222;21046222222
4147;21170945000;20929555555;21129555555
4169;21254273000;21012855555;21212855555
4191;21337622000;21096222222;21296222222
4213;21420964000;21179566666;21379566666
4235;21504262000;21262866666;21462866666
4257;21587382000;21346233333;21546233333
4279;21670958000;21429555555;21629555555
4301;21754272000;21512866666;21712866666
4323;21837640000;21596222222;21796222222
4345;21920936000;21679544444;21879544444
4367;22004303000;21762888888;21962888888
4389;22087626000;21846233333;22046233333
4411;22170937000;21929544444;22129544444
4433;22254267000;22012855555;22212855555
4455;22337628000;22096233333;22296233333
4477;22420972000;22179577777;22379577777
4499;22504234000;22262833333;22462833333
4521;22587589000;22346188888;22546188888
4543;22670949000;22429533333;22629533333
4565;22754250000;22512844444;22712844444
4587;22837605000;22596188888;22796188888
4609;22920932000;22679522222;22879522222
4631;23004222000;22762833333;22962833333
4653;23087624000;22846211111;23046211111
4675;23170912000;22929522222;23129522222
4697;23254234000;23012833333;23212833333
4719;23337613000;23096211111;23296211111
4741;23420933000;23179533333;23379533333
4763;23504262000;23262866666;23462866666
4785;23587396000;23346211111;23546211111
4807;23670955000;23429555555;23629555555
4829;23754278000;23512866666;23712866666
4851;23837652000;23596255555;23796255555
4873;23920889000;23679544444;23879544444
4895;24004374000;23762977777;23962977777
4917;24087618000;23846233333;24046233333
4941;24170904000;23929544444;24129544444
4961;24254244000;24012866666;24212866666
4983;24337627000;24096233333;24296233333
5005;24420956000;24179555555;24379555555
5027;24504256000;24262855555;24462855555
5049;24587619000;24346211111;24546211111
5071;24670945000;24429544444;24629544444
5093;24754272000;24512866666;24712866666
5115;24837633000;24596211111;24796211111
5137;24920939000;24679544444;24879544444
5159;25004264000;24762855555;24962855555
5181;25087627000;24846233333;25046233333
5203;25170928000;24929533333;25129533333
5225;25254213000;25012855555;25212855555
5247;25337619000;25096222222;25296222222
5269;25420968000;25179555555;25379555555
5291;25504304000;25262855555;25462855555
5313;25587627000;25346211111;25546211111
5335;25670940000;25429544444;25629544444
5357;25754261000;25512866666;25712866666
5379;25837619000;25596222222;25796222222
5401;25920891000;25679544444;25879544444
5423;26004201000;25762855555;25962855555
5445;26087569000;25846233333;26046233333
5467;26170880000;25929544444;26129544444
5478;26212360000;25971233333;26171233333
5479;26212364000;25971233333;26171233333
5480;26212365000;25971233333;26171233333
5481;26212366000;25971233333;26171233333
5482;26212367000;25971233333;26171233333
5483;26212368000;25971233333;26171233333
5484;26212369000;25971233333;26171233333
5485;26212370000;25971233333;26171233333
5486;26212371000;25971233333;26171233333
5487;26212372000;25971233333;26171233333
5488;26212435000;25971233333;26171233333
5489;26212439000;26012855555;26212855555
5490;26212449000;26012855555;26212855555
5491;26212450000;26012855555;26212855555
5492;26212451000;26012855555;26212855555
5493;26212452000;26012855555;26212855555
5494;26212453000;26012855555;26212855555
5495;26212455000;26012855555;26212855555
5496;26212456000;26012855555;26212855555
5497;26212457000;26012855555;26212855555
5498;26212458000;26012855555;26212855555
5499;26253981000;26012855555;26212855555
