seqnum;now;rtptime;deadline
2;17782316000;5302088888;5802088888
3;18350667000;5333311111;5833311111
1814;19573976000;12166655555;12666655555
3392;19582198000;18166688888;18666688888
3393;19582201000;18166688888;18666688888
3394;19582212000;18166688888;18666688888
3395;19582213000;18166688888;18666688888
3396;19582215000;18166688888;18666688888
3397;19582216000;18166688888;18666688888
3399;19582332000;18167000000;18667000000
3400;19582346000;18167000000;18667000000
3401;19582348000;18167000000;18667000000
3402;19582364000;18208300000;18708300000
3403;19582377000;18208300000;18708300000
3404;19582388000;18208300000;18708300000
3406;19582390000;18208300000;18708300000
3407;19582392000;18208300000;18708300000
3408;19582396000;18208300000;18708300000
3410;19582405000;18208588888;18708588888
3411;19582406000;18208588888;18708588888
3412;19582407000;18208588888;18708588888
3414;19582422000;18250011111;18750011111
3415;19582423000;18250011111;18750011111
3416;19582424000;18250011111;18750011111
3417;19582426000;18250011111;18750011111
3418;19582427000;18250011111;18750011111
3419;19582428000;18250011111;18750011111
3421;19582433000;18250344444;18750344444
3422;19582434000;18250344444;18750344444
3423;19582436000;18250344444;18750344444
3424;19582440000;18291633333;18791633333
3425;19582442000;18291633333;18791633333
3426;19582443000;18291633333;18791633333
3427;19582444000;18291633333;18791633333
3428;19582445000;18291633333;18791633333
3429;19582446000;18291633333;18791633333
3430;19582448000;18291633333;18791633333
3431;19582567000;18291644444;18791644444
3432;19582571000;18291933333;18791933333
3433;19582574000;18291933333;18791933333
3434;19582575000;18291933333;18791933333
3435;19582594000;18333322222;18833322222
3437;19582596000;18333322222;18833322222
3438;19582607000;18333322222;18833322222
3439;19582610000;18333322222;18833322222
3440;19582611000;18333322222;18833322222
3441;19582612000;18333322222;18833322222
3442;19582725000;18333344444;18833344444
3443;19582730000;18333666666;18833666666
3444;19582732000;18333666666;18833666666
3445;19582734000;18333666666;18833666666
3446;19582765000;18374966666;18874966666
3447;19582767000;18374966666;18874966666
3448;19582769000;18374966666;18874966666
3449;19582771000;18374966666;18874966666
3450;19582789000;18374966666;18874966666
3452;19582792000;18374966666;18874966666
3453;19582867000;18374977777;18874977777
3455;19582870000;18375288888;18875288888
3456;19582871000;18375288888;18875288888
3457;19582878000;18416655555;18916655555
3458;19582879000;18416655555;18916655555
3459;19582890000;18416655555;18916655555
3460;19582892000;18416655555;18916655555
3461;19582893000;18416655555;18916655555
3462;19582894000;18416655555;18916655555
3463;19582895000;18416655555;18916655555
3464;19582980000;18416666666;18916666666
3465;19582983000;18416966666;18916966666
3466;19582985000;18416966666;18916966666
3467;19582986000;18416966666;18916966666
3468;19582992000;18458300000;18958300000
3469;19582993000;18458300000;18958300000
3470;19582994000;18458300000;18958300000
3471;19583006000;18458300000;18958300000
3472;19583007000;18458300000;18958300000
3473;19583009000;18458300000;18958300000
3474;19583010000;18458300000;18958300000
3475;19583118000;18458311111;18958311111
3476;19583121000;18458600000;18958600000
3477;19583122000;18458600000;18958600000
3478;19583124000;18458600000;18958600000
3479;19583140000;18499988888;18999988888
3480;19583141000;18499988888;18999988888
3481;19583142000;18499988888;18999988888
3482;19583144000;18499988888;18999988888
3483;19583145000;18499988888;18999988888
3484;19583146000;18499988888;18999988888
3485;19583158000;18499988888;18999988888
3486;19583253000;18500000000;19000000000
3487;19583256000;18500333333;19000333333
3488;19583257000;18500333333;19000333333
3489;19583258000;18500333333;19000333333
3490;19583264000;18541633333;19041633333
3491;19583266000;18541633333;19041633333
3492;19583267000;18541633333;19041633333
3493;19583268000;18541633333;19041633333
3494;19583269000;18541633333;19041633333
3495;19583271000;18541633333;19041633333
3496;19583272000;18541633333;19041633333
3497;19583389000;18541644444;19041644444
3498;19583391000;18541933333;19041933333
3499;19583393000;18541933333;19041933333
3500;19583394000;18541933333;19041933333
3501;19583400000;18583300000;19083300000
3502;19583402000;18583300000;19083300000
3503;19583413000;18583300000;19083300000
3504;19583414000;18583300000;19083300000
3505;19583416000;18583300000;19083300000
3506;19583417000;18583300000;19083300000
3507;19583418000;18583300000;19083300000
3508;19583497000;18583322222;19083322222
3509;19583500000;18583666666;19083666666
3510;19583501000;18583666666;19083666666
3511;19583502000;18583666666;19083666666
3512;19583508000;18624988888;19124988888
3513;19583510000;18624988888;19124988888
3514;19583521000;18624988888;19124988888
3515;19583523000;18624988888;19124988888
3516;19583524000;18624988888;19124988888
3517;19583525000;18624988888;19124988888
3518;19583526000;18624988888;19124988888
3519;19583590000;18625000000;19125000000
3520;19583593000;18625322222;19125322222
3521;19583594000;18625322222;19125322222
3522;19583595000;18625322222;19125322222
3523;19583603000;18666633333;19166633333
3524;19583604000;18666633333;19166633333
3525;19583605000;18666633333;19166633333
3526;19583607000;18666633333;19166633333
3527;19583608000;18666633333;19166633333
3528;19583609000;18666633333;19166633333
3529;19583611000;18666633333;19166633333
3530;19583688000;18666666666;19166666666
3531;19583691000;18667000000;19167000000
3532;19583692000;18667000000;19167000000
3533;19583694000;18667000000;19167000000
3534;19611155000;18708300000;19208300000
3535;19611159000;18708300000;19208300000
3536;19611160000;18708300000;19208300000
3537;19611161000;18708300000;19208300000
3538;19611163000;18708300000;19208300000
3539;19611164000;18708300000;19208300000
3540;19611165000;18708300000;19208300000
3541;19611275000;18708322222;19208322222
3542;19611282000;18708633333;19208633333
3543;19611283000;18708633333;19208633333
3544;19611285000;18708633333;19208633333
3545;19644719000;18749966666;19249966666
3554;19644766000;18750333333;19250333333
3555;19644768000;18750333333;19250333333
3556;19672157000;18791633333;19291633333
3565;19672270000;18791944444;19291944444
3566;19672273000;18791944444;19291944444
3567;19705217000;18833300000;19333300000
3568;19705220000;18833300000;19333300000
3569;19705231000;18833300000;19333300000
3570;19705232000;18833300000;19333300000
3571;19705233000;18833300000;19333300000
3572;19705235000;18833300000;19333300000
3573;19705236000;18833300000;19333300000
3574;19705394000;18833322222;19333322222
3575;19705397000;18833633333;19333633333
3576;19705398000;18833633333;19333633333
3577;19705400000;18833633333;19333633333
3578;19729240000;18874988888;19374988888
3590;19762275000;18916655555;19416655555
3599;19762388000;18917022222;19417022222
3600;19789907000;18958300000;19458300000
3602;19790143000;18958300000;19458300000
3603;19790145000;18958300000;19458300000
3604;19790146000;18958300000;19458300000
3605;19790147000;18958300000;19458300000
3606;19790149000;18958300000;19458300000
3607;19790399000;18958355555;19458355555
3609;19790404000;18958688888;19458688888
3610;19790406000;18958688888;19458688888
3611;19823500000;18999966666;19499966666
3618;19823703000;19000022222;19500022222
3619;19823719000;19000344444;19500344444
3620;19823720000;19000344444;19500344444
3621;19823721000;19000344444;19500344444
3622;19852035000;19041633333;19541633333
3632;19852158000;19041966666;19541966666
3633;19886131000;19083300000;19583300000
3646;19920342000;19124966666;19624966666
3656;19954737000;19166633333;19666633333
3658;19956545000;19166633333;19666633333
3659;19956547000;19166633333;19666633333
3660;19956548000;19166633333;19666633333
3661;19956549000;19166633333;19666633333
3662;19956768000;19166688888;19666688888
3664;19956773000;19166988888;19666988888
3665;19956774000;19166988888;19666988888
3666;19986973000;19208300000;19708300000
3673;19987193000;19208344444;19708344444
3674;19987208000;19208655555;19708655555
3675;19987209000;19208655555;19708655555
3676;19987210000;19208655555;19708655555
3677;20010685000;19249966666;19749966666
3685;20021683000;19250344444;19750344444
3686;20021687000;19250344444;19750344444
3687;20021688000;19250344444;19750344444
3688;20056809000;19291655555;19791655555
3703;20089756000;19333300000;19833300000
3717;20121034000;19375022222;19875022222
3719;20121039000;19375322222;19875322222
3720;20121040000;19375322222;19875322222
3721;20156531000;19416633333;19916633333
3731;20156645000;19416955555;19916955555
3732;20192271000;19458300000;19958300000
3746;20228078000;19499966666;19999966666
3758;20267785000;19541633333;20041633333
3768;20298488000;19583300000;20083300000
3782;20334848000;19624966666;20124966666
3792;20374122000;19666633333;20166633333
3801;20425446000;19708300000;20208300000
3815;20447438000;19749966666;20249966666
3816;20447681000;19750022222;20250022222
3817;20447698000;19750300000;20250300000
3818;20447700000;19750300000;20250300000
3819;20447702000;19750300000;20250300000
3820;20499780000;19791666666;20291666666
3845;20549383000;19874966666;20374966666
3857;20585114000;19916633333;20416633333
3869;20622565000;19958333333;20458333333
3870;20622569000;19958333333;20458333333
3871;20622792000;19958388888;20458388888
3872;20622808000;19958700000;20458700000
3873;20622809000;19958700000;20458700000
3874;20622811000;19958700000;20458700000
3875;20658701000;19999966666;20499966666
3887;20693747000;20041644444;20541644444
3900;20730248000;20083300000;20583300000
3910;20768282000;20124988888;20624988888
3922;20803782000;20166633333;20666633333
3935;20842096000;20208322222;20708322222
3947;20879067000;20249966666;20749966666
3958;20917591000;20291644444;20791644444
3970;20955893000;20333366666;20833366666
3972;20955898000;20333677777;20833677777
3973;20955900000;20333677777;20833677777
3974;20988428000;20374977777;20874977777
3985;21032129000;20416644444;20916644444
3998;21069828000;20458311111;20958311111
4010;21108569000;20499977777;20999977777
4023;21146553000;20541644444;21041644444
4035;21185486000;20583311111;21083311111
4045;21224508000;20624977777;21124977777
4054;21257600000;20666644444;21166644444
4066;21301064000;20708311111;21208311111
4077;21339324000;20749977777;21249977777
4090;21378778000;20791644444;21291644444
4104;21417382000;20833677777;21333677777
4117;21519020000;20916644444;21416644444
4138;21541143000;20958700000;21458700000
4148;21573162000;21000400000;21500400000
4149;21573166000;21000400000;21500400000
4150;21613773000;21041644444;21541644444
4163;21653492000;21083311111;21583311111
4176;21693286000;21124988888;21624988888
4189;21733124000;21166677777;21666677777
4202;21772368000;21208711111;21708711111
4211;21812860000;21249988888;21749988888
4222;21852221000;21291644444;21791644444
4233;21891173000;21333311111;21833311111
4245;21930630000;21375055555;21875055555
4256;21970699000;21416722222;21916722222
4267;22010844000;21458388888;21958388888
4276;22010850000;21499977777;21999977777
4277;22010862000;21499977777;21999977777
4278;22051213000;21500055555;22000055555
4289;22090893000;21541755555;22041755555
4300;22130667000;21583388888;22083388888
4311;22170519000;21625055555;22125055555
4322;22210887000;21666733333;22166733333
4332;22210893000;21708311111;22208311111
4333;22250950000;21708400000;22208400000
4343;22250966000;21749988888;22249988888
4344;22291410000;21750066666;22250066666
4355;22331325000;21791733333;22291733333
4356;22331332000;21792033333;22292033333
4357;22331334000;21792033333;22292033333
4358;22331335000;21792033333;22292033333
4359;22371771000;21833322222;22333322222
4366;22371976000;21833400000;22333400000
4367;22371992000;21833722222;22333722222
4368;22371993000;21833722222;22333722222
4369;22371994000;21833722222;22333722222
4370;22411979000;21874988888;22374988888
4377;22412190000;21875066666;22375066666
4378;22412206000;21875388888;22375388888
4379;22412207000;21875388888;22375388888
4380;22412208000;21875388888;22375388888
4381;22452540000;21916655555;22416655555
4388;22452744000;21916733333;22416733333
4390;22454531000;21917044444;22417044444
4391;22454533000;21917044444;22417044444
4392;22493123000;21958322222;22458322222
4400;22493250000;21958733333;22458733333
4401;22493261000;21958733333;22458733333
4402;22493262000;21958733333;22458733333
4403;22533747000;22000000000;22500000000
4410;22533951000;22000111111;22500111111
4411;22533966000;22000411111;22500411111
4412;22533967000;22000411111;22500411111
4413;22533968000;22000411111;22500411111
4414;22574031000;22041655555;22541655555
4422;22574151000;22042022222;22542022222
4423;22574155000;22042022222;22542022222
4424;22574156000;22042022222;22542022222
4425;22614388000;22083322222;22583322222
4430;22614392000;22083322222;22583322222
4431;22614393000;22083322222;22583322222
4432;22614594000;22083400000;22583400000
4433;22614610000;22083733333;22583733333
4434;22614611000;22083733333;22583733333
4435;22614612000;22083733333;22583733333
4436;22655129000;22125022222;22625022222
4444;22655242000;22125466666;22625466666
4445;22655246000;22125466666;22625466666
4446;22655247000;22125466666;22625466666
4447;22695808000;22166655555;22666655555
4452;22695812000;22166655555;22666655555
4453;22695813000;22166655555;22666655555
4454;22696014000;22166744444;22666744444
4455;22696029000;22167055555;22667055555
4456;22696031000;22167055555;22667055555
4457;22696031000;22167055555;22667055555
4458;22736543000;22208322222;22708322222
4465;22736747000;22208433333;22708433333
4466;22736762000;22208744444;22708744444
4467;22736763000;22208744444;22708744444
4468;22736765000;22208744444;22708744444
4469;22776667000;22249988888;22749988888
4477;22776743000;22250400000;22750400000
4478;22776745000;22250400000;22750400000
4479;22776746000;22250400000;22750400000
4480;22817470000;22291655555;22791655555
4488;22817584000;22292022222;22792022222
4489;22817587000;22292022222;22792022222
4490;22817588000;22292022222;22792022222
4491;22858365000;22333322222;22833322222
4497;22858368000;22333322222;22833322222
4498;22858569000;22333411111;22833411111
4499;22858585000;22333722222;22833722222
4500;22858586000;22333722222;22833722222
4501;22858587000;22333722222;22833722222
4502;22898937000;22374988888;22874988888
4510;22899072000;22375377777;22875377777
4511;22899075000;22375377777;22875377777
4512;22899076000;22375377777;22875377777
4513;22939724000;22416655555;22916655555
4520;22939928000;22416755555;22916755555
4521;22939943000;22417033333;22917033333
4522;22939944000;22417033333;22917033333
4523;22939945000;22417033333;22917033333
4524;22979918000;22458322222;22958322222
4532;22980031000;22458722222;22958722222
4533;22980035000;22458722222;22958722222
4534;22980036000;22458722222;22958722222
4535;23020765000;22499988888;22999988888
4543;23020878000;22500388888;23000388888
4544;23020882000;22500388888;23000388888
4545;23020883000;22500388888;23000388888
4546;23060413000;22541666666;23041666666
4554;23061346000;22542055555;23042055555
4555;23061349000;22542055555;23042055555
4556;23061350000;22542055555;23042055555
4557;23102465000;22583355555;23083355555
4564;23102669000;22583455555;23083455555
4565;23102685000;22583766666;23083766666
4566;23102686000;22583766666;23083766666
4567;23102687000;22583766666;23083766666
4568;23143273000;22624988888;23124988888
4574;23143277000;22624988888;23124988888
4575;23143450000;22625088888;23125088888
4576;23143455000;22625388888;23125388888
4577;23143456000;22625388888;23125388888
4578;23143457000;22625388888;23125388888
4579;23182930000;22666688888;23166688888
4587;23184395000;22667066666;23167066666
4588;23184399000;22667066666;23167066666
4589;23184400000;22667066666;23167066666
4590;23225426000;22708322222;23208322222
4598;23225540000;22708711111;23208711111
4599;23225543000;22708711111;23208711111
4600;23225544000;22708711111;23208711111
4601;23265936000;22749988888;23249988888
4609;23266056000;22750388888;23250388888
4610;23266060000;22750388888;23250388888
4611;23266061000;22750388888;23250388888
4612;23305806000;22791655555;23291655555
4620;23306845000;22792044444;23292044444
4621;23306848000;22792044444;23292044444
4622;23306849000;22792044444;23292044444
4623;23348077000;22833333333;23333333333
4631;23348191000;22833733333;23333733333
4632;23348194000;22833733333;23333733333
4633;23348195000;22833733333;23333733333
4634;23388793000;22875000000;23375000000
4642;23388906000;22875411111;23375411111
4643;23388909000;22875411111;23375411111
4644;23388910000;22875411111;23375411111
4645;23429906000;22916666666;23416666666
4652;23430111000;22916766666;23416766666
4653;23430127000;22917055555;23417055555
4654;23430128000;22917055555;23417055555
4655;23430129000;22917055555;23417055555
4656;23470851000;22958333333;23458333333
4663;23471063000;22958433333;23458433333
4664;23471069000;22958755555;23458755555
4665;23471070000;22958755555;23458755555
4666;23471071000;22958755555;23458755555
4667;23511874000;23000022222;23500022222
4674;23512084000;23000144444;23500144444
4675;23512099000;23000422222;23500422222
4676;23512101000;23000422222;23500422222
4677;23512101000;23000422222;23500422222
4678;23552964000;23041666666;23541666666
4685;23553150000;23041766666;23541766666
4686;23553154000;23042044444;23542044444
4687;23553156000;23042044444;23542044444
4688;23553157000;23042044444;23542044444
4689;23594077000;23083333333;23583333333
4697;23594190000;23083766666;23583766666
4698;23594193000;23083766666;23583766666
4699;23594195000;23083766666;23583766666
4700;23635157000;23125000000;23625000000
4708;23635271000;23125411111;23625411111
4709;23635274000;23125411111;23625411111
4710;23635275000;23125411111;23625411111
4711;23676216000;23166666666;23666666666
4716;23676219000;23166666666;23666666666
4717;23676220000;23166666666;23666666666
4718;23676407000;23166777777;23666777777
4719;23676411000;23167055555;23667055555
4720;23676412000;23167055555;23667055555
4721;23676413000;23167055555;23667055555
4722;23717440000;23208344444;23708344444
4730;23717554000;23208755555;23708755555
4731;23717557000;23208755555;23708755555
4732;23717558000;23208755555;23708755555
4733;23758652000;23250000000;23750000000
4741;23758765000;23250411111;23750411111
4742;23758769000;23250411111;23750411111
4743;23758770000;23250411111;23750411111
4744;23799916000;23291700000;23791700000
4751;23800096000;23291811111;23791811111
4752;23800111000;23292133333;23792133333
4753;23800112000;23292133333;23792133333
4754;23800113000;23292133333;23792133333
4755;23841149000;23333333333;23833333333
4763;23841262000;23333777777;23833777777
4764;23841265000;23333777777;23833777777
4765;23841266000;23333777777;23833777777
4766;23882385000;23375000000;23875000000
4774;23882498000;23375444444;23875444444
4775;23882501000;23375444444;23875444444
4776;23882502000;23375444444;23875444444
4777;23923596000;23416666666;23916666666
4787;23923709000;23417088888;23917088888
4788;23964929000;23458333333;23958333333
4796;23965076000;23458777777;23958777777
4797;23965080000;23458777777;23958777777
4798;23965081000;23458777777;23958777777
4799;24006238000;23500033333;24000033333
4807;24006351000;23500477777;24000477777
4808;24006355000;23500477777;24000477777
4809;24006355000;23500477777;24000477777
4810;24047194000;23541666666;24041666666
4816;24047198000;23541666666;24041666666
4817;24047400000;23541788888;24041788888
4818;24047415000;23542100000;24042100000
4819;24047416000;23542100000;24042100000
4820;24047417000;23542100000;24042100000
4821;24088513000;23583333333;24083333333
4829;24088711000;23583800000;24083800000
4830;24088715000;23583800000;24083800000
4831;24088716000;23583800000;24083800000
4832;24129123000;23625000000;24125000000
4839;24129914000;23625122222;24125122222
4840;24129929000;23625455555;24125455555
4841;24129930000;23625455555;24125455555
4842;24129931000;23625455555;24125455555
4843;24171067000;23666700000;24166700000
4851;24171180000;23667133333;24167133333
4852;24171183000;23667133333;24167133333
4853;24171184000;23667133333;24167133333
4854;24212211000;23708333333;24208333333
4861;24212414000;23708466666;24208466666
4862;24212430000;23708766666;24208766666
4863;24212431000;23708766666;24208766666
4864;24212432000;23708766666;24208766666
4865;24253720000;23750000000;24250000000
4872;24253896000;23750144444;24250144444
4873;24253900000;23750477777;24250477777
4874;24253901000;23750477777;24250477777
4875;24253902000;23750477777;24250477777
4876;24295174000;23791666666;24291666666
4883;24295386000;23791800000;24291800000
4884;24295401000;23792111111;24292111111
4885;24295402000;23792111111;24292111111
4886;24295403000;23792111111;24292111111
4887;24336389000;23833333333;24333333333
4893;24336392000;23833333333;24333333333
4894;24336604000;23833466666;24333466666
4895;24336620000;23833800000;24333800000
4896;24336621000;23833800000;24333800000
4897;24336622000;23833800000;24333800000
4898;24377646000;23875011111;24375011111
4905;24377831000;23875133333;24375133333
4906;24377837000;23875466666;24375466666
4907;24377838000;23875466666;24375466666
4908;24377839000;23875466666;24375466666
4909;24419011000;23916677777;24416677777
4917;24419256000;23917133333;24417133333
4918;24419260000;23917133333;24417133333
4919;24419260000;23917133333;24417133333
4920;24460388000;23958344444;24458344444
4928;24460587000;23958844444;24458844444
4929;24460591000;23958844444;24458844444
4930;24460591000;23958844444;24458844444
4931;24501788000;24000033333;24500033333
4939;24501860000;24000500000;24500500000
4940;24501862000;24000500000;24500500000
4941;24501863000;24000500000;24500500000
4942;24543180000;24041677777;24541677777
4950;24543293000;24042111111;24542111111
4951;24543296000;24042111111;24542111111
4952;24543297000;24042111111;24542111111
4953;24584449000;24083344444;24583344444
4961;24584562000;24083822222;24583822222
4962;24584565000;24083822222;24583822222
4963;24584566000;24083822222;24583822222
4964;24625790000;24125011111;24625011111
4972;24625903000;24125488888;24625488888
4973;24625907000;24125488888;24625488888
4974;24625908000;24125488888;24625488888
4975;24666828000;24166677777;24666677777
4983;24667177000;24167133333;24667133333
4984;24667179000;24167133333;24667133333
4985;24667180000;24167133333;24667133333
4986;24708553000;24208344444;24708344444
4994;24708667000;24208800000;24708800000
4995;24708670000;24208800000;24708800000
4996;24708671000;24208800000;24708800000
4997;24749364000;24250011111;24750011111
5004;24749971000;24250144444;24750144444
5005;24749987000;24250488888;24750488888
5006;24749988000;24250488888;24750488888
5007;24749989000;24250488888;24750488888
5008;24790736000;24291677777;24791677777
5012;24790740000;24291677777;24791677777
5013;24790741000;24291677777;24791677777
5014;24790742000;24291677777;24791677777
5015;24791264000;24291822222;24791822222
5019;24791268000;24333344444;24833344444
5020;24791269000;24333344444;24833344444
5021;24791270000;24333344444;24833344444
5022;24791271000;24333344444;24833344444
5023;24791272000;24333344444;24833344444
5024;24791273000;24333344444;24833344444
5025;24791274000;24333344444;24833344444
5026;24832734000;24333488888;24833488888
5030;24832739000;24375011111;24875011111
5031;24832740000;24375011111;24875011111
5032;24832741000;24375011111;24875011111
5033;24832742000;24375011111;24875011111
5034;24832743000;24375011111;24875011111
5035;24832744000;24375011111;24875011111
5036;24832754000;24375011111;24875011111
5037;24874066000;24375155555;24875155555
5040;24874075000;24375488888;24875488888
5041;24915339000;24416700000;24916700000
5043;24915353000;24416700000;24916700000
5044;24915354000;24416700000;24916700000
5045;24915355000;24416700000;24916700000
5046;24915356000;24416700000;24916700000
5047;24915357000;24416700000;24916700000
5048;24915586000;24416844444;24916844444
5051;24915591000;24417133333;24917133333
5052;24956843000;24458366666;24958366666
5053;24956855000;24458366666;24958366666
5054;24956856000;24458366666;24958366666
5055;24956857000;24458366666;24958366666
5056;24956858000;24458366666;24958366666
5057;24956859000;24458366666;24958366666
5058;24956860000;24458366666;24958366666
5059;24957108000;24458522222;24958522222
5060;24957115000;24458822222;24958822222
5061;24957118000;24458822222;24958822222
5062;24957120000;24458822222;24958822222
5063;24998317000;24500011111;25000011111
5064;24998321000;24500011111;25000011111
5065;24998321000;24500011111;25000011111
5066;24998322000;24500011111;25000011111
5067;24998324000;24500011111;25000011111
5068;24998325000;24500011111;25000011111
5069;24998333000;24500011111;25000011111
5070;24998536000;24500155555;25000155555
5071;24998540000;24500488888;25000488888
5072;24998541000;24500488888;25000488888
5073;24998542000;24500488888;25000488888
5074;25039752000;24541677777;25041677777
5075;25039756000;24541677777;25041677777
5076;25039757000;24541677777;25041677777
5077;25039758000;24541677777;25041677777
5078;25039758000;24541677777;25041677777
5079;25039760000;24541677777;25041677777
5080;25039761000;24541677777;25041677777
5081;25039970000;24541822222;25041822222
5082;25039975000;24542133333;25042133333
5083;25039977000;24542133333;25042133333
5084;25039977000;24542133333;25042133333
5085;25081206000;24583344444;25083344444
5086;25081209000;24583344444;25083344444
5087;25081210000;24583344444;25083344444
5088;25081211000;24583344444;25083344444
5089;25081212000;24583344444;25083344444
5090;25081213000;24583344444;25083344444
5091;25081214000;24583344444;25083344444
5092;25081416000;24583500000;25083500000
5093;25081431000;24583833333;25083833333
5096;25122465000;24625011111;25125011111
5098;25123852000;24625011111;25125011111
5099;25123856000;24625011111;25125011111
5100;25123858000;24625011111;25125011111
5101;25123862000;24625011111;25125011111
5103;25124032000;24625166666;25125166666
5105;25124037000;24625522222;25125522222
5106;25124038000;24625522222;25125522222
5107;25164105000;24666677777;25166677777
5108;25164119000;24666677777;25166677777
5109;25164119000;24666677777;25166677777
5110;25164120000;24666677777;25166677777
5111;25164121000;24666677777;25166677777
5112;25164122000;24666677777;25166677777
5113;25164123000;24666677777;25166677777
5114;25164296000;24666833333;25166833333
5115;25164311000;24667133333;25167133333
5116;25164312000;24667133333;25167133333
5117;25164313000;24667133333;25167133333
5118;25205064000;24708344444;25208344444
5119;25205068000;24708344444;25208344444
5120;25205069000;24708344444;25208344444
5121;25205070000;24708344444;25208344444
5122;25205071000;24708344444;25208344444
5123;25205072000;24708344444;25208344444
5124;25205073000;24708344444;25208344444
5125;25205623000;24708500000;25208500000
5126;25205626000;24708800000;25208800000
5127;25205627000;24708800000;25208800000
5128;25205628000;24708800000;25208800000
5129;25246943000;24750033333;25250033333
5130;25246955000;24750033333;25250033333
5131;25246956000;24750033333;25250033333
5132;25246958000;24750033333;25250033333
5133;25246959000;24750033333;25250033333
5134;25246960000;24750033333;25250033333
5135;25246960000;24750033333;25250033333
5136;25247140000;24750188888;25250188888
5137;25247143000;24750500000;25250500000
5138;25247144000;24750500000;25250500000
5139;25247145000;24750500000;25250500000
5140;25288454000;24791700000;25291700000
5141;25288457000;24791700000;25291700000
5142;25288467000;24791700000;25291700000
5143;25288468000;24791700000;25291700000
5144;25288469000;24791700000;25291700000
5145;25288470000;24791700000;25291700000
5146;25288471000;24791700000;25291700000
5147;25288646000;24791855555;25291855555
5148;25288649000;24792166666;25292166666
5149;25288650000;24792166666;25292166666
5150;25288652000;24792166666;25292166666
5151;25329828000;24833388888;25333388888
5152;25329832000;24833388888;25333388888
5153;25329833000;24833388888;25333388888
5154;25329843000;24833388888;25333388888
5155;25329844000;24833388888;25333388888
5156;25329845000;24833388888;25333388888
5157;25329846000;24833388888;25333388888
5158;25329989000;24833555555;25333555555
5159;25329992000;24833866666;25333866666
5160;25329993000;24833866666;25333866666
5161;25329994000;24833866666;25333866666
5162;25371431000;24875033333;25375033333
5163;25371434000;24875033333;25375033333
5164;25371436000;24875033333;25375033333
5165;25371446000;24875033333;25375033333
5166;25371448000;24875033333;25375033333
5167;25371450000;24875033333;25375033333
5168;25371451000;24875033333;25375033333
5169;25371606000;24875200000;25375200000
5170;25371610000;24875566666;25375566666
5171;25371611000;24875566666;25375566666
5172;25371612000;24875566666;25375566666
5173;25412909000;24916677777;25416677777
5174;25412934000;24916677777;25416677777
5175;25412935000;24916677777;25416677777
5176;25412936000;24916677777;25416677777
5177;25412937000;24916677777;25416677777
5178;25412938000;24916677777;25416677777
5179;25412948000;24916677777;25416677777
5180;25413139000;24916844444;25416844444
5181;25413142000;24917155555;25417155555
5182;25413143000;24917155555;25417155555
5183;25413144000;24917155555;25417155555
5184;25454384000;24958366666;25458366666
5185;25454396000;24958366666;25458366666
5186;25454397000;24958366666;25458366666
5187;25454398000;24958366666;25458366666
5188;25454399000;24958366666;25458366666
5189;25454400000;24958366666;25458366666
5190;25454401000;24958366666;25458366666
5191;25454612000;24958566666;25458566666
5192;25454615000;24958900000;25458900000
5193;25454616000;24958900000;25458900000
5194;25454617000;24958900000;25458900000
5195;25495752000;25000077777;25500077777
5196;25495754000;25000077777;25500077777
5197;25495755000;25000077777;25500077777
5198;25495756000;25000077777;25500077777
5199;25495757000;25000077777;25500077777
5200;25495758000;25000077777;25500077777
5201;25495759000;25000077777;25500077777
5202;25495951000;25000244444;25500244444
5203;25495955000;25000588888;25500588888
5204;25495956000;25000588888;25500588888
5205;25495966000;25000588888;25500588888
5206;25537366000;25041688888;25541688888
5207;25537369000;25041688888;25541688888
5208;25537379000;25041688888;25541688888
5209;25537380000;25041688888;25541688888
5210;25537381000;25041688888;25541688888
5211;25537382000;25041688888;25541688888
5212;25537383000;25041688888;25541688888
5213;25537525000;25041844444;25541844444
5214;25537528000;25042144444;25542144444
5215;25537529000;25042144444;25542144444
5216;25537530000;25042144444;25542144444
5217;25578876000;25083355555;25583355555
5218;25578878000;25083355555;25583355555
5219;25578879000;25083355555;25583355555
5220;25578880000;25083355555;25583355555
5221;25578881000;25083355555;25583355555
5222;25578882000;25083355555;25583355555
5223;25578883000;25083355555;25583355555
5224;25578948000;25083533333;25583533333
5225;25578951000;25083866666;25583866666
5226;25578952000;25083866666;25583866666
5227;25578953000;25083866666;25583866666
5228;25620495000;25125055555;25625055555
5229;25620497000;25125055555;25625055555
5230;25620498000;25125055555;25625055555
5231;25620499000;25125055555;25625055555
5232;25620500000;25125055555;25625055555
5233;25620501000;25125055555;25625055555
5234;25620502000;25125055555;25625055555
5235;25620652000;25125222222;25625222222
5236;25620655000;25125588888;25625588888
5237;25620656000;25125588888;25625588888
5238;25620657000;25125588888;25625588888
5239;25661966000;25166688888;25666688888
5240;25661969000;25166688888;25666688888
5241;25661970000;25166688888;25666688888
5242;25661971000;25166688888;25666688888
5243;25661972000;25166688888;25666688888
5244;25661973000;25166688888;25666688888
5245;25661974000;25166688888;25666688888
5246;25662132000;25166855555;25666855555
5247;25662135000;25167166666;25667166666
5248;25662136000;25167166666;25667166666
5249;25662137000;25167166666;25667166666
5250;25703491000;25208355555;25708355555
5251;25703494000;25208355555;25708355555
5252;25703496000;25208355555;25708355555
5253;25703497000;25208355555;25708355555
5254;25703498000;25208355555;25708355555
5255;25703499000;25208355555;25708355555
5256;25703499000;25208355555;25708355555
5257;25703701000;25208555555;25708555555
5258;25703716000;25208833333;25708833333
5259;25703717000;25208833333;25708833333
5260;25703718000;25208833333;25708833333
5261;25745076000;25250044444;25750044444
5262;25745089000;25250044444;25750044444
5263;25745090000;25250044444;25750044444
5264;25745091000;25250044444;25750044444
5265;25745092000;25250044444;25750044444
5266;25745093000;25250044444;25750044444
5267;25745094000;25250044444;25750044444
5268;25745295000;25250211111;25750211111
5269;25745310000;25250577777;25750577777
5270;25745311000;25250577777;25750577777
5271;25745312000;25250577777;25750577777
5272;25786547000;25291688888;25791688888
5273;25786550000;25291688888;25791688888
5274;25786558000;25291688888;25791688888
5275;25786559000;25291688888;25791688888
5276;25786560000;25291688888;25791688888
5277;25786561000;25291688888;25791688888
5278;25786562000;25291688888;25791688888
5279;25786764000;25291855555;25791855555
5280;25786779000;25292177777;25792177777
5281;25786780000;25292177777;25792177777
5282;25786781000;25292177777;25792177777
5283;25828086000;25333355555;25833355555
5284;25828098000;25333355555;25833355555
5285;25828099000;25333355555;25833355555
5286;25828100000;25333355555;25833355555
5287;25828101000;25333355555;25833355555
5288;25828102000;25333355555;25833355555
5289;25828103000;25333355555;25833355555
5290;25828318000;25333555555;25833555555
5291;25828321000;25333855555;25833855555
5292;25828322000;25333855555;25833855555
5293;25828323000;25333855555;25833855555
5294;25869596000;25375055555;25875055555
5295;25869608000;25375055555;25875055555
5296;25869609000;25375055555;25875055555
5297;25869610000;25375055555;25875055555
5298;25869611000;25375055555;25875055555
5299;25869612000;25375055555;25875055555
5300;25869613000;25375055555;25875055555
5301;25869807000;25375233333;25875233333
5302;25869810000;25375588888;25875588888
5303;25869811000;25375588888;25875588888
5304;25869812000;25375588888;25875588888
5305;25911127000;25416700000;25916700000
5306;25911130000;25416700000;25916700000
5307;25911131000;25416700000;25916700000
5308;25911132000;25416700000;25916700000
5309;25911133000;25416700000;25916700000
5310;25911134000;25416700000;25916700000
5311;25911135000;25416700000;25916700000
5312;25911280000;25416877777;25916877777
5313;25911282000;25417166666;25917166666
5314;25911283000;25417166666;25917166666
5315;25911284000;25417166666;25917166666
5316;25952622000;25458355555;25958355555
5317;25952625000;25458355555;25958355555
5318;25952626000;25458355555;25958355555
5319;25952627000;25458355555;25958355555
5320;25952628000;25458355555;25958355555
5321;25952629000;25458355555;25958355555
5322;25952630000;25458355555;25958355555
5323;25952774000;25458555555;25958555555
5324;25952776000;25458844444;25958844444
5325;25952777000;25458844444;25958844444
5326;25952778000;25458844444;25958844444
5327;25994208000;25500022222;26000022222
5328;25994211000;25500022222;26000022222
5329;25994212000;25500022222;26000022222
5330;25994214000;25500022222;26000022222
5331;25994215000;25500022222;26000022222
5332;25994216000;25500022222;26000022222
5333;25994217000;25500022222;26000022222
5334;25994367000;25500200000;26000200000
5335;25994369000;25500544444;26000544444
5336;25994370000;25500544444;26000544444
5337;25994371000;25500544444;26000544444
5338;26035812000;25541711111;26041711111
5339;26035815000;25541711111;26041711111
5340;26035816000;25541711111;26041711111
5341;26035817000;25541711111;26041711111
5342;26035819000;25541711111;26041711111
5343;26035820000;25541711111;26041711111
5344;26035821000;25541711111;26041711111
5345;26036000000;25541900000;26041900000
5346;26036005000;25542222222;26042222222
5347;26036006000;25542222222;26042222222
5348;26036007000;25542222222;26042222222
5349;26077383000;25583377777;26083377777
5350;26077386000;25583377777;26083377777
5351;26077387000;25583377777;26083377777
5352;26077397000;25583377777;26083377777
5353;26077398000;25583377777;26083377777
5354;26077399000;25583377777;26083377777
5355;26077400000;25583377777;26083377777
5356;26077570000;25583577777;26083577777
5357;26077585000;25583900000;26083900000
5358;26077586000;25583900000;26083900000
5359;26077587000;25583900000;26083900000
5360;26119024000;25625044444;26125044444
5361;26119027000;25625044444;26125044444
5362;26119028000;25625044444;26125044444
5363;26119029000;25625044444;26125044444
5364;26119030000;25625044444;26125044444
5365;26119031000;25625044444;26125044444
5366;26119032000;25625044444;26125044444
5367;26119214000;25625211111;26125211111
5368;26119218000;25625577777;26125577777
5369;26119219000;25625577777;26125577777
5370;26119220000;25625577777;26125577777
5371;26160525000;25666688888;26166688888
5372;26160537000;25666688888;26166688888
5373;26160538000;25666688888;26166688888
5374;26160546000;25666688888;26166688888
5375;26160547000;25666688888;26166688888
5376;26160548000;25666688888;26166688888
5377;26160549000;25666688888;26166688888
5378;26160766000;25666866666;26166866666
5379;26160781000;25667177777;26167177777
5380;26160782000;25667177777;26167177777
5381;26160783000;25667177777;26167177777
5382;26202174000;25708377777;26208377777
5383;26202178000;25708377777;26208377777
5384;26202179000;25708377777;26208377777
5385;26202180000;25708377777;26208377777
5386;26202181000;25708377777;26208377777
5387;26202182000;25708377777;26208377777
5388;26202183000;25708377777;26208377777
5389;26202356000;25708588888;26208588888
5390;26202361000;25708866666;26208866666
5391;26202362000;25708866666;26208866666
5392;26202363000;25708866666;26208866666
5393;26243685000;25750044444;26250044444
5394;26243687000;25750044444;26250044444
5395;26243688000;25750044444;26250044444
5396;26243689000;25750044444;26250044444
5397;26243690000;25750044444;26250044444
5398;26243691000;25750044444;26250044444
5399;26243692000;25750044444;26250044444
5400;26243837000;25750222222;26250222222
5401;26243839000;25750555555;26250555555
5402;26243840000;25750555555;26250555555
5403;26243841000;25750555555;26250555555
5404;26285263000;25791688888;26291688888
5405;26285266000;25791688888;26291688888
5406;26285267000;25791688888;26291688888
5407;26285268000;25791688888;26291688888
5408;26285269000;25791688888;26291688888
5409;26285270000;25791688888;26291688888
5410;26285270000;25791688888;26291688888
5411;26285414000;25791877777;26291877777
5412;26285417000;25792177777;26292177777
5413;26285418000;25792177777;26292177777
5414;26285419000;25792177777;26292177777
5415;26326852000;25833355555;26333355555
5416;26326853000;25833355555;26333355555
5417;26326854000;25833355555;26333355555
5418;26326855000;25833355555;26333355555
5419;26326856000;25833355555;26333355555
5420;26326857000;25833355555;26333355555
5421;26326858000;25833355555;26333355555
5422;26326977000;25833566666;26333566666
5423;26326979000;25833877777;26333877777
5424;26326980000;25833877777;26333877777
5425;26326981000;25833877777;26333877777
5426;26368489000;25875066666;26375066666
5427;26368491000;25875066666;26375066666
5428;26368492000;25875066666;26375066666
5429;26368493000;25875066666;26375066666
5430;26368494000;25875066666;26375066666
5431;26368495000;25875066666;26375066666
5432;26368496000;25875066666;26375066666
5433;26368666000;25875255555;26375255555
5434;26368668000;25875633333;26375633333
5435;26368669000;25875633333;26375633333
5436;26368670000;25875633333;26375633333
5437;26410109000;25916711111;26416711111
5438;26410111000;25916711111;26416711111
5439;26410112000;25916711111;26416711111
5440;26410113000;25916711111;26416711111
5441;26410123000;25916711111;26416711111
5442;26410124000;25916711111;26416711111
5443;26410125000;25916711111;26416711111
5444;26410338000;25916888888;26416888888
5445;26410340000;25917211111;26417211111
5446;26410341000;25917211111;26417211111
5447;26410342000;25917211111;26417211111
5448;26451670000;25958377777;26458377777
5449;26451672000;25958377777;26458377777
5450;26451673000;25958377777;26458377777
5451;26451674000;25958377777;26458377777
5452;26451675000;25958377777;26458377777
5453;26451675000;25958377777;26458377777
5454;26451686000;25958377777;26458377777
5455;26451896000;25958588888;26458588888
5456;26451899000;25958911111;26458911111
5457;26451900000;25958911111;26458911111
5458;26451901000;25958911111;26458911111
5459;26493238000;26000088888;26500088888
5460;26493241000;26000088888;26500088888
5461;26493241000;26000088888;26500088888
5462;26493242000;26000088888;26500088888
5463;26493243000;26000088888;26500088888
5464;26493244000;26000088888;26500088888
5465;26493245000;26000088888;26500088888
5466;26493389000;26000300000;26500300000
5467;26493392000;26000644444;26500644444
5468;26493393000;26000644444;26500644444
5469;26493394000;26000644444;26500644444
5470;26534805000;26041711111;26541711111
5471;26534807000;26041711111;26541711111
5472;26534808000;26041711111;26541711111
5473;26534809000;26041711111;26541711111
5474;26534827000;26041711111;26541711111
5475;26534827000;26041711111;26541711111
5476;26534828000;26041711111;26541711111
5477;26534963000;26041900000;26541900000
5478;26534965000;26042200000;26542200000
5479;26534966000;26042200000;26542200000
5480;26534967000;26042200000;26542200000
5481;26576405000;26083377777;26583377777
5482;26576407000;26083377777;26583377777
5483;26576408000;26083377777;26583377777
5484;26576409000;26083377777;26583377777
5485;26576419000;26083377777;26583377777
5486;26576420000;26083377777;26583377777
5487;26576421000;26083377777;26583377777
5488;26576625000;26083600000;26583600000
5489;26576628000;26083911111;26583911111
5490;26576629000;26083911111;26583911111
5491;26576630000;26083911111;26583911111
5492;26618057000;26125066666;26625066666
5493;26618061000;26125066666;26625066666
5494;26618061000;26125066666;26625066666
5495;26618062000;26125066666;26625066666
5497;26620057000;26125066666;26625066666
5498;26620060000;26125066666;26625066666
5499;26620263000;26125266666;26625266666
