seqnum;now;rtptime;deadline
0;7689887000;7587500000;7787500000
1;7689894000;7587500000;7787500000
2;7689896000;7587500000;7787500000
3;7689898000;7587500000;7787500000
4;7689900000;7587500000;7787500000
5;7689901000;7587500000;7787500000
6;7689903000;7587500000;7787500000
7;7689905000;7587500000;7787500000
8;7689907000;7587500000;7787500000
9;7689908000;7587500000;7787500000
10;7690933000;7587500000;7787500000
11;7690953000;7619188888;7819188888
12;7690955000;7619188888;7819188888
13;7690957000;7619188888;7819188888
14;7690958000;7619188888;7819188888
15;7690960000;7619188888;7819188888
16;7690961000;7619188888;7819188888
17;7690962000;7619188888;7819188888
18;7690964000;7619188888;7819188888
19;7690965000;7619188888;7819188888
20;7690966000;7619188888;7819188888
21;7721566000;7619188888;7819188888
22;7722903000;7660877777;7860877777
23;7722906000;7660877777;7860877777
24;7723107000;7660877777;7860877777
25;7723110000;7660877777;7860877777
26;7723354000;7660877777;7860877777
27;7723357000;7660877777;7860877777
28;7723638000;7660877777;7860877777
29;7723641000;7660877777;7860877777
30;7723871000;7660877777;7860877777
31;7723874000;7660877777;7860877777
32;7763267000;7660877777;7860877777
33;7764559000;7702511111;7902511111
34;7764575000;7702511111;7902511111
35;7764746000;7702511111;7902511111
36;7764748000;7702511111;7902511111
37;7765016000;7702511111;7902511111
38;7765018000;7702511111;7902511111
39;7765246000;7702511111;7902511111
40;7765248000;7702511111;7902511111
41;7765494000;7702511111;7902511111
42;7765497000;7702511111;7902511111
43;7804870000;7702511111;7902511111
44;7806245000;7744233333;7944233333
45;7806248000;7744233333;7944233333
46;7806420000;7744233333;7944233333
47;7806423000;7744233333;7944233333
48;7806667000;7744233333;7944233333
49;7806670000;7744233333;7944233333
50;7806916000;7744233333;7944233333
51;7806920000;7744233333;7944233333
52;7807169000;7744233333;7944233333
53;7807171000;7744233333;7944233333
54;7846560000;7744233333;7944233333
55;7847851000;7785811111;7985811111
56;7847853000;7785811111;7985811111
57;7848052000;7785811111;7985811111
58;7848056000;7785811111;7985811111
59;7848299000;7785811111;7985811111
60;7848307000;7785811111;7985811111
61;7848530000;7785811111;7985811111
62;7848536000;7785811111;7985811111
63;7848798000;7785811111;7985811111
64;7848805000;7785811111;7985811111
65;7888137000;7785811111;7985811111
66;7889549000;7827444444;8027444444
67;7889551000;7827444444;8027444444
68;7889721000;7827444444;8027444444
69;7889729000;7827444444;8027444444
70;7889972000;7827444444;8027444444
71;7889986000;7827444444;8027444444
72;7890224000;7827444444;8027444444
73;7890228000;7827444444;8027444444
74;7890479000;7827444444;8027444444
75;7890481000;7827444444;8027444444
76;7929828000;7827444444;8027444444
77;7931212000;7869166666;8069166666
78;7931215000;7869166666;8069166666
79;7931433000;7869166666;8069166666
80;7931435000;7869166666;8069166666
81;7931655000;7869166666;8069166666
82;7931658000;7869166666;8069166666
83;7931873000;7869166666;8069166666
84;7931876000;7869166666;8069166666
85;7932122000;7869166666;8069166666
86;7932134000;7869166666;8069166666
87;7971494000;7869166666;8069166666
88;7972851000;7910800000;8110800000
89;7972854000;7910800000;8110800000
90;7973070000;7910800000;8110800000
91;7973077000;7910800000;8110800000
92;7973282000;7910800000;8110800000
93;7973290000;7910800000;8110800000
94;7973534000;7910800000;8110800000
95;7973541000;7910800000;8110800000
96;7973785000;7910800000;8110800000
97;7973802000;7910800000;8110800000
98;8013179000;7910800000;8110800000
99;8014585000;7952466666;8152466666
100;8014589000;7952466666;8152466666
101;8014772000;7952466666;8152466666
102;8014776000;7952466666;8152466666
103;8015011000;7952466666;8152466666
104;8015014000;7952466666;8152466666
105;8015261000;7952466666;8152466666
106;8015264000;7952466666;8152466666
107;8015482000;7952466666;8152466666
108;8015493000;7952466666;8152466666
109;8054785000;7952466666;8152466666
110;8056200000;7994122222;8194122222
111;8056203000;7994122222;8194122222
112;8056428000;7994122222;8194122222
113;8056498000;7994122222;8194122222
114;8056655000;7994122222;8194122222
115;8056663000;7994122222;8194122222
116;8056906000;7994122222;8194122222
117;8056914000;7994122222;8194122222
118;8057158000;7994122222;8194122222
119;8057166000;7994122222;8194122222
120;8096438000;7994122222;8194122222
121;8097834000;8035811111;8235811111
122;8098084000;8035811111;8235811111
123;8098088000;8035811111;8235811111
124;8098090000;8035811111;8235811111
125;8098299000;8035811111;8235811111
126;8098301000;8035811111;8235811111
127;8098560000;8035811111;8235811111
128;8098563000;8035811111;8235811111
129;8098800000;8035811111;8235811111
130;8098803000;8035811111;8235811111
131;8138123000;8035811111;8235811111
132;8139534000;8077433333;8277433333
133;8139536000;8077433333;8277433333
134;8139755000;8077433333;8277433333
135;8139772000;8077433333;8277433333
136;8139969000;8077433333;8277433333
137;8139976000;8077433333;8277433333
138;8140219000;8077433333;8277433333
139;8140226000;8077433333;8277433333
140;8140469000;8077433333;8277433333
141;8140478000;8077433333;8277433333
142;8179752000;8077433333;8277433333
143;8181208000;8119111111;8319111111
144;8181211000;8119111111;8319111111
145;8181431000;8119111111;8319111111
146;8181438000;8119111111;8319111111
147;8181672000;8119111111;8319111111
148;8181679000;8119111111;8319111111
149;8181923000;8119111111;8319111111
150;8181930000;8119111111;8319111111
151;8182175000;8119111111;8319111111
152;8182182000;8119111111;8319111111
153;8221475000;8119111111;8319111111
154;8222849000;8160822222;8360822222
155;8222861000;8160822222;8360822222
156;8223114000;8160822222;8360822222
157;8223117000;8160822222;8360822222
158;8223323000;8160822222;8360822222
159;8223326000;8160822222;8360822222
160;8223555000;8160822222;8360822222
161;8223567000;8160822222;8360822222
162;8223822000;8160822222;8360822222
163;8223825000;8160822222;8360822222
164;8263181000;8160822222;8360822222
165;8264538000;8202455555;8402455555
166;8264541000;8202455555;8402455555
167;8264757000;8202455555;8402455555
168;8264770000;8202455555;8402455555
169;8264991000;8202455555;8402455555
170;8264994000;8202455555;8402455555
171;8265211000;8202455555;8402455555
172;8265213000;8202455555;8402455555
173;8265456000;8202455555;8402455555
174;8265461000;8202455555;8402455555
175;8304813000;8202455555;8402455555
176;8306191000;8244144444;8444144444
177;8306194000;8244144444;8444144444
178;8306429000;8244144444;8444144444
179;8306431000;8244144444;8444144444
180;8306644000;8244144444;8444144444
181;8306646000;8244144444;8444144444
182;8306893000;8244144444;8444144444
183;8306896000;8244144444;8444144444
184;8307143000;8244144444;8444144444
185;8307146000;8244144444;8444144444
186;8346503000;8244144444;8444144444
187;8347836000;8285777777;8485777777
188;8347839000;8285777777;8485777777
189;8348072000;8285777777;8485777777
190;8348079000;8285777777;8485777777
191;8348300000;8285777777;8485777777
192;8348308000;8285777777;8485777777
193;8348534000;8285777777;8485777777
194;8348540000;8285777777;8485777777
195;8348770000;8285777777;8485777777
196;8348772000;8285777777;8485777777
197;8388089000;8285777777;8485777777
198;8389495000;8327433333;8527433333
199;8389498000;8327433333;8527433333
200;8389743000;8327433333;8527433333
201;8389750000;8327433333;8527433333
202;8389967000;8327433333;8527433333
203;8389974000;8327433333;8527433333
204;8390218000;8327433333;8527433333
205;8390225000;8327433333;8527433333
206;8390468000;8327433333;8527433333
207;8390476000;8327433333;8527433333
208;8429734000;8327433333;8527433333
209;8431146000;8369100000;8569100000
210;8431426000;8369100000;8569100000
211;8431433000;8369100000;8569100000
212;8431437000;8369100000;8569100000
213;8431626000;8369100000;8569100000
214;8431634000;8369100000;8569100000
215;8431874000;8369100000;8569100000
216;8431882000;8369100000;8569100000
217;8432158000;8369100000;8569100000
218;8432166000;8369100000;8569100000
219;8471389000;8369100000;8569100000
220;8472840000;8410833333;8610833333
221;8472842000;8410833333;8610833333
222;8473079000;8410833333;8610833333
223;8473086000;8410833333;8610833333
224;8473316000;8410833333;8610833333
225;8473323000;8410833333;8610833333
226;8473567000;8410833333;8610833333
227;8473574000;8410833333;8610833333
228;8473817000;8410833333;8610833333
229;8473824000;8410833333;8610833333
230;8513113000;8410833333;8610833333
231;8514546000;8452466666;8652466666
232;8514547000;8452466666;8652466666
233;8514774000;8452466666;8652466666
234;8514781000;8452466666;8652466666
235;8515005000;8452466666;8652466666
236;8515013000;8452466666;8652466666
237;8515258000;8452466666;8652466666
238;8515265000;8452466666;8652466666
239;8515508000;8452466666;8652466666
240;8515522000;8452466666;8652466666
241;8554760000;8452466666;8652466666
242;8556188000;8494144444;8694144444
243;8556190000;8494144444;8694144444
244;8556441000;8494144444;8694144444
245;8556448000;8494144444;8694144444
246;8556662000;8494144444;8694144444
247;8556669000;8494144444;8694144444
248;8556883000;8494144444;8694144444
249;8556885000;8494144444;8694144444
250;8557145000;8494144444;8694144444
251;8557147000;8494144444;8694144444
252;8596438000;8494144444;8694144444
253;8597856000;8535855555;8735855555
254;8597859000;8535855555;8735855555
255;8598106000;8535855555;8735855555
256;8598109000;8535855555;8735855555
257;8598321000;8535855555;8735855555
258;8598323000;8535855555;8735855555
259;8598571000;8535855555;8735855555
260;8598574000;8535855555;8735855555
261;8598823000;8535855555;8735855555
262;8598825000;8535855555;8735855555
263;8638597000;8535855555;8735855555
264;8639524000;8577433333;8777433333
265;8639528000;8577433333;8777433333
266;8639712000;8577433333;8777433333
267;8639715000;8577433333;8777433333
268;8639959000;8577433333;8777433333
269;8639971000;8577433333;8777433333
270;8640266000;8577433333;8777433333
271;8640269000;8577433333;8777433333
272;8640523000;8577433333;8777433333
273;8640527000;8577433333;8777433333
274;8679808000;8577433333;8777433333
275;8681220000;8619100000;8819100000
276;8681231000;8619100000;8819100000
277;8681419000;8619100000;8819100000
278;8681422000;8619100000;8819100000
279;8681669000;8619100000;8819100000
280;8681671000;8619100000;8819100000
281;8681925000;8619100000;8819100000
282;8681927000;8619100000;8819100000
283;8682180000;8619100000;8819100000
284;8682183000;8619100000;8819100000
285;8721435000;8619100000;8819100000
286;8722850000;8660811111;8860811111
287;8722865000;8660811111;8860811111
288;8723096000;8660811111;8860811111
289;8723110000;8660811111;8860811111
290;8723330000;8660811111;8860811111
291;8723334000;8660811111;8860811111
292;8723554000;8660811111;8860811111
293;8723557000;8660811111;8860811111
294;8723794000;8660811111;8860811111
295;8723805000;8660811111;8860811111
296;8763185000;8660811111;8860811111
297;8764544000;8702422222;8902422222
298;8764546000;8702422222;8902422222
299;8764753000;8702422222;8902422222
300;8764755000;8702422222;8902422222
301;8765010000;8702422222;8902422222
302;8765013000;8702422222;8902422222
303;8765258000;8702422222;8902422222
304;8765261000;8702422222;8902422222
305;8765532000;8702422222;8902422222
306;8765534000;8702422222;8902422222
307;8804769000;8702422222;8902422222
308;8806192000;8744111111;8944111111
309;8806205000;8744111111;8944111111
310;8806397000;8744111111;8944111111
311;8806400000;8744111111;8944111111
312;8806648000;8744111111;8944111111
313;8806651000;8744111111;8944111111
314;8806896000;8744111111;8944111111
315;8806899000;8744111111;8944111111
316;8807116000;8744111111;8944111111
317;8807127000;8744111111;8944111111
318;8846434000;8744111111;8944111111
319;8847863000;8785788888;8985788888
320;8847865000;8785788888;8985788888
321;8848046000;8785788888;8985788888
322;8848053000;8785788888;8985788888
323;8848295000;8785788888;8985788888
324;8848303000;8785788888;8985788888
325;8848547000;8785788888;8985788888
326;8848554000;8785788888;8985788888
327;8848797000;8785788888;8985788888
328;8848804000;8785788888;8985788888
329;8888136000;8785788888;8985788888
330;8889539000;8827433333;9027433333
331;8889541000;8827433333;9027433333
332;8889730000;8827433333;9027433333
333;8889733000;8827433333;9027433333
334;8889981000;8827433333;9027433333
335;8890023000;8827433333;9027433333
336;8890232000;8827433333;9027433333
337;8890234000;8827433333;9027433333
338;8890502000;8827433333;9027433333
339;8890504000;8827433333;9027433333
340;8929802000;8827433333;9027433333
341;8931203000;8869111111;9069111111
342;8931206000;8869111111;9069111111
343;8931440000;8869111111;9069111111
344;8931443000;8869111111;9069111111
345;8931659000;8869111111;9069111111
346;8931662000;8869111111;9069111111
347;8931877000;8869111111;9069111111
348;8931879000;8869111111;9069111111
349;8932125000;8869111111;9069111111
350;8932137000;8869111111;9069111111
351;8971469000;8869111111;9069111111
352;8972883000;8910788888;9110788888
353;8972894000;8910788888;9110788888
354;8973131000;8910788888;9110788888
355;8973134000;8910788888;9110788888
356;8973358000;8910788888;9110788888
357;8973361000;8910788888;9110788888
358;8973609000;8910788888;9110788888
359;8973612000;8910788888;9110788888
360;8973859000;8910788888;9110788888
361;8973862000;8910788888;9110788888
362;9013131000;8910788888;9110788888
363;9014483000;8952488888;9152488888
364;9014786000;8952488888;9152488888
365;9014789000;8952488888;9152488888
366;9014790000;8952488888;9152488888
367;9014979000;8952488888;9152488888
368;9014991000;8952488888;9152488888
369;9015261000;8952488888;9152488888
370;9015264000;8952488888;9152488888
371;9015532000;8952488888;9152488888
372;9015535000;8952488888;9152488888
373;9054844000;8952488888;9152488888
374;9056178000;8994122222;9194122222
375;9056190000;8994122222;9194122222
376;9056437000;8994122222;9194122222
377;9056440000;8994122222;9194122222
378;9056657000;8994122222;9194122222
379;9056659000;8994122222;9194122222
380;9056907000;8994122222;9194122222
381;9056910000;8994122222;9194122222
382;9057126000;8994122222;9194122222
383;9057128000;8994122222;9194122222
384;9096476000;8994122222;9194122222
385;9097910000;9035777777;9235777777
386;9097913000;9035777777;9235777777
387;9098141000;9035777777;9235777777
388;9098152000;9035777777;9235777777
389;9098362000;9035777777;9235777777
390;9098365000;9035777777;9235777777
391;9098599000;9035777777;9235777777
392;9098602000;9035777777;9235777777
393;9098865000;9035777777;9235777777
394;9098867000;9035777777;9235777777
395;9138152000;9035777777;9235777777
396;9139536000;9077455555;9277455555
397;9139539000;9077455555;9277455555
398;9139766000;9077455555;9277455555
399;9139778000;9077455555;9277455555
400;9139989000;9077455555;9277455555
401;9139992000;9077455555;9277455555
402;9140241000;9077455555;9277455555
403;9140243000;9077455555;9277455555
404;9140459000;9077455555;9277455555
405;9140471000;9077455555;9277455555
406;9179810000;9077455555;9277455555
407;9181185000;9119100000;9319100000
408;9181187000;9119100000;9319100000
409;9181427000;9119100000;9319100000
410;9181429000;9119100000;9319100000
411;9181678000;9119100000;9319100000
412;9181681000;9119100000;9319100000
413;9181960000;9119100000;9319100000
414;9181962000;9119100000;9319100000
415;9182178000;9119100000;9319100000
416;9182180000;9119100000;9319100000
417;9221430000;9119100000;9319100000
418;9222892000;9160811111;9360811111
419;9222895000;9160811111;9360811111
420;9223087000;9160811111;9360811111
421;9223090000;9160811111;9360811111
422;9223336000;9160811111;9360811111
423;9223338000;9160811111;9360811111
424;9223592000;9160811111;9360811111
425;9223595000;9160811111;9360811111
426;9223801000;9160811111;9360811111
427;9223816000;9160811111;9360811111
428;9263164000;9160811111;9360811111
429;9264569000;9202444444;9402444444
430;9264572000;9202444444;9402444444
431;9264753000;9202444444;9402444444
432;9264755000;9202444444;9402444444
433;9265002000;9202444444;9402444444
434;9265005000;9202444444;9402444444
435;9265253000;9202444444;9402444444
436;9265256000;9202444444;9402444444
437;9265504000;9202444444;9402444444
438;9265523000;9202444444;9402444444
439;9304812000;9202444444;9402444444
440;9306197000;9244155555;9444155555
441;9306199000;9244155555;9444155555
442;9306380000;9244155555;9444155555
443;9306394000;9244155555;9444155555
444;9306669000;9244155555;9444155555
445;9306671000;9244155555;9444155555
446;9306925000;9244155555;9444155555
447;9306927000;9244155555;9444155555
448;9307176000;9244155555;9444155555
449;9307179000;9244155555;9444155555
450;9346551000;9244155555;9444155555
451;9347863000;9285766666;9485766666
452;9347875000;9285766666;9485766666
453;9348072000;9285766666;9485766666
454;9348075000;9285766666;9485766666
455;9348321000;9285766666;9485766666
456;9348324000;9285766666;9485766666
457;9348571000;9285766666;9485766666
458;9348574000;9285766666;9485766666
459;9348807000;9285766666;9485766666
460;9348823000;9285766666;9485766666
461;9388144000;9285766666;9485766666
462;9389544000;9327422222;9527422222
463;9389556000;9327422222;9527422222
464;9389785000;9327422222;9527422222
465;9389797000;9327422222;9527422222
466;9389988000;9327422222;9527422222
467;9389991000;9327422222;9527422222
468;9390240000;9327422222;9527422222
469;9390242000;9327422222;9527422222
470;9390490000;9327422222;9527422222
471;9390493000;9327422222;9527422222
472;9429735000;9327422222;9527422222
473;9431165000;9369100000;9569100000
474;9431168000;9369100000;9569100000
475;9431395000;9369100000;9569100000
476;9431410000;9369100000;9569100000
477;9431656000;9369100000;9569100000
478;9431659000;9369100000;9569100000
479;9431906000;9369100000;9569100000
480;9431909000;9369100000;9569100000
481;9432128000;9369100000;9569100000
482;9432140000;9369100000;9569100000
483;9471458000;9369100000;9569100000
484;9472842000;9410800000;9610800000
485;9472844000;9410800000;9610800000
486;9473090000;9410800000;9610800000
487;9473102000;9410800000;9610800000
488;9473316000;9410800000;9610800000
489;9473318000;9410800000;9610800000
490;9473566000;9410800000;9610800000
491;9473568000;9410800000;9610800000
492;9473819000;9410800000;9610800000
493;9473821000;9410800000;9610800000
494;9513176000;9410800000;9610800000
495;9514509000;9452444444;9652444444
496;9514534000;9452444444;9652444444
497;9514746000;9452444444;9652444444
498;9514757000;9452444444;9652444444
499;9514953000;9452444444;9652444444
500;9514955000;9452444444;9652444444
501;9515233000;9452444444;9652444444
502;9515235000;9452444444;9652444444
503;9515484000;9452444444;9652444444
504;9515486000;9452444444;9652444444
505;9554816000;9452444444;9652444444
506;9556195000;9494122222;9694122222
507;9556197000;9494122222;9694122222
508;9556455000;9494122222;9694122222
509;9556456000;9494122222;9694122222
510;9556669000;9494122222;9694122222
511;9556670000;9494122222;9694122222
512;9556919000;9494122222;9694122222
513;9556921000;9494122222;9694122222
514;9557139000;9494122222;9694122222
515;9557141000;9494122222;9694122222
516;9596484000;9494122222;9694122222
517;9597863000;9535822222;9735822222
518;9597875000;9535822222;9735822222
519;9598119000;9535822222;9735822222
520;9598131000;9535822222;9735822222
521;9598335000;9535822222;9735822222
522;9598338000;9535822222;9735822222
523;9598587000;9535822222;9735822222
524;9598590000;9535822222;9735822222
525;9598837000;9535822222;9735822222
526;9598840000;9535822222;9735822222
527;9638194000;9535822222;9735822222
528;9639571000;9577455555;9777455555
529;9639583000;9577455555;9777455555
530;9639797000;9577455555;9777455555
531;9639800000;9577455555;9777455555
532;9640012000;9577455555;9777455555
533;9640015000;9577455555;9777455555
534;9640261000;9577455555;9777455555
535;9640264000;9577455555;9777455555
536;9640533000;9577455555;9777455555
537;9640536000;9577455555;9777455555
538;9679815000;9577455555;9777455555
539;9681182000;9619122222;9819122222
540;9681193000;9619122222;9819122222
541;9681444000;9619122222;9819122222
542;9681447000;9619122222;9819122222
543;9681656000;9619122222;9819122222
544;9681659000;9619122222;9819122222
545;9681874000;9619122222;9819122222
546;9681886000;9619122222;9819122222
547;9682156000;9619122222;9819122222
548;9682158000;9619122222;9819122222
549;9721485000;9619122222;9819122222
550;9722847000;9660800000;9860800000
551;9722859000;9660800000;9860800000
552;9723114000;9660800000;9860800000
553;9723117000;9660800000;9860800000
554;9723321000;9660800000;9860800000
555;9723324000;9660800000;9860800000
556;9723572000;9660800000;9860800000
557;9723575000;9660800000;9860800000
558;9723822000;9660800000;9860800000
559;9723825000;9660800000;9860800000
560;9763155000;9660800000;9860800000
561;9764547000;9702433333;9902433333
562;9764550000;9702433333;9902433333
563;9764769000;9702433333;9902433333
564;9764771000;9702433333;9902433333
565;9764999000;9702433333;9902433333
566;9765001000;9702433333;9902433333
567;9765251000;9702433333;9902433333
568;9765253000;9702433333;9902433333
569;9765503000;9702433333;9902433333
570;9765505000;9702433333;9902433333
571;9804793000;9702433333;9902433333
572;9806185000;9744144444;9944144444
573;9806198000;9744144444;9944144444
574;9806434000;9744144444;9944144444
575;9806437000;9744144444;9944144444
576;9806664000;9744144444;9944144444
577;9806666000;9744144444;9944144444
578;9806881000;9744144444;9944144444
579;9806893000;9744144444;9944144444
580;9807163000;9744144444;9944144444
581;9807166000;9744144444;9944144444
582;9846457000;9744144444;9944144444
583;9847835000;9785800000;9985800000
584;9847838000;9785800000;9985800000
585;9848088000;9785800000;9985800000
586;9848104000;9785800000;9985800000
587;9848323000;9785800000;9985800000
588;9848326000;9785800000;9985800000
589;9848575000;9785800000;9985800000
590;9848577000;9785800000;9985800000
591;9848795000;9785800000;9985800000
592;9848807000;9785800000;9985800000
593;9888159000;9785800000;9985800000
594;9889525000;9827444444;10027444444
595;9889528000;9827444444;10027444444
596;9889779000;9827444444;10027444444
597;9889782000;9827444444;10027444444
598;9889990000;9827444444;10027444444
599;9889993000;9827444444;10027444444
600;9890241000;9827444444;10027444444
601;9890244000;9827444444;10027444444
602;9890490000;9827444444;10027444444
603;9890493000;9827444444;10027444444
604;9929757000;9827444444;10027444444
605;9931143000;9869111111;10069111111
606;9931418000;9869111111;10069111111
607;9931434000;9869111111;10069111111
608;9931436000;9869111111;10069111111
609;9931647000;9869111111;10069111111
610;9931650000;9869111111;10069111111
611;9931895000;9869111111;10069111111
612;9931907000;9869111111;10069111111
613;9932197000;9869111111;10069111111
614;9932200000;9869111111;10069111111
615;9971471000;9869111111;10069111111
616;9972825000;9910811111;10110811111
617;9972837000;9910811111;10110811111
618;9973099000;9910811111;10110811111
619;9973101000;9910811111;10110811111
620;9973306000;9910811111;10110811111
621;9973309000;9910811111;10110811111
622;9973557000;9910811111;10110811111
623;9973560000;9910811111;10110811111
624;9973807000;9910811111;10110811111
625;9973809000;9910811111;10110811111
626;10013185000;9910811111;10110811111
627;10014497000;9952433333;10152433333
628;10014756000;9952433333;10152433333
629;10014769000;9952433333;10152433333
630;10014770000;9952433333;10152433333
631;10015012000;9952433333;10152433333
632;10015015000;9952433333;10152433333
633;10015231000;9952433333;10152433333
634;10015243000;9952433333;10152433333
635;10015534000;9952433333;10152433333
636;10015537000;9952433333;10152433333
637;10054739000;9952433333;10152433333
638;10056158000;9994133333;10194133333
639;10056161000;9994133333;10194133333
640;10056395000;9994133333;10194133333
641;10056411000;9994133333;10194133333
642;10056657000;9994133333;10194133333
643;10056660000;9994133333;10194133333
644;10056907000;9994133333;10194133333
645;10056910000;9994133333;10194133333
646;10057126000;9994133333;10194133333
647;10057138000;9994133333;10194133333
648;10096535000;9994133333;10194133333
649;10097867000;10035788888;10235788888
650;10098134000;10035788888;10235788888
651;10098138000;10035788888;10235788888
652;10098140000;10035788888;10235788888
653;10098364000;10035788888;10235788888
654;10098367000;10035788888;10235788888
655;10098566000;10035788888;10235788888
656;10098578000;10035788888;10235788888
657;10098849000;10035788888;10235788888
658;10098851000;10035788888;10235788888
659;10138164000;10035788888;10235788888
660;10139534000;10077466666;10277466666
661;10139537000;10077466666;10277466666
662;10139772000;10077466666;10277466666
663;10139775000;10077466666;10277466666
664;10139990000;10077466666;10277466666
665;10139993000;10077466666;10277466666
666;10140241000;10077466666;10277466666
667;10140243000;10077466666;10277466666
668;10140493000;10077466666;10277466666
669;10140496000;10077466666;10277466666
670;10179829000;10077466666;10277466666
671;10181209000;10119188888;10319188888
672;10181221000;10119188888;10319188888
673;10181481000;10119188888;10319188888
674;10181484000;10119188888;10319188888
675;10181681000;10119188888;10319188888
676;10181683000;10119188888;10319188888
677;10181930000;10119188888;10319188888
678;10181934000;10119188888;10319188888
679;10182150000;10119188888;10319188888
680;10182162000;10119188888;10319188888
681;10221562000;10119188888;10319188888
682;10222841000;10160844444;10360844444
683;10222843000;10160844444;10360844444
684;10223074000;10160844444;10360844444
685;10223077000;10160844444;10360844444
686;10223324000;10160844444;10360844444
687;10223327000;10160844444;10360844444
688;10223551000;10160844444;10360844444
689;10223565000;10160844444;10360844444
690;10223818000;10160844444;10360844444
691;10223820000;10160844444;10360844444
692;10263217000;10160844444;10360844444
693;10264483000;10202455555;10402455555
694;10264745000;10202455555;10402455555
695;10264748000;10202455555;10402455555
696;10264776000;10202455555;10402455555
697;10264951000;10202455555;10402455555
698;10264953000;10202455555;10402455555
699;10265200000;10202455555;10402455555
700;10265201000;10202455555;10402455555
701;10265482000;10202455555;10402455555
702;10265484000;10202455555;10402455555
703;10304826000;10202455555;10402455555
704;10306174000;10244155555;10444155555
705;10306177000;10244155555;10444155555
706;10306440000;10244155555;10444155555
707;10306443000;10244155555;10444155555
708;10306651000;10244155555;10444155555
709;10306653000;10244155555;10444155555
710;10306898000;10244155555;10444155555
711;10306900000;10244155555;10444155555
712;10307151000;10244155555;10444155555
713;10307153000;10244155555;10444155555
714;10346546000;10244155555;10444155555
715;10347832000;10285788888;10485788888
716;10347834000;10285788888;10485788888
717;10348119000;10285788888;10485788888
718;10348131000;10285788888;10485788888
719;10348334000;10285788888;10485788888
720;10348335000;10285788888;10485788888
721;10348551000;10285788888;10485788888
722;10348553000;10285788888;10485788888
723;10348798000;10285788888;10485788888
724;10348801000;10285788888;10485788888
725;10388149000;10285788888;10485788888
726;10389531000;10327433333;10527433333
727;10389547000;10327433333;10527433333
728;10389781000;10327433333;10527433333
729;10389795000;10327433333;10527433333
730;10390001000;10327433333;10527433333
731;10390003000;10327433333;10527433333
732;10390252000;10327433333;10527433333
733;10390254000;10327433333;10527433333
734;10390505000;10327433333;10527433333
735;10390507000;10327433333;10527433333
736;10429789000;10327433333;10527433333
737;10431174000;10369133333;10569133333
738;10431176000;10369133333;10569133333
739;10431426000;10369133333;10569133333
740;10431428000;10369133333;10569133333
741;10431616000;10369133333;10569133333
742;10431618000;10369133333;10569133333
743;10431865000;10369133333;10569133333
744;10431867000;10369133333;10569133333
745;10432151000;10369133333;10569133333
746;10432153000;10369133333;10569133333
747;10471486000;10369133333;10569133333
748;10472851000;10410811111;10610811111
749;10472854000;10410811111;10610811111
750;10473115000;10410811111;10610811111
751;10473117000;10410811111;10610811111
752;10473330000;10410811111;10610811111
753;10473332000;10410811111;10610811111
754;10473580000;10410811111;10610811111
755;10473581000;10410811111;10610811111
756;10473831000;10410811111;10610811111
757;10473833000;10410811111;10610811111
758;10513179000;10410811111;10610811111
759;10514481000;10452466666;10652466666
760;10514749000;10452466666;10652466666
761;10514763000;10452466666;10652466666
762;10514767000;10452466666;10652466666
763;10514982000;10452466666;10652466666
764;10514984000;10452466666;10652466666
765;10515201000;10452466666;10652466666
766;10515230000;10452466666;10652466666
767;10515483000;10452466666;10652466666
768;10515485000;10452466666;10652466666
769;10554825000;10452466666;10652466666
770;10556200000;10494133333;10694133333
771;10556212000;10494133333;10694133333
772;10556464000;10494133333;10694133333
773;10556476000;10494133333;10694133333
774;10556677000;10494133333;10694133333
775;10556680000;10494133333;10694133333
776;10556927000;10494133333;10694133333
777;10556930000;10494133333;10694133333
778;10557195000;10494133333;10694133333
779;10557197000;10494133333;10694133333
780;10596507000;10494133333;10694133333
781;10597844000;10535822222;10735822222
782;10597847000;10535822222;10735822222
783;10598126000;10535822222;10735822222
784;10598141000;10535822222;10735822222
785;10598336000;10535822222;10735822222
786;10598339000;10535822222;10735822222
787;10598558000;10535822222;10735822222
788;10598570000;10535822222;10735822222
789;10598842000;10535822222;10735822222
790;10598845000;10535822222;10735822222
791;10638197000;10535822222;10735822222
792;10639536000;10577455555;10777455555
793;10639539000;10577455555;10777455555
794;10639760000;10577455555;10777455555
795;10639773000;10577455555;10777455555
796;10639993000;10577455555;10777455555
797;10639996000;10577455555;10777455555
798;10640243000;10577455555;10777455555
799;10640246000;10577455555;10777455555
800;10640494000;10577455555;10777455555
801;10640497000;10577455555;10777455555
802;10679832000;10577455555;10777455555
803;10681188000;10619111111;10819111111
804;10681480000;10619111111;10819111111
805;10681483000;10619111111;10819111111
806;10681484000;10619111111;10819111111
807;10681689000;10619111111;10819111111
808;10681692000;10619111111;10819111111
809;10681939000;10619111111;10819111111
810;10681942000;10619111111;10819111111
811;10682159000;10619111111;10819111111
812;10682170000;10619111111;10819111111
813;10721471000;10619111111;10819111111
814;10722849000;10660833333;10860833333
815;10722861000;10660833333;10860833333
816;10723108000;10660833333;10860833333
817;10723120000;10660833333;10860833333
818;10723323000;10660833333;10860833333
819;10723326000;10660833333;10860833333
820;10723575000;10660833333;10860833333
821;10723577000;10660833333;10860833333
822;10723827000;10660833333;10860833333
823;10723829000;10660833333;10860833333
824;10763194000;10660833333;10860833333
825;10764502000;10702444444;10902444444
826;10764525000;10702444444;10902444444
827;10764730000;10702444444;10902444444
828;10764733000;10702444444;10902444444
829;10764982000;10702444444;10902444444
830;10764984000;10702444444;10902444444
831;10765231000;10702444444;10902444444
832;10765234000;10702444444;10902444444
833;10765481000;10702444444;10902444444
834;10765484000;10702444444;10902444444
835;10804752000;10702444444;10902444444
836;10806158000;10744133333;10944133333
837;10806161000;10744133333;10944133333
838;10806402000;10744133333;10944133333
839;10806417000;10744133333;10944133333
840;10806625000;10744133333;10944133333
841;10806628000;10744133333;10944133333
842;10806873000;10744133333;10944133333
843;10806885000;10744133333;10944133333
844;10807158000;10744133333;10944133333
845;10807160000;10744133333;10944133333
846;10846496000;10744133333;10944133333
847;10847849000;10785800000;10985800000
848;10847861000;10785800000;10985800000
849;10848109000;10785800000;10985800000
850;10848112000;10785800000;10985800000
851;10848301000;10785800000;10985800000
852;10848316000;10785800000;10985800000
853;10848574000;10785800000;10985800000
854;10848577000;10785800000;10985800000
855;10848826000;10785800000;10985800000
856;10848828000;10785800000;10985800000
857;10888162000;10785800000;10985800000
858;10889529000;10827455555;11027455555
859;10889532000;10827455555;11027455555
860;10889815000;10827455555;11027455555
861;10889818000;10827455555;11027455555
862;10890006000;10827455555;11027455555
863;10890009000;10827455555;11027455555
864;10890258000;10827455555;11027455555
865;10890261000;10827455555;11027455555
866;10890534000;10827455555;11027455555
867;10890537000;10827455555;11027455555
868;10929831000;10827455555;11027455555
869;10931183000;10869122222;11069122222
870;10931195000;10869122222;11069122222
871;10931456000;10869122222;11069122222
872;10931459000;10869122222;11069122222
873;10931662000;10869122222;11069122222
874;10931665000;10869122222;11069122222
875;10931910000;10869122222;11069122222
876;10931913000;10869122222;11069122222
877;10932161000;10869122222;11069122222
878;10932164000;10869122222;11069122222
879;10971481000;10869122222;11069122222
880;10972899000;10910800000;11110800000
881;10972911000;10910800000;11110800000
882;10973137000;10910800000;11110800000
883;10973140000;10910800000;11110800000
884;10973354000;10910800000;11110800000
885;10973370000;10910800000;11110800000
886;10973627000;10910800000;11110800000
887;10973630000;10910800000;11110800000
888;10973880000;10910800000;11110800000
889;10973883000;10910800000;11110800000
890;11013158000;10910800000;11110800000
891;11014533000;10952500000;11152500000
892;11014536000;10952500000;11152500000
893;11014793000;10952500000;11152500000
894;11014796000;10952500000;11152500000
895;11015010000;10952500000;11152500000
896;11015013000;10952500000;11152500000
897;11015230000;10952500000;11152500000
898;11015242000;10952500000;11152500000
899;11015491000;10952500000;11152500000
900;11015506000;10952500000;11152500000
901;11054859000;10952500000;11152500000
902;11056195000;10994122222;11194122222
903;11056207000;10994122222;11194122222
904;11056477000;10994122222;11194122222
905;11056480000;10994122222;11194122222
906;11056678000;10994122222;11194122222
907;11056681000;10994122222;11194122222
908;11056928000;10994122222;11194122222
909;11056931000;10994122222;11194122222
910;11057177000;10994122222;11194122222
911;11057180000;10994122222;11194122222
912;11096478000;10994122222;11194122222
913;11097842000;11035811111;11235811111
914;11097854000;11035811111;11235811111
915;11098123000;11035811111;11235811111
916;11098126000;11035811111;11235811111
917;11098323000;11035811111;11235811111
918;11098325000;11035811111;11235811111
919;11098574000;11035811111;11235811111
920;11098576000;11035811111;11235811111
921;11098824000;11035811111;11235811111
922;11098826000;11035811111;11235811111
923;11138180000;11035811111;11235811111
924;11139541000;11077455555;11277455555
925;11139553000;11077455555;11277455555
926;11139788000;11077455555;11277455555
927;11139791000;11077455555;11277455555
928;11139988000;11077455555;11277455555
929;11139991000;11077455555;11277455555
930;11140239000;11077455555;11277455555
931;11140242000;11077455555;11277455555
932;11140490000;11077455555;11277455555
933;11140492000;11077455555;11277455555
934;11179811000;11077455555;11277455555
935;11181181000;11119111111;11319111111
936;11181183000;11119111111;11319111111
937;11181452000;11119111111;11319111111
938;11181455000;11119111111;11319111111
939;11181677000;11119111111;11319111111
940;11181680000;11119111111;11319111111
941;11181927000;11119111111;11319111111
942;11181930000;11119111111;11319111111
943;11182165000;11119111111;11319111111
944;11182168000;11119111111;11319111111
945;11221403000;11119111111;11319111111
946;11222879000;11160833333;11360833333
947;11222881000;11160833333;11360833333
948;11223114000;11160833333;11360833333
949;11223117000;11160833333;11360833333
950;11223362000;11160833333;11360833333
951;11223365000;11160833333;11360833333
952;11223613000;11160833333;11360833333
953;11223616000;11160833333;11360833333
954;11223865000;11160833333;11360833333
955;11223868000;11160833333;11360833333
956;11263187000;11160833333;11360833333
957;11264533000;11202488888;11402488888
958;11264536000;11202488888;11402488888
959;11264785000;11202488888;11402488888
960;11264796000;11202488888;11402488888
961;11264974000;11202488888;11402488888
962;11264989000;11202488888;11402488888
963;11265247000;11202488888;11402488888
964;11265249000;11202488888;11402488888
965;11265497000;11202488888;11402488888
966;11265500000;11202488888;11402488888
967;11304852000;11202488888;11402488888
968;11306165000;11244155555;11444155555
969;11306168000;11244155555;11444155555
970;11306448000;11244155555;11444155555
971;11306469000;11244155555;11444155555
972;11306626000;11244155555;11444155555
973;11306628000;11244155555;11444155555
974;11306868000;11244155555;11444155555
975;11306869000;11244155555;11444155555
976;11307153000;11244155555;11444155555
977;11307155000;11244155555;11444155555
978;11346534000;11244155555;11444155555
979;11347833000;11285788888;11485788888
980;11347835000;11285788888;11485788888
981;11348125000;11285788888;11485788888
982;11348136000;11285788888;11485788888
983;11348325000;11285788888;11485788888
984;11348328000;11285788888;11485788888
985;11348568000;11285788888;11485788888
986;11348570000;11285788888;11485788888
987;11348819000;11285788888;11485788888
988;11348821000;11285788888;11485788888
989;11388153000;11285788888;11485788888
990;11389536000;11327455555;11527455555
991;11389538000;11327455555;11527455555
992;11389774000;11327455555;11527455555
993;11389777000;11327455555;11527455555
994;11390001000;11327455555;11527455555
995;11390003000;11327455555;11527455555
996;11390249000;11327455555;11527455555
997;11390251000;11327455555;11527455555
998;11390502000;11327455555;11527455555
999;11390506000;11327455555;11527455555
1000;11429821000;11327455555;11527455555
1001;11431163000;11369122222;11569122222
1002;11431165000;11369122222;11569122222
1003;11431430000;11369122222;11569122222
1004;11431433000;11369122222;11569122222
1005;11431651000;11369122222;11569122222
1006;11431653000;11369122222;11569122222
1007;11431867000;11369122222;11569122222
1008;11431869000;11369122222;11569122222
1009;11432117000;11369122222;11569122222
1010;11432119000;11369122222;11569122222
1011;11471483000;11369122222;11569122222
1012;11472829000;11410822222;11610822222
1013;11472831000;11410822222;11610822222
1014;11473081000;11410822222;11610822222
1015;11473083000;11410822222;11610822222
1016;11473318000;11410822222;11610822222
1017;11473321000;11410822222;11610822222
1018;11473569000;11410822222;11610822222
1019;11473571000;11410822222;11610822222
1020;11473817000;11410822222;11610822222
1021;11473819000;11410822222;11610822222
1022;11513185000;11410822222;11610822222
1023;11514485000;11452466666;11652466666
1024;11514761000;11452466666;11652466666
1025;11514765000;11452466666;11652466666
1026;11514772000;11452466666;11652466666
1027;11515002000;11452466666;11652466666
1028;11515004000;11452466666;11652466666
1029;11515222000;11452466666;11652466666
1030;11515223000;11452466666;11652466666
1031;11515506000;11452466666;11652466666
1032;11515508000;11452466666;11652466666
1033;11554831000;11452466666;11652466666
1034;11556166000;11494155555;11694155555
1035;11556168000;11494155555;11694155555
1036;11556428000;11494155555;11694155555
1037;11556430000;11494155555;11694155555
1038;11556655000;11494155555;11694155555
1039;11556657000;11494155555;11694155555
1040;11556902000;11494155555;11694155555
1041;11556904000;11494155555;11694155555
1042;11557124000;11494155555;11694155555
1043;11557126000;11494155555;11694155555
1044;11596505000;11494155555;11694155555
1045;11597834000;11535811111;11735811111
1046;11597836000;11535811111;11735811111
1047;11598091000;11535811111;11735811111
1048;11598094000;11535811111;11735811111
1049;11598321000;11535811111;11735811111
1050;11598323000;11535811111;11735811111
1051;11598555000;11535811111;11735811111
1052;11598567000;11535811111;11735811111
1053;11598822000;11535811111;11735811111
1054;11598825000;11535811111;11735811111
1055;11638177000;11535811111;11735811111
1056;11639574000;11577444444;11777444444
1057;11639586000;11577444444;11777444444
1058;11639788000;11577444444;11777444444
1059;11639791000;11577444444;11777444444
1060;11640028000;11577444444;11777444444
1061;11640031000;11577444444;11777444444
1062;11640279000;11577444444;11777444444
1063;11640282000;11577444444;11777444444
1064;11640531000;11577444444;11777444444
1065;11640535000;11577444444;11777444444
1066;11679797000;11577444444;11777444444
1067;11681175000;11619111111;11819111111
1068;11681186000;11619111111;11819111111
1069;11681409000;11619111111;11819111111
1070;11681411000;11619111111;11819111111
1071;11681659000;11619111111;11819111111
1072;11681682000;11619111111;11819111111
1073;11681878000;11619111111;11819111111
1074;11681881000;11619111111;11819111111
1075;11682127000;11619111111;11819111111
1076;11682139000;11619111111;11819111111
1077;11721465000;11619111111;11819111111
1078;11722858000;11660800000;11860800000
1079;11722870000;11660800000;11860800000
1080;11723094000;11660800000;11860800000
1081;11723097000;11660800000;11860800000
1082;11723344000;11660800000;11860800000
1083;11723347000;11660800000;11860800000
1084;11723596000;11660800000;11860800000
1085;11723599000;11660800000;11860800000
1086;11723824000;11660800000;11860800000
1087;11723839000;11660800000;11860800000
1088;11763166000;11660800000;11860800000
1089;11764487000;11702455555;11902455555
1090;11764777000;11702455555;11902455555
1091;11764780000;11702455555;11902455555
1092;11764782000;11702455555;11902455555
1093;11764960000;11702455555;11902455555
1094;11764971000;11702455555;11902455555
1095;11765240000;11702455555;11902455555
1096;11765243000;11702455555;11902455555
1097;11765482000;11702455555;11902455555
1098;11765484000;11702455555;11902455555
1099;11804803000;11702455555;11902455555
1100;11806165000;11744122222;11944122222
1101;11806168000;11744122222;11944122222
1102;11806423000;11744122222;11944122222
1103;11806425000;11744122222;11944122222
1104;11806648000;11744122222;11944122222
1105;11806694000;11744122222;11944122222
1106;11806868000;11744122222;11944122222
1107;11806870000;11744122222;11944122222
1108;11807148000;11744122222;11944122222
1109;11807150000;11744122222;11944122222
1110;11846488000;11744122222;11944122222
1111;11847851000;11785788888;11985788888
1112;11847853000;11785788888;11985788888
1113;11848097000;11785788888;11985788888
1114;11848099000;11785788888;11985788888
1115;11848332000;11785788888;11985788888
1116;11848334000;11785788888;11985788888
1117;11848583000;11785788888;11985788888
1118;11848585000;11785788888;11985788888
1119;11848835000;11785788888;11985788888
1120;11848839000;11785788888;11985788888
1121;11888138000;11785788888;11985788888
1122;11889537000;11827444444;12027444444
1123;11889539000;11827444444;12027444444
1124;11889752000;11827444444;12027444444
1125;11889754000;11827444444;12027444444
1126;11890001000;11827444444;12027444444
1127;11890003000;11827444444;12027444444
1128;11890222000;11827444444;12027444444
1129;11890223000;11827444444;12027444444
1130;11890502000;11827444444;12027444444
1131;11890504000;11827444444;12027444444
1132;11929809000;11827444444;12027444444
1133;11931171000;11869133333;12069133333
1134;11931173000;11869133333;12069133333
1135;11931412000;11869133333;12069133333
1136;11931414000;11869133333;12069133333
1137;11931658000;11869133333;12069133333
1138;11931660000;11869133333;12069133333
1139;11931877000;11869133333;12069133333
1140;11931879000;11869133333;12069133333
1141;11932126000;11869133333;12069133333
1142;11932127000;11869133333;12069133333
1143;11971479000;11869133333;12069133333
1144;11972819000;11910811111;12110811111
1145;11972821000;11910811111;12110811111
1146;11973068000;11910811111;12110811111
1147;11973070000;11910811111;12110811111
1148;11973303000;11910811111;12110811111
1149;11973306000;11910811111;12110811111
1150;11973555000;11910811111;12110811111
1151;11973557000;11910811111;12110811111
1152;11973805000;11910811111;12110811111
1153;11973807000;11910811111;12110811111
1154;12013177000;11910811111;12110811111
1155;12014489000;11952433333;12152433333
1156;12014755000;11952433333;12152433333
1157;12014757000;11952433333;12152433333
1158;12014759000;11952433333;12152433333
1159;12015011000;11952433333;12152433333
1160;12015014000;11952433333;12152433333
1161;12015232000;11952433333;12152433333
1162;12015244000;11952433333;12152433333
1163;12015536000;11952433333;12152433333
1164;12015538000;11952433333;12152433333
1165;12054723000;11952433333;12152433333
1166;12056168000;11994122222;12194122222
1167;12056177000;11994122222;12194122222
1168;12056428000;11994122222;12194122222
1169;12056431000;11994122222;12194122222
1170;12056679000;11994122222;12194122222
1171;12056709000;11994122222;12194122222
1172;12056930000;11994122222;12194122222
1173;12056933000;11994122222;12194122222
1174;12057180000;11994122222;12194122222
1175;12057183000;11994122222;12194122222
1176;12096472000;11994122222;12194122222
1177;12097858000;12035800000;12235800000
1178;12097860000;12035800000;12235800000
1179;12098113000;12035800000;12235800000
1180;12098116000;12035800000;12235800000
1181;12098362000;12035800000;12235800000
1182;12098365000;12035800000;12235800000
1183;12098613000;12035800000;12235800000
1184;12098616000;12035800000;12235800000
1185;12098865000;12035800000;12235800000
1186;12098869000;12035800000;12235800000
1187;12138162000;12035800000;12235800000
1188;12139564000;12077455555;12277455555
1189;12139577000;12077455555;12277455555
1190;12139780000;12077455555;12277455555
1191;12139783000;12077455555;12277455555
1192;12140016000;12077455555;12277455555
1193;12140018000;12077455555;12277455555
1194;12140267000;12077455555;12277455555
1195;12140269000;12077455555;12277455555
1196;12140538000;12077455555;12277455555
1197;12140540000;12077455555;12277455555
1198;12179808000;12077455555;12277455555
1199;12181195000;12119122222;12319122222
1200;12181207000;12119122222;12319122222
1201;12181429000;12119122222;12319122222
1202;12181432000;12119122222;12319122222
1203;12181649000;12119122222;12319122222
1204;12181651000;12119122222;12319122222
1205;12181897000;12119122222;12319122222
1206;12181909000;12119122222;12319122222
1207;12182182000;12119122222;12319122222
1208;12182184000;12119122222;12319122222
1209;12221477000;12119122222;12319122222
1210;12222819000;12160822222;12360822222
1211;12222821000;12160822222;12360822222
1212;12223057000;12160822222;12360822222
1213;12223072000;12160822222;12360822222
1214;12223323000;12160822222;12360822222
1215;12223326000;12160822222;12360822222
1216;12223566000;12160822222;12360822222
1217;12223568000;12160822222;12360822222
1218;12223820000;12160822222;12360822222
1219;12223822000;12160822222;12360822222
1220;12263185000;12160822222;12360822222
1221;12264480000;12202444444;12402444444
1222;12264483000;12202444444;12402444444
1223;12264786000;12202444444;12402444444
1224;12264789000;12202444444;12402444444
1225;12265007000;12202444444;12402444444
1226;12265009000;12202444444;12402444444
1227;12265249000;12202444444;12402444444
1228;12265251000;12202444444;12402444444
1229;12265502000;12202444444;12402444444
1230;12265504000;12202444444;12402444444
1231;12304808000;12202444444;12402444444
1232;12306186000;12244144444;12444144444
1233;12306188000;12244144444;12444144444
1234;12306427000;12244144444;12444144444
1235;12306429000;12244144444;12444144444
1236;12306672000;12244144444;12444144444
1237;12306674000;12244144444;12444144444
1238;12306919000;12244144444;12444144444
1239;12306922000;12244144444;12444144444
1240;12307139000;12244144444;12444144444
1241;12307141000;12244144444;12444144444
1242;12346509000;12244144444;12444144444
1243;12347869000;12285800000;12485800000
1244;12347871000;12285800000;12485800000
1245;12348114000;12285800000;12485800000
1246;12348116000;12285800000;12485800000
1247;12348354000;12285800000;12485800000
1248;12348356000;12285800000;12485800000
1249;12348605000;12285800000;12485800000
1250;12348607000;12285800000;12485800000
1251;12348855000;12285800000;12485800000
1252;12348857000;12285800000;12485800000
1253;12388149000;12285800000;12485800000
1254;12389532000;12327444444;12527444444
1255;12389534000;12327444444;12527444444
1256;12389756000;12327444444;12527444444
1257;12389757000;12327444444;12527444444
1258;12390005000;12327444444;12527444444
1259;12390007000;12327444444;12527444444
1260;12390222000;12327444444;12527444444
1261;12390223000;12327444444;12527444444
1262;12390503000;12327444444;12527444444
1263;12390505000;12327444444;12527444444
1264;12429808000;12327444444;12527444444
1265;12431185000;12369122222;12569122222
1266;12431232000;12369122222;12569122222
1267;12431437000;12369122222;12569122222
1268;12431439000;12369122222;12569122222
1269;12431670000;12369122222;12569122222
1270;12431672000;12369122222;12569122222
1271;12431925000;12369122222;12569122222
1272;12431927000;12369122222;12569122222
1273;12432171000;12369122222;12569122222
1274;12432173000;12369122222;12569122222
1275;12471485000;12369122222;12569122222
1276;12472838000;12410822222;12610822222
1277;12473097000;12410822222;12610822222
1278;12473100000;12410822222;12610822222
1279;12473101000;12410822222;12610822222
1280;12473315000;12410822222;12610822222
1281;12473317000;12410822222;12610822222
1282;12473596000;12410822222;12610822222
1283;12473598000;12410822222;12610822222
1284;12473846000;12410822222;12610822222
1285;12473848000;12410822222;12610822222
1286;12513185000;12410822222;12610822222
1287;12514494000;12452477777;12652477777
1288;12514496000;12452477777;12652477777
1289;12514755000;12452477777;12652477777
1290;12514757000;12452477777;12652477777
1291;12514983000;12452477777;12652477777
1292;12514985000;12452477777;12652477777
1293;12515201000;12452477777;12652477777
1294;12515203000;12452477777;12652477777
1295;12515485000;12452477777;12652477777
1296;12515487000;12452477777;12652477777
1297;12554829000;12452477777;12652477777
1298;12556220000;12494122222;12694122222
1299;12556232000;12494122222;12694122222
1300;12556447000;12494122222;12694122222
1301;12556450000;12494122222;12694122222
1302;12556699000;12494122222;12694122222
1303;12556702000;12494122222;12694122222
1304;12556949000;12494122222;12694122222
1305;12556951000;12494122222;12694122222
1306;12557203000;12494122222;12694122222
1307;12557206000;12494122222;12694122222
1308;12596472000;12494122222;12694122222
1309;12597826000;12535833333;12735833333
1310;12597837000;12535833333;12735833333
1311;12598078000;12535833333;12735833333
1312;12598081000;12535833333;12735833333
1313;12598312000;12535833333;12735833333
1314;12598314000;12535833333;12735833333
1315;12598531000;12535833333;12735833333
1316;12598534000;12535833333;12735833333
1317;12598813000;12535833333;12735833333
1318;12598815000;12535833333;12735833333
1319;12638196000;12535833333;12735833333
1320;12639532000;12577444444;12777444444
1321;12639535000;12577444444;12777444444
1322;12639782000;12577444444;12777444444
1323;12639786000;12577444444;12777444444
1324;12639990000;12577444444;12777444444
1325;12639993000;12577444444;12777444444
1326;12640209000;12577444444;12777444444
1327;12640221000;12577444444;12777444444
1328;12640491000;12577444444;12777444444
1329;12640494000;12577444444;12777444444
1330;12679799000;12577444444;12777444444
1331;12681149000;12619100000;12819100000
1332;12681396000;12619100000;12819100000
1333;12681399000;12619100000;12819100000
1334;12681400000;12619100000;12819100000
1335;12681629000;12619100000;12819100000
1336;12681632000;12619100000;12819100000
1337;12681879000;12619100000;12819100000
1338;12681882000;12619100000;12819100000
1339;12682130000;12619100000;12819100000
1340;12682133000;12619100000;12819100000
1341;12721467000;12619100000;12819100000
1342;12722805000;12660800000;12860800000
1343;12723042000;12660800000;12860800000
1344;12723045000;12660800000;12860800000
1345;12723046000;12660800000;12860800000
1346;12723324000;12660800000;12860800000
1347;12723343000;12660800000;12860800000
1348;12723546000;12660800000;12860800000
1349;12723558000;12660800000;12860800000
1350;12723824000;12660800000;12860800000
1351;12723827000;12660800000;12860800000
1352;12763151000;12660800000;12860800000
1353;12764533000;12702433333;12902433333
1354;12764536000;12702433333;12902433333
1355;12764760000;12702433333;12902433333
1356;12764762000;12702433333;12902433333
1357;12765002000;12702433333;12902433333
1358;12765005000;12702433333;12902433333
1359;12765252000;12702433333;12902433333
1360;12765255000;12702433333;12902433333
1361;12765503000;12702433333;12902433333
1362;12765506000;12702433333;12902433333
1363;12804725000;12702433333;12902433333
1364;12806168000;12744144444;12944144444
1365;12806173000;12744144444;12944144444
1366;12806404000;12744144444;12944144444
1367;12806419000;12744144444;12944144444
1368;12806646000;12744144444;12944144444
1369;12806648000;12744144444;12944144444
1370;12806894000;12744144444;12944144444
1371;12806923000;12744144444;12944144444
1372;12807178000;12744144444;12944144444
1373;12807180000;12744144444;12944144444
1374;12846497000;12744144444;12944144444
1375;12847860000;12785822222;12985822222
1376;12847862000;12785822222;12985822222
1377;12848121000;12785822222;12985822222
1378;12848124000;12785822222;12985822222
1379;12848310000;12785822222;12985822222
1380;12848317000;12785822222;12985822222
1381;12848687000;12785822222;12985822222
1382;12848690000;12785822222;12985822222
1383;12848846000;12785822222;12985822222
1384;12848849000;12785822222;12985822222
1385;12888172000;12785822222;12985822222
1386;12889501000;12827466666;13027466666
1387;12889504000;12827466666;13027466666
1388;12889764000;12827466666;13027466666
1389;12889767000;12827466666;13027466666
1390;12889993000;12827466666;13027466666
1391;12889995000;12827466666;13027466666
1392;12890244000;12827466666;13027466666
1393;12890247000;12827466666;13027466666
1394;12890494000;12827466666;13027466666
1395;12890497000;12827466666;13027466666
1396;12929816000;12827466666;13027466666
1397;12931161000;12869122222;13069122222
1398;12931164000;12869122222;13069122222
1399;12931405000;12869122222;13069122222
1400;12931408000;12869122222;13069122222
1401;12931655000;12869122222;13069122222
1402;12931657000;12869122222;13069122222
1403;12931906000;12869122222;13069122222
1404;12931909000;12869122222;13069122222
1405;12932156000;12869122222;13069122222
1406;12932159000;12869122222;13069122222
1407;12971410000;12869122222;13069122222
1408;12972851000;12910800000;13110800000
1409;12972857000;12910800000;13110800000
1410;12973083000;12910800000;13110800000
1411;12973098000;12910800000;13110800000
1412;12973355000;12910800000;13110800000
1413;12973358000;12910800000;13110800000
1414;12973606000;12910800000;13110800000
1415;12973608000;12910800000;13110800000
1416;12973858000;12910800000;13110800000
1417;12973861000;12910800000;13110800000
1418;13013149000;12910800000;13110800000
1419;13014538000;12952477777;13152477777
1420;13014541000;12952477777;13152477777
1421;13014760000;12952477777;13152477777
1422;13014763000;12952477777;13152477777
1423;13014988000;12952477777;13152477777
1424;13015003000;12952477777;13152477777
1425;13015261000;12952477777;13152477777
1426;13015264000;12952477777;13152477777
1427;13015528000;12952477777;13152477777
1428;13015549000;12952477777;13152477777
1429;13054828000;12952477777;13152477777
1430;13056183000;12994133333;13194133333
1431;13056186000;12994133333;13194133333
1432;13056428000;12994133333;13194133333
1433;13056430000;12994133333;13194133333
1434;13056678000;12994133333;13194133333
1435;13056681000;12994133333;13194133333
1436;13056928000;12994133333;13194133333
1437;13056931000;12994133333;13194133333
1438;13057156000;12994133333;13194133333
1439;13057171000;12994133333;13194133333
1440;13096479000;12994133333;13194133333
1441;13097853000;13035811111;13235811111
1442;13097855000;13035811111;13235811111
1443;13098095000;13035811111;13235811111
1444;13098097000;13035811111;13235811111
1445;13098345000;13035811111;13235811111
1446;13098347000;13035811111;13235811111
1447;13098595000;13035811111;13235811111
1448;13098598000;13035811111;13235811111
1449;13098846000;13035811111;13235811111
1450;13098849000;13035811111;13235811111
1451;13138158000;13035811111;13235811111
1452;13139542000;13077466666;13277466666
1453;13139545000;13077466666;13277466666
1454;13139760000;13077466666;13277466666
1455;13139763000;13077466666;13277466666
1456;13140011000;13077466666;13277466666
1457;13140013000;13077466666;13277466666
1458;13140261000;13077466666;13277466666
1459;13140264000;13077466666;13277466666
1460;13140535000;13077466666;13277466666
1461;13140538000;13077466666;13277466666
1462;13179817000;13077466666;13277466666
1463;13181162000;13119122222;13319122222
1464;13181173000;13119122222;13319122222
1465;13181406000;13119122222;13319122222
1466;13181408000;13119122222;13319122222
1467;13181657000;13119122222;13319122222
1468;13181660000;13119122222;13319122222
1469;13181876000;13119122222;13319122222
1470;13181887000;13119122222;13319122222
1471;13182157000;13119122222;13319122222
1472;13182159000;13119122222;13319122222
1473;13221412000;13119122222;13319122222
1474;13222829000;13160800000;13360800000
1475;13222831000;13160800000;13360800000
1476;13223072000;13160800000;13360800000
1477;13223075000;13160800000;13360800000
1478;13223322000;13160800000;13360800000
1479;13223325000;13160800000;13360800000
1480;13223573000;13160800000;13360800000
1481;13223575000;13160800000;13360800000
1482;13223824000;13160800000;13360800000
1483;13223826000;13160800000;13360800000
1484;13263090000;13160800000;13360800000
1485;13264544000;13202455555;13402455555
1486;13264550000;13202455555;13402455555
1487;13264777000;13202455555;13402455555
1488;13264779000;13202455555;13402455555
1489;13265027000;13202455555;13402455555
1490;13265030000;13202455555;13402455555
1491;13265278000;13202455555;13402455555
1492;13265281000;13202455555;13402455555
1493;13265531000;13202455555;13402455555
1494;13265536000;13202455555;13402455555
1495;13304816000;13202455555;13402455555
1496;13306159000;13244188888;13444188888
1497;13306401000;13244188888;13444188888
1498;13306403000;13244188888;13444188888
1499;13306405000;13244188888;13444188888
1500;13306680000;13244188888;13444188888
1501;13306683000;13244188888;13444188888
1502;13306922000;13244188888;13444188888
1503;13306924000;13244188888;13444188888
1504;13307174000;13244188888;13444188888
1505;13307176000;13244188888;13444188888
1506;13346552000;13244188888;13444188888
1507;13347814000;13285800000;13485800000
1508;13348102000;13285800000;13485800000
1509;13348105000;13285800000;13485800000
1510;13348106000;13285800000;13485800000
1511;13348314000;13285800000;13485800000
1512;13348316000;13285800000;13485800000
1513;13348557000;13285800000;13485800000
1514;13348559000;13285800000;13485800000
1515;13348810000;13285800000;13485800000
1516;13348812000;13285800000;13485800000
1517;13388164000;13285800000;13485800000
1518;13389495000;13327444444;13527444444
1519;13389497000;13327444444;13527444444
1520;13389743000;13327444444;13527444444
1521;13389746000;13327444444;13527444444
1522;13389985000;13327444444;13527444444
1523;13389987000;13327444444;13527444444
1524;13390233000;13327444444;13527444444
1525;13390235000;13327444444;13527444444
1526;13390452000;13327444444;13527444444
1527;13390454000;13327444444;13527444444
1528;13429805000;13327444444;13527444444
1529;13431180000;13369111111;13569111111
1530;13431182000;13369111111;13569111111
1531;13431427000;13369111111;13569111111
1532;13431430000;13369111111;13569111111
1533;13431672000;13369111111;13569111111
1534;13431674000;13369111111;13569111111
1535;13431889000;13369111111;13569111111
1536;13431890000;13369111111;13569111111
1537;13432170000;13369111111;13569111111
1538;13432172000;13369111111;13569111111
1539;13471470000;13369111111;13569111111
1540;13472813000;13410833333;13610833333
1541;13472815000;13410833333;13610833333
1542;13473051000;13410833333;13610833333
1543;13473053000;13410833333;13610833333
1544;13473305000;13410833333;13610833333
1545;13473307000;13410833333;13610833333
1546;13473564000;13410833333;13610833333
1547;13473566000;13410833333;13610833333
1548;13473803000;13410833333;13610833333
1549;13473805000;13410833333;13610833333
1550;13513193000;13410833333;13610833333
1551;13514468000;13452444444;13652444444
1552;13514744000;13452444444;13652444444
1553;13514748000;13452444444;13652444444
1554;13514755000;13452444444;13652444444
1555;13514980000;13452444444;13652444444
1556;13514982000;13452444444;13652444444
1557;13515200000;13452444444;13652444444
1558;13515202000;13452444444;13652444444
1559;13515482000;13452444444;13652444444
1560;13515484000;13452444444;13652444444
1561;13554809000;13452444444;13652444444
1562;13556158000;13494122222;13694122222
1563;13556161000;13494122222;13694122222
1564;13556397000;13494122222;13694122222
1565;13556398000;13494122222;13694122222
1566;13556647000;13494122222;13694122222
1567;13556649000;13494122222;13694122222
1568;13556897000;13494122222;13694122222
1569;13556899000;13494122222;13694122222
1570;13557118000;13494122222;13694122222
1571;13557137000;13494122222;13694122222
1572;13596469000;13494122222;13694122222
1573;13597847000;13535811111;13735811111
1574;13597850000;13535811111;13735811111
1575;13598088000;13535811111;13735811111
1576;13598090000;13535811111;13735811111
1577;13598338000;13535811111;13735811111
1578;13598340000;13535811111;13735811111
1579;13598589000;13535811111;13735811111
1580;13598591000;13535811111;13735811111
1581;13598841000;13535811111;13735811111
1582;13598844000;13535811111;13735811111
1583;13638175000;13535811111;13735811111
1584;13639534000;13577455555;13777455555
1585;13639537000;13577455555;13777455555
1586;13639752000;13577455555;13777455555
1587;13639755000;13577455555;13777455555
1588;13639989000;13577455555;13777455555
1589;13640000000;13577455555;13777455555
1590;13640239000;13577455555;13777455555
1591;13640242000;13577455555;13777455555
1592;13640490000;13577455555;13777455555
1593;13640493000;13577455555;13777455555
1594;13679807000;13577455555;13777455555
1595;13681163000;13619111111;13819111111
1596;13681175000;13619111111;13819111111
1597;13681405000;13619111111;13819111111
1598;13681408000;13619111111;13819111111
1599;13681656000;13619111111;13819111111
1600;13681659000;13619111111;13819111111
1601;13681875000;13619111111;13819111111
1602;13681878000;13619111111;13819111111
1603;13682126000;13619111111;13819111111
1604;13682137000;13619111111;13819111111
1605;13721402000;13619111111;13819111111
1606;13722807000;13660811111;13860811111
1607;13722824000;13660811111;13860811111
1608;13723072000;13660811111;13860811111
1609;13723074000;13660811111;13860811111
1610;13723321000;13660811111;13860811111
1611;13723324000;13660811111;13860811111
1612;13723573000;13660811111;13860811111
1613;13723575000;13660811111;13860811111
1614;13723824000;13660811111;13860811111
1615;13723826000;13660811111;13860811111
1616;13763174000;13660811111;13860811111
1617;13764505000;13702444444;13902444444
1618;13764780000;13702444444;13902444444
1619;13764783000;13702444444;13902444444
1620;13764785000;13702444444;13902444444
1621;13764982000;13702444444;13902444444
1622;13764994000;13702444444;13902444444
1623;13765263000;13702444444;13902444444
1624;13765266000;13702444444;13902444444
1625;13765533000;13702444444;13902444444
1626;13765536000;13702444444;13902444444
1627;13804793000;13702444444;13902444444
1628;13806161000;13744166666;13944166666
1629;13806164000;13744166666;13944166666
1630;13806406000;13744166666;13944166666
1631;13806409000;13744166666;13944166666
1632;13806655000;13744166666;13944166666
1633;13806658000;13744166666;13944166666
1634;13806852000;13744166666;13944166666
1635;13806857000;13744166666;13944166666
1636;13807156000;13744166666;13944166666
1637;13807159000;13744166666;13944166666
1638;13846545000;13744166666;13944166666
1639;13847851000;13785811111;13985811111
1640;13847854000;13785811111;13985811111
1641;13848111000;13785811111;13985811111
1642;13848114000;13785811111;13985811111
1643;13848359000;13785811111;13985811111
1644;13848362000;13785811111;13985811111
1645;13848580000;13785811111;13985811111
1646;13848582000;13785811111;13985811111
1647;13848828000;13785811111;13985811111
1648;13848840000;13785811111;13985811111
1649;13888159000;13785811111;13985811111
1650;13889494000;13827477777;14027477777
1651;13889496000;13827477777;14027477777
1652;13889738000;13827477777;14027477777
1653;13889741000;13827477777;14027477777
1654;13889989000;13827477777;14027477777
1655;13889991000;13827477777;14027477777
1656;13890239000;13827477777;14027477777
1657;13890241000;13827477777;14027477777
1658;13890489000;13827477777;14027477777
1659;13890492000;13827477777;14027477777
1660;13929855000;13827477777;14027477777
