seqnum;now;rtptime;deadline
1;14906417000;11263266666;11763266666
2;14906421000;11263266666;11763266666
3;15046713000;11294633333;11794633333
56;15416178000;11461622222;11961622222
213;15639658000;12086288888;12586288888
292;15803387000;12377955555;12877955555
295;15803399000;12377955555;12877955555
296;15803661000;12377966666;12877966666
297;15803678000;12378233333;12878233333
298;15803680000;12378233333;12878233333
299;15803682000;12378233333;12878233333
300;15816459000;12419622222;12919622222
301;15816472000;12419622222;12919622222
302;15816475000;12419622222;12919622222
303;15816478000;12419622222;12919622222
304;15816480000;12419622222;12919622222
305;15816482000;12419622222;12919622222
306;15816484000;12419622222;12919622222
307;15816670000;12419633333;12919633333
308;15816675000;12419922222;12919922222
309;15816677000;12419922222;12919922222
310;15816680000;12419922222;12919922222
311;15831594000;12461288888;12961288888
312;15831603000;12461288888;12961288888
313;15831606000;12461288888;12961288888
314;15831608000;12461288888;12961288888
315;15831610000;12461288888;12961288888
316;15831612000;12461288888;12961288888
317;15867449000;12461288888;12961288888
318;15951649000;12461300000;12961300000
373;16119980000;12669633333;13169633333
448;16119996000;12961288888;13461288888
449;16119998000;12961288888;13461288888
450;16284403000;12961300000;13461300000
454;16284425000;13002955555;13502955555
455;16284427000;13002955555;13502955555
456;16284428000;13002955555;13502955555
457;16284430000;13002955555;13502955555
458;16284431000;13002955555;13502955555
459;16284432000;13002955555;13502955555
460;16284434000;13002955555;13502955555
461;16296870000;13002966666;13502966666
462;16296885000;13003233333;13503233333
463;16296887000;13003233333;13503233333
464;16296888000;13003233333;13503233333
465;16307094000;13044622222;13544622222
466;16307098000;13044622222;13544622222
467;16307100000;13044622222;13544622222
468;16307101000;13044622222;13544622222
469;16307102000;13044622222;13544622222
470;16307104000;13044622222;13544622222
471;16307105000;13044622222;13544622222
472;16307305000;13044633333;13544633333
473;16307309000;13044900000;13544900000
474;16307311000;13044900000;13544900000
475;16348551000;13044900000;13544900000
476;16403172000;13086288888;13586288888
531;16601451000;13294622222;13794622222
606;16758374000;13544922222;14044922222
611;16775609000;13586288888;14086288888
612;16775612000;13586288888;14086288888
613;16775613000;13586288888;14086288888
614;16775614000;13586288888;14086288888
615;16775815000;13586300000;14086300000
616;16775830000;13586622222;14086622222
617;16775831000;13586622222;14086622222
618;16775832000;13586622222;14086622222
619;16789920000;13627955555;14127955555
620;16789924000;13627955555;14127955555
621;16789925000;13627955555;14127955555
622;16789926000;13627955555;14127955555
623;16789927000;13627955555;14127955555
624;16789928000;13627955555;14127955555
625;16789929000;13627955555;14127955555
626;16790109000;13627966666;14127966666
627;16790113000;13628255555;14128255555
628;16790114000;13628255555;14128255555
629;16790115000;13628255555;14128255555
630;16799951000;13669622222;14169622222
631;16799954000;13669622222;14169622222
632;16799955000;13669622222;14169622222
633;16799956000;13669622222;14169622222
634;16829717000;13669622222;14169622222
635;16830472000;13669622222;14169622222
636;16830663000;13669622222;14169622222
637;16881116000;13669633333;14169633333
687;16881131000;13877955555;14377955555
688;16881132000;13877955555;14377955555
689;16881133000;13877955555;14377955555
690;16881134000;13877955555;14377955555
691;16881135000;13877955555;14377955555
692;17083407000;13877966666;14377966666
763;17083422000;14169622222;14669622222
764;17083424000;14169622222;14669622222
765;17083425000;14169622222;14669622222
766;17083425000;14169622222;14669622222
767;17083426000;14169622222;14669622222
768;17083427000;14169622222;14669622222
769;17248798000;14169633333;14669633333
773;17248822000;14211288888;14711288888
774;17248824000;14211288888;14711288888
775;17248826000;14211288888;14711288888
776;17248854000;14211288888;14711288888
777;17248856000;14211288888;14711288888
778;17248858000;14211288888;14711288888
779;17248860000;14211288888;14711288888
780;17260136000;14211300000;14711300000
781;17260152000;14211633333;14711633333
782;17260153000;14211633333;14711633333
783;17260155000;14211633333;14711633333
784;17270350000;14252955555;14752955555
785;17270354000;14252955555;14752955555
786;17270355000;14252955555;14752955555
787;17270357000;14252955555;14752955555
788;17270358000;14252955555;14752955555
789;17270359000;14252955555;14752955555
790;17270360000;14252955555;14752955555
791;17270578000;14252966666;14752966666
792;17270593000;14253266666;14753266666
793;17311613000;14253266666;14753266666
794;17311806000;14253266666;14753266666
795;17366906000;14294622222;14794622222
844;17539004000;14461288888;14961288888
850;17567982000;14502955555;15002955555
918;17726724000;14752955555;15252955555
930;17744745000;14794622222;15294622222
931;17744749000;14794622222;15294622222
932;17744750000;14794622222;15294622222
933;17744751000;14794622222;15294622222
934;17744865000;14794633333;15294633333
935;17744870000;14794911111;15294911111
936;17744872000;14794911111;15294911111
937;17744873000;14794911111;15294911111
938;17758455000;14836288888;15336288888
939;17758459000;14836288888;15336288888
940;17758460000;14836288888;15336288888
941;17758462000;14836288888;15336288888
942;17758463000;14836288888;15336288888
943;17758464000;14836288888;15336288888
944;17758465000;14836288888;15336288888
945;17758600000;14836300000;15336300000
946;17758606000;14836633333;15336633333
947;17758607000;14836633333;15336633333
948;17758608000;14836633333;15336633333
949;17768747000;14877955555;15377955555
950;17768750000;14877955555;15377955555
951;17768751000;14877955555;15377955555
952;17768753000;14877955555;15377955555
953;17793112000;14877955555;15377955555
954;17793384000;14877955555;15377955555
955;17793586000;14877955555;15377955555
956;17843986000;14877966666;15377966666
1002;17843992000;15044911111;15544911111
1003;17843994000;15044911111;15544911111
1004;18046259000;15086288888;15586288888
1073;18207218000;15336288888;15836288888
1088;18226676000;15377966666;15877966666
1089;18226682000;15378233333;15878233333
1090;18226684000;15378233333;15878233333
1091;18226686000;15378233333;15878233333
1092;18240144000;15419622222;15919622222
1093;18240148000;15419622222;15919622222
1094;18240149000;15419622222;15919622222
1095;18240151000;15419622222;15919622222
1096;18240152000;15419622222;15919622222
1097;18240153000;15419622222;15919622222
1098;18240154000;15419622222;15919622222
1099;18240287000;15419633333;15919633333
1100;18240292000;15419911111;15919911111
1101;18240294000;15419911111;15919911111
1102;18240295000;15419911111;15919911111
1103;18248916000;15461288888;15961288888
1104;18248920000;15461288888;15961288888
1105;18248921000;15461288888;15961288888
1106;18248922000;15461288888;15961288888
1107;18248923000;15461288888;15961288888
1108;18248924000;15461288888;15961288888
1109;18248925000;15461288888;15961288888
1110;18249035000;15461300000;15961300000
1111;18274242000;15461611111;15961611111
1112;18274419000;15461611111;15961611111
1113;18274659000;15461611111;15961611111
1114;18366118000;15502955555;16002955555
1163;18526458000;15669622222;16169622222
1231;18683253000;15919633333;16419633333
1246;18683259000;16002955555;16502955555
1247;18683261000;16002955555;16502955555
1248;18683261000;16002955555;16502955555
1249;18683262000;16002955555;16502955555
1250;18683264000;16002955555;16502955555
1251;18683264000;16002955555;16502955555
1252;18683265000;16002955555;16502955555
1253;18716473000;16002966666;16502966666
1254;18716479000;16003233333;16503233333
1255;18716480000;16003233333;16503233333
1256;18716481000;16003233333;16503233333
1257;18726097000;16044622222;16544622222
1258;18726101000;16044622222;16544622222
1259;18726101000;16044622222;16544622222
1260;18726103000;16044622222;16544622222
1261;18726104000;16044622222;16544622222
1262;18726105000;16044622222;16544622222
1263;18726106000;16044622222;16544622222
1264;18726239000;16044633333;16544633333
1265;18726252000;16044900000;16544900000
1266;18726253000;16044900000;16544900000
1267;18726254000;16044900000;16544900000
1268;18736915000;16086288888;16586288888
1269;18755356000;16086288888;16586288888
1270;18755774000;16086288888;16586288888
1271;18755961000;16086288888;16586288888
1272;18756379000;16086288888;16586288888
1273;18756573000;16086288888;16586288888
1274;18756774000;16086288888;16586288888
1275;18807320000;16086300000;16586300000
1317;18807325000;16252955555;16752955555
1318;18807327000;16252955555;16752955555
1319;18971866000;16252977777;16752977777
1326;18971873000;16294622222;16794622222
1327;18971875000;16294622222;16794622222
1328;18971877000;16294622222;16794622222
1329;18971878000;16294622222;16794622222
1330;19008843000;16294633333;16794633333
1389;19008849000;16544622222;17044622222
1390;19008851000;16544622222;17044622222
1391;19008852000;16544622222;17044622222
1392;19008853000;16544622222;17044622222
1393;19008854000;16544622222;17044622222
1394;19008854000;16544622222;17044622222
1395;19008855000;16544622222;17044622222
1396;19180197000;16544633333;17044633333
1404;19180209000;16586288888;17086288888
1405;19180211000;16586288888;17086288888
1406;19180212000;16586288888;17086288888
1407;19229748000;16586300000;17086300000
1410;19229760000;16586611111;17086611111
1411;19229816000;16627955555;17127955555
1412;19229819000;16627955555;17127955555
1413;19229821000;16627955555;17127955555
1414;19229822000;16627955555;17127955555
1415;19229823000;16627955555;17127955555
1416;19229825000;16627955555;17127955555
1417;19229826000;16627955555;17127955555
1418;19230032000;16627977777;17127977777
1419;19230038000;16628255555;17128255555
1420;19230039000;16628255555;17128255555
1421;19230041000;16628255555;17128255555
1422;19230067000;16669622222;17169622222
1423;19230070000;16669622222;17169622222
1424;19230072000;16669622222;17169622222
1425;19230075000;16669622222;17169622222
1426;19230077000;16669622222;17169622222
1427;19230079000;16669622222;17169622222
1428;19230080000;16669622222;17169622222
1429;19289917000;16669633333;17169633333
1473;19451989000;16836288888;17336288888
1485;19452001000;16878266666;17378266666
1486;19452003000;16878266666;17378266666
1487;19452004000;16878266666;17378266666
1488;19523667000;16919622222;17419622222
1552;19651703000;17128255555;17628255555
1561;19670733000;17169633333;17669633333
1562;19670740000;17169933333;17669933333
1563;19670741000;17169933333;17669933333
1564;19670742000;17169933333;17669933333
1565;19684214000;17211300000;17711300000
1566;19684218000;17211300000;17711300000
1567;19684219000;17211300000;17711300000
1568;19684220000;17211300000;17711300000
1569;19684220000;17211300000;17711300000
1570;19684221000;17211300000;17711300000
1571;19684222000;17211300000;17711300000
1572;19684335000;17211311111;17711311111
1573;19684341000;17211633333;17711633333
1574;19684342000;17211633333;17711633333
1575;19684343000;17211633333;17711633333
1576;19694360000;17252955555;17752955555
1577;19694364000;17252955555;17752955555
1578;19694364000;17252955555;17752955555
1579;19694366000;17252955555;17752955555
1580;19694366000;17252955555;17752955555
1581;19694367000;17252955555;17752955555
1582;19694368000;17252955555;17752955555
1583;19694500000;17252966666;17752966666
1584;19694505000;17253255555;17753255555
1585;19694507000;17253255555;17753255555
1586;19707739000;17253255555;17753255555
1587;19775724000;17294622222;17794622222
1631;19922931000;17461288888;17961288888
1642;19960288000;17502955555;18002955555
1649;19960471000;17502966666;18002966666
1652;19960477000;17503266666;18003266666
1653;19995462000;17544622222;18044622222
1709;20174092000;17752955555;18252955555
1720;20174208000;17794655555;18294655555
1721;20174212000;17794655555;18294655555
1722;20174213000;17794655555;18294655555
1723;20174215000;17794655555;18294655555
1724;20174216000;17794655555;18294655555
1725;20174218000;17794655555;18294655555
1726;20174301000;17794666666;18294666666
1727;20174306000;17794966666;18294966666
1728;20174307000;17794966666;18294966666
1729;20174325000;17794966666;18294966666
1730;20174336000;17836288888;18336288888
1731;20174338000;17836288888;18336288888
1732;20174340000;17836288888;18336288888
1733;20174342000;17836288888;18336288888
1734;20174344000;17836288888;18336288888
1735;20174346000;17836288888;18336288888
1736;20174348000;17836288888;18336288888
1737;20174418000;17836300000;18336300000
1738;20174423000;17836622222;18336622222
1739;20174424000;17836622222;18336622222
1740;20174425000;17836622222;18336622222
1741;20184901000;17877955555;18377955555
1742;20184909000;17877955555;18377955555
1743;20188683000;17877955555;18377955555
1744;20188836000;17877955555;18377955555
1745;20199720000;17877955555;18377955555
1746;20199846000;17877955555;18377955555
1747;20200439000;17877955555;18377955555
1748;20251083000;17877966666;18377966666
1788;20251089000;18044611111;18544611111
1789;20251091000;18044611111;18544611111
1790;20251092000;18044611111;18544611111
1791;20251094000;18044611111;18544611111
1792;20415576000;18044622222;18544622222
1799;20415593000;18086288888;18586288888
1800;20415594000;18086288888;18586288888
1801;20415595000;18086288888;18586288888
1802;20415596000;18086288888;18586288888
1803;20452610000;18086300000;18586300000
1859;20452625000;18294888888;18794888888
1860;20452626000;18294888888;18794888888
1861;20452627000;18294888888;18794888888
1862;20623799000;18336288888;18836288888
1878;20643357000;18377955555;18877955555
1879;20643361000;18377955555;18877955555
1880;20643569000;18377977777;18877977777
1881;20643584000;18378233333;18878233333
1882;20643586000;18378233333;18878233333
1883;20643587000;18378233333;18878233333
1884;20656833000;18419622222;18919622222
1885;20656836000;18419622222;18919622222
1886;20656837000;18419622222;18919622222
1887;20656838000;18419622222;18919622222
1888;20656839000;18419622222;18919622222
1889;20656840000;18419622222;18919622222
1890;20656841000;18419622222;18919622222
1891;20657014000;18419633333;18919633333
1892;20657018000;18419911111;18919911111
1893;20657019000;18419911111;18919911111
1894;20657020000;18419911111;18919911111
1895;20669870000;18461288888;18961288888
1896;20669873000;18461288888;18961288888
1897;20669874000;18461288888;18961288888
1898;20669875000;18461288888;18961288888
1899;20669876000;18461288888;18961288888
1900;20669876000;18461288888;18961288888
1901;20680665000;18461288888;18961288888
1902;20731292000;18461300000;18961300000
1946;20895677000;18627966666;19127966666
1957;20932740000;18669633333;19169633333
2016;20932745000;18919666666;19419666666
2017;20932746000;18919666666;19419666666
2018;20932747000;18919666666;19419666666
2019;20932748000;18919666666;19419666666
2020;20932749000;18919666666;19419666666
2021;20932750000;18919666666;19419666666
2022;20932751000;18919666666;19419666666
2023;21104419000;18919677777;19419677777
2036;21104437000;18961600000;19461600000
2037;21104438000;18961600000;19461600000
2038;21135149000;19002955555;19502955555
2039;21135154000;19002955555;19502955555
2040;21135155000;19002955555;19502955555
2041;21135156000;19002955555;19502955555
2042;21135157000;19002955555;19502955555
2043;21135159000;19002955555;19502955555
2044;21135160000;19002955555;19502955555
2045;21135362000;19002966666;19502966666
2046;21135378000;19003255555;19503255555
2047;21135379000;19003255555;19503255555
2048;21135380000;19003255555;19503255555
2049;21143760000;19044622222;19544622222
2050;21143763000;19044622222;19544622222
2051;21143765000;19044622222;19544622222
2052;21143766000;19044622222;19544622222
2053;21143768000;19044622222;19544622222
2054;21143769000;19044622222;19544622222
2055;21143770000;19044622222;19544622222
2056;21143910000;19044644444;19544644444
2057;21143913000;19044911111;19544911111
2058;21143914000;19044911111;19544911111
2059;21161795000;19044911111;19544911111
2060;21212335000;19086288888;19586288888
2104;21376839000;19252944444;19752944444
2115;21430215000;19294633333;19794633333
2170;21562421000;19502955555;20002955555
2192;21604837000;19586288888;20086288888
2196;21604841000;19586288888;20086288888
2197;21604843000;19586288888;20086288888
2198;21604860000;19586288888;20086288888
2199;21605016000;19586300000;20086300000
2200;21605023000;19586622222;20086622222
2201;21605025000;19586622222;20086622222
2202;21605026000;19586622222;20086622222
2203;21618526000;19627955555;20127955555
2204;21618529000;19627955555;20127955555
2205;21618531000;19627955555;20127955555
2206;21618532000;19627955555;20127955555
2207;21618534000;19627955555;20127955555
2208;21618535000;19627955555;20127955555
2209;21618536000;19627955555;20127955555
2210;21618654000;19627966666;20127966666
2211;21618659000;19628266666;20128266666
2212;21618660000;19628266666;20128266666
2213;21618661000;19628266666;20128266666
2214;21631915000;19669622222;20169622222
2215;21631917000;19669622222;20169622222
2216;21631917000;19669622222;20169622222
2217;21631918000;19669622222;20169622222
2218;21643148000;19669622222;20169622222
2219;21643615000;19669622222;20169622222
2220;21643807000;19669622222;20169622222
2221;21694569000;19669633333;20169633333
2260;21694585000;19836288888;20336288888
2261;21694586000;19836288888;20336288888
2262;21694587000;19836288888;20336288888
2263;21694588000;19836288888;20336288888
2264;21694589000;19836288888;20336288888
2265;21859059000;19836300000;20336300000
2273;21859065000;19877955555;20377955555
2274;21859066000;19877955555;20377955555
2275;21859067000;19877955555;20377955555
2276;21896128000;19877977777;20377977777
2327;21896143000;20086344444;20586344444
2328;21896144000;20086344444;20586344444
2329;21896145000;20086344444;20586344444
2330;21896146000;20086344444;20586344444
2331;22044277000;20086388888;20586388888
2349;22044293000;20169622222;20669622222
2350;22044294000;20169622222;20669622222
2351;22044295000;20169622222;20669622222
2352;22044296000;20169622222;20669622222
2353;22087155000;20169633333;20669633333
2356;22087171000;20169944444;20669944444
2357;22100445000;20211277777;20711277777
2358;22100449000;20211277777;20711277777
2359;22100450000;20211277777;20711277777
2360;22100451000;20211277777;20711277777
2361;22100452000;20211277777;20711277777
2362;22100453000;20211277777;20711277777
2363;22100454000;20211277777;20711277777
2364;22100572000;20211300000;20711300000
2365;22100576000;20211633333;20711633333
2366;22100577000;20211633333;20711633333
2367;22100578000;20211633333;20711633333
2368;22113530000;20252955555;20752955555
2369;22113534000;20252955555;20752955555
2370;22113535000;20252955555;20752955555
2371;22113535000;20252955555;20752955555
2372;22113536000;20252955555;20752955555
2373;22113537000;20252955555;20752955555
2374;22113538000;20252955555;20752955555
2375;22113646000;20252966666;20752966666
2376;22113652000;20253277777;20753277777
2377;22124494000;20253277777;20753277777
2378;22124986000;20253277777;20753277777
2379;22129687000;20294622222;20794622222
2383;22129690000;20294622222;20794622222
2384;22129691000;20294622222;20794622222
2385;22129692000;20294622222;20794622222
2386;22129898000;20294633333;20794633333
2388;22129914000;20294911111;20794911111
2389;22129915000;20294911111;20794911111
2390;22149626000;20336288888;20836288888
2405;22173679000;20377955555;20877955555
2415;22201739000;20419622222;20919622222
2421;22201825000;20419933333;20919933333
2422;22201828000;20419933333;20919933333
2423;22230167000;20461277777;20961277777
2424;22230171000;20461277777;20961277777
2425;22230172000;20461277777;20961277777
2426;22230173000;20461277777;20961277777
2427;22230174000;20461277777;20961277777
2428;22230175000;20461277777;20961277777
2429;22230176000;20461277777;20961277777
2430;22253330000;20461300000;20961300000
2431;22253336000;20461644444;20961644444
2432;22253338000;20461644444;20961644444
2433;22253340000;20461644444;20961644444
2434;22253426000;20502955555;21002955555
2435;22253429000;20502955555;21002955555
2436;22253431000;20502955555;21002955555
2437;22253432000;20502955555;21002955555
2438;22253434000;20502955555;21002955555
2439;22253444000;20502955555;21002955555
2440;22253446000;20502955555;21002955555
2441;22253535000;20502966666;21002966666
2442;22253538000;20503255555;21003255555
2443;22253540000;20503255555;21003255555
2444;22253553000;20503255555;21003255555
2445;22276593000;20544633333;21044633333
2446;22276602000;20544633333;21044633333
2447;22276615000;20544633333;21044633333
2448;22276618000;20544633333;21044633333
2449;22276619000;20544633333;21044633333
2450;22276621000;20544633333;21044633333
2451;22297665000;20544633333;21044633333
2452;22348314000;20544644444;21044644444
2453;22351345000;20544977777;21044977777
2454;22351528000;20544977777;21044977777
2455;22364956000;20544977777;21044977777
2456;22443138000;20586288888;21086288888
2498;22565941000;20711633333;21211633333
2509;22603538000;20753266666;21253266666
2511;22653729000;20794666666;21294666666
2573;22779805000;21002966666;21502966666
2588;22779822000;21086288888;21586288888
2589;22779824000;21086288888;21586288888
2590;22779825000;21086288888;21586288888
2591;22779826000;21086288888;21586288888
2592;22779828000;21086288888;21586288888
2593;22779829000;21086288888;21586288888
2594;22779831000;21086288888;21586288888
2595;22816415000;21086311111;21586311111
2596;22816421000;21086633333;21586633333
2597;22816423000;21086633333;21586633333
2598;22816424000;21086633333;21586633333
2599;22829217000;21127955555;21627955555
2600;22829221000;21127955555;21627955555
2601;22829222000;21127955555;21627955555
2602;22829223000;21127955555;21627955555
2603;22829224000;21127955555;21627955555
2604;22829224000;21127955555;21627955555
2605;22829225000;21127955555;21627955555
2606;22829397000;21127966666;21627966666
2607;22829402000;21128266666;21628266666
2608;22829403000;21128266666;21628266666
2609;22829404000;21128266666;21628266666
2610;22843126000;21169600000;21669600000
2611;22843130000;21169600000;21669600000
2612;22845932000;21169600000;21669600000
2613;22846139000;21169600000;21669600000
2614;22846515000;21169600000;21669600000
2615;22846709000;21169600000;21669600000
2616;22847130000;21169600000;21669600000
2617;22897837000;21169622222;21669622222
2652;22897852000;21294877777;21794877777
2653;22897854000;21294877777;21794877777
2654;23062185000;21336300000;21836300000
2668;23099456000;21377955555;21877955555
2718;23228004000;21544911111;22044911111
2740;23278757000;21628277777;22128277777
2745;23299490000;21669611111;22169611111
2748;23299493000;21669611111;22169611111
2749;23299700000;21669622222;22169622222
2750;23299716000;21669888888;22169888888
2751;23299717000;21669888888;22169888888
2752;23299718000;21669888888;22169888888
2753;23313886000;21711333333;22211333333
2754;23313889000;21711333333;22211333333
2755;23313890000;21711333333;22211333333
2756;23313891000;21711333333;22211333333
2757;23313892000;21711333333;22211333333
2758;23313893000;21711333333;22211333333
2759;23313894000;21711333333;22211333333
2760;23314083000;21711366666;22211366666
2761;23314088000;21711688888;22211688888
2762;23314089000;21711688888;22211688888
2763;23314090000;21711688888;22211688888
2764;23324820000;21752955555;22252955555
2765;23324823000;21752955555;22252955555
2766;23324824000;21752955555;22252955555
2767;23324825000;21752955555;22252955555
2768;23324825000;21752955555;22252955555
2769;23324827000;21752955555;22252955555
2770;23327404000;21752955555;22252955555
2771;23378078000;21752977777;22252977777
2809;23378093000;21919633333;22419633333
2810;23378094000;21919633333;22419633333
2811;23378095000;21919633333;22419633333
2812;23378096000;21919633333;22419633333
2813;23378097000;21919633333;22419633333
2814;23378098000;21919633333;22419633333
2815;23542610000;21919644444;22419644444
2826;23579746000;21961300000;22461300000
2874;23579752000;22169622222;22669622222
2875;23579753000;22169622222;22669622222
2876;23579754000;22169622222;22669622222
2877;23579755000;22169622222;22669622222
2878;23579756000;22169622222;22669622222
2879;23579757000;22169622222;22669622222
2880;23579758000;22169622222;22669622222
2881;23728450000;22169633333;22669633333
2899;23728466000;22252955555;22752955555
2900;23728467000;22252955555;22752955555
2901;23728468000;22252955555;22752955555
2902;23728469000;22252955555;22752955555
2903;23771363000;22252966666;22752966666
2907;23771378000;22294622222;22794622222
2908;23771389000;22294622222;22794622222
2909;23771390000;22294622222;22794622222
2910;23771391000;22294622222;22794622222
2911;23771392000;22294622222;22794622222
2912;23771393000;22294622222;22794622222
2913;23771394000;22294622222;22794622222
2914;23785397000;22294633333;22794633333
2915;23785412000;22294877777;22794877777
2916;23785413000;22294877777;22794877777
2917;23785414000;22294877777;22794877777
2918;23798303000;22336288888;22836288888
2919;23798306000;22336288888;22836288888
2920;23798308000;22336288888;22836288888
2921;23798309000;22336288888;22836288888
2922;23798309000;22336288888;22836288888
2923;23798310000;22336288888;22836288888
2924;23798311000;22336288888;22836288888
2925;23798483000;22336300000;22836300000
2926;23798487000;22336600000;22836600000
2927;23798488000;22336600000;22836600000
2928;23808504000;22336600000;22836600000
2929;23834741000;22377933333;22877933333
2952;23858122000;22461288888;22961288888
2965;23886141000;22502944444;23002944444
2970;23886267000;22503233333;23003233333
2971;23886271000;22503233333;23003233333
2972;23886272000;22503233333;23003233333
2973;23912610000;22544611111;23044611111
2975;23912613000;22544611111;23044611111
2976;23912615000;22544611111;23044611111
2977;23912616000;22544611111;23044611111
2978;23912617000;22544611111;23044611111
2979;23912619000;22544611111;23044611111
2980;23912822000;22544622222;23044622222
2981;23912837000;22544900000;23044900000
2982;23912839000;22544900000;23044900000
2983;23912840000;22544900000;23044900000
2984;23932824000;22586288888;23086288888
2985;23932828000;22586288888;23086288888
2986;23932829000;22586288888;23086288888
2987;23932830000;22586288888;23086288888
2988;23932832000;22586288888;23086288888
2989;23932833000;22586288888;23086288888
2990;23932834000;22586288888;23086288888
2991;23932981000;22586300000;23086300000
2992;23932984000;22586600000;23086600000
2993;23932985000;22586600000;23086600000
2994;23932986000;22586600000;23086600000
2995;23956087000;22627933333;23127933333
2996;23956089000;22627933333;23127933333
2997;23956090000;22627933333;23127933333
2998;23956091000;22627933333;23127933333
2999;23956092000;22627933333;23127933333
3000;23956093000;22627933333;23127933333
3001;23981299000;22627933333;23127933333
3002;24031963000;22627955555;23127955555
3003;24031978000;22628311111;23128311111
3004;24031979000;22628311111;23128311111
3005;24031980000;22628311111;23128311111
3006;24073469000;22669622222;23169622222
3030;24156746000;22752966666;23252966666
3053;24236623000;22836288888;23336288888
3061;24273415000;22877955555;23377955555
3064;24273418000;22877955555;23377955555
3065;24273419000;22877955555;23377955555
3066;24273420000;22877955555;23377955555
3067;24273421000;22877955555;23377955555
3068;24273622000;22877977777;23377977777
3069;24273637000;22878344444;23378344444
3070;24273638000;22878344444;23378344444
3071;24273639000;22878344444;23378344444
3072;24308351000;22919655555;23419655555
3109;24402942000;23044622222;23544622222
3134;24457860000;23127955555;23627955555
3137;24457875000;23128333333;23628333333
3138;24477580000;23169611111;23669611111
3140;24477584000;23169611111;23669611111
3141;24477585000;23169611111;23669611111
3142;24477586000;23169611111;23669611111
3143;24477587000;23169611111;23669611111
3144;24477588000;23169611111;23669611111
3145;24477799000;23169622222;23669622222
3146;24477805000;23169888888;23669888888
3147;24477806000;23169888888;23669888888
3148;24477807000;23169888888;23669888888
3149;24495378000;23211288888;23711288888
3150;24495382000;23211288888;23711288888
3151;24495383000;23211288888;23711288888
3152;24495384000;23211288888;23711288888
3153;24495385000;23211288888;23711288888
3154;24495386000;23211288888;23711288888
3155;24495387000;23211288888;23711288888
3156;24495530000;23211300000;23711300000
3157;24495533000;23211644444;23711644444
3158;24495534000;23211644444;23711644444
3159;24495535000;23211644444;23711644444
3160;24513504000;23252955555;23752955555
3161;24513506000;23252955555;23752955555
3162;24513507000;23252955555;23752955555
3163;24513508000;23252955555;23752955555
3164;24513528000;23252955555;23752955555
3165;24529822000;23252955555;23752955555
3166;24530142000;23252955555;23752955555
3167;24580803000;23252966666;23752966666
3199;24580818000;23377955555;23877955555
3200;24705366000;23377966666;23877966666
3218;24705383000;23461288888;23961288888
3219;24705385000;23461288888;23961288888
3220;24705386000;23461288888;23961288888
3221;24705387000;23461288888;23961288888
3222;24782809000;23461300000;23961300000
3267;24782824000;23628311111;24128311111
3268;24782825000;23628311111;24128311111
3269;24782826000;23628311111;24128311111
3270;24938150000;23669622222;24169622222
3278;24938262000;23669900000;24169900000
3279;24938266000;23669900000;24169900000
3280;24938267000;23669900000;24169900000
3281;24961992000;23711300000;24211300000
3282;24961996000;23711300000;24211300000
3283;24961997000;23711300000;24211300000
3284;24961998000;23711300000;24211300000
3285;24961999000;23711300000;24211300000
3286;24962000000;23711300000;24211300000
3287;24962001000;23711300000;24211300000
3288;24962213000;23711311111;24211311111
3289;24962228000;23711611111;24211611111
3290;24962229000;23711611111;24211611111
3291;24962230000;23711611111;24211611111
3292;24982947000;23752955555;24252955555
3293;24982950000;23752955555;24252955555
3294;24982951000;23752955555;24252955555
3295;24982953000;23752955555;24252955555
3296;24982954000;23752955555;24252955555
3297;24982954000;23752955555;24252955555
3298;24982955000;23752955555;24252955555
3299;24983098000;23752966666;24252966666
