seqnum;now;rtptime;deadline
1;15282714000;11639766666;12139766666
2;15282718000;11639766666;12139766666
3;15367395000;11670866666;12170866666
56;15717397000;11837855555;12337855555
135;15819138000;12170855555;12670855555
215;16024398000;12462522222;12962522222
292;16194708000;12754188888;13254188888
295;16194723000;12754188888;13254188888
296;16194864000;12754200000;13254200000
297;16194872000;12754466666;13254466666
298;16194874000;12754466666;13254466666
299;16194875000;12754466666;13254466666
300;16194890000;12795855555;13295855555
301;16194891000;12795855555;13295855555
302;16194903000;12795855555;13295855555
303;16194905000;12795855555;13295855555
304;16194906000;12795855555;13295855555
305;16194907000;12795855555;13295855555
306;16194909000;12795855555;13295855555
307;16194972000;12795866666;13295866666
308;16194977000;12796133333;13296133333
309;16194979000;12796133333;13296133333
310;16194980000;12796133333;13296133333
311;16202248000;12837522222;13337522222
312;16202254000;12837522222;13337522222
313;16202255000;12837522222;13337522222
314;16202256000;12837522222;13337522222
315;16202258000;12837522222;13337522222
316;16202259000;12837522222;13337522222
317;16243627000;12837522222;13337522222
318;16295822000;12837533333;13337533333
373;16496432000;13045866666;13545866666
449;16496446000;13337533333;13837533333
450;16659883000;13337544444;13837544444
454;16659893000;13379188888;13879188888
455;16659895000;13379188888;13879188888
456;16659896000;13379188888;13879188888
457;16659898000;13379188888;13879188888
458;16659899000;13379188888;13879188888
459;16659900000;13379188888;13879188888
460;16659902000;13379188888;13879188888
461;16714083000;13379200000;13879200000
462;16714134000;13379466666;13879466666
463;16714137000;13379466666;13879466666
464;16714139000;13379466666;13879466666
465;16714241000;13420855555;13920855555
466;16714244000;13420855555;13920855555
467;16714246000;13420855555;13920855555
468;16714248000;13420855555;13920855555
469;16714249000;13420855555;13920855555
470;16714251000;13420855555;13920855555
471;16714252000;13420855555;13920855555
472;16714333000;13420866666;13920866666
473;16714338000;13421144444;13921144444
474;16714340000;13421144444;13921144444
475;16724822000;13421144444;13921144444
476;16775313000;13462522222;13962522222
531;16977631000;13670855555;14170855555
606;17134871000;13921166666;14421166666
611;17152111000;13962522222;14462522222
612;17152115000;13962522222;14462522222
613;17152117000;13962522222;14462522222
614;17152118000;13962522222;14462522222
615;17152256000;13962533333;14462533333
616;17152261000;13962844444;14462844444
617;17152262000;13962844444;14462844444
618;17152264000;13962844444;14462844444
619;17166440000;14004188888;14504188888
620;17166444000;14004188888;14504188888
621;17166446000;14004188888;14504188888
622;17166447000;14004188888;14504188888
623;17166448000;14004188888;14504188888
624;17166449000;14004188888;14504188888
625;17166451000;14004188888;14504188888
626;17166564000;14004200000;14504200000
627;17166570000;14004488888;14504488888
628;17166572000;14004488888;14504488888
629;17166573000;14004488888;14504488888
630;17176507000;14045855555;14545855555
631;17176510000;14045855555;14545855555
632;17176511000;14045855555;14545855555
633;17176513000;14045855555;14545855555
634;17206088000;14045855555;14545855555
635;17206454000;14045855555;14545855555
636;17206641000;14045855555;14545855555
637;17257210000;14045866666;14545866666
687;17257216000;14254188888;14754188888
688;17257218000;14254188888;14754188888
689;17257218000;14254188888;14754188888
690;17257219000;14254188888;14754188888
691;17257220000;14254188888;14754188888
692;17459496000;14254200000;14754200000
762;17459502000;14545855555;15045855555
763;17459503000;14545855555;15045855555
764;17459504000;14545855555;15045855555
765;17459505000;14545855555;15045855555
766;17459506000;14545855555;15045855555
767;17459507000;14545855555;15045855555
768;17459508000;14545855555;15045855555
769;17634844000;14545877777;15045877777
773;17634850000;14587522222;15087522222
774;17634851000;14587522222;15087522222
775;17634865000;14587522222;15087522222
776;17634866000;14587522222;15087522222
777;17634867000;14587522222;15087522222
778;17634868000;14587522222;15087522222
779;17634869000;14587522222;15087522222
780;17648172000;14587544444;15087544444
781;17648178000;14587877777;15087877777
782;17648180000;14587877777;15087877777
783;17648181000;14587877777;15087877777
784;17655900000;14629188888;15129188888
785;17655903000;14629188888;15129188888
786;17655904000;14629188888;15129188888
787;17655905000;14629188888;15129188888
788;17655906000;14629188888;15129188888
789;17655907000;14629188888;15129188888
790;17655909000;14629188888;15129188888
791;17656021000;14629200000;15129200000
792;17656027000;14629500000;15129500000
793;17687561000;14629500000;15129500000
794;17687772000;14629500000;15129500000
795;17738340000;14670855555;15170855555
843;17902857000;14837522222;15337522222
850;17956182000;14879188888;15379188888
919;18102833000;15129188888;15629188888
930;18120918000;15170855555;15670855555
931;18120922000;15170855555;15670855555
932;18120924000;15170855555;15670855555
933;18120926000;15170855555;15670855555
934;18121155000;15170866666;15670866666
935;18121171000;15171155555;15671155555
936;18121172000;15171155555;15671155555
937;18121173000;15171155555;15671155555
938;18134668000;15212533333;15712533333
939;18134672000;15212533333;15712533333
940;18134673000;15212533333;15712533333
941;18134675000;15212533333;15712533333
942;18134676000;15212533333;15712533333
943;18134677000;15212533333;15712533333
944;18134678000;15212533333;15712533333
945;18134880000;15212555555;15712555555
946;18134896000;15212877777;15712877777
947;18134897000;15212877777;15712877777
948;18134898000;15212877777;15712877777
949;18144994000;15254188888;15754188888
950;18144997000;15254188888;15754188888
951;18144999000;15254188888;15754188888
952;18145000000;15254188888;15754188888
953;18168945000;15254188888;15754188888
954;18169674000;15254188888;15754188888
955;18169931000;15254188888;15754188888
956;18220670000;15254200000;15754200000
1000;18385092000;15420866666;15920866666
1009;18385120000;15462522222;15962522222
1010;18385122000;15462522222;15962522222
1011;18422182000;15462544444;15962544444
1074;18422198000;15712522222;16212522222
1075;18422199000;15712522222;16212522222
1076;18422200000;15712522222;16212522222
1077;18584750000;15712544444;16212544444
1088;18603235000;15754200000;16254200000
1089;18603242000;15754488888;16254488888
1090;18603243000;15754488888;16254488888
1091;18603245000;15754488888;16254488888
1092;18616691000;15795855555;16295855555
1093;18616695000;15795855555;16295855555
1094;18616696000;15795855555;16295855555
1095;18616698000;15795855555;16295855555
1096;18616699000;15795855555;16295855555
1097;18616700000;15795855555;16295855555
1098;18616702000;15795855555;16295855555
1099;18616907000;15795866666;16295866666
1100;18616922000;15796144444;16296144444
1101;18616924000;15796144444;16296144444
1102;18616926000;15796144444;16296144444
1103;18626780000;15837533333;16337533333
1104;18626784000;15837533333;16337533333
1105;18626785000;15837533333;16337533333
1106;18626786000;15837533333;16337533333
1107;18626787000;15837533333;16337533333
1108;18626788000;15837533333;16337533333
1109;18626789000;15837533333;16337533333
1110;18626992000;15837544444;16337544444
1111;18650553000;15837833333;16337833333
1112;18650812000;15837833333;16337833333
1113;18651194000;15837833333;16337833333
1114;18742467000;15879188888;16379188888
1163;18902780000;16045855555;16545855555
1229;19064962000;16295855555;16795855555
1246;19098600000;16379188888;16879188888
1247;19098612000;16379188888;16879188888
1248;19098614000;16379188888;16879188888
1249;19098616000;16379188888;16879188888
1250;19098618000;16379188888;16879188888
1251;19098621000;16379188888;16879188888
1252;19098623000;16379188888;16879188888
1253;19098873000;16379200000;16879200000
1254;19098894000;16379466666;16879466666
1255;19098896000;16379466666;16879466666
1256;19098898000;16379466666;16879466666
1257;19107116000;16420855555;16920855555
1258;19107127000;16420855555;16920855555
1259;19107129000;16420855555;16920855555
1260;19107153000;16420855555;16920855555
1261;19107155000;16420855555;16920855555
1262;19107157000;16420855555;16920855555
1263;19107159000;16420855555;16920855555
1264;19107345000;16420866666;16920866666
1265;19107353000;16421144444;16921144444
1266;19107355000;16421144444;16921144444
1267;19107356000;16421144444;16921144444
1268;19117388000;16462522222;16962522222
1269;19131800000;16462522222;16962522222
1270;19132121000;16462522222;16962522222
1271;19132362000;16462522222;16962522222
1272;19132684000;16462522222;16962522222
1273;19132874000;16462522222;16962522222
1274;19133035000;16462522222;16962522222
1275;19203136000;16462544444;16962544444
1317;19203146000;16629188888;17129188888
1318;19203148000;16629188888;17129188888
1319;19348107000;16629211111;17129211111
1326;19348124000;16670855555;17170855555
1327;19348126000;16670855555;17170855555
1328;19348128000;16670855555;17170855555
1329;19348129000;16670855555;17170855555
1330;19385226000;16670866666;17170866666
1386;19385241000;16879488888;17379488888
1387;19385243000;16879488888;17379488888
1388;19385244000;16879488888;17379488888
1389;19574345000;16920888888;17420888888
1405;19594423000;16962533333;17462533333
1406;19594438000;16962533333;17462533333
1407;19594700000;16962544444;17462544444
1408;19594716000;16962855555;17462855555
1409;19594718000;16962855555;17462855555
1410;19594720000;16962855555;17462855555
1411;19594736000;17004177777;17504177777
1412;19594748000;17004177777;17504177777
1413;19594750000;17004177777;17504177777
1414;19594751000;17004177777;17504177777
1415;19594753000;17004177777;17504177777
1416;19594754000;17004177777;17504177777
1417;19594755000;17004177777;17504177777
1418;19594879000;17004188888;17504188888
1419;19594895000;17004477777;17504477777
1420;19594897000;17004477777;17504477777
1421;19594898000;17004477777;17504477777
1422;19603069000;17045855555;17545855555
1423;19603082000;17045855555;17545855555
1424;19603084000;17045855555;17545855555
1425;19603085000;17045855555;17545855555
1426;19603087000;17045855555;17545855555
1427;19603088000;17045855555;17545855555
1428;19613640000;17045855555;17545855555
1429;19664282000;17045866666;17545866666
1472;19664298000;17212511111;17712511111
1473;19828716000;17212533333;17712533333
1484;19865672000;17254200000;17754200000
1541;19865678000;17462844444;17962844444
1542;19865680000;17462844444;17962844444
1543;20037414000;17504177777;18004177777
1563;20057011000;17546133333;18046133333
1564;20057014000;17546133333;18046133333
1565;20070562000;17587544444;18087544444
1566;20070565000;17587544444;18087544444
1567;20070566000;17587544444;18087544444
1568;20070567000;17587544444;18087544444
1569;20070568000;17587544444;18087544444
1570;20070569000;17587544444;18087544444
1571;20070570000;17587544444;18087544444
1572;20070772000;17587555555;18087555555
1573;20070788000;17587866666;18087866666
1574;20070789000;17587866666;18087866666
1575;20070790000;17587866666;18087866666
1576;20082618000;17629188888;18129188888
1577;20082631000;17629188888;18129188888
1578;20082632000;17629188888;18129188888
1579;20082633000;17629188888;18129188888
1580;20082634000;17629188888;18129188888
1581;20082635000;17629188888;18129188888
1582;20082636000;17629188888;18129188888
1583;20082845000;17629200000;18129200000
1584;20082861000;17629488888;18129488888
1585;20082862000;17629488888;18129488888
1586;20094728000;17629488888;18129488888
1587;20095959000;17670855555;18170855555
1588;20095963000;17670855555;18170855555
1589;20095964000;17670855555;18170855555
1590;20095965000;17670855555;18170855555
1591;20096096000;17670855555;18170855555
1592;20096316000;17670855555;18170855555
1593;20096318000;17670855555;18170855555
1594;20146794000;17670866666;18170866666
1629;20146809000;17796144444;18296144444
1630;20146810000;17796144444;18296144444
1631;20329717000;17837533333;18337533333
1642;20354136000;17879188888;18379188888
1698;20504307000;18087555555;18587555555
1719;20547581000;18170844444;18670844444
1723;20547585000;18170844444;18670844444
1724;20547586000;18170844444;18670844444
1725;20547603000;18170844444;18670844444
1726;20547810000;18170855555;18670855555
1727;20547826000;18171155555;18671155555
1728;20547827000;18171155555;18671155555
1729;20547828000;18171155555;18671155555
1730;20560155000;18212555555;18712555555
1731;20560159000;18212555555;18712555555
1732;20560160000;18212555555;18712555555
1733;20560161000;18212555555;18712555555
1734;20560162000;18212555555;18712555555
1735;20560163000;18212555555;18712555555
1736;20560164000;18212555555;18712555555
1737;20560366000;18212566666;18712566666
1738;20560381000;18212877777;18712877777
1739;20560382000;18212877777;18712877777
1740;20560383000;18212877777;18712877777
1741;20571801000;18254188888;18754188888
1742;20571803000;18254188888;18754188888
1743;20571804000;18254188888;18754188888
1744;20571805000;18254188888;18754188888
1745;20575852000;18254188888;18754188888
1746;20577060000;18254188888;18754188888
1747;20577257000;18254188888;18754188888
1748;20627741000;18254200000;18754200000
1786;20627756000;18420844444;18920844444
1787;20627758000;18420844444;18920844444
1788;20627759000;18420844444;18920844444
1789;20627759000;18420844444;18920844444
1790;20627760000;18420844444;18920844444
1791;20627761000;18420844444;18920844444
1792;20792265000;18420855555;18920855555
1800;20792283000;18462522222;18962522222
1801;20792285000;18462522222;18962522222
1802;20792286000;18462522222;18962522222
1803;20829220000;18462544444;18962544444
1855;20829236000;18670844444;19170844444
1856;20829238000;18670844444;19170844444
1857;20829239000;18670844444;19170844444
1858;20977485000;18670855555;19170855555
1876;20977500000;18754188888;19254188888
1877;20977502000;18754188888;19254188888
1878;20977503000;18754188888;19254188888
1879;20977504000;18754188888;19254188888
1880;21020463000;18754200000;19254200000
1883;21020478000;18754466666;19254466666
1884;21033735000;18795855555;19295855555
1885;21033740000;18795855555;19295855555
1886;21033741000;18795855555;19295855555
1887;21033742000;18795855555;19295855555
1888;21033743000;18795855555;19295855555
1889;21033744000;18795855555;19295855555
1890;21033745000;18795855555;19295855555
1891;21033921000;18795866666;19295866666
1892;21033925000;18796166666;19296166666
1893;21033926000;18796166666;19296166666
1894;21033927000;18796166666;19296166666
1895;21047038000;18837544444;19337544444
1896;21047042000;18837544444;19337544444
1897;21047051000;18837544444;19337544444
1898;21047052000;18837544444;19337544444
1899;21047054000;18837544444;19337544444
1900;21047055000;18837544444;19337544444
1901;21047056000;18837544444;19337544444
1902;21047258000;18837566666;19337566666
1903;21047768000;18837900000;19337900000
1904;21057922000;18837900000;19337900000
1905;21058574000;18837900000;19337900000
1906;21139553000;18879188888;19379188888
1948;21262260000;19004488888;19504488888
1957;21299889000;19045877777;19545877777
1965;21299894000;19087522222;19587522222
1966;21299895000;19087522222;19587522222
1967;21299896000;19087522222;19587522222
1968;21334949000;19087544444;19587544444
2023;21475005000;19295866666;19795866666
2036;21475011000;19337855555;19837855555
2037;21475012000;19337855555;19837855555
2038;21531875000;19379177777;19879177777
2039;21531879000;19379177777;19879177777
2040;21531890000;19379177777;19879177777
2041;21531892000;19379177777;19879177777
2042;21531893000;19379177777;19879177777
2043;21531894000;19379177777;19879177777
2044;21531895000;19379177777;19879177777
2045;21556355000;19379188888;19879188888
2089;21674470000;19545866666;20045866666
2109;21674481000;19629177777;20129177777
2110;21674483000;19629177777;20129177777
2111;21755126000;19629188888;20129188888
2115;21755141000;19670855555;20170855555
2116;21755143000;19670855555;20170855555
2117;21755144000;19670855555;20170855555
2118;21755145000;19670855555;20170855555
2119;21755147000;19670855555;20170855555
2120;21755148000;19670855555;20170855555
2121;21755149000;19670855555;20170855555
2122;21792835000;19670866666;20170866666
2168;21792850000;19837855555;20337855555
2169;21792851000;19837855555;20337855555
2170;21955503000;19879188888;20379188888
2193;21992968000;19962533333;20462533333
2196;21992975000;19962533333;20462533333
2197;21992977000;19962533333;20462533333
2198;21992978000;19962533333;20462533333
2199;21993248000;19962544444;20462544444
2200;21993264000;19962888888;20462888888
2201;21993265000;19962888888;20462888888
2202;21993266000;19962888888;20462888888
2203;22007262000;20004188888;20504188888
2204;22007266000;20004188888;20504188888
2205;22007268000;20004188888;20504188888
2206;22007269000;20004188888;20504188888
2207;22007270000;20004188888;20504188888
2208;22007272000;20004188888;20504188888
2209;22007273000;20004188888;20504188888
2210;22007475000;20004211111;20504211111
2211;22007491000;20004522222;20504522222
2212;22007492000;20004522222;20504522222
2213;22007494000;20004522222;20504522222
2214;22018305000;20045855555;20545855555
2215;22018309000;20045855555;20545855555
2216;22018311000;20045855555;20545855555
2217;22018312000;20045855555;20545855555
2218;22019790000;20045855555;20545855555
2219;22020573000;20045855555;20545855555
2220;22020773000;20045855555;20545855555
2221;22071330000;20045866666;20545866666
2259;22071346000;20212533333;20712533333
2260;22071347000;20212533333;20712533333
2261;22071348000;20212533333;20712533333
2262;22071349000;20212533333;20712533333
2263;22071350000;20212533333;20712533333
2264;22071351000;20212533333;20712533333
2265;22235952000;20212544444;20712544444
2274;22235967000;20254188888;20754188888
2275;22235968000;20254188888;20754188888
2276;22272988000;20254200000;20754200000
2325;22273004000;20462533333;20962533333
2326;22273005000;20462533333;20962533333
2327;22273006000;20462533333;20962533333
2328;22273007000;20462533333;20962533333
2329;22273008000;20462533333;20962533333
2330;22273009000;20462533333;20962533333
2331;22421289000;20462544444;20962544444
2347;22421305000;20545855555;21045855555
2348;22421306000;20545855555;21045855555
2349;22421307000;20545855555;21045855555
2350;22421308000;20545855555;21045855555
2351;22421309000;20545855555;21045855555
2352;22421310000;20545855555;21045855555
2353;22464320000;20545866666;21045866666
2357;22464336000;20587522222;21087522222
2358;22464337000;20587522222;21087522222
2359;22464338000;20587522222;21087522222
2360;22464339000;20587522222;21087522222
2361;22464340000;20587522222;21087522222
2362;22464341000;20587522222;21087522222
2363;22464342000;20587522222;21087522222
2364;22477701000;20587533333;21087533333
2365;22477717000;20587866666;21087866666
2366;22477718000;20587866666;21087866666
2367;22477719000;20587866666;21087866666
2368;22490903000;20629188888;21129188888
2369;22490906000;20629188888;21129188888
2370;22490907000;20629188888;21129188888
2371;22490908000;20629188888;21129188888
2372;22490909000;20629188888;21129188888
2373;22490910000;20629188888;21129188888
2374;22490911000;20629188888;21129188888
2375;22491120000;20629200000;21129200000
2376;22491136000;20629488888;21129488888
2377;22501709000;20629488888;21129488888
2378;22501906000;20629488888;21129488888
2379;22507211000;20670855555;21170855555
2390;22527269000;20712555555;21212555555
2404;22551351000;20754188888;21254188888
2416;22579487000;20795855555;21295855555
2422;22579581000;20796144444;21296144444
2423;22606024000;20837522222;21337522222
2424;22606027000;20837522222;21337522222
2425;22606028000;20837522222;21337522222
2426;22606030000;20837522222;21337522222
2427;22606030000;20837522222;21337522222
2428;22606031000;20837522222;21337522222
2429;22606032000;20837522222;21337522222
2430;22606240000;20837544444;21337544444
2431;22606256000;20837844444;21337844444
2432;22606257000;20837844444;21337844444
2433;22606258000;20837844444;21337844444
2434;22626058000;20879188888;21379188888
2435;22626061000;20879188888;21379188888
2436;22626062000;20879188888;21379188888
2437;22626063000;20879188888;21379188888
2438;22626064000;20879188888;21379188888
2439;22626065000;20879188888;21379188888
2440;22626066000;20879188888;21379188888
2441;22626305000;20879200000;21379200000
2442;22626321000;20879488888;21379488888
2443;22626323000;20879488888;21379488888
2444;22626324000;20879488888;21379488888
2445;22649613000;20920855555;21420855555
2446;22649616000;20920855555;21420855555
2447;22649617000;20920855555;21420855555
2448;22649618000;20920855555;21420855555
2449;22674119000;20920855555;21420855555
2450;22675528000;20920855555;21420855555
2451;22675725000;20920855555;21420855555
2452;22757554000;20920866666;21420866666
2482;22757562000;21045855555;21545855555
2483;22757573000;21045855555;21545855555
2484;22757574000;21045855555;21545855555
2485;22878510000;21045866666;21545866666
2503;22878528000;21129188888;21629188888
2504;22878529000;21129188888;21629188888
2505;22878530000;21129188888;21629188888
2506;22878532000;21129188888;21629188888
2507;22957134000;21129200000;21629200000
2511;22957150000;21170822222;21670822222
2512;22957151000;21170822222;21670822222
2513;22957153000;21170822222;21670822222
2514;22957154000;21170822222;21670822222
2515;22957155000;21170822222;21670822222
2516;22957157000;21170822222;21670822222
2517;22957158000;21170822222;21670822222
2518;22992967000;21170833333;21670833333
2560;22992983000;21337533333;21837533333
2561;22992984000;21337533333;21837533333
2562;23156371000;21337544444;21837544444
2584;23159228000;21420966666;21920966666
2587;23159234000;21421300000;21921300000
2588;23178708000;21462533333;21962533333
2589;23178719000;21462533333;21962533333
2590;23178721000;21462533333;21962533333
2591;23178732000;21462533333;21962533333
2592;23178734000;21462533333;21962533333
2593;23178736000;21462533333;21962533333
2594;23178738000;21462533333;21962533333
2595;23178995000;21462544444;21962544444
2596;23179014000;21462866666;21962866666
2597;23179016000;21462866666;21962866666
2598;23179018000;21462866666;21962866666
2599;23194080000;21504188888;22004188888
2600;23194084000;21504188888;22004188888
2601;23194085000;21504188888;22004188888
2602;23194086000;21504188888;22004188888
2603;23194088000;21504188888;22004188888
2604;23194090000;21504188888;22004188888
2605;23194091000;21504188888;22004188888
2606;23194296000;21504200000;22004200000
2607;23194311000;21504500000;22004500000
2608;23194313000;21504500000;22004500000
2609;23194314000;21504500000;22004500000
2610;23211080000;21545844444;22045844444
2611;23211083000;21545844444;22045844444
2612;23223148000;21545844444;22045844444
2613;23223329000;21545844444;22045844444
2614;23223531000;21545844444;22045844444
2615;23223736000;21545844444;22045844444
2616;23223940000;21545844444;22045844444
2617;23274590000;21545855555;22045855555
2649;23274606000;21670855555;22170855555
2650;23399119000;21670866666;22170866666
2665;23399135000;21754188888;22254188888
2666;23399136000;21754188888;22254188888
2667;23399137000;21754188888;22254188888
2668;23399138000;21754188888;22254188888
2669;23399139000;21754188888;22254188888
2670;23399140000;21754188888;22254188888
2671;23399141000;21754188888;22254188888
2672;23476582000;21754200000;22254200000
2717;23476598000;21921155555;22421155555
2718;23476599000;21921155555;22421155555
2719;23476600000;21921155555;22421155555
2720;23631931000;21962544444;22462544444
2742;23676019000;22045855555;22545855555
2746;23676022000;22045855555;22545855555
2747;23676023000;22045855555;22545855555
2748;23676024000;22045855555;22545855555
2749;23676226000;22045866666;22545866666
2750;23676242000;22046111111;22546111111
2751;23676243000;22046111111;22546111111
2752;23676244000;22046111111;22546111111
2753;23692340000;22087522222;22587522222
2754;23692343000;22087522222;22587522222
2755;23692344000;22087522222;22587522222
2756;23692346000;22087522222;22587522222
2757;23692347000;22087522222;22587522222
2758;23692348000;22087522222;22587522222
2759;23692349000;22087522222;22587522222
2760;23692516000;22087544444;22587544444
2761;23692519000;22087822222;22587822222
2762;23692520000;22087822222;22587822222
2763;23692521000;22087822222;22587822222
2764;23708591000;22129188888;22629188888
2770;23708594000;22129188888;22629188888
2771;23708797000;22129200000;22629200000
2774;23708802000;22129477777;22629477777
2775;23727489000;22170855555;22670855555
2795;23749774000;22212833333;22712833333
2806;23775723000;22254633333;22754633333
2813;23802533000;22295855555;22795855555
2817;23802647000;22296144444;22796144444
2818;23802650000;22296144444;22796144444
2819;23826402000;22337522222;22837522222
2820;23826406000;22337522222;22837522222
2821;23826407000;22337522222;22837522222
2822;23826408000;22337522222;22837522222
2823;23826409000;22337522222;22837522222
2824;23826410000;22337522222;22837522222
2825;23826411000;22337522222;22837522222
2826;23826643000;22337544444;22837544444
2827;23826659000;22337822222;22837822222
2828;23826661000;22337822222;22837822222
2829;23826661000;22337822222;22837822222
2830;23849243000;22379188888;22879188888
2831;23849247000;22379188888;22879188888
2832;23849248000;22379188888;22879188888
2833;23849249000;22379188888;22879188888
2834;23849250000;22379188888;22879188888
2835;23849251000;22379188888;22879188888
2836;23849252000;22379188888;22879188888
2837;23849454000;22379200000;22879200000
2838;23849470000;22379466666;22879466666
2839;23849471000;22379466666;22879466666
2840;23849472000;22379466666;22879466666
2841;23875126000;22420855555;22920855555
2842;23875129000;22420855555;22920855555
2843;23875130000;22420855555;22920855555
2844;23875131000;22420855555;22920855555
2845;23904195000;22420855555;22920855555
2846;23932358000;22420855555;22920855555
2847;23932518000;22420855555;22920855555
2848;23995393000;22420866666;22920866666
2885;23995414000;22587533333;23087533333
2886;23995415000;22587533333;23087533333
2887;23995417000;22587533333;23087533333
2888;23995419000;22587533333;23087533333
2889;23995420000;22587533333;23087533333
2890;23995422000;22587533333;23087533333
2891;23995423000;22587533333;23087533333
2892;24159803000;22587555555;23087555555
2901;24159820000;22629188888;23129188888
2902;24159822000;22629188888;23129188888
2903;24196864000;22629211111;23129211111
2952;24196879000;22837522222;23337522222
2953;24196880000;22837522222;23337522222
2954;24196882000;22837522222;23337522222
2955;24196883000;22837522222;23337522222
2956;24196884000;22837522222;23337522222
2957;24196885000;22837522222;23337522222
2958;24357754000;22837544444;23337544444
2980;24387585000;22920877777;23420877777
2981;24387604000;22921188888;23421188888
2982;24387606000;22921188888;23421188888
2983;24387608000;22921188888;23421188888
2984;24401254000;22962533333;23462533333
2985;24401259000;22962533333;23462533333
2986;24401260000;22962533333;23462533333
2987;24401262000;22962533333;23462533333
2988;24401263000;22962533333;23462533333
2989;24401265000;22962533333;23462533333
2990;24401266000;22962533333;23462533333
2991;24401473000;22962544444;23462544444
2992;24401488000;22962911111;23462911111
2993;24401490000;22962911111;23462911111
2994;24401491000;22962911111;23462911111
2995;24414597000;23004188888;23504188888
2996;24414601000;23004188888;23504188888
2997;24414602000;23004188888;23504188888
2998;24414603000;23004188888;23504188888
2999;24414604000;23004188888;23504188888
3000;24414606000;23004188888;23504188888
3001;24414608000;23004188888;23504188888
3002;24414809000;23004200000;23504200000
3003;24414825000;23004466666;23504466666
3004;24414826000;23004466666;23504466666
3005;24425727000;23004466666;23504466666
3006;24430943000;23045855555;23545855555
3010;24430947000;23045855555;23545855555
3011;24430948000;23045855555;23545855555
3012;24430949000;23045855555;23545855555
3013;24431193000;23045866666;23545866666
3015;24431208000;23046100000;23546100000
3016;24431209000;23046100000;23546100000
3017;24451067000;23087522222;23587522222
3031;24475226000;23129200000;23629200000
3042;24503407000;23170855555;23670855555
3050;24529975000;23212522222;23712522222
3053;24529988000;23212522222;23712522222
3054;24529989000;23212522222;23712522222
3055;24529990000;23212522222;23712522222
3056;24529991000;23212522222;23712522222
3057;24530199000;23212544444;23712544444
3058;24530214000;23212833333;23712833333
3059;24530215000;23212833333;23712833333
3060;24530216000;23212833333;23712833333
3061;24550288000;23254188888;23754188888
3062;24550292000;23254188888;23754188888
3063;24550293000;23254188888;23754188888
3064;24550294000;23254188888;23754188888
3065;24550306000;23254188888;23754188888
3066;24550307000;23254188888;23754188888
3067;24550308000;23254188888;23754188888
3068;24550481000;23254200000;23754200000
3069;24550484000;23254522222;23754522222
3070;24550485000;23254522222;23754522222
3071;24550486000;23254522222;23754522222
3072;24571120000;23295855555;23795855555
3073;24571123000;23295855555;23795855555
3074;24571124000;23295855555;23795855555
3075;24571125000;23295855555;23795855555
3076;24571126000;23295855555;23795855555
3077;24571127000;23295855555;23795855555
3078;24571128000;23295855555;23795855555
3079;24571329000;23295866666;23795866666
3080;24594075000;23296144444;23796144444
3081;24594306000;23296144444;23796144444
3082;24653152000;23296144444;23796144444
3083;24685739000;23337511111;23837511111
3110;24769138000;23420855555;23920855555
3131;24849181000;23504188888;24004188888
3138;24886129000;23545855555;24045855555
3139;24886132000;23545855555;24045855555
3140;24886133000;23545855555;24045855555
3141;24886134000;23545855555;24045855555
3142;24886135000;23545855555;24045855555
3143;24886136000;23545855555;24045855555
3144;24886137000;23545855555;24045855555
3145;24886338000;23545866666;24045866666
3146;24886353000;23546122222;24046122222
3147;24886354000;23546122222;24046122222
3148;24886355000;23546122222;24046122222
3149;24920949000;23587522222;24087522222
3188;25013389000;23712522222;24212522222
3210;25067169000;23795855555;24295855555
3215;25089278000;23837555555;24337555555
3218;25089281000;23837555555;24337555555
3219;25089292000;23837555555;24337555555
3220;25089293000;23837555555;24337555555
3221;25089294000;23837555555;24337555555
3222;25089434000;23837577777;24337577777
3223;25089438000;23837866666;24337866666
3224;25089439000;23837866666;24337866666
3225;25089439000;23837866666;24337866666
3226;25108258000;23879188888;24379188888
3227;25108260000;23879188888;24379188888
3228;25108261000;23879188888;24379188888
3229;25108262000;23879188888;24379188888
3230;25108263000;23879188888;24379188888
3231;25108264000;23879188888;24379188888
3232;25108265000;23879188888;24379188888
3233;25108415000;23879200000;24379200000
3234;25108417000;23879477777;24379477777
3235;25108418000;23879477777;24379477777
3236;25108419000;23879477777;24379477777
3237;25161276000;23920855555;24420855555
3267;25281394000;24004477777;24504477777
3277;25321993000;24045877777;24545877777
3278;25321998000;24046133333;24546133333
3279;25321999000;24046133333;24546133333
3280;25322000000;24046133333;24546133333
3281;25361732000;24087533333;24587533333
3282;25361736000;24087533333;24587533333
3283;25361747000;24087533333;24587533333
3284;25361748000;24087533333;24587533333
3285;25361749000;24087533333;24587533333
3286;25361750000;24087533333;24587533333
3287;25361752000;24087533333;24587533333
3288;25361892000;24087544444;24587544444
3289;25361895000;24087833333;24587833333
3290;25361896000;24087833333;24587833333
3291;25361898000;24087833333;24587833333
3292;25399607000;24129188888;24629188888
3293;25399610000;24129188888;24629188888
3294;25399611000;24129188888;24629188888
3295;25399612000;24129188888;24629188888
3296;25399614000;24129188888;24629188888
3297;25399624000;24129188888;24629188888
3298;25399625000;24129188888;24629188888
3299;25399762000;24129200000;24629200000
