seqnum;now;rtptime;deadline
1;17749948000;17560011111;18060011111
4;17836376000;17591166666;18091166666
35;17918809000;17674833333;18174833333
52;17993957000;17757788888;18257788888
76;18124031000;17841166666;18341166666
108;18124041000;17966200000;18466200000
109;18210235000;17966233333;18466233333
131;18244201000;18049555555;18549555555
144;18244208000;18091444444;18591444444
145;18244209000;18091444444;18591444444
146;18289731000;18132866666;18632866666
153;18289932000;18132911111;18632911111
154;18289947000;18133288888;18633288888
155;18289949000;18133288888;18633288888
156;18289950000;18133288888;18633288888
157;18317172000;18174500000;18674500000
163;18317176000;18174500000;18674500000
164;18317375000;18174522222;18674522222
165;18317390000;18174822222;18674822222
166;18317392000;18174822222;18674822222
167;18317393000;18174822222;18674822222
168;18408138000;18216166666;18716166666
184;18448413000;18257811111;18757811111
195;18487410000;18299477777;18799477777
205;18517423000;18341166666;18841166666
218;18561256000;18382811111;18882811111
233;18591539000;18424811111;18924811111
241;18630592000;18466244444;18966244444
242;18630608000;18466522222;18966522222
243;18630609000;18466522222;18966522222
244;18630610000;18466522222;18966522222
245;18664617000;18507811111;19007811111
252;18664818000;18507855555;19007855555
253;18664834000;18508188888;19008188888
254;18664835000;18508188888;19008188888
255;18664836000;18508188888;19008188888
256;18761459000;18549488888;19049488888
283;18918156000;18632811111;19132811111
315;19009306000;18757811111;19257811111
345;19175134000;18882844444;19382844444
393;19360992000;19049500000;19549500000
438;19417175000;19216166666;19716166666
448;19436204000;19257833333;19757833333
461;19455058000;19299522222;19799522222
462;19455072000;19299788888;19799788888
463;19455074000;19299788888;19799788888
464;19461921000;19299788888;19799788888
467;19477675000;19341177777;19841177777
472;19477857000;19341233333;19841233333
473;19477863000;19341533333;19841533333
474;19477865000;19341533333;19841533333
475;19477867000;19341533333;19841533333
476;19505418000;19382811111;19882811111
477;19505429000;19382811111;19882811111
478;19505430000;19382811111;19882811111
479;19505432000;19382811111;19882811111
480;19505434000;19382811111;19882811111
481;19505435000;19382811111;19882811111
482;19505437000;19382811111;19882811111
483;19505659000;19382855555;19882855555
486;19506354000;19383188888;19883188888
487;19634549000;19424477777;19924477777
513;19715875000;19507811111;20007811111
536;19788087000;19591200000;20091200000
543;19822716000;19632811111;20132811111
559;19967362000;19674477777;20174477777
601;20087829000;19841166666;20341166666
623;20132449000;19924511111;20424511111
641;20173587000;20007811111;20507811111
655;20337609000;20049477777;20549477777
692;20443398000;20174511111;20674511111
721;20443414000;20299511111;20799511111
724;20461624000;20299511111;20799511111
727;20583097000;20299822222;20799822222
758;20681866000;20424533333;20924533333
790;20681882000;20549477777;21049477777
791;20834982000;20549533333;21049533333
821;20834986000;20674500000;21174500000
822;20834988000;20674500000;21174500000
823;20834989000;20674500000;21174500000
824;20920670000;20674555555;21174555555
847;20920685000;20758233333;21258233333
848;20920686000;20758233333;21258233333
849;20920687000;20758233333;21258233333
850;20988095000;20799477777;21299477777
867;21007921000;20841166666;21341166666
879;21094427000;20882855555;21382855555
899;21094442000;20966166666;21466166666
900;21094444000;20966166666;21466166666
901;21173231000;20966222222;21466222222
923;21246572000;21049544444;21549544444
935;21246577000;21091511111;21591511111
936;21246579000;21091511111;21591511111
937;21246579000;21091511111;21591511111
938;21313304000;21132811111;21632811111
954;21344064000;21174477777;21674477777
963;21468510000;21216166666;21716166666
998;21578416000;21341200000;21841200000
1024;21628054000;21424855555;21924855555
1031;21664847000;21466200000;21966200000
1041;21693081000;21507811111;22007811111
1055;21713245000;21549522222;22049522222
1057;21713273000;21549800000;22049800000
1058;21713274000;21549800000;22049800000
1059;21741381000;21591166666;22091166666
1067;21741495000;21591500000;22091500000
1068;21741498000;21591500000;22091500000
1069;21741499000;21591500000;22091500000
1070;21767552000;21632811111;22132811111
1078;21845097000;21633188888;22133188888
1098;21926320000;21716211111;22216211111
1122;21998507000;21799811111;22299811111
1132;22037657000;21841222222;22341222222
1141;22037672000;21882811111;22382811111
1142;22037674000;21882811111;22382811111
1143;22072519000;21882855555;22382855555
1152;22072535000;21924477777;22424477777
1153;22072536000;21924477777;22424477777
1154;22216874000;21924522222;22424522222
1198;22330970000;22091222222;22591222222
1219;22330976000;22174500000;22674500000
1220;22380223000;22174544444;22674544444
1231;22404785000;22216211111;22716211111
1242;22429108000;22257855555;22757855555
1253;22449857000;22299522222;22799522222
1254;22449872000;22299800000;22799800000
1255;22449873000;22299800000;22799800000
1256;22449874000;22299800000;22799800000
1257;22477078000;22341166666;22841166666
1265;22477196000;22341500000;22841500000
1266;22477209000;22341500000;22841500000
1267;22477210000;22341500000;22841500000
1268;22506344000;22382811111;22882811111
1269;22506348000;22382811111;22882811111
1270;22506349000;22382811111;22882811111
1271;22506350000;22382811111;22882811111
1272;22506351000;22382811111;22882811111
1273;22506352000;22382811111;22882811111
1274;22506353000;22382811111;22882811111
1275;22506560000;22382855555;22882855555
1279;22506576000;22424477777;22924477777
1280;22506577000;22424477777;22924477777
1281;22506578000;22424477777;22924477777
1282;22506579000;22424477777;22924477777
1283;22506580000;22424477777;22924477777
1284;22506581000;22424477777;22924477777
1285;22506582000;22424477777;22924477777
1286;22538078000;22424522222;22924522222
1287;22538093000;22424811111;22924811111
1288;22538094000;22424811111;22924811111
1289;22538096000;22424811111;22924811111
1290;22571939000;22466166666;22966166666
1291;22571942000;22466166666;22966166666
1292;22571943000;22466166666;22966166666
1293;22571944000;22466166666;22966166666
1294;22571945000;22466166666;22966166666
1295;22571946000;22466166666;22966166666
1296;22571947000;22466166666;22966166666
1297;22572152000;22466222222;22966222222
1298;22572167000;22466488888;22966488888
1299;22572169000;22466488888;22966488888
1300;22572170000;22466488888;22966488888
1301;22607971000;22507811111;23007811111
1303;22607975000;22507811111;23007811111
1304;22607976000;22507811111;23007811111
1305;22607977000;22507811111;23007811111
1306;22607978000;22507811111;23007811111
1307;22607979000;22507811111;23007811111
1308;22608195000;22507855555;23007855555
1309;22608210000;22508200000;23008200000
1310;22608211000;22508200000;23008200000
1311;22608212000;22508200000;23008200000
1312;22645717000;22549477777;23049477777
1313;22645721000;22549477777;23049477777
1314;22645722000;22549477777;23049477777
1315;22645723000;22549477777;23049477777
1316;22645724000;22549477777;23049477777
1317;22645725000;22549477777;23049477777
1318;22645726000;22549477777;23049477777
1319;22645925000;22549522222;23049522222
1320;22645940000;22549811111;23049811111
1321;22645941000;22549811111;23049811111
1322;22645943000;22549811111;23049811111
1323;22761834000;22591166666;23091166666
1341;22803211000;22632855555;23132855555
1353;22803226000;22674800000;23174800000
1354;22803228000;22674800000;23174800000
1355;22803229000;22674800000;23174800000
1356;22883646000;22716166666;23216166666
1374;22923129000;22757855555;23257855555
1381;22923145000;22799477777;23299477777
1382;22923151000;22799477777;23299477777
1384;22923153000;22799477777;23299477777
1385;22960689000;22799522222;23299522222
1387;22960704000;22799811111;23299811111
1388;22960705000;22799811111;23299811111
1389;23052748000;22841166666;23341166666
1420;23129738000;22924822222;23424822222
1431;23165944000;22966488888;23466488888
1440;23205266000;23007888888;23507888888
1450;23205281000;23049477777;23549477777
1451;23239113000;23049522222;23549522222
1462;23271242000;23091222222;23591222222
1472;23271248000;23132811111;23632811111
1473;23303971000;23132877777;23632877777
1481;23303986000;23174477777;23674477777
1482;23303988000;23174477777;23674477777
1483;23303988000;23174477777;23674477777
1484;23335723000;23174522222;23674522222
1485;23335738000;23174822222;23674822222
1486;23335739000;23174822222;23674822222
1487;23335740000;23174822222;23674822222
1488;23505115000;23216166666;23716166666
1529;23637087000;23341533333;23841533333
1571;23791691000;23507811111;24007811111
1602;23881529000;23632811111;24132811111
1638;23947928000;23757855555;24257855555
1647;23947944000;23799477777;24299477777
1648;23947945000;23799477777;24299477777
1649;23971390000;23799522222;24299522222
1660;23991940000;23841222222;24341222222
1661;23991946000;23841522222;24341522222
1662;23991947000;23841522222;24341522222
1663;23991948000;23841522222;24341522222
1664;24018983000;23882811111;24382811111
1671;24019193000;23882855555;24382855555
1672;24019208000;23883200000;24383200000
1673;24019210000;23883200000;24383200000
1674;24019211000;23883200000;24383200000
1675;24217425000;23924477777;24424477777
1722;24337081000;24091177777;24591177777
1748;24425961000;24174522222;24674522222
1777;24425967000;24299511111;24799511111
1778;24425968000;24299511111;24799511111
1779;24425969000;24299511111;24799511111
1782;24544279000;24299844444;24799844444
1802;24616321000;24382833333;24882833333
1826;24662892000;24466511111;24966511111
1836;24700020000;24507877777;25007877777
1847;24726755000;24549544444;25049544444
1858;24752956000;24591244444;25091244444
1859;24752962000;24591522222;25091522222
1860;24752963000;24591522222;25091522222
1861;24752964000;24591522222;25091522222
1862;24781372000;24632833333;25132833333
1869;24781600000;24632877777;25132877777
1870;24781615000;24633200000;25133200000
1872;24781617000;24633200000;25133200000
1873;24810649000;24674477777;25174477777
1881;24810761000;24674788888;25174788888
1882;24810765000;24674788888;25174788888
1883;24810766000;24674788888;25174788888
1884;24841210000;24716166666;25216166666
1892;24928644000;24716511111;25216511111
1912;25009309000;24799477777;25299477777
1931;25085836000;24882811111;25382811111
1944;25123647000;24924477777;25424477777
1954;25158401000;24966166666;25466166666
1972;25226679000;25049511111;25549511111
1989;25251376000;25091200000;25591200000
1990;25251579000;25091244444;25591244444
1991;25251594000;25091522222;25591522222
1992;25251595000;25091522222;25591522222
1993;25251596000;25091522222;25591522222
1994;25344900000;25132811111;25632811111
2017;25508326000;25216166666;25716166666
2066;25617218000;25382811111;25882811111
2084;25664872000;25466155555;25966155555
2099;25686898000;25507844444;26007844444
2112;25761696000;25549855555;26049855555
2128;25842446000;25632833333;26132833333
2147;25879242000;25674844444;26174844444
2153;25919083000;25716166666;26216166666
2163;25939013000;25757833333;26257833333
2173;25989173000;25799477777;26299477777
2190;26010014000;25841544444;26341544444
2199;26048339000;25882855555;26382855555
2210;26136531000;25924544444;26424544444
2232;26301026000;26007877777;26507877777
2276;26425142000;26174522222;26674522222
2302;26425148000;26299477777;26799477777
2303;26425149000;26299477777;26799477777
2304;26425150000;26299477777;26799477777
2305;26425151000;26299477777;26799477777
2306;26425152000;26299477777;26799477777
2307;26425153000;26299477777;26799477777
2308;26425154000;26299477777;26799477777
2309;26494329000;26299522222;26799522222
2323;26494344000;26341522222;26841522222
2324;26540878000;26382833333;26882833333
2329;26540882000;26382833333;26882833333
2330;26540883000;26382833333;26882833333
2331;26541088000;26382877777;26882877777
2332;26541103000;26383222222;26883222222
2333;26541105000;26383222222;26883222222
2334;26541105000;26383222222;26883222222
2335;26566079000;26424477777;26924477777
2338;26566094000;26424477777;26924477777
2339;26566096000;26424477777;26924477777
2340;26566096000;26424477777;26924477777
2341;26566097000;26424477777;26924477777
2342;26637112000;26424522222;26924522222
2362;26637136000;26507811111;27007811111
2363;26637137000;26507811111;27007811111
2366;26717999000;26508188888;27008188888
2380;26795306000;26591155555;27091155555
2389;26844850000;26591477777;27091477777
2415;26959870000;26716222222;27216222222
2438;27021849000;26799477777;27299477777
2464;27162574000;26883177777;27383177777
2493;27249007000;27007811111;27507811111
2515;27295420000;27091166666;27591166666
2531;27305865000;27133200000;27633200000
2540;27341321000;27174522222;27674522222
2550;27341336000;27216166666;27716166666
2551;27428163000;27216222222;27716222222
2574;27428179000;27299811111;27799811111
2575;27428180000;27299811111;27799811111
2576;27428181000;27299811111;27799811111
2577;27544674000;27341166666;27841166666
2595;27580641000;27382855555;27882855555
2606;27615438000;27424555555;27924555555
2617;27719177000;27466222222;27966222222
2648;27719183000;27591166666;28091166666
2649;27719184000;27591166666;28091166666
2650;27827541000;27591222222;28091222222
2670;27827557000;27674477777;28174477777
2671;27827558000;27674477777;28174477777
2672;27887913000;27674522222;28174522222
2695;27887928000;27758166666;28258166666
2696;27887929000;27758166666;28258166666
2697;27887931000;27758166666;28258166666
2698;27968797000;27799477777;28299477777
2715;28052828000;27841155555;28341155555
2738;28131477000;27924544444;28424544444
2759;28131492000;28007811111;28507811111
2760;28205111000;28007855555;28507855555
2771;28238731000;28049522222;28549522222
2784;28253292000;28091477777;28591477777
2785;28253295000;28091477777;28591477777
2786;28304601000;28132811111;28632811111
2803;28337329000;28174477777;28674477777
2806;28386931000;28174811111;28674811111
2826;28468075000;28257855555;28757855555
2845;28468081000;28341200000;28841200000
2846;28468083000;28341200000;28841200000
2847;28468084000;28341200000;28841200000
2848;28543516000;28341244444;28841244444
2859;28578557000;28382877777;28882877777
2873;28578563000;28424844444;28924844444
2874;28646104000;28466200000;28966200000
2889;28800184000;28507811111;29007811111
2936;28920416000;28674522222;29174522222
2959;28920432000;28758188888;29258188888
2960;28920433000;28758188888;29258188888
2961;28920434000;28758188888;29258188888
2962;28988578000;28799477777;29299477777
2979;29009402000;28841166666;29341166666
2991;29094254000;28882855555;29382855555
3012;29094269000;28966166666;29466166666
3013;29173250000;28966222222;29466222222
3034;29173266000;29049488888;29549488888
3035;29246861000;29049533333;29549533333
3045;29246876000;29091166666;29591166666
3046;29280574000;29091222222;29591222222
3058;29280589000;29133166666;29633166666
3059;29280590000;29133166666;29633166666
3060;29280591000;29133166666;29633166666
3061;29387165000;29174477777;29674477777
3086;29469534000;29257844444;29757844444
3111;29548862000;29341200000;29841200000
3134;29621140000;29424533333;29924533333
3145;29654807000;29466222222;29966222222
3155;29654813000;29507811111;30007811111
3156;29685941000;29507855555;30007855555
3167;29718551000;29549522222;30049522222
3178;29748899000;29591222222;30091222222
3179;29748905000;29591488888;30091488888
3182;29844582000;29632811111;30132811111
3209;29923170000;29716177777;30216177777
3229;29996257000;29799477777;30299477777
3243;30033195000;29841177777;30341177777
3255;30066610000;29882855555;30382855555
3263;30066625000;29924477777;30424477777
3264;30066627000;29924477777;30424477777
3265;30066627000;29924477777;30424477777
3266;30094014000;29924522222;30424522222
3277;30121926000;29966222222;30466222222
3278;30121932000;29966466666;30466466666
3279;30121933000;29966466666;30466466666
3280;30121934000;29966466666;30466466666
3281;30151787000;30007844444;30507844444
3290;30151900000;30008311111;30508311111
3291;30151903000;30008311111;30508311111
3292;30183786000;30049511111;30549511111
3299;30184015000;30049555555;30549555555
3300;30184030000;30049833333;30549833333
3301;30184031000;30049833333;30549833333
3302;30184032000;30049833333;30549833333
3303;30214005000;30091166666;30591166666
3304;30214008000;30091166666;30591166666
3305;30214009000;30091166666;30591166666
3306;30214019000;30091166666;30591166666
3307;30214020000;30091166666;30591166666
3308;30214021000;30091166666;30591166666
3309;30214023000;30091166666;30591166666
3310;30214230000;30091222222;30591222222
3311;30214246000;30091500000;30591500000
3312;30214247000;30091500000;30591500000
3313;30214248000;30091500000;30591500000
3314;30345419000;30132822222;30632822222
3341;30424352000;30216166666;30716166666
3365;30669491000;30299522222;30799522222
3420;30751794000;30507855555;31007855555
3442;30758893000;30591222222;31091222222
3453;30964622000;30632855555;31132855555
3497;31062376000;30799533333;31299533333
3529;31062382000;30924477777;31424477777
3530;31109508000;30924522222;31424522222
3541;31127262000;30966222222;31466222222
3542;31127268000;30966477777;31466477777
3543;31127269000;30966477777;31466477777
3544;31127270000;30966477777;31466477777
3545;31151868000;31007833333;31507833333
3552;31152091000;31007877777;31507877777
3553;31152106000;31008200000;31508200000
3554;31152107000;31008200000;31508200000
3555;31152108000;31008200000;31508200000
3556;31178933000;31049477777;31549477777
3564;31179001000;31049811111;31549811111
3565;31179003000;31049811111;31549811111
3566;31179004000;31049811111;31549811111
3567;31206179000;31091166666;31591166666
3568;31206182000;31091166666;31591166666
3569;31206183000;31091166666;31591166666
3570;31206184000;31091166666;31591166666
3571;31206185000;31091166666;31591166666
3572;31206186000;31091166666;31591166666
3573;31206187000;31091166666;31591166666
3575;31206297000;31091500000;31591500000
3576;31206301000;31091500000;31591500000
3577;31206302000;31091500000;31591500000
3578;31241869000;31132811111;31632811111
3579;31241872000;31132811111;31632811111
3580;31241873000;31132811111;31632811111
3581;31241874000;31132811111;31632811111
3582;31241875000;31132811111;31632811111
3583;31241876000;31132811111;31632811111
3584;31241877000;31132811111;31632811111
3585;31242082000;31132855555;31632855555
3586;31242097000;31133188888;31633188888
3587;31242098000;31133188888;31633188888
3588;31242099000;31133188888;31633188888
3589;31276666000;31174477777;31674477777
3590;31276670000;31174477777;31674477777
3591;31276671000;31174477777;31674477777
3592;31276672000;31174477777;31674477777
3593;31276673000;31174477777;31674477777
3594;31276674000;31174477777;31674477777
3595;31276675000;31174477777;31674477777
3596;31276873000;31174522222;31674522222
3597;31276888000;31174822222;31674822222
3600;31427786000;31216166666;31716166666
3627;31506698000;31299477777;31799477777
3648;31635827000;31382811111;31882811111
3679;31742031000;31507811111;32007811111
3707;31886080000;31591533333;32091533333
3745;32020220000;31757811111;32257811111
3774;32054984000;31841500000;32341500000
3788;32216679000;31924477777;32424477777
3831;32332353000;32091211111;32591211111
3857;32466934000;32174511111;32674511111
3904;32588756000;32341244444;32841244444
3925;32588772000;32424511111;32924511111
3926;32626216000;32424555555;32924555555
3937;32647871000;32466244444;32966244444
3947;32647877000;32507833333;33007833333
3948;32669084000;32507877777;33007877777
3950;32669100000;32508200000;33008200000
3951;32669101000;32508200000;33008200000
3952;32692120000;32549500000;33049500000
3960;32761661000;32549844444;33049844444
3977;32842509000;32632833333;33132833333
4001;32919494000;32716211111;33216211111
4012;32955040000;32757833333;33257833333
4021;32987494000;32799500000;33299500000
4036;33016932000;32841211111;33341211111
4047;33175013000;32882888888;33382888888
4091;33291633000;33049544444;33549544444
4111;33291639000;33132811111;33632811111
4112;33291640000;33132811111;33632811111
4113;33344585000;33132855555;33632855555
4135;33388345000;33216222222;33716222222
4144;33388351000;33257811111;33757811111
4145;33388352000;33257811111;33757811111
4146;33408984000;33257855555;33757855555
4147;33408999000;33258166666;33758166666
4148;33409000000;33258166666;33758166666
4149;33409001000;33258166666;33758166666
4150;33508702000;33299477777;33799477777
4179;33590202000;33382866666;33882866666
4199;33590218000;33466166666;33966166666
4200;33590232000;33466166666;33966166666
4201;33661855000;33466222222;33966222222
4211;33661871000;33507811111;34007811111
4212;33696813000;33507866666;34007866666
4223;33729005000;33549522222;34049522222
4234;33760207000;33591222222;34091222222
4245;33789955000;33632888888;34132888888
4246;33789961000;33633222222;34133222222
4247;33789962000;33633222222;34133222222
4248;33789963000;33633222222;34133222222
4249;33819518000;33674477777;34174477777
4256;33819720000;33674522222;34174522222
4257;33819735000;33674822222;34174822222
4258;33819736000;33674822222;34174822222
4259;33819737000;33674822222;34174822222
4260;33851344000;33716177777;34216177777
4268;33851456000;33716522222;34216522222
4269;33851460000;33716522222;34216522222
4270;33851461000;33716522222;34216522222
4271;33883347000;33757811111;34257811111
4278;33883548000;33757855555;34257855555
4279;33883564000;33758200000;34258200000
4280;33883565000;33758200000;34258200000
4281;33883566000;33758200000;34258200000
4282;33916644000;33799511111;34299511111
4283;33916648000;33799511111;34299511111
4284;33916649000;33799511111;34299511111
4285;33916650000;33799511111;34299511111
4286;33916650000;33799511111;34299511111
4287;33916651000;33799511111;34299511111
4288;33916652000;33799511111;34299511111
4289;33916851000;33799555555;34299555555
4290;33916867000;33799844444;34299844444
4291;33916868000;33799844444;34299844444
4292;33916869000;33799844444;34299844444
4293;34012178000;33841166666;34341166666
4310;34053068000;33882811111;34382811111
4321;34093535000;33924477777;34424477777
4333;34134059000;33966222222;34466222222
4345;34169974000;34008188888;34508188888
4346;34169976000;34008188888;34508188888
4347;34169977000;34008188888;34508188888
4348;34210326000;34049511111;34549511111
4356;34261862000;34049844444;34549844444
4376;34342703000;34132811111;34632811111
4396;34418931000;34216166666;34716166666
4408;34454347000;34257811111;34757811111
4419;34489260000;34299477777;34799477777
4429;34521134000;34341200000;34841200000
4440;34674538000;34382811111;34882811111
4486;34788413000;34549477777;35049477777
4507;34924544000;34632811111;35132811111
4551;35043016000;34799477777;35299477777
4572;35090713000;34882811111;35382811111
4599;35127534000;34966477777;35466477777
4600;35127538000;34966477777;35466477777
4601;35162910000;35007811111;35507811111
4609;35220229000;35008133333;35508133333
4628;35301172000;35091177777;35591177777
4652;35466912000;35174522222;35674522222
4696;35588201000;35341233333;35841233333
4718;35629933000;35424522222;35924522222
4730;35629939000;35466477777;35966477777
4731;35629941000;35466477777;35966477777
4732;35629942000;35466477777;35966477777
4736;35675489000;35507844444;36007844444
4751;35761349000;35549522222;36049522222
4771;35761364000;35632811111;36132811111
4772;35761365000;35632811111;36132811111
4773;35839761000;35632855555;36132855555
4790;35839777000;35716166666;36216166666
4791;35839778000;35716166666;36216166666
4792;35839779000;35716166666;36216166666
4793;35839780000;35716166666;36216166666
4796;35907867000;35716500000;36216500000
4807;35940021000;35758188888;36258188888
4817;35978504000;35799555555;36299555555
4826;35978518000;35841166666;36341166666
4827;35978520000;35841166666;36341166666
4830;36004282000;35841522222;36341522222
4831;36004286000;35841522222;36341522222
4832;36042193000;35882811111;36382811111
4839;36042394000;35882855555;36382855555
4840;36042409000;35883188888;36383188888
4841;36042410000;35883188888;36383188888
4842;36044934000;35883188888;36383188888
4843;36217242000;35924477777;36424477777
4892;36339200000;36091166666;36591166666
4916;36384599000;36174555555;36674555555
4934;36384614000;36257811111;36757811111
4935;36384615000;36257811111;36757811111
4936;36384616000;36257811111;36757811111
4937;36384617000;36257811111;36757811111
4939;36417852000;36258188888;36758188888
4940;36417856000;36258188888;36758188888
4941;36417857000;36258188888;36758188888
4942;36453102000;36299477777;36799477777
4952;36453205000;36299811111;36799811111
4953;36479409000;36341166666;36841166666
4962;36553841000;36341511111;36841511111
4980;36634292000;36424477777;36924477777
5002;36710942000;36507833333;37007833333
5015;36745910000;36549522222;37049522222
5023;36745925000;36591166666;37091166666
5024;36745926000;36591166666;37091166666
5025;36745927000;36591166666;37091166666
5028;36773926000;36591500000;37091500000
5037;36812312000;36632855555;37132855555
5046;36812327000;36674477777;37174477777
5047;36812328000;36674477777;37174477777
5048;36845038000;36674522222;37174522222
5059;36874976000;36716222222;37216222222
5060;36874981000;36716500000;37216500000
5061;36874983000;36716500000;37216500000
5062;36874983000;36716500000;37216500000
5063;36969169000;36757811111;37257811111
5091;37048132000;36841166666;37341166666
5113;37121981000;36924511111;37424511111
5126;37220379000;36966477777;37466477777
5156;37334063000;37091166666;37591166666
5180;37400955000;37174522222;37674522222
5200;37400970000;37257811111;37757811111
5201;37400971000;37257811111;37757811111
5202;37458399000;37257855555;37757855555
5210;37458404000;37299477777;37799477777
5211;37458405000;37299477777;37799477777
5212;37458406000;37299477777;37799477777
5213;37486373000;37299522222;37799522222
5226;37503290000;37341500000;37841500000
5227;37503300000;37341500000;37841500000
5228;37544460000;37382844444;37882844444
5233;37544463000;37382844444;37882844444
5234;37544464000;37382844444;37882844444
5235;37544678000;37382888888;37882888888
5236;37544681000;37383233333;37883233333
5237;37544682000;37383233333;37883233333
5238;37544683000;37383233333;37883233333
5239;37635941000;37424477777;37924477777
5266;37715435000;37507811111;38007811111
5287;37787066000;37591166666;38091166666
5301;37822176000;37632888888;38132888888
5313;37822191000;37674800000;38174800000
5314;37822192000;37674800000;38174800000
5315;37822193000;37674800000;38174800000
5316;37884013000;37716166666;38216166666
5334;37916099000;37757855555;38257855555
5335;37916114000;37758200000;38258200000
5336;37916115000;37758200000;38258200000
5337;37916117000;37758200000;38258200000
5338;37947730000;37799477777;38299477777
5342;37947733000;37799477777;38299477777
5343;37947734000;37799477777;38299477777
5344;37947735000;37799477777;38299477777
5345;37947935000;37799522222;38299522222
5346;37947950000;37799811111;38299811111
5347;37947951000;37799811111;38299811111
5348;37947952000;37799811111;38299811111
5349;37978951000;37841166666;38341166666
5355;37978954000;37841166666;38341166666
5356;37979171000;37841222222;38341222222
5357;37979186000;37841511111;38341511111
5358;37979187000;37841511111;38341511111
5359;37979188000;37841511111;38341511111
5360;38164247000;37882811111;38382811111
5400;38265240000;38007888888;38507888888
5432;38265255000;38132811111;38632811111
5433;38340248000;38132855555;38632855555
5454;38340263000;38216166666;38716166666
5455;38502472000;38216222222;38716222222
5476;38502487000;38299477777;38799477777
5477;38564371000;38299522222;38799522222
5479;38564386000;38299800000;38799800000
5480;38564387000;38299800000;38799800000
5481;38588496000;38341166666;38841166666
5482;38588500000;38341166666;38841166666
5483;38588501000;38341166666;38841166666
5484;38588502000;38341166666;38841166666
5485;38588503000;38341166666;38841166666
5486;38588504000;38341166666;38841166666
5487;38588505000;38341166666;38841166666
5488;38588704000;38341222222;38841222222
5489;38588719000;38341500000;38841500000
5490;38588720000;38341500000;38841500000
5491;38588721000;38341500000;38841500000
5492;38614250000;38382811111;38882811111
5493;38614253000;38382811111;38882811111
5494;38614254000;38382811111;38882811111
5495;38614255000;38382811111;38882811111
5496;38614256000;38382811111;38882811111
5497;38614257000;38382811111;38882811111
5498;38614258000;38382811111;38882811111
5499;38614395000;38382855555;38882855555
