seqnum;now;rtptime;deadline
3;16782761000;16086233333;16586233333
6;16782765000;16086233333;16586233333
7;16782766000;16086233333;16586233333
8;16782768000;16086233333;16586233333
9;16782769000;16086233333;16586233333
10;16864240000;16086255555;16586255555
14;16864245000;16127911111;16627911111
15;16864246000;16127911111;16627911111
16;16864247000;16127911111;16627911111
17;16864249000;16127911111;16627911111
18;16864250000;16127911111;16627911111
19;16864251000;16127911111;16627911111
20;16864252000;16127911111;16627911111
21;16905656000;16127933333;16627933333
22;16905664000;16128377777;16628377777
23;16905666000;16128377777;16628377777
24;16905668000;16128377777;16628377777
25;16946773000;16169566666;16669566666
26;16946782000;16169566666;16669566666
27;16946784000;16169566666;16669566666
28;17082790000;16169566666;16669566666
29;17082793000;16169566666;16669566666
30;17082795000;16169566666;16669566666
31;17082801000;16169566666;16669566666
32;17133296000;16169577777;16669577777
47;17133312000;16252900000;16752900000
48;17133313000;16252900000;16752900000
49;17133314000;16252900000;16752900000
50;17133315000;16252900000;16752900000
51;17133316000;16252900000;16752900000
52;17133317000;16252900000;16752900000
53;17133318000;16252900000;16752900000
54;17216760000;16252911111;16752911111
55;17216775000;16253244444;16753244444
56;17216777000;16253244444;16753244444
57;17216778000;16253244444;16753244444
58;17257362000;16294555555;16794555555
59;17257365000;16294555555;16794555555
65;17433768000;16294577777;16794577777
80;17433783000;16377900000;16877900000
81;17433784000;16377900000;16877900000
82;17433785000;16377900000;16877900000
83;17433786000;16377900000;16877900000
84;17433787000;16377900000;16877900000
85;17433788000;16377900000;16877900000
86;17433789000;16377900000;16877900000
87;17557772000;16377911111;16877911111
88;17557779000;16378233333;16878233333
89;17557780000;16378233333;16878233333
90;17557781000;16378233333;16878233333
91;17597051000;16419566666;16919566666
92;17597055000;16419566666;16919566666
93;17597056000;16419566666;16919566666
94;17597057000;16419566666;16919566666
95;17597058000;16419566666;16919566666
96;17683794000;16419566666;16919566666
97;17683796000;16419566666;16919566666
98;17734235000;16419577777;16919577777
122;17734250000;16503233333;17003233333
123;17734252000;16503233333;17003233333
124;17898585000;16544566666;17044566666
125;17898588000;16544566666;17044566666
126;17898589000;16544566666;17044566666
127;17898590000;16544566666;17044566666
128;17898591000;16544566666;17044566666
129;17898592000;16544566666;17044566666
130;17898593000;16544566666;17044566666
131;17898748000;16544588888;17044588888
132;17898754000;16544888888;17044888888
133;17898756000;16544888888;17044888888
134;17898757000;16544888888;17044888888
135;17934406000;16586233333;17086233333
136;17934409000;16586233333;17086233333
137;17984117000;16586233333;17086233333
138;17984132000;16586233333;17086233333
139;17984133000;16586233333;17086233333
140;17984148000;16586233333;17086233333
145;18034819000;16586533333;17086533333
164;18149409000;16669577777;17169577777
165;18149424000;16669888888;17169888888
166;18149426000;16669888888;17169888888
168;18198695000;16711222222;17211222222
170;18198702000;16711222222;17211222222
171;18198703000;16711222222;17211222222
172;18198705000;16711222222;17211222222
173;18198706000;16711222222;17211222222
174;18198708000;16711222222;17211222222
176;18198727000;16711544444;17211544444
177;18198729000;16711544444;17211544444
178;18198730000;16711544444;17211544444
179;18236339000;16752900000;17252900000
180;18236349000;16752900000;17252900000
181;18236351000;16752900000;17252900000
182;18236354000;16752900000;17252900000
183;18236355000;16752900000;17252900000
184;18236357000;16752900000;17252900000
185;18236358000;16752900000;17252900000
186;18236596000;16752911111;17252911111
187;18284471000;16753222222;17253222222
188;18284477000;16753222222;17253222222
189;18284484000;16753222222;17253222222
190;18376391000;16794555555;17294555555
210;18469960000;16836533333;17336533333
218;18584937000;16877900000;17377900000
227;18584984000;16919566666;17419566666
230;18585084000;16919577777;17419577777
238;18585094000;16961233333;17461233333
247;18621616000;17002888888;17502888888
259;18764835000;17044566666;17544566666
260;18764838000;17044566666;17544566666
276;18885220000;17086522222;17586522222
283;18885234000;17127888888;17627888888
284;18885245000;17127888888;17627888888
286;18885250000;17128233333;17628233333
287;18885251000;17128233333;17628233333
288;18885252000;17128233333;17628233333
292;18905356000;17169566666;17669566666
317;19066916000;17252900000;17752900000
335;19202315000;17336233333;17836233333
399;19529168000;17586233333;18086233333
434;19653927000;17711222222;18211222222
465;19852356000;17836222222;18336222222
497;19918557000;17919877777;18419877777
532;20148056000;18086211111;18586211111
607;20445886000;18336588888;18836588888
629;20445968000;18419877777;18919877777
684;20686976000;18628244444;19128244444
688;20687182000;18669555555;19169555555
694;20687213000;18669888888;19169888888
698;20687224000;18711211111;19211211111
699;20687225000;18711211111;19211211111
700;20687226000;18711211111;19211211111
701;20687227000;18711211111;19211211111
702;20687256000;18711211111;19211211111
703;20687404000;18711233333;19211233333
948;20687426000;19628311111;20128311111
949;21324498000;19669566666;20169566666
1000;21588162000;19836233333;20336233333
1012;21588178000;19878233333;20378233333
1013;21588180000;19878233333;20378233333
1014;21588180000;19878233333;20378233333
1015;21588211000;19919555555;20419555555
1016;21588212000;19919555555;20419555555
1017;21588213000;19919555555;20419555555
1018;21588214000;19919555555;20419555555
1019;21588215000;19919555555;20419555555
1020;21588216000;19919555555;20419555555
1021;21588217000;19919555555;20419555555
1022;21588329000;19919566666;20419566666
1027;21588346000;19961233333;20461233333
1028;21588347000;19961233333;20461233333
1029;21588348000;19961233333;20461233333
1030;21588349000;19961233333;20461233333
1031;21588350000;19961233333;20461233333
1032;21588351000;19961233333;20461233333
1033;21588487000;19961255555;20461255555
1038;21588503000;20002900000;20502900000
1040;21588505000;20002900000;20502900000
1041;21588506000;20002900000;20502900000
1043;21588508000;20002900000;20502900000
1046;21588520000;20003233333;20503233333
1048;21588531000;20044566666;20544566666
1050;21588533000;20044566666;20544566666
1051;21588534000;20044566666;20544566666
1052;21588535000;20044566666;20544566666
1053;21588536000;20044566666;20544566666
1054;21588537000;20044566666;20544566666
1055;21588705000;20044588888;20544588888
1059;21588722000;20086222222;20586222222
1061;21588723000;20086222222;20586222222
1062;21588724000;20086222222;20586222222
1063;21588726000;20086222222;20586222222
1064;21588727000;20086222222;20586222222
1065;21588728000;20086222222;20586222222
1066;21588847000;20086244444;20586244444
1076;21588863000;20127888888;20627888888
1077;21588998000;20127900000;20627900000
1085;21589006000;20169555555;20669555555
1087;21589008000;20169555555;20669555555
1088;21589097000;20169566666;20669566666
1092;21589113000;20211211111;20711211111
1093;21589117000;20211211111;20711211111
1094;21589119000;20211211111;20711211111
1096;21589120000;20211211111;20711211111
1097;21589121000;20211211111;20711211111
1098;21589122000;20211211111;20711211111
1099;21589258000;20211233333;20711233333
1105;21589268000;20252900000;20752900000
1107;21589269000;20252900000;20752900000
1108;21589271000;20252900000;20752900000
1110;21589360000;20252922222;20752922222
1114;21589367000;20294566666;20794566666
1115;21589368000;20294566666;20794566666
1116;21589369000;20294566666;20794566666
1117;21589371000;20294566666;20794566666
1118;21589372000;20294566666;20794566666
1120;21589374000;20294566666;20794566666
1121;21589463000;20294577777;20794577777
1126;21589470000;20336222222;20836222222
1128;21589472000;20336222222;20836222222
1130;21589473000;20336222222;20836222222
1131;21589475000;20336222222;20836222222
1132;21589563000;20336244444;20836244444
1136;21589570000;20377900000;20877900000
1137;21589572000;20377900000;20877900000
1138;21589583000;20377900000;20877900000
1139;21589584000;20377900000;20877900000
1140;21589586000;20377900000;20877900000
1141;21589587000;20377900000;20877900000
1142;21589588000;20377900000;20877900000
1143;21589636000;20377911111;20877911111
1146;21589639000;20378233333;20878233333
1147;21589647000;20419555555;20919555555
1149;21589648000;20419555555;20919555555
1150;21589649000;20419555555;20919555555
1151;21589650000;20419555555;20919555555
1153;21589652000;20419555555;20919555555
1154;21589688000;20419566666;20919566666
1155;21589690000;20419855555;20919855555
1156;21589691000;20419855555;20919855555
1157;21589692000;20419855555;20919855555
1158;21589700000;20461222222;20961222222
1160;21589702000;20461222222;20961222222
1161;21589703000;20461222222;20961222222
1163;21589705000;20461222222;20961222222
1164;21589706000;20461222222;20961222222
1166;21589710000;20461488888;20961488888
1167;21589711000;20461488888;20961488888
1169;21589721000;20502888888;21002888888
1171;21589722000;20502888888;21002888888
1172;21589723000;20502888888;21002888888
1173;21589724000;20502888888;21002888888
1174;21589725000;20502888888;21002888888
1175;21589727000;20502888888;21002888888
1176;21589762000;20502900000;21002900000
1177;21589764000;20503200000;21003200000
1178;21589765000;20503200000;21003200000
1179;21589766000;20503200000;21003200000
1180;21589773000;20544555555;21044555555
1181;21589774000;20544555555;21044555555
1182;21589775000;20544555555;21044555555
1183;21589776000;20544555555;21044555555
1184;21589778000;20544555555;21044555555
1185;21589779000;20544555555;21044555555
1186;21589780000;20544555555;21044555555
1187;21638402000;20544577777;21044577777
1191;21638408000;20586233333;21086233333
1192;21638410000;20586233333;21086233333
1193;21638411000;20586233333;21086233333
1194;21638412000;20586233333;21086233333
1195;21638413000;20586233333;21086233333
1196;21638414000;20586233333;21086233333
1197;21638415000;20586233333;21086233333
1198;21679991000;20586255555;21086255555
1199;21679997000;20586522222;21086522222
1200;21679999000;20586522222;21086522222
1201;21680000000;20586522222;21086522222
1202;21721458000;20627900000;21127900000
1203;21721461000;20627900000;21127900000
1204;21721462000;20627900000;21127900000
1205;21721463000;20627900000;21127900000
1206;21721465000;20627900000;21127900000
1207;21721466000;20627900000;21127900000
1208;21721467000;20627900000;21127900000
1209;21721701000;20627911111;21127911111
1210;21721706000;20628222222;21128222222
1212;21721870000;20628222222;21128222222
1213;21762398000;20669566666;21169566666
1214;21762402000;20669566666;21169566666
1215;21762403000;20669566666;21169566666
1216;21762404000;20669566666;21169566666
1217;21762405000;20669566666;21169566666
1218;21762406000;20669566666;21169566666
1219;21762407000;20669566666;21169566666
1220;21762624000;20669577777;21169577777
1221;21762641000;20669866666;21169866666
1222;21762642000;20669866666;21169866666
1223;21762643000;20669866666;21169866666
1224;21802126000;20711222222;21211222222
1225;21802129000;20711222222;21211222222
1226;21802130000;20711222222;21211222222
1227;21802131000;20711222222;21211222222
1228;21802132000;20711222222;21211222222
1229;21802133000;20711222222;21211222222
1230;21802134000;20711222222;21211222222
1231;21802308000;20711233333;21211233333
1232;21802314000;20711522222;21211522222
1233;21802316000;20711522222;21211522222
1235;21840063000;20752888888;21252888888
1236;21840066000;20752888888;21252888888
1237;21840067000;20752888888;21252888888
1238;21840068000;20752888888;21252888888
1239;21840069000;20752888888;21252888888
1240;21840070000;20752888888;21252888888
1241;21840071000;20752888888;21252888888
1242;21840168000;20752911111;21252911111
1243;21840183000;20753211111;21253211111
1244;21840185000;20753211111;21253211111
1245;21840186000;20753211111;21253211111
1246;21873940000;20794555555;21294555555
1247;21873943000;20794555555;21294555555
1248;21873944000;20794555555;21294555555
1249;21873945000;20794555555;21294555555
1250;21873946000;20794555555;21294555555
1251;21873955000;20794555555;21294555555
1253;21874168000;20794566666;21294566666
1254;21874184000;20794844444;21294844444
1255;21874185000;20794844444;21294844444
1256;21874186000;20794844444;21294844444
1257;21903569000;20836222222;21336222222
1397;22185132000;21336533333;21836533333
1398;22185147000;21336533333;21836533333
1399;22185148000;21336533333;21836533333
1400;22185218000;21377888888;21877888888
1401;22185220000;21377888888;21877888888
1402;22185222000;21377888888;21877888888
1403;22185223000;21377888888;21877888888
1404;22185224000;21377888888;21877888888
1405;22185225000;21377888888;21877888888
1406;22185226000;21377888888;21877888888
1407;22185325000;21377900000;21877900000
1408;22185328000;21378222222;21878222222
1409;22185329000;21378222222;21878222222
1410;22185330000;21378222222;21878222222
1411;22185337000;21419544444;21919544444
1412;22185338000;21419544444;21919544444
1413;22185339000;21419544444;21919544444
1415;22185350000;21419544444;21919544444
1416;22185351000;21419544444;21919544444
1417;22185353000;21419544444;21919544444
1418;22185441000;21419566666;21919566666
1419;22185444000;21419855555;21919855555
1420;22185445000;21419855555;21919855555
1421;22188525000;21419855555;21919855555
1422;22238864000;21461233333;21961233333
1478;22440995000;21669555555;22169555555
1480;22440998000;21669555555;22169555555
1481;22441000000;21669555555;22169555555
1482;22441001000;21669555555;22169555555
1483;22441002000;21669555555;22169555555
1484;22441161000;21669566666;22169566666
1485;22441164000;21669877777;22169877777
1486;22441165000;21669877777;22169877777
1487;22441166000;21669877777;22169877777
1488;22474410000;21711211111;22211211111
1489;22474412000;21711211111;22211211111
1490;22474413000;21711211111;22211211111
1491;22474414000;21711211111;22211211111
1492;22474415000;21711211111;22211211111
1493;22474416000;21711211111;22211211111
1494;22474418000;21711211111;22211211111
1495;22474575000;21711233333;22211233333
1496;22474578000;21711533333;22211533333
1497;22474579000;21711533333;22211533333
1498;22474580000;21711533333;22211533333
1499;22504148000;21752911111;22252911111
1558;22621578000;21961222222;22461222222
1559;22621580000;21961222222;22461222222
1560;22621581000;21961222222;22461222222
1561;22621677000;21961233333;22461233333
1562;22621679000;21961511111;22461511111
1563;22621680000;21961511111;22461511111
1564;22621681000;21961511111;22461511111
1565;22631208000;22002888888;22502888888
1566;22631210000;22002888888;22502888888
1567;22631210000;22002888888;22502888888
1568;22631211000;22002888888;22502888888
1569;22631212000;22002888888;22502888888
1570;22631213000;22002888888;22502888888
1571;22631214000;22002888888;22502888888
1572;22631356000;22002900000;22502900000
1573;22631359000;22003222222;22503222222
1574;22631360000;22003222222;22503222222
1575;22631361000;22003222222;22503222222
1576;22642982000;22044555555;22544555555
1577;22642985000;22044555555;22544555555
1578;22642986000;22044555555;22544555555
1580;22642987000;22044555555;22544555555
1581;22789059000;22044555555;22544555555
1582;22789082000;22044555555;22544555555
1583;22839651000;22044577777;22544577777
1638;23042724000;22252911111;22752911111
1639;23042730000;22253233333;22753233333
1640;23042732000;22253233333;22753233333
1641;23042732000;22253233333;22753233333
1642;23076111000;22294555555;22794555555
1643;23076114000;22294555555;22794555555
1644;23076115000;22294555555;22794555555
1645;23076116000;22294555555;22794555555
1646;23076117000;22294555555;22794555555
1647;23076118000;22294555555;22794555555
1648;23076119000;22294555555;22794555555
1649;23076325000;22294566666;22794566666
1650;23076340000;22294877777;22794877777
1651;23076342000;22294877777;22794877777
1652;23076343000;22294877777;22794877777
1653;23105721000;22336211111;22836211111
1719;23223949000;22586244444;23086244444
1720;23223953000;22586244444;23086244444
1721;23223954000;22586244444;23086244444
1722;23223955000;22586244444;23086244444
1723;23223956000;22586244444;23086244444
1724;23223957000;22586244444;23086244444
1725;23223957000;22586244444;23086244444
1726;23224167000;22586255555;23086255555
1727;23224183000;22586555555;23086555555
1728;23224184000;22586555555;23086555555
1729;23224185000;22586555555;23086555555
1730;23236914000;22627911111;23127911111
1731;23236918000;22627911111;23127911111
1732;23236919000;22627911111;23127911111
1733;23236920000;22627911111;23127911111
1734;23236921000;22627911111;23127911111
1735;23236922000;22627911111;23127911111
1736;23236922000;22627911111;23127911111
1737;23237129000;22627922222;23127922222
1738;23237144000;22628255555;23128255555
1739;23237145000;22628255555;23128255555
1740;23237146000;22628255555;23128255555
1741;23440077000;22669588888;23169588888
1797;23642186000;22877888888;23377888888
1798;23642190000;22877888888;23377888888
1799;23642191000;22877888888;23377888888
1800;23642192000;22877888888;23377888888
1801;23642193000;22877888888;23377888888
1802;23642194000;22877888888;23377888888
1803;23642413000;22877900000;23377900000
1804;23642429000;22878233333;23378233333
1805;23642430000;22878233333;23378233333
1806;23642431000;22878233333;23378233333
1807;23675617000;22919555555;23419555555
1808;23675621000;22919555555;23419555555
1809;23675622000;22919555555;23419555555
1810;23675623000;22919555555;23419555555
1811;23675624000;22919555555;23419555555
1812;23675625000;22919555555;23419555555
1813;23675626000;22919555555;23419555555
1814;23675844000;22919566666;23419566666
1893;23690391000;23211577777;23711577777
1894;23690393000;23211577777;23711577777
1895;23927179000;23252900000;23752900000
1948;23927302000;23419844444;23919844444
1949;23927306000;23419844444;23919844444
1950;23927317000;23461222222;23961222222
1951;23927318000;23461222222;23961222222
1952;23927319000;23461222222;23961222222
1953;23927320000;23461222222;23961222222
1954;23927321000;23461222222;23961222222
1955;23927322000;23461222222;23961222222
1956;23927323000;23461222222;23961222222
1957;23927429000;23461244444;23961244444
1958;23927445000;23461488888;23961488888
1959;23927447000;23461488888;23961488888
1963;23927594000;23502888888;24002888888
1964;23927597000;23502888888;24002888888
1965;23927598000;23502888888;24002888888
1966;23927599000;23502888888;24002888888
1967;23927600000;23502888888;24002888888
1968;23927703000;23502900000;24002900000
1969;23927720000;23503200000;24003200000
1970;23927721000;23503200000;24003200000
1971;23927722000;23503200000;24003200000
1972;23927734000;23544555555;24044555555
1973;23927735000;23544555555;24044555555
1977;23990279000;23544555555;24044555555
1978;23990281000;23544555555;24044555555
1979;24040821000;23544577777;24044577777
2030;24040837000;23752900000;24252900000
2031;24040838000;23752900000;24252900000
2032;24040839000;23752900000;24252900000
2033;24040840000;23752900000;24252900000
2034;24244015000;23752911111;24252911111
2035;24244031000;23753200000;24253200000
2036;24244033000;23753200000;24253200000
2037;24244034000;23753200000;24253200000
2038;24277305000;23794566666;24294566666
2039;24277308000;23794566666;24294566666
2040;24277310000;23794566666;24294566666
2041;24277311000;23794566666;24294566666
2043;24277312000;23794566666;24294566666
2044;24277313000;23794566666;24294566666
2045;24277531000;23794577777;24294577777
2046;24277548000;23794844444;24294844444
2047;24277549000;23794844444;24294844444
2048;24277550000;23794844444;24294844444
2049;24306964000;23836233333;24336233333
2108;24404230000;24044555555;24544555555
2109;24404234000;24044555555;24544555555
2111;24404445000;24044577777;24544577777
2112;24404461000;24044877777;24544877777
2113;24404462000;24044877777;24544877777
2114;24404463000;24044877777;24544877777
2115;24417150000;24086222222;24586222222
2116;24417154000;24086222222;24586222222
2118;24417155000;24086222222;24586222222
2119;24417156000;24086222222;24586222222
2120;24417157000;24086222222;24586222222
2121;24417158000;24086222222;24586222222
2122;24417340000;24086233333;24586233333
2123;24417347000;24086533333;24586533333
2124;24417348000;24086533333;24586533333
2125;24417349000;24086533333;24586533333
2126;24432231000;24127888888;24627888888
2127;24432233000;24127888888;24627888888
2128;24432252000;24127888888;24627888888
2129;24432253000;24127888888;24627888888
2130;24432254000;24127888888;24627888888
2131;24432255000;24127888888;24627888888
2132;24432256000;24127888888;24627888888
2133;24641276000;24127900000;24627900000
2184;24842596000;24336222222;24836222222
2185;24842598000;24336222222;24836222222
2186;24842600000;24336222222;24836222222
2187;24842601000;24336222222;24836222222
2188;24842820000;24336233333;24836233333
2189;24842836000;24336566666;24836566666
2190;24842837000;24336566666;24836566666
2191;24842838000;24336566666;24836566666
2192;24876749000;24377888888;24877888888
2193;24876752000;24377888888;24877888888
2194;24876754000;24377888888;24877888888
2195;24876755000;24377888888;24877888888
2196;24876756000;24377888888;24877888888
2197;24876757000;24377888888;24877888888
2199;24876973000;24377911111;24877911111
2205;24891557000;24419555555;24919555555
2206;24891560000;24419555555;24919555555
2207;24891561000;24419555555;24919555555
2208;24891562000;24419555555;24919555555
2209;24891563000;24419555555;24919555555
2210;24909740000;24419577777;24919577777
2258;25013481000;24627888888;25127888888
2259;25013483000;24627888888;25127888888
2260;25013484000;24627888888;25127888888
2261;25013485000;24627888888;25127888888
2262;25013486000;24627888888;25127888888
2263;25013487000;24627888888;25127888888
2264;25013488000;24627888888;25127888888
2265;25013697000;24627900000;25127900000
2266;25013712000;24628244444;25128244444
2267;25013714000;24628244444;25128244444
2268;25013715000;24628244444;25128244444
2269;25025121000;24669555555;25169555555
2270;25025125000;24669555555;25169555555
2271;25025126000;24669555555;25169555555
2272;25025127000;24669555555;25169555555
2273;25025128000;24669555555;25169555555
2274;25025129000;24669555555;25169555555
2275;25025130000;24669555555;25169555555
2276;25025336000;24669577777;25169577777
2277;25025351000;24669888888;25169888888
2278;25025352000;24669888888;25169888888
2279;25025353000;24669888888;25169888888
2280;25038680000;24711222222;25211222222
2284;25193129000;24711222222;25211222222
2286;25193132000;24711222222;25211222222
2287;25275952000;24711233333;25211233333
2302;25275968000;24794533333;25294533333
2303;25275969000;24794533333;25294533333
2304;25275970000;24794533333;25294533333
2305;25275971000;24794533333;25294533333
2306;25275972000;24794533333;25294533333
2307;25275973000;24794533333;25294533333
2308;25275974000;24794533333;25294533333
2309;25351531000;24794555555;25294555555
2310;25351547000;24794833333;25294833333
2311;25351548000;24794833333;25294833333
2312;25351550000;24794833333;25294833333
2313;25377584000;24836188888;25336188888
2314;25377588000;24836188888;25336188888
2315;25377589000;24836188888;25336188888
2316;25377590000;24836188888;25336188888
2317;25377591000;24836188888;25336188888
2318;25377592000;24836188888;25336188888
2319;25377593000;24836188888;25336188888
2320;25377810000;24836211111;25336211111
2321;25493129000;24836488888;25336488888
2322;25493132000;24836488888;25336488888
2323;25493140000;24836488888;25336488888
2324;25585098000;24877900000;25377900000
2335;25626828000;24919555555;25419555555
2336;25626832000;24919555555;25419555555
2337;25626833000;24919555555;25419555555
2338;25626833000;24919555555;25419555555
2339;25626834000;24919555555;25419555555
2340;25626835000;24919555555;25419555555
2341;25626836000;24919555555;25419555555
2342;25627053000;24919577777;25419577777
2343;25627059000;24919922222;25419922222
2344;25627060000;24919922222;25419922222
2345;25627061000;24919922222;25419922222
2346;25666643000;24961233333;25461233333
2347;25666647000;24961233333;25461233333
2348;25666648000;24961233333;25461233333
2349;25666649000;24961233333;25461233333
2350;25666650000;24961233333;25461233333
2351;25793471000;24961233333;25461233333
2352;25793474000;24961233333;25461233333
2353;25843941000;24961244444;25461244444
2368;25843957000;25044555555;25544555555
2369;25843958000;25044555555;25544555555
2370;25843959000;25044555555;25544555555
2371;25843959000;25044555555;25544555555
2372;25843961000;25044555555;25544555555
2373;25843970000;25044555555;25544555555
2374;25843970000;25044555555;25544555555
2377;25927312000;25044877777;25544877777
2378;25927315000;25044877777;25544877777
2379;25967892000;25086244444;25586244444
2380;25967896000;25086244444;25586244444
2381;25967897000;25086244444;25586244444
2382;26093728000;25086244444;25586244444
2383;26093736000;25086244444;25586244444
2384;26093749000;25086244444;25586244444
2385;26093765000;25086244444;25586244444
2386;26144200000;25086255555;25586255555
2401;26144207000;25169566666;25669566666
2402;26144208000;25169566666;25669566666
2403;26144209000;25169566666;25669566666
2404;26144210000;25169566666;25669566666
2405;26144211000;25169566666;25669566666
2406;26144212000;25169566666;25669566666
2407;26144213000;25169566666;25669566666
2408;26227322000;25169577777;25669577777
2409;26227337000;25169866666;25669866666
2410;26227338000;25169866666;25669866666
2411;26227339000;25169866666;25669866666
2412;26267899000;25211211111;25711211111
2413;26394003000;25211211111;25711211111
2414;26394011000;25211211111;25711211111
2415;26394026000;25211211111;25711211111
2416;26394028000;25211211111;25711211111
2417;26394031000;25211211111;25711211111
2418;26394046000;25211211111;25711211111
2419;26444460000;25211233333;25711233333
2423;26444476000;25252888888;25752888888
2424;26444477000;25252888888;25752888888
2425;26444478000;25252888888;25752888888
2426;26444479000;25252888888;25752888888
2427;26444480000;25252888888;25752888888
2428;26444481000;25252888888;25752888888
2430;26528002000;25252911111;25752911111
2431;26528017000;25253233333;25753233333
2432;26528018000;25253233333;25753233333
2433;26528019000;25253233333;25753233333
2434;26568319000;25294555555;25794555555
2435;26568323000;25294555555;25794555555
2436;26568324000;25294555555;25794555555
2437;26568325000;25294555555;25794555555
2438;26568326000;25294555555;25794555555
2439;26568327000;25294555555;25794555555
2440;26568328000;25294555555;25794555555
2441;26568489000;25294566666;25794566666
2442;26568496000;25294866666;25794866666
2443;26568497000;25294866666;25794866666
2444;26694411000;25294866666;25794866666
2445;26786303000;25336233333;25836233333
2456;26827947000;25377900000;25877900000
2457;26827950000;25377900000;25877900000
2458;26827951000;25377900000;25877900000
2459;26827952000;25377900000;25877900000
2460;26827953000;25377900000;25877900000
2461;26827954000;25377900000;25877900000
2462;26827955000;25377900000;25877900000
2463;26828162000;25377911111;25877911111
2464;26828177000;25378233333;25878233333
2465;26828178000;25378233333;25878233333
2466;26828179000;25378233333;25878233333
2467;26868835000;25419566666;25919566666
2468;26868839000;25419566666;25919566666
2469;26868840000;25419566666;25919566666
2470;26868841000;25419566666;25919566666
2471;26868842000;25419566666;25919566666
2473;26868952000;25419566666;25919566666
2474;26869069000;25419577777;25919577777
2475;26994724000;25419866666;25919866666
2476;26994729000;25419866666;25919866666
2477;26994733000;25419866666;25919866666
2478;27086644000;25461233333;25961233333
2489;27128407000;25502900000;26002900000
2490;27128410000;25502900000;26002900000
2491;27128411000;25502900000;26002900000
2492;27128412000;25502900000;26002900000
2493;27128413000;25502900000;26002900000
2494;27128414000;25502900000;26002900000
2495;27128415000;25502900000;26002900000
2496;27128598000;25502911111;26002911111
2497;27128614000;25503222222;26003222222
2498;27128615000;25503222222;26003222222
2499;27128616000;25503222222;26003222222
2500;27169383000;25544555555;26044555555
2501;27169386000;25544555555;26044555555
2502;27169387000;25544555555;26044555555
2505;27169389000;25544555555;26044555555
2506;27295028000;25544555555;26044555555
2507;27345499000;25544577777;26044577777
2522;27345515000;25627888888;26127888888
2523;27345516000;25627888888;26127888888
2524;27345517000;25627888888;26127888888
2525;27345518000;25627888888;26127888888
2526;27345519000;25627888888;26127888888
2527;27345520000;25627888888;26127888888
2528;27345521000;25627888888;26127888888
2529;27428963000;25627900000;26127900000
2530;27428987000;25628233333;26128233333
2531;27428989000;25628233333;26128233333
2532;27428989000;25628233333;26128233333
2533;27469565000;25669566666;26169566666
2534;27469569000;25669566666;26169566666
2535;27469570000;25669566666;26169566666
2536;27469571000;25669566666;26169566666
2537;27469572000;25669566666;26169566666
2538;27595330000;25669566666;26169566666
2539;27595333000;25669566666;26169566666
2540;27645802000;25669588888;26169588888
2555;27645817000;25752900000;26252900000
2556;27645818000;25752900000;26252900000
2557;27645819000;25752900000;26252900000
2558;27645820000;25752900000;26252900000
2559;27645821000;25752900000;26252900000
2560;27645822000;25752900000;26252900000
2561;27645823000;25752900000;26252900000
2562;27729114000;25752922222;26252922222
2563;27729130000;25753233333;26253233333
2564;27729131000;25753233333;26253233333
2565;27729132000;25753233333;26253233333
2567;27770109000;25794566666;26294566666
2568;27770112000;25794566666;26294566666
2569;27770113000;25794566666;26294566666
2570;27895668000;25794566666;26294566666
2571;27895681000;25794566666;26294566666
2575;27946309000;25794866666;26294866666
2588;28029301000;25877888888;26377888888
2589;28029304000;25877888888;26377888888
2590;28029305000;25877888888;26377888888
2591;28029306000;25877888888;26377888888
2592;28029307000;25877888888;26377888888
2593;28029308000;25877888888;26377888888
2594;28029309000;25877888888;26377888888
2595;28029509000;25877900000;26377900000
2596;28029524000;25878244444;26378244444
2597;28029525000;25878244444;26378244444
2598;28029526000;25878244444;26378244444
2599;28069874000;25919555555;26419555555
2600;28069877000;25919555555;26419555555
2601;28069879000;25919555555;26419555555
2602;28195976000;25919555555;26419555555
2603;28195981000;25919555555;26419555555
2604;28195985000;25919555555;26419555555
2605;28196000000;25919555555;26419555555
2606;28246429000;25919566666;26419566666
2621;28246445000;26002900000;26502900000
2622;28246446000;26002900000;26502900000
2623;28246447000;26002900000;26502900000
2624;28246448000;26002900000;26502900000
2625;28246449000;26002900000;26502900000
2626;28246450000;26002900000;26502900000
2627;28246450000;26002900000;26502900000
2628;28370490000;26002911111;26502911111
2629;28370497000;26003233333;26503233333
2630;28370498000;26003233333;26503233333
2631;28370499000;26003233333;26503233333
2632;28409670000;26044566666;26544566666
2633;28409673000;26044566666;26544566666
2634;28409674000;26044566666;26544566666
2635;28496255000;26044566666;26544566666
2636;28496258000;26044566666;26544566666
2637;28496259000;26044566666;26544566666
2638;28496263000;26044566666;26544566666
2639;28546720000;26044588888;26544588888
2654;28546736000;26127900000;26627900000
2655;28546737000;26127900000;26627900000
2656;28546738000;26127900000;26627900000
2657;28546739000;26127900000;26627900000
2658;28546740000;26127900000;26627900000
2659;28546740000;26127900000;26627900000
2660;28546741000;26127900000;26627900000
2661;28670196000;26127922222;26627922222
2662;28670202000;26128244444;26628244444
2663;28670203000;26128244444;26628244444
2664;28670204000;26128244444;26628244444
2665;28709445000;26169555555;26669555555
2666;28709448000;26169555555;26669555555
2667;28709450000;26169555555;26669555555
2668;28796630000;26169555555;26669555555
2669;28796635000;26169555555;26669555555
2670;28796640000;26169555555;26669555555
2671;28796657000;26169555555;26669555555
2672;28847110000;26169577777;26669577777
2687;28847125000;26252888888;26752888888
2688;28847126000;26252888888;26752888888
2689;28847127000;26252888888;26752888888
2690;28847128000;26252888888;26752888888
2691;28847129000;26252888888;26752888888
2692;28847130000;26252888888;26752888888
2693;28847131000;26252888888;26752888888
2694;28970767000;26252911111;26752911111
2695;28970783000;26253233333;26753233333
2696;28970784000;26253233333;26753233333
2697;28970785000;26253233333;26753233333
2698;29009982000;26294566666;26794566666
2699;29009985000;26294566666;26794566666
2700;29009986000;26294566666;26794566666
2701;29097003000;26294566666;26794566666
2702;29097016000;26294566666;26794566666
2703;29097096000;26294566666;26794566666
2704;29097107000;26294566666;26794566666
2705;29147468000;26294577777;26794577777
2720;29147484000;26377900000;26877900000
2721;29147485000;26377900000;26877900000
2722;29147486000;26377900000;26877900000
2723;29147487000;26377900000;26877900000
2724;29147487000;26377900000;26877900000
2725;29147488000;26377900000;26877900000
2726;29147489000;26377900000;26877900000
2727;29271406000;26377911111;26877911111
2728;29271411000;26378211111;26878211111
2729;29271412000;26378211111;26878211111
2730;29271413000;26378211111;26878211111
2731;29310607000;26419555555;26919555555
2732;29310611000;26419555555;26919555555
2733;29310612000;26419555555;26919555555
2734;29397318000;26419555555;26919555555
2735;29397321000;26419555555;26919555555
2736;29397326000;26419555555;26919555555
2737;29397340000;26419555555;26919555555
2738;29447784000;26419566666;26919566666
2753;29447799000;26502888888;27002888888
2754;29447801000;26502888888;27002888888
2755;29447802000;26502888888;27002888888
2756;29447802000;26502888888;27002888888
2757;29447804000;26502888888;27002888888
2758;29447804000;26502888888;27002888888
2759;29447805000;26502888888;27002888888
2760;29571662000;26502900000;27002900000
2761;29571677000;26503200000;27003200000
2762;29571679000;26503200000;27003200000
2763;29571680000;26503200000;27003200000
2765;29611801000;26544566666;27044566666
2766;29611805000;26544566666;27044566666
2767;29697690000;26544566666;27044566666
2773;29748350000;26544888888;27044888888
2787;29872598000;26627900000;27127900000
2788;29872601000;26627900000;27127900000
2789;29872602000;26627900000;27127900000
2790;29872603000;26627900000;27127900000
2791;29872604000;26627900000;27127900000
2792;29872605000;26627900000;27127900000
2793;29872708000;26627911111;27127911111
2794;29872724000;26628222222;27128222222
2798;29911446000;26669566666;27169566666
2799;29911450000;26669566666;27169566666
2800;29997967000;26669566666;27169566666
2801;29997972000;26669566666;27169566666
2802;29997976000;26669566666;27169566666
2803;29997991000;26669566666;27169566666
2804;30048357000;26669577777;27169577777
2819;30048373000;26752900000;27252900000
2820;30048374000;26752900000;27252900000
2821;30048375000;26752900000;27252900000
2822;30048376000;26752900000;27252900000
2823;30048377000;26752900000;27252900000
2824;30048378000;26752900000;27252900000
2825;30048379000;26752900000;27252900000
2826;30172366000;26752922222;27252922222
2827;30172382000;26753222222;27253222222
2828;30172383000;26753222222;27253222222
2829;30172384000;26753222222;27253222222
2830;30211584000;26794566666;27294566666
2831;30211587000;26794566666;27294566666
2832;30211588000;26794566666;27294566666
2833;30211589000;26794566666;27294566666
2834;30298264000;26794566666;27294566666
2835;30298267000;26794566666;27294566666
2836;30298271000;26794566666;27294566666
2837;30348693000;26794577777;27294577777
2852;30348709000;26877900000;27377900000
2853;30348710000;26877900000;27377900000
2854;30348711000;26877900000;27377900000
2855;30348713000;26877900000;27377900000
2856;30348714000;26877900000;27377900000
2857;30348715000;26877900000;27377900000
2858;30348716000;26877900000;27377900000
2859;30473226000;26877911111;27377911111
2860;30473242000;26878222222;27378222222
2861;30473244000;26878222222;27378222222
2862;30473245000;26878222222;27378222222
2863;30512382000;26919566666;27419566666
2864;30512385000;26919566666;27419566666
2865;30512386000;26919566666;27419566666
2866;30512388000;26919566666;27419566666
2867;30512389000;26919566666;27419566666
2868;30598509000;26919566666;27419566666
2869;30598511000;26919566666;27419566666
2870;30648963000;26919577777;27419577777
2885;30773651000;27002900000;27502900000
2886;30773664000;27002900000;27502900000
2887;30773665000;27002900000;27502900000
2888;30773666000;27002900000;27502900000
2889;30773667000;27002900000;27502900000
2890;30773668000;27002900000;27502900000
2891;30773669000;27002900000;27502900000
2892;30773885000;27002911111;27502911111
2893;30773900000;27003222222;27503222222
2894;30773909000;27003222222;27503222222
2895;30773910000;27003222222;27503222222
2896;30812719000;27044555555;27544555555
2897;30812722000;27044555555;27544555555
2898;30812723000;27044555555;27544555555
2899;30812724000;27044555555;27544555555
2900;30812725000;27044555555;27544555555
2901;30812726000;27044555555;27544555555
2905;30949762000;27044866666;27544866666
3399;30949913000;28919933333;29419933333
3400;30949916000;28919933333;29419933333
3401;30949918000;28919933333;29419933333
3402;30949928000;28961244444;29461244444
3403;30949930000;28961244444;29461244444
3404;30949941000;28961244444;29461244444
3405;30949942000;28961244444;29461244444
3406;30949943000;28961244444;29461244444
3407;30949944000;28961244444;29461244444
3408;30949945000;28961244444;29461244444
3409;31249537000;28961266666;29461266666
3424;31249552000;29044566666;29544566666
3425;31249554000;29044566666;29544566666
3426;31249555000;29044566666;29544566666
3427;31249556000;29044566666;29544566666
3428;31249557000;29044566666;29544566666
3429;31249558000;29044566666;29544566666
3430;31249559000;29044566666;29544566666
3431;31333018000;29044588888;29544588888
3432;31333034000;29044866666;29544866666
3433;31333035000;29044866666;29544866666
3434;31333036000;29044866666;29544866666
3435;31370055000;29086233333;29586233333
3436;31370059000;29086233333;29586233333
3437;31370060000;29086233333;29586233333
3438;31370061000;29086233333;29586233333
3439;31370062000;29086233333;29586233333
3440;31370063000;29086233333;29586233333
3441;31370064000;29086233333;29586233333
3442;31372821000;29086255555;29586255555
3443;31372837000;29086533333;29586533333
3444;31499395000;29086533333;29586533333
3445;31499397000;29086533333;29586533333
3446;31591278000;29127888888;29627888888
3457;31633061000;29169555555;29669555555
3458;31633064000;29169555555;29669555555
3459;31633065000;29169555555;29669555555
3460;31633066000;29169555555;29669555555
3461;31633067000;29169555555;29669555555
3462;31633068000;29169555555;29669555555
3463;31633069000;29169555555;29669555555
3464;31633269000;29169577777;29669577777
3465;31633284000;29169855555;29669855555
3466;31633285000;29169855555;29669855555
3467;31633286000;29169855555;29669855555
3468;31673835000;29211222222;29711222222
3469;31673839000;29211222222;29711222222
3470;31673840000;29211222222;29711222222
3471;31673841000;29211222222;29711222222
3472;31673842000;29211222222;29711222222
3473;31673843000;29211222222;29711222222
3474;31673844000;29211222222;29711222222
3475;31674015000;29211233333;29711233333
3476;31674020000;29211511111;29711511111
3480;31850113000;29252888888;29752888888
3490;31933585000;29294566666;29794566666
3491;31933589000;29294566666;29794566666
3492;31933590000;29294566666;29794566666
3493;31933591000;29294566666;29794566666
3494;31933592000;29294566666;29794566666
3495;31933593000;29294566666;29794566666
3496;31933594000;29294566666;29794566666
3497;31933790000;29294577777;29794577777
3498;31933796000;29294866666;29794866666
3499;31933797000;29294866666;29794866666
3500;31933798000;29294866666;29794866666
3501;31974190000;29336233333;29836233333
3502;31974193000;29336233333;29836233333
3503;31974195000;29336233333;29836233333
3504;31974196000;29336233333;29836233333
3505;31974197000;29336233333;29836233333
3506;31974198000;29336233333;29836233333
3507;31974199000;29336233333;29836233333
3508;31974386000;29336244444;29836244444
3509;31974391000;29336544444;29836544444
3510;31974393000;29336544444;29836544444
3511;32099999000;29336544444;29836544444
3514;32191928000;29377900000;29877900000
3523;32233687000;29419555555;29919555555
3524;32233690000;29419555555;29919555555
3525;32233691000;29419555555;29919555555
3526;32233692000;29419555555;29919555555
3527;32233693000;29419555555;29919555555
3528;32233694000;29419555555;29919555555
3529;32233695000;29419555555;29919555555
3530;32233894000;29419577777;29919577777
3531;32233909000;29419888888;29919888888
3532;32233910000;29419888888;29919888888
3533;32233911000;29419888888;29919888888
3534;32274593000;29461222222;29961222222
3535;32274596000;29461222222;29961222222
3536;32274606000;29461222222;29961222222
3537;32274607000;29461222222;29961222222
3538;32274608000;29461222222;29961222222
3541;32274786000;29461244444;29961244444
3542;32274790000;29461500000;29961500000
3544;32274791000;29461500000;29961500000
3545;32450629000;29502888888;30002888888
3567;32570918000;29586233333;30086233333
3568;32570922000;29586233333;30086233333
3569;32570923000;29586233333;30086233333
3570;32570924000;29586233333;30086233333
3571;32570925000;29586233333;30086233333
3572;32570926000;29586233333;30086233333
3573;32570927000;29586233333;30086233333
3574;32573921000;29586244444;30086244444
3575;32573937000;29586522222;30086522222
3576;32573938000;29586522222;30086522222
3578;32615005000;29627900000;30127900000
3579;32615008000;29627900000;30127900000
3580;32700646000;29627900000;30127900000
3581;32700649000;29627900000;30127900000
3582;32700650000;29627900000;30127900000
3583;32700651000;29627900000;30127900000
3584;32700668000;29627900000;30127900000
3585;32751002000;29627911111;30127911111
3600;32751007000;29711222222;30211222222
3601;32751008000;29711222222;30211222222
3602;32751009000;29711222222;30211222222
3603;32751010000;29711222222;30211222222
3604;32751011000;29711222222;30211222222
3605;32751012000;29711222222;30211222222
3606;32751013000;29711222222;30211222222
3607;32872368000;29711244444;30211244444
3608;32872384000;29711555555;30211555555
3609;32872385000;29711555555;30211555555
3610;32872386000;29711555555;30211555555
3611;32915129000;29752900000;30252900000
3612;32915133000;29752900000;30252900000
3613;32915134000;29752900000;30252900000
3614;32915135000;29752900000;30252900000
3615;33000952000;29752900000;30252900000
3619;33051611000;29753211111;30253211111
3633;33175796000;29836233333;30336233333
3634;33175800000;29836233333;30336233333
3635;33175801000;29836233333;30336233333
3636;33175802000;29836233333;30336233333
3637;33175803000;29836233333;30336233333
3638;33175804000;29836233333;30336233333
3639;33175805000;29836233333;30336233333
3640;33176011000;29836244444;30336244444
3641;33176027000;29836544444;30336544444
3642;33176028000;29836544444;30336544444
3643;33176029000;29836544444;30336544444
3644;33214645000;29877900000;30377900000
3645;33214648000;29877900000;30377900000
3646;33214649000;29877900000;30377900000
3647;33214650000;29877900000;30377900000
3648;33214651000;29877900000;30377900000
3649;33214652000;29877900000;30377900000
3650;33301308000;29877900000;30377900000
3651;33351766000;29877911111;30377911111
3666;33351782000;29961233333;30461233333
3667;33351783000;29961233333;30461233333
3668;33351784000;29961233333;30461233333
3669;33351785000;29961233333;30461233333
3670;33351786000;29961233333;30461233333
3671;33351787000;29961233333;30461233333
3672;33351788000;29961233333;30461233333
3673;33476374000;29961255555;30461255555
3674;33476389000;29961522222;30461522222
3675;33476391000;29961522222;30461522222
3676;33476391000;29961522222;30461522222
3677;33515519000;30002900000;30502900000
3681;33515821000;30002900000;30502900000
3682;33515823000;30002900000;30502900000
3683;33515824000;30002900000;30502900000
3685;33515936000;30003222222;30503222222
3686;33601631000;30003222222;30503222222
3687;33601633000;30003222222;30503222222
3688;33693519000;30044555555;30544555555
3710;33776312000;30127888888;30627888888
3711;33776316000;30127888888;30627888888
3712;33776317000;30127888888;30627888888
3713;33776318000;30127888888;30627888888
3714;33776319000;30127888888;30627888888
3716;33776320000;30127888888;30627888888
3717;33776539000;30127900000;30627900000
3718;33776555000;30128211111;30628211111
3719;33776556000;30128211111;30628211111
3720;33776557000;30128211111;30628211111
3721;33815368000;30169566666;30669566666
3722;33901935000;30169566666;30669566666
3723;33901941000;30169566666;30669566666
3728;33952428000;30169588888;30669588888
3743;33952444000;30252900000;30752900000
3744;33952445000;30252900000;30752900000
3745;33952446000;30252900000;30752900000
3746;33952447000;30252900000;30752900000
3747;33952448000;30252900000;30752900000
3748;33952449000;30252900000;30752900000
3749;33952458000;30252900000;30752900000
3750;34076782000;30252911111;30752911111
3751;34076797000;30253233333;30753233333
3752;34076799000;30253233333;30753233333
3753;34076799000;30253233333;30753233333
3754;34115995000;30294566666;30794566666
3755;34115999000;30294566666;30794566666
3757;34116560000;30294566666;30794566666
3762;34252883000;30294855555;30794855555
3776;34377216000;30377888888;30877888888
3777;34377219000;30377888888;30877888888
3778;34377220000;30377888888;30877888888
3779;34377221000;30377888888;30877888888
3780;34377222000;30377888888;30877888888
3781;34377223000;30377888888;30877888888
3782;34377224000;30377888888;30877888888
3783;34377423000;30377900000;30877900000
3784;34377439000;30378255555;30878255555
3785;34377440000;30378255555;30878255555
3786;34377441000;30378255555;30878255555
3787;34416486000;30419555555;30919555555
3788;34416489000;30419555555;30919555555
3789;34416490000;30419555555;30919555555
3790;34416491000;30419555555;30919555555
3791;34416492000;30419555555;30919555555
3792;34416493000;30419555555;30919555555
3793;34416494000;30419555555;30919555555
3794;34553006000;30419566666;30919566666
3811;34803029000;30502900000;31002900000
3813;34803041000;30502900000;31002900000
3814;34803048000;30502900000;31002900000
3815;34803050000;30502900000;31002900000
3816;34803305000;30502911111;31002911111
3829;34803322000;30544877777;31044877777
3830;34803324000;30544877777;31044877777
3837;34853371000;30586233333;31086233333
3853;34978027000;30669566666;31169566666
3854;34978030000;30669566666;31169566666
3855;34978031000;30669566666;31169566666
3856;34978032000;30669566666;31169566666
3857;34978033000;30669566666;31169566666
3858;34978034000;30669566666;31169566666
3860;34978246000;30669588888;31169588888
3861;34978262000;30669888888;31169888888
3862;34978263000;30669888888;31169888888
3863;34978264000;30669888888;31169888888
3864;35017319000;30711222222;31211222222
3865;35017323000;30711222222;31211222222
3866;35017324000;30711222222;31211222222
3867;35017325000;30711222222;31211222222
3868;35103362000;30711222222;31211222222
3869;35103364000;30711222222;31211222222
3870;35103370000;30711222222;31211222222
3874;35153987000;30711533333;31211533333
4513;35197966000;33169566666;33669566666
4514;35197984000;33169566666;33669566666
4515;35197985000;33169566666;33669566666
4516;35197987000;33169566666;33669566666
4518;35197988000;33169566666;33669566666
4519;35197988000;33169566666;33669566666
4520;35198196000;33169588888;33669588888
4521;35198211000;33169844444;33669844444
4522;35198212000;33169844444;33669844444
4523;35198214000;33169844444;33669844444
4524;35198227000;33211233333;33711233333
4525;35198228000;33211233333;33711233333
4527;35198239000;33211233333;33711233333
4528;35198240000;33211233333;33711233333
4529;35198241000;33211233333;33711233333
4530;35198242000;33211233333;33711233333
4531;35198345000;33211244444;33711244444
4532;35198361000;33211500000;33711500000
4533;35403624000;33211500000;33711500000
4534;35403629000;33211500000;33711500000
4535;35495567000;33252900000;33752900000
4557;35617358000;33336222222;33836222222
4558;35617362000;33336222222;33836222222
4559;35617363000;33336222222;33836222222
4560;35617364000;33336222222;33836222222
4561;35617365000;33336222222;33836222222
4562;35617365000;33336222222;33836222222
4563;35617366000;33336222222;33836222222
4564;35617566000;33336244444;33836244444
4565;35617581000;33336544444;33836544444
4566;35617582000;33336544444;33836544444
4567;35617583000;33336544444;33836544444
4568;35653431000;33377888888;33877888888
4569;35653434000;33377888888;33877888888
4570;35703942000;33377888888;33877888888
4571;35703945000;33377888888;33877888888
4572;35703953000;33377888888;33877888888
4573;35703960000;33377888888;33877888888
4574;35703964000;33377888888;33877888888
4575;35754425000;33377911111;33877911111
4590;35754441000;33461222222;33961222222
4591;35754442000;33461222222;33961222222
4592;35754443000;33461222222;33961222222
4593;35754444000;33461222222;33961222222
4594;35754445000;33461222222;33961222222
4595;35754446000;33461222222;33961222222
4596;35754454000;33461222222;33961222222
4597;35875110000;33461244444;33961244444
4598;35875126000;33461488888;33961488888
4599;35875127000;33461488888;33961488888
4601;35919012000;33502900000;34002900000
4602;35919016000;33502900000;34002900000
4603;35919017000;33502900000;34002900000
4604;35919018000;33502900000;34002900000
4605;35919019000;33502900000;34002900000
4609;36054917000;33503200000;34003200000
4623;36178855000;33586233333;34086233333
4624;36178860000;33586233333;34086233333
4625;36178861000;33586233333;34086233333
4626;36178862000;33586233333;34086233333
4627;36178863000;33586233333;34086233333
4628;36178864000;33586233333;34086233333
4629;36178865000;33586233333;34086233333
4630;36179035000;33586244444;34086244444
4631;36179042000;33586511111;34086511111
4632;36179048000;33586511111;34086511111
4633;36179049000;33586511111;34086511111
4634;36217539000;33627888888;34127888888
4635;36217543000;33627888888;34127888888
4636;36217544000;33627888888;34127888888
4638;36218094000;33627888888;34127888888
4639;36218096000;33627888888;34127888888
4641;36218303000;33627911111;34127911111
4642;36218319000;33628233333;34128233333
4643;36218320000;33628233333;34128233333
4644;36218321000;33628233333;34128233333
4645;36354948000;33669555555;34169555555
4667;36479493000;33752900000;34252900000
4668;36479497000;33752900000;34252900000
4669;36479498000;33752900000;34252900000
4670;36479499000;33752900000;34252900000
4671;36479500000;33752900000;34252900000
4672;36479501000;33752900000;34252900000
4673;36479502000;33752900000;34252900000
4674;36479693000;33752922222;34252922222
4676;36479697000;33753222222;34253222222
4677;36479698000;33753222222;34253222222
4678;36518308000;33794566666;34294566666
4679;36518311000;33794566666;34294566666
4680;36518312000;33794566666;34294566666
4681;36518313000;33794566666;34294566666
4682;36518314000;33794566666;34294566666
4683;36604899000;33794566666;34294566666
4684;36604909000;33794566666;34294566666
4685;36655356000;33794577777;34294577777
4700;36655372000;33877900000;34377900000
4701;36655373000;33877900000;34377900000
4702;36655374000;33877900000;34377900000
4703;36655375000;33877900000;34377900000
4704;36655376000;33877900000;34377900000
4705;36655377000;33877900000;34377900000
4706;36655378000;33877900000;34377900000
4707;36780082000;33877911111;34377911111
4708;36780087000;33878211111;34378211111
4709;36780088000;33878211111;34378211111
4710;36780089000;33878211111;34378211111
4711;36818798000;33919555555;34419555555
4712;36818800000;33919555555;34419555555
4713;36818801000;33919555555;34419555555
4714;36818802000;33919555555;34419555555
4716;36819613000;33919555555;34419555555
4717;36819615000;33919555555;34419555555
4718;36819758000;33919566666;34419566666
4719;36819761000;33919855555;34419855555
4720;36819762000;33919855555;34419855555
4721;36819763000;33919855555;34419855555
4722;36955569000;33961222222;34461222222
4744;37080060000;34044555555;34544555555
4745;37080073000;34044555555;34544555555
4746;37080074000;34044555555;34544555555
4747;37080075000;34044555555;34544555555
4748;37080076000;34044555555;34544555555
4749;37080077000;34044555555;34544555555
4750;37080080000;34044555555;34544555555
4751;37080217000;34044577777;34544577777
4753;37080220000;34044877777;34544877777
4755;37119356000;34086233333;34586233333
4756;37119358000;34086233333;34586233333
4757;37119359000;34086233333;34586233333
4758;37119360000;34086233333;34586233333
4759;37119361000;34086233333;34586233333
4760;37205503000;34086233333;34586233333
4761;37205512000;34086233333;34586233333
4762;37255956000;34086244444;34586244444
4777;37255972000;34169566666;34669566666
4778;37255973000;34169566666;34669566666
4779;37255974000;34169566666;34669566666
4780;37255975000;34169566666;34669566666
4781;37255976000;34169566666;34669566666
4782;37255977000;34169566666;34669566666
4783;37255978000;34169566666;34669566666
4784;37380129000;34169588888;34669588888
4785;37380133000;34169888888;34669888888
4786;37380134000;34169888888;34669888888
4787;37380135000;34169888888;34669888888
4790;37420258000;34211233333;34711233333
4791;37420261000;34211233333;34711233333
4792;37420262000;34211233333;34711233333
4793;37420263000;34211233333;34711233333
4794;37420264000;34211233333;34711233333
4795;37420359000;34211244444;34711244444
4796;37420362000;34211533333;34711533333
4797;37420363000;34211533333;34711533333
4798;37420364000;34211533333;34711533333
4799;37556167000;34252888888;34752888888
4821;37680796000;34336222222;34836222222
4822;37680799000;34336222222;34836222222
4823;37680810000;34336222222;34836222222
4824;37680811000;34336222222;34836222222
4825;37680812000;34336222222;34836222222
4826;37680813000;34336222222;34836222222
4828;37680951000;34336233333;34836233333
4829;37680954000;34336544444;34836544444
4830;37680955000;34336544444;34836544444
4831;37680956000;34336544444;34836544444
4832;37719762000;34377911111;34877911111
4833;37719765000;34377911111;34877911111
4836;37719766000;34377911111;34877911111
4837;37719767000;34377911111;34877911111
4840;37856740000;34378244444;34878244444
4863;37980305000;34461511111;34961511111
4864;37980308000;34461511111;34961511111
4865;38020225000;34502900000;35002900000
4866;38020227000;34502900000;35002900000
4867;38020228000;34502900000;35002900000
4868;38020229000;34502900000;35002900000
4869;38020230000;34502900000;35002900000
4870;38020231000;34502900000;35002900000
4871;38020232000;34502900000;35002900000
4872;38020375000;34502911111;35002911111
4873;38020378000;34503222222;35003222222
4874;38020379000;34503222222;35003222222
4875;38020380000;34503222222;35003222222
4876;38057755000;34544555555;35044555555
4877;38057758000;34544555555;35044555555
4878;38106463000;34544555555;35044555555
4879;38106467000;34544555555;35044555555
4880;38106469000;34544555555;35044555555
4881;38106476000;34544555555;35044555555
4882;38106481000;34544555555;35044555555
4883;38156904000;34544577777;35044577777
4898;38156919000;34627900000;35127900000
4899;38156921000;34627900000;35127900000
4900;38156922000;34627900000;35127900000
4901;38156922000;34627900000;35127900000
4902;38156924000;34627900000;35127900000
4903;38156925000;34627900000;35127900000
4904;38156926000;34627900000;35127900000
4905;38281112000;34627911111;35127911111
4906;38281127000;34628233333;35128233333
4907;38281129000;34628233333;35128233333
4909;38321235000;34669566666;35169566666
4910;38321239000;34669566666;35169566666
4911;38321240000;34669566666;35169566666
4912;38321241000;34669566666;35169566666
4913;38321242000;34669566666;35169566666
4914;38321243000;34669566666;35169566666
4915;38321244000;34669566666;35169566666
4916;38321345000;34669588888;35169588888
4919;38406946000;34669877777;35169877777
4920;38498622000;34711222222;35211222222
4942;38611365000;34794577777;35294577777
4943;38611368000;34794577777;35294577777
4944;38611379000;34794577777;35294577777
4947;38620742000;34794577777;35294577777
4948;38620743000;34794577777;35294577777
4949;38620890000;34794600000;35294600000
4951;38620894000;34794877777;35294877777
4952;38620895000;34794877777;35294877777
4953;38657351000;34836222222;35336222222
4954;38657353000;34836222222;35336222222
4955;38657354000;34836222222;35336222222
4957;38657355000;34836222222;35336222222
4958;38707082000;34836222222;35336222222
4959;38707094000;34836222222;35336222222
4960;38757550000;34836233333;35336233333
4975;38757566000;34919555555;35419555555
4976;38757567000;34919555555;35419555555
4977;38757568000;34919555555;35419555555
4978;38757569000;34919555555;35419555555
4979;38757570000;34919555555;35419555555
4980;38757571000;34919555555;35419555555
4981;38757572000;34919555555;35419555555
4982;38882175000;34919566666;35419566666
4983;38882191000;34919866666;35419866666
4984;38882192000;34919866666;35419866666
4985;38882193000;34919866666;35419866666
4986;38921380000;34961233333;35461233333
4987;38921383000;34961233333;35461233333
4988;38921384000;34961233333;35461233333
4990;38922171000;34961233333;35461233333
4991;38922173000;34961233333;35461233333
4992;38922174000;34961233333;35461233333
4993;38922381000;34961255555;35461255555
