seqnum;now;rtptime;deadline
1;3157550000;3074266666;3574266666
3;3197085000;3105233333;3605233333
4;3197112000;3105233333;3605233333
5;3197114000;3105233333;3605233333
6;3197117000;3105233333;3605233333
7;3197119000;3105233333;3605233333
8;3197121000;3105233333;3605233333
9;3197123000;3105233333;3605233333
10;3197433000;3105288888;3605288888
11;3197452000;3105644444;3605644444
12;3197454000;3105644444;3605644444
13;3197455000;3105644444;3605644444
14;3238716000;3146855555;3646855555
15;3238728000;3146855555;3646855555
16;3238730000;3146855555;3646855555
17;3238732000;3146855555;3646855555
18;3238734000;3146855555;3646855555
19;3238736000;3146855555;3646855555
20;3238737000;3146855555;3646855555
21;3239042000;3146900000;3646900000
22;3239082000;3147311111;3647311111
23;3239085000;3147311111;3647311111
24;3239087000;3147311111;3647311111
25;3279995000;3188488888;3688488888
26;3280006000;3188488888;3688488888
27;3280008000;3188488888;3688488888
28;3280009000;3188488888;3688488888
29;3280011000;3188488888;3688488888
30;3280013000;3188488888;3688488888
31;3280014000;3188488888;3688488888
32;3280272000;3188544444;3688544444
33;3280277000;3188866666;3688866666
34;3280279000;3188866666;3688866666
35;3280281000;3188866666;3688866666
36;3321362000;3230188888;3730188888
37;3321374000;3230188888;3730188888
38;3321375000;3230188888;3730188888
39;3321378000;3230188888;3730188888
40;3321379000;3230188888;3730188888
41;3321382000;3230188888;3730188888
42;3321383000;3230188888;3730188888
43;3321664000;3230233333;3730233333
44;3321690000;3230577777;3730577777
45;3321691000;3230577777;3730577777
46;3321693000;3230577777;3730577777
47;3361863000;3271855555;3771855555
48;3361872000;3271855555;3771855555
49;3361873000;3271855555;3771855555
50;3361875000;3271855555;3771855555
51;3361876000;3271855555;3771855555
52;3361878000;3271855555;3771855555
53;3361879000;3271855555;3771855555
54;3362430000;3271900000;3771900000
55;3362454000;3272244444;3772244444
56;3362456000;3272244444;3772244444
57;3362458000;3272244444;3772244444
58;3402625000;3313522222;3813522222
59;3402636000;3313522222;3813522222
60;3402638000;3313522222;3813522222
61;3402640000;3313522222;3813522222
62;3402643000;3313522222;3813522222
63;3402645000;3313522222;3813522222
64;3402658000;3313522222;3813522222
65;3402892000;3313566666;3813566666
67;3402897000;3313855555;3813855555
68;3402899000;3313855555;3813855555
69;3441158000;3355166666;3855166666
70;3441162000;3355166666;3855166666
71;3441163000;3355166666;3855166666
72;3441165000;3355166666;3855166666
73;3441166000;3355166666;3855166666
74;3441167000;3355166666;3855166666
75;3441169000;3355166666;3855166666
76;3442505000;3355211111;3855211111
77;3442528000;3355544444;3855544444
80;3482090000;3396844444;3896844444
81;3482094000;3396844444;3896844444
82;3482095000;3396844444;3896844444
83;3482096000;3396844444;3896844444
84;3482097000;3396844444;3896844444
85;3482098000;3396844444;3896844444
86;3482099000;3396844444;3896844444
87;3482397000;3396888888;3896888888
88;3482420000;3397233333;3897233333
89;3482421000;3397233333;3897233333
90;3482422000;3397233333;3897233333
91;3518886000;3438522222;3938522222
92;3518893000;3438522222;3938522222
93;3518895000;3438522222;3938522222
94;3518896000;3438522222;3938522222
95;3518897000;3438522222;3938522222
96;3518899000;3438522222;3938522222
97;3518900000;3438522222;3938522222
98;3520817000;3438566666;3938566666
99;3520833000;3438877777;3938877777
100;3520835000;3438877777;3938877777
101;3520836000;3438877777;3938877777
102;3643753000;3480188888;3980188888
120;3683457000;3521877777;4021877777
130;3683472000;3563522222;4063522222
131;3720307000;3563566666;4063566666
146;3720323000;3646855555;4146855555
147;3720324000;3646855555;4146855555
148;3720325000;3646855555;4146855555
149;3720326000;3646855555;4146855555
150;3720328000;3646855555;4146855555
151;3720329000;3646855555;4146855555
152;3720330000;3646855555;4146855555
153;3789708000;3646900000;4146900000
164;3825933000;3688588888;4188588888
178;3825939000;3730533333;4230533333
179;3882183000;3771855555;4271855555
187;3882297000;3772222222;4272222222
188;3882311000;3772222222;4272222222
189;3882312000;3772222222;4272222222
190;3917972000;3813522222;4313522222
197;3918174000;3813566666;4313566666
198;3918190000;3813844444;4313844444
199;3918191000;3813844444;4313844444
200;3918192000;3813844444;4313844444
201;3943540000;3855188888;4355188888
202;3943544000;3855188888;4355188888
203;3943545000;3855188888;4355188888
204;3943546000;3855188888;4355188888
205;3943547000;3855188888;4355188888
206;3943548000;3855188888;4355188888
207;3943549000;3855188888;4355188888
208;3948623000;3855233333;4355233333
209;3948638000;3855533333;4355533333
210;3948639000;3855533333;4355533333
211;3948640000;3855533333;4355533333
212;3980546000;3896822222;4396822222
213;3980549000;3896822222;4396822222
214;3980550000;3896822222;4396822222
215;3980551000;3896822222;4396822222
216;3980552000;3896822222;4396822222
217;3980553000;3896822222;4396822222
218;3980554000;3896822222;4396822222
219;3980754000;3896877777;4396877777
220;3980770000;3897222222;4397222222
221;3980771000;3897222222;4397222222
222;3980772000;3897222222;4397222222
223;4010174000;3938522222;4438522222
224;4010178000;3938522222;4438522222
225;4011169000;3938522222;4438522222
226;4011171000;3938522222;4438522222
227;4011172000;3938522222;4438522222
228;4011174000;3938522222;4438522222
229;4011175000;3938522222;4438522222
230;4013319000;3938566666;4438566666
231;4013335000;3938866666;4438866666
232;4013336000;3938866666;4438866666
233;4013337000;3938866666;4438866666
234;4103512000;3980188888;4480188888
245;4143705000;4021855555;4521855555
254;4143755000;4022255555;4522255555
255;4143757000;4022255555;4522255555
256;4184672000;4063533333;4563533333
266;4184758000;4063911111;4563911111
267;4222722000;4105188888;4605188888
274;4224208000;4105233333;4605233333
275;4224223000;4105511111;4605511111
276;4224224000;4105511111;4605511111
277;4224225000;4105511111;4605511111
278;4262982000;4146822222;4646822222
289;4297901000;4188488888;4688488888
297;4298013000;4188800000;4688800000
298;4298016000;4188800000;4688800000
299;4298017000;4188800000;4688800000
300;4336869000;4230188888;4730188888
309;4336981000;4230500000;4730500000
310;4336985000;4230500000;4730500000
311;4369714000;4271844444;4771844444
320;4369826000;4272222222;4772222222
321;4369829000;4272222222;4772222222
322;4408868000;4313522222;4813522222
331;4408980000;4313844444;4813844444
332;4408984000;4313844444;4813844444
333;4438739000;4355188888;4855188888
334;4438742000;4355188888;4855188888
335;4438743000;4355188888;4855188888
336;4438744000;4355188888;4855188888
337;4438745000;4355188888;4855188888
338;4438746000;4355188888;4855188888
339;4438747000;4355188888;4855188888
340;4442286000;4355233333;4855233333
341;4442301000;4355522222;4855522222
342;4442302000;4355522222;4855522222
343;4442303000;4355522222;4855522222
344;4479050000;4396822222;4896822222
345;4479054000;4396822222;4896822222
346;4479055000;4396822222;4896822222
347;4479056000;4396822222;4896822222
348;4479057000;4396822222;4896822222
349;4479058000;4396822222;4896822222
350;4479059000;4396822222;4896822222
351;4479258000;4396866666;4896866666
352;4479274000;4397200000;4897200000
353;4479275000;4397200000;4897200000
354;4479276000;4397200000;4897200000
355;4511232000;4438522222;4938522222
356;4511235000;4438522222;4938522222
357;4511236000;4438522222;4938522222
358;4511237000;4438522222;4938522222
359;4511238000;4438522222;4938522222
360;4511239000;4438522222;4938522222
361;4511376000;4438522222;4938522222
362;4514121000;4438577777;4938577777
364;4514136000;4438855555;4938855555
365;4514138000;4438855555;4938855555
366;4551131000;4480177777;4980177777
367;4551134000;4480177777;4980177777
369;4551136000;4480177777;4980177777
370;4551137000;4480177777;4980177777
371;4551138000;4480177777;4980177777
372;4551139000;4480177777;4980177777
373;4551338000;4480222222;4980222222
374;4551353000;4480466666;4980466666
375;4551354000;4480466666;4980466666
376;4551355000;4480466666;4980466666
379;4644702000;4521855555;5021855555
387;4644817000;4522222222;5022222222
388;4686129000;4563488888;5063488888
397;4686259000;4563822222;5063822222
398;4686272000;4563822222;5063822222
399;4726990000;4605188888;5105188888
407;4727116000;4605511111;5105511111
408;4727120000;4605511111;5105511111
409;4727122000;4605511111;5105511111
410;4765967000;4646822222;5146822222
421;4803133000;4688488888;5188488888
429;4803231000;4688833333;5188833333
430;4803235000;4688833333;5188833333
431;4803236000;4688833333;5188833333
432;4842462000;4730188888;5230188888
441;4842581000;4730533333;5230533333
442;4842584000;4730533333;5230533333
443;4874795000;4771822222;5271822222
451;4874896000;4772177777;5272177777
452;4874900000;4772177777;5272177777
453;4874911000;4772177777;5272177777
454;4913955000;4813500000;5313500000
463;4914082000;4813811111;5313811111
464;4914086000;4813811111;5313811111
465;4944335000;4855188888;5355188888
466;4944340000;4855188888;5355188888
467;4944341000;4855188888;5355188888
468;4944342000;4855188888;5355188888
469;4944343000;4855188888;5355188888
470;4944345000;4855188888;5355188888
471;4944346000;4855188888;5355188888
472;4947821000;4855233333;5355233333
473;4947827000;4855511111;5355511111
474;4947828000;4855511111;5355511111
475;4947829000;4855511111;5355511111
476;4983532000;4896866666;5396866666
477;4983536000;4896866666;5396866666
478;4983537000;4896866666;5396866666
479;4983538000;4896866666;5396866666
480;4983539000;4896866666;5396866666
481;4983540000;4896866666;5396866666
482;4983541000;4896866666;5396866666
483;4983644000;4896911111;5396911111
484;4983649000;4897277777;5397277777
485;4983651000;4897277777;5397277777
486;4983652000;4897277777;5397277777
487;5015538000;4938488888;5438488888
488;5015541000;4938488888;5438488888
489;5015542000;4938488888;5438488888
490;5015543000;4938488888;5438488888
491;5015545000;4938488888;5438488888
492;5015546000;4938488888;5438488888
493;5015547000;4938488888;5438488888
494;5018626000;4938544444;5438544444
495;5018632000;4938833333;5438833333
496;5018633000;4938833333;5438833333
497;5018634000;4938833333;5438833333
498;5054386000;4980188888;5480188888
499;5054389000;4980188888;5480188888
500;5054390000;4980188888;5480188888
501;5054391000;4980188888;5480188888
502;5054392000;4980188888;5480188888
503;5054393000;4980188888;5480188888
504;5054394000;4980188888;5480188888
505;5054515000;4980233333;5480233333
506;5054521000;4980500000;5480500000
507;5054522000;4980500000;5480500000
508;5054523000;4980500000;5480500000
509;5144894000;5021855555;5521855555
518;5145177000;5022244444;5522244444
519;5145188000;5022244444;5522244444
520;5186283000;5063522222;5563522222
531;5225874000;5105188888;5605188888
540;5225986000;5105522222;5605522222
541;5225989000;5105522222;5605522222
542;5266256000;5146822222;5646822222
552;5266333000;5147222222;5647222222
553;5302526000;5188488888;5688488888
561;5302625000;5188811111;5688811111
563;5302629000;5188811111;5688811111
564;5342428000;5230188888;5730188888
574;5342540000;5230511111;5730511111
575;5376037000;5271833333;5771833333
582;5379224000;5271877777;5771877777
583;5379239000;5272244444;5772244444
584;5379240000;5272244444;5772244444
585;5379241000;5272244444;5772244444
586;5415195000;5313488888;5813488888
596;5415281000;5313833333;5813833333
597;5446801000;5355188888;5855188888
598;5446805000;5355188888;5855188888
599;5446806000;5355188888;5855188888
600;5446807000;5355188888;5855188888
601;5446808000;5355188888;5855188888
602;5446809000;5355188888;5855188888
603;5446810000;5355188888;5855188888
604;5450599000;5355233333;5855233333
608;5450606000;5396866666;5896866666
609;5450607000;5396866666;5896866666
610;5450608000;5396866666;5896866666
611;5450609000;5396866666;5896866666
612;5450611000;5396866666;5896866666
613;5450612000;5396866666;5896866666
614;5450613000;5396866666;5896866666
615;5484987000;5396922222;5896922222
616;5485002000;5397266666;5897266666
617;5485004000;5397266666;5897266666
618;5485007000;5397266666;5897266666
619;5516857000;5438488888;5938488888
620;5516861000;5438488888;5938488888
621;5516863000;5438488888;5938488888
622;5516864000;5438488888;5938488888
623;5516865000;5438488888;5938488888
624;5516867000;5438488888;5938488888
625;5516868000;5438488888;5938488888
626;5520268000;5438533333;5938533333
627;5520283000;5438833333;5938833333
628;5520285000;5438833333;5938833333
629;5520286000;5438833333;5938833333
630;5557128000;5480188888;5980188888
631;5557132000;5480188888;5980188888
632;5557133000;5480188888;5980188888
633;5557134000;5480188888;5980188888
634;5557135000;5480188888;5980188888
635;5557136000;5480188888;5980188888
636;5557138000;5480188888;5980188888
637;5557265000;5480233333;5980233333
638;5557270000;5480488888;5980488888
639;5557272000;5480488888;5980488888
640;5557273000;5480488888;5980488888
641;5590554000;5521822222;6021822222
642;5590558000;5521822222;6021822222
643;5590559000;5521822222;6021822222
644;5590560000;5521822222;6021822222
645;5590561000;5521822222;6021822222
646;5590562000;5521822222;6021822222
647;5590563000;5521822222;6021822222
648;5592907000;5521866666;6021866666
649;5592914000;5522200000;6022200000
650;5592915000;5522200000;6022200000
651;5592916000;5522200000;6022200000
652;5630854000;5563522222;6063522222
653;5630858000;5563522222;6063522222
654;5630859000;5563522222;6063522222
655;5630860000;5563522222;6063522222
656;5630861000;5563522222;6063522222
657;5630862000;5563522222;6063522222
658;5630863000;5563522222;6063522222
659;5630976000;5563566666;6063566666
660;5630981000;5563866666;6063866666
661;5630982000;5563866666;6063866666
662;5630983000;5563866666;6063866666
663;5668694000;5605188888;6105188888
664;5668698000;5605188888;6105188888
665;5668699000;5605188888;6105188888
666;5668700000;5605188888;6105188888
667;5668701000;5605188888;6105188888
668;5668702000;5605188888;6105188888
669;5668703000;5605188888;6105188888
670;5669847000;5605233333;6105233333
671;5669853000;5605511111;6105511111
672;5669854000;5605511111;6105511111
673;5669855000;5605511111;6105511111
674;5709645000;5646822222;6146822222
675;5709649000;5646822222;6146822222
676;5709650000;5646822222;6146822222
677;5709651000;5646822222;6146822222
678;5709652000;5646822222;6146822222
679;5709653000;5646822222;6146822222
680;5709654000;5646822222;6146822222
681;5709766000;5646866666;6146866666
682;5709771000;5647222222;6147222222
683;5709773000;5647222222;6147222222
684;5709774000;5647222222;6147222222
685;5749830000;5688488888;6188488888
686;5749834000;5688488888;6188488888
687;5749835000;5688488888;6188488888
688;5749836000;5688488888;6188488888
689;5749837000;5688488888;6188488888
690;5749838000;5688488888;6188488888
691;5749839000;5688488888;6188488888
692;5750271000;5688533333;6188533333
693;5750277000;5688855555;6188855555
694;5750278000;5688855555;6188855555
695;5750279000;5688855555;6188855555
696;5791325000;5730188888;6230188888
697;5791328000;5730188888;6230188888
698;5791329000;5730188888;6230188888
699;5791330000;5730188888;6230188888
700;5791331000;5730188888;6230188888
701;5791332000;5730188888;6230188888
702;5791333000;5730188888;6230188888
703;5791456000;5730233333;6230233333
704;5791461000;5730533333;6230533333
705;5791462000;5730533333;6230533333
706;5802941000;5730533333;6230533333
707;5832631000;5771822222;6271822222
708;5832635000;5771822222;6271822222
709;5832636000;5771822222;6271822222
710;5832637000;5771822222;6271822222
711;5832638000;5771822222;6271822222
712;5832639000;5771822222;6271822222
713;5832640000;5771822222;6271822222
714;5832762000;5771877777;6271877777
715;5832767000;5772200000;6272200000
716;5832769000;5772200000;6272200000
717;5832770000;5772200000;6272200000
718;5934827000;5813522222;6313522222
728;5936008000;5813844444;6313844444
729;5976736000;5855188888;6355188888
739;5976793000;5855522222;6355522222
740;6016143000;5896833333;6396833333
750;6016239000;5897255555;6397255555
751;6055242000;5938522222;6438522222
761;6055308000;5938866666;6438866666
762;6095131000;5980188888;6480188888
772;6095196000;5980511111;6480511111
773;6130235000;6021855555;6521855555
782;6130302000;6022255555;6522255555
783;6130314000;6022255555;6522255555
784;6169209000;6063500000;6563500000
793;6169277000;6063855555;6563855555
794;6169288000;6063855555;6563855555
795;6200281000;6105188888;6605188888
804;6200336000;6105555555;6605555555
805;6200347000;6105555555;6605555555
807;6239467000;6146822222;6646822222
808;6239470000;6146822222;6646822222
809;6239471000;6146822222;6646822222
810;6239472000;6146822222;6646822222
811;6239473000;6146822222;6646822222
812;6239475000;6146822222;6646822222
813;6239557000;6146877777;6646877777
814;6239562000;6147222222;6647222222
815;6239573000;6147222222;6647222222
816;6239574000;6147222222;6647222222
817;6271802000;6188488888;6688488888
818;6271806000;6188488888;6688488888
819;6271807000;6188488888;6688488888
820;6271808000;6188488888;6688488888
821;6271809000;6188488888;6688488888
822;6271810000;6188488888;6688488888
823;6271811000;6188488888;6688488888
824;6275146000;6188533333;6688533333
825;6275152000;6188833333;6688833333
826;6275154000;6188833333;6688833333
827;6275155000;6188833333;6688833333
828;6310397000;6230188888;6730188888
829;6310404000;6230188888;6730188888
830;6310406000;6230188888;6730188888
831;6310408000;6230188888;6730188888
832;6310410000;6230188888;6730188888
833;6310411000;6230188888;6730188888
834;6310412000;6230188888;6730188888
835;6310519000;6230233333;6730233333
836;6310525000;6230522222;6730522222
837;6310526000;6230522222;6730522222
838;6310527000;6230522222;6730522222
839;6345094000;6271822222;6771822222
840;6345098000;6271822222;6771822222
841;6345099000;6271822222;6771822222
842;6345100000;6271822222;6771822222
843;6345102000;6271822222;6771822222
844;6345112000;6271822222;6771822222
845;6345113000;6271822222;6771822222
846;6394626000;6271877777;6771877777
850;6394633000;6313500000;6813500000
851;6394634000;6313500000;6813500000
852;6394635000;6313500000;6813500000
853;6394637000;6313500000;6813500000
854;6394647000;6313500000;6813500000
855;6394648000;6313500000;6813500000
856;6394649000;6313500000;6813500000
857;6394768000;6313544444;6813544444
858;6394774000;6313844444;6813844444
859;6394775000;6313844444;6813844444
860;6394776000;6313844444;6813844444
861;6478143000;6355188888;6855188888
869;6478210000;6355544444;6855544444
870;6478223000;6355544444;6855544444
871;6478224000;6355544444;6855544444
872;6518658000;6396822222;6896822222
883;6558688000;6438522222;6938522222
891;6558753000;6438866666;6938866666
892;6558756000;6438866666;6938866666
893;6558766000;6438866666;6938866666
894;6599295000;6480177777;6980177777
903;6599361000;6480500000;6980500000
904;6599373000;6480500000;6980500000
905;6635694000;6521833333;7021833333
912;6637722000;6521877777;7021877777
915;6637727000;6522222222;7022222222
916;6666000000;6563522222;7063522222
925;6668211000;6563877777;7063877777
926;6668215000;6563877777;7063877777
927;6708513000;6605188888;7105188888
933;6708517000;6605188888;7105188888
934;6711633000;6605233333;7105233333
935;6711639000;6605533333;7105533333
936;6711641000;6605533333;7105533333
937;6711642000;6605533333;7105533333
938;6746942000;6646822222;7146822222
949;6852534000;6688522222;7188522222
969;6893990000;6730533333;7230533333
978;6932384000;6771866666;7271866666
991;6932391000;6813822222;7313822222
992;6932392000;6813822222;7313822222
993;7010407000;6855188888;7355188888
1013;7039868000;6897233333;7397233333
1022;7084235000;6938533333;7438533333
1033;7113169000;6980233333;7480233333
1036;7113175000;6980522222;7480522222
1037;7143168000;7021855555;7521855555
1044;7148968000;7021900000;7521900000
1045;7148974000;7022244444;7522244444
1046;7148976000;7022244444;7522244444
1047;7148977000;7022244444;7522244444
1048;7180512000;7063488888;7563488888
1059;7203178000;7105188888;7605188888
1068;7203244000;7105511111;7605511111
1069;7203246000;7105511111;7605511111
1070;7240940000;7146822222;7646822222
1075;7240964000;7146822222;7646822222
1076;7240966000;7146822222;7646822222
1077;7241124000;7146866666;7646866666
1080;7241129000;7147211111;7647211111
1081;7268179000;7188488888;7688488888
1082;7268183000;7188488888;7688488888
1083;7268184000;7188488888;7688488888
1084;7268185000;7188488888;7688488888
1085;7268186000;7188488888;7688488888
1086;7268187000;7188488888;7688488888
1087;7268188000;7188488888;7688488888
1088;7272597000;7188544444;7688544444
1089;7272603000;7188811111;7688811111
1090;7272622000;7188811111;7688811111
1091;7302886000;7188811111;7688811111
1092;7306930000;7230188888;7730188888
1093;7306934000;7230188888;7730188888
1094;7306935000;7230188888;7730188888
1095;7306936000;7230188888;7730188888
1096;7306937000;7230188888;7730188888
1097;7306938000;7230188888;7730188888
1098;7306939000;7230188888;7730188888
1099;7307041000;7230233333;7730233333
1100;7307066000;7230500000;7730500000
1101;7307077000;7230500000;7730500000
1102;7307078000;7230500000;7730500000
1103;7340293000;7271833333;7771833333
1104;7340297000;7271833333;7771833333
1106;7342936000;7271833333;7771833333
1107;7342938000;7271833333;7771833333
1108;7342939000;7271833333;7771833333
1109;7342940000;7271833333;7771833333
1110;7343070000;7271877777;7771877777
1111;7344944000;7272222222;7772222222
1112;7344947000;7272222222;7772222222
1115;7477503000;7313522222;7813522222
1133;7513646000;7355522222;7855522222
1142;7555655000;7396822222;7896822222
1155;7584841000;7438822222;7938822222
1167;7616070000;7480488888;7980488888
1175;7655550000;7521855555;8021855555
1180;7691666000;7563522222;8063522222
1190;7691732000;7563855555;8063855555
1191;7715455000;7605188888;8105188888
1199;7715521000;7605511111;8105511111
1200;7715533000;7605511111;8105511111
1201;7715534000;7605511111;8105511111
1202;7751310000;7646822222;8146822222
1212;7751374000;7647211111;8147211111
1213;7779758000;7688500000;8188500000
1214;7779760000;7688500000;8188500000
1215;7779761000;7688500000;8188500000
1216;7779762000;7688500000;8188500000
1217;7779763000;7688500000;8188500000
1218;7779764000;7688500000;8188500000
1219;7779765000;7688500000;8188500000
1220;7779878000;7688544444;8188544444
1221;7779883000;7688855555;8188855555
1222;7779885000;7688855555;8188855555
1223;7779886000;7688855555;8188855555
1224;7817632000;7730188888;8230188888
1225;7817635000;7730188888;8230188888
1226;7817636000;7730188888;8230188888
1227;7817637000;7730188888;8230188888
1228;7817638000;7730188888;8230188888
1229;7817639000;7730188888;8230188888
1230;7817640000;7730188888;8230188888
1231;7817841000;7730233333;8230233333
1232;7817856000;7730544444;8230544444
1233;7817858000;7730544444;8230544444
1234;7817859000;7730544444;8230544444
1235;7845857000;7771855555;8271855555
1236;7845860000;7771855555;8271855555
1237;7845861000;7771855555;8271855555
1238;7845862000;7771855555;8271855555
1239;7845863000;7771855555;8271855555
1240;7845864000;7771855555;8271855555
1241;7845865000;7771855555;8271855555
1242;7849772000;7771900000;8271900000
1243;7849787000;7772222222;8272222222
1244;7849788000;7772222222;8272222222
1245;7849789000;7772222222;8272222222
1246;7885216000;7813488888;8313488888
1247;7885219000;7813488888;8313488888
1248;7885221000;7813488888;8313488888
1249;7885222000;7813488888;8313488888
1250;7885223000;7813488888;8313488888
1251;7885224000;7813488888;8313488888
1252;7885225000;7813488888;8313488888
1253;7885424000;7813533333;8313533333
1254;7885440000;7813811111;8313811111
1255;7885441000;7813811111;8313811111
1256;7885442000;7813811111;8313811111
1257;7977688000;7855188888;8355188888
1266;7977805000;7855522222;8355522222
1267;7977809000;7855522222;8355522222
1268;8018998000;7896855555;8396855555
1277;8019118000;7897255555;8397255555
1278;8019122000;7897255555;8397255555
1279;8058283000;7938500000;8438500000
1289;8058395000;7938855555;8438855555
1290;8099147000;7980188888;8480188888
1298;8099259000;7980500000;8480500000
1299;8099263000;7980500000;8480500000
1300;8099264000;7980500000;8480500000
1301;8135769000;8021855555;8521855555
1310;8135881000;8022244444;8522244444
1311;8135885000;8022244444;8522244444
1312;8175120000;8063522222;8563522222
1320;8175205000;8063866666;8563866666
1321;8175209000;8063866666;8563866666
1322;8175210000;8063866666;8563866666
1323;8208652000;8105188888;8605188888
1331;8208764000;8105522222;8605522222
1332;8208768000;8105522222;8605522222
1333;8208769000;8105522222;8605522222
1334;8247155000;8146844444;8646844444
1342;8247267000;8147244444;8647244444
1343;8247271000;8147244444;8647244444
1344;8247272000;8147244444;8647244444
1345;8278320000;8188488888;8688488888
1346;8278331000;8188488888;8688488888
1347;8278332000;8188488888;8688488888
1348;8278333000;8188488888;8688488888
1349;8278335000;8188488888;8688488888
1350;8278336000;8188488888;8688488888
1351;8278337000;8188488888;8688488888
1352;8281903000;8188533333;8688533333
1353;8281918000;8188822222;8688822222
1354;8281919000;8188822222;8688822222
1355;8281920000;8188822222;8688822222
1356;8311303000;8230188888;8730188888
1358;8317603000;8230188888;8730188888
1359;8317617000;8230188888;8730188888
1360;8317618000;8230188888;8730188888
1361;8317619000;8230188888;8730188888
1362;8317620000;8230188888;8730188888
1363;8317823000;8230233333;8730233333
1364;8317839000;8230511111;8730511111
1366;8317840000;8230511111;8730511111
1367;8348529000;8271855555;8771855555
1368;8348532000;8271855555;8771855555
1369;8348533000;8271855555;8771855555
1370;8348534000;8271855555;8771855555
1371;8348535000;8271855555;8771855555
1372;8348536000;8271855555;8771855555
1373;8348537000;8271855555;8771855555
1374;8350845000;8271900000;8771900000
1375;8350860000;8272244444;8772244444
1376;8350861000;8272244444;8772244444
1377;8350863000;8272244444;8772244444
1378;8387415000;8313488888;8813488888
1379;8387418000;8313488888;8813488888
1380;8387419000;8313488888;8813488888
1381;8387420000;8313488888;8813488888
1382;8387421000;8313488888;8813488888
1383;8387423000;8313488888;8813488888
1384;8387424000;8313488888;8813488888
1385;8387601000;8313533333;8813533333
1386;8387606000;8313833333;8813833333
1387;8387607000;8313833333;8813833333
1388;8387608000;8313833333;8813833333
1389;8518700000;8355166666;8855166666
1409;8554697000;8397211111;8897211111
1419;8591397000;8438822222;8938822222
1428;8633686000;8480200000;8980200000
1440;8668925000;8521866666;9021866666
1453;8668940000;8563855555;9063855555
1454;8668941000;8563855555;9063855555
1455;8728425000;8605188888;9105188888
1461;8728428000;8605188888;9105188888
1462;8734431000;8605233333;9105233333
1463;8734446000;8605522222;9105522222
1464;8734447000;8605522222;9105522222
1465;8734448000;8605522222;9105522222
1466;8764031000;8646833333;9146833333
1477;8778035000;8688500000;9188500000
1478;8778039000;8688500000;9188500000
1479;8778040000;8688500000;9188500000
1480;8778041000;8688500000;9188500000
1481;8778048000;8688500000;9188500000
1482;8778049000;8688500000;9188500000
1483;8778050000;8688500000;9188500000
1484;8795346000;8688544444;9188544444
1488;8795361000;8730188888;9230188888
1489;8795362000;8730188888;9230188888
1490;8795363000;8730188888;9230188888
1491;8795364000;8730188888;9230188888
1492;8795365000;8730188888;9230188888
1493;8795366000;8730188888;9230188888
1494;8795367000;8730188888;9230188888
1495;8824926000;8730233333;9230233333
1499;8824942000;8771855555;9271855555
1500;8824944000;8771855555;9271855555
1501;8824945000;8771855555;9271855555
1502;8824946000;8771855555;9271855555
1503;8824947000;8771855555;9271855555
1504;8824948000;8771855555;9271855555
1505;8824949000;8771855555;9271855555
1506;8857784000;8771900000;9271900000
1507;8857800000;8772222222;9272222222
1508;8857801000;8772222222;9272222222
1509;8857802000;8772222222;9272222222
1510;8890374000;8813522222;9313522222
1511;8890378000;8813522222;9313522222
1512;8890379000;8813522222;9313522222
1513;8890380000;8813522222;9313522222
1514;8890381000;8813522222;9313522222
1515;8890382000;8813522222;9313522222
1516;8890383000;8813522222;9313522222
1517;8890583000;8813566666;9313566666
1518;8890598000;8813844444;9313844444
1519;8890599000;8813844444;9313844444
1520;8890600000;8813844444;9313844444
1521;8923673000;8855188888;9355188888
1522;8923677000;8855188888;9355188888
1523;8923678000;8855188888;9355188888
1524;8923679000;8855188888;9355188888
1525;8923680000;8855188888;9355188888
1526;8923681000;8855188888;9355188888
1528;8926463000;8855233333;9355233333
1529;8926479000;8855522222;9355522222
1530;8926480000;8855522222;9355522222
1531;8926481000;8855522222;9355522222
1532;9019572000;8896833333;9396833333
1543;9060072000;8938488888;9438488888
1552;9060194000;8938833333;9438833333
1553;9060197000;8938833333;9438833333
1554;9101139000;8980188888;9480188888
1565;9138899000;9021855555;9521855555
1574;9139011000;9022255555;9522255555
1575;9139014000;9022255555;9522255555
1576;9179251000;9063522222;9563522222
1586;9179363000;9063866666;9563866666
1587;9212844000;9105188888;9605188888
1596;9212960000;9105533333;9605533333
1597;9212964000;9105533333;9605533333
1598;9252280000;9146833333;9646833333
1608;9252396000;9147233333;9647233333
1609;9285955000;9188488888;9688488888
1618;9286094000;9188833333;9688833333
1619;9286098000;9188833333;9688833333
1620;9325173000;9230188888;9730188888
1628;9325285000;9230522222;9730522222
1629;9325288000;9230522222;9730522222
1630;9325289000;9230522222;9730522222
1631;9356762000;9271822222;9771822222
1632;9356766000;9271822222;9771822222
1633;9356767000;9271822222;9771822222
1634;9356768000;9271822222;9771822222
1635;9356769000;9271822222;9771822222
1636;9356770000;9271822222;9771822222
1637;9356771000;9271822222;9771822222
1638;9360389000;9271877777;9771877777
1639;9360394000;9272222222;9772222222
1640;9360395000;9272222222;9772222222
1641;9360396000;9272222222;9772222222
1642;9392515000;9313522222;9813522222
1643;9392518000;9313522222;9813522222
1644;9392520000;9313522222;9813522222
1645;9392521000;9313522222;9813522222
1646;9392521000;9313522222;9813522222
1647;9392522000;9313522222;9813522222
1648;9392523000;9313522222;9813522222
1649;9395980000;9313566666;9813566666
1650;9395985000;9313877777;9813877777
1651;9395986000;9313877777;9813877777
1652;9395987000;9313877777;9813877777
1653;9431915000;9355188888;9855188888
1654;9431918000;9355188888;9855188888
1655;9431920000;9355188888;9855188888
1656;9431921000;9355188888;9855188888
1658;9431922000;9355188888;9855188888
1659;9431923000;9355188888;9855188888
1660;9432145000;9355233333;9855233333
1661;9432148000;9355544444;9855544444
1662;9432150000;9355544444;9855544444
1663;9432151000;9355544444;9855544444
1664;9519742000;9396822222;9896822222
1671;9519943000;9396877777;9896877777
1672;9519959000;9397222222;9897222222
1675;9561213000;9438522222;9938522222
1689;9601838000;9480188888;9980188888
1696;9601960000;9480500000;9980500000
1697;9641472000;9521822222;10021822222
1706;9641543000;9522222222;10022222222
1707;9641545000;9522222222;10022222222
1708;9677799000;9563522222;10063522222
1717;9677912000;9563888888;10063888888
1718;9677915000;9563888888;10063888888
1719;9717589000;9605188888;10105188888
1732;9751071000;9646855555;10146855555
1739;9751175000;9647266666;10147266666
1740;9751178000;9647266666;10147266666
1741;9789547000;9688500000;10188500000
1751;9789659000;9688877777;10188877777
1752;9821360000;9730188888;10230188888
1753;9821364000;9730188888;10230188888
1754;9821365000;9730188888;10230188888
1755;9821366000;9730188888;10230188888
1756;9821367000;9730188888;10230188888
1757;9821368000;9730188888;10230188888
1758;9821369000;9730188888;10230188888
1759;9825024000;9730233333;10230233333
1763;9825030000;9771822222;10271822222
1764;9825031000;9771822222;10271822222
1765;9825032000;9771822222;10271822222
1766;9825033000;9771822222;10271822222
1767;9825034000;9771822222;10271822222
1768;9825035000;9771822222;10271822222
1769;9825036000;9771822222;10271822222
1770;9858058000;9771877777;10271877777
1771;9858074000;9772233333;10272233333
1772;9858075000;9772233333;10272233333
1773;9858076000;9772233333;10272233333
1774;9892433000;9813488888;10313488888
1775;9892437000;9813488888;10313488888
1776;9892438000;9813488888;10313488888
1777;9892439000;9813488888;10313488888
1778;9892440000;9813488888;10313488888
1779;9892441000;9813488888;10313488888
1780;9892442000;9813488888;10313488888
1781;9895857000;9813544444;10313544444
1782;9895873000;9813833333;10313833333
1783;9895874000;9813833333;10313833333
1784;9895875000;9813833333;10313833333
1785;9931634000;9855188888;10355188888
1786;9931637000;9855188888;10355188888
1787;9931638000;9855188888;10355188888
1788;9931639000;9855188888;10355188888
1789;9931640000;9855188888;10355188888
1790;9931641000;9855188888;10355188888
1791;9931642000;9855188888;10355188888
1792;9978338000;9855233333;10355233333
1796;9978344000;9896822222;10396822222
1797;9978362000;9896822222;10396822222
1798;9978363000;9896822222;10396822222
1799;9978364000;9896822222;10396822222
1801;9978365000;9896822222;10396822222
1802;9978366000;9896822222;10396822222
1803;9978486000;9896877777;10396877777
1804;9978491000;9897244444;10397244444
1805;9978493000;9897244444;10397244444
1808;10061239000;9938500000;10438500000
1817;10061305000;9938855555;10438855555
1818;10102036000;9980188888;10480188888
1825;10102447000;9980233333;10480233333
1826;10102452000;9980522222;10480522222
1827;10102454000;9980522222;10480522222
1828;10102455000;9980522222;10480522222
1829;10141426000;10021855555;10521855555
1840;10180711000;10063488888;10563488888
1848;10180823000;10063811111;10563811111
1849;10180827000;10063811111;10563811111
1850;10180828000;10063811111;10563811111
1851;10221055000;10105200000;10605200000
1860;10221192000;10105522222;10605522222
1861;10221196000;10105522222;10605522222
1862;10256561000;10146822222;10646822222
1871;10256682000;10147211111;10647211111
1872;10256686000;10147211111;10647211111
1873;10296041000;10188488888;10688488888
1883;10296161000;10188800000;10688800000
1884;10328578000;10230188888;10730188888
1891;10332223000;10230233333;10730233333
1892;10332238000;10230500000;10730500000
1893;10332240000;10230500000;10730500000
1894;10332240000;10230500000;10730500000
1895;10367461000;10271822222;10771822222
1905;10436895000;10272200000;10772200000
1913;10477697000;10313544444;10813544444
1926;10477712000;10355522222;10855522222
1927;10477713000;10355522222;10855522222
1928;10553924000;10396822222;10896822222
1946;10590808000;10438544444;10938544444
1956;10590823000;10480188888;10980188888
1957;10627329000;10480233333;10980233333
1967;10627344000;10521822222;11021822222
1968;10657327000;10521877777;11021877777
1972;10657335000;10563488888;11063488888
1973;10657346000;10563488888;11063488888
1974;10657347000;10563488888;11063488888
1975;10657348000;10563488888;11063488888
1976;10657349000;10563488888;11063488888
1977;10657351000;10563488888;11063488888
1978;10657352000;10563488888;11063488888
1979;10673119000;10563533333;11063533333
1983;10673135000;10605188888;11105188888
1984;10673136000;10605188888;11105188888
1985;10677848000;10605188888;11105188888
1986;10677851000;10605188888;11105188888
1987;10677852000;10605188888;11105188888
1988;10677862000;10605188888;11105188888
1989;10677863000;10605188888;11105188888
1990;10718551000;10605244444;11105244444
1994;10718567000;10646855555;11146855555
1995;10718568000;10646855555;11146855555
1996;10718569000;10646855555;11146855555
1997;10718570000;10646855555;11146855555
1998;10718571000;10646855555;11146855555
1999;10718572000;10646855555;11146855555
2000;10718573000;10646855555;11146855555
2001;10750428000;10646900000;11146900000
2004;10761676000;10647266666;11147266666
2005;10781232000;10688500000;11188500000
2006;10781235000;10688500000;11188500000
2007;10781237000;10688500000;11188500000
2008;10781238000;10688500000;11188500000
2009;10781239000;10688500000;11188500000
2010;10781240000;10688500000;11188500000
2011;10781241000;10688500000;11188500000
2012;10853255000;10688544444;11188544444
2023;10853375000;10730233333;11230233333
2024;10853381000;10730522222;11230522222
2025;10853382000;10730522222;11230522222
2026;10853383000;10730522222;11230522222
2027;10936108000;10771844444;11271844444
2046;10972068000;10813800000;11313800000
2058;11006711000;10855500000;11355500000
2068;11042903000;10897244444;11397244444
2079;11082519000;10938822222;11438822222
2088;11113499000;10980188888;11480188888
2089;11118884000;10980233333;11480233333
2102;11118899000;11022244444;11522244444
2103;11136286000;11022244444;11522244444
2104;11178040000;11063500000;11563500000
2113;11178166000;11063855555;11563855555
2114;11178169000;11063855555;11563855555
2115;11215176000;11105188888;11605188888
2125;11269690000;11105544444;11605544444
2133;11310665000;11146877777;11646877777
2145;11310680000;11188888888;11688888888
2146;11310682000;11188888888;11688888888
2147;11310683000;11188888888;11688888888
2148;11379359000;11230188888;11730188888
2166;11423479000;11271911111;11771911111
2178;11423512000;11313855555;11813855555
2179;11423514000;11313855555;11813855555
2180;11423516000;11313855555;11813855555
2181;11492401000;11355188888;11855188888
2200;11511441000;11397255555;11897255555
2202;11511444000;11397255555;11897255555
2203;11554475000;11438488888;11938488888
2211;11554587000;11438844444;11938844444
2212;11554590000;11438844444;11938844444
2213;11554591000;11438844444;11938844444
2214;11579983000;11480188888;11980188888
2223;11580134000;11480511111;11980511111
2224;11580137000;11480511111;11980511111
2225;11616259000;11521822222;12021822222
2233;11616384000;11522222222;12022222222
2235;11616386000;11522222222;12022222222
2236;11644325000;11563522222;12063522222
2237;11644328000;11563522222;12063522222
2238;11644329000;11563522222;12063522222
2239;11644330000;11563522222;12063522222
2240;11644331000;11563522222;12063522222
2241;11644332000;11563522222;12063522222
2242;11644333000;11563522222;12063522222
2243;11649157000;11563566666;12063566666
2244;11649162000;11563888888;12063888888
2247;11683313000;11605188888;12105188888
2248;11683317000;11605188888;12105188888
2249;11683318000;11605188888;12105188888
2250;11683319000;11605188888;12105188888
2251;11683320000;11605188888;12105188888
2252;11683321000;11605188888;12105188888
2253;11683322000;11605188888;12105188888
2254;11683520000;11605255555;12105255555
2255;11683535000;11605566666;12105566666
2256;11683536000;11605566666;12105566666
2257;11683537000;11605566666;12105566666
2258;11715252000;11646822222;12146822222
2262;11717812000;11646822222;12146822222
2263;11717823000;11646822222;12146822222
2264;11717824000;11646822222;12146822222
2265;11718024000;11646877777;12146877777
2266;11718040000;11647233333;12147233333
2267;11718041000;11647233333;12147233333
2268;11718042000;11647233333;12147233333
2269;11755524000;11688488888;12188488888
2270;11755527000;11688488888;12188488888
2271;11755528000;11688488888;12188488888
2272;11755529000;11688488888;12188488888
2273;11755530000;11688488888;12188488888
2275;11755531000;11688488888;12188488888
2276;11755731000;11688544444;12188544444
2277;11755746000;11688866666;12188866666
2278;11755747000;11688866666;12188866666
2279;11755748000;11688866666;12188866666
2280;11852818000;11730188888;12230188888
2288;11852926000;11730555555;12230555555
2289;11852928000;11730555555;12230555555
2290;11852929000;11730555555;12230555555
2291;11893948000;11771855555;12271855555
2302;11933751000;11813544444;12313544444
2311;11933867000;11813888888;12313888888
2312;11933871000;11813888888;12313888888
2313;11974143000;11855188888;12355188888
2323;11974254000;11855544444;12355544444
2324;12010531000;11896855555;12396855555
2331;12012593000;11896900000;12396900000
2332;12012608000;11897266666;12397266666
2333;12012610000;11897266666;12397266666
2334;12012611000;11897266666;12397266666
2335;12050382000;11938488888;12438488888
2345;12050494000;11938855555;12438855555
2346;12085023000;11980188888;12480188888
2354;12085136000;11980533333;12480533333
2355;12085140000;11980533333;12480533333
2356;12085141000;11980533333;12480533333
2357;12124148000;12021855555;12521855555
2364;12124349000;12021900000;12521900000
2365;12124364000;12022266666;12522266666
2366;12124366000;12022266666;12522266666
2367;12124367000;12022266666;12522266666
2368;12154056000;12063488888;12563488888
2369;12154059000;12063488888;12563488888
2370;12154060000;12063488888;12563488888
2371;12154061000;12063488888;12563488888
2372;12154062000;12063488888;12563488888
2373;12154063000;12063488888;12563488888
2374;12154064000;12063488888;12563488888
2375;12157777000;12063544444;12563544444
2380;12193209000;12105200000;12605200000
2381;12193223000;12105200000;12605200000
2382;12193224000;12105200000;12605200000
2383;12193225000;12105200000;12605200000
2384;12193226000;12105200000;12605200000
2385;12193227000;12105200000;12605200000
2386;12193398000;12105244444;12605244444
2387;12193403000;12105555555;12605555555
2388;12193404000;12105555555;12605555555
2389;12193405000;12105555555;12605555555
2390;12224492000;12146855555;12646855555
2391;12224495000;12146855555;12646855555
2392;12224504000;12146855555;12646855555
2393;12224505000;12146855555;12646855555
2394;12224506000;12146855555;12646855555
2395;12224507000;12146855555;12646855555
2396;12224508000;12146855555;12646855555
2397;12227923000;12146900000;12646900000
2398;12227938000;12147255555;12647255555
2399;12227939000;12147255555;12647255555
2400;12227940000;12147255555;12647255555
2401;12311568000;12188488888;12688488888
2410;12311821000;12188833333;12688833333
2411;12311824000;12188833333;12688833333
2412;12353104000;12230188888;12730188888
2422;12353231000;12230522222;12730522222
2423;12394342000;12271822222;12771822222
2433;12394426000;12272222222;12772222222
2434;12434794000;12313488888;12813488888
2445;12472886000;12355188888;12855188888
2454;12472959000;12355544444;12855544444
2455;12472961000;12355544444;12855544444
2456;12513434000;12396855555;12896855555
2468;12550475000;12438488888;12938488888
2474;12550685000;12438533333;12938533333
2475;12550691000;12438833333;12938833333
2476;12550702000;12438833333;12938833333
2477;12550703000;12438833333;12938833333
2478;12588357000;12480200000;12980200000
2487;12588468000;12480522222;12980522222
2488;12588472000;12480522222;12980522222
2489;12611573000;12521855555;13021855555
2490;12611577000;12521855555;13021855555
2491;12611578000;12521855555;13021855555
2492;12611579000;12521855555;13021855555
2493;12611580000;12521855555;13021855555
2494;12611581000;12521855555;13021855555
2495;12611582000;12521855555;13021855555
2496;12623336000;12521900000;13021900000
2500;12623351000;12563522222;13063522222
2501;12623353000;12563522222;13063522222
2502;12623354000;12563522222;13063522222
2503;12623355000;12563522222;13063522222
2504;12636413000;12563522222;13063522222
2505;12636415000;12563522222;13063522222
2506;12636416000;12563522222;13063522222
2507;12655549000;12563566666;13063566666
2508;12655564000;12563877777;13063877777
2509;12655565000;12563877777;13063877777
2510;12655566000;12563877777;13063877777
2511;12688996000;12605188888;13105188888
2512;12689000000;12605188888;13105188888
2513;12689001000;12605188888;13105188888
2514;12689002000;12605188888;13105188888
2515;12689003000;12605188888;13105188888
2516;12689004000;12605188888;13105188888
2517;12689005000;12605188888;13105188888
2518;12692420000;12605233333;13105233333
2519;12692436000;12605533333;13105533333
2520;12692437000;12605533333;13105533333
2521;12692438000;12605533333;13105533333
2522;12727305000;12646822222;13146822222
2523;12727308000;12646822222;13146822222
2524;12727309000;12646822222;13146822222
2525;12727310000;12646822222;13146822222
2526;12727311000;12646822222;13146822222
2527;12727312000;12646822222;13146822222
2528;12727313000;12646822222;13146822222
2529;12727508000;12646877777;13146877777
2530;12727513000;12647233333;13147233333
2531;12727514000;12647233333;13147233333
2532;12727515000;12647233333;13147233333
2533;12760936000;12688488888;13188488888
2534;12760939000;12688488888;13188488888
2535;12760940000;12688488888;13188488888
2536;12760941000;12688488888;13188488888
2537;12760942000;12688488888;13188488888
2538;12760943000;12688488888;13188488888
2539;12760944000;12688488888;13188488888
2540;12763728000;12688533333;13188533333
2541;12763743000;12688855555;13188855555
2542;12763745000;12688855555;13188855555
2543;12763746000;12688855555;13188855555
2544;12852903000;12730188888;13230188888
2555;12893126000;12771822222;13271822222
2565;12893242000;12772211111;13272211111
2566;12934511000;12813522222;13313522222
2576;12934627000;12813855555;13313855555
2577;12972348000;12855188888;13355188888
2586;12972464000;12855533333;13355533333
2587;12972468000;12855533333;13355533333
2588;13012211000;12896855555;13396855555
2598;13012327000;12897266666;13397266666
2599;13047374000;12938488888;13438488888
2607;13047512000;12938844444;13438844444
2608;13047516000;12938844444;13438844444
2609;13047517000;12938844444;13438844444
2610;13086809000;12980188888;13480188888
2619;13086926000;12980522222;13480522222
2620;13086929000;12980522222;13480522222
2621;13119299000;13021855555;13521855555
2630;13119411000;13022255555;13522255555
2631;13119421000;13022255555;13522255555
2632;13158288000;13063488888;13563488888
2640;13158404000;13063811111;13563811111
2641;13158408000;13063811111;13563811111
2642;13158409000;13063811111;13563811111
2643;13188569000;13105188888;13605188888
2644;13188573000;13105188888;13605188888
2645;13188574000;13105188888;13605188888
2646;13188575000;13105188888;13605188888
2647;13188576000;13105188888;13605188888
2648;13188577000;13105188888;13605188888
2649;13188578000;13105188888;13605188888
2650;13191986000;13105233333;13605233333
2651;13192001000;13105511111;13605511111
2652;13192003000;13105511111;13605511111
2653;13192004000;13105511111;13605511111
2654;13227814000;13146822222;13646822222
2655;13227817000;13146822222;13646822222
2656;13227819000;13146822222;13646822222
2657;13227820000;13146822222;13646822222
2658;13227821000;13146822222;13646822222
2660;13227822000;13146822222;13646822222
2661;13228035000;13146866666;13646866666
2662;13228038000;13147211111;13647211111
2663;13228040000;13147211111;13647211111
2664;13228041000;13147211111;13647211111
2665;13261034000;13188522222;13688522222
2666;13261037000;13188522222;13688522222
2667;13261038000;13188522222;13688522222
2668;13261039000;13188522222;13688522222
2669;13261041000;13188522222;13688522222
2670;13261042000;13188522222;13688522222
2671;13261049000;13188522222;13688522222
2672;13263955000;13188566666;13688566666
2673;13263971000;13188833333;13688833333
2674;13263972000;13188833333;13688833333
2675;13263973000;13188833333;13688833333
2676;13353410000;13230188888;13730188888
2686;13353522000;13230500000;13730500000
2687;13394128000;13271833333;13771833333
2697;13394231000;13272222222;13772222222
2698;13435012000;13313500000;13813500000
2708;13435124000;13313822222;13813822222
2709;13472920000;13355188888;13855188888
2718;13472985000;13355533333;13855533333
2719;13472997000;13355533333;13855533333
2720;13513162000;13396822222;13896822222
2730;13513227000;13397200000;13897200000
2731;13548126000;13438500000;13938500000
2739;13548193000;13438822222;13938822222
2740;13548205000;13438822222;13938822222
2741;13548206000;13438822222;13938822222
2742;13587635000;13480188888;13980188888
2750;13587700000;13480488888;13980488888
2751;13587712000;13480488888;13980488888
2752;13587713000;13480488888;13980488888
2753;13619909000;13521822222;14021822222
2761;13619972000;13522188888;14022188888
2762;13619974000;13522188888;14022188888
2763;13619976000;13522188888;14022188888
2764;13659013000;13563522222;14063522222
2771;13659166000;13563566666;14063566666
2772;13659172000;13563855555;14063855555
2773;13659173000;13563855555;14063855555
2774;13659174000;13563855555;14063855555
2775;13690060000;13605311111;14105311111
2776;13690064000;13605311111;14105311111
2777;13690065000;13605311111;14105311111
2778;13690066000;13605311111;14105311111
2779;13690067000;13605311111;14105311111
2780;13690068000;13605311111;14105311111
2781;13690069000;13605311111;14105311111
2782;13692516000;13605366666;14105366666
2784;13692522000;13605633333;14105633333
2786;13727189000;13646822222;14146822222
2787;13727192000;13646822222;14146822222
2788;13727194000;13646822222;14146822222
2789;13727195000;13646822222;14146822222
2790;13727196000;13646822222;14146822222
2791;13727197000;13646822222;14146822222
2792;13727198000;13646822222;14146822222
2793;13727320000;13646877777;14146877777
2794;13727325000;13647211111;14147211111
2795;13727327000;13647211111;14147211111
2796;13727328000;13647211111;14147211111
2798;13765458000;13688500000;14188500000
2799;13765461000;13688500000;14188500000
2800;13765462000;13688500000;14188500000
2801;13765463000;13688500000;14188500000
2802;13765464000;13688500000;14188500000
2803;13765465000;13688500000;14188500000
2804;13765537000;13688544444;14188544444
2805;13765543000;13688855555;14188855555
2806;13765544000;13688855555;14188855555
2807;13765545000;13688855555;14188855555
2808;13894650000;13730400000;14230400000
2828;13931660000;13772222222;14272222222
2840;13968563000;13813844444;14313844444
2850;14002313000;13855511111;14355511111
2860;14032882000;13897466666;14397466666
2869;14066843000;13938488888;14438488888
2872;14066955000;13938822222;14438822222
2873;14066959000;13938822222;14438822222
2874;14104678000;13980188888;14480188888
2884;14104765000;13980500000;14480500000
2885;14130767000;14021822222;14521822222
2892;14136637000;14021866666;14521866666
2893;14136652000;14022211111;14522211111
2894;14136654000;14022211111;14522211111
2895;14136655000;14022211111;14522211111
2896;14166745000;14063488888;14563488888
2906;14166861000;14063811111;14563811111
2907;14183904000;14105288888;14605288888
2908;14183907000;14105288888;14605288888
2909;14183908000;14105288888;14605288888
2910;14183909000;14105288888;14605288888
2911;14183910000;14105288888;14605288888
2912;14183911000;14105288888;14605288888
2913;14183912000;14105288888;14605288888
2914;14197939000;14105333333;14605333333
2915;14197955000;14105600000;14605600000
2916;14197956000;14105600000;14605600000
2917;14197957000;14105600000;14605600000
2918;14231127000;14146822222;14646822222
2919;14231130000;14146822222;14646822222
2920;14231131000;14146822222;14646822222
2921;14231133000;14146822222;14646822222
2922;14231134000;14146822222;14646822222
2923;14231135000;14146822222;14646822222
2924;14231136000;14146822222;14646822222
2925;14231327000;14146866666;14646866666
2926;14231333000;14147200000;14647200000
2927;14231334000;14147200000;14647200000
2928;14231335000;14147200000;14647200000
2929;14261048000;14188488888;14688488888
2930;14261051000;14188488888;14688488888
2931;14261052000;14188488888;14688488888
2932;14261053000;14188488888;14688488888
2933;14261054000;14188488888;14688488888
2934;14261435000;14188488888;14688488888
2935;14261438000;14188488888;14688488888
2936;14264463000;14188544444;14688544444
2937;14264479000;14188800000;14688800000
2938;14264480000;14188800000;14688800000
2939;14264481000;14188800000;14688800000
2940;14300793000;14230188888;14730188888
2941;14300796000;14230188888;14730188888
2942;14300797000;14230188888;14730188888
2943;14300799000;14230188888;14730188888
2944;14300800000;14230188888;14730188888
2946;14300801000;14230188888;14730188888
2947;14301000000;14230233333;14730233333
2948;14301015000;14230488888;14730488888
2949;14301017000;14230488888;14730488888
2950;14301017000;14230488888;14730488888
2951;14394607000;14271855555;14771855555
2960;14394673000;14272222222;14772222222
2961;14394676000;14272222222;14772222222
2962;14435334000;14313588888;14813588888
2971;14435400000;14313900000;14813900000
2972;14435412000;14313900000;14813900000
2973;14475150000;14355188888;14855188888
2981;14475217000;14355511111;14855511111
2982;14475220000;14355511111;14855511111
2983;14475231000;14355511111;14855511111
2984;14515863000;14396822222;14896822222
2995;14546912000;14438500000;14938500000
3003;14549783000;14438822222;14938822222
3004;14549787000;14438822222;14938822222
3005;14549788000;14438822222;14938822222
3006;14591928000;14480200000;14980200000
3015;14592025000;14480500000;14980500000
3016;14592029000;14480500000;14980500000
3017;14624884000;14521855555;15021855555
3026;14624996000;14522222222;15022222222
3027;14624999000;14522222222;15022222222
3028;14663349000;14563522222;15063522222
3038;14663462000;14563844444;15063844444
3039;14694795000;14605188888;15105188888
3040;14694798000;14605188888;15105188888
3041;14694799000;14605188888;15105188888
3042;14694800000;14605188888;15105188888
3043;14694801000;14605188888;15105188888
3044;14694802000;14605188888;15105188888
3045;14694803000;14605188888;15105188888
3046;14698267000;14605233333;15105233333
3047;14698282000;14605500000;15105500000
3048;14698283000;14605500000;15105500000
3049;14698284000;14605500000;15105500000
3050;14733097000;14646833333;15146833333
3051;14733100000;14646833333;15146833333
3052;14733101000;14646833333;15146833333
3053;14733103000;14646833333;15146833333
3054;14733104000;14646833333;15146833333
3055;14733104000;14646833333;15146833333
3056;14733105000;14646833333;15146833333
3057;14733304000;14646888888;15146888888
3058;14733319000;14647211111;15147211111
3060;14733321000;14647211111;15147211111
3061;14766579000;14688488888;15188488888
3062;14766582000;14688488888;15188488888
3063;14766583000;14688488888;15188488888
3064;14766584000;14688488888;15188488888
3065;14766585000;14688488888;15188488888
3066;14766586000;14688488888;15188488888
3067;14766587000;14688488888;15188488888
3068;14769002000;14688544444;15188544444
3069;14769017000;14688822222;15188822222
3070;14769019000;14688822222;15188822222
3071;14769020000;14688822222;15188822222
3072;14806080000;14730188888;15230188888
3073;14806084000;14730188888;15230188888
3074;14806085000;14730188888;15230188888
3075;14806086000;14730188888;15230188888
3076;14806087000;14730188888;15230188888
3077;14806088000;14730188888;15230188888
3078;14806098000;14730188888;15230188888
3079;14806296000;14730233333;15230233333
3082;14823987000;14730511111;15230511111
3083;14935242000;14771855555;15271855555
3103;14972824000;14813800000;15313800000
3114;15011347000;14855500000;15355500000
3125;15041673000;14897266666;15397266666
3133;15081242000;14938488888;15438488888
3144;15118232000;14980311111;15480311111
3156;15133828000;15021866666;15521866666
3157;15133843000;15022200000;15522200000
3158;15133845000;15022200000;15522200000
3159;15133846000;15022200000;15522200000
3160;15183708000;15063488888;15563488888
3170;15183820000;15063822222;15563822222
3171;15205245000;15105211111;15605211111
3181;15205361000;15105533333;15605533333
3182;15242792000;15146855555;15646855555
3192;15242928000;15147244444;15647244444
3193;15271366000;15188488888;15688488888
3194;15271370000;15188488888;15688488888
3195;15271371000;15188488888;15688488888
3196;15271372000;15188488888;15688488888
3197;15271373000;15188488888;15688488888
3198;15271374000;15188488888;15688488888
3199;15271375000;15188488888;15688488888
3200;15276726000;15188533333;15688533333
3201;15276741000;15188811111;15688811111
3202;15276742000;15188811111;15688811111
3203;15276743000;15188811111;15688811111
3204;15308616000;15230188888;15730188888
3205;15308619000;15230188888;15730188888
3206;15308621000;15230188888;15730188888
3207;15308622000;15230188888;15730188888
3208;15308623000;15230188888;15730188888
3209;15308624000;15230188888;15730188888
3210;15308625000;15230188888;15730188888
3211;15308830000;15230233333;15730233333
3212;15308846000;15230500000;15730500000
3213;15308847000;15230500000;15730500000
3214;15308848000;15230500000;15730500000
3215;15341116000;15271822222;15771822222
3216;15341120000;15271822222;15771822222
3217;15341121000;15271822222;15771822222
3218;15341122000;15271822222;15771822222
3219;15341123000;15271822222;15771822222
3220;15341124000;15271822222;15771822222
3221;15341125000;15271822222;15771822222
3222;15343949000;15271877777;15771877777
3223;15343964000;15272200000;15772200000
3224;15344846000;15272200000;15772200000
3225;15344848000;15272200000;15772200000
3226;15436644000;15313488888;15813488888
3236;15436755000;15313811111;15813811111
3237;15477779000;15355188888;15855188888
3246;15477890000;15355522222;15855522222
3247;15477894000;15355522222;15855522222
3248;15519106000;15396988888;15896988888
3258;15519195000;15397355555;15897355555
3259;15558978000;15438533333;15938533333
3267;15559114000;15439011111;15939011111
3268;15559117000;15439011111;15939011111
3269;15559127000;15439011111;15939011111
3270;15599364000;15480188888;15980188888
3281;15636831000;15521822222;16021822222
3291;15636922000;15522200000;16022200000
3292;15676749000;15563522222;16063522222
3302;15676808000;15563855555;16063855555
3303;15709459000;15605188888;16105188888
3311;15709560000;15605511111;16105511111
3312;15709562000;15605511111;16105511111
3313;15709563000;15605511111;16105511111
3314;15747717000;15646855555;16146855555
3324;15747789000;15647244444;16147244444
3325;15779563000;15688533333;16188533333
3326;15779565000;15688533333;16188533333
3327;15779566000;15688533333;16188533333
3328;15779567000;15688533333;16188533333
3329;15779578000;15688533333;16188533333
3330;15779579000;15688533333;16188533333
3331;15779580000;15688533333;16188533333
3332;15783342000;15688577777;16188577777
3336;15783348000;15730188888;16230188888
3337;15783366000;15730188888;16230188888
3338;15783367000;15730188888;16230188888
3339;15783368000;15730188888;16230188888
3340;15783369000;15730188888;16230188888
3341;15783370000;15730188888;16230188888
3342;15783371000;15730188888;16230188888
3343;15816284000;15730233333;16230233333
3344;15816289000;15730522222;16230522222
3345;15816291000;15730522222;16230522222
3346;15816292000;15730522222;16230522222
3347;15853251000;15771833333;16271833333
3348;15853263000;15771833333;16271833333
3349;15853264000;15771833333;16271833333
3350;15853266000;15771833333;16271833333
3351;15853267000;15771833333;16271833333
3352;15853268000;15771833333;16271833333
3353;15853269000;15771833333;16271833333
3354;15853485000;15771877777;16271877777
3355;15853488000;15772188888;16272188888
3356;15853490000;15772188888;16272188888
3357;15853491000;15772188888;16272188888
3358;15891494000;15813522222;16313522222
3359;15891498000;15813522222;16313522222
3360;15891499000;15813522222;16313522222
3361;15891500000;15813522222;16313522222
3362;15891501000;15813522222;16313522222
3363;15891502000;15813522222;16313522222
3364;15891503000;15813522222;16313522222
3365;15891692000;15813566666;16313566666
3366;15891696000;15813833333;16313833333
3367;15891697000;15813833333;16313833333
3368;15891698000;15813833333;16313833333
3369;15923986000;15855188888;16355188888
3370;15923990000;15855188888;16355188888
3371;15923991000;15855188888;16355188888
3372;15924001000;15855188888;16355188888
3373;15924002000;15855188888;16355188888
3374;15924003000;15855188888;16355188888
3375;15924004000;15855188888;16355188888
3376;15926394000;15855233333;16355233333
3377;15926399000;15855511111;16355511111
3378;15926400000;15855511111;16355511111
3379;15926401000;15855511111;16355511111
3380;15963228000;15896855555;16396855555
3381;15963232000;15896855555;16396855555
3382;15963233000;15896855555;16396855555
3383;15963234000;15896855555;16396855555
3384;15963235000;15896855555;16396855555
3385;15963236000;15896855555;16396855555
3386;15963237000;15896855555;16396855555
3388;15963351000;15897244444;16397244444
3389;15963354000;15897244444;16397244444
3390;15963355000;15897244444;16397244444
3391;16003765000;15938488888;16438488888
3392;16003769000;15938488888;16438488888
3393;16003770000;15938488888;16438488888
3394;16003771000;15938488888;16438488888
3395;16003772000;15938488888;16438488888
3396;16003773000;15938488888;16438488888
3397;16003774000;15938488888;16438488888
3398;16003859000;15938533333;16438533333
3399;16003863000;15938822222;16438822222
3400;16003864000;15938822222;16438822222
3401;16003865000;15938822222;16438822222
3402;16102799000;15980188888;16480188888
3412;16102915000;15980500000;16480500000
3413;16144151000;16021855555;16521855555
3422;16144264000;16022244444;16522244444
3423;16144267000;16022244444;16522244444
3424;16183889000;16063533333;16563533333
3434;16184001000;16063877777;16563877777
3435;16218621000;16105488888;16605488888
3444;16220228000;16105833333;16605833333
3445;16220232000;16105833333;16605833333
3446;16260601000;16146855555;16646855555
3455;16260696000;16147255555;16647255555
3456;16260699000;16147255555;16647255555
3457;16299852000;16188522222;16688522222
3467;16299953000;16188844444;16688844444
3468;16334462000;16230188888;16730188888
3477;16334506000;16230511111;16730511111
3478;16334508000;16230511111;16730511111
3479;16372664000;16271833333;16771833333
3489;16372741000;16272244444;16772244444
3490;16404586000;16313488888;16813488888
3491;16404589000;16313488888;16813488888
3492;16404590000;16313488888;16813488888
3493;16404591000;16313488888;16813488888
3494;16404592000;16313488888;16813488888
3495;16404593000;16313488888;16813488888
3496;16404594000;16313488888;16813488888
3497;16408340000;16313533333;16813533333
3501;16408343000;16355188888;16855188888
3502;16408344000;16355188888;16855188888
3503;16408345000;16355188888;16855188888
3504;16408346000;16355188888;16855188888
3505;16408347000;16355188888;16855188888
3506;16408348000;16355188888;16855188888
3507;16408349000;16355188888;16855188888
3508;16441298000;16355233333;16855233333
3509;16441323000;16355533333;16855533333
3510;16441325000;16355533333;16855533333
3511;16441327000;16355533333;16855533333
3512;16475833000;16396822222;16896822222
3513;16475837000;16396822222;16896822222
3514;16475838000;16396822222;16896822222
3515;16475839000;16396822222;16896822222
3516;16475840000;16396822222;16896822222
3517;16475841000;16396822222;16896822222
3518;16475842000;16396822222;16896822222
3519;16479229000;16396877777;16896877777
3520;16479234000;16397211111;16897211111
3521;16479235000;16397211111;16897211111
3522;16479236000;16397211111;16897211111
3523;16514422000;16438522222;16938522222
3524;16514426000;16438522222;16938522222
3525;16514427000;16438522222;16938522222
3526;16514428000;16438522222;16938522222
3527;16514429000;16438522222;16938522222
3528;16514430000;16438522222;16938522222
3529;16514431000;16438522222;16938522222
3530;16514640000;16438566666;16938566666
3531;16514643000;16438855555;16938855555
3532;16514644000;16438855555;16938855555
3534;16551231000;16480166666;16980166666
3536;16551234000;16480166666;16980166666
3538;16551235000;16480166666;16980166666
3539;16551237000;16480166666;16980166666
3540;16551238000;16480166666;16980166666
3541;16551340000;16480211111;16980211111
3542;16551356000;16480488888;16980488888
3543;16551357000;16480488888;16980488888
3544;16551358000;16480488888;16980488888
3545;16589067000;16521822222;17021822222
3546;16589071000;16521822222;17021822222
3547;16589072000;16521822222;17021822222
3548;16589073000;16521822222;17021822222
3549;16589074000;16521822222;17021822222
3550;16589075000;16521822222;17021822222
3551;16589076000;16521822222;17021822222
3552;16589193000;16521866666;17021866666
3553;16589198000;16522200000;17022200000
3554;16589199000;16522200000;17022200000
3555;16589200000;16522200000;17022200000
3556;16723675000;16563488888;17063488888
3575;16764704000;16605511111;17105511111
3586;16799903000;16647466666;17147466666
3597;16839727000;16688844444;17188844444
3608;16866583000;16730533333;17230533333
3619;16899946000;16772222222;17272222222
3620;16899950000;16772222222;17272222222
3621;16899951000;16772222222;17272222222
3622;16933378000;16813488888;17313488888
3629;16939049000;16813533333;17313533333
3630;16939063000;16813833333;17313833333
3631;16939064000;16813833333;17313833333
3632;16939065000;16813833333;17313833333
3633;16970750000;16855188888;17355188888
3644;17006175000;16896855555;17396855555
3651;17061013000;16896900000;17396900000
3665;17061018000;16938844444;17438844444
3666;17142873000;16980188888;17480188888
3686;17178172000;17022233333;17522233333
3696;17215852000;17063944444;17563944444
3707;17255772000;17105500000;17605500000
3717;17293205000;17146866666;17646866666
3730;17293211000;17188800000;17688800000
3731;17293213000;17188800000;17688800000
3732;17352887000;17230188888;17730188888
3741;17353190000;17230500000;17730500000
3742;17353193000;17230500000;17730500000
3743;17388744000;17271822222;17771822222
3753;17388861000;17272200000;17772200000
3754;17412707000;17313522222;17813522222
3762;17412777000;17313866666;17813866666
3763;17412779000;17313866666;17813866666
3764;17412780000;17313866666;17813866666
3765;17450399000;17355188888;17855188888
3775;17450507000;17355522222;17855522222
3776;17479343000;17396822222;17896822222
3777;17479347000;17396822222;17896822222
3778;17479348000;17396822222;17896822222
3779;17479349000;17396822222;17896822222
3780;17479350000;17396822222;17896822222
3781;17479352000;17396822222;17896822222
3782;17479353000;17396822222;17896822222
3783;17484601000;17396877777;17896877777
3784;17484606000;17397200000;17897200000
3785;17484607000;17397200000;17897200000
3786;17484608000;17397200000;17897200000
3787;17516483000;17438522222;17938522222
3788;17516487000;17438522222;17938522222
3789;17516489000;17438522222;17938522222
3790;17516490000;17438522222;17938522222
3791;17516491000;17438522222;17938522222
3792;17516492000;17438522222;17938522222
3793;17516493000;17438522222;17938522222
3794;17516688000;17438566666;17938566666
3795;17516691000;17438844444;17938844444
3796;17516693000;17438844444;17938844444
3797;17516711000;17438844444;17938844444
3798;17550007000;17480188888;17980188888
3799;17550009000;17480188888;17980188888
3800;17550010000;17480188888;17980188888
3802;17552061000;17480188888;17980188888
3803;17552063000;17480188888;17980188888
3804;17552063000;17480188888;17980188888
3805;17552255000;17480233333;17980233333
3806;17552259000;17480477777;17980477777
3807;17552260000;17480477777;17980477777
3808;17552261000;17480477777;17980477777
3809;17645404000;17522055555;18022055555
3819;17645476000;17522411111;18022411111
3820;17685697000;17563522222;18063522222
3829;17685765000;17563844444;18063844444
3830;17685777000;17563844444;18063844444
3831;17726726000;17605311111;18105311111
3841;17726866000;17605633333;18105633333
3842;17764717000;17646822222;18146822222
3848;17764720000;17646822222;18146822222
3849;17766196000;17646877777;18146877777
3850;17766211000;17647200000;18147200000
3851;17766212000;17647200000;18147200000
3852;17766213000;17647200000;18147200000
3853;17804895000;17688522222;18188522222
3865;17842634000;17730188888;18230188888
3872;17842750000;17730522222;18230522222
3873;17842753000;17730522222;18230522222
3874;17842754000;17730522222;18230522222
3875;17880155000;17771855555;18271855555
3885;17936958000;17772211111;18272211111
3891;17978027000;17813877777;18313877777
3906;18013856000;17855500000;18355500000
3915;18055895000;17896877777;18396877777
3927;18055910000;17938822222;18438822222
3928;18055912000;17938822222;18438822222
3929;18055913000;17938822222;18438822222
3930;18123033000;17980188888;18480188888
3948;18157645000;18021900000;18521900000
3956;18157652000;18063577777;18563577777
3957;18157653000;18063577777;18563577777
3958;18157655000;18063577777;18563577777
3959;18174117000;18063622222;18563622222
3963;18174132000;18105200000;18605200000
3964;18174133000;18105200000;18605200000
3965;18174134000;18105200000;18605200000
3966;18174135000;18105200000;18605200000
3967;18178216000;18105200000;18605200000
3968;18178229000;18105200000;18605200000
3969;18178230000;18105200000;18605200000
3970;18219598000;18105244444;18605244444
3974;18219604000;18146855555;18646855555
3975;18219606000;18146855555;18646855555
3976;18219607000;18146855555;18646855555
3977;18219618000;18146855555;18646855555
3978;18219619000;18146855555;18646855555
3979;18219621000;18146855555;18646855555
3980;18219622000;18146855555;18646855555
3981;18251661000;18146900000;18646900000
3985;18251677000;18188522222;18688522222
3986;18251678000;18188522222;18688522222
3987;18251679000;18188522222;18688522222
3988;18251680000;18188522222;18688522222
3989;18251681000;18188522222;18688522222
3990;18251682000;18188522222;18688522222
3991;18251683000;18188522222;18688522222
3992;18268963000;18188566666;18688566666
3993;18268979000;18188833333;18688833333
3994;18268980000;18188833333;18688833333
3995;18268981000;18188833333;18688833333
3996;18311698000;18230188888;18730188888
3997;18311702000;18230188888;18730188888
3998;18311703000;18230188888;18730188888
3999;18311704000;18230188888;18730188888
4000;18311705000;18230188888;18730188888
4001;18311706000;18230188888;18730188888
4002;18311707000;18230188888;18730188888
4003;18316691000;18230233333;18730233333
4004;18316707000;18230500000;18730500000
4005;18316708000;18230500000;18730500000
4006;18316709000;18230500000;18730500000
4007;18349341000;18272011111;18772011111
4008;18349345000;18272011111;18772011111
4009;18349346000;18272011111;18772011111
4010;18349347000;18272011111;18772011111
4011;18349348000;18272011111;18772011111
4012;18349349000;18272011111;18772011111
4013;18349350000;18272011111;18772011111
4014;18349556000;18272055555;18772055555
4015;18349572000;18272400000;18772400000
4016;18349573000;18272400000;18772400000
4017;18349574000;18272400000;18772400000
4018;18437450000;18313700000;18813700000
4025;18437647000;18313755555;18813755555
4026;18437651000;18314033333;18814033333
4027;18437652000;18314033333;18814033333
4028;18437653000;18314033333;18814033333
4029;18478195000;18355188888;18855188888
4040;18517834000;18396822222;18896822222
4049;18517930000;18397200000;18897200000
4050;18517952000;18397200000;18897200000
4051;18558532000;18438500000;18938500000
4061;18558641000;18438822222;18938822222
4062;18594934000;18480455555;18980455555
4071;18595059000;18480766666;18980766666
4073;18630152000;18521833333;19021833333
4082;18630268000;18522211111;19022211111
4083;18630272000;18522211111;19022211111
4084;18665945000;18563522222;19063522222
4093;18666069000;18563866666;19063866666
4094;18666083000;18563866666;19063866666
4095;18704482000;18605188888;19105188888
4103;18704598000;18605511111;19105511111
4104;18704602000;18605511111;19105511111
4105;18704603000;18605511111;19105511111
4106;18735742000;18646855555;19146855555
4107;18735745000;18646855555;19146855555
4108;18735746000;18646855555;19146855555
4109;18735747000;18646855555;19146855555
4110;18735749000;18646855555;19146855555
4111;18735750000;18646855555;19146855555
4112;18735751000;18646855555;19146855555
4113;18739162000;18646900000;19146900000
4114;18739178000;18647255555;19147255555
4115;18739179000;18647255555;19147255555
4116;18739180000;18647255555;19147255555
4117;18771597000;18688500000;19188500000
4118;18771601000;18688500000;19188500000
4119;18771602000;18688500000;19188500000
4120;18771603000;18688500000;19188500000
4122;18774893000;18688500000;19188500000
4123;18774894000;18688500000;19188500000
4124;18775139000;18688544444;19188544444
4125;18775154000;18688833333;19188833333
4126;18775155000;18688833333;19188833333
4127;18775156000;18688833333;19188833333
4128;18810768000;18730188888;19230188888
4129;18810771000;18730188888;19230188888
4130;18810772000;18730188888;19230188888
4131;18810773000;18730188888;19230188888
4132;18810774000;18730188888;19230188888
4133;18810775000;18730188888;19230188888
4134;18810776000;18730188888;19230188888
4135;18810991000;18730233333;19230233333
4136;18810994000;18730522222;19230522222
4137;18810995000;18730522222;19230522222
4138;18810996000;18730522222;19230522222
4139;18844151000;18771822222;19271822222
4140;18844155000;18771822222;19271822222
4141;18844156000;18771822222;19271822222
4142;18844157000;18771822222;19271822222
4143;18844158000;18771822222;19271822222
4144;18844159000;18771822222;19271822222
4145;18844160000;18771822222;19271822222
4146;18847018000;18771866666;19271866666
4147;18847034000;18772188888;19272188888
4148;18847035000;18772188888;19272188888
4149;18847036000;18772188888;19272188888
4150;18936967000;18813488888;19313488888
4151;18936970000;18813488888;19313488888
4152;18936972000;18813488888;19313488888
4153;18936973000;18813488888;19313488888
4154;18936974000;18813488888;19313488888
4155;18936975000;18813488888;19313488888
4156;18936976000;18813488888;19313488888
4157;18937190000;18813533333;19313533333
4158;18937206000;18813811111;19313811111
4208;19949763000;19021833333;19521833333
4319;20098013000;19438500000;19938500000
4460;20342407000;19980188888;20480188888
4508;20344771000;20146822222;20646822222
4509;20344922000;20146877777;20646877777
4511;20344938000;20147188888;20647188888
4512;20344939000;20147188888;20647188888
4513;20344950000;20188488888;20688488888
4514;20344951000;20188488888;20688488888
4515;20344962000;20188488888;20688488888
4516;20344963000;20188488888;20688488888
4517;20344964000;20188488888;20688488888
4518;20344966000;20188488888;20688488888
4519;20344966000;20188488888;20688488888
4520;20345101000;20188544444;20688544444
4521;20345107000;20188811111;20688811111
4522;20345108000;20188811111;20688811111
4523;20345119000;20188811111;20688811111
4524;20345130000;20230188888;20730188888
4525;20345142000;20230188888;20730188888
4526;20345143000;20230188888;20730188888
4527;20345144000;20230188888;20730188888
4528;20345145000;20230188888;20730188888
4529;20345146000;20230188888;20730188888
4530;20345147000;20230188888;20730188888
4531;20345249000;20230233333;20730233333
4532;20345264000;20230488888;20730488888
4533;20345265000;20230488888;20730488888
4534;20345266000;20230488888;20730488888
4535;20353648000;20271822222;20771822222
4536;20353651000;20271822222;20771822222
4538;20358817000;20271822222;20771822222
4539;20358818000;20271822222;20771822222
4540;20358827000;20271822222;20771822222
4541;20358828000;20271822222;20771822222
4542;20395026000;20271877777;20771877777
4547;20395049000;20313488888;20813488888
4548;20395051000;20313488888;20813488888
4549;20395052000;20313488888;20813488888
4550;20395053000;20313488888;20813488888
4551;20395054000;20313488888;20813488888
4552;20395055000;20313488888;20813488888
4553;20395262000;20313544444;20813544444
4554;20395278000;20313811111;20813811111
4555;20395279000;20313811111;20813811111
4556;20395280000;20313811111;20813811111
4557;20477845000;20355211111;20855211111
4568;20519161000;20396855555;20896855555
4579;20558722000;20438522222;20938522222
4588;20558834000;20438833333;20938833333
4589;20558837000;20438833333;20938833333
4590;20599602000;20480188888;20980188888
4600;20599714000;20480477777;20980477777
4601;20635731000;20521833333;21021833333
4609;20635843000;20522188888;21022188888
4610;20635847000;20522188888;21022188888
4611;20635848000;20522188888;21022188888
4612;20676463000;20563522222;21063522222
4622;20676589000;20563833333;21063833333
4623;20709293000;20605222222;21105222222
4633;20709391000;20605533333;21105533333
4634;20748253000;20646855555;21146855555
4644;20748331000;20647222222;21147222222
4645;20779282000;20688488888;21188488888
4646;20779285000;20688488888;21188488888
4647;20779287000;20688488888;21188488888
4648;20779288000;20688488888;21188488888
4649;20779289000;20688488888;21188488888
4650;20779290000;20688488888;21188488888
4651;20779291000;20688488888;21188488888
4652;20782919000;20688533333;21188533333
4656;20782926000;20730188888;21230188888
4657;20782927000;20730188888;21230188888
4658;20782928000;20730188888;21230188888
4659;20782929000;20730188888;21230188888
4660;20782930000;20730188888;21230188888
4661;20782931000;20730188888;21230188888
4662;20782932000;20730188888;21230188888
4663;20816107000;20730233333;21230233333
4664;20816122000;20730511111;21230511111
4665;20816124000;20730511111;21230511111
4666;20816125000;20730511111;21230511111
4667;20850370000;20771822222;21271822222
4668;20850373000;20771822222;21271822222
4669;20850375000;20771822222;21271822222
4670;20850376000;20771822222;21271822222
4671;20850377000;20771822222;21271822222
4672;20850378000;20771822222;21271822222
4673;20850379000;20771822222;21271822222
4674;20853831000;20771866666;21271866666
4675;20853846000;20772166666;21272166666
4676;20853848000;20772166666;21272166666
4677;20853849000;20772166666;21272166666
4678;20889768000;20813544444;21313544444
4679;20889772000;20813544444;21313544444
4680;20889773000;20813544444;21313544444
4681;20889774000;20813544444;21313544444
4682;20889775000;20813544444;21313544444
4683;20889776000;20813544444;21313544444
4684;20889777000;20813544444;21313544444
4685;20889994000;20813588888;21313588888
4686;20890010000;20813844444;21313844444
4687;20890011000;20813844444;21313844444
4688;20890012000;20813844444;21313844444
4689;20924153000;20855188888;21355188888
4690;20924156000;20855188888;21355188888
4691;20924157000;20855188888;21355188888
4692;20924158000;20855188888;21355188888
4693;20924159000;20855188888;21355188888
4694;20924160000;20855188888;21355188888
4695;20924161000;20855188888;21355188888
4696;20926497000;20855244444;21355244444
4697;20928036000;20855500000;21355500000
4698;20928037000;20855500000;21355500000
4699;20928039000;20855500000;21355500000
4700;21019449000;20896866666;21396866666
4709;21019561000;20897244444;21397244444
4710;21019564000;20897244444;21397244444
4711;21059586000;20938522222;21438522222
4721;21059698000;20938844444;21438844444
4722;21100729000;20980188888;21480188888
4732;21100841000;20980488888;21480488888
4733;21139015000;21021855555;21521855555
4743;21139124000;21022244444;21522244444
4744;21178845000;21063488888;21563488888
4753;21178953000;21063833333;21563833333
4754;21178955000;21063833333;21563833333
4755;21214065000;21105188888;21605188888
4763;21214183000;21105522222;21605522222
4764;21214185000;21105522222;21605522222
4765;21214186000;21105522222;21605522222
4766;21252781000;21146822222;21646822222
4775;21252890000;21147222222;21647222222
4776;21252908000;21147222222;21647222222
4777;21286433000;21188488888;21688488888
4781;21286436000;21188488888;21688488888
4782;21286437000;21188488888;21688488888
4783;21286438000;21188488888;21688488888
4784;21290021000;21188544444;21688544444
4785;21290028000;21188822222;21688822222
4786;21290029000;21188822222;21688822222
4787;21290030000;21188822222;21688822222
4788;21324685000;21230222222;21730222222
4797;21324785000;21230555555;21730555555
4798;21324798000;21230555555;21730555555
4799;21358136000;21271822222;21771822222
4800;21358140000;21271822222;21771822222
4801;21358141000;21271822222;21771822222
4802;21358151000;21271822222;21771822222
4803;21358152000;21271822222;21771822222
4804;21358153000;21271822222;21771822222
4805;21358154000;21271822222;21771822222
4806;21358289000;21271877777;21771877777
4807;21358292000;21272211111;21772211111
4808;21358293000;21272211111;21772211111
4809;21358294000;21272211111;21772211111
4810;21397205000;21313522222;21813522222
4811;21397208000;21313522222;21813522222
4812;21397209000;21313522222;21813522222
4813;21397211000;21313522222;21813522222
4814;21397211000;21313522222;21813522222
4815;21397212000;21313522222;21813522222
4816;21397213000;21313522222;21813522222
4817;21397413000;21313566666;21813566666
4818;21397428000;21313866666;21813866666
4819;21397430000;21313866666;21813866666
4820;21397431000;21313866666;21813866666
4821;21427638000;21355188888;21855188888
4822;21427642000;21355188888;21855188888
4823;21427643000;21355188888;21855188888
4824;21427644000;21355188888;21855188888
4825;21427645000;21355188888;21855188888
4826;21427646000;21355188888;21855188888
4827;21427647000;21355188888;21855188888
4828;21430447000;21355233333;21855233333
4829;21430453000;21355533333;21855533333
4834;21518580000;21396822222;21896822222
4842;21519842000;21397211111;21897211111
4843;21560505000;21438488888;21938488888
4849;21560508000;21438488888;21938488888
4850;21560996000;21438533333;21938533333
4851;21561011000;21438833333;21938833333
4852;21561012000;21438833333;21938833333
4853;21561013000;21438833333;21938833333
4854;21601338000;21480188888;21980188888
4865;21639881000;21521855555;22021855555
4875;21639993000;21522233333;22022233333
4876;21680215000;21563522222;22063522222
4886;21680326000;21563866666;22063866666
4887;21714260000;21605188888;22105188888
4892;21714264000;21605188888;22105188888
4893;21714265000;21605188888;22105188888
4894;21716902000;21605233333;22105233333
4895;21716918000;21605522222;22105522222
4896;21716919000;21605522222;22105522222
4897;21716920000;21605522222;22105522222
4898;21753073000;21646822222;22146822222
4909;21786597000;21688522222;22188522222
4917;21786709000;21688877777;22188877777
4918;21786713000;21688877777;22188877777
4919;21786714000;21688877777;22188877777
4920;21825531000;21730188888;22230188888
4930;21895324000;21730533333;22230533333
4940;21935393000;21772311111;22272311111
4951;21970979000;21813822222;22313822222
4962;22010153000;21855522222;22355522222
4973;22040212000;21897222222;22397222222
4983;22074036000;21938833333;22438833333
4985;22074054000;21938833333;22438833333
4986;22116724000;21980188888;22480188888
5004;22149215000;22021900000;22521900000
5007;22149230000;22022244444;22522244444
5008;22180667000;22063522222;22563522222
5015;22180877000;22063566666;22563566666
5016;22180892000;22063855555;22563855555
5017;22180894000;22063855555;22563855555
5018;22180895000;22063855555;22563855555
5019;22205872000;22105188888;22605188888
5028;22205984000;22105533333;22605533333
5029;22219808000;22105533333;22605533333
5030;22241965000;22146855555;22646855555
5035;22241968000;22146855555;22646855555
5036;22241970000;22146855555;22646855555
5038;22242083000;22147244444;22647244444
5039;22242097000;22147244444;22647244444
5040;22242098000;22147244444;22647244444
5041;22270856000;22188522222;22688522222
5042;22270860000;22188522222;22688522222
5043;22270861000;22188522222;22688522222
5044;22270862000;22188522222;22688522222
5045;22270863000;22188522222;22688522222
5046;22270864000;22188522222;22688522222
5047;22270865000;22188522222;22688522222
5048;22276069000;22188566666;22688566666
5049;22276075000;22188844444;22688844444
5052;22390260000;22230188888;22730188888
5073;22428195000;22272233333;22772233333
5083;22468841000;22313822222;22813822222
5093;22502478000;22355522222;22855522222
5103;22542116000;22396877777;22896877777
5113;22542133000;22438522222;22938522222
5114;22571353000;22438566666;22938566666
5116;22571368000;22438855555;22938855555
5117;22571369000;22438855555;22938855555
5118;22600037000;22480188888;22980188888
5128;22600198000;22480488888;22980488888
5129;22637476000;22521822222;23021822222
5140;22661859000;22563522222;23063522222
5149;22661972000;22563855555;23063855555
5150;22661975000;22563855555;23063855555
5151;22698411000;22605188888;23105188888
5152;22698415000;22605188888;23105188888
5153;22698416000;22605188888;23105188888
5154;22698417000;22605188888;23105188888
5155;22698418000;22605188888;23105188888
5156;22698419000;22605188888;23105188888
5157;22698420000;22605188888;23105188888
5158;22698634000;22605233333;23105233333
5159;22698637000;22605511111;23105511111
5160;22698638000;22605511111;23105511111
5161;22698639000;22605511111;23105511111
5162;22725954000;22646822222;23146822222
5163;22725958000;22646822222;23146822222
5164;22725959000;22646822222;23146822222
5165;22725960000;22646822222;23146822222
5166;22725961000;22646822222;23146822222
5167;22725971000;22646822222;23146822222
5168;22725972000;22646822222;23146822222
5169;22730343000;22646877777;23146877777
5170;22730347000;22647211111;23147211111
5171;22730348000;22647211111;23147211111
5172;22730349000;22647211111;23147211111
5173;22764956000;22688522222;23188522222
5174;22764960000;22688522222;23188522222
5175;22764961000;22688522222;23188522222
5176;22764962000;22688522222;23188522222
5177;22764963000;22688522222;23188522222
5178;22764964000;22688522222;23188522222
5179;22764965000;22688522222;23188522222
5180;22765164000;22688566666;23188566666
5181;22765180000;22688866666;23188866666
5183;22765182000;22688866666;23188866666
5184;22799100000;22730188888;23230188888
5185;22799104000;22730188888;23230188888
5186;22799105000;22730188888;23230188888
5187;22799106000;22730188888;23230188888
5188;22799107000;22730188888;23230188888
5189;22799108000;22730188888;23230188888
5191;22801096000;22730233333;23230233333
5192;22801111000;22730522222;23230522222
5193;22801113000;22730522222;23230522222
5194;22801114000;22730522222;23230522222
5195;22839263000;22771855555;23271855555
5196;22839267000;22771855555;23271855555
5197;22839268000;22771855555;23271855555
5198;22839269000;22771855555;23271855555
5199;22839270000;22771855555;23271855555
5200;22839271000;22771855555;23271855555
5201;22839272000;22771855555;23271855555
5202;22839480000;22771900000;23271900000
5203;22839496000;22772222222;23272222222
5204;22839497000;22772222222;23272222222
5205;22839498000;22772222222;23272222222
5206;22936383000;22813488888;23313488888
5215;22936498000;22813811111;23313811111
5216;22936502000;22813811111;23313811111
5217;22977848000;22855188888;23355188888
5227;22977975000;22855522222;23355522222
5228;23017134000;22896822222;23396822222
5237;23017251000;22897222222;23397222222
5238;23017254000;22897222222;23397222222
5239;23055807000;22938488888;23438488888
5249;23055915000;22938833333;23438833333
5250;23094022000;22980188888;23480188888
5259;23094134000;22980500000;23480500000
5260;23094138000;22980500000;23480500000
5261;23134534000;23021855555;23521855555
5271;23134646000;23022244444;23522244444
5272;23168266000;23063488888;23563488888
5279;23171524000;23063533333;23563533333
5280;23171539000;23063822222;23563822222
5281;23171540000;23063822222;23563822222
5282;23171541000;23063822222;23563822222
5283;23206634000;23105188888;23605188888
5293;23206746000;23105522222;23605522222
5294;23239301000;23146855555;23646855555
5295;23239305000;23146855555;23646855555
5296;23239306000;23146855555;23646855555
5297;23239307000;23146855555;23646855555
5298;23239308000;23146855555;23646855555
5299;23239309000;23146855555;23646855555
5300;23239310000;23146855555;23646855555
5301;23242135000;23146900000;23646900000
5305;23242160000;23188522222;23688522222
5306;23242162000;23188522222;23688522222
5307;23242163000;23188522222;23688522222
5308;23242164000;23188522222;23688522222
5309;23242165000;23188522222;23688522222
5310;23242166000;23188522222;23688522222
5311;23242167000;23188522222;23688522222
5312;23274997000;23188566666;23688566666
5313;23275013000;23188844444;23688844444
5314;23275014000;23188844444;23688844444
5315;23275015000;23188844444;23688844444
5316;23308301000;23230188888;23730188888
5317;23308304000;23230188888;23730188888
5318;23308305000;23230188888;23730188888
5319;23308306000;23230188888;23730188888
5320;23308307000;23230188888;23730188888
5321;23308308000;23230188888;23730188888
5322;23308309000;23230188888;23730188888
5323;23311817000;23230233333;23730233333
5324;23311832000;23230511111;23730511111
5325;23311834000;23230511111;23730511111
5326;23311835000;23230511111;23730511111
5327;23347821000;23271855555;23771855555
5328;23347824000;23271855555;23771855555
5329;23347825000;23271855555;23771855555
5330;23347826000;23271855555;23771855555
5331;23347828000;23271855555;23771855555
5332;23347829000;23271855555;23771855555
5333;23347830000;23271855555;23771855555
5334;23348028000;23271900000;23771900000
5335;23348052000;23272233333;23772233333
5336;23348053000;23272233333;23772233333
5337;23348054000;23272233333;23772233333
5338;23436733000;23313522222;23813522222
5349;23477775000;23355188888;23855188888
5357;23477843000;23355533333;23855533333
5358;23477845000;23355533333;23855533333
5359;23477846000;23355533333;23855533333
5360;23517110000;23396855555;23896855555
5369;23517222000;23397233333;23897233333
5370;23517226000;23397233333;23897233333
5371;23557581000;23438522222;23938522222
5380;23557694000;23438855555;23938855555
5381;23557697000;23438855555;23938855555
5382;23595692000;23480188888;23980188888
5388;23595695000;23480188888;23980188888
5389;23595896000;23480233333;23980233333
5390;23595913000;23480500000;23980500000
5391;23595914000;23480500000;23980500000
5392;23595915000;23480500000;23980500000
5393;23627929000;23521855555;24021855555
5404;23670513000;23563522222;24063522222
5411;23727934000;23563566666;24063566666
5426;23727950000;23646855555;24146855555
5427;23727951000;23646855555;24146855555
5428;23727952000;23646855555;24146855555
5429;23727953000;23646855555;24146855555
5430;23727954000;23646855555;24146855555
5431;23727955000;23646855555;24146855555
5432;23727956000;23646855555;24146855555
5433;23811031000;23646900000;24146900000
5446;23811054000;23688888888;24188888888
5447;23811056000;23688888888;24188888888
5448;23886051000;23730188888;24230188888
5464;23922827000;23771822222;24271822222
5478;23950881000;23813822222;24313822222
5479;23950884000;23813822222;24313822222
5480;23950885000;23813822222;24313822222
5481;23993849000;23855188888;24355188888
5482;23993852000;23855188888;24355188888
5483;23993853000;23855188888;24355188888
5484;23993854000;23855188888;24355188888
5485;23993855000;23855188888;24355188888
5487;23994002000;23855188888;24355188888
5488;23994220000;23855233333;24355233333
5489;23994236000;23855522222;24355522222
5490;23994237000;23855522222;24355522222
5491;23994238000;23855522222;24355522222
5492;24018676000;23896855555;24396855555
5493;24018679000;23896855555;24396855555
5494;24018680000;23896855555;24396855555
5495;24018681000;23896855555;24396855555
5496;24018682000;23896855555;24396855555
5497;24018683000;23896855555;24396855555
5498;24018684000;23896855555;24396855555
5499;24024575000;23896900000;24396900000
