seqnum;now;rtptime;deadline
0;14892989000;14301733333;14801733333
1;14892992000;14301733333;14801733333
2;14892993000;14301733333;14801733333
3;14923487000;14333133333;14833133333
4;14923504000;14333133333;14833133333
5;14923505000;14333133333;14833133333
7;14923508000;14333133333;14833133333
8;14923510000;14333133333;14833133333
9;14923511000;14333133333;14833133333
10;14923727000;14333155555;14833155555
11;14923742000;14333500000;14833500000
12;15012414000;14333500000;14833500000
13;15012417000;14333500000;14833500000
14;15213594000;14374800000;14874800000
15;15213609000;14374800000;14874800000
16;15213611000;14374800000;14874800000
17;15213612000;14374800000;14874800000
18;15213614000;14374800000;14874800000
19;15213615000;14374800000;14874800000
20;15213616000;14374800000;14874800000
21;15213824000;14374811111;14874811111
23;15213840000;14375200000;14875200000
24;15213841000;14375200000;14875200000
25;15254399000;14416466666;14916466666
26;15254402000;14416466666;14916466666
27;15254403000;14416466666;14916466666
28;15254404000;14416466666;14916466666
29;15254405000;14416466666;14916466666
30;15254406000;14416466666;14916466666
31;15254407000;14416466666;14916466666
32;15254526000;14416477777;14916477777
33;15254530000;14416800000;14916800000
35;15254694000;14416800000;14916800000
36;15296124000;14458133333;14958133333
37;15296128000;14458133333;14958133333
38;15333095000;14458133333;14958133333
39;15333107000;14458133333;14958133333
40;15333158000;14458133333;14958133333
41;15333160000;14458133333;14958133333
42;15333181000;14458133333;14958133333
43;15534388000;14458166666;14958166666
44;15534404000;14458500000;14958500000
45;15534405000;14458500000;14958500000
46;15534406000;14458500000;14958500000
47;15575153000;14499800000;14999800000
48;15575170000;14499800000;14999800000
49;15575172000;14499800000;14999800000
50;15575174000;14499800000;14999800000
51;15575175000;14499800000;14999800000
52;15575176000;14499800000;14999800000
53;15575178000;14499800000;14999800000
54;15575339000;14499811111;14999811111
55;15575345000;14500122222;15000122222
56;15575347000;14500122222;15000122222
57;15575348000;14500122222;15000122222
58;15616659000;14541466666;15041466666
59;15616662000;14541466666;15041466666
60;15616664000;14541466666;15041466666
61;15616665000;14541466666;15041466666
62;15616667000;14541466666;15041466666
63;15616668000;14541466666;15041466666
64;15616669000;14541466666;15041466666
65;15616781000;14541477777;15041477777
66;15616787000;14541766666;15041766666
67;15616788000;14541766666;15041766666
68;15616790000;14541766666;15041766666
69;15658114000;14583155555;15083155555
70;15658117000;14583155555;15083155555
71;15658119000;14583155555;15083155555
72;15658120000;14583155555;15083155555
73;15658121000;14583155555;15083155555
74;15658123000;14583155555;15083155555
75;15658124000;14583155555;15083155555
76;15658262000;14583177777;15083177777
77;15658264000;14583555555;15083555555
78;15658266000;14583555555;15083555555
79;15658266000;14583555555;15083555555
83;15699261000;14624800000;15124800000
84;15699264000;14624800000;15124800000
85;15699265000;14624800000;15124800000
86;15699266000;14624800000;15124800000
89;15699279000;14625122222;15125122222
90;15699280000;14625122222;15125122222
91;15740160000;14666466666;15166466666
92;15740163000;14666466666;15166466666
93;15740164000;14666466666;15166466666
94;15740165000;14666466666;15166466666
95;15740167000;14666466666;15166466666
96;15740168000;14666466666;15166466666
97;15740168000;14666466666;15166466666
98;15740325000;14666477777;15166477777
99;15740331000;14666755555;15166755555
100;15740332000;14666755555;15166755555
101;15740333000;14666755555;15166755555
102;15780447000;14708122222;15208122222
103;15780450000;14708122222;15208122222
104;15780451000;14708122222;15208122222
105;15780452000;14708122222;15208122222
106;15780453000;14708122222;15208122222
107;15780454000;14708122222;15208122222
108;15780456000;14708122222;15208122222
109;15780611000;14708144444;15208144444
110;15780617000;14708400000;15208400000
111;15780618000;14708400000;15208400000
112;15780619000;14708400000;15208400000
113;15820232000;14749800000;15249800000
114;15820235000;14749800000;15249800000
115;15820236000;14749800000;15249800000
116;15820237000;14749800000;15249800000
117;15820238000;14749800000;15249800000
118;15820239000;14749800000;15249800000
119;15820240000;14749800000;15249800000
120;15820302000;14749811111;15249811111
121;15820304000;14750111111;15250111111
122;15820305000;14750111111;15250111111
123;15820306000;14750111111;15250111111
124;15859578000;14791466666;15291466666
125;15859580000;14791466666;15291466666
126;15859581000;14791466666;15291466666
127;15859582000;14791466666;15291466666
128;15859583000;14791466666;15291466666
129;15859584000;14791466666;15291466666
130;15859585000;14791466666;15291466666
131;15859727000;14791477777;15291477777
132;15859729000;14791766666;15291766666
133;15859730000;14791766666;15291766666
134;15859731000;14791766666;15291766666
136;15898704000;14833133333;15333133333
137;15898706000;14833133333;15333133333
138;15898707000;14833133333;15333133333
139;15898708000;14833133333;15333133333
140;15898709000;14833133333;15333133333
141;15898710000;14833133333;15333133333
142;15898771000;14833144444;15333144444
143;15898774000;14833433333;15333433333
144;15898775000;14833433333;15333433333
145;15898776000;14833433333;15333433333
146;15936919000;14874800000;15374800000
147;15936923000;14874800000;15374800000
148;15936924000;14874800000;15374800000
149;15936925000;14874800000;15374800000
150;15936926000;14874800000;15374800000
151;15936927000;14874800000;15374800000
152;15936928000;14874800000;15374800000
153;15937006000;14874811111;15374811111
154;15937008000;14875122222;15375122222
155;15937009000;14875122222;15375122222
156;15937010000;14875122222;15375122222
158;15975197000;14916466666;15416466666
159;15975200000;14916466666;15416466666
161;15975201000;14916466666;15416466666
162;15975202000;14916466666;15416466666
163;15975203000;14916466666;15416466666
164;15975266000;14916477777;15416477777
165;15975269000;14916777777;15416777777
166;15975270000;14916777777;15416777777
167;15975271000;14916777777;15416777777
169;16013227000;14958133333;15458133333
170;16013230000;14958133333;15458133333
171;16013231000;14958133333;15458133333
172;16013232000;14958133333;15458133333
173;16013233000;14958133333;15458133333
174;16013234000;14958133333;15458133333
175;16013366000;14958155555;15458155555
176;16013382000;14958444444;15458444444
177;16013384000;14958444444;15458444444
178;16013384000;14958444444;15458444444
179;16050996000;14999800000;15499800000
180;16050999000;14999800000;15499800000
181;16051000000;14999800000;15499800000
182;16051001000;14999800000;15499800000
183;16051002000;14999800000;15499800000
184;16051003000;14999800000;15499800000
186;16051208000;14999822222;15499822222
187;16051223000;15000133333;15500133333
188;16051225000;15000133333;15500133333
189;16051225000;15000133333;15500133333
190;16090756000;15041466666;15541466666
191;16090774000;15041466666;15541466666
192;16090776000;15041466666;15541466666
193;16090777000;15041466666;15541466666
194;16090778000;15041466666;15541466666
195;16090780000;15041466666;15541466666
198;16090900000;15041755555;15541755555
199;16090904000;15041755555;15541755555
200;16090905000;15041755555;15541755555
201;16128255000;15083133333;15583133333
202;16128263000;15083133333;15583133333
203;16128274000;15083133333;15583133333
204;16128276000;15083133333;15583133333
205;16128277000;15083133333;15583133333
206;16128278000;15083133333;15583133333
207;16128279000;15083133333;15583133333
208;16128492000;15083155555;15583155555
209;16128508000;15083433333;15583433333
210;16128510000;15083433333;15583433333
211;16128511000;15083433333;15583433333
212;16166841000;15124800000;15624800000
216;16166846000;15124800000;15624800000
217;16166848000;15124800000;15624800000
218;16166849000;15124800000;15624800000
219;16166996000;15124811111;15624811111
220;16167001000;15125122222;15625122222
221;16167002000;15125122222;15625122222
222;16167003000;15125122222;15625122222
223;16205953000;15166466666;15666466666
224;16205959000;15166466666;15666466666
225;16205978000;15166466666;15666466666
226;16205988000;15166466666;15666466666
227;16205990000;15166466666;15666466666
228;16205991000;15166466666;15666466666
229;16205992000;15166466666;15666466666
230;16206141000;15166477777;15666477777
231;16206144000;15166766666;15666766666
232;16206145000;15166766666;15666766666
233;16206147000;15166766666;15666766666
234;16245675000;15208133333;15708133333
235;16245679000;15208133333;15708133333
236;16245681000;15208133333;15708133333
237;16245682000;15208133333;15708133333
238;16245683000;15208133333;15708133333
239;16245685000;15208133333;15708133333
240;16245686000;15208133333;15708133333
241;16245842000;15208144444;15708144444
242;16245844000;15208422222;15708422222
243;16245846000;15208422222;15708422222
244;16245847000;15208422222;15708422222
245;16285929000;15249800000;15749800000
246;16285934000;15249800000;15749800000
247;16285936000;15249800000;15749800000
249;16286433000;15249800000;15749800000
250;16286435000;15249800000;15749800000
251;16286436000;15249800000;15749800000
252;16286655000;15249811111;15749811111
253;16286671000;15250122222;15750122222
254;16286673000;15250122222;15750122222
255;16286674000;15250122222;15750122222
256;16326672000;15291466666;15791466666
271;16367504000;15333122222;15833122222
272;16367507000;15333122222;15833122222
273;16367508000;15333122222;15833122222
274;16367722000;15333133333;15833133333
275;16367725000;15333411111;15833411111
276;16367727000;15333411111;15833411111
277;16367728000;15333411111;15833411111
278;16408375000;15374788888;15874788888
279;16408382000;15374788888;15874788888
280;16408384000;15374788888;15874788888
281;16408385000;15374788888;15874788888
282;16408387000;15374788888;15874788888
283;16408389000;15374788888;15874788888
284;16408390000;15374788888;15874788888
285;16408593000;15374800000;15874800000
286;16408596000;15375111111;15875111111
287;16408598000;15375111111;15875111111
288;16408599000;15375111111;15875111111
289;16449582000;15416466666;15916466666
290;16449594000;15416466666;15916466666
292;16450105000;15416466666;15916466666
293;16450106000;15416466666;15916466666
294;16450107000;15416466666;15916466666
295;16450119000;15416466666;15916466666
296;16450346000;15416477777;15916477777
297;16450349000;15416733333;15916733333
298;16450350000;15416733333;15916733333
299;16450351000;15416733333;15916733333
300;16491023000;15458133333;15958133333
329;16557627000;15541466666;16041466666
330;16557642000;15541755555;16041755555
331;16557644000;15541755555;16041755555
332;16557645000;15541755555;16041755555
333;16578509000;15583133333;16083133333
334;16578512000;15583133333;16083133333
335;16578514000;15583133333;16083133333
336;16578515000;15583133333;16083133333
337;16578515000;15583133333;16083133333
338;16578516000;15583133333;16083133333
339;16578517000;15583133333;16083133333
340;16578724000;15583155555;16083155555
341;16578740000;15583433333;16083433333
342;16578741000;15583433333;16083433333
343;16578742000;15583433333;16083433333
344;16612853000;15624800000;16124800000
345;16612856000;15624800000;16124800000
346;16612858000;15624800000;16124800000
347;16612859000;15624800000;16124800000
348;16612860000;15624800000;16124800000
349;16612861000;15624800000;16124800000
350;16612862000;15624800000;16124800000
351;16613005000;15624811111;16124811111
352;16613007000;15625100000;16125100000
353;16613009000;15625100000;16125100000
354;16613010000;15625100000;16125100000
357;16652076000;15666455555;16166455555
387;16712125000;15750100000;16250100000
388;16733168000;15791466666;16291466666
389;16733172000;15791466666;16291466666
390;16733173000;15791466666;16291466666
391;16733174000;15791466666;16291466666
392;16733175000;15791466666;16291466666
394;16733395000;15791466666;16291466666
395;16733613000;15791488888;16291488888
396;16733629000;15791766666;16291766666
397;16733630000;15791766666;16291766666
398;16733631000;15791766666;16291766666
399;16775547000;15833122222;16333122222
400;16775554000;15833122222;16333122222
401;16775555000;15833122222;16333122222
402;16775556000;15833122222;16333122222
403;16775558000;15833122222;16333122222
404;16775577000;15833122222;16333122222
405;16775578000;15833122222;16333122222
406;16776081000;15833133333;16333133333
407;16776087000;15833411111;16333411111
408;16776089000;15833411111;16333411111
409;16776090000;15833411111;16333411111
410;16811697000;15874788888;16374788888
448;16889248000;15999788888;16499788888
449;16889251000;15999788888;16499788888
450;16889458000;15999800000;16499800000
451;16889473000;16000088888;16500088888
452;16889475000;16000088888;16500088888
453;16889476000;16000088888;16500088888
454;16930164000;16041466666;16541466666
455;16930167000;16041466666;16541466666
456;16930168000;16041466666;16541466666
457;16930170000;16041466666;16541466666
458;16930171000;16041466666;16541466666
459;16930172000;16041466666;16541466666
460;16930173000;16041466666;16541466666
461;16930343000;16041477777;16541477777
462;16930347000;16041733333;16541733333
464;16930705000;16041733333;16541733333
465;16971809000;16083133333;16583133333
511;17049477000;16249800000;16749800000
512;17049481000;16249800000;16749800000
513;17049482000;16249800000;16749800000
514;17049483000;16249800000;16749800000
515;17049484000;16249800000;16749800000
516;17049691000;16249811111;16749811111
517;17049706000;16250111111;16750111111
518;17049707000;16250111111;16750111111
519;17049708000;16250111111;16750111111
520;17090829000;16291455555;16791455555
521;17090832000;16291455555;16791455555
522;17090834000;16291455555;16791455555
523;17090835000;16291455555;16791455555
524;17090836000;16291455555;16791455555
525;17090837000;16291455555;16791455555
527;17091389000;16291477777;16791477777
528;17091404000;16291755555;16791755555
529;17091405000;16291755555;16791755555
530;17091406000;16291755555;16791755555
531;17132499000;16333122222;16833122222
573;17168728000;16458422222;16958422222
574;17168732000;16458422222;16958422222
575;17209590000;16499788888;16999788888
576;17209593000;16499788888;16999788888
577;17209594000;16499788888;16999788888
578;17209595000;16499788888;16999788888
579;17209596000;16499788888;16999788888
580;17209597000;16499788888;16999788888
581;17209598000;16499788888;16999788888
582;17209804000;16499811111;16999811111
583;17209820000;16500111111;17000111111
584;17209821000;16500111111;17000111111
585;17209822000;16500111111;17000111111
586;17251260000;16541466666;17041466666
587;17251263000;16541466666;17041466666
588;17251264000;16541466666;17041466666
589;17251266000;16541466666;17041466666
590;17251267000;16541466666;17041466666
591;17251268000;16541466666;17041466666
592;17251269000;16541466666;17041466666
593;17251429000;16541477777;17041477777
594;17251434000;16541755555;17041755555
595;17251435000;16541755555;17041755555
596;17251436000;16541755555;17041755555
597;17292883000;16583133333;17083133333
655;17495318000;16791455555;17291455555
733;17762827000;17083133333;17583133333
825;18047611000;17416755555;17916755555
887;18247569000;17666488888;18166488888
926;18347130000;17791766666;18291766666
936;18381928000;17833455555;18333455555
941;18417177000;17874800000;18374800000
945;18417378000;17874811111;18374811111
946;18417394000;17875122222;18375122222
947;18417395000;17875122222;18375122222
948;18417396000;17875122222;18375122222
949;18452636000;17916466666;18416466666
950;18452639000;17916466666;18416466666
951;18452640000;17916466666;18416466666
952;18452641000;17916466666;18416466666
953;18452642000;17916466666;18416466666
954;18452643000;17916466666;18416466666
955;18452644000;17916466666;18416466666
956;18452834000;17916477777;18416477777
957;18452851000;17916777777;18416777777
958;18452852000;17916777777;18416777777
959;18452853000;17916777777;18416777777
960;18488143000;17958122222;18458122222
961;18488146000;17958122222;18458122222
962;18488147000;17958122222;18458122222
963;18488148000;17958122222;18458122222
964;18488149000;17958122222;18458122222
965;18488150000;17958122222;18458122222
966;18488160000;17958122222;18458122222
967;18488293000;17958133333;18458133333
968;18488295000;17958444444;18458444444
969;18488296000;17958444444;18458444444
970;18488297000;17958444444;18458444444
971;18519976000;17999800000;18499800000
972;18519978000;17999800000;18499800000
973;18519979000;17999800000;18499800000
974;18519980000;17999800000;18499800000
975;18519981000;17999800000;18499800000
976;18519982000;17999800000;18499800000
977;18519983000;17999800000;18499800000
978;18520135000;17999811111;18499811111
979;18520138000;18000111111;18500111111
980;18520139000;18000111111;18500111111
981;18520140000;18000111111;18500111111
982;18552182000;18041466666;18541466666
983;18552184000;18041466666;18541466666
984;18552185000;18041466666;18541466666
985;18552186000;18041466666;18541466666
986;18552187000;18041466666;18541466666
987;18552189000;18041466666;18541466666
989;18553065000;18041477777;18541477777
990;18553085000;18041755555;18541755555
991;18553087000;18041755555;18541755555
992;18553088000;18041755555;18541755555
993;18590282000;18083133333;18583133333
994;18590286000;18083133333;18583133333
995;18590287000;18083133333;18583133333
996;18590288000;18083133333;18583133333
997;18590289000;18083133333;18583133333
998;18590290000;18083133333;18583133333
999;18590291000;18083133333;18583133333
1000;18590489000;18083144444;18583144444
1001;18590505000;18083433333;18583433333
1002;18590506000;18083433333;18583433333
1003;18590507000;18083433333;18583433333
1004;18623001000;18124800000;18624800000
1005;18623004000;18124800000;18624800000
1006;18623005000;18124800000;18624800000
1007;18623006000;18124800000;18624800000
1008;18623007000;18124800000;18624800000
1009;18623008000;18124800000;18624800000
1010;18623009000;18124800000;18624800000
1011;18826158000;18124811111;18624811111
1012;18826174000;18125122222;18625122222
1013;18826176000;18125122222;18625122222
1014;18826177000;18125122222;18625122222
1015;18866863000;18166455555;18666455555
1016;18866867000;18166455555;18666455555
1017;18866868000;18166455555;18666455555
1018;18866869000;18166455555;18666455555
1019;18866871000;18166455555;18666455555
1020;18866872000;18166455555;18666455555
1021;18866873000;18166455555;18666455555
1022;18867113000;18166466666;18666466666
1023;18867128000;18166766666;18666766666
1024;18867130000;18166766666;18666766666
1025;18867131000;18166766666;18666766666
1026;18908545000;18208133333;18708133333
1027;18908548000;18208133333;18708133333
1028;18908549000;18208133333;18708133333
1029;18908550000;18208133333;18708133333
1030;18908551000;18208133333;18708133333
1031;18908552000;18208133333;18708133333
1032;18908554000;18208133333;18708133333
1033;18908691000;18208155555;18708155555
1034;18908693000;18208433333;18708433333
1035;18908694000;18208433333;18708433333
1036;18908695000;18208433333;18708433333
1037;18950150000;18249800000;18749800000
1038;18950152000;18249800000;18749800000
1039;18950153000;18249800000;18749800000
1040;19022762000;18249800000;18749800000
1041;19022764000;18249800000;18749800000
1042;19022773000;18249800000;18749800000
1043;19022787000;18249800000;18749800000
1044;19224059000;18249811111;18749811111
1045;19224067000;18250144444;18750144444
1046;19224069000;18250144444;18750144444
1047;19224070000;18250144444;18750144444
1048;19264757000;18291466666;18791466666
1049;19264761000;18291466666;18791466666
1050;19264763000;18291466666;18791466666
1051;19264764000;18291466666;18791466666
1052;19264765000;18291466666;18791466666
1053;19264767000;18291466666;18791466666
1054;19264768000;18291466666;18791466666
1055;19264975000;18291477777;18791477777
1056;19264991000;18291755555;18791755555
1057;19264993000;18291755555;18791755555
1058;19264994000;18291755555;18791755555
1059;19306351000;18333133333;18833133333
1060;19306355000;18333133333;18833133333
1061;19306356000;18333133333;18833133333
1062;19306357000;18333133333;18833133333
1063;19306358000;18333133333;18833133333
1064;19306360000;18333133333;18833133333
1065;19306361000;18333133333;18833133333
1066;19306498000;18333144444;18833144444
1067;19306501000;18333422222;18833422222
1068;19306502000;18333422222;18833422222
1069;19306503000;18333422222;18833422222
1070;19347659000;18374800000;18874800000
1071;19347662000;18374800000;18874800000
1072;19347663000;18374800000;18874800000
1073;19347688000;18374800000;18874800000
1074;19347688000;18374800000;18874800000
1075;19347689000;18374800000;18874800000
1076;19347690000;18374800000;18874800000
1077;19347823000;18374811111;18874811111
1078;19347826000;18375100000;18875100000
1079;19347827000;18375100000;18875100000
1080;19347828000;18375100000;18875100000
1081;19388765000;18416466666;18916466666
1082;19388767000;18416466666;18916466666
1083;19388768000;18416466666;18916466666
1084;19388769000;18416466666;18916466666
1085;19426530000;18416466666;18916466666
1086;19426532000;18416466666;18916466666
1087;19457027000;18416466666;18916466666
1088;19704883000;18416477777;18916477777
1089;19704899000;18416744444;18916744444
1090;19704900000;18416744444;18916744444
1091;19704901000;18416744444;18916744444
1092;19745626000;18458133333;18958133333
1093;19745630000;18458133333;18958133333
1094;19745631000;18458133333;18958133333
1095;19745632000;18458133333;18958133333
1096;19745633000;18458133333;18958133333
1097;19745634000;18458133333;18958133333
1098;19745635000;18458133333;18958133333
1099;19745841000;18458144444;18958144444
1100;19745857000;18458433333;18958433333
1101;19745858000;18458433333;18958433333
1102;19745859000;18458433333;18958433333
1103;19787203000;18499800000;18999800000
1104;19787207000;18499800000;18999800000
1105;19787208000;18499800000;18999800000
1106;19787209000;18499800000;18999800000
1107;19787210000;18499800000;18999800000
1108;19787211000;18499800000;18999800000
1109;19787212000;18499800000;18999800000
1110;19787349000;18499811111;18999811111
1111;19787352000;18500100000;19000100000
1112;19787353000;18500100000;19000100000
1114;19829202000;18541466666;19041466666
1115;19829204000;18541466666;19041466666
1116;19829205000;18541466666;19041466666
1119;19829206000;18541466666;19041466666
1120;19829207000;18541466666;19041466666
1121;19829279000;18541477777;19041477777
1122;19829281000;18541766666;19041766666
1123;19829282000;18541766666;19041766666
1124;19829283000;18541766666;19041766666
1125;19869698000;18583144444;19083144444
1126;19869701000;18583144444;19083144444
1127;19869702000;18583144444;19083144444
1128;19869703000;18583144444;19083144444
1129;19869704000;18583144444;19083144444
1130;19869706000;18583144444;19083144444
1131;19869707000;18583144444;19083144444
1132;19869906000;18583166666;19083166666
1133;19869921000;18583466666;19083466666
1134;19869922000;18583466666;19083466666
1135;19869923000;18583466666;19083466666
1136;19910426000;18624811111;19124811111
1137;19910430000;18624811111;19124811111
1138;19910431000;18624811111;19124811111
1139;19910432000;18624811111;19124811111
1140;19910432000;18624811111;19124811111
1141;19910433000;18624811111;19124811111
1142;19910434000;18624811111;19124811111
1143;19910633000;18624833333;19124833333
1144;19910648000;18625166666;19125166666
1145;19937835000;18625166666;19125166666
1146;19968342000;18625166666;19125166666
1147;20185768000;18666466666;19166466666
1148;20185773000;18666466666;19166466666
1149;20185775000;18666466666;19166466666
1150;20185776000;18666466666;19166466666
1151;20185777000;18666466666;19166466666
1152;20185778000;18666466666;19166466666
1153;20185779000;18666466666;19166466666
1154;20185995000;18666477777;19166477777
1155;20186010000;18666766666;19166766666
1156;20186012000;18666766666;19166766666
1157;20186013000;18666766666;19166766666
1158;20226613000;18708122222;19208122222
1159;20226616000;18708122222;19208122222
1160;20226618000;18708122222;19208122222
1161;20226619000;18708122222;19208122222
1162;20226620000;18708122222;19208122222
1163;20226621000;18708122222;19208122222
1164;20226622000;18708122222;19208122222
1165;20226828000;18708155555;19208155555
1166;20226844000;18708411111;19208411111
1167;20226845000;18708411111;19208411111
1168;20226846000;18708411111;19208411111
1169;20268119000;18749800000;19249800000
1170;20268122000;18749800000;19249800000
1171;20268123000;18749800000;19249800000
1172;20268124000;18749800000;19249800000
1173;20268125000;18749800000;19249800000
1174;20268126000;18749800000;19249800000
1175;20268150000;18749800000;19249800000
1176;20268284000;18749811111;19249811111
1177;20268287000;18750111111;19250111111
1178;20268288000;18750111111;19250111111
1179;20268289000;18750111111;19250111111
1180;20309500000;18791466666;19291466666
1181;20309502000;18791466666;19291466666
1182;20309503000;18791466666;19291466666
1183;20309504000;18791466666;19291466666
1184;20309506000;18791466666;19291466666
1185;20309507000;18791466666;19291466666
1186;20309507000;18791466666;19291466666
1187;20309650000;18791477777;19291477777
1188;20309652000;18791755555;19291755555
1189;20309653000;18791755555;19291755555
1190;20309654000;18791755555;19291755555
1191;20350611000;18833133333;19333133333
1192;20350614000;18833133333;19333133333
1193;20350614000;18833133333;19333133333
1194;20350615000;18833133333;19333133333
1195;20350616000;18833133333;19333133333
1196;20350617000;18833133333;19333133333
1197;20350618000;18833133333;19333133333
1198;20350761000;18833155555;19333155555
1199;20350764000;18833444444;19333444444
1200;20350765000;18833444444;19333444444
1201;20350765000;18833444444;19333444444
1202;20391361000;18874800000;19374800000
1203;20391364000;18874800000;19374800000
1204;20391365000;18874800000;19374800000
1205;20391367000;18874800000;19374800000
1206;20391368000;18874800000;19374800000
1207;20391370000;18874800000;19374800000
1208;20391371000;18874800000;19374800000
1209;20391487000;18874811111;19374811111
1210;20449170000;18875122222;19375122222
1211;20449223000;18875122222;19375122222
1212;20449225000;18875122222;19375122222
1213;20691756000;18916466666;19416466666
1214;20691760000;18916466666;19416466666
1215;20691761000;18916466666;19416466666
1216;20691762000;18916466666;19416466666
1217;20691763000;18916466666;19416466666
1218;20691764000;18916466666;19416466666
1219;20691765000;18916466666;19416466666
1220;20691965000;18916477777;19416477777
1221;20691980000;18916766666;19416766666
1222;20691981000;18916766666;19416766666
1223;20691982000;18916766666;19416766666
1224;20732368000;18958133333;19458133333
1225;20732371000;18958133333;19458133333
1226;20732373000;18958133333;19458133333
1227;20732374000;18958133333;19458133333
1228;20732375000;18958133333;19458133333
1229;20732376000;18958133333;19458133333
1230;20732377000;18958133333;19458133333
1231;20732592000;18958155555;19458155555
1232;20732608000;18958433333;19458433333
1233;20732609000;18958433333;19458433333
1234;20732610000;18958433333;19458433333
1235;20773585000;18999800000;19499800000
1236;20773589000;18999800000;19499800000
1237;20773590000;18999800000;19499800000
1239;20774062000;18999800000;19499800000
1240;20774064000;18999800000;19499800000
1241;20774065000;18999800000;19499800000
1242;20774303000;18999811111;19499811111
1243;20774318000;19000122222;19500122222
1244;20774319000;19000122222;19500122222
1245;20774320000;19000122222;19500122222
1246;20814333000;19041466666;19541466666
1248;20814345000;19041466666;19541466666
1249;20814346000;19041466666;19541466666
1250;20814347000;19041466666;19541466666
1251;20814348000;19041466666;19541466666
1252;20814349000;19041466666;19541466666
1253;20814548000;19041477777;19541477777
1254;20814563000;19041744444;19541744444
1255;20814565000;19041744444;19541744444
1257;20854634000;19083155555;19583155555
1258;20854638000;19083155555;19583155555
1259;20854639000;19083155555;19583155555
1260;20854640000;19083155555;19583155555
1261;20854641000;19083155555;19583155555
1262;20854642000;19083155555;19583155555
1263;20854643000;19083155555;19583155555
1264;20854711000;19083166666;19583166666
1265;20854713000;19083544444;19583544444
1266;20854714000;19083544444;19583544444
1267;20854715000;19083544444;19583544444
1268;20894070000;19124800000;19624800000
1269;20894073000;19124800000;19624800000
1270;20894074000;19124800000;19624800000
1271;20894075000;19124800000;19624800000
1272;20894076000;19124800000;19624800000
1273;20894077000;19124800000;19624800000
1274;20894078000;19124800000;19624800000
1275;20894276000;19124822222;19624822222
1276;20894293000;19125166666;19625166666
1277;20894294000;19125166666;19625166666
1278;20894313000;19125166666;19625166666
1279;20932809000;19166466666;19666466666
1280;20932812000;19166466666;19666466666
1281;20932813000;19166466666;19666466666
1282;20932814000;19166466666;19666466666
1283;20932815000;19166466666;19666466666
1284;20932816000;19166466666;19666466666
1285;20932817000;19166466666;19666466666
1286;20932988000;19166477777;19666477777
1287;20946465000;19166766666;19666766666
1288;20946479000;19166766666;19666766666
1289;20946489000;19166766666;19666766666
1290;21189557000;19208133333;19708133333
1291;21189563000;19208133333;19708133333
1292;21189631000;19208133333;19708133333
1293;21189653000;19208133333;19708133333
1294;21189654000;19208133333;19708133333
1295;21189656000;19208133333;19708133333
1296;21189657000;19208133333;19708133333
1297;21189893000;19208144444;19708144444
1298;21189899000;19208411111;19708411111
1299;21189900000;19208411111;19708411111
1300;21189902000;19208411111;19708411111
1301;21229635000;19249800000;19749800000
1302;21229638000;19249800000;19749800000
1303;21229640000;19249800000;19749800000
1304;21229641000;19249800000;19749800000
1305;21229642000;19249800000;19749800000
1306;21229643000;19249800000;19749800000
1307;21229645000;19249800000;19749800000
1308;21229867000;19249811111;19749811111
1309;21229871000;19250122222;19750122222
1310;21229873000;19250122222;19750122222
1311;21229874000;19250122222;19750122222
1312;21270686000;19291466666;19791466666
1313;21270689000;19291466666;19791466666
1314;21270690000;19291466666;19791466666
1315;21270691000;19291466666;19791466666
1316;21270692000;19291466666;19791466666
1317;21270694000;19291466666;19791466666
1318;21270695000;19291466666;19791466666
1319;21270836000;19291477777;19791477777
1320;21270839000;19291766666;19791766666
1321;21270840000;19291766666;19791766666
1322;21270841000;19291766666;19791766666
1323;21311230000;19333122222;19833122222
1324;21311232000;19333122222;19833122222
1325;21311233000;19333122222;19833122222
1326;21311234000;19333122222;19833122222
1327;21311236000;19333122222;19833122222
1328;21311237000;19333122222;19833122222
1329;21311238000;19333122222;19833122222
1330;21311380000;19333144444;19833144444
1332;21311595000;19333433333;19833433333
1333;21311597000;19333433333;19833433333
1334;21351120000;19374800000;19874800000
1335;21351123000;19374800000;19874800000
1336;21351124000;19374800000;19874800000
1337;21351125000;19374800000;19874800000
1338;21351127000;19374800000;19874800000
1340;21351128000;19374800000;19874800000
1341;21351327000;19374811111;19874811111
1342;21351342000;19375144444;19875144444
1343;21351343000;19375144444;19875144444
1344;21351344000;19375144444;19875144444
1345;21390114000;19416466666;19916466666
1346;21390118000;19416466666;19916466666
1347;21390119000;19416466666;19916466666
1348;21390120000;19416466666;19916466666
1349;21390121000;19416466666;19916466666
1350;21390122000;19416466666;19916466666
1351;21390123000;19416466666;19916466666
1352;21390337000;19416477777;19916477777
1353;21390352000;19416755555;19916755555
1354;21390353000;19416755555;19916755555
1355;21390354000;19416755555;19916755555
1356;21428124000;19458133333;19958133333
1357;21428128000;19458133333;19958133333
1358;21428129000;19458133333;19958133333
1359;21428130000;19458133333;19958133333
1360;21428131000;19458133333;19958133333
1361;21428132000;19458133333;19958133333
1364;21428244000;19458444444;19958444444
1365;21428248000;19458444444;19958444444
1366;21428249000;19458444444;19958444444
1367;21466558000;19499800000;19999800000
1368;21466561000;19499800000;19999800000
1369;21466562000;19499800000;19999800000
1370;21466563000;19499800000;19999800000
1371;21466564000;19499800000;19999800000
1372;21466565000;19499800000;19999800000
1373;21466566000;19499800000;19999800000
1374;21466765000;19499811111;19999811111
1375;21466780000;19500122222;20000122222
1376;21466782000;19500122222;20000122222
1377;21466783000;19500122222;20000122222
1378;21502567000;19541466666;20041466666
1379;21502570000;19541466666;20041466666
1380;21502571000;19541466666;20041466666
1381;21502572000;19541466666;20041466666
1382;21502581000;19541466666;20041466666
1383;21502582000;19541466666;20041466666
1384;21502583000;19541466666;20041466666
1385;21711536000;19541477777;20041477777
1386;21711553000;19541766666;20041766666
1387;21711555000;19541766666;20041766666
1388;21711556000;19541766666;20041766666
1389;21752267000;19583133333;20083133333
1390;21752270000;19583133333;20083133333
1391;21752272000;19583133333;20083133333
1392;21752273000;19583133333;20083133333
1393;21752274000;19583133333;20083133333
1394;21752275000;19583133333;20083133333
1395;21752277000;19583133333;20083133333
1396;21752476000;19583144444;20083144444
1397;21752492000;19583455555;20083455555
1398;21752493000;19583455555;20083455555
1399;21752494000;19583455555;20083455555
1400;21793920000;19624800000;20124800000
1401;21793924000;19624800000;20124800000
1402;21793926000;19624800000;20124800000
1403;21793927000;19624800000;20124800000
1404;21793928000;19624800000;20124800000
1405;21793930000;19624800000;20124800000
1406;21793931000;19624800000;20124800000
1407;21794077000;19624811111;20124811111
1408;21794080000;19625122222;20125122222
1409;21794081000;19625122222;20125122222
1410;21794083000;19625122222;20125122222
1411;21835336000;19666455555;20166455555
1412;21835340000;19666455555;20166455555
1413;21835341000;19666455555;20166455555
1414;21835352000;19666455555;20166455555
1415;21835353000;19666455555;20166455555
1416;21835355000;19666455555;20166455555
1417;21835356000;19666455555;20166455555
1418;21835492000;19666466666;20166466666
1419;21835495000;19666755555;20166755555
1420;21835496000;19666755555;20166755555
1421;21835497000;19666755555;20166755555
1422;21876365000;19708133333;20208133333
1423;21876368000;19708133333;20208133333
1424;21876369000;19708133333;20208133333
1425;21876370000;19708133333;20208133333
1426;21876372000;19708133333;20208133333
1427;21876373000;19708133333;20208133333
1429;21876998000;19708144444;20208144444
1430;21877014000;19708400000;20208400000
1431;21877015000;19708400000;20208400000
1432;21877017000;19708400000;20208400000
1433;21917075000;19749811111;20249811111
1434;21917088000;19749811111;20249811111
1435;21917089000;19749811111;20249811111
1436;21917091000;19749811111;20249811111
1437;21917092000;19749811111;20249811111
1438;21917093000;19749811111;20249811111
1439;21917095000;19749811111;20249811111
1440;21917326000;19749822222;20249822222
1441;21917341000;19750133333;20250133333
1442;21917342000;19750133333;20250133333
1443;21917343000;19750133333;20250133333
1444;21957187000;19791466666;20291466666
1445;21957200000;19791466666;20291466666
1446;21957201000;19791466666;20291466666
1447;21957202000;19791466666;20291466666
1448;21957203000;19791466666;20291466666
1449;21957204000;19791466666;20291466666
1450;21957205000;19791466666;20291466666
1451;21957342000;19791477777;20291477777
1452;21957345000;19791777777;20291777777
1453;21957346000;19791777777;20291777777
1454;21957347000;19791777777;20291777777
1455;21996792000;19833133333;20333133333
1456;21996796000;19833133333;20333133333
1457;21996797000;19833133333;20333133333
1458;21996798000;19833133333;20333133333
1459;21996799000;19833133333;20333133333
1460;21996800000;19833133333;20333133333
1461;21996801000;19833133333;20333133333
1462;21996950000;19833155555;20333155555
1463;21996966000;19833455555;20333455555
1464;21996967000;19833455555;20333455555
1465;21996968000;19833455555;20333455555
1466;22035832000;19874800000;20374800000
1467;22035836000;19874800000;20374800000
1468;22035837000;19874800000;20374800000
1469;22035838000;19874800000;20374800000
1470;22035839000;19874800000;20374800000
1471;22035840000;19874800000;20374800000
1472;22052799000;19874800000;20374800000
1473;22254014000;19874811111;20374811111
1477;22254029000;19916466666;20416466666
1478;22254031000;19916466666;20416466666
1479;22254031000;19916466666;20416466666
1480;22254032000;19916466666;20416466666
1481;22254033000;19916466666;20416466666
1482;22254034000;19916466666;20416466666
1483;22254035000;19916466666;20416466666
1484;22294865000;19916477777;20416477777
1485;22294880000;19916766666;20416766666
1486;22294891000;19916766666;20416766666
1487;22294892000;19916766666;20416766666
1489;22337513000;19958133333;20458133333
1490;22337517000;19958133333;20458133333
1491;22337518000;19958133333;20458133333
1492;22337519000;19958133333;20458133333
1493;22337520000;19958133333;20458133333
1494;22337521000;19958133333;20458133333
1495;22337623000;19958144444;20458144444
1496;22337638000;19958466666;20458466666
1497;22337640000;19958466666;20458466666
1498;22337641000;19958466666;20458466666
1499;22377522000;19999800000;20499800000
1500;22377525000;19999800000;20499800000
1501;22377526000;19999800000;20499800000
1502;22377527000;19999800000;20499800000
1503;22377528000;19999800000;20499800000
1504;22377529000;19999800000;20499800000
1505;22377531000;19999800000;20499800000
1506;22377701000;19999811111;20499811111
1507;22377705000;20000122222;20500122222
1508;22377707000;20000122222;20500122222
1509;22377708000;20000122222;20500122222
1510;22418318000;20041477777;20541477777
1511;22418324000;20041477777;20541477777
1512;22418325000;20041477777;20541477777
1513;22418327000;20041477777;20541477777
1514;22418329000;20041477777;20541477777
1515;22418331000;20041477777;20541477777
1516;22418332000;20041477777;20541477777
1517;22418570000;20041500000;20541500000
1518;22418586000;20041777777;20541777777
1519;22418587000;20041777777;20541777777
1520;22418589000;20041777777;20541777777
1521;22458469000;20083133333;20583133333
1522;22458472000;20083133333;20583133333
1523;22458474000;20083133333;20583133333
1524;22458475000;20083133333;20583133333
1525;22458476000;20083133333;20583133333
1526;22458477000;20083133333;20583133333
1527;22458479000;20083133333;20583133333
1528;22458679000;20083155555;20583155555
1529;22458694000;20083433333;20583433333
1530;22458696000;20083433333;20583433333
1531;22458697000;20083433333;20583433333
1532;22497884000;20124800000;20624800000
1533;22497887000;20124800000;20624800000
1534;22497888000;20124800000;20624800000
1535;22497889000;20124800000;20624800000
1536;22497900000;20124800000;20624800000
1537;22497901000;20124800000;20624800000
1538;22497902000;20124800000;20624800000
1539;22498035000;20124811111;20624811111
1540;22498038000;20125133333;20625133333
1541;22498039000;20125133333;20625133333
1542;22498040000;20125133333;20625133333
1543;22536608000;20166466666;20666466666
1544;22536611000;20166466666;20666466666
1545;22536612000;20166466666;20666466666
1546;22536613000;20166466666;20666466666
1547;22536614000;20166466666;20666466666
1548;22536615000;20166466666;20666466666
1549;22536616000;20166466666;20666466666
1550;22536758000;20166477777;20666477777
1551;22536760000;20166788888;20666788888
1552;22536762000;20166788888;20666788888
1553;22536763000;20166788888;20666788888
1554;22574586000;20208133333;20708133333
1555;22574590000;20208133333;20708133333
1556;22574591000;20208133333;20708133333
1557;22574593000;20208133333;20708133333
1558;22574594000;20208133333;20708133333
1559;22574595000;20208133333;20708133333
1560;22574596000;20208133333;20708133333
1561;22574794000;20208144444;20708144444
1562;22574810000;20208422222;20708422222
1563;22574811000;20208422222;20708422222
1564;22574812000;20208422222;20708422222
1565;22611748000;20249788888;20749788888
1566;22611751000;20249788888;20749788888
1567;22611752000;20249788888;20749788888
1568;22611753000;20249788888;20749788888
1569;22611754000;20249788888;20749788888
1570;22611755000;20249788888;20749788888
1571;22611756000;20249788888;20749788888
1572;22611955000;20249800000;20749800000
1573;22611971000;20250122222;20750122222
1574;22611972000;20250122222;20750122222
1575;22611973000;20250122222;20750122222
1576;22648220000;20291455555;20791455555
1577;22648223000;20291455555;20791455555
1578;22648224000;20291455555;20791455555
1579;22648225000;20291455555;20791455555
1580;22648226000;20291455555;20791455555
1581;22648227000;20291455555;20791455555
1582;22648228000;20291455555;20791455555
1583;22648370000;20291466666;20791466666
1584;22648373000;20291777777;20791777777
1585;22648374000;20291777777;20791777777
1586;22648375000;20291777777;20791777777
1587;22684323000;20333133333;20833133333
1588;22684326000;20333133333;20833133333
1589;22684327000;20333133333;20833133333
1590;22684328000;20333133333;20833133333
1591;22684329000;20333133333;20833133333
1592;22684330000;20333133333;20833133333
1593;22684331000;20333133333;20833133333
1594;22911448000;20333144444;20833144444
1598;22911464000;20374800000;20874800000
1599;22911466000;20374800000;20874800000
1600;22911467000;20374800000;20874800000
1601;22911469000;20374800000;20874800000
1602;22911470000;20374800000;20874800000
1603;22911471000;20374800000;20874800000
1604;22911472000;20374800000;20874800000
1605;22952289000;20374811111;20874811111
1607;22952305000;20375177777;20875177777
1608;22952307000;20375177777;20875177777
1609;22993707000;20416466666;20916466666
1610;22993710000;20416466666;20916466666
1611;22993711000;20416466666;20916466666
1612;22993713000;20416466666;20916466666
1613;22993714000;20416466666;20916466666
1614;22993715000;20416466666;20916466666
1615;22993716000;20416466666;20916466666
1616;22993887000;20416477777;20916477777
1617;22993892000;20416766666;20916766666
1618;22993893000;20416766666;20916766666
1619;22993894000;20416766666;20916766666
1620;23034732000;20458133333;20958133333
1632;23075158000;20499800000;20999800000
1633;23075161000;20499800000;20999800000
1635;23075162000;20499800000;20999800000
1636;23075163000;20499800000;20999800000
1637;23075164000;20499800000;20999800000
1638;23075364000;20499811111;20999811111
1639;23075380000;20500122222;21000122222
1640;23075381000;20500122222;21000122222
1641;23075382000;20500122222;21000122222
1642;23114642000;20541466666;21041466666
1643;23114646000;20541466666;21041466666
1644;23114647000;20541466666;21041466666
1645;23114648000;20541466666;21041466666
1646;23114649000;20541466666;21041466666
1647;23114650000;20541466666;21041466666
1648;23114651000;20541466666;21041466666
1649;23114827000;20541477777;21041477777
1650;23114832000;20541777777;21041777777
1651;23114834000;20541777777;21041777777
1652;23114835000;20541777777;21041777777
1653;23153108000;20583133333;21083133333
1654;23153110000;20583133333;21083133333
1655;23153111000;20583133333;21083133333
1656;23153112000;20583133333;21083133333
1657;23153113000;20583133333;21083133333
1658;23153114000;20583133333;21083133333
1659;23153115000;20583133333;21083133333
1660;23153258000;20583155555;21083155555
1661;23153260000;20583466666;21083466666
1663;23153262000;20583466666;21083466666
1664;23190521000;20624800000;21124800000
1665;23190524000;20624800000;21124800000
1666;23190525000;20624800000;21124800000
1667;23190526000;20624800000;21124800000
1668;23190527000;20624800000;21124800000
1669;23190528000;20624800000;21124800000
1670;23190529000;20624800000;21124800000
1671;23190670000;20624811111;21124811111
1672;23190673000;20625122222;21125122222
1673;23190674000;20625122222;21125122222
1674;23190675000;20625122222;21125122222
1675;23226782000;20666466666;21166466666
1676;23226784000;20666466666;21166466666
1677;23226786000;20666466666;21166466666
1678;23226787000;20666466666;21166466666
1679;23226788000;20666466666;21166466666
1680;23226789000;20666466666;21166466666
1681;23226790000;20666466666;21166466666
1682;23226937000;20666477777;21166477777
1683;23226940000;20666777777;21166777777
1684;23226941000;20666777777;21166777777
1685;23226942000;20666777777;21166777777
1686;23261992000;20708133333;21208133333
1687;23261995000;20708133333;21208133333
1688;23261996000;20708133333;21208133333
1689;23261997000;20708133333;21208133333
1690;23261998000;20708133333;21208133333
1692;23262310000;20708133333;21208133333
1693;23262523000;20708166666;21208166666
1694;23262538000;20708433333;21208433333
1695;23262539000;20708433333;21208433333
1696;23262540000;20708433333;21208433333
1697;23296313000;20749800000;21249800000
1699;23296325000;20749800000;21249800000
1700;23296327000;20749800000;21249800000
1701;23296328000;20749800000;21249800000
1702;23296329000;20749800000;21249800000
1703;23296330000;20749800000;21249800000
1704;23296566000;20749811111;21249811111
1705;23296582000;20750122222;21250122222
1706;23296592000;20750122222;21250122222
1707;23296593000;20750122222;21250122222
1708;23329891000;20791466666;21291466666
1709;23329894000;20791466666;21291466666
1710;23329895000;20791466666;21291466666
1711;23329896000;20791466666;21291466666
1712;23329897000;20791466666;21291466666
1713;23329898000;20791466666;21291466666
1714;23329899000;20791466666;21291466666
1715;23330037000;20791477777;21291477777
1716;23330039000;20791777777;21291777777
1717;23330040000;20791777777;21291777777
1718;23330041000;20791777777;21291777777
1719;23363117000;20833133333;21333133333
1720;23363121000;20833133333;21333133333
1721;23363122000;20833133333;21333133333
1722;23363123000;20833133333;21333133333
1723;23363124000;20833133333;21333133333
1724;23363125000;20833133333;21333133333
1725;23363126000;20833133333;21333133333
1726;23363333000;20833155555;21333155555
1727;23363339000;20833466666;21333466666
1728;23363341000;20833466666;21333466666
1729;23363342000;20833466666;21333466666
1730;23395693000;20874800000;21374800000
1731;23395697000;20874800000;21374800000
1732;23395697000;20874800000;21374800000
1733;23395698000;20874800000;21374800000
1734;23395699000;20874800000;21374800000
1735;23395700000;20874800000;21374800000
1736;23395701000;20874800000;21374800000
1737;23395840000;20874811111;21374811111
1738;23395843000;20875133333;21375133333
1740;23395844000;20875133333;21375133333
1741;23428797000;20916466666;21416466666
1742;23428799000;20916466666;21416466666
1743;23428809000;20916466666;21416466666
1744;23428810000;20916466666;21416466666
1745;23428811000;20916466666;21416466666
1746;23428812000;20916466666;21416466666
1747;23428813000;20916466666;21416466666
1748;23429026000;20916477777;21416477777
1749;23429029000;20916788888;21416788888
1750;23429030000;20916788888;21416788888
1751;23429031000;20916788888;21416788888
1752;23462867000;20958133333;21458133333
1753;23462869000;20958133333;21458133333
1754;23462871000;20958133333;21458133333
1755;23462871000;20958133333;21458133333
1756;23462873000;20958133333;21458133333
1757;23462873000;20958133333;21458133333
1758;23462874000;20958133333;21458133333
1759;23664173000;20958144444;21458144444
1760;23664189000;20958455555;21458455555
1761;23664191000;20958455555;21458455555
1765;23704829000;20999800000;21499800000
1769;23704833000;20999800000;21499800000
1770;23705032000;20999811111;21499811111
1771;23705054000;21000133333;21500133333
1772;23705056000;21000133333;21500133333
1773;23705057000;21000133333;21500133333
1774;23746528000;21041466666;21541466666
1776;23832985000;21041466666;21541466666
1778;23832988000;21041466666;21541466666
1779;23832989000;21041466666;21541466666
1780;23832990000;21041466666;21541466666
1781;23833234000;21041477777;21541477777
1785;23833253000;21083133333;21583133333
1787;23833255000;21083133333;21583133333
1788;23833257000;21083133333;21583133333
1789;23833258000;21083133333;21583133333
1790;23833260000;21083133333;21583133333
1791;23833261000;21083133333;21583133333
1792;23833332000;21083144444;21583144444
1796;23833335000;21124800000;21624800000
1797;23833336000;21124800000;21624800000
1798;23833338000;21124800000;21624800000
1799;23833339000;21124800000;21624800000
1800;23833340000;21124800000;21624800000
1801;23833341000;21124800000;21624800000
1802;23833343000;21124800000;21624800000
1803;23833414000;21124811111;21624811111
1806;23833416000;21125144444;21625144444
1807;23868386000;21166466666;21666466666
1809;23868550000;21166466666;21666466666
1810;23868553000;21166466666;21666466666
1811;23868554000;21166466666;21666466666
1812;23868555000;21166466666;21666466666
1813;23868556000;21166466666;21666466666
1814;23868764000;21166477777;21666477777
1815;23868779000;21166788888;21666788888
1816;23868781000;21166788888;21666788888
1817;23868782000;21166788888;21666788888
1818;23907625000;21208133333;21708133333
1819;23907628000;21208133333;21708133333
1820;23907629000;21208133333;21708133333
1821;23907631000;21208133333;21708133333
1822;23907632000;21208133333;21708133333
1823;23907633000;21208133333;21708133333
1824;23907634000;21208133333;21708133333
1825;23907816000;21208155555;21708155555
1826;23907822000;21208433333;21708433333
1827;23907824000;21208433333;21708433333
1828;23907825000;21208433333;21708433333
1829;23945950000;21249800000;21749800000
1830;23945963000;21249800000;21749800000
1831;23945964000;21249800000;21749800000
1832;23945965000;21249800000;21749800000
1833;23945966000;21249800000;21749800000
1834;23945967000;21249800000;21749800000
1835;23945968000;21249800000;21749800000
1836;23946120000;21249811111;21749811111
1837;23946123000;21250133333;21750133333
1838;23946124000;21250133333;21750133333
1839;23946125000;21250133333;21750133333
1840;23983384000;21291466666;21791466666
1841;23983397000;21291466666;21791466666
1842;23983399000;21291466666;21791466666
1843;23983401000;21291466666;21791466666
1844;23983402000;21291466666;21791466666
1845;23983404000;21291466666;21791466666
1846;23983406000;21291466666;21791466666
1847;23983562000;21291477777;21791477777
1848;23983568000;21291744444;21791744444
1849;23983569000;21291744444;21791744444
1850;23983571000;21291744444;21791744444
1851;24020052000;21333133333;21833133333
1852;24020058000;21333133333;21833133333
1853;24020059000;21333133333;21833133333
1854;24020060000;21333133333;21833133333
1855;24020061000;21333133333;21833133333
1856;24020063000;21333133333;21833133333
1857;24020064000;21333133333;21833133333
1858;24020268000;21333155555;21833155555
1859;24020283000;21333433333;21833433333
1860;24020284000;21333433333;21833433333
1862;24056347000;21374800000;21874800000
1863;24056351000;21374800000;21874800000
1864;24056352000;21374800000;21874800000
1866;24056353000;21374800000;21874800000
1867;24056355000;21374800000;21874800000
1868;24056356000;21374800000;21874800000
1869;24056452000;21374811111;21874811111
1870;24056467000;21375100000;21875100000
1871;24056468000;21375100000;21875100000
1872;24056470000;21375100000;21875100000
1873;24091249000;21416466666;21916466666
1874;24091253000;21416466666;21916466666
1876;24091254000;21416466666;21916466666
1877;24091255000;21416466666;21916466666
1878;24091256000;21416466666;21916466666
1879;24091258000;21416466666;21916466666
1880;24091395000;21416477777;21916477777
1881;24091398000;21416733333;21916733333
1882;24091399000;21416733333;21916733333
1883;24091401000;21416733333;21916733333
1884;24126164000;21458166666;21958166666
1885;24126168000;21458166666;21958166666
1886;24126169000;21458166666;21958166666
1887;24126170000;21458166666;21958166666
1888;24126171000;21458166666;21958166666
1889;24126172000;21458166666;21958166666
1890;24126174000;21458166666;21958166666
1891;24126356000;21458188888;21958188888
1892;24126372000;21458466666;21958466666
1893;24126374000;21458466666;21958466666
1894;24126375000;21458466666;21958466666
1895;24160716000;21499800000;21999800000
1948;24321813000;21666811111;22166811111
1951;24359854000;21708133333;22208133333
1952;24359862000;21708133333;22208133333
1953;24359864000;21708133333;22208133333
1954;24359865000;21708133333;22208133333
1955;24359866000;21708133333;22208133333
1956;24359884000;21708133333;22208133333
1957;24360235000;21708155555;22208155555
1958;24360258000;21708388888;22208388888
1959;24360259000;21708388888;22208388888
1960;24360260000;21708388888;22208388888
1961;24389512000;21749788888;22249788888
1962;24389516000;21749788888;22249788888
1963;24389517000;21749788888;22249788888
1964;24389519000;21749788888;22249788888
1965;24389520000;21749788888;22249788888
1966;24389521000;21749788888;22249788888
1967;24389522000;21749788888;22249788888
1968;24389722000;21749800000;22249800000
1969;24389738000;21750088888;22250088888
1970;24389739000;21750088888;22250088888
1971;24389741000;21750088888;22250088888
1972;24416960000;21791466666;22291466666
1973;24416964000;21791466666;22291466666
1974;24416965000;21791466666;22291466666
1975;24416966000;21791466666;22291466666
1976;24416967000;21791466666;22291466666
1977;24416969000;21791466666;22291466666
1978;24416970000;21791466666;22291466666
1979;24417171000;21791477777;22291477777
1980;24417178000;21791755555;22291755555
1981;24417179000;21791755555;22291755555
1982;24417192000;21791755555;22291755555
1983;24449371000;21833133333;22333133333
1984;24449375000;21833133333;22333133333
1985;24449376000;21833133333;22333133333
1986;24449377000;21833133333;22333133333
1987;24449379000;21833133333;22333133333
1988;24449380000;21833133333;22333133333
1989;24449381000;21833133333;22333133333
1991;24449987000;21833444444;22333444444
1992;24449991000;21833444444;22333444444
1993;24449992000;21833444444;22333444444
1994;24486903000;21874800000;22374800000
1995;24486906000;21874800000;22374800000
1997;24486908000;21874800000;22374800000
1999;24486909000;21874800000;22374800000
2001;24487110000;21874811111;22374811111
2002;24487126000;21875122222;22375122222
2003;24487128000;21875122222;22375122222
2004;24487129000;21875122222;22375122222
2005;24523327000;21916466666;22416466666
2006;24523333000;21916466666;22416466666
2007;24523334000;21916466666;22416466666
2008;24523335000;21916466666;22416466666
2009;24523337000;21916466666;22416466666
2010;24523338000;21916466666;22416466666
2011;24523339000;21916466666;22416466666
2012;24523542000;21916477777;22416477777
2013;24523558000;21916755555;22416755555
2014;24523559000;21916755555;22416755555
2015;24523561000;21916755555;22416755555
2016;24560290000;21958133333;22458133333
2017;24560292000;21958133333;22458133333
2018;24560294000;21958133333;22458133333
2019;24560295000;21958133333;22458133333
2020;24560296000;21958133333;22458133333
2021;24560297000;21958133333;22458133333
2022;24560308000;21958133333;22458133333
2024;24560580000;21958433333;22458433333
2025;24560584000;21958433333;22458433333
2026;24560585000;21958433333;22458433333
2027;24600249000;21999800000;22499800000
2028;24600253000;21999800000;22499800000
2029;24600254000;21999800000;22499800000
2030;24600255000;21999800000;22499800000
2031;24600256000;21999800000;22499800000
2032;24600258000;21999800000;22499800000
2033;24600259000;21999800000;22499800000
2034;24600459000;21999811111;22499811111
2035;24600474000;22000088888;22500088888
2036;24600475000;22000088888;22500088888
2037;24600477000;22000088888;22500088888
2038;24640563000;22041466666;22541466666
2039;24640567000;22041466666;22541466666
2040;24640569000;22041466666;22541466666
2041;24640570000;22041466666;22541466666
2042;24640571000;22041466666;22541466666
2043;24640573000;22041466666;22541466666
2044;24640574000;22041466666;22541466666
2045;24640751000;22041477777;22541477777
2046;24640756000;22041733333;22541733333
2047;24640758000;22041733333;22541733333
2048;24640759000;22041733333;22541733333
2049;24681756000;22083133333;22583133333
2050;24681761000;22083133333;22583133333
2051;24681762000;22083133333;22583133333
2052;24681764000;22083133333;22583133333
2053;24681766000;22083133333;22583133333
2054;24681767000;22083133333;22583133333
2055;24681768000;22083133333;22583133333
2056;24682071000;22083155555;22583155555
2057;24682077000;22083433333;22583433333
2058;24682079000;22083433333;22583433333
2059;24682080000;22083433333;22583433333
2060;24723191000;22124800000;22624800000
2061;24723195000;22124800000;22624800000
2062;24723196000;22124800000;22624800000
2063;24723198000;22124800000;22624800000
2064;24723199000;22124800000;22624800000
2065;24723201000;22124800000;22624800000
2066;24723202000;22124800000;22624800000
2067;24723375000;22124811111;22624811111
2068;24723380000;22125122222;22625122222
2069;24723381000;22125122222;22625122222
2070;24723383000;22125122222;22625122222
2071;24764780000;22166466666;22666466666
2072;24764784000;22166466666;22666466666
2073;24764785000;22166466666;22666466666
2074;24764786000;22166466666;22666466666
2075;24764787000;22166466666;22666466666
2076;24764789000;22166466666;22666466666
2077;24764791000;22166466666;22666466666
2078;24764961000;22166477777;22666477777
2079;24764966000;22166755555;22666755555
2080;24764967000;22166755555;22666755555
2081;24764968000;22166755555;22666755555
2082;24806452000;22208133333;22708133333
2083;24806459000;22208133333;22708133333
2084;24806470000;22208133333;22708133333
2085;24806472000;22208133333;22708133333
2086;24806474000;22208133333;22708133333
2087;24806487000;22208133333;22708133333
2088;24806489000;22208133333;22708133333
2089;24806694000;22208155555;22708155555
2092;24806710000;22208422222;22708422222
2093;24848122000;22249800000;22749800000
2094;24848127000;22249800000;22749800000
2095;24848128000;22249800000;22749800000
2096;24848130000;22249800000;22749800000
2097;24848131000;22249800000;22749800000
2098;24848133000;22249800000;22749800000
2099;24848134000;22249800000;22749800000
2100;24848353000;22249811111;22749811111
2101;24848356000;22250111111;22750111111
2102;24848358000;22250111111;22750111111
2103;24848359000;22250111111;22750111111
2104;24889779000;22291466666;22791466666
2105;24889784000;22291466666;22791466666
2106;24889785000;22291466666;22791466666
2107;24889786000;22291466666;22791466666
2108;24889788000;22291466666;22791466666
2109;24889789000;22291466666;22791466666
2110;24889790000;22291466666;22791466666
2111;24890005000;22291477777;22791477777
2112;24890008000;22291800000;22791800000
2113;24890009000;22291800000;22791800000
2114;24890011000;22291800000;22791800000
2115;24931391000;22333133333;22833133333
2116;24931394000;22333133333;22833133333
2117;24931404000;22333133333;22833133333
2118;24931406000;22333133333;22833133333
2119;24931407000;22333133333;22833133333
2120;24931408000;22333133333;22833133333
2121;24931409000;22333133333;22833133333
2122;24931579000;22333155555;22833155555
2123;24955000000;22333444444;22833444444
2124;24955012000;22333444444;22833444444
2125;24955022000;22333444444;22833444444
2126;25197916000;22374800000;22874800000
2139;25238164000;22416466666;22916466666
2143;25238168000;22416466666;22916466666
2144;25238368000;22416477777;22916477777
2145;25238384000;22416766666;22916766666
2146;25238385000;22416766666;22916766666
2147;25238386000;22416766666;22916766666
2148;25279145000;22458133333;22958133333
2173;25358209000;22541466666;23041466666
2177;25358390000;22541477777;23041477777
2178;25358395000;22541788888;23041788888
2179;25358397000;22541788888;23041788888
2180;25358398000;22541788888;23041788888
2181;25395625000;22583133333;23083133333
2182;25395629000;22583133333;23083133333
2183;25395630000;22583133333;23083133333
2184;25395631000;22583133333;23083133333
2185;25395632000;22583133333;23083133333
2186;25395634000;22583133333;23083133333
2187;25395635000;22583133333;23083133333
2188;25395806000;22583155555;23083155555
2189;25395811000;22583477777;23083477777
2190;25395812000;22583477777;23083477777
2191;25395813000;22583477777;23083477777
2192;25431808000;22624800000;23124800000
2193;25431812000;22624800000;23124800000
2194;25431813000;22624800000;23124800000
2195;25431814000;22624800000;23124800000
2196;25431815000;22624800000;23124800000
2197;25431817000;22624800000;23124800000
2198;25431818000;22624800000;23124800000
2199;25432017000;22624811111;23124811111
2200;25432033000;22625133333;23125133333
2201;25432034000;22625133333;23125133333
2202;25432035000;22625133333;23125133333
2203;25466523000;22666466666;23166466666
2214;25499854000;22708133333;23208133333
2215;25499857000;22708133333;23208133333
2216;25499858000;22708133333;23208133333
2218;25499860000;22708133333;23208133333
2219;25499860000;22708133333;23208133333
2220;25499861000;22708133333;23208133333
2221;25500032000;22708155555;23208155555
2222;25500036000;22708422222;23208422222
2223;25500037000;22708422222;23208422222
2224;25500038000;22708422222;23208422222
2225;25531955000;22749800000;23249800000
2226;25531958000;22749800000;23249800000
2227;25531960000;22749800000;23249800000
2228;25531961000;22749800000;23249800000
2229;25531962000;22749800000;23249800000
2230;25531963000;22749800000;23249800000
2231;25531964000;22749800000;23249800000
2232;25532135000;22749811111;23249811111
2233;25532140000;22750122222;23250122222
2234;25532141000;22750122222;23250122222
2235;25532142000;22750122222;23250122222
2236;25563161000;22791466666;23291466666
2237;25563164000;22791466666;23291466666
2238;25563166000;22791466666;23291466666
2239;25563168000;22791466666;23291466666
2240;25563169000;22791466666;23291466666
2241;25563181000;22791466666;23291466666
2242;25563206000;22791466666;23291466666
2244;25563478000;22791777777;23291777777
2245;25563481000;22791777777;23291777777
2246;25563483000;22791777777;23291777777
2247;25597234000;22833133333;23333133333
2253;25597238000;22833133333;23333133333
2254;25597438000;22833155555;23333155555
2255;25597453000;22833466666;23333466666
2256;25597454000;22833466666;23333466666
2257;25597455000;22833466666;23333466666
2258;25626830000;22874800000;23374800000
2259;25626834000;22874800000;23374800000
2261;25626943000;22874800000;23374800000
2262;25626946000;22874800000;23374800000
2263;25626957000;22874800000;23374800000
2264;25626959000;22874800000;23374800000
2265;25627107000;22874811111;23374811111
2266;25627110000;22875133333;23375133333
2267;25627111000;22875133333;23375133333
2268;25627112000;22875133333;23375133333
2269;25656891000;22916466666;23416466666
2270;25656895000;22916466666;23416466666
2271;25656896000;22916466666;23416466666
2272;25656897000;22916466666;23416466666
2273;25656897000;22916466666;23416466666
2274;25656898000;22916466666;23416466666
2275;25656899000;22916466666;23416466666
2276;25657101000;22916477777;23416477777
2277;25657107000;22916788888;23416788888
2278;25657108000;22916788888;23416788888
2279;25657109000;22916788888;23416788888
2281;25688397000;22958133333;23458133333
2282;25688401000;22958133333;23458133333
2283;25688402000;22958133333;23458133333
2284;25688403000;22958133333;23458133333
2285;25688404000;22958133333;23458133333
2286;25688405000;22958133333;23458133333
2287;25688502000;22958144444;23458144444
2288;25688518000;22958455555;23458455555
2289;25688519000;22958455555;23458455555
2290;25688520000;22958455555;23458455555
2291;25721004000;22999800000;23499800000
2292;25721007000;22999800000;23499800000
2293;25721008000;22999800000;23499800000
2294;25721009000;22999800000;23499800000
2295;25721011000;22999800000;23499800000
2296;25721011000;22999800000;23499800000
2297;25721012000;22999800000;23499800000
2298;25721214000;22999811111;23499811111
2299;25721229000;23000133333;23500133333
2300;25721230000;23000133333;23500133333
2301;25721232000;23000133333;23500133333
2302;25755494000;23041466666;23541466666
2303;25755497000;23041466666;23541466666
2304;25755498000;23041466666;23541466666
2305;25755499000;23041466666;23541466666
2306;25755500000;23041466666;23541466666
2307;25755501000;23041466666;23541466666
2308;25755502000;23041466666;23541466666
2309;25755730000;23041477777;23541477777
2311;25755745000;23041766666;23541766666
2312;25755746000;23041766666;23541766666
2313;25791624000;23083133333;23583133333
2314;25791628000;23083133333;23583133333
2315;25791628000;23083133333;23583133333
2316;25791630000;23083133333;23583133333
2317;25791631000;23083133333;23583133333
2318;25791632000;23083133333;23583133333
2319;25791632000;23083133333;23583133333
2320;25791832000;23083155555;23583155555
2321;25791838000;23083477777;23583477777
2322;25791839000;23083477777;23583477777
2323;25791840000;23083477777;23583477777
2324;25829175000;23124800000;23624800000
2325;25829178000;23124800000;23624800000
2326;25829179000;23124800000;23624800000
2327;25829189000;23124800000;23624800000
2328;25829190000;23124800000;23624800000
2329;25829191000;23124800000;23624800000
2330;25829192000;23124800000;23624800000
2331;25829421000;23124811111;23624811111
2332;25829427000;23125133333;23625133333
2333;25829429000;23125133333;23625133333
2334;25829430000;23125133333;23625133333
2335;25868226000;23166544444;23666544444
2336;25868229000;23166544444;23666544444
2337;25868230000;23166544444;23666544444
2338;25868231000;23166544444;23666544444
2339;25868232000;23166544444;23666544444
2340;25868233000;23166544444;23666544444
2341;25868234000;23166544444;23666544444
2342;25868498000;23166555555;23666555555
2343;25868504000;23166866666;23666866666
2344;25868505000;23166866666;23666866666
2345;25868506000;23166866666;23666866666
2346;25908011000;23208133333;23708133333
2347;25908014000;23208133333;23708133333
2348;25908015000;23208133333;23708133333
2349;25908016000;23208133333;23708133333
2350;25908024000;23208133333;23708133333
2351;25908025000;23208133333;23708133333
2352;25908026000;23208133333;23708133333
2356;26117030000;23208444444;23708444444
2368;26200068000;23291466666;23791466666
2374;26200071000;23291466666;23791466666
2375;26200282000;23291477777;23791477777
2376;26200297000;23291766666;23791766666
2377;26200299000;23291766666;23791766666
2378;26200300000;23291766666;23791766666
2379;26240820000;23333133333;23833133333
2411;26319935000;23416766666;23916766666
2412;26357373000;23458133333;23958133333
2415;26357376000;23458133333;23958133333
2416;26357377000;23458133333;23958133333
2417;26357378000;23458133333;23958133333
2418;26357379000;23458133333;23958133333
2419;26357578000;23458155555;23958155555
2420;26357584000;23458433333;23958433333
2422;26357595000;23458433333;23958433333
2423;26394878000;23499800000;23999800000
2424;26394885000;23499800000;23999800000
2425;26394887000;23499800000;23999800000
2426;26394890000;23499800000;23999800000
2427;26394892000;23499800000;23999800000
2428;26394894000;23499800000;23999800000
2429;26394895000;23499800000;23999800000
2430;26395057000;23499811111;23999811111
2431;26395062000;23500122222;24000122222
2432;26395063000;23500122222;24000122222
2433;26395065000;23500122222;24000122222
2434;26427797000;23541466666;24041466666
2449;26460746000;23583133333;24083133333
2450;26460749000;23583133333;24083133333
2451;26460751000;23583133333;24083133333
2452;26460951000;23583144444;24083144444
2453;26460966000;23583477777;24083477777
2454;26460968000;23583477777;24083477777
2455;26460969000;23583477777;24083477777
2456;26492400000;23624800000;24124800000
2457;26492404000;23624800000;24124800000
2458;26492405000;23624800000;24124800000
2459;26492407000;23624800000;24124800000
2460;26492408000;23624800000;24124800000
2461;26492409000;23624800000;24124800000
2462;26492410000;23624800000;24124800000
2463;26492581000;23624811111;24124811111
2464;26492585000;23625111111;24125111111
2465;26492587000;23625111111;24125111111
2466;26492588000;23625111111;24125111111
2467;26523087000;23666466666;24166466666
2468;26523089000;23666466666;24166466666
2469;26523090000;23666466666;24166466666
2470;26523092000;23666466666;24166466666
2471;26523093000;23666466666;24166466666
2472;26523094000;23666466666;24166466666
2473;26523095000;23666466666;24166466666
2474;26523201000;23666477777;24166477777
2475;26523203000;23666766666;24166766666
2476;26523205000;23666766666;24166766666
2477;26523206000;23666766666;24166766666
2478;26553320000;23708133333;24208133333
2479;26553323000;23708133333;24208133333
2480;26553324000;23708133333;24208133333
2481;26553325000;23708133333;24208133333
2482;26553326000;23708133333;24208133333
2483;26553328000;23708133333;24208133333
2484;26553338000;23708133333;24208133333
2485;26553471000;23708155555;24208155555
2486;26553473000;23708433333;24208433333
2487;26553475000;23708433333;24208433333
2488;26553476000;23708433333;24208433333
2489;26583294000;23749800000;24249800000
2491;26583297000;23749800000;24249800000
2492;26583299000;23749800000;24249800000
2493;26583300000;23749800000;24249800000
2495;26583987000;23749800000;24249800000
2496;26584197000;23749811111;24249811111
2497;26584213000;23750122222;24250122222
2498;26584215000;23750122222;24250122222
2499;26584216000;23750122222;24250122222
2500;26613304000;23791466666;24291466666
2501;26613308000;23791466666;24291466666
2502;26613309000;23791466666;24291466666
2503;26613310000;23791466666;24291466666
2504;26613311000;23791466666;24291466666
2505;26613312000;23791466666;24291466666
2506;26613313000;23791466666;24291466666
2507;26613543000;23791477777;24291477777
2508;26613559000;23791766666;24291766666
2509;26613560000;23791766666;24291766666
2510;26613561000;23791766666;24291766666
2511;26644556000;23833122222;24333122222
2512;26644559000;23833122222;24333122222
2513;26644560000;23833122222;24333122222
2514;26644561000;23833122222;24333122222
2515;26644562000;23833122222;24333122222
2516;26644563000;23833122222;24333122222
2517;26644564000;23833122222;24333122222
2518;26644702000;23833133333;24333133333
2519;26644714000;23833433333;24333433333
2520;26644715000;23833433333;24333433333
2521;26644716000;23833433333;24333433333
2522;26677373000;23874800000;24374800000
2523;26677377000;23874800000;24374800000
2524;26677378000;23874800000;24374800000
2525;26677379000;23874800000;24374800000
2526;26677380000;23874800000;24374800000
2527;26677381000;23874800000;24374800000
2528;26677382000;23874800000;24374800000
2529;26677554000;23874811111;24374811111
2530;26677560000;23875133333;24375133333
2531;26677562000;23875133333;24375133333
2532;26677563000;23875133333;24375133333
2533;26711823000;23916466666;24416466666
2534;26711826000;23916466666;24416466666
2535;26711827000;23916466666;24416466666
2536;26711828000;23916466666;24416466666
2537;26711829000;23916466666;24416466666
2538;26711830000;23916466666;24416466666
2539;26711831000;23916466666;24416466666
2540;26712031000;23916477777;24416477777
2541;26712053000;23916777777;24416777777
2542;26712055000;23916777777;24416777777
2543;26712055000;23916777777;24416777777
2544;26747932000;23958133333;24458133333
2557;26785561000;23999800000;24499800000
2558;26785566000;23999800000;24499800000
2559;26785567000;23999800000;24499800000
2560;26785568000;23999800000;24499800000
2561;26785570000;23999800000;24499800000
2562;26785773000;23999811111;24499811111
2563;26785789000;24000111111;24500111111
2564;26785790000;24000111111;24500111111
2565;26785791000;24000111111;24500111111
2566;26824424000;24041466666;24541466666
2569;26824428000;24041466666;24541466666
2570;26824429000;24041466666;24541466666
2571;26824430000;24041466666;24541466666
2572;26824431000;24041466666;24541466666
2573;26824602000;24041477777;24541477777
2751;26879929000;24708500000;25208500000
2752;26879936000;24708500000;25208500000
2753;27170512000;24749788888;25249788888
2799;27170633000;24916433333;25416433333
2800;27170637000;24916433333;25416433333
2801;27170638000;24916433333;25416433333
2802;27170639000;24916433333;25416433333
2803;27170640000;24916433333;25416433333
2804;27170744000;24916455555;25416455555
2805;27170748000;24916833333;25416833333
2806;27170749000;24916833333;25416833333
2807;27170750000;24916833333;25416833333
2808;27170769000;24958100000;25458100000
2809;27170771000;24958100000;25458100000
2810;27170773000;24958100000;25458100000
2811;27170775000;24958100000;25458100000
2812;27170777000;24958100000;25458100000
2813;27170779000;24958100000;25458100000
2814;27170781000;24958100000;25458100000
2815;27170888000;24958122222;25458122222
2816;27170891000;24958500000;25458500000
2817;27170892000;24958500000;25458500000
2818;27170894000;24958500000;25458500000
2819;27170910000;24999766666;25499766666
2820;27170913000;24999766666;25499766666
2821;27170914000;24999766666;25499766666
2822;27170916000;24999766666;25499766666
2823;27170918000;24999766666;25499766666
2824;27170920000;24999766666;25499766666
2825;27170922000;24999766666;25499766666
2826;27170988000;24999777777;25499777777
2827;27170991000;25000144444;25500144444
2828;27170992000;25000144444;25500144444
2829;27170993000;25000144444;25500144444
2830;27204864000;25041433333;25541433333
2832;27229938000;25041433333;25541433333
2833;27229940000;25041433333;25541433333
2834;27229942000;25041433333;25541433333
2835;27229943000;25041433333;25541433333
2837;27230099000;25041455555;25541455555
2839;27230102000;25041800000;25541800000
2840;27230103000;25041800000;25541800000
2841;27241183000;25083100000;25583100000
2842;27241187000;25083100000;25583100000
2843;27241188000;25083100000;25583100000
2844;27241189000;25083100000;25583100000
2845;27241191000;25083100000;25583100000
2846;27241192000;25083100000;25583100000
2847;27241193000;25083100000;25583100000
2848;27241393000;25083122222;25583122222
2849;27241408000;25083477777;25583477777
2850;27241410000;25083477777;25583477777
2851;27241411000;25083477777;25583477777
2852;27282150000;25124766666;25624766666
2853;27282153000;25124766666;25624766666
2854;27282155000;25124766666;25624766666
2855;27282156000;25124766666;25624766666
2856;27282157000;25124766666;25624766666
2857;27282159000;25124766666;25624766666
2858;27282170000;25124766666;25624766666
2859;27282346000;25124777777;25624777777
2860;27282361000;25125177777;25625177777
2862;27282652000;25125177777;25625177777
2863;27323844000;25166433333;25666433333
2864;27323848000;25166433333;25666433333
2865;27323849000;25166433333;25666433333
2866;27323850000;25166433333;25666433333
2867;27323850000;25166433333;25666433333
2868;27323851000;25166433333;25666433333
2869;27323852000;25166433333;25666433333
2870;27324053000;25166444444;25666444444
2871;27324059000;25166811111;25666811111
2872;27324060000;25166811111;25666811111
2873;27324061000;25166811111;25666811111
2874;27365491000;25208100000;25708100000
2884;27365682000;25208455555;25708455555
2885;27407080000;25249766666;25749766666
2886;27407083000;25249766666;25749766666
2887;27407084000;25249766666;25749766666
2888;27407085000;25249766666;25749766666
2889;27407086000;25249766666;25749766666
2890;27407087000;25249766666;25749766666
2891;27407088000;25249766666;25749766666
2892;27407231000;25249777777;25749777777
2893;27407233000;25250188888;25750188888
2894;27407234000;25250188888;25750188888
2895;27407235000;25250188888;25750188888
2896;27448609000;25291433333;25791433333
2897;27448613000;25291433333;25791433333
2898;27448614000;25291433333;25791433333
2899;27448615000;25291433333;25791433333
2900;27448616000;25291433333;25791433333
2901;27448617000;25291433333;25791433333
2902;27448618000;25291433333;25791433333
2903;27448824000;25291444444;25791444444
2904;27448840000;25291788888;25791788888
2905;27448841000;25291788888;25791788888
2906;27448842000;25291788888;25791788888
2907;27490162000;25333100000;25833100000
2908;27490166000;25333100000;25833100000
2909;27490167000;25333100000;25833100000
2910;27490168000;25333100000;25833100000
2911;27490169000;25333100000;25833100000
2912;27490170000;25333100000;25833100000
2913;27490171000;25333100000;25833100000
2914;27490371000;25333111111;25833111111
2915;27490377000;25333455555;25833455555
2916;27490378000;25333455555;25833455555
2917;27490379000;25333455555;25833455555
2918;27531595000;25374766666;25874766666
2929;27573181000;25416466666;25916466666
2931;27626784000;25416466666;25916466666
2932;27626787000;25416466666;25916466666
2933;27626788000;25416466666;25916466666
2934;27626790000;25416466666;25916466666
2935;27626791000;25416466666;25916466666
2936;27627023000;25416477777;25916477777
2937;27627039000;25416744444;25916744444
2938;27627040000;25416744444;25916744444
2939;27627042000;25416744444;25916744444
2940;27627070000;25458144444;25958144444
2941;27627073000;25458144444;25958144444
2942;27627075000;25458144444;25958144444
2943;27627077000;25458144444;25958144444
2945;27627079000;25458144444;25958144444
2946;27627081000;25458144444;25958144444
2947;27627185000;25458166666;25958166666
2951;27655939000;25499800000;25999800000
2952;27655941000;25499800000;25999800000
2953;27655942000;25499800000;25999800000
2954;27655943000;25499800000;25999800000
2955;27655944000;25499800000;25999800000
2956;27655946000;25499800000;25999800000
2957;27655947000;25499800000;25999800000
2958;27656155000;25499811111;25999811111
2959;27656170000;25500088888;26000088888
2961;27656172000;25500088888;26000088888
2962;27697402000;25541466666;26041466666
2973;27738737000;25583133333;26083133333
2975;27738741000;25583133333;26083133333
2976;27738742000;25583133333;26083133333
2977;27738744000;25583133333;26083133333
2978;27738745000;25583133333;26083133333
2979;27738746000;25583133333;26083133333
2980;27738947000;25583144444;26083144444
2981;27738963000;25583422222;26083422222
2982;27738964000;25583422222;26083422222
2983;27738965000;25583422222;26083422222
2984;27779884000;25624800000;26124800000
2985;27779889000;25624800000;26124800000
2986;27779891000;25624800000;26124800000
2987;27779893000;25624800000;26124800000
2988;27779895000;25624800000;26124800000
2989;27779897000;25624800000;26124800000
2990;27779899000;25624800000;26124800000
2991;27780114000;25624811111;26124811111
2992;27780119000;25625088888;26125088888
2993;27780120000;25625088888;26125088888
2994;27780121000;25625088888;26125088888
2995;27820809000;25666466666;26166466666
2996;27820811000;25666466666;26166466666
2997;27820813000;25666466666;26166466666
2998;27820814000;25666466666;26166466666
2999;27820815000;25666466666;26166466666
3000;27820816000;25666466666;26166466666
3001;27820826000;25666466666;26166466666
3002;27820960000;25666477777;26166477777
3003;27820962000;25666755555;26166755555
3004;27820964000;25666755555;26166755555
3005;27820965000;25666755555;26166755555
3006;27861761000;25708133333;26208133333
3017;27902869000;25749800000;26249800000
3020;27902873000;25749800000;26249800000
3021;27902874000;25749800000;26249800000
3022;27902875000;25749800000;26249800000
3023;27902876000;25749800000;26249800000
3024;27903084000;25749811111;26249811111
3025;27903099000;25750077777;26250077777
3026;27903101000;25750077777;26250077777
3027;27903101000;25750077777;26250077777
3028;27943841000;25791466666;26291466666
3029;27943844000;25791466666;26291466666
3030;27943845000;25791466666;26291466666
3031;27943847000;25791466666;26291466666
3032;27943848000;25791466666;26291466666
3033;27943849000;25791466666;26291466666
3034;27943850000;25791466666;26291466666
3035;27944056000;25791477777;26291477777
3036;27944062000;25791744444;26291744444
3037;27944064000;25791744444;26291744444
3038;27944065000;25791744444;26291744444
3039;27984688000;25833133333;26333133333
3040;27984691000;25833133333;26333133333
3041;27984692000;25833133333;26333133333
3042;27984693000;25833133333;26333133333
3043;27984694000;25833133333;26333133333
3044;27984695000;25833133333;26333133333
3045;27984705000;25833133333;26333133333
3046;27984839000;25833155555;26333155555
3047;27984841000;25833411111;26333411111
3048;27984842000;25833411111;26333411111
3049;27984843000;25833411111;26333411111
3050;28025635000;25874800000;26374800000
3063;28066607000;25916466666;26416466666
3066;28066610000;25916466666;26416466666
3067;28066611000;25916466666;26416466666
3068;28066811000;25916477777;26416477777
3069;28066826000;25916811111;26416811111
3071;28067424000;25916811111;26416811111
3072;28107225000;25958122222;26458122222
3073;28107229000;25958122222;26458122222
3074;28107230000;25958122222;26458122222
3075;28107231000;25958122222;26458122222
3076;28107232000;25958122222;26458122222
3077;28107233000;25958122222;26458122222
3078;28107234000;25958122222;26458122222
3079;28107441000;25958133333;26458133333
3080;28107456000;25958422222;26458422222
3081;28107457000;25958422222;26458422222
3082;28107458000;25958422222;26458422222
3083;28147346000;25999788888;26499788888
3084;28147349000;25999788888;26499788888
3085;28147350000;25999788888;26499788888
3086;28147351000;25999788888;26499788888
3087;28147352000;25999788888;26499788888
3088;28147353000;25999788888;26499788888
3089;28147354000;25999788888;26499788888
3090;28147553000;25999800000;26499800000
3091;28147559000;26000077777;26500077777
3092;28147560000;26000077777;26500077777
3093;28147561000;26000077777;26500077777
3094;28187416000;26041455555;26541455555
3109;28227676000;26083122222;26583122222
3112;28227886000;26083133333;26583133333
3113;28227902000;26083433333;26583433333
3114;28227903000;26083433333;26583433333
3115;28227904000;26083433333;26583433333
3116;28267823000;26124788888;26624788888
3117;28267827000;26124788888;26624788888
3118;28267828000;26124788888;26624788888
3119;28267829000;26124788888;26624788888
3120;28267830000;26124788888;26624788888
3121;28267836000;26124788888;26624788888
3122;28267838000;26124788888;26624788888
3123;28268101000;26124800000;26624800000
3124;28268107000;26125100000;26625100000
3125;28268108000;26125100000;26625100000
3126;28268118000;26125100000;26625100000
3127;28307904000;26166455555;26666455555
3128;28307907000;26166455555;26666455555
3129;28307908000;26166455555;26666455555
3130;28307909000;26166455555;26666455555
3131;28307910000;26166455555;26666455555
3132;28307920000;26166455555;26666455555
3133;28307921000;26166455555;26666455555
3134;28308064000;26166466666;26666466666
3135;28308066000;26166744444;26666744444
3136;28308067000;26166744444;26666744444
3137;28308068000;26166744444;26666744444
3138;28348016000;26208133333;26708133333
3154;28388337000;26249800000;26749800000
3158;28388445000;26250100000;26750100000
3159;28388447000;26250100000;26750100000
3160;28428479000;26291477777;26791477777
3161;28428485000;26291477777;26791477777
3162;28428488000;26291477777;26791477777
3163;28428490000;26291477777;26791477777
3164;28428493000;26291477777;26791477777
3165;28428494000;26291477777;26791477777
3166;28428496000;26291477777;26791477777
3167;28428692000;26291488888;26791488888
3168;28428696000;26291766666;26791766666
3169;28428698000;26291766666;26791766666
3170;28428699000;26291766666;26791766666
3171;28468576000;26333133333;26833133333
3172;28468580000;26333133333;26833133333
3173;28468581000;26333133333;26833133333
3174;28468583000;26333133333;26833133333
3175;28468584000;26333133333;26833133333
3176;28468586000;26333133333;26833133333
3177;28468587000;26333133333;26833133333
3178;28468799000;26333155555;26833155555
3179;28468803000;26333422222;26833422222
3180;28468804000;26333422222;26833422222
3181;28468805000;26333422222;26833422222
3182;28508646000;26374800000;26874800000
3203;28548866000;26416733333;26916733333
3208;28589080000;26458133333;26958133333
3210;28589084000;26458133333;26958133333
3211;28589284000;26458155555;26958155555
3212;28589300000;26458411111;26958411111
3213;28589302000;26458411111;26958411111
3214;28589303000;26458411111;26958411111
3215;28629152000;26499800000;26999800000
3222;28629325000;26499811111;26999811111
3223;28629330000;26500122222;27000122222
3224;28629331000;26500122222;27000122222
3225;28629332000;26500122222;27000122222
3226;28669208000;26541466666;27041466666
3302;28915262000;26791788888;27291788888
3353;29098425000;26999777777;27499777777
3400;29243466000;27166811111;27666811111
3445;29388071000;27333477777;27833477777
3488;29533287000;27500188888;28000188888
3539;29715763000;27708133333;28208133333
3589;29898218000;27916466666;28416466666
3643;30041490000;28083455555;28583455555
3692;30224456000;28291466666;28791466666
3745;30403302000;28499788888;28999788888
3794;30547778000;28666466666;29166466666
3847;30547793000;28874800000;29374800000
3848;30547795000;28874800000;29374800000
3849;30726556000;28874811111;29374811111
3898;30726578000;29083133333;29583133333
3900;30726580000;29083133333;29583133333
3901;30726581000;29083133333;29583133333
3903;30726583000;29083133333;29583133333
3904;30906354000;29083155555;29583155555
3986;30906370000;29416466666;29916466666
3987;30906372000;29416466666;29916466666
3988;30906373000;29416466666;29916466666
3989;30906375000;29416466666;29916466666
3990;30906376000;29416466666;29916466666
3991;30906377000;29416466666;29916466666
3992;31192911000;29416477777;29916477777
4048;31192927000;29625100000;30125100000
4049;31192928000;29625100000;30125100000
4050;31192929000;29625100000;30125100000
4051;31405294000;29666466666;30166466666
4140;31688558000;29999800000;30499800000
4214;31899035000;30250122222;30750122222
4293;32180084000;30583122222;31083122222
4392;32493915000;30958133333;31458133333
4497;32804681000;31333133333;31833133333
4559;33013801000;31583133333;32083133333
4655;33289520000;31916755555;32416755555
4718;33495416000;32166477777;32666477777
4815;33495432000;32541466666;33041466666
4816;33495434000;32541466666;33041466666
4817;33803130000;32541477777;33041477777
4930;33803146000;32958444444;33458444444
4931;34176193000;32999800000;33499800000
5046;34511120000;33416466666;33916466666
5161;34839011000;33833433333;34333433333
5253;35127682000;34208133333;34708133333
5313;35286968000;34416744444;34916744444
5344;35372150000;34541466666;35041466666
5351;35405023000;34583122222;35083122222
5374;35472077000;34666466666;35166466666
5379;35472203000;34666755555;35166755555
5380;35472206000;34666755555;35166755555
5381;35472208000;34666755555;35166755555
5382;35505629000;34708133333;35208133333
5389;35505847000;34708155555;35208155555
5390;35505863000;34708411111;35208411111
5391;35505864000;34708411111;35208411111
5392;35505866000;34708411111;35208411111
5393;35539534000;34749788888;35249788888
5418;35609801000;34833133333;35333133333
5420;35609832000;34833133333;35333133333
5421;35609834000;34833133333;35333133333
5422;35609984000;34833155555;35333155555
5423;35609989000;34833444444;35333444444
5424;35609992000;34833444444;35333444444
5425;35609993000;34833444444;35333444444
5426;35642365000;34874800000;35374800000
5427;35642369000;34874800000;35374800000
5428;35642370000;34874800000;35374800000
5429;35642372000;34874800000;35374800000
5430;35642374000;34874800000;35374800000
5431;35642375000;34874800000;35374800000
5432;35642376000;34874800000;35374800000
5433;35642583000;34874811111;35374811111
5434;35642599000;34875111111;35375111111
5435;35642600000;34875111111;35375111111
5436;35642602000;34875111111;35375111111
5437;35676989000;34916455555;35416455555
5438;35676993000;34916455555;35416455555
5439;35676994000;34916455555;35416455555
5440;35676995000;34916455555;35416455555
5441;35676997000;34916455555;35416455555
5442;35676998000;34916455555;35416455555
5443;35676999000;34916455555;35416455555
5444;35677190000;34916466666;35416466666
5445;35677205000;34916766666;35416766666
5446;35677207000;34916766666;35416766666
5447;35677208000;34916766666;35416766666
5448;35711803000;34958133333;35458133333
5449;35711807000;34958133333;35458133333
5450;35711808000;34958133333;35458133333
5451;35711809000;34958133333;35458133333
5452;35711810000;34958133333;35458133333
5453;35711812000;34958133333;35458133333
5454;35711813000;34958133333;35458133333
5455;35712013000;34958155555;35458155555
5456;35712028000;34958444444;35458444444
5459;35747689000;34999800000;35499800000
5460;35747693000;34999800000;35499800000
5461;35747694000;34999800000;35499800000
5462;35747696000;34999800000;35499800000
5463;35747697000;34999800000;35499800000
5464;35747698000;34999800000;35499800000
5465;35747699000;34999800000;35499800000
5466;35747798000;34999811111;35499811111
5467;35747813000;35000111111;35500111111
5468;35747815000;35000111111;35500111111
5469;35747816000;35000111111;35500111111
5470;35781871000;35041466666;35541466666
5471;35781875000;35041466666;35541466666
5472;35781876000;35041466666;35541466666
5473;35781878000;35041466666;35541466666
5474;35781879000;35041466666;35541466666
5475;35781881000;35041466666;35541466666
5476;35781882000;35041466666;35541466666
5477;35782114000;35041477777;35541477777
5478;35782130000;35041755555;35541755555
5479;35782131000;35041755555;35541755555
5480;35782133000;35041755555;35541755555
5481;35817146000;35083122222;35583122222
5482;35817150000;35083122222;35583122222
5483;35817151000;35083122222;35583122222
5484;35817152000;35083122222;35583122222
5485;35817154000;35083122222;35583122222
5486;35817155000;35083122222;35583122222
5487;35817156000;35083122222;35583122222
5488;35817294000;35083133333;35583133333
5489;35817297000;35083433333;35583433333
5490;35817298000;35083433333;35583433333
5491;35817299000;35083433333;35583433333
5492;35852524000;35124800000;35624800000
5493;35852527000;35124800000;35624800000
5494;35852528000;35124800000;35624800000
5495;35852529000;35124800000;35624800000
5496;35852530000;35124800000;35624800000
5497;35852531000;35124800000;35624800000
5498;35852532000;35124800000;35624800000
5499;35852675000;35124811111;35624811111
