seqnum;now;rtptime;deadline
1;12158346000;11264044444;11764044444
3;12239601000;11295277777;11795277777
25;12322395000;11378588888;11878588888
26;12322403000;11378588888;11878588888
27;12322405000;11378588888;11878588888
28;12322407000;11378588888;11878588888
29;12322408000;11378588888;11878588888
30;12322410000;11378588888;11878588888
31;12322412000;11378588888;11878588888
32;12322618000;11378611111;11878611111
33;12322634000;11378966666;11878966666
34;12322636000;11378966666;11878966666
35;12322637000;11378966666;11878966666
36;12359782000;11420244444;11920244444
37;12359785000;11420244444;11920244444
38;12359787000;11420244444;11920244444
39;12359788000;11420244444;11920244444
40;12458492000;11420244444;11920244444
41;12458512000;11420244444;11920244444
42;12458555000;11420244444;11920244444
43;12509006000;11420266666;11920266666
69;12509021000;11545266666;12045266666
70;12509022000;11545266666;12045266666
71;12509023000;11545266666;12045266666
72;12509025000;11545266666;12045266666
73;12509026000;11545266666;12045266666
74;12509027000;11545266666;12045266666
75;12509028000;11545266666;12045266666
76;12633224000;11545288888;12045288888
77;12633239000;11545688888;12045688888
78;12633240000;11545688888;12045688888
79;12633241000;11545688888;12045688888
80;12672428000;11586922222;12086922222
81;12672431000;11586922222;12086922222
82;12759012000;11586922222;12086922222
83;12759014000;11586922222;12086922222
84;12759029000;11586922222;12086922222
85;12759044000;11586922222;12086922222
86;12759045000;11586922222;12086922222
87;12851230000;11586955555;12086955555
113;12851245000;11711922222;12211922222
114;12851246000;11711922222;12211922222
115;12851247000;11711922222;12211922222
116;12851248000;11711922222;12211922222
117;12851249000;11711922222;12211922222
118;12851250000;11711922222;12211922222
119;12851251000;11711922222;12211922222
120;12973547000;11711944444;12211944444
122;12973849000;11712255555;12212255555
123;12973862000;11712255555;12212255555
124;13010589000;11753588888;12253588888
125;13010593000;11753588888;12253588888
126;13010594000;11753588888;12253588888
127;13059579000;11753588888;12253588888
128;13059581000;11753588888;12253588888
129;13059586000;11753588888;12253588888
130;13059601000;11753588888;12253588888
131;13109970000;11753600000;12253600000
157;13109977000;11878577777;12378577777
158;13109978000;11878577777;12378577777
159;13109979000;11878577777;12378577777
160;13109980000;11878577777;12378577777
161;13109981000;11878577777;12378577777
162;13109982000;11878577777;12378577777
164;13274629000;11878600000;12378600000
165;13274633000;11878911111;12378911111
166;13274634000;11878911111;12378911111
169;13311239000;11920255555;12420255555
170;13311242000;11920255555;12420255555
171;13311243000;11920255555;12420255555
172;13311244000;11920255555;12420255555
173;13311245000;11920255555;12420255555
174;13359858000;11920255555;12420255555
175;13410377000;11920266666;12420266666
200;13410395000;12003944444;12503944444
203;13660430000;12045233333;12545233333
210;13660447000;12045588888;12545588888
211;13660449000;12045588888;12545588888
212;13660453000;12086911111;12586911111
214;13660455000;12086911111;12586911111
215;13660456000;12086911111;12586911111
216;13660459000;12086911111;12586911111
217;13660460000;12086911111;12586911111
219;13660604000;12086933333;12586933333
223;13660623000;12128577777;12628577777
224;13660624000;12128577777;12628577777
225;13660625000;12128577777;12628577777
226;13660627000;12128577777;12628577777
227;13660628000;12128577777;12628577777
228;13660629000;12128577777;12628577777
229;13660630000;12128577777;12628577777
230;13710611000;12128600000;12628600000
251;13710615000;12211922222;12711922222
258;13960799000;12253588888;12753588888
266;13960812000;12253888888;12753888888
267;13960827000;12295255555;12795255555
268;13960828000;12295255555;12795255555
269;13960829000;12295255555;12795255555
270;13960830000;12295255555;12795255555
271;13960832000;12295255555;12795255555
272;13960834000;12295255555;12795255555
273;13960835000;12295255555;12795255555
274;13960954000;12295266666;12795266666
277;13960985000;12295533333;12795533333
278;13976601000;12336911111;12836911111
299;14134712000;12378877777;12878877777
317;14261196000;12461922222;12961922222
323;14277324000;12503588888;13003588888
356;14460354000;12628577777;13128577777
376;14561495000;12670511111;13170511111
380;14576286000;12711911111;13211911111
414;14743065000;12836922222;13336922222
435;14879616000;12920244444;13420244444
470;15037187000;13045244444;13545244444
498;15205402000;13170255555;13670255555
530;15280397000;13253922222;13753922222
565;15527209000;13420244444;13920244444
595;15586573000;13503888888;14003888888
638;15832511000;13670555555;14170555555
665;15861384000;13795255555;14295255555
708;16062905000;13961922222;14461922222
710;16062908000;13961922222;14461922222
711;16062913000;13961922222;14461922222
713;16062915000;13961922222;14461922222
714;16063019000;13961977777;14461977777
718;16063032000;14003577777;14503577777
719;16063034000;14003577777;14503577777
720;16063035000;14003577777;14503577777
721;16063036000;14003577777;14503577777
722;16063037000;14003577777;14503577777
723;16063038000;14003577777;14503577777
725;16063259000;14003600000;14503600000
729;16063266000;14045244444;14545244444
730;16063267000;14045244444;14545244444
731;16063269000;14045244444;14545244444
732;16063270000;14045244444;14545244444
733;16063280000;14045244444;14545244444
734;16063281000;14045244444;14545244444
735;16063282000;14045244444;14545244444
736;16110756000;14045266666;14545266666
785;16110772000;14253577777;14753577777
786;16110773000;14253577777;14753577777
787;16110774000;14253577777;14753577777
788;16110775000;14253577777;14753577777
789;16110776000;14253577777;14753577777
790;16110777000;14253577777;14753577777
791;16269339000;14253588888;14753588888
792;16269355000;14253922222;14753922222
793;16269356000;14253922222;14753922222
794;16269357000;14253922222;14753922222
795;16278628000;14295255555;14795255555
796;16278632000;14295255555;14795255555
797;16278633000;14295255555;14795255555
798;16278634000;14295255555;14795255555
799;16278635000;14295255555;14795255555
800;16278636000;14295255555;14795255555
801;16278637000;14295255555;14795255555
802;16278842000;14295266666;14795266666
803;16278857000;14295555555;14795555555
804;16278859000;14295555555;14795555555
805;16278860000;14295555555;14795555555
806;16281903000;14336911111;14836911111
807;16281906000;14336911111;14836911111
808;16363158000;14336911111;14836911111
809;16363160000;14336911111;14836911111
810;16363205000;14336911111;14836911111
811;16363206000;14336911111;14836911111
812;16363224000;14336911111;14836911111
816;16412435000;14337255555;14837255555
862;16567921000;14545244444;15045244444
863;16567925000;14545244444;15045244444
864;16567926000;14545244444;15045244444
865;16567927000;14545244444;15045244444
866;16567928000;14545244444;15045244444
867;16567929000;14545244444;15045244444
868;16568120000;14545266666;15045266666
869;16568126000;14545588888;15045588888
870;16568127000;14545588888;15045588888
871;16568128000;14545588888;15045588888
873;16577898000;14586922222;15086922222
874;16577901000;14586922222;15086922222
875;16577902000;14586922222;15086922222
876;16577903000;14586922222;15086922222
877;16577904000;14586922222;15086922222
878;16577905000;14586922222;15086922222
879;16578024000;14586944444;15086944444
880;16578039000;14587244444;15087244444
881;16578040000;14587244444;15087244444
883;16581241000;14628588888;15128588888
884;16581244000;14628588888;15128588888
885;16581245000;14628588888;15128588888
886;16581246000;14628588888;15128588888
887;16663550000;14628588888;15128588888
888;16663552000;14628588888;15128588888
889;16663605000;14628588888;15128588888
890;16714000000;14628600000;15128600000
941;16714004000;14836911111;15336911111
942;16714006000;14836911111;15336911111
943;16714007000;14836911111;15336911111
944;16714008000;14836911111;15336911111
945;16916210000;14836933333;15336933333
946;16916225000;14837277777;15337277777
947;16916226000;14837277777;15337277777
948;16916227000;14837277777;15337277777
949;16949571000;14878600000;15378600000
950;16949574000;14878600000;15378600000
951;16949583000;14878600000;15378600000
952;16949584000;14878600000;15378600000
953;16949585000;14878600000;15378600000
954;16949586000;14878600000;15378600000
955;16949587000;14878600000;15378600000
956;16949784000;14878611111;15378611111
957;16949799000;14878922222;15378922222
958;16949800000;14878922222;15378922222
959;16949802000;14878922222;15378922222
960;16979191000;14920255555;15420255555
1022;17083039000;15128600000;15628600000
1023;17083054000;15128922222;15628922222
1024;17083055000;15128922222;15628922222
1025;17083056000;15128922222;15628922222
1026;17095162000;15170255555;15670255555
1027;17095166000;15170255555;15670255555
1028;17095167000;15170255555;15670255555
1032;17095168000;15170255555;15670255555
1033;17095390000;15170277777;15670277777
1034;17095405000;15170566666;15670566666
1035;17095406000;15170566666;15670566666
1036;17095407000;15170566666;15670566666
1037;17109277000;15211922222;15711922222
1038;17109280000;15211922222;15711922222
1039;17109281000;15211922222;15711922222
1040;17109283000;15211922222;15711922222
1041;17109284000;15211922222;15711922222
1042;17109284000;15211922222;15711922222
1043;17109285000;15211922222;15711922222
1044;17109499000;15211944444;15711944444
1047;17264469000;15212266666;15712266666
1048;17356022000;15253588888;15753588888
1098;17516050000;15420233333;15920233333
1099;17516171000;15420255555;15920255555
1100;17516175000;15420533333;15920533333
1101;17516176000;15420533333;15920533333
1102;17516177000;15420533333;15920533333
1103;17549727000;15461911111;15961911111
1104;17549731000;15461911111;15961911111
1105;17549732000;15461911111;15961911111
1106;17549733000;15461911111;15961911111
1107;17549734000;15461911111;15961911111
1110;17550427000;15461933333;15961933333
1112;17550433000;15462311111;15962311111
1113;17550434000;15462311111;15962311111
1114;17579441000;15503588888;16003588888
1183;17697320000;15753577777;16253577777
1184;17697324000;15753577777;16253577777
1185;17697325000;15753577777;16253577777
1186;17697326000;15753577777;16253577777
1187;17697530000;15753600000;16253600000
1188;17697546000;15753900000;16253900000
1189;17697547000;15753900000;16253900000
1190;17697548000;15753900000;16253900000
1191;17710710000;15795255555;16295255555
1192;17710713000;15795255555;16295255555
1193;17710714000;15795255555;16295255555
1194;17710715000;15795255555;16295255555
1195;17710716000;15795255555;16295255555
1196;17710717000;15795255555;16295255555
1198;17710932000;15795277777;16295277777
1199;17710947000;15795555555;16295555555
1200;17710948000;15795555555;16295555555
1201;17710949000;15795555555;16295555555
1202;17724255000;15836922222;16336922222
1203;17724257000;15836922222;16336922222
1204;17724258000;15836922222;16336922222
1205;17864875000;15836922222;16336922222
1206;17864891000;15836922222;16336922222
1207;17864898000;15836922222;16336922222
1208;17864912000;15836922222;16336922222
1209;17915383000;15836933333;16336933333
1262;17915389000;16045255555;16545255555
1263;17915390000;16045255555;16545255555
1264;18117534000;16045266666;16545266666
1265;18117550000;16045555555;16545555555
1266;18117551000;16045555555;16545555555
1267;18117552000;16045555555;16545555555
1268;18150858000;16086922222;16586922222
1269;18150862000;16086922222;16586922222
1270;18150863000;16086922222;16586922222
1271;18150864000;16086922222;16586922222
1272;18150865000;16086922222;16586922222
1273;18150866000;16086922222;16586922222
1274;18150867000;16086922222;16586922222
1275;18151064000;16086955555;16586955555
1276;18151079000;16087266666;16587266666
1277;18151080000;16087266666;16587266666
1278;18151081000;16087266666;16587266666
1279;18180506000;16128588888;16628588888
1339;18277435000;16336933333;16836933333
1340;18277438000;16336933333;16836933333
1341;18277593000;16336966666;16836966666
1343;18277599000;16337322222;16837322222
1344;18277600000;16337322222;16837322222
1345;18290561000;16378600000;16878600000
1346;18290564000;16378600000;16878600000
1347;18290566000;16378600000;16878600000
1348;18290567000;16378600000;16878600000
1349;18290568000;16378600000;16878600000
1350;18290576000;16378600000;16878600000
1351;18290577000;16378600000;16878600000
1352;18290732000;16378622222;16878622222
1353;18290738000;16378900000;16878900000
1354;18290739000;16378900000;16878900000
1355;18290740000;16378900000;16878900000
1356;18305864000;16420255555;16920255555
1357;18305866000;16420255555;16920255555
1358;18305867000;16420255555;16920255555
1359;18305868000;16420255555;16920255555
1360;18305869000;16420255555;16920255555
1361;18305870000;16420255555;16920255555
1363;18305997000;16420266666;16920266666
1367;18465768000;16461911111;16961911111
1368;18465770000;16461911111;16961911111
1369;18465772000;16461911111;16961911111
1370;18465773000;16461911111;16961911111
1371;18465774000;16461911111;16961911111
1372;18465775000;16461911111;16961911111
1373;18465777000;16461911111;16961911111
1374;18557428000;16461933333;16961933333
1420;18557444000;16628888888;17128888888
1421;18557445000;16628888888;17128888888
1422;18751993000;16670255555;17170255555
1423;18751996000;16670255555;17170255555
1424;18751997000;16670255555;17170255555
1425;18751998000;16670255555;17170255555
1426;18751999000;16670255555;17170255555
1427;18752000000;16670255555;17170255555
1428;18752001000;16670255555;17170255555
1429;18752198000;16670277777;17170277777
1430;18752214000;16670533333;17170533333
1431;18752215000;16670533333;17170533333
1432;18752216000;16670533333;17170533333
1433;18780842000;16711911111;17211911111
1501;18897092000;16962055555;17462055555
1502;18897096000;16962055555;17462055555
1503;18897097000;16962055555;17462055555
1504;18897098000;16962055555;17462055555
1505;18897099000;16962055555;17462055555
1506;18897253000;16962244444;17462244444
1507;18897259000;16962644444;17462644444
1508;18897260000;16962644444;17462644444
1509;18897261000;16962644444;17462644444
1510;18910685000;17003577777;17503577777
1511;18910688000;17003577777;17503577777
1512;18910689000;17003577777;17503577777
1513;18910690000;17003577777;17503577777
1514;18910691000;17003577777;17503577777
1515;18910692000;17003577777;17503577777
1516;18910693000;17003577777;17503577777
1517;18910891000;17003600000;17503600000
1518;18910906000;17003866666;17503866666
1519;18910907000;17003866666;17503866666
1520;18910908000;17003866666;17503866666
1521;18924630000;17045244444;17545244444
1522;18924633000;17045244444;17545244444
1523;18924634000;17045244444;17545244444
1524;19066115000;17045244444;17545244444
1525;19066117000;17045244444;17545244444
1526;19066133000;17045244444;17545244444
1527;19066135000;17045244444;17545244444
1528;19116567000;17045266666;17545266666
1578;19317799000;17253588888;17753588888
1579;19317801000;17253588888;17753588888
1580;19317802000;17253588888;17753588888
1581;19317803000;17253588888;17753588888
1582;19317804000;17253588888;17753588888
1583;19317959000;17253600000;17753600000
1584;19317965000;17253911111;17753911111
1586;19317967000;17253911111;17753911111
1587;19352140000;17295255555;17795255555
1588;19352143000;17295255555;17795255555
1589;19352144000;17295255555;17795255555
1591;19352145000;17295255555;17795255555
1592;19352146000;17295255555;17795255555
1593;19352147000;17295255555;17795255555
1594;19352344000;17295277777;17795277777
1595;19352359000;17295566666;17795566666
1596;19352361000;17295566666;17795566666
1601;19381710000;17336911111;17836911111
1662;19494104000;17545600000;18045600000
1663;19494107000;17545600000;18045600000
1664;19513493000;17586922222;18086922222
1665;19513496000;17586922222;18086922222
1666;19513497000;17586922222;18086922222
1667;19513498000;17586922222;18086922222
1668;19513499000;17586922222;18086922222
1669;19513500000;17586922222;18086922222
1670;19513501000;17586922222;18086922222
1671;19513698000;17586944444;18086944444
1672;19513714000;17587266666;18087266666
1673;19513715000;17587266666;18087266666
1674;19513716000;17587266666;18087266666
1675;19524244000;17628577777;18128577777
1676;19524248000;17628577777;18128577777
1677;19524249000;17628577777;18128577777
1678;19524250000;17628577777;18128577777
1679;19524251000;17628577777;18128577777
1680;19524252000;17628577777;18128577777
1681;19524265000;17628577777;18128577777
1682;19524380000;17628600000;18128600000
1683;19524384000;17628888888;18128888888
1684;19666689000;17628888888;18128888888
1685;19666691000;17628888888;18128888888
1686;19717067000;17670255555;18170255555
1739;19881121000;17837277777;18337277777
1741;19918505000;17878600000;18378600000
1742;19918509000;17878600000;18378600000
1743;19918510000;17878600000;18378600000
1744;19918511000;17878600000;18378600000
1745;19918512000;17878600000;18378600000
1746;19918513000;17878600000;18378600000
1747;19918514000;17878600000;18378600000
1748;19918627000;17878611111;18378611111
1751;19918633000;17878922222;18378922222
1752;19952723000;17920244444;18420244444
1753;19952726000;17920244444;18420244444
1754;19952727000;17920244444;18420244444
1755;19952728000;17920244444;18420244444
1756;19952729000;17920244444;18420244444
1757;19952730000;17920244444;18420244444
1758;19952731000;17920244444;18420244444
1759;19952929000;17920266666;18420266666
1760;19952944000;17920566666;18420566666
1761;19952945000;17920566666;18420566666
1762;19952946000;17920566666;18420566666
1763;19982422000;17961911111;18461911111
1819;20079648000;18170255555;18670255555
1820;20079652000;18170255555;18670255555
1821;20079653000;18170255555;18670255555
1822;20079654000;18170255555;18670255555
1823;20079655000;18170255555;18670255555
1824;20079655000;18170255555;18670255555
1825;20079860000;18170266666;18670266666
1826;20079876000;18170544444;18670544444
1827;20079877000;18170544444;18670544444
1828;20079878000;18170544444;18670544444
1829;20092893000;18211922222;18711922222
1830;20092906000;18211922222;18711922222
1832;20092907000;18211922222;18711922222
1833;20092909000;18211922222;18711922222
1834;20092910000;18211922222;18711922222
1835;20092910000;18211922222;18711922222
1836;20093115000;18211933333;18711933333
1837;20093131000;18212266666;18712266666
1838;20093132000;18212266666;18712266666
1839;20093133000;18212266666;18712266666
1840;20108272000;18253577777;18753577777
1841;20108274000;18253577777;18753577777
1843;20108276000;18253577777;18753577777
1844;20267488000;18253577777;18753577777
1845;20267491000;18253577777;18753577777
1846;20267577000;18253577777;18753577777
1847;20318019000;18253600000;18753600000
1901;20318035000;18462077777;18962077777
1902;20520329000;18462288888;18962288888
1903;20520345000;18462722222;18962722222
1904;20520346000;18462722222;18962722222
1905;20520348000;18462722222;18962722222
1906;20553508000;18503588888;19003588888
1907;20553511000;18503588888;19003588888
1908;20553512000;18503588888;19003588888
1909;20553513000;18503588888;19003588888
1910;20553523000;18503588888;19003588888
1911;20553525000;18503588888;19003588888
1912;20553525000;18503588888;19003588888
1913;20553724000;18503600000;19003600000
1914;20553739000;18503877777;19003877777
1915;20553741000;18503877777;19003877777
1916;20553742000;18503877777;19003877777
1917;20583210000;18545244444;19045244444
1979;20687585000;18753600000;19253600000
1980;20687601000;18753900000;19253900000
1981;20687602000;18753900000;19253900000
1982;20687603000;18753900000;19253900000
1983;20699346000;18795255555;19295255555
1984;20699359000;18795255555;19295255555
1986;20699360000;18795255555;19295255555
1987;20699361000;18795255555;19295255555
1988;20699362000;18795255555;19295255555
1989;20699362000;18795255555;19295255555
1990;20699567000;18795277777;19295277777
1991;20699583000;18795544444;19295544444
1992;20699584000;18795544444;19295544444
1993;20699585000;18795544444;19295544444
1994;20713513000;18836911111;19336911111
1995;20713516000;18836911111;19336911111
1996;20713526000;18836911111;19336911111
1997;20713527000;18836911111;19336911111
1999;20713528000;18836911111;19336911111
2000;20713529000;18836911111;19336911111
2001;20713665000;18836933333;19336933333
2002;20713668000;18837244444;19337244444
2003;20713669000;18837244444;19337244444
2007;20918504000;18878577777;19378577777
2054;21082859000;19045233333;19545233333
2055;21082863000;19045233333;19545233333
2056;21083067000;19045255555;19545255555
2058;21083083000;19045544444;19545544444
2059;21083092000;19045544444;19545544444
2060;21119890000;19086966666;19586966666
2061;21119893000;19086966666;19586966666
2062;21119894000;19086966666;19586966666
2064;21119896000;19086966666;19586966666
2065;21119896000;19086966666;19586966666
2066;21119897000;19086966666;19586966666
2067;21120102000;19086977777;19586977777
2073;21155974000;19128577777;19628577777
2074;21155975000;19128577777;19628577777
2075;21155976000;19128577777;19628577777
2076;21155977000;19128577777;19628577777
2077;21155978000;19128577777;19628577777
2079;21156112000;19128877777;19628877777
2080;21156116000;19128877777;19628877777
2081;21156117000;19128877777;19628877777
2082;21188941000;19170244444;19670244444
2140;21283934000;19378600000;19878600000
2141;21283937000;19378600000;19878600000
2142;21283939000;19378600000;19878600000
2143;21283940000;19378600000;19878600000
2144;21284145000;19378622222;19878622222
2145;21284151000;19378900000;19878900000
2146;21284152000;19378900000;19878900000
2147;21284153000;19378900000;19878900000
2148;21296611000;19420255555;19920255555
2149;21296614000;19420255555;19920255555
2150;21296615000;19420255555;19920255555
2151;21296616000;19420255555;19920255555
2152;21296617000;19420255555;19920255555
2153;21296618000;19420255555;19920255555
2155;21296883000;19420266666;19920266666
2156;21296888000;19420555555;19920555555
2157;21296889000;19420555555;19920555555
2158;21296890000;19420555555;19920555555
2159;21311461000;19461911111;19961911111
2160;21311463000;19461911111;19961911111
2161;21311464000;19461911111;19961911111
2162;21311465000;19461911111;19961911111
2163;21311466000;19461911111;19961911111
2164;21468883000;19461911111;19961911111
2165;21468885000;19461911111;19961911111
2166;21519359000;19461933333;19961933333
2221;21721419000;19670277777;20170277777
2222;21721425000;19670544444;20170544444
2223;21721426000;19670544444;20170544444
2224;21721427000;19670544444;20170544444
2225;21754897000;19711955555;20211955555
2227;21755024000;19711955555;20211955555
2228;21755027000;19711955555;20211955555
2229;21755028000;19711955555;20211955555
2230;21755029000;19711955555;20211955555
2231;21755030000;19711955555;20211955555
2232;21755235000;19711966666;20211966666
2233;21755251000;19712277777;20212277777
2234;21755252000;19712277777;20212277777
2235;21755253000;19712277777;20212277777
2236;21784588000;19753577777;20253577777
2301;21882539000;19962277777;20462277777
2302;21895604000;20003588888;20503588888
2303;21895607000;20003588888;20503588888
2304;21895608000;20003588888;20503588888
2305;21895609000;20003588888;20503588888
2306;21895610000;20003588888;20503588888
2307;21895611000;20003588888;20503588888
2308;21895612000;20003588888;20503588888
2309;21895826000;20003611111;20503611111
2310;21895841000;20003900000;20503900000
2311;21895843000;20003900000;20503900000
2312;21895843000;20003900000;20503900000
2313;21910888000;20045244444;20545244444
2314;21910891000;20045244444;20545244444
2315;21910892000;20045244444;20545244444
2316;21910893000;20045244444;20545244444
2317;21910894000;20045244444;20545244444
2318;21910895000;20045244444;20545244444
2319;21910896000;20045244444;20545244444
2320;21911065000;20045266666;20545266666
2321;21911069000;20045566666;20545566666
2322;21911071000;20045566666;20545566666
2323;21911072000;20045566666;20545566666
2324;22119897000;20086911111;20586911111
2380;22322070000;20295255555;20795255555
2381;22322074000;20295255555;20795255555
2382;22322075000;20295255555;20795255555
2383;22322076000;20295255555;20795255555
2384;22322077000;20295255555;20795255555
2385;22322078000;20295255555;20795255555
2386;22322276000;20295277777;20795277777
2387;22322291000;20295577777;20795577777
2388;22322292000;20295577777;20795577777
2389;22322293000;20295577777;20795577777
2390;22355506000;20336911111;20836911111
2391;22355509000;20336911111;20836911111
2392;22355520000;20336911111;20836911111
2393;22355521000;20336911111;20836911111
2394;22355522000;20336911111;20836911111
2395;22355523000;20336911111;20836911111
2396;22355524000;20336911111;20836911111
2397;22355723000;20336933333;20836933333
2398;22355746000;20337255555;20837255555
2399;22355747000;20337255555;20837255555
2400;22355748000;20337255555;20837255555
2401;22385234000;20378577777;20878577777
2458;22482427000;20586922222;21086922222
2459;22482431000;20586922222;21086922222
2460;22482432000;20586922222;21086922222
2461;22482433000;20586922222;21086922222
2462;22482434000;20586922222;21086922222
2463;22482647000;20586944444;21086944444
2464;22482663000;20587277777;21087277777
2465;22482664000;20587277777;21087277777
2466;22482665000;20587277777;21087277777
2467;22495660000;20628577777;21128577777
2468;22495663000;20628577777;21128577777
2469;22495665000;20628577777;21128577777
2470;22495666000;20628577777;21128577777
2471;22495666000;20628577777;21128577777
2472;22495667000;20628577777;21128577777
2473;22495668000;20628577777;21128577777
2474;22495873000;20628600000;21128600000
2476;22495889000;20628888888;21128888888
2477;22495890000;20628888888;21128888888
2478;22511020000;20670244444;21170244444
2479;22511023000;20670244444;21170244444
2480;22511024000;20670244444;21170244444
2481;22511025000;20670244444;21170244444
2483;22670246000;20670244444;21170244444
2484;22670265000;20670244444;21170244444
2485;22720770000;20670266666;21170266666
2539;22720786000;20878600000;21378600000
2540;22923967000;20878611111;21378611111
2541;22923982000;20878922222;21378922222
2542;22923984000;20878922222;21378922222
2543;22923985000;20878922222;21378922222
2544;22957249000;20920244444;21420244444
2545;22957252000;20920244444;21420244444
2546;22957253000;20920244444;21420244444
2547;22957254000;20920244444;21420244444
2548;22957255000;20920244444;21420244444
2549;22957256000;20920244444;21420244444
2550;22957257000;20920244444;21420244444
2551;22957455000;20920266666;21420266666
2552;22957470000;20920566666;21420566666
2553;22957471000;20920566666;21420566666
2554;22957472000;20920566666;21420566666
2555;22986939000;20961911111;21461911111
2620;23083793000;21170622222;21670622222
2621;23105182000;21211911111;21711911111
2622;23105186000;21211911111;21711911111
2623;23105187000;21211911111;21711911111
2624;23105188000;21211911111;21711911111
2625;23105189000;21211911111;21711911111
2626;23105190000;21211911111;21711911111
2627;23105191000;21211911111;21711911111
2628;23105395000;21211933333;21711933333
2629;23105411000;21212266666;21712266666
2630;23105412000;21212266666;21712266666
2631;23105413000;21212266666;21712266666
2632;23118734000;21253577777;21753577777
2633;23118737000;21253577777;21753577777
2634;23118738000;21253577777;21753577777
2635;23118739000;21253577777;21753577777
2636;23118740000;21253577777;21753577777
2637;23118741000;21253577777;21753577777
2638;23118742000;21253577777;21753577777
2639;23118908000;21253600000;21753600000
2640;23118912000;21253877777;21753877777
2641;23118913000;21253877777;21753877777
2642;23270810000;21253877777;21753877777
2643;23321196000;21295244444;21795244444
2699;23523396000;21503588888;22003588888
2700;23523400000;21503588888;22003588888
2701;23523401000;21503588888;22003588888
2702;23523402000;21503588888;22003588888
2703;23523403000;21503588888;22003588888
2704;23523404000;21503588888;22003588888
2705;23523603000;21503600000;22003600000
2706;23523618000;21503888888;22003888888
2707;23523620000;21503888888;22003888888
2708;23523621000;21503888888;22003888888
2709;23556859000;21545244444;22045244444
2710;23556863000;21545244444;22045244444
2711;23556864000;21545244444;22045244444
2712;23556865000;21545244444;22045244444
2713;23556865000;21545244444;22045244444
2714;23556866000;21545244444;22045244444
2715;23556867000;21545244444;22045244444
2716;23557064000;21545266666;22045266666
2717;23557079000;21545544444;22045544444
2718;23557080000;21545544444;22045544444
2719;23557081000;21545544444;22045544444
2720;23586588000;21586911111;22086911111
2780;23688068000;21795255555;22295255555
2781;23688072000;21795255555;22295255555
2782;23688270000;21795266666;22295266666
2783;23688285000;21795544444;22295544444
2784;23688287000;21795544444;22295544444
2785;23688288000;21795544444;22295544444
2786;23700568000;21836911111;22336911111
2787;23700571000;21836911111;22336911111
2788;23700572000;21836911111;22336911111
2790;23700573000;21836911111;22336911111
2791;23700574000;21836911111;22336911111
2792;23700575000;21836911111;22336911111
2793;23700774000;21836933333;22336933333
2794;23700789000;21837244444;22337244444
2795;23700790000;21837244444;22337244444
2796;23700791000;21837244444;22337244444
2797;23715296000;21878577777;22378577777
2798;23715298000;21878577777;22378577777
2799;23715299000;21878577777;22378577777
2800;23715300000;21878577777;22378577777
2801;23715301000;21878577777;22378577777
2802;23871450000;21878577777;22378577777
2803;23871453000;21878577777;22378577777
2804;23921926000;21878600000;22378600000
2859;24124015000;22086955555;22586955555
2860;24124021000;22087255555;22587255555
2861;24124022000;22087255555;22587255555
2862;24124023000;22087255555;22587255555
2863;24157487000;22128577777;22628577777
2864;24157491000;22128577777;22628577777
2865;24157492000;22128577777;22628577777
2866;24157493000;22128577777;22628577777
2867;24157494000;22128577777;22628577777
2868;24157495000;22128577777;22628577777
2869;24157496000;22128577777;22628577777
2870;24157694000;22128600000;22628600000
2871;24157709000;22128877777;22628877777
2872;24157710000;22128877777;22628877777
2873;24157711000;22128877777;22628877777
2874;24187203000;22170244444;22670244444
2939;24284604000;22378900000;22878900000
2940;24306090000;22420244444;22920244444
2941;24306093000;22420244444;22920244444
2942;24306094000;22420244444;22920244444
2943;24306095000;22420244444;22920244444
2945;24306096000;22420244444;22920244444
2946;24306097000;22420244444;22920244444
2947;24306304000;22420266666;22920266666
2948;24306320000;22420511111;22920511111
2949;24306321000;22420511111;22920511111
2950;24306322000;22420511111;22920511111
2951;24319776000;22461911111;22961911111
2952;24319779000;22461911111;22961911111
2953;24319780000;22461911111;22961911111
2954;24319782000;22461911111;22961911111
2955;24319782000;22461911111;22961911111
2956;24319783000;22461911111;22961911111
2957;24319784000;22461911111;22961911111
2958;24319960000;22461933333;22961933333
2959;24319965000;22462222222;22962222222
2960;24319966000;22462222222;22962222222
2961;24319967000;22462222222;22962222222
2964;24522518000;22503577777;23003577777
3017;24723953000;22711911111;23211911111
3018;24723956000;22711911111;23211911111
3019;24723957000;22711911111;23211911111
3020;24723959000;22711911111;23211911111
3021;24723960000;22711911111;23211911111
3023;24723961000;22711911111;23211911111
3025;24723973000;22712222222;23212222222
3026;24723974000;22712222222;23212222222
3027;24723985000;22712222222;23212222222
3028;24760167000;22753577777;23253577777
3030;24760171000;22753577777;23253577777
3031;24760172000;22753577777;23253577777
3032;24760173000;22753577777;23253577777
3033;24760174000;22753577777;23253577777
3034;24760174000;22753577777;23253577777
3035;24760373000;22753600000;23253600000
3036;24760388000;22753866666;23253866666
3037;24760389000;22753866666;23253866666
3038;24760390000;22753866666;23253866666
3039;24789826000;22795244444;23295244444
3098;24886586000;23003588888;23503588888
3099;24886590000;23003588888;23503588888
3100;24886591000;23003588888;23503588888
3101;24886790000;23003611111;23503611111
3102;24886805000;23003866666;23503866666
3103;24886807000;23003866666;23503866666
3104;24886807000;23003866666;23503866666
3105;24899725000;23045255555;23545255555
3106;24899738000;23045255555;23545255555
3107;24899739000;23045255555;23545255555
3108;24899740000;23045255555;23545255555
3109;24899741000;23045255555;23545255555
3111;24899742000;23045255555;23545255555
3112;24899878000;23045288888;23545288888
3113;24899881000;23045544444;23545544444
3114;24899882000;23045544444;23545544444
3115;24899883000;23045544444;23545544444
3116;24915013000;23086911111;23586911111
3117;24915015000;23086911111;23586911111
3119;24915016000;23086911111;23586911111
3120;24915017000;23086911111;23586911111
3121;24915018000;23086911111;23586911111
3122;25072962000;23086911111;23586911111
3123;25123449000;23086933333;23586933333
3176;25123465000;23295255555;23795255555
3177;25123467000;23295255555;23795255555
3178;25325750000;23295277777;23795277777
3179;25325766000;23295544444;23795544444
3180;25325767000;23295544444;23795544444
3181;25325768000;23295544444;23795544444
3182;25359089000;23336911111;23836911111
3183;25359093000;23336911111;23836911111
3184;25359094000;23336911111;23836911111
3185;25359095000;23336911111;23836911111
3186;25359096000;23336911111;23836911111
3187;25359097000;23336911111;23836911111
3188;25359097000;23336911111;23836911111
3189;25359325000;23336933333;23836933333
3190;25359340000;23337244444;23837244444
3191;25359341000;23337244444;23837244444
3192;25359342000;23337244444;23837244444
3195;25388733000;23378577777;23878577777
3257;25490140000;23587244444;24087244444
3259;25502897000;23628577777;24128577777
3260;25502901000;23628577777;24128577777
3261;25502902000;23628577777;24128577777
3262;25502903000;23628577777;24128577777
3263;25502904000;23628577777;24128577777
3264;25502905000;23628577777;24128577777
3265;25502906000;23628577777;24128577777
3266;25503030000;23628600000;24128600000
3267;25503046000;23628866666;24128866666
3268;25503047000;23628866666;24128866666
3269;25503048000;23628866666;24128866666
3270;25517515000;23670244444;24170244444
3271;25517519000;23670244444;24170244444
3272;25517520000;23670244444;24170244444
3273;25517530000;23670244444;24170244444
3274;25517531000;23670244444;24170244444
3275;25517532000;23670244444;24170244444
3276;25517533000;23670244444;24170244444
3278;25517646000;23670533333;24170533333
3279;25517650000;23670533333;24170533333
3280;25517651000;23670533333;24170533333
3281;25539030000;23711911111;24211911111
3282;25673681000;23711911111;24211911111
3283;25673684000;23711911111;24211911111
3284;25673742000;23711911111;24211911111
3285;25673815000;23711911111;24211911111
3286;25673817000;23711911111;24211911111
3287;25673835000;23711911111;24211911111
3291;25724355000;23712222222;24212222222
3337;25925668000;23920255555;24420255555
3339;25925672000;23920255555;24420255555
3340;25925673000;23920255555;24420255555
3341;25925674000;23920255555;24420255555
3342;25925674000;23920255555;24420255555
3343;25925872000;23920277777;24420277777
3344;25925887000;23920555555;24420555555
3345;25925888000;23920555555;24420555555
3346;25925889000;23920555555;24420555555
3347;25959739000;23961911111;24461911111
3348;25959742000;23961911111;24461911111
3349;25959743000;23961911111;24461911111
3352;25959744000;23961911111;24461911111
3353;25959746000;23961911111;24461911111
3354;25959943000;23961933333;24461933333
3355;25959958000;23962222222;24462222222
3356;25959959000;23962222222;24462222222
3357;25959960000;23962222222;24462222222
3358;25989382000;24003577777;24503577777
3420;26092005000;24211933333;24711933333
3421;26092020000;24212244444;24712244444
3422;26092021000;24212244444;24712244444
3423;26092022000;24212244444;24712244444
3424;26105035000;24253577777;24753577777
3425;26105039000;24253577777;24753577777
3426;26105040000;24253577777;24753577777
3427;26105041000;24253577777;24753577777
3428;26105042000;24253577777;24753577777
3429;26105043000;24253577777;24753577777
3430;26105043000;24253577777;24753577777
3431;26105240000;24253600000;24753600000
3432;26105256000;24253877777;24753877777
3433;26105257000;24253877777;24753877777
3434;26105258000;24253877777;24753877777
3435;26119619000;24295244444;24795244444
3436;26119622000;24295244444;24795244444
3437;26119623000;24295244444;24795244444
3438;26119624000;24295244444;24795244444
3439;26119625000;24295244444;24795244444
3440;26119626000;24295244444;24795244444
3441;26119627000;24295244444;24795244444
3442;26324743000;24295266666;24795266666
3497;26526841000;24503611111;25003611111
3498;26526847000;24503888888;25003888888
3499;26526848000;24503888888;25003888888
3500;26526849000;24503888888;25003888888
3501;26560358000;24545244444;25045244444
3502;26560361000;24545244444;25045244444
3503;26560362000;24545244444;25045244444
3504;26560364000;24545244444;25045244444
3506;26560365000;24545244444;25045244444
3507;26560375000;24545244444;25045244444
3508;26560584000;24545266666;25045266666
3509;26560599000;24545555555;25045555555
3510;26560600000;24545555555;25045555555
3511;26560601000;24545555555;25045555555
3512;26590086000;24586911111;25086911111
3576;26688404000;24795555555;25295555555
3577;26688408000;24795555555;25295555555
3578;26701568000;24836922222;25336922222
3579;26701572000;24836922222;25336922222
3580;26701573000;24836922222;25336922222
3581;26701574000;24836922222;25336922222
3582;26701575000;24836922222;25336922222
3583;26701576000;24836922222;25336922222
3584;26701577000;24836922222;25336922222
3585;26701773000;24836966666;25336966666
3586;26701789000;24837322222;25337322222
3587;26701790000;24837322222;25337322222
3588;26701791000;24837322222;25337322222
3589;26716956000;24878577777;25378577777
3590;26716960000;24878577777;25378577777
3591;26716961000;24878577777;25378577777
3592;26716962000;24878577777;25378577777
3594;26717446000;24878577777;25378577777
3595;26717448000;24878577777;25378577777
3597;26717568000;24878911111;25378911111
3598;26717572000;24878911111;25378911111
3600;26738786000;24920244444;25420244444
3601;26738790000;24920244444;25420244444
3602;26875044000;24920244444;25420244444
3603;26875099000;24920244444;25420244444
3604;26875189000;24920244444;25420244444
3608;26926027000;24920588888;25420588888
3658;27127875000;25128577777;25628577777
3659;27127878000;25128577777;25628577777
3660;27127879000;25128577777;25628577777
3661;27127880000;25128577777;25628577777
3662;27128078000;25128600000;25628600000
3663;27128093000;25128888888;25628888888
3664;27128094000;25128888888;25628888888
3665;27128095000;25128888888;25628888888
3666;27161356000;25170244444;25670244444
3668;27161475000;25170244444;25670244444
3670;27161479000;25170244444;25670244444
3671;27161499000;25170244444;25670244444
3672;27161500000;25170244444;25670244444
3673;27161686000;25170266666;25670266666
3674;27161701000;25170533333;25670533333
3675;27161702000;25170533333;25670533333
3676;27161703000;25170533333;25670533333
3677;27191035000;25211911111;25711911111
3736;27295708000;25420244444;25920244444
3737;27295712000;25420244444;25920244444
3738;27295713000;25420244444;25920244444
3739;27295866000;25420266666;25920266666
3741;27295872000;25420522222;25920522222
3742;27295873000;25420522222;25920522222
3743;27307666000;25461911111;25961911111
3745;27307670000;25461911111;25961911111
3746;27307671000;25461911111;25961911111
3747;27307672000;25461911111;25961911111
3748;27307673000;25461911111;25961911111
3749;27307674000;25461911111;25961911111
3750;27307790000;25461933333;25961933333
3751;27307794000;25462222222;25962222222
3752;27307795000;25462222222;25962222222
3753;27307796000;25462222222;25962222222
3754;27321880000;25503577777;26003577777
3755;27321882000;25503577777;26003577777
3757;27321883000;25503577777;26003577777
3758;27321893000;25503577777;26003577777
3759;27321895000;25503577777;26003577777
3760;27321896000;25503577777;26003577777
3764;27526366000;25503866666;26003866666
3817;27729294000;25712200000;26212200000
3819;27729298000;25712200000;26212200000
3820;27762743000;25753544444;26253544444
3821;27762747000;25753544444;26253544444
3823;27762748000;25753544444;26253544444
3824;27762749000;25753544444;26253544444
3825;27762750000;25753544444;26253544444
3826;27762751000;25753544444;26253544444
3827;27762948000;25753566666;26253566666
3828;27762963000;25753822222;26253822222
3829;27762964000;25753822222;26253822222
3830;27762965000;25753822222;26253822222
3831;27792422000;25795233333;26295233333
3898;27904721000;26045244444;26545244444
3899;27904725000;26045244444;26545244444
3900;27904726000;26045244444;26545244444
3901;27904727000;26045244444;26545244444
3902;27904728000;26045244444;26545244444
3903;27904729000;26045244444;26545244444
3904;27904942000;26045266666;26545266666
3905;27904957000;26045533333;26545533333
3906;27904958000;26045533333;26545533333
3907;27904959000;26045533333;26545533333
3908;27919402000;26086911111;26586911111
3909;27919405000;26086911111;26586911111
3910;27919406000;26086911111;26586911111
3911;27919414000;26086911111;26586911111
3912;27919415000;26086911111;26586911111
3913;27919416000;26086911111;26586911111
3914;27919417000;26086911111;26586911111
3915;27919593000;26086933333;26586933333
3916;27919597000;26087233333;26587233333
3917;27919599000;26087233333;26587233333
3918;27919600000;26087233333;26587233333
3919;27934132000;26128566666;26628566666
3920;27934135000;26128566666;26628566666
3921;28076650000;26128566666;26628566666
3922;28076664000;26128566666;26628566666
3923;28076751000;26128566666;26628566666
3924;28076764000;26128566666;26628566666
3925;28076838000;26128566666;26628566666
3926;28127310000;26128588888;26628588888
3977;28127317000;26336911111;26836911111
3978;28127318000;26336911111;26836911111
3979;28127319000;26336911111;26836911111
3980;28127320000;26336911111;26836911111
3981;28329522000;26336933333;26836933333
3982;28329538000;26337244444;26837244444
3983;28329539000;26337244444;26837244444
3984;28329540000;26337244444;26837244444
3985;28362889000;26378577777;26878577777
3986;28362893000;26378577777;26878577777
3987;28362894000;26378577777;26878577777
3988;28362895000;26378577777;26878577777
3989;28362896000;26378577777;26878577777
3990;28362897000;26378577777;26878577777
3991;28362898000;26378577777;26878577777
3992;28363066000;26378600000;26878600000
3993;28363070000;26378866666;26878866666
3994;28363071000;26378866666;26878866666
3995;28363072000;26378866666;26878866666
3996;28392612000;26420244444;26920244444
4056;28494067000;26628577777;27128577777
4057;28494071000;26628577777;27128577777
4058;28494224000;26628600000;27128600000
4059;28494230000;26628866666;27128866666
4060;28494231000;26628866666;27128866666
4061;28494232000;26628866666;27128866666
4062;28506669000;26670244444;27170244444
4063;28506672000;26670244444;27170244444
4064;28506673000;26670244444;27170244444
4065;28506674000;26670244444;27170244444
4066;28506675000;26670244444;27170244444
4067;28506676000;26670244444;27170244444
4068;28506677000;26670244444;27170244444
4069;28506830000;26670266666;27170266666
4070;28506836000;26670511111;27170511111
4071;28506837000;26670511111;27170511111
4072;28506838000;26670511111;27170511111
4073;28521479000;26711911111;27211911111
4074;28521490000;26711911111;27211911111
4075;28521491000;26711911111;27211911111
4076;28521492000;26711911111;27211911111
4077;28521493000;26711911111;27211911111
4078;28521494000;26711911111;27211911111
4081;28727954000;26712222222;27212222222
4135;28929980000;26920266666;27420266666
4136;28929996000;26920555555;27420555555
4137;28929997000;26920555555;27420555555
4138;28929998000;26920555555;27420555555
4139;28963394000;26961911111;27461911111
4140;28963398000;26961911111;27461911111
4141;28963399000;26961911111;27461911111
4142;28963400000;26961911111;27461911111
4143;28963401000;26961911111;27461911111
4144;28963402000;26961911111;27461911111
4145;28963403000;26961911111;27461911111
4146;28963636000;26961933333;27461933333
4147;28963642000;26962222222;27462222222
4148;28963643000;26962222222;27462222222
4149;28963644000;26962222222;27462222222
4150;28993149000;27003577777;27503577777
4216;29108617000;27253577777;27753577777
4217;29108621000;27253577777;27753577777
4218;29108622000;27253577777;27753577777
4219;29108623000;27253577777;27753577777
4220;29108624000;27253577777;27753577777
4221;29108625000;27253577777;27753577777
4222;29108627000;27253577777;27753577777
4223;29108748000;27253600000;27753600000
4224;29108753000;27253888888;27753888888
4225;29108754000;27253888888;27753888888
4226;29108755000;27253888888;27753888888
4227;29122815000;27295244444;27795244444
4228;29122819000;27295244444;27795244444
4229;29122820000;27295244444;27795244444
4230;29122821000;27295244444;27795244444
4231;29122822000;27295244444;27795244444
4232;29122823000;27295244444;27795244444
4233;29122824000;27295244444;27795244444
4234;29122946000;27295266666;27795266666
4235;29122950000;27295544444;27795544444
4236;29122952000;27295544444;27795544444
4237;29122953000;27295544444;27795544444
4238;29137194000;27336900000;27836900000
4239;29277976000;27336900000;27836900000
4240;29277994000;27336900000;27836900000
4241;29278359000;27336900000;27836900000
4242;29278361000;27336900000;27836900000
4243;29278416000;27336900000;27836900000
4244;29278472000;27336900000;27836900000
4245;29328985000;27336922222;27836922222
4291;29329000000;27503888888;28003888888
4292;29329002000;27503888888;28003888888
4293;29531068000;27545244444;28045244444
4294;29531072000;27545244444;28045244444
4295;29531073000;27545244444;28045244444
4296;29531074000;27545244444;28045244444
4297;29531075000;27545244444;28045244444
4298;29531075000;27545244444;28045244444
4299;29531077000;27545244444;28045244444
4300;29531212000;27545266666;28045266666
4301;29531214000;27545555555;28045555555
4302;29531215000;27545555555;28045555555
4303;29531216000;27545555555;28045555555
4304;29564558000;27586911111;28086911111
4305;29564561000;27586911111;28086911111
4306;29564562000;27586911111;28086911111
4309;29564681000;27586911111;28086911111
4311;29564889000;27586933333;28086933333
4312;29564895000;27587244444;28087244444
4313;29564896000;27587244444;28087244444
4316;29594265000;27628566666;28128566666
4374;29692825000;27836911111;28336911111
4375;29692829000;27836911111;28336911111
4376;29692830000;27836911111;28336911111
4377;29693026000;27836933333;28336933333
4378;29693042000;27837244444;28337244444
4379;29693043000;27837244444;28337244444
4380;29693044000;27837244444;28337244444
4381;29706034000;27878577777;28378577777
4383;29706235000;27878577777;28378577777
4384;29706238000;27878577777;28378577777
4385;29706250000;27878577777;28378577777
4386;29706251000;27878577777;28378577777
4387;29706252000;27878577777;28378577777
4388;29706390000;27878600000;28378600000
4389;29706392000;27878888888;28378888888
4390;29706393000;27878888888;28378888888
4391;29706394000;27878888888;28378888888
4392;29721420000;27920244444;28420244444
4393;29721422000;27920244444;28420244444
4394;29721423000;27920244444;28420244444
4395;29721424000;27920244444;28420244444
4396;29721425000;27920244444;28420244444
4397;29721426000;27920244444;28420244444
4398;29879094000;27920244444;28420244444
4399;29929585000;27920266666;28420266666
4454;30131734000;28128600000;28628600000
4455;30131740000;28128888888;28628888888
4456;30131741000;28128888888;28628888888
4457;30131742000;28128888888;28628888888
4458;30165262000;28170244444;28670244444
4459;30165266000;28170244444;28670244444
4460;30165267000;28170244444;28670244444
4461;30165267000;28170244444;28670244444
4462;30165268000;28170244444;28670244444
4463;30165269000;28170244444;28670244444
4464;30165270000;28170244444;28670244444
4465;30165467000;28170266666;28670266666
4466;30165491000;28170533333;28670533333
4467;30165492000;28170533333;28670533333
4468;30165493000;28170533333;28670533333
4469;30194985000;28211911111;28711911111
4531;30298645000;28420266666;28920266666
4532;30298651000;28420522222;28920522222
4534;30298653000;28420522222;28920522222
4536;30310855000;28461911111;28961911111
4537;30310859000;28461911111;28961911111
4538;30310860000;28461911111;28961911111
4539;30310861000;28461911111;28961911111
4540;30310862000;28461911111;28961911111
4542;30310947000;28461933333;28961933333
4543;30310953000;28462222222;28962222222
4544;30310955000;28462222222;28962222222
4545;30310955000;28462222222;28962222222
4546;30325364000;28503577777;29003577777
4547;30325367000;28503577777;29003577777
4549;30325369000;28503577777;29003577777
4550;30325370000;28503577777;29003577777
4551;30325370000;28503577777;29003577777
4552;30325372000;28503577777;29003577777
4553;30325495000;28503600000;29003600000
4554;30325499000;28503866666;29003866666
4555;30325500000;28503866666;29003866666
4556;30325501000;28503866666;29003866666
4559;30530300000;28545233333;29045233333
4612;30732965000;28753577777;29253577777
4613;30732969000;28753577777;29253577777
4614;30732970000;28753577777;29253577777
4615;30732971000;28753577777;29253577777
4616;30732972000;28753577777;29253577777
4617;30732973000;28753577777;29253577777
4618;30732974000;28753577777;29253577777
4619;30733093000;28753600000;29253600000
4621;30733097000;28753866666;29253866666
4622;30733106000;28753866666;29253866666
4623;30766424000;28795244444;29295244444
4625;30766428000;28795244444;29295244444
4626;30766429000;28795244444;29295244444
4627;30766430000;28795244444;29295244444
4628;30766431000;28795244444;29295244444
4629;30766432000;28795244444;29295244444
4630;30766547000;28795266666;29295266666
4631;30766551000;28795522222;29295522222
4632;30766552000;28795522222;29295522222
4633;30766554000;28795522222;29295522222
4634;30796201000;28836900000;29336900000
4694;30894094000;29045244444;29545244444
4695;30894098000;29045244444;29545244444
4696;30894252000;29045266666;29545266666
4697;30894258000;29045522222;29545522222
4698;30894259000;29045522222;29545522222
4699;30894260000;29045522222;29545522222
4700;30907498000;29086911111;29586911111
4701;30907501000;29086911111;29586911111
4702;30907502000;29086911111;29586911111
4703;30907503000;29086911111;29586911111
4704;30907505000;29086911111;29586911111
4705;30907506000;29086911111;29586911111
4706;30907507000;29086911111;29586911111
4707;30907660000;29086933333;29586933333
4708;30907666000;29087233333;29587233333
4709;30907667000;29087233333;29587233333
4710;30907668000;29087233333;29587233333
4711;30923071000;29128577777;29628577777
4712;30923075000;29128577777;29628577777
4713;30923076000;29128577777;29628577777
4714;30923077000;29128577777;29628577777
4715;30923078000;29128577777;29628577777
4716;30923079000;29128577777;29628577777
4717;31080667000;29128577777;29628577777
4718;31131113000;29128588888;29628588888
4772;31131119000;29336911111;29836911111
4773;31334302000;29336933333;29836933333
4774;31334307000;29337255555;29837255555
4775;31334309000;29337255555;29837255555
4776;31334310000;29337255555;29837255555
4777;31367724000;29378577777;29878577777
4778;31367727000;29378577777;29878577777
4779;31367728000;29378577777;29878577777
4780;31367729000;29378577777;29878577777
4783;31367731000;29378577777;29878577777
4784;31367935000;29378600000;29878600000
4785;31367950000;29378877777;29878877777
4786;31367951000;29378877777;29878877777
4787;31367952000;29378877777;29878877777
4788;31397458000;29420244444;29920244444
4850;31495879000;29628600000;30128600000
4851;31495895000;29628888888;30128888888
4852;31495896000;29628888888;30128888888
4853;31495897000;29628888888;30128888888
4854;31508957000;29670244444;30170244444
4855;31508960000;29670244444;30170244444
4856;31508961000;29670244444;30170244444
4857;31508962000;29670244444;30170244444
4858;31508963000;29670244444;30170244444
4859;31508964000;29670244444;30170244444
4860;31508965000;29670244444;30170244444
4861;31509162000;29670266666;30170266666
4862;31509177000;29670522222;30170522222
4863;31509178000;29670522222;30170522222
4864;31509179000;29670522222;30170522222
4865;31524353000;29711911111;30211911111
4866;31524365000;29711911111;30211911111
4867;31524366000;29711911111;30211911111
4869;31524367000;29711911111;30211911111
4870;31524368000;29711911111;30211911111
4871;31524369000;29711911111;30211911111
4872;31524513000;29711933333;30211933333
4873;31524516000;29712244444;30212244444
4874;31681403000;29712244444;30212244444
4875;31681457000;29712244444;30212244444
4876;31731831000;29753566666;30253566666
4929;31896201000;29920533333;30420533333
4930;31896214000;29920533333;30420533333
4931;31933215000;29961900000;30461900000
4932;31933218000;29961900000;30461900000
4933;31933219000;29961900000;30461900000
4935;31933369000;29961900000;30461900000
4936;31933371000;29961900000;30461900000
4937;31933371000;29961900000;30461900000
4938;31933538000;29961911111;30461911111
4940;31933541000;29962200000;30462200000
4942;31967586000;30003544444;30503544444
4943;31967588000;30003544444;30503544444
4944;31967589000;30003544444;30503544444
4945;31967590000;30003544444;30503544444
4946;31967591000;30003544444;30503544444
4947;31967593000;30003544444;30503544444
4948;31967594000;30003544444;30503544444
4949;31967705000;30003555555;30503555555
4950;31967707000;30003822222;30503822222
4951;31967708000;30003822222;30503822222
4952;31967709000;30003822222;30503822222
4953;31997449000;30045233333;30545233333
5010;32098710000;30253566666;30753566666
5011;32098714000;30253566666;30753566666
5012;32098715000;30253566666;30753566666
5013;32098716000;30253566666;30753566666
5014;32098717000;30253566666;30753566666
5015;32098921000;30253588888;30753588888
5016;32098936000;30253877777;30753877777
5017;32098937000;30253877777;30753877777
5019;32111748000;30295233333;30795233333
5020;32111751000;30295233333;30795233333
5021;32111752000;30295233333;30795233333
5022;32111753000;30295233333;30795233333
5023;32111754000;30295233333;30795233333
5024;32111755000;30295233333;30795233333
5025;32111756000;30295233333;30795233333
5026;32111856000;30295255555;30795255555
5027;32111872000;30295533333;30795533333
5028;32111873000;30295533333;30795533333
5029;32111874000;30295533333;30795533333
5031;32126833000;30336911111;30836911111
5032;32126836000;30336911111;30836911111
5033;32126837000;30336911111;30836911111
5034;32282046000;30336911111;30836911111
5035;32282102000;30336911111;30836911111
5036;32282263000;30336911111;30836911111
5037;32332752000;30336922222;30836922222
5089;32332759000;30545244444;31045244444
5090;32332760000;30545244444;31045244444
5091;32332761000;30545244444;31045244444
5092;32535985000;30545266666;31045266666
5093;32536001000;30545555555;31045555555
5094;32536003000;30545555555;31045555555
5095;32536004000;30545555555;31045555555
5096;32569367000;30586911111;31086911111
5098;32569370000;30586911111;31086911111
5099;32569371000;30586911111;31086911111
5100;32569372000;30586911111;31086911111
5101;32569373000;30586911111;31086911111
5102;32569374000;30586911111;31086911111
5103;32569529000;30586933333;31086933333
5104;32569535000;30587244444;31087244444
5105;32569536000;30587244444;31087244444
5106;32569538000;30587244444;31087244444
5107;32599126000;30628566666;31128566666
5169;32705505000;30836933333;31336933333
5170;32705511000;30837255555;31337255555
5171;32705512000;30837255555;31337255555
5172;32705513000;30837255555;31337255555
5173;32717187000;30878577777;31378577777
5174;32717190000;30878577777;31378577777
5175;32717191000;30878577777;31378577777
5176;32717192000;30878577777;31378577777
5178;32717267000;30878577777;31378577777
5179;32717269000;30878577777;31378577777
5180;32717424000;30878600000;31378600000
5181;32717431000;30878888888;31378888888
5182;32717432000;30878888888;31378888888
5183;32717433000;30878888888;31378888888
5184;32731233000;30920244444;31420244444
5185;32731235000;30920244444;31420244444
5186;32731236000;30920244444;31420244444
5187;32731237000;30920244444;31420244444
5188;32731238000;30920244444;31420244444
5189;32731239000;30920244444;31420244444
5190;32731239000;30920244444;31420244444
5191;32731301000;30920266666;31420266666
5192;32882608000;30920555555;31420555555
5193;32882625000;30920555555;31420555555
5194;32882715000;30920555555;31420555555
5195;32974499000;30961900000;31461900000
5248;33135081000;31128888888;31628888888
5249;33135085000;31128888888;31628888888
5250;33168828000;31170244444;31670244444
5251;33168832000;31170244444;31670244444
5252;33168833000;31170244444;31670244444
5253;33168834000;31170244444;31670244444
5254;33168835000;31170244444;31670244444
5255;33168836000;31170244444;31670244444
5256;33168837000;31170244444;31670244444
5257;33168990000;31170266666;31670266666
5258;33168996000;31170533333;31670533333
5259;33168997000;31170533333;31670533333
5260;33168998000;31170533333;31670533333
5261;33198650000;31211911111;31711911111
5328;33312132000;31461911111;31961911111
5329;33312135000;31461911111;31961911111
5330;33312136000;31461911111;31961911111
5331;33312137000;31461911111;31961911111
5332;33312138000;31461911111;31961911111
5333;33312139000;31461911111;31961911111
5334;33312293000;31461933333;31961933333
5335;33312299000;31462266666;31962266666
5336;33312300000;31462266666;31962266666
5337;33312301000;31462266666;31962266666
5338;33327039000;31503577777;32003577777
5339;33327043000;31503577777;32003577777
5340;33327044000;31503577777;32003577777
5342;33327045000;31503577777;32003577777
5343;33327055000;31503577777;32003577777
5344;33327056000;31503577777;32003577777
5345;33327217000;31503600000;32003600000
5346;33327223000;31503877777;32003877777
5347;33327225000;31503877777;32003877777
5348;33327226000;31503877777;32003877777
5349;33342013000;31545233333;32045233333
5350;33342016000;31545233333;32045233333
5351;33483257000;31545233333;32045233333
5352;33483307000;31545233333;32045233333
5353;33483386000;31545233333;32045233333
5355;33483536000;31545233333;32045233333
5356;33534331000;31545255555;32045255555
5405;33534337000;31753577777;32253577777
5407;33735625000;31753577777;32253577777
5408;33735637000;31753577777;32253577777
5409;33735638000;31753577777;32253577777
5410;33735639000;31753577777;32253577777
5411;33735795000;31753600000;32253600000
5412;33735801000;31753888888;32253888888
5413;33735802000;31753888888;32253888888
5414;33735803000;31753888888;32253888888
5415;33770037000;31795244444;32295244444
5416;33770040000;31795244444;32295244444
5418;33770041000;31795244444;32295244444
5419;33770042000;31795244444;32295244444
5420;33770043000;31795244444;32295244444
5421;33770044000;31795244444;32295244444
5422;33770258000;31795266666;32295266666
5424;33770274000;31795544444;32295544444
5425;33770275000;31795544444;32295544444
5426;33799813000;31836911111;32336911111
5477;33883065000;32003611111;32503611111
5478;33883071000;32003888888;32503888888
5479;33883073000;32003888888;32503888888
5480;33883073000;32003888888;32503888888
5481;33898447000;32045244444;32545244444
5482;33898451000;32045244444;32545244444
5483;33898452000;32045244444;32545244444
5484;33898453000;32045244444;32545244444
5485;33898454000;32045244444;32545244444
5486;33898455000;32045244444;32545244444
5487;33898456000;32045244444;32545244444
5488;33898573000;32045266666;32545266666
5489;33898577000;32045544444;32545544444
5490;33898578000;32045544444;32545544444
5491;33898580000;32045544444;32545544444
5492;33912195000;32086922222;32586922222
5493;33912199000;32086922222;32586922222
5494;33912200000;32086922222;32586922222
5495;33912201000;32086922222;32586922222
5496;33912202000;32086922222;32586922222
5498;33912210000;32086922222;32586922222
5499;33912288000;32086944444;32586944444
