seqnum;now;rtptime;deadline
1;12690276000;11648988888;12148988888
3;12741013000;11680233333;12180233333
145;13012880000;12180522222;12680522222
209;13097900000;12430533333;12930533333
210;13097904000;12430533333;12930533333
211;13097905000;12430533333;12930533333
212;13098015000;12471911111;12971911111
213;13098022000;12471911111;12971911111
214;13098023000;12471911111;12971911111
215;13098025000;12471911111;12971911111
216;13098026000;12471911111;12971911111
217;13098028000;12471911111;12971911111
218;13098029000;12471911111;12971911111
219;13098150000;12471933333;12971933333
220;13098166000;12472255555;12972255555
221;13098167000;12472255555;12972255555
222;13098168000;12472255555;12972255555
223;13098179000;12513566666;13013566666
224;13098180000;12513566666;13013566666
225;13098191000;12513566666;13013566666
226;13098192000;12513566666;13013566666
227;13098193000;12513566666;13013566666
228;13098194000;12513566666;13013566666
229;13098195000;12513566666;13013566666
230;13098309000;12513588888;13013588888
231;13098325000;12513900000;13013900000
232;13098326000;12513900000;13013900000
233;13098327000;12513900000;13013900000
234;13594210000;12555233333;13055233333
343;13594322000;12930511111;13430511111
347;13594353000;12971888888;13471888888
348;13594354000;12971888888;13471888888
349;13594355000;12971888888;13471888888
350;13594356000;12971888888;13471888888
351;13594445000;12971900000;13471900000
352;13594459000;12972188888;13472188888
353;13594461000;12972188888;13472188888
354;13594463000;12972188888;13472188888
356;13594514000;13013544444;13513544444
357;13594520000;13013544444;13513544444
358;13594522000;13013544444;13513544444
359;13594527000;13013544444;13513544444
362;13594640000;13013566666;13513566666
365;13594645000;13013855555;13513855555
366;13594666000;13055211111;13555211111
367;13594678000;13055211111;13555211111
368;13594680000;13055211111;13555211111
369;13594681000;13055211111;13555211111
370;13594683000;13055211111;13555211111
371;13594684000;13055211111;13555211111
372;13594686000;13055211111;13555211111
373;13594808000;13055233333;13555233333
377;13595045000;13096888888;13596888888
378;13595062000;13096888888;13596888888
379;13595065000;13096888888;13596888888
380;13595066000;13096888888;13596888888
381;13595068000;13096888888;13596888888
382;13595080000;13096888888;13596888888
383;13595081000;13096888888;13596888888
384;13595208000;13096900000;13596900000
385;13595225000;13097200000;13597200000
387;13613699000;13097200000;13597200000
388;13622212000;13138544444;13638544444
389;13622219000;13138544444;13638544444
390;13622220000;13138544444;13638544444
391;13622221000;13138544444;13638544444
392;13622223000;13138544444;13638544444
393;13622224000;13138544444;13638544444
394;13622225000;13138544444;13638544444
395;13625407000;13138566666;13638566666
396;13625423000;13138855555;13638855555
397;13625424000;13138855555;13638855555
398;13721081000;13138855555;13638855555
399;14216982000;13180233333;13680233333
530;14379198000;13638855555;14138855555
537;14379313000;13680211111;14180211111
538;14379442000;13680233333;14180233333
539;14379458000;13680511111;14180511111
540;14379460000;13680511111;14180511111
541;14379461000;13680511111;14180511111
542;14379490000;13721900000;14221900000
543;14379492000;13721900000;14221900000
544;14379493000;13721900000;14221900000
545;14379494000;13721900000;14221900000
546;14379495000;13721900000;14221900000
547;14379496000;13721900000;14221900000
548;14379497000;13721900000;14221900000
549;14379623000;13721911111;14221911111
550;14379639000;13722244444;14222244444
551;14379640000;13722244444;14222244444
552;14379641000;13722244444;14222244444
553;14379652000;13763555555;14263555555
554;14379663000;13763555555;14263555555
555;14379664000;13763555555;14263555555
556;14379666000;13763555555;14263555555
557;14379667000;13763555555;14263555555
558;14379668000;13763555555;14263555555
559;14379669000;13763555555;14263555555
560;14705512000;13763566666;14263566666
622;14705519000;14013544444;14513544444
623;14705520000;14013544444;14513544444
624;14705521000;14013544444;14513544444
625;14705535000;14013544444;14513544444
626;14772551000;14013566666;14513566666
627;14772567000;14013844444;14513844444
628;14772569000;14013844444;14513844444
629;14772570000;14013844444;14513844444
630;14772652000;14055244444;14555244444
631;14772656000;14055244444;14555244444
632;14772657000;14055244444;14555244444
633;14772658000;14055244444;14555244444
634;14772659000;14055244444;14555244444
635;14772660000;14055244444;14555244444
636;14772661000;14055244444;14555244444
637;14943563000;14055255555;14555255555
704;14943579000;14305533333;14805533333
705;14943580000;14305533333;14805533333
706;14943581000;14305533333;14805533333
707;15225516000;14346900000;14846900000
789;15239900000;14638544444;15138544444
796;15274026000;14680222222;15180222222
797;15274030000;14680222222;15180222222
798;15274031000;14680222222;15180222222
799;15274032000;14680222222;15180222222
800;15274033000;14680222222;15180222222
801;15274034000;14680222222;15180222222
802;15274161000;14680244444;15180244444
803;15274165000;14680522222;15180522222
804;15274167000;14680522222;15180522222
805;15274168000;14680522222;15180522222
806;15720286000;14721900000;15221900000
928;15720400000;15180211111;15680211111
929;15720403000;15180211111;15680211111
930;15720404000;15180211111;15680211111
931;15720405000;15180211111;15680211111
932;15720406000;15180211111;15680211111
933;15720407000;15180211111;15680211111
934;15720534000;15180233333;15680233333
935;15720550000;15180522222;15680522222
936;15720551000;15180522222;15680522222
937;15720552000;15180522222;15680522222
938;15720563000;15221888888;15721888888
939;15720574000;15221888888;15721888888
940;15720575000;15221888888;15721888888
942;15720576000;15221888888;15721888888
943;15720577000;15221888888;15721888888
944;15720578000;15221888888;15721888888
945;15720682000;15221900000;15721900000
946;15720697000;15222222222;15722222222
947;15720698000;15222222222;15722222222
948;15720699000;15222222222;15722222222
950;15754043000;15263577777;15763577777
951;15754046000;15263577777;15763577777
952;15754048000;15263577777;15763577777
953;15754048000;15263577777;15763577777
954;15754049000;15263577777;15763577777
955;15754050000;15263577777;15763577777
956;15754159000;15263588888;15763588888
957;15754174000;15263922222;15763922222
958;15754176000;15263922222;15763922222
959;15754177000;15263922222;15763922222
960;15794484000;15305222222;15805222222
961;15794487000;15305222222;15805222222
962;15794487000;15305222222;15805222222
963;15794488000;15305222222;15805222222
964;15794490000;15305222222;15805222222
965;15794490000;15305222222;15805222222
966;15794491000;15305222222;15805222222
967;16249506000;15305233333;15805233333
1030;16249512000;15555222222;16055222222
1031;16249514000;15555222222;16055222222
1032;16249515000;15555222222;16055222222
1033;16249636000;15555244444;16055244444
1034;16249640000;15555511111;16055511111
1035;16249641000;15555511111;16055511111
1036;16249642000;15555511111;16055511111
1037;16487664000;15596888888;16096888888
1117;16746308000;15888555555;16388555555
1196;16772224000;16180222222;16680222222
1197;16772228000;16180222222;16680222222
1198;17078373000;16180244444;16680244444
1276;17078388000;16472233333;16972233333
1277;17078389000;16472233333;16972233333
1278;17078390000;16472233333;16972233333
1279;17338002000;16513555555;17013555555
1355;17627944000;16763844444;17263844444
1409;17628059000;16972200000;17472200000
1410;17628063000;16972200000;17472200000
1411;17925619000;17013555555;17513555555
1488;18069663000;17305233333;17805233333
1511;18069777000;17388555555;17888555555
1512;18069780000;17388555555;17888555555
1513;18069782000;17388555555;17888555555
1514;18069782000;17388555555;17888555555
1515;18069784000;17388555555;17888555555
1516;18069785000;17388555555;17888555555
1517;18069908000;17388577777;17888577777
1518;18069923000;17388844444;17888844444
1519;18069925000;17388844444;17888844444
1520;18069926000;17388844444;17888844444
1521;18069936000;17430222222;17930222222
1522;18069938000;17430222222;17930222222
1523;18069949000;17430222222;17930222222
1524;18069950000;17430222222;17930222222
1525;18069961000;17430222222;17930222222
1526;18069962000;17430222222;17930222222
1527;18069963000;17430222222;17930222222
1528;18070089000;17430233333;17930233333
1529;18070105000;17430511111;17930511111
1530;18070106000;17430511111;17930511111
1531;18070107000;17430511111;17930511111
1532;18070118000;17471888888;17971888888
1534;18070129000;17471888888;17971888888
1535;18070130000;17471888888;17971888888
1537;18070131000;17471888888;17971888888
1538;18070132000;17471888888;17971888888
1539;18070235000;17471911111;17971911111
1540;18070251000;17472211111;17972211111
1541;18070252000;17472211111;17972211111
1542;18070253000;17472211111;17972211111
1543;18070264000;17513555555;18013555555
1544;18070265000;17513555555;18013555555
1545;18070276000;17513555555;18013555555
1546;18070278000;17513555555;18013555555
1547;18070279000;17513555555;18013555555
1548;18070280000;17513555555;18013555555
1549;18070280000;17513555555;18013555555
1550;18070383000;17513566666;18013566666
1551;18070398000;17513855555;18013855555
1553;18074402000;17513855555;18013855555
1554;18088439000;17555211111;18055211111
1555;18088443000;17555211111;18055211111
1556;18088444000;17555211111;18055211111
1557;18088446000;17555211111;18055211111
1558;18088447000;17555211111;18055211111
1559;18088448000;17555211111;18055211111
1561;18088691000;17555233333;18055233333
1562;18088711000;17555500000;18055500000
1563;18088712000;17555500000;18055500000
1564;18088713000;17555500000;18055500000
1565;18109515000;17596900000;18096900000
1566;18109518000;17596900000;18096900000
1567;18109519000;17596900000;18096900000
1568;18109521000;17596900000;18096900000
1569;18109522000;17596900000;18096900000
1570;18109523000;17596900000;18096900000
1571;18109533000;17596900000;18096900000
1572;18109745000;17596922222;18096922222
1573;18109760000;17597233333;18097233333
1574;18109762000;17597233333;18097233333
1575;18109763000;17597233333;18097233333
1576;18520914000;17638555555;18138555555
1653;18521027000;17930211111;18430211111
1654;18521030000;17930211111;18430211111
1655;18521031000;17930211111;18430211111
1657;18521032000;17930211111;18430211111
1659;18521033000;17930211111;18430211111
1660;18521153000;17930222222;18430222222
1661;18521168000;17930555555;18430555555
1662;18521169000;17930555555;18430555555
1663;18521170000;17930555555;18430555555
1664;18521181000;17971900000;18471900000
1665;18521192000;17971900000;18471900000
1666;18521193000;17971900000;18471900000
1667;18521194000;17971900000;18471900000
1668;18521195000;17971900000;18471900000
1669;18521196000;17971900000;18471900000
1670;18521197000;17971900000;18471900000
1672;18521201000;17972211111;18472211111
1673;18521202000;17972211111;18472211111
1674;18521203000;17972211111;18472211111
1675;18549564000;18013555555;18513555555
1676;18549567000;18013555555;18513555555
1677;18549569000;18013555555;18513555555
1678;18549570000;18013555555;18513555555
1679;18549571000;18013555555;18513555555
1680;18549572000;18013555555;18513555555
1681;18549572000;18013555555;18513555555
1682;18703378000;18013566666;18513566666
1722;18703394000;18180211111;18680211111
1723;18703395000;18180211111;18680211111
1724;18703396000;18180211111;18680211111
1725;18703397000;18180211111;18680211111
1726;18979612000;18180222222;18680222222
1753;18979628000;18305222222;18805222222
1754;18979629000;18305222222;18805222222
1755;18979630000;18305222222;18805222222
1756;18979631000;18305222222;18805222222
1757;18979632000;18305222222;18805222222
1758;18979633000;18305222222;18805222222
1759;18979851000;18305233333;18805233333
1760;18979867000;18305533333;18805533333
1761;18979868000;18305533333;18805533333
1762;18979869000;18305533333;18805533333
1763;18979882000;18346888888;18846888888
1764;18979883000;18346888888;18846888888
1765;18979884000;18346888888;18846888888
1766;18979885000;18346888888;18846888888
1767;18979886000;18346888888;18846888888
1768;18979887000;18346888888;18846888888
1769;18979888000;18346888888;18846888888
1770;18979990000;18346911111;18846911111
1771;18980006000;18347222222;18847222222
1772;18980007000;18347222222;18847222222
1773;18980016000;18347222222;18847222222
1774;18980029000;18388555555;18888555555
1775;18980030000;18388555555;18888555555
1776;18980031000;18388555555;18888555555
1777;18980032000;18388555555;18888555555
1778;18980033000;18388555555;18888555555
1779;18980034000;18388555555;18888555555
1780;18980035000;18388555555;18888555555
1781;18980137000;18388566666;18888566666
1782;18980153000;18388888888;18888888888
1783;18980154000;18388888888;18888888888
1784;18980155000;18388888888;18888888888
1785;18980170000;18430211111;18930211111
1786;18980171000;18430211111;18930211111
1787;18980172000;18430211111;18930211111
1788;18980173000;18430211111;18930211111
1789;18980174000;18430211111;18930211111
1790;18980175000;18430211111;18930211111
1791;18980176000;18430211111;18930211111
1792;18980248000;18430233333;18930233333
1793;18980251000;18430522222;18930522222
1794;18980252000;18430522222;18930522222
1795;18980253000;18430522222;18930522222
1796;18980261000;18471888888;18971888888
1797;18980262000;18471888888;18971888888
1798;18980263000;18471888888;18971888888
1799;18980264000;18471888888;18971888888
1800;18980265000;18471888888;18971888888
1801;18980266000;18471888888;18971888888
1802;18980267000;18471888888;18971888888
1803;18980305000;18471900000;18971900000
1804;18980308000;18472233333;18972233333
1805;18980309000;18472233333;18972233333
1806;18980310000;18472233333;18972233333
1807;19006483000;18513555555;19013555555
1808;19006487000;18513555555;19013555555
1809;19006488000;18513555555;19013555555
1810;19006489000;18513555555;19013555555
1811;19006490000;18513555555;19013555555
1815;19425384000;18513877777;19013877777
1883;19425516000;18763822222;19263822222
1884;19425537000;18805222222;19305222222
1885;19425539000;18805222222;19305222222
1886;19425550000;18805222222;19305222222
1887;19425551000;18805222222;19305222222
1888;19425552000;18805222222;19305222222
1889;19425553000;18805222222;19305222222
1890;19425554000;18805222222;19305222222
1891;19425651000;18805233333;19305233333
1892;19425654000;18805500000;19305500000
1893;19425655000;18805500000;19305500000
1894;19425656000;18805500000;19305500000
1895;19433548000;18846900000;19346900000
1896;19433562000;18846900000;19346900000
1897;19433563000;18846900000;19346900000
1898;19433564000;18846900000;19346900000
1899;19433565000;18846900000;19346900000
1900;19433566000;18846900000;19346900000
1901;19433566000;18846900000;19346900000
1902;19433746000;18846922222;19346922222
1903;19433752000;18847222222;19347222222
1904;19433753000;18847222222;19347222222
1905;19433754000;18847222222;19347222222
1906;19443187000;18888555555;19388555555
1909;19443191000;18888555555;19388555555
1910;19443192000;18888555555;19388555555
1911;19443193000;18888555555;19388555555
1912;19443194000;18888555555;19388555555
1913;19634750000;18888577777;19388577777
1956;19634765000;19055211111;19555211111
1957;19864243000;19055233333;19555233333
2004;19864259000;19222200000;19722200000
2005;19884530000;19263544444;19763544444
2006;19884543000;19263544444;19763544444
2007;19884544000;19263544444;19763544444
2008;19884544000;19263544444;19763544444
2009;19884545000;19263544444;19763544444
2010;19884546000;19263544444;19763544444
2011;19884547000;19263544444;19763544444
2012;19884744000;19263566666;19763566666
2013;19884748000;19263844444;19763844444
2014;19884749000;19263844444;19763844444
2015;19884750000;19263844444;19763844444
2016;19884768000;19305222222;19805222222
2017;19884769000;19305222222;19805222222
2018;19884770000;19305222222;19805222222
2019;19884771000;19305222222;19805222222
2020;19884772000;19305222222;19805222222
2021;19884773000;19305222222;19805222222
2022;19884774000;19305222222;19805222222
2023;19884856000;19305233333;19805233333
2025;19884858000;19305511111;19805511111
2026;19884859000;19305511111;19805511111
2027;19906266000;19346888888;19846888888
2042;19926993000;19388555555;19888555555
2044;19926997000;19388555555;19888555555
2045;19927177000;19388577777;19888577777
2046;19927192000;19388833333;19888833333
2047;19927193000;19388833333;19888833333
2048;19927194000;19388833333;19888833333
2049;20326445000;19430211111;19930211111
2135;20326559000;19722222222;20222222222
2136;20326563000;19722222222;20222222222
2137;20326572000;19763555555;20263555555
2138;20326574000;19763555555;20263555555
2139;20326585000;19763555555;20263555555
2140;20326586000;19763555555;20263555555
2141;20326587000;19763555555;20263555555
2142;20326588000;19763555555;20263555555
2143;20326589000;19763555555;20263555555
2144;20326698000;19763577777;20263577777
2145;20326713000;19763855555;20263855555
2146;20326714000;19763855555;20263855555
2147;20326715000;19763855555;20263855555
2148;20326726000;19805222222;20305222222
2149;20326727000;19805222222;20305222222
2150;20326738000;19805222222;20305222222
2152;20334204000;19805222222;20305222222
2153;20334217000;19805222222;20305222222
2154;20334218000;19805222222;20305222222
2155;20334416000;19805233333;20305233333
2156;20334432000;19805522222;20305522222
2157;20334433000;19805522222;20305522222
2158;20334434000;19805522222;20305522222
2159;20364443000;19846888888;20346888888
2160;20364447000;19846888888;20346888888
2161;20364448000;19846888888;20346888888
2162;20364449000;19846888888;20346888888
2163;20364450000;19846888888;20346888888
2164;20364450000;19846888888;20346888888
2165;20364451000;19846888888;20346888888
2166;20364665000;19846900000;20346900000
2167;20364680000;19847211111;20347211111
2168;20364681000;19847211111;20347211111
2169;20364682000;19847211111;20347211111
2170;20386390000;19888577777;20388577777
2171;20386394000;19888577777;20388577777
2172;20386395000;19888577777;20388577777
2173;20448718000;19888577777;20388577777
2174;20448721000;19888577777;20388577777
2175;20448737000;19888577777;20388577777
2176;20448739000;19888577777;20388577777
2177;20792585000;19888600000;20388600000
2243;20792736000;20138577777;20638577777
2246;20792741000;20138900000;20638900000
2247;20792750000;20180222222;20680222222
2248;20792751000;20180222222;20680222222
2249;20792752000;20180222222;20680222222
2250;20792763000;20180222222;20680222222
2251;20792764000;20180222222;20680222222
2252;20792765000;20180222222;20680222222
2253;20792766000;20180222222;20680222222
2254;20792861000;20180233333;20680233333
2255;20792875000;20180522222;20680522222
2256;20792876000;20180522222;20680522222
2257;20792878000;20180522222;20680522222
2258;20792897000;20221888888;20721888888
2259;20792898000;20221888888;20721888888
2260;20792899000;20221888888;20721888888
2261;20792900000;20221888888;20721888888
2262;20792911000;20221888888;20721888888
2263;20792913000;20221888888;20721888888
2264;20792915000;20221888888;20721888888
2265;20793001000;20221911111;20721911111
2266;20793014000;20222222222;20722222222
2267;20793015000;20222222222;20722222222
2268;20793016000;20222222222;20722222222
2269;20793033000;20263555555;20763555555
2270;20793034000;20263555555;20763555555
2271;20793035000;20263555555;20763555555
2272;20793036000;20263555555;20763555555
2273;20793036000;20263555555;20763555555
2274;20793037000;20263555555;20763555555
2275;20793048000;20263555555;20763555555
2276;20793107000;20263577777;20763577777
2277;20793110000;20263888888;20763888888
2278;20793112000;20263888888;20763888888
2279;20793114000;20263888888;20763888888
2280;20795964000;20305222222;20805222222
2281;20795967000;20305222222;20805222222
2282;20795968000;20305222222;20805222222
2283;20795969000;20305222222;20805222222
2284;20795970000;20305222222;20805222222
2285;20795981000;20305222222;20805222222
2286;20795982000;20305222222;20805222222
2287;21067883000;20305233333;20805233333
2322;21090008000;20430533333;20930533333
2323;21090011000;20430533333;20930533333
2324;21237233000;20471888888;20971888888
2369;21251141000;20638544444;21138544444
2383;21252671000;20680222222;21180222222
2384;21252674000;20680222222;21180222222
2385;21252675000;20680222222;21180222222
2386;21252873000;20680244444;21180244444
2387;21252889000;20680522222;21180522222
2388;21252890000;20680522222;21180522222
2389;21252891000;20680522222;21180522222
2390;21279624000;20721888888;21221888888
2391;21279627000;20721888888;21221888888
2392;21279628000;20721888888;21221888888
2393;21279636000;20721888888;21221888888
2394;21279637000;20721888888;21221888888
2395;21279638000;20721888888;21221888888
2396;21279639000;20721888888;21221888888
2397;21279838000;20721911111;21221911111
2398;21279853000;20722222222;21222222222
2399;21279854000;20722222222;21222222222
2400;21279855000;20722222222;21222222222
2401;21301410000;20763555555;21263555555
2402;21301414000;20763555555;21263555555
2403;21301415000;20763555555;21263555555
2404;21301416000;20763555555;21263555555
2405;21301417000;20763555555;21263555555
2406;21301417000;20763555555;21263555555
2407;21301418000;20763555555;21263555555
2408;21634393000;20763577777;21263577777
2461;21634409000;20971888888;21471888888
2462;21634410000;20971888888;21471888888
2463;21634615000;20971900000;21471900000
2464;21634630000;20972200000;21472200000
2465;21634631000;20972200000;21472200000
2466;21634632000;20972200000;21472200000
2467;21669178000;21013555555;21513555555
2478;21669254000;21055222222;21555222222
2479;21669256000;21055222222;21555222222
2480;21669257000;21055222222;21555222222
2481;21669258000;21055222222;21555222222
2482;21669259000;21055222222;21555222222
2483;21669260000;21055222222;21555222222
2484;21669261000;21055222222;21555222222
2485;21669354000;21055233333;21555233333
2486;21669356000;21055511111;21555511111
2487;21669357000;21055511111;21555511111
2488;21669358000;21055511111;21555511111
2489;21906176000;21096900000;21596900000
2543;22106313000;21263877777;21763877777
2592;22106424000;21471888888;21971888888
2593;22106428000;21471888888;21971888888
2594;22106429000;21471888888;21971888888
2595;22106551000;21471900000;21971900000
2596;22106567000;21472222222;21972222222
2597;22106568000;21472222222;21972222222
2598;22106569000;21472222222;21972222222
2599;22106579000;21513555555;22013555555
2600;22106580000;21513555555;22013555555
2601;22106592000;21513555555;22013555555
2602;22106593000;21513555555;22013555555
2603;22106594000;21513555555;22013555555
2606;22106696000;21513566666;22013566666
2607;22106711000;21513877777;22013877777
2608;22106712000;21513877777;22013877777
2609;22106713000;21513877777;22013877777
2610;22106724000;21555222222;22055222222
2611;22106725000;21555222222;22055222222
2612;22106736000;21555222222;22055222222
2613;22106737000;21555222222;22055222222
2614;22106738000;21555222222;22055222222
2615;22106739000;21555222222;22055222222
2616;22106740000;21555222222;22055222222
2617;22106850000;21555233333;22055233333
2618;22106856000;21555511111;22055511111
2619;22106857000;21555511111;22055511111
2620;22106858000;21555511111;22055511111
2621;22130360000;21596888888;22096888888
2622;22130363000;21596888888;22096888888
2623;22130364000;21596888888;22096888888
2624;22130365000;21596888888;22096888888
2625;22130366000;21596888888;22096888888
2626;22130367000;21596888888;22096888888
2627;22130368000;21596888888;22096888888
2628;22130481000;21596900000;22096900000
2629;22130496000;21597211111;22097211111
2630;22130497000;21597211111;22097211111
2632;22165351000;21638555555;22138555555
2633;22165355000;21638555555;22138555555
2634;22165356000;21638555555;22138555555
2635;22165357000;21638555555;22138555555
2636;22236123000;21638555555;22138555555
2637;22236126000;21638555555;22138555555
2638;22236127000;21638555555;22138555555
2641;22496469000;21638844444;22138844444
2707;22523330000;21888844444;22388844444
2708;22523334000;21888844444;22388844444
2709;22534938000;21930233333;22430233333
2710;22534941000;21930233333;22430233333
2711;22534942000;21930233333;22430233333
2712;22534943000;21930233333;22430233333
2713;22534944000;21930233333;22430233333
2714;22534945000;21930233333;22430233333
2715;22534946000;21930233333;22430233333
2716;22597843000;21930244444;22430244444
2745;22597854000;22055222222;22555222222
2747;22597857000;22055222222;22555222222
2748;22597859000;22055222222;22555222222
2749;22852348000;22055233333;22555233333
2790;22852363000;22221900000;22721900000
2791;22852364000;22221900000;22721900000
2792;22852365000;22221900000;22721900000
2793;22852585000;22221911111;22721911111
2797;22852608000;22263555555;22763555555
2798;22852609000;22263555555;22763555555
2799;22852610000;22263555555;22763555555
2800;22852611000;22263555555;22763555555
2801;22852611000;22263555555;22763555555
2802;22852612000;22263555555;22763555555
2803;22852613000;22263555555;22763555555
2804;22852734000;22263566666;22763566666
2805;22852750000;22263855555;22763855555
2806;22852751000;22263855555;22763855555
2807;22852752000;22263855555;22763855555
2808;22852762000;22305211111;22805211111
2809;22852774000;22305211111;22805211111
2810;22852775000;22305211111;22805211111
2811;22852775000;22305211111;22805211111
2812;22852776000;22305211111;22805211111
2813;22852777000;22305211111;22805211111
2814;22852778000;22305211111;22805211111
2815;22852842000;22305222222;22805222222
2816;22852844000;22305511111;22805511111
2817;22852845000;22305511111;22805511111
2818;22852846000;22305511111;22805511111
2819;23195849000;22346888888;22846888888
2885;23407321000;22596911111;23096911111
2935;23421433000;22763555555;23263555555
2936;23421641000;22763577777;23263577777
2937;23421657000;22763822222;23263822222
2938;23421658000;22763822222;23263822222
2939;23421659000;22763822222;23263822222
2940;23439593000;22805222222;23305222222
2971;23457182000;22888833333;23388833333
2982;23499933000;22930500000;23430500000
2983;23499966000;22930500000;23430500000
2984;23500509000;22971900000;23471900000
2988;23500513000;22971900000;23471900000
2989;23500515000;22971900000;23471900000
2990;23500526000;22971900000;23471900000
2991;23500636000;22971922222;23471922222
2992;23500651000;22972200000;23472200000
2994;23500652000;22972200000;23472200000
2995;23522287000;23013544444;23513544444
2996;23522291000;23013544444;23513544444
2997;23522292000;23013544444;23513544444
2998;23522293000;23013544444;23513544444
2999;23522294000;23013544444;23513544444
3000;23522295000;23013544444;23513544444
3001;23522296000;23013544444;23513544444
3002;23522494000;23013566666;23513566666
3003;23522500000;23013833333;23513833333
3004;23522501000;23013833333;23513833333
3005;23522502000;23013833333;23513833333
3006;23558211000;23055222222;23555222222
3007;23558214000;23055222222;23555222222
3008;23558215000;23055222222;23555222222
3009;23558217000;23055222222;23555222222
3010;23558218000;23055222222;23555222222
3011;23558218000;23055222222;23555222222
3013;23558417000;23055233333;23555233333
3014;23558432000;23055466666;23555466666
3016;23596875000;23055466666;23555466666
3017;23596992000;23096888888;23596888888
3018;23596996000;23096888888;23596888888
3019;23596997000;23096888888;23596888888
3020;23596998000;23096888888;23596888888
3022;23596999000;23096888888;23596888888
3023;23597000000;23096888888;23596888888
3024;23597121000;23096900000;23596900000
3025;23597138000;23097177777;23597177777
3026;23597139000;23097177777;23597177777
3027;23597140000;23097177777;23597177777
3028;23637056000;23138544444;23638544444
3029;23637060000;23138544444;23638544444
3030;23637061000;23138544444;23638544444
3031;23637062000;23138544444;23638544444
3032;23637063000;23138544444;23638544444
3033;23637064000;23138544444;23638544444
3034;23637064000;23138544444;23638544444
3035;23906641000;23138566666;23638566666
3079;24108489000;23305344444;23805344444
3142;24108505000;23555211111;24055211111
3143;24108507000;23555211111;24055211111
3144;24108508000;23555211111;24055211111
3145;24127659000;23555233333;24055233333
3146;24127674000;23555488888;24055488888
3147;24127675000;23555488888;24055488888
3148;24127676000;23555488888;24055488888
3149;24156592000;23596900000;24096900000
3150;24156595000;23596900000;24096900000
3151;24156596000;23596900000;24096900000
3152;24156597000;23596900000;24096900000
3153;24156598000;23596900000;24096900000
3154;24156599000;23596900000;24096900000
3155;24156600000;23596900000;24096900000
3156;24156797000;23596922222;24096922222
3157;24156812000;23597211111;24097211111
3158;24156813000;23597211111;24097211111
3159;24156815000;23597211111;24097211111
3160;24177614000;23638555555;24138555555
3161;24177617000;23638555555;24138555555
3162;24177618000;23638555555;24138555555
3163;24177627000;23638555555;24138555555
3164;24177628000;23638555555;24138555555
3165;24177629000;23638555555;24138555555
3166;24177630000;23638555555;24138555555
3167;24177799000;23638566666;24138566666
3168;24177803000;23638844444;24138844444
3169;24177804000;23638844444;24138844444
3170;24177805000;23638844444;24138844444
3171;24208469000;23680222222;24180222222
3172;24208481000;23680222222;24180222222
3173;24208482000;23680222222;24180222222
3174;24208483000;23680222222;24180222222
3175;24208484000;23680222222;24180222222
3176;24208485000;23680222222;24180222222
3177;24208486000;23680222222;24180222222
3178;24208708000;23680233333;24180233333
3179;24208724000;23680500000;24180500000
3180;24208725000;23680500000;24180500000
3181;24208726000;23680500000;24180500000
3182;24242988000;23721900000;24221900000
3183;24242992000;23721900000;24221900000
3184;24242993000;23721900000;24221900000
3185;24242994000;23721900000;24221900000
3186;24242995000;23721900000;24221900000
3187;24242995000;23721900000;24221900000
3188;24242996000;23721900000;24221900000
3189;24563924000;23721933333;24221933333
3254;24563939000;23971888888;24471888888
3255;24672063000;23971900000;24471900000
3294;24701606000;24138544444;24638544444
3295;24701610000;24138544444;24638544444
3296;24701611000;24138544444;24638544444
3297;24701612000;24138544444;24638544444
3298;24701613000;24138544444;24638544444
3299;24701809000;24138566666;24638566666
3301;24701816000;24138844444;24638844444
3303;24845217000;24180211111;24680211111
3331;24845321000;24263555555;24763555555
3333;25133771000;24263855555;24763855555
3396;25133897000;24513555555;25013555555
3397;25133901000;24513555555;25013555555
3398;25134043000;24513566666;25013566666
3400;25134058000;24513888888;25013888888
3401;25134059000;24513888888;25013888888
3402;25134070000;24555244444;25055244444
3403;25134081000;24555244444;25055244444
3404;25134082000;24555244444;25055244444
3405;25134083000;24555244444;25055244444
3406;25134084000;24555244444;25055244444
3407;25134084000;24555244444;25055244444
3408;25134086000;24555244444;25055244444
3409;25397321000;24555255555;25055255555
3469;25397337000;24805222222;25305222222
3470;25397338000;24805222222;25305222222
3471;25397339000;24805222222;25305222222
3472;25397340000;24805222222;25305222222
3473;25397341000;24805222222;25305222222
3474;25397342000;24805222222;25305222222
3475;25430943000;24805233333;25305233333
3479;25430958000;24846888888;25346888888
3480;25430960000;24846888888;25346888888
3481;25430960000;24846888888;25346888888
3482;25430962000;24846888888;25346888888
3483;25430963000;24846888888;25346888888
3484;25430964000;24846888888;25346888888
3485;25430964000;24846888888;25346888888
3486;25431100000;24846911111;25346911111
3487;25431103000;24847233333;25347233333
3488;25431104000;24847233333;25347233333
3489;25431105000;24847233333;25347233333
3490;25449580000;24888555555;25388555555
3494;25449583000;24888555555;25388555555
3495;25449584000;24888555555;25388555555
3496;25449585000;24888555555;25388555555
3497;25730125000;24888566666;25388566666
3554;25730140000;25097222222;25597222222
3555;25730141000;25097222222;25597222222
3556;25964791000;25138555555;25638555555
3616;26016225000;25346888888;25846888888
3629;26016443000;25388566666;25888566666
3632;26016449000;25388844444;25888844444
3633;26016469000;25430222222;25930222222
3634;26016486000;25430222222;25930222222
3635;26016487000;25430222222;25930222222
3636;26016489000;25430222222;25930222222
3637;26016490000;25430222222;25930222222
3638;26016491000;25430222222;25930222222
3639;26016492000;25430222222;25930222222
3640;26016612000;25430244444;25930244444
3641;26016627000;25430511111;25930511111
3642;26016628000;25430511111;25930511111
3643;26016629000;25430511111;25930511111
3644;26016640000;25471888888;25971888888
3645;26016651000;25471888888;25971888888
3646;26016652000;25471888888;25971888888
3647;26016653000;25471888888;25971888888
3648;26016654000;25471888888;25971888888
3649;26016655000;25471888888;25971888888
3650;26016656000;25471888888;25971888888
3651;26029881000;25471900000;25971900000
3652;26029904000;25472211111;25972211111
3653;26029905000;25472211111;25972211111
3654;26029906000;25472211111;25972211111
3655;26061220000;25513555555;26013555555
3656;26061224000;25513555555;26013555555
3657;26061225000;25513555555;26013555555
3658;26061226000;25513555555;26013555555
3659;26061227000;25513555555;26013555555
3660;26061227000;25513555555;26013555555
3661;26061228000;25513555555;26013555555
3662;26061427000;25513566666;26013566666
3663;26061433000;25513888888;26013888888
3664;26061434000;25513888888;26013888888
3665;26061435000;25513888888;26013888888
3666;26091629000;25555211111;26055211111
3667;26091632000;25555211111;26055211111
3668;26091633000;25555211111;26055211111
3669;26091634000;25555211111;26055211111
3670;26091635000;25555211111;26055211111
3671;26091636000;25555211111;26055211111
3672;26091637000;25555211111;26055211111
3673;26091835000;25555233333;26055233333
3674;26091850000;25555500000;26055500000
3675;26091851000;25555500000;26055500000
3677;26126478000;25596911111;26096911111
3678;26126481000;25596911111;26096911111
3680;26126482000;25596911111;26096911111
3682;26126483000;25596911111;26096911111
3684;26126603000;25596966666;26096966666
3685;26126618000;25597300000;26097300000
3686;26126619000;25597300000;26097300000
3687;26126620000;25597300000;26097300000
3688;26163096000;25638544444;26138544444
3691;26163099000;25638544444;26138544444
3692;26163100000;25638544444;26138544444
3693;26163101000;25638544444;26138544444
3694;26163102000;25638544444;26138544444
3695;26163301000;25638555555;26138555555
3696;26163316000;25638833333;26138833333
3697;26163317000;25638833333;26138833333
3698;26163319000;25638833333;26138833333
3699;26199874000;25680211111;26180211111
3700;26199877000;25680211111;26180211111
3701;26199878000;25680211111;26180211111
3702;26199879000;25680211111;26180211111
3703;26199880000;25680211111;26180211111
3704;26199881000;25680211111;26180211111
3705;26199882000;25680211111;26180211111
3706;26200080000;25680233333;26180233333
3707;26200095000;25680511111;26180511111
3708;26200096000;25680511111;26180511111
3709;26200097000;25680511111;26180511111
3710;26230118000;25721888888;26221888888
3711;26230121000;25721888888;26221888888
3712;26230122000;25721888888;26221888888
3713;26230123000;25721888888;26221888888
3714;26230124000;25721888888;26221888888
3715;26230125000;25721888888;26221888888
3716;26230126000;25721888888;26221888888
3717;26230324000;25721900000;26221900000
3718;26230340000;25722200000;26222200000
3719;26230341000;25722200000;26222200000
3720;26230342000;25722200000;26222200000
3721;26267154000;25763555555;26263555555
3722;26267157000;25763555555;26263555555
3723;26267158000;25763555555;26263555555
3724;26267159000;25763555555;26263555555
3725;26267160000;25763555555;26263555555
3726;26267161000;25763555555;26263555555
3727;26267162000;25763555555;26263555555
3728;26267370000;25763566666;26263566666
3729;26267375000;25763833333;26263833333
3730;26267376000;25763833333;26263833333
3731;26267377000;25763833333;26263833333
3732;26306936000;25805222222;26305222222
3733;26306940000;25805222222;26305222222
3734;26306941000;25805222222;26305222222
3735;26306942000;25805222222;26305222222
3736;26306942000;25805222222;26305222222
3739;26307618000;25805233333;26305233333
3740;26315622000;25805488888;26305488888
3741;26315626000;25805488888;26305488888
3742;26315627000;25805488888;26305488888
3743;26708717000;25846900000;26346900000
3810;26734693000;26096888888;26596888888
3811;26734697000;26096888888;26596888888
3812;26734698000;26096888888;26596888888
3814;26734699000;26096888888;26596888888
3815;26734700000;26096888888;26596888888
3816;26734898000;26096900000;26596900000
3817;26734913000;26097177777;26597177777
3818;26734914000;26097177777;26597177777
3819;26734915000;26097177777;26597177777
3820;26753203000;26138555555;26638555555
3847;26794496000;26221888888;26721888888
3852;27078585000;26222188888;26722188888
3919;27334207000;26513555555;27013555555
3968;27334319000;26680222222;27180222222
3969;27334323000;26680222222;27180222222
3970;27334443000;26680244444;27180244444
3971;27334466000;26680511111;27180511111
3972;27334467000;26680511111;27180511111
3973;27334468000;26680511111;27180511111
3974;27345613000;26721911111;27221911111
3976;27345631000;26721911111;27221911111
3977;27345632000;26721911111;27221911111
3978;27345633000;26721911111;27221911111
3979;27345634000;26721911111;27221911111
3980;27345635000;26721911111;27221911111
3981;27345813000;26721922222;27221922222
3983;27345830000;26722255555;27222255555
3984;27345831000;26722255555;27222255555
3985;27346006000;26763555555;27263555555
3986;27346008000;26763555555;27263555555
3987;27346009000;26763555555;27263555555
3988;27346010000;26763555555;27263555555
3989;27346021000;26763555555;27263555555
3990;27346022000;26763555555;27263555555
3991;27346023000;26763555555;27263555555
3992;27346219000;26763566666;27263566666
3993;27346221000;26763855555;27263855555
3994;27346222000;26763855555;27263855555
3995;27346223000;26763855555;27263855555
3996;27369167000;26805255555;27305255555
4007;27391896000;26846900000;27346900000
4008;27391899000;26846900000;27346900000
4009;27391900000;26846900000;27346900000
4010;27391901000;26846900000;27346900000
4011;27391902000;26846900000;27346900000
4012;27391903000;26846900000;27346900000
4013;27391904000;26846900000;27346900000
4014;27392103000;26846922222;27346922222
4015;27392119000;26847211111;27347211111
4016;27392120000;26847211111;27347211111
4017;27392120000;26847211111;27347211111
4018;27422117000;26888544444;27388544444
4019;27422121000;26888544444;27388544444
4020;27422122000;26888544444;27388544444
4021;27422123000;26888544444;27388544444
4022;27422124000;26888544444;27388544444
4023;27422125000;26888544444;27388544444
4024;27422126000;26888544444;27388544444
4025;27422324000;26888566666;27388566666
4026;27422339000;26888844444;27388844444
4027;27422340000;26888844444;27388844444
4028;27422341000;26888844444;27388844444
4029;27450337000;26930222222;27430222222
4030;27450340000;26930222222;27430222222
4031;27450342000;26930222222;27430222222
4032;27450343000;26930222222;27430222222
4033;27450344000;26930222222;27430222222
4034;27450345000;26930222222;27430222222
4035;27450346000;26930222222;27430222222
4036;27450599000;26930244444;27430244444
4037;27450615000;26930522222;27430522222
4038;27450616000;26930522222;27430522222
4039;27450617000;26930522222;27430522222
4040;27488728000;26971888888;27471888888
4041;27488731000;26971888888;27471888888
4042;27488732000;26971888888;27471888888
4043;27488733000;26971888888;27471888888
4044;27488734000;26971888888;27471888888
4045;27488735000;26971888888;27471888888
4046;27488735000;26971888888;27471888888
4047;27488919000;26971911111;27471911111
4048;27488934000;26972188888;27472188888
4049;27488935000;26972188888;27472188888
4050;27488936000;26972188888;27472188888
4051;27528357000;27013566666;27513566666
4052;27528361000;27013566666;27513566666
4053;27528362000;27013566666;27513566666
4054;27528363000;27013566666;27513566666
4055;27528364000;27013566666;27513566666
4056;27528365000;27013566666;27513566666
4057;27528366000;27013566666;27513566666
4058;27528553000;27013577777;27513577777
4059;27528568000;27013844444;27513844444
4060;27528569000;27013844444;27513844444
4061;27528570000;27013844444;27513844444
4062;27569539000;27055211111;27555211111
4063;27569542000;27055211111;27555211111
4064;27569543000;27055211111;27555211111
4065;27569544000;27055211111;27555211111
4066;27569545000;27055211111;27555211111
4067;27569546000;27055211111;27555211111
4068;27569547000;27055211111;27555211111
4069;27569716000;27055233333;27555233333
4070;27569720000;27055477777;27555477777
4071;27569721000;27055477777;27555477777
4072;27569722000;27055477777;27555477777
4073;27611056000;27096900000;27596900000
4074;27611059000;27096900000;27596900000
4075;27611060000;27096900000;27596900000
4076;27611061000;27096900000;27596900000
4077;27611062000;27096900000;27596900000
4078;27611063000;27096900000;27596900000
4079;27611064000;27096900000;27596900000
4081;27611695000;27097222222;27597222222
4082;27611698000;27097222222;27597222222
4083;27611699000;27097222222;27597222222
4084;27652558000;27138544444;27638544444
4085;27652561000;27138544444;27638544444
4086;27652562000;27138544444;27638544444
4087;27652563000;27138544444;27638544444
4088;27652564000;27138544444;27638544444
4089;27652565000;27138544444;27638544444
4090;27652566000;27138544444;27638544444
4091;27652765000;27138566666;27638566666
4092;27652780000;27138844444;27638844444
4093;27652781000;27138844444;27638844444
4094;27652782000;27138844444;27638844444
4095;27694326000;27180211111;27680211111
4096;27694329000;27180211111;27680211111
4097;27694330000;27180211111;27680211111
4098;27694332000;27180211111;27680211111
4099;27694333000;27180211111;27680211111
4100;27694334000;27180211111;27680211111
4101;27694335000;27180211111;27680211111
4102;27694560000;27180233333;27680233333
4103;27694576000;27180500000;27680500000
4104;27694578000;27180500000;27680500000
4105;27694579000;27180500000;27680500000
4106;27735942000;27221900000;27721900000
4107;27735946000;27221900000;27721900000
4108;27735947000;27221900000;27721900000
4109;27735948000;27221900000;27721900000
4110;27735949000;27221900000;27721900000
4111;27735950000;27221900000;27721900000
4112;27735951000;27221900000;27721900000
4113;27736156000;27221911111;27721911111
4114;27736171000;27222211111;27722211111
4115;27736173000;27222211111;27722211111
4116;27736174000;27222211111;27722211111
4117;27777663000;27263555555;27763555555
4118;27777666000;27263555555;27763555555
4119;27777667000;27263555555;27763555555
4120;27777668000;27263555555;27763555555
4121;27777669000;27263555555;27763555555
4122;27777670000;27263555555;27763555555
4123;27777671000;27263555555;27763555555
4124;27777869000;27263577777;27763577777
4125;27777884000;27263855555;27763855555
4126;27777885000;27263855555;27763855555
4127;27777886000;27263855555;27763855555
4128;27819152000;27305222222;27805222222
4129;27819156000;27305222222;27805222222
4130;27819157000;27305222222;27805222222
4131;27819158000;27305222222;27805222222
4132;27819159000;27305222222;27805222222
4133;27819160000;27305222222;27805222222
4134;27819161000;27305222222;27805222222
4135;27819392000;27305233333;27805233333
4136;27819399000;27305522222;27805522222
4137;27819401000;27305522222;27805522222
4138;27819402000;27305522222;27805522222
4139;27861000000;27346888888;27846888888
4140;27861004000;27346888888;27846888888
4141;27861004000;27346888888;27846888888
4142;27861005000;27346888888;27846888888
4143;27861006000;27346888888;27846888888
4144;27861007000;27346888888;27846888888
4145;27861008000;27346888888;27846888888
4146;27861221000;27346900000;27846900000
4147;27861241000;27347211111;27847211111
4149;27861243000;27347211111;27847211111
4150;27902515000;27388566666;27888566666
4151;27902533000;27388566666;27888566666
4152;27902534000;27388566666;27888566666
4153;27902535000;27388566666;27888566666
4154;27902536000;27388566666;27888566666
4155;27902537000;27388566666;27888566666
4156;27902538000;27388566666;27888566666
4157;28183588000;27388588888;27888588888
4198;28183604000;27555222222;28055222222
4199;28183605000;27555222222;28055222222
4200;28183606000;27555222222;28055222222
4201;28375663000;27555244444;28055244444
4255;28375680000;27763544444;28263544444
4256;28418953000;27763555555;28263555555
4261;28418968000;27805222222;28305222222
4262;28418970000;27805222222;28305222222
4266;28419997000;27805222222;28305222222
4268;28430840000;27805500000;28305500000
4271;28453152000;27846888888;28346888888
4277;28453156000;27846888888;28346888888
4278;28453287000;27846911111;28346911111
4279;28453304000;27847211111;28347211111
4280;28453305000;27847211111;28347211111
4281;28453306000;27847211111;28347211111
4284;28481925000;27888555555;28388555555
4285;28481928000;27888555555;28388555555
4286;28481939000;27888555555;28388555555
4287;28481940000;27888555555;28388555555
4288;28481941000;27888555555;28388555555
4289;28482150000;27888566666;28388566666
4290;28482166000;27888855555;28388855555
4291;28482167000;27888855555;28388855555
4292;28482168000;27888855555;28388855555
4293;28501394000;27930222222;28430222222
4294;28501397000;27930222222;28430222222
4295;28501408000;27930222222;28430222222
4296;28501409000;27930222222;28430222222
4297;28501410000;27930222222;28430222222
4298;28501410000;27930222222;28430222222
4299;28501412000;27930222222;28430222222
4300;28501542000;27930244444;28430244444
4301;28501558000;27930533333;28430533333
4302;28501559000;27930533333;28430533333
4303;28501560000;27930533333;28430533333
4304;28516262000;27971900000;28471900000
4305;28516266000;27971900000;28471900000
4306;28516267000;27971900000;28471900000
4307;28516268000;27971900000;28471900000
4308;28516269000;27971900000;28471900000
4309;28516270000;27971900000;28471900000
4310;28516271000;27971900000;28471900000
4311;28516469000;27971933333;28471933333
4312;28516490000;27972233333;28472233333
4313;28516492000;27972233333;28472233333
4314;28516492000;27972233333;28472233333
4315;28547307000;28013555555;28513555555
4316;28547321000;28013555555;28513555555
4317;28547322000;28013555555;28513555555
4318;28547323000;28013555555;28513555555
4319;28547324000;28013555555;28513555555
4320;28547325000;28013555555;28513555555
4321;28547326000;28013555555;28513555555
4322;28547614000;28013577777;28513577777
4323;28547630000;28013855555;28513855555
4324;28547631000;28013855555;28513855555
4325;28547632000;28013855555;28513855555
4326;28584227000;28055222222;28555222222
4327;28584230000;28055222222;28555222222
4328;28584231000;28055222222;28555222222
4329;28584232000;28055222222;28555222222
4330;28584233000;28055222222;28555222222
4331;28584234000;28055222222;28555222222
4332;28584235000;28055222222;28555222222
4333;28584444000;28055244444;28555244444
4334;28584460000;28055500000;28555500000
4335;28584461000;28055500000;28555500000
4336;28584462000;28055500000;28555500000
4337;28615338000;28096900000;28596900000
4338;28615341000;28096900000;28596900000
4339;28615342000;28096900000;28596900000
4340;28615343000;28096900000;28596900000
4341;28615345000;28096900000;28596900000
4342;28615345000;28096900000;28596900000
4343;28615346000;28096900000;28596900000
4345;28618501000;28097244444;28597244444
4346;28618514000;28097244444;28597244444
4347;28618515000;28097244444;28597244444
4348;28659364000;28138555555;28638555555
4349;28659367000;28138555555;28638555555
4350;28659368000;28138555555;28638555555
4351;28659369000;28138555555;28638555555
4352;28659370000;28138555555;28638555555
4353;28659371000;28138555555;28638555555
4354;28659372000;28138555555;28638555555
4355;28659616000;28138566666;28638566666
4356;28659631000;28138855555;28638855555
4357;28659632000;28138855555;28638855555
4358;28659633000;28138855555;28638855555
4359;28698793000;28180222222;28680222222
4360;28698796000;28180222222;28680222222
4361;28698797000;28180222222;28680222222
4362;28698798000;28180222222;28680222222
4363;28698799000;28180222222;28680222222
4364;28698800000;28180222222;28680222222
4365;28698801000;28180222222;28680222222
4367;28699722000;28180511111;28680511111
4368;28699726000;28180511111;28680511111
4369;28699727000;28180511111;28680511111
4370;28741112000;28221888888;28721888888
4371;28741115000;28221888888;28721888888
4372;28741116000;28221888888;28721888888
4373;28741117000;28221888888;28721888888
4374;28741118000;28221888888;28721888888
4375;28741119000;28221888888;28721888888
4376;28741120000;28221888888;28721888888
4377;28741325000;28221900000;28721900000
4378;28741341000;28222211111;28722211111
4379;28741342000;28222211111;28722211111
4380;28741343000;28222211111;28722211111
4381;28782438000;28263544444;28763544444
4382;28782442000;28263544444;28763544444
4383;28782442000;28263544444;28763544444
4384;28782443000;28263544444;28763544444
4385;28782445000;28263544444;28763544444
4386;28782445000;28263544444;28763544444
4387;28782446000;28263544444;28763544444
4388;28782617000;28263566666;28763566666
4389;28782621000;28263855555;28763855555
4390;28782622000;28263855555;28763855555
4391;28782623000;28263855555;28763855555
4392;28823861000;28305222222;28805222222
4393;28823864000;28305222222;28805222222
4394;28823865000;28305222222;28805222222
4395;28823866000;28305222222;28805222222
4396;28823867000;28305222222;28805222222
4397;28823876000;28305222222;28805222222
4398;28823877000;28305222222;28805222222
4399;28824082000;28305233333;28805233333
4400;28824099000;28305588888;28805588888
4401;28824100000;28305588888;28805588888
4402;28824101000;28305588888;28805588888
4403;28865495000;28346922222;28846922222
4404;28865499000;28346922222;28846922222
4405;28865500000;28346922222;28846922222
4406;28865501000;28346922222;28846922222
4407;28865502000;28346922222;28846922222
4408;28865503000;28346922222;28846922222
4410;28866380000;28346944444;28846944444
4411;28866387000;28347244444;28847244444
4412;28866388000;28347244444;28847244444
4413;28866389000;28347244444;28847244444
4414;28907094000;28388544444;28888544444
4415;28907097000;28388544444;28888544444
4416;28907098000;28388544444;28888544444
4417;28907099000;28388544444;28888544444
4418;28907100000;28388544444;28888544444
4419;28907101000;28388544444;28888544444
4420;28907102000;28388544444;28888544444
4421;28907300000;28388566666;28888566666
4422;28907315000;28388844444;28888844444
4423;28907316000;28388844444;28888844444
4424;28907317000;28388844444;28888844444
4425;28948807000;28430233333;28930233333
4426;28948810000;28430233333;28930233333
4427;28948811000;28430233333;28930233333
4428;28948812000;28430233333;28930233333
4429;28948813000;28430233333;28930233333
4430;28948814000;28430233333;28930233333
4431;28948815000;28430233333;28930233333
4432;28949013000;28430244444;28930244444
4433;28949028000;28430522222;28930522222
4434;28949029000;28430522222;28930522222
4435;28949030000;28430522222;28930522222
4436;28990467000;28471888888;28971888888
4437;28990477000;28471888888;28971888888
4438;28990478000;28471888888;28971888888
4439;28990479000;28471888888;28971888888
4440;28990480000;28471888888;28971888888
4441;28990481000;28471888888;28971888888
4442;28990482000;28471888888;28971888888
4443;28990681000;28471900000;28971900000
4444;28990696000;28472211111;28972211111
4445;28990697000;28472211111;28972211111
4446;28990698000;28472211111;28972211111
4447;29032119000;28513555555;29013555555
4448;29032122000;28513555555;29013555555
4449;29032123000;28513555555;29013555555
4450;29032124000;28513555555;29013555555
4452;29032467000;28513555555;29013555555
4453;29032488000;28513555555;29013555555
4454;29032689000;28513566666;29013566666
4455;29032695000;28513855555;29013855555
4456;29032696000;28513855555;29013855555
4457;29032697000;28513855555;29013855555
4458;29073762000;28555222222;29055222222
4459;29073766000;28555222222;29055222222
4460;29073767000;28555222222;29055222222
4461;29073768000;28555222222;29055222222
4462;29073769000;28555222222;29055222222
4463;29073770000;28555222222;29055222222
4464;29073771000;28555222222;29055222222
4465;29073970000;28555233333;29055233333
4466;29073985000;28555500000;29055500000
4467;29073986000;28555500000;29055500000
4468;29073987000;28555500000;29055500000
4469;29115363000;28596900000;29096900000
4470;29115367000;28596900000;29096900000
4471;29115368000;28596900000;29096900000
4472;29115369000;28596900000;29096900000
4473;29115370000;28596900000;29096900000
4474;29115371000;28596900000;29096900000
4475;29115372000;28596900000;29096900000
4476;29115576000;28596933333;29096933333
4477;29115591000;28597244444;29097244444
4478;29115592000;28597244444;29097244444
4479;29115593000;28597244444;29097244444
4480;29156976000;28638555555;29138555555
4481;29156979000;28638555555;29138555555
4482;29156980000;28638555555;29138555555
4483;29156981000;28638555555;29138555555
4484;29156982000;28638555555;29138555555
4485;29156983000;28638555555;29138555555
4486;29156984000;28638555555;29138555555
4487;29157181000;28638566666;29138566666
4488;29157197000;28638833333;29138833333
4489;29157198000;28638833333;29138833333
4490;29157199000;28638833333;29138833333
4491;29198788000;28680222222;29180222222
4492;29198791000;28680222222;29180222222
4493;29198792000;28680222222;29180222222
4494;29198793000;28680222222;29180222222
4495;29198794000;28680222222;29180222222
4496;29198795000;28680222222;29180222222
4497;29198796000;28680222222;29180222222
4498;29198965000;28680233333;29180233333
4499;29198977000;28680500000;29180500000
4500;29198978000;28680500000;29180500000
4501;29198979000;28680500000;29180500000
4502;29240419000;28721911111;29221911111
4503;29240422000;28721911111;29221911111
4504;29240423000;28721911111;29221911111
4505;29240424000;28721911111;29221911111
4506;29240425000;28721911111;29221911111
4507;29240426000;28721911111;29221911111
4508;29240427000;28721911111;29221911111
4509;29240631000;28721944444;29221944444
4510;29240646000;28722244444;29222244444
4511;29240647000;28722244444;29222244444
4512;29240648000;28722244444;29222244444
4513;29282120000;28763555555;29263555555
4514;29282123000;28763555555;29263555555
4515;29282124000;28763555555;29263555555
4516;29282125000;28763555555;29263555555
4517;29282126000;28763555555;29263555555
4518;29282127000;28763555555;29263555555
4519;29282128000;28763555555;29263555555
4520;29282319000;28763577777;29263577777
4521;29282323000;28763822222;29263822222
4522;29282324000;28763822222;29263822222
4523;29282325000;28763822222;29263822222
4524;29323710000;28805222222;29305222222
4526;29324068000;28805222222;29305222222
4527;29324069000;28805222222;29305222222
4528;29324070000;28805222222;29305222222
4529;29324070000;28805222222;29305222222
4530;29324071000;28805222222;29305222222
4531;29324289000;28805233333;29305233333
4532;29324304000;28805488888;29305488888
4533;29324305000;28805488888;29305488888
4534;29324306000;28805488888;29305488888
4535;29365449000;28846888888;29346888888
4536;29365453000;28846888888;29346888888
4537;29365454000;28846888888;29346888888
4538;29365455000;28846888888;29346888888
4539;29365456000;28846888888;29346888888
4540;29365457000;28846888888;29346888888
4541;29365457000;28846888888;29346888888
4542;29365679000;28846900000;29346900000
4543;29365694000;28847177777;29347177777
4544;29365696000;28847177777;29347177777
4545;29365697000;28847177777;29347177777
4546;29406960000;28888555555;29388555555
4547;29406963000;28888555555;29388555555
4548;29406964000;28888555555;29388555555
4549;29406965000;28888555555;29388555555
4550;29406966000;28888555555;29388555555
4551;29406967000;28888555555;29388555555
4552;29406968000;28888555555;29388555555
4553;29407137000;28888566666;29388566666
4554;29407141000;28888833333;29388833333
4555;29407143000;28888833333;29388833333
4556;29407144000;28888833333;29388833333
4557;29448822000;28930222222;29430222222
4558;29448825000;28930222222;29430222222
4560;29448827000;28930222222;29430222222
4562;29448838000;28930222222;29430222222
4563;29448839000;28930222222;29430222222
4564;29449073000;28930233333;29430233333
4565;29449088000;28930511111;29430511111
4566;29449089000;28930511111;29430511111
4567;29449090000;28930511111;29430511111
4568;29490453000;28971888888;29471888888
4569;29490457000;28971888888;29471888888
4570;29490458000;28971888888;29471888888
4571;29490459000;28971888888;29471888888
4572;29490460000;28971888888;29471888888
4573;29490461000;28971888888;29471888888
4574;29490461000;28971888888;29471888888
4575;29490693000;28971900000;29471900000
4576;29490709000;28972188888;29472188888
4577;29490710000;28972188888;29472188888
4578;29490711000;28972188888;29472188888
4579;29532075000;29013566666;29513566666
4580;29532077000;29013566666;29513566666
4581;29532078000;29013566666;29513566666
4582;29532079000;29013566666;29513566666
4583;29532080000;29013566666;29513566666
4584;29532081000;29013566666;29513566666
4585;29532082000;29013566666;29513566666
4586;29532222000;29013577777;29513577777
4587;29532224000;29013833333;29513833333
4588;29532225000;29013833333;29513833333
4589;29532226000;29013833333;29513833333
4590;29573713000;29055211111;29555211111
4591;29573715000;29055211111;29555211111
4592;29573716000;29055211111;29555211111
4594;29574135000;29055211111;29555211111
4595;29574136000;29055211111;29555211111
4596;29574137000;29055211111;29555211111
4597;29574360000;29055233333;29555233333
4598;29574375000;29055488888;29555488888
4599;29574376000;29055488888;29555488888
4600;29574377000;29055488888;29555488888
4601;29615462000;29096888888;29596888888
4602;29615465000;29096888888;29596888888
4603;29615482000;29096888888;29596888888
4604;29615483000;29096888888;29596888888
4605;29615484000;29096888888;29596888888
4607;29615485000;29096888888;29596888888
4608;29615684000;29096911111;29596911111
4609;29615699000;29097177777;29597177777
4610;29615700000;29097177777;29597177777
4611;29615701000;29097177777;29597177777
4612;29657119000;29138555555;29638555555
4613;29657122000;29138555555;29638555555
4614;29657124000;29138555555;29638555555
4615;29657124000;29138555555;29638555555
4616;29657125000;29138555555;29638555555
4617;29657126000;29138555555;29638555555
4618;29657127000;29138555555;29638555555
4619;29976958000;29138566666;29638566666
4681;29976973000;29388555555;29888555555
4682;29976974000;29388555555;29888555555
4683;29976975000;29388555555;29888555555
4684;29976976000;29388555555;29888555555
4685;30092842000;29388577777;29888577777
4708;30092857000;29472266666;29972266666
4709;30092858000;29472266666;29972266666
4710;30092859000;29472266666;29972266666
4711;30126824000;29513555555;30013555555
4720;30126936000;29513844444;30013844444
4721;30126939000;29513844444;30013844444
4722;30148081000;29555222222;30055222222
4723;30148085000;29555222222;30055222222
4724;30148086000;29555222222;30055222222
4725;30148087000;29555222222;30055222222
4726;30148088000;29555222222;30055222222
4727;30148089000;29555222222;30055222222
4728;30148089000;29555222222;30055222222
4729;30148345000;29555233333;30055233333
4730;30148360000;29555488888;30055488888
4731;30148361000;29555488888;30055488888
4732;30148362000;29555488888;30055488888
4733;30165452000;29596888888;30096888888
4734;30165456000;29596888888;30096888888
4735;30165457000;29596888888;30096888888
4736;30165458000;29596888888;30096888888
4737;30165459000;29596888888;30096888888
4738;30165460000;29596888888;30096888888
4739;30165461000;29596888888;30096888888
4740;30165638000;29596911111;30096911111
4741;30165643000;29597188888;30097188888
4742;30165644000;29597188888;30097188888
4743;30165645000;29597188888;30097188888
4744;30187672000;29638544444;30138544444
4745;30187675000;29638544444;30138544444
4746;30187676000;29638544444;30138544444
4747;30187677000;29638544444;30138544444
4748;30187678000;29638544444;30138544444
4749;30187679000;29638544444;30138544444
4750;30187680000;29638544444;30138544444
4751;30187849000;29638566666;30138566666
4752;30187853000;29638855555;30138855555
4753;30187855000;29638855555;30138855555
4754;30187856000;29638855555;30138855555
4755;30222640000;29680222222;30180222222
4756;30222643000;29680222222;30180222222
4757;30222654000;29680222222;30180222222
4758;30222655000;29680222222;30180222222
4759;30222656000;29680222222;30180222222
4760;30222658000;29680222222;30180222222
4761;30222658000;29680222222;30180222222
4762;30222884000;29680233333;30180233333
4763;30222890000;29680522222;30180522222
4764;30222892000;29680522222;30180522222
4765;30222893000;29680522222;30180522222
4766;30257083000;29721888888;30221888888
4767;30257086000;29721888888;30221888888
4768;30257087000;29721888888;30221888888
4769;30257088000;29721888888;30221888888
4770;30257089000;29721888888;30221888888
4771;30257090000;29721888888;30221888888
4772;30257091000;29721888888;30221888888
4773;30257226000;29721900000;30221900000
4774;30257229000;29722211111;30222211111
4775;30257230000;29722211111;30222211111
4776;30257231000;29722211111;30222211111
4777;30297741000;29763555555;30263555555
4778;30297745000;29763555555;30263555555
4779;30297746000;29763555555;30263555555
4780;30297747000;29763555555;30263555555
4781;30297748000;29763555555;30263555555
4783;30297749000;29763555555;30263555555
4784;30297980000;29763566666;30263566666
4786;30297996000;29763877777;30263877777
4787;30297997000;29763877777;30263877777
4788;30338978000;29805222222;30305222222
4789;30338981000;29805222222;30305222222
4790;30338982000;29805222222;30305222222
4791;30338983000;29805222222;30305222222
4792;30338984000;29805222222;30305222222
4793;30338985000;29805222222;30305222222
4794;30338986000;29805222222;30305222222
4795;30339183000;29805233333;30305233333
4796;30339198000;29805511111;30305511111
4797;30339207000;29805511111;30305511111
4798;30339208000;29805511111;30305511111
4799;30380362000;29846888888;30346888888
4800;30380365000;29846888888;30346888888
4801;30380366000;29846888888;30346888888
4802;30380367000;29846888888;30346888888
4803;30380368000;29846888888;30346888888
4804;30380369000;29846888888;30346888888
4806;30380575000;29846900000;30346900000
4807;30380590000;29847200000;30347200000
4808;30380591000;29847200000;30347200000
4809;30380592000;29847200000;30347200000
4810;30421678000;29888566666;30388566666
4811;30421681000;29888566666;30388566666
4812;30421682000;29888566666;30388566666
4813;30421683000;29888566666;30388566666
4814;30421684000;29888566666;30388566666
4815;30421685000;29888566666;30388566666
4816;30421686000;29888566666;30388566666
4817;30421882000;29888577777;30388577777
4818;30421898000;29888866666;30388866666
4819;30421899000;29888866666;30388866666
4820;30421900000;29888866666;30388866666
4821;30463284000;29930233333;30430233333
4822;30463287000;29930233333;30430233333
4823;30463288000;29930233333;30430233333
4824;30463289000;29930233333;30430233333
4825;30463290000;29930233333;30430233333
4826;30463291000;29930233333;30430233333
4827;30463292000;29930233333;30430233333
4828;30463461000;29930244444;30430244444
4829;30463466000;29930533333;30430533333
4830;30463467000;29930533333;30430533333
4831;30463468000;29930533333;30430533333
4832;30505050000;29971888888;30471888888
4833;30505054000;29971888888;30471888888
4834;30505055000;29971888888;30471888888
4835;30505056000;29971888888;30471888888
4836;30505057000;29971888888;30471888888
4838;30505058000;29971888888;30471888888
4839;30505269000;29971900000;30471900000
4840;30505273000;29972211111;30472211111
4841;30505274000;29972211111;30472211111
4842;30505275000;29972211111;30472211111
4843;30546765000;30013555555;30513555555
4844;30546768000;30013555555;30513555555
4845;30546769000;30013555555;30513555555
4846;30546770000;30013555555;30513555555
4847;30546771000;30013555555;30513555555
4848;30546772000;30013555555;30513555555
4849;30546773000;30013555555;30513555555
4850;30546972000;30013566666;30513566666
4851;30546987000;30013855555;30513855555
4852;30546988000;30013855555;30513855555
4853;30546989000;30013855555;30513855555
4854;30588378000;30055255555;30555255555
4855;30588381000;30055255555;30555255555
4856;30588381000;30055255555;30555255555
4857;30588382000;30055255555;30555255555
4858;30588383000;30055255555;30555255555
4859;30588384000;30055255555;30555255555
4861;30588682000;30055277777;30555277777
4862;30588698000;30055555555;30555555555
4863;30588699000;30055555555;30555555555
4864;30588700000;30055555555;30555555555
4865;30630092000;30096911111;30596911111
4866;30630096000;30096911111;30596911111
4867;30630097000;30096911111;30596911111
4868;30630107000;30096911111;30596911111
4869;30630108000;30096911111;30596911111
4870;30630109000;30096911111;30596911111
4871;30630110000;30096911111;30596911111
4872;30630337000;30096933333;30596933333
4873;30630352000;30097233333;30597233333
4874;30630353000;30097233333;30597233333
4875;30630354000;30097233333;30597233333
4878;30671594000;30138555555;30638555555
4880;30671597000;30138555555;30638555555
4881;30671598000;30138555555;30638555555
4882;30671599000;30138555555;30638555555
4883;30671797000;30138566666;30638566666
4884;30671812000;30138855555;30638855555
4885;30671813000;30138855555;30638855555
4886;30671814000;30138855555;30638855555
4887;30713357000;30180211111;30680211111
4889;30713829000;30180211111;30680211111
4891;30713831000;30180211111;30680211111
4892;30713832000;30180211111;30680211111
4893;30713833000;30180211111;30680211111
4894;30714055000;30180233333;30680233333
4896;30714060000;30180522222;30680522222
4897;30714061000;30180522222;30680522222
4898;30746722000;30221900000;30721900000
4899;30746726000;30221900000;30721900000
4900;30746727000;30221900000;30721900000
4901;30746728000;30221900000;30721900000
4902;30746729000;30221900000;30721900000
4903;30746730000;30221900000;30721900000
4904;30746731000;30221900000;30721900000
4905;30827709000;30221922222;30721922222
4909;30827724000;30263577777;30763577777
4910;30827726000;30263577777;30763577777
4911;30827727000;30263577777;30763577777
4912;30827728000;30263577777;30763577777
4913;30827728000;30263577777;30763577777
4914;30827729000;30263577777;30763577777
4915;30827730000;30263577777;30763577777
4916;30857891000;30263600000;30763600000
4922;30857906000;30305244444;30805244444
4923;30857907000;30305244444;30805244444
4924;30857908000;30305244444;30805244444
4925;30857909000;30305244444;30805244444
4926;30857910000;30305244444;30805244444
4927;30876188000;30305266666;30805266666
4931;30876203000;30346888888;30846888888
4932;30876204000;30346888888;30846888888
4933;30876205000;30346888888;30846888888
4934;30876206000;30346888888;30846888888
4935;30876207000;30346888888;30846888888
4936;30876208000;30346888888;30846888888
4937;30876209000;30346888888;30846888888
4938;31116498000;30346911111;30846911111
4991;31123980000;30555211111;31055211111
4992;31123983000;30555211111;31055211111
4993;31139970000;30555233333;31055233333
5000;31139986000;30596888888;31096888888
5001;31139987000;30596888888;31096888888
5002;31139988000;30596888888;31096888888
5003;31139989000;30596888888;31096888888
5004;31148945000;30596900000;31096900000
5007;31148960000;30597211111;31097211111
5008;31183271000;30638555555;31138555555
5017;31183382000;30638855555;31138855555
5018;31183386000;30638855555;31138855555
5019;31267878000;30680222222;31180222222
5036;31558776000;30721900000;31221900000
5105;31558890000;30972200000;31472200000
5106;31558905000;30972200000;31472200000
5107;31558930000;31013555555;31513555555
5108;31558931000;31013555555;31513555555
5109;31558943000;31013555555;31513555555
5110;31558944000;31013555555;31513555555
5111;31558945000;31013555555;31513555555
5112;31558946000;31013555555;31513555555
5113;31558948000;31013555555;31513555555
5114;31577455000;31013566666;31513566666
5120;31577459000;31055222222;31555222222
5121;31577460000;31055222222;31555222222
5122;31577461000;31055222222;31555222222
5123;31577462000;31055222222;31555222222
5124;31577463000;31055222222;31555222222
5125;31873710000;31055233333;31555233333
5192;31873725000;31305522222;31805522222
5193;31873726000;31305522222;31805522222
5194;31873727000;31305522222;31805522222
5195;32129867000;31346888888;31846888888
5254;32200194000;31555222222;32055222222
5270;32200305000;31597200000;32097200000
5271;32200309000;31597200000;32097200000
5272;32213139000;31638555555;32138555555
5285;32213274000;31680222222;32180222222
5288;32213278000;31680222222;32180222222
5289;32213279000;31680222222;32180222222
5290;32213422000;31680233333;32180233333
5291;32213440000;31680511111;32180511111
5293;32213442000;31680511111;32180511111
5294;32240631000;31721900000;32221900000
5295;32240634000;31721900000;32221900000
5296;32240636000;31721900000;32221900000
5297;32240636000;31721900000;32221900000
5298;32240638000;31721900000;32221900000
5299;32240638000;31721900000;32221900000
5300;32240639000;31721900000;32221900000
5301;32240847000;31721911111;32221911111
5302;32240862000;31722222222;32222222222
5303;32240863000;31722222222;32222222222
5304;32240864000;31722222222;32222222222
5305;32264185000;31763555555;32263555555
5306;32264189000;31763555555;32263555555
5307;32264190000;31763555555;32263555555
5308;32264191000;31763555555;32263555555
5310;32264192000;31763555555;32263555555
5311;32264193000;31763555555;32263555555
5312;32264392000;31763566666;32263566666
5313;32264407000;31763844444;32263844444
5314;32264408000;31763844444;32263844444
5315;32264409000;31763844444;32263844444
5316;32300708000;31805222222;32305222222
5317;32300711000;31805222222;32305222222
5318;32300712000;31805222222;32305222222
5319;32300713000;31805222222;32305222222
5320;32300714000;31805222222;32305222222
5321;32300715000;31805222222;32305222222
5322;32300716000;31805222222;32305222222
5323;32300914000;31805233333;32305233333
5324;32300929000;31805511111;32305511111
5325;32300931000;31805511111;32305511111
5326;32300931000;31805511111;32305511111
5327;32340040000;31846888888;32346888888
5328;32340052000;31846888888;32346888888
5329;32340053000;31846888888;32346888888
5330;32340054000;31846888888;32346888888
5331;32340055000;31846888888;32346888888
5332;32340056000;31846888888;32346888888
5333;32340057000;31846888888;32346888888
5334;32340192000;31846900000;32346900000
5335;32340195000;31847200000;32347200000
5336;32340196000;31847200000;32347200000
5337;32340197000;31847200000;32347200000
5338;32705308000;31888555555;32388555555
5404;32748688000;32138555555;32638555555
5405;32748691000;32138555555;32638555555
5406;32748692000;32138555555;32638555555
5407;32748693000;32138555555;32638555555
5408;32748694000;32138555555;32638555555
5409;32748695000;32138555555;32638555555
5410;32748696000;32138555555;32638555555
5411;32748934000;32138566666;32638566666
5412;32748949000;32138855555;32638855555
5413;32748950000;32138855555;32638855555
5414;32748951000;32138855555;32638855555
5415;32752490000;32180222222;32680222222
5416;32752503000;32180222222;32680222222
5417;32752504000;32180222222;32680222222
5418;32752505000;32180222222;32680222222
5419;32752506000;32180222222;32680222222
5420;32752507000;32180222222;32680222222
5421;32752507000;32180222222;32680222222
5422;32752628000;32180244444;32680244444
5423;32752642000;32180555555;32680555555
5424;32752644000;32180555555;32680555555
5425;32752645000;32180555555;32680555555
5426;32765289000;32221888888;32721888888
5427;32765292000;32221888888;32721888888
5428;32765293000;32221888888;32721888888
5429;32765294000;32221888888;32721888888
5430;32765295000;32221888888;32721888888
5432;32766164000;32221888888;32721888888
5434;32766298000;32222211111;32722211111
5435;32766301000;32222211111;32722211111
5436;32766303000;32222211111;32722211111
5437;32800212000;32263555555;32763555555
5438;32800216000;32263555555;32763555555
5439;32800217000;32263555555;32763555555
5440;32800218000;32263555555;32763555555
5441;32800218000;32263555555;32763555555
5442;32800220000;32263555555;32763555555
5443;32800221000;32263555555;32763555555
5444;32800418000;32263577777;32763577777
5445;32800433000;32263866666;32763866666
5446;32800434000;32263866666;32763866666
5447;32800435000;32263866666;32763866666
5448;32828934000;32305233333;32805233333
5449;32828937000;32305233333;32805233333
5450;32828938000;32305233333;32805233333
5451;32828939000;32305233333;32805233333
5452;32828940000;32305233333;32805233333
5453;32828941000;32305233333;32805233333
5455;32829213000;32305244444;32805244444
5456;32829217000;32305555555;32805555555
5457;32829218000;32305555555;32805555555
5459;33190667000;32346900000;32846900000
5460;33190670000;32346900000;32846900000
5461;33190671000;32346900000;32846900000
5462;33190672000;32346900000;32846900000
5463;33190673000;32346900000;32846900000
5464;33190674000;32346900000;32846900000
5465;33190675000;32346900000;32846900000
5466;33190794000;32346911111;32846911111
5467;33190809000;32347200000;32847200000
5468;33190811000;32347200000;32847200000
5469;33190812000;32347200000;32847200000
5470;33198359000;32388555555;32888555555
5471;33198362000;32388555555;32888555555
5472;33198363000;32388555555;32888555555
5473;33198364000;32388555555;32888555555
5474;33198365000;32388555555;32888555555
5475;33198366000;32388555555;32888555555
5476;33198367000;32388555555;32888555555
5478;33198484000;32388844444;32888844444
5479;33198487000;32388844444;32888844444
5480;33198488000;32388844444;32888844444
5481;33214788000;32430222222;32930222222
5482;33214791000;32430222222;32930222222
5483;33214792000;32430222222;32930222222
5484;33214793000;32430222222;32930222222
5485;33214794000;32430222222;32930222222
5486;33214795000;32430222222;32930222222
5487;33214797000;32430222222;32930222222
5490;33214906000;32430511111;32930511111
5491;33214909000;32430511111;32930511111
5492;33228878000;32471900000;32971900000
5495;33228881000;32471900000;32971900000
5496;33228883000;32471900000;32971900000
5497;33228884000;32471900000;32971900000
5498;33228885000;32471900000;32971900000
5499;33229084000;32471922222;32971922222
