seqnum;now;rtptime;deadline
0;12482233000;12141877777;12641877777
1;12482238000;12141877777;12641877777
2;12482240000;12141877777;12641877777
3;12513333000;12173166666;12673166666
4;12552140000;12173166666;12673166666
5;12552143000;12173166666;12673166666
6;12552164000;12173166666;12673166666
7;12552810000;12173166666;12673166666
8;12552817000;12173166666;12673166666
9;12552819000;12173166666;12673166666
10;12722879000;12173188888;12673188888
11;12722883000;12173577777;12673577777
12;12722885000;12173577777;12673577777
13;12722886000;12173577777;12673577777
14;12764306000;12214777777;12714777777
15;12792722000;12214777777;12714777777
16;12792738000;12214777777;12714777777
17;12793523000;12214777777;12714777777
18;12793526000;12214777777;12714777777
19;12793527000;12214777777;12714777777
20;12793528000;12214777777;12714777777
21;12963440000;12214800000;12714800000
22;12963455000;12215200000;12715200000
23;12963456000;12215200000;12715200000
24;12963457000;12215200000;12715200000
25;13004947000;12256466666;12756466666
26;13004951000;12256466666;12756466666
27;13004952000;12256466666;12756466666
28;13004953000;12256466666;12756466666
29;13033301000;12256466666;12756466666
30;13033304000;12256466666;12756466666
31;13033320000;12256466666;12756466666
34;13084065000;12256822222;12756822222
35;13084078000;12256822222;12756822222
36;13125257000;12298133333;12798133333
37;13125260000;12298133333;12798133333
38;13125261000;12298133333;12798133333
39;13125262000;12298133333;12798133333
40;13153597000;12298133333;12798133333
41;13153599000;12298133333;12798133333
42;13153608000;12298133333;12798133333
43;13204060000;12298155555;12798155555
44;13204066000;12298488888;12798488888
45;13204067000;12298488888;12798488888
46;13204068000;12298488888;12798488888
47;13245567000;12339800000;12839800000
48;13245570000;12339800000;12839800000
49;13245572000;12339800000;12839800000
50;13245573000;12339800000;12839800000
51;13245573000;12339800000;12839800000
52;13245574000;12339800000;12839800000
53;13245575000;12339800000;12839800000
54;13245747000;12339822222;12839822222
55;13273907000;12340133333;12840133333
56;13273925000;12340133333;12840133333
57;13273949000;12340133333;12840133333
58;13365758000;12381466666;12881466666
59;13365762000;12381466666;12881466666
60;13365763000;12381466666;12881466666
61;13365764000;12381466666;12881466666
62;13365765000;12381466666;12881466666
63;13365766000;12381466666;12881466666
64;13365767000;12381466666;12881466666
65;13365973000;12381477777;12881477777
66;13365988000;12381777777;12881777777
67;13365989000;12381777777;12881777777
68;13365990000;12381777777;12881777777
69;13406889000;12423133333;12923133333
79;13407002000;12423500000;12923500000
86;13515006000;12464800000;12964800000
92;13515032000;12506466666;13006466666
94;13515072000;12506466666;13006466666
98;13515167000;12506488888;13006488888
102;13515182000;12548133333;13048133333
103;13515184000;12548133333;13048133333
104;13515185000;12548133333;13048133333
105;13515186000;12548133333;13048133333
106;13515187000;12548133333;13048133333
107;13515188000;12548133333;13048133333
108;13515189000;12548133333;13048133333
109;13529173000;12548155555;13048155555
131;13605979000;12631488888;13131488888
132;13605985000;12631777777;13131777777
133;13605986000;12631777777;13131777777
134;13605987000;12631777777;13131777777
135;13642308000;12673155555;13173155555
156;13671818000;12715133333;13215133333
198;13885535000;12881755555;13381755555
346;14193338000;13464800000;13964800000
435;14236896000;13798122222;14298122222
441;14236913000;13798433333;14298433333
442;14236915000;13798433333;14298433333
443;14236920000;13839800000;14339800000
444;14236921000;13839800000;14339800000
445;14236923000;13839800000;14339800000
446;14236924000;13839800000;14339800000
447;14236926000;13839800000;14339800000
451;14236932000;13840100000;14340100000
452;14236934000;13840100000;14340100000
453;14236935000;13840100000;14340100000
454;14236940000;13881455555;14381455555
455;14236942000;13881455555;14381455555
456;14236943000;13881455555;14381455555
457;14236944000;13881455555;14381455555
458;14236960000;13881455555;14381455555
459;14236961000;13881455555;14381455555
460;14236962000;13881455555;14381455555
461;14237059000;13881477777;14381477777
462;14237075000;13881744444;14381744444
466;14237096000;13923122222;14423122222
467;14237098000;13923122222;14423122222
468;14237099000;13923122222;14423122222
469;14237100000;13923122222;14423122222
470;14237101000;13923122222;14423122222
471;14237102000;13923122222;14423122222
472;14453999000;13923144444;14423144444
476;14454015000;13964811111;14464811111
477;14454016000;13964811111;14464811111
478;14454017000;13964811111;14464811111
479;14454018000;13964811111;14464811111
480;14454019000;13964811111;14464811111
481;14454020000;13964811111;14464811111
482;14454021000;13964811111;14464811111
483;14471705000;13964822222;14464822222
484;14471722000;13965122222;14465122222
485;14471724000;13965122222;14465122222
486;14471726000;13965122222;14465122222
487;14562793000;14006455555;14506455555
488;14562798000;14006455555;14506455555
489;14562800000;14006455555;14506455555
490;14562802000;14006455555;14506455555
491;14562803000;14006455555;14506455555
492;14562804000;14006455555;14506455555
493;14562806000;14006455555;14506455555
494;14576329000;14006477777;14506477777
495;14576345000;14006755555;14506755555
496;14576346000;14006755555;14506755555
497;14576347000;14006755555;14506755555
498;14607273000;14048122222;14548122222
499;14607277000;14048122222;14548122222
500;14607278000;14048122222;14548122222
501;14607279000;14048122222;14548122222
502;14607280000;14048122222;14548122222
503;14607281000;14048122222;14548122222
504;14607282000;14048122222;14548122222
505;14648084000;14048144444;14548144444
506;14648100000;14048411111;14548411111
507;14648101000;14048411111;14548411111
508;14717922000;14048411111;14548411111
509;14768306000;14089811111;14589811111
510;14768310000;14089811111;14589811111
511;14768311000;14089811111;14589811111
512;14768312000;14089811111;14589811111
513;14768313000;14089811111;14589811111
514;14768314000;14089811111;14589811111
515;14838187000;14089811111;14589811111
516;14888671000;14089822222;14589822222
517;14888686000;14090122222;14590122222
518;14888688000;14090122222;14590122222
519;14888689000;14090122222;14590122222
520;14930131000;14131455555;14631455555
521;14930134000;14131455555;14631455555
522;14930135000;14131455555;14631455555
523;14958443000;14131455555;14631455555
524;14958446000;14131455555;14631455555
525;14958462000;14131455555;14631455555
526;14958477000;14131455555;14631455555
527;15008965000;14131477777;14631477777
528;15008980000;14131766666;14631766666
529;15008981000;14131766666;14631766666
530;15008982000;14131766666;14631766666
531;15129063000;14173122222;14673122222
532;15129066000;14173122222;14673122222
533;15129067000;14173122222;14673122222
534;15129068000;14173122222;14673122222
535;15129069000;14173122222;14673122222
536;15129070000;14173122222;14673122222
537;15129071000;14173122222;14673122222
538;15170683000;14173155555;14673155555
539;15199260000;14173477777;14673477777
540;15199262000;14173477777;14673477777
541;15199271000;14173477777;14673477777
542;15291124000;14214800000;14714800000
543;15291128000;14214800000;14714800000
544;15291129000;14214800000;14714800000
545;15291130000;14214800000;14714800000
546;15291131000;14214800000;14714800000
547;15291132000;14214800000;14714800000
548;15319723000;14214800000;14714800000
549;15370210000;14214822222;14714822222
550;15370225000;14215122222;14715122222
551;15370226000;14215122222;14715122222
552;15370227000;14215122222;14715122222
553;15411679000;14256455555;14756455555
554;15411683000;14256455555;14756455555
555;15411684000;14256455555;14756455555
556;15411685000;14256455555;14756455555
557;15440164000;14256455555;14756455555
558;15440166000;14256455555;14756455555
559;15440996000;14256455555;14756455555
560;15491212000;14256477777;14756477777
561;15491228000;14256777777;14756777777
562;15491229000;14256777777;14756777777
563;15491230000;14256777777;14756777777
564;15531816000;14298133333;14798133333
565;15531820000;14298133333;14798133333
566;15531821000;14298133333;14798133333
567;15560403000;14298133333;14798133333
568;15560415000;14298133333;14798133333
569;15560429000;14298133333;14798133333
570;15560436000;14298133333;14798133333
571;15610879000;14298166666;14798166666
572;15610894000;14298488888;14798488888
573;15610895000;14298488888;14798488888
574;15610896000;14298488888;14798488888
575;15652355000;14339800000;14839800000
576;15652359000;14339800000;14839800000
577;15680871000;14339800000;14839800000
578;15680874000;14339800000;14839800000
579;15680927000;14339800000;14839800000
580;15680930000;14339800000;14839800000
581;15680968000;14339800000;14839800000
582;15731311000;14339822222;14839822222
583;15731326000;14340111111;14840111111
584;15731327000;14340111111;14840111111
585;15731328000;14340111111;14840111111
586;15772811000;14381455555;14881455555
587;15801135000;14381455555;14881455555
588;15801142000;14381455555;14881455555
589;15801156000;14381455555;14881455555
590;15801171000;14381455555;14881455555
591;15801185000;14381455555;14881455555
592;15801199000;14381455555;14881455555
593;15851586000;14381477777;14881477777
594;15851601000;14381788888;14881788888
595;15851602000;14381788888;14881788888
596;15851603000;14381788888;14881788888
597;15893069000;14423133333;14923133333
598;15921391000;14423133333;14923133333
599;15921393000;14423133333;14923133333
600;15921446000;14423133333;14923133333
601;15921448000;14423133333;14923133333
602;15921475000;14423133333;14923133333
603;15921482000;14423133333;14923133333
604;15971881000;14423166666;14923166666
605;15971897000;14423466666;14923466666
606;15971898000;14423466666;14923466666
607;15971899000;14423466666;14923466666
608;16013351000;14464800000;14964800000
609;16042641000;14464800000;14964800000
610;16042643000;14464800000;14964800000
611;16042645000;14464800000;14964800000
612;16042646000;14464800000;14964800000
613;16042656000;14464800000;14964800000
614;16042657000;14464800000;14964800000
615;16092130000;14464822222;14964822222
616;16092146000;14465111111;14965111111
617;16092147000;14465111111;14965111111
619;16133853000;14506455555;15006455555
620;16162757000;14506455555;15006455555
621;16162759000;14506455555;15006455555
622;16162760000;14506455555;15006455555
623;16162761000;14506455555;15006455555
624;16162762000;14506455555;15006455555
625;16162763000;14506455555;15006455555
626;16212379000;14506477777;15006477777
627;16212394000;14506788888;15006788888
628;16212395000;14506788888;15006788888
629;16212396000;14506788888;15006788888
630;16253876000;14548133333;15048133333
631;16253879000;14548133333;15048133333
632;16253880000;14548133333;15048133333
633;16282211000;14548133333;15048133333
634;16282218000;14548133333;15048133333
635;16282233000;14548133333;15048133333
636;16282248000;14548133333;15048133333
637;16332674000;14548155555;15048155555
638;16332689000;14548411111;15048411111
639;16332690000;14548411111;15048411111
640;16332691000;14548411111;15048411111
641;16374137000;14589800000;15089800000
643;16374336000;14589800000;15089800000
644;16374339000;14589800000;15089800000
645;16374340000;14589800000;15089800000
646;16402469000;14589800000;15089800000
647;16402487000;14589800000;15089800000
648;16452894000;14589822222;15089822222
649;16452909000;14590155555;15090155555
650;16452910000;14590155555;15090155555
651;16452911000;14590155555;15090155555
652;16494418000;14631455555;15131455555
654;16494603000;14631455555;15131455555
655;16494606000;14631455555;15131455555
656;16494618000;14631455555;15131455555
657;16494619000;14631455555;15131455555
658;16494620000;14631455555;15131455555
659;16494820000;14631477777;15131477777
660;16522760000;14631766666;15131766666
661;16522763000;14631766666;15131766666
662;16522771000;14631766666;15131766666
663;16614685000;14673133333;15173133333
664;16614689000;14673133333;15173133333
665;16614690000;14673133333;15173133333
666;16614691000;14673133333;15173133333
667;16614692000;14673133333;15173133333
668;16614693000;14673133333;15173133333
669;16614693000;14673133333;15173133333
670;16614892000;14673166666;15173166666
671;16614908000;14673444444;15173444444
672;16614916000;14673444444;15173444444
673;16614917000;14673444444;15173444444
674;16657158000;14714800000;15214800000
675;16657161000;14714800000;15214800000
676;16657162000;14714800000;15214800000
677;16657163000;14714800000;15214800000
678;16657164000;14714800000;15214800000
679;16657165000;14714800000;15214800000
680;16657166000;14714800000;15214800000
681;16657365000;14714822222;15214822222
682;16657380000;14715122222;15215122222
683;16657381000;14715122222;15215122222
684;16657382000;14715122222;15215122222
685;16698725000;14756455555;15256455555
686;16698729000;14756455555;15256455555
687;16698730000;14756455555;15256455555
688;16698731000;14756455555;15256455555
689;16764565000;14756455555;15256455555
690;16764805000;14756455555;15256455555
691;16764954000;14756455555;15256455555
692;16777240000;14756477777;15256477777
693;16777255000;14756777777;15256777777
694;16777256000;14756777777;15256777777
695;16777258000;14756777777;15256777777
696;16818742000;14798133333;15298133333
697;16818746000;14798133333;15298133333
698;16818747000;14798133333;15298133333
699;16818748000;14798133333;15298133333
700;16818749000;14798133333;15298133333
701;16818750000;14798133333;15298133333
702;16818751000;14798133333;15298133333
703;16818949000;14798155555;15298155555
704;16883691000;14798466666;15298466666
705;16883693000;14798466666;15298466666
706;16883702000;14798466666;15298466666
707;16975538000;14839788888;15339788888
708;16975542000;14839788888;15339788888
709;16975543000;14839788888;15339788888
710;16975544000;14839788888;15339788888
711;16975545000;14839788888;15339788888
712;16975546000;14839788888;15339788888
713;16975547000;14839788888;15339788888
714;16975753000;14839811111;15339811111
715;16975768000;14840100000;15340100000
716;16975770000;14840100000;15340100000
717;16975771000;14840100000;15340100000
718;17016802000;14881455555;15381455555
719;17016806000;14881455555;15381455555
720;17016807000;14881455555;15381455555
721;17016808000;14881455555;15381455555
722;17016808000;14881455555;15381455555
723;17016809000;14881455555;15381455555
724;17016810000;14881455555;15381455555
725;17018116000;14881477777;15381477777
727;17018132000;14881755555;15381755555
728;17018133000;14881755555;15381755555
729;17059276000;14923133333;15423133333
730;17059280000;14923133333;15423133333
731;17059281000;14923133333;15423133333
732;17059282000;14923133333;15423133333
733;17059283000;14923133333;15423133333
734;17059284000;14923133333;15423133333
735;17059285000;14923133333;15423133333
736;17174684000;14923155555;15423155555
740;17174700000;14964788888;15464788888
741;17174701000;14964788888;15464788888
742;17174702000;14964788888;15464788888
743;17174703000;14964788888;15464788888
744;17174704000;14964788888;15464788888
745;17174705000;14964788888;15464788888
746;17174706000;14964788888;15464788888
747;17216257000;14964811111;15464811111
748;17216272000;14965122222;15465122222
749;17216273000;14965122222;15465122222
750;17216274000;14965122222;15465122222
751;17257690000;15006477777;15506477777
752;17257693000;15006477777;15506477777
753;17257694000;15006477777;15506477777
754;17257695000;15006477777;15506477777
755;17257696000;15006477777;15506477777
756;17257697000;15006477777;15506477777
757;17257698000;15006477777;15506477777
758;17258843000;15006500000;15506500000
761;17258858000;15006788888;15506788888
762;17300010000;15048133333;15548133333
763;17300014000;15048133333;15548133333
764;17300015000;15048133333;15548133333
765;17300016000;15048133333;15548133333
766;17300017000;15048133333;15548133333
767;17300018000;15048133333;15548133333
768;17300019000;15048133333;15548133333
769;17300235000;15048155555;15548155555
770;17364842000;15048422222;15548422222
771;17364845000;15048422222;15548422222
772;17364853000;15048422222;15548422222
773;17456745000;15089788888;15589788888
774;17456749000;15089788888;15589788888
775;17456750000;15089788888;15589788888
777;17456751000;15089788888;15589788888
778;17456752000;15089788888;15589788888
779;17456753000;15089788888;15589788888
780;17456959000;15089811111;15589811111
782;17456982000;15090122222;15590122222
783;17456983000;15090122222;15590122222
784;17497848000;15131455555;15631455555
785;17497851000;15131455555;15631455555
786;17497852000;15131455555;15631455555
787;17497854000;15131455555;15631455555
788;17497855000;15131455555;15631455555
789;17497856000;15131455555;15631455555
790;17497856000;15131455555;15631455555
791;17577155000;15131477777;15631477777
792;17577170000;15131788888;15631788888
793;17577172000;15131788888;15631788888
794;17577173000;15131788888;15631788888
795;17618730000;15173144444;15673144444
806;17659851000;15214800000;15714800000
807;17659855000;15214800000;15714800000
808;17659856000;15214800000;15714800000
809;17659857000;15214800000;15714800000
810;17659858000;15214800000;15714800000
811;17659859000;15214800000;15714800000
812;17659859000;15214800000;15714800000
813;17739039000;15214811111;15714811111
828;17739061000;15298133333;15798133333
829;17739063000;15298133333;15798133333
830;17739063000;15298133333;15798133333
831;17739064000;15298133333;15798133333
832;17739065000;15298133333;15798133333
833;17739066000;15298133333;15798133333
834;17739067000;15298133333;15798133333
835;17818389000;15298155555;15798155555
836;17818405000;15298444444;15798444444
837;17818406000;15298444444;15798444444
838;17818407000;15298444444;15798444444
839;17857039000;15339788888;15839788888
846;17857249000;15339800000;15839800000
847;17857264000;15340133333;15840133333
848;17857266000;15340133333;15840133333
849;17857267000;15340133333;15840133333
850;17980000000;15381466666;15881466666
868;18019337000;15423144444;15923144444
869;18019352000;15423466666;15923466666
870;18019353000;15423466666;15923466666
871;18019354000;15423466666;15923466666
872;18058846000;15464788888;15964788888
873;18058850000;15464788888;15964788888
875;18058951000;15464788888;15964788888
876;18058953000;15464788888;15964788888
877;18058955000;15464788888;15964788888
878;18058956000;15464788888;15964788888
879;18059171000;15464811111;15964811111
880;18059187000;15465166666;15965166666
881;18059188000;15465166666;15965166666
882;18059190000;15465166666;15965166666
883;18097680000;15506466666;16006466666
884;18097684000;15506466666;16006466666
885;18097684000;15506466666;16006466666
886;18097686000;15506466666;16006466666
887;18097686000;15506466666;16006466666
888;18097688000;15506466666;16006466666
889;18097689000;15506466666;16006466666
890;18220291000;15506488888;16006488888
905;18220306000;15589788888;16089788888
906;18220307000;15589788888;16089788888
907;18220308000;15589788888;16089788888
908;18220309000;15589788888;16089788888
909;18220310000;15589788888;16089788888
911;18299212000;15589788888;16089788888
913;18299332000;15590133333;16090133333
914;18299336000;15590133333;16090133333
918;18338638000;15631466666;16131466666
927;18374140000;15673133333;16173133333
928;18374143000;15673133333;16173133333
929;18374144000;15673133333;16173133333
930;18374145000;15673133333;16173133333
931;18374146000;15673133333;16173133333
932;18374147000;15673133333;16173133333
933;18374148000;15673133333;16173133333
934;18460526000;15673155555;16173155555
949;18460541000;15756455555;16256455555
950;18460542000;15756455555;16256455555
951;18460543000;15756455555;16256455555
952;18460544000;15756455555;16256455555
953;18460545000;15756455555;16256455555
954;18460546000;15756455555;16256455555
955;18460547000;15756455555;16256455555
956;18539944000;15756477777;16256477777
957;18539951000;15756788888;16256788888
958;18539961000;15756788888;16256788888
959;18539962000;15756788888;16256788888
960;18578277000;15798122222;16298122222
976;18700935000;15839788888;16339788888
999;18778838000;15923122222;16423122222
1000;18779063000;15923144444;16423144444
1001;18779069000;15923455555;16423455555
1003;18779070000;15923455555;16423455555
1004;18816557000;15964788888;16464788888
1023;18849904000;16006788888;16506788888
1024;18849908000;16006788888;16506788888
1025;18849909000;16006788888;16506788888
1026;18982975000;16048122222;16548122222
1047;19020285000;16090155555;16590155555
1048;19057961000;16131466666;16631466666
1070;19124292000;16214788888;16714788888
1071;19124304000;16214788888;16714788888
1072;19124305000;16214788888;16714788888
1073;19124306000;16214788888;16714788888
1074;19124307000;16214788888;16714788888
1078;19182185000;16215133333;16715133333
1097;19263033000;16298122222;16798122222
1098;19263037000;16298122222;16798122222
1099;19263205000;16298144444;16798144444
1100;19263212000;16298422222;16798422222
1101;19263213000;16298422222;16798422222
1102;19263214000;16298422222;16798422222
1103;19300603000;16339788888;16839788888
1123;19417885000;16381766666;16881766666
1150;19521415000;16506466666;17006466666
1151;19521419000;16506466666;17006466666
1152;19521420000;16506466666;17006466666
1153;19521421000;16506466666;17006466666
1154;19535796000;16506477777;17006477777
1177;19649876000;16590133333;17090133333
1180;19704584000;16631466666;17131466666
1204;19763842000;16714800000;17214800000
1207;19770144000;16714800000;17214800000
1209;19779695000;16714822222;17214822222
1233;19779700000;16798455555;17298455555
1234;19779701000;16798455555;17298455555
1235;19945246000;16839788888;17339788888
1261;20022896000;16923122222;17423122222
1295;20131067000;17048122222;17548122222
1301;20151671000;17089800000;17589800000
1322;20184397000;17131777777;17631777777
1327;20251314000;17173122222;17673122222
1333;20251332000;17173444444;17673444444
1334;20251343000;17214800000;17714800000
1337;20251344000;17214800000;17714800000
1339;20251346000;17214800000;17714800000
1340;20251347000;17214800000;17714800000
1341;20251430000;17214822222;17714822222
1344;20251438000;17215122222;17715122222
1345;20252778000;17256455555;17756455555
1357;20350718000;17298155555;17798155555
1358;20350722000;17298155555;17798155555
1359;20350723000;17298155555;17798155555
1360;20350724000;17298155555;17798155555
1361;20350725000;17298155555;17798155555
1362;20350726000;17298155555;17798155555
1363;20350932000;17298166666;17798166666
1364;20350947000;17298466666;17798466666
1365;20350949000;17298466666;17798466666
1366;20350950000;17298466666;17798466666
1367;20390375000;17339800000;17839800000
1384;20424747000;17381455555;17881455555
1391;20491824000;17423122222;17923122222
1903;20491870000;19340188888;19840188888
1905;20491884000;19340188888;19840188888
1906;20491888000;19381477777;19881477777
1907;20491889000;19381477777;19881477777
1908;20491890000;19381477777;19881477777
1909;20491892000;19381477777;19881477777
1910;20491893000;19381477777;19881477777
1911;20491899000;19381477777;19881477777
1912;20491902000;19381477777;19881477777
1913;20491988000;19381500000;19881500000
1917;20491997000;19423122222;19923122222
1918;20492008000;19423122222;19923122222
1919;20492009000;19423122222;19923122222
1920;20492010000;19423122222;19923122222
1921;20492011000;19423122222;19923122222
1922;20492012000;19423122222;19923122222
1923;20492013000;19423122222;19923122222
1924;20542195000;19423155555;19923155555
1928;20542211000;19464788888;19964788888
1929;20542212000;19464788888;19964788888
1930;20542213000;19464788888;19964788888
1931;20542214000;19464788888;19964788888
1932;20542215000;19464788888;19964788888
1934;20583815000;19464788888;19964788888
1935;20584024000;19464811111;19964811111
1937;20584039000;19465100000;19965100000
1938;20584040000;19465100000;19965100000
1939;20625012000;19506466666;20006466666
1952;20697577000;19548122222;20048122222
1965;20750154000;19589877777;20089877777
1989;20781154000;19673122222;20173122222
1996;20852604000;19714800000;20214800000
2002;20852626000;19715133333;20215133333
2004;20852627000;19715133333;20215133333
2005;20880713000;19756466666;20256466666
2023;20905839000;19798144444;20298144444
2031;20972777000;19839800000;20339800000
2033;20972779000;19839800000;20339800000
2034;20972985000;19839822222;20339822222
2043;20973002000;19881466666;20381466666
2044;20973005000;19881466666;20381466666
2045;20973173000;19881488888;20381488888
2049;20973189000;19923122222;20423122222
2052;20973242000;19923122222;20423122222
2053;20973244000;19923122222;20423122222
2056;21030984000;19923155555;20423155555
2058;21031003000;19923466666;20423466666
2068;21093225000;19965111111;20465111111
2074;21112041000;20006466666;20506466666
2094;21154810000;20089800000;20589800000
2106;21218506000;20131455555;20631455555
2131;21308476000;20214811111;20714811111
2142;21333750000;20256455555;20756455555
2149;21335760000;20298122222;20798122222
2210;21585707000;20506477777;21006477777
2263;21585722000;20714800000;21214800000
2264;21585723000;20714800000;21214800000
2265;21651355000;20714822222;21214822222
2266;21651371000;20715133333;21215133333
2267;21651372000;20715133333;21215133333
2268;21651373000;20715133333;21215133333
2271;21658115000;20756466666;21256466666
2272;21658118000;20756466666;21256466666
2273;21658119000;20756466666;21256466666
2274;21658120000;20756466666;21256466666
2275;21658121000;20756466666;21256466666
2276;21658245000;20756488888;21256488888
2277;21658260000;20756822222;21256822222
2278;21658261000;20756822222;21256822222
2279;21658262000;20756822222;21256822222
2280;21662623000;20798133333;21298133333
2281;21662626000;20798133333;21298133333
2282;21662627000;20798133333;21298133333
2283;21662628000;20798133333;21298133333
2284;21662629000;20798133333;21298133333
2285;21662630000;20798133333;21298133333
2286;21662631000;20798133333;21298133333
2287;21662802000;20798177777;21298177777
2288;21662806000;20798488888;21298488888
2289;21662807000;20798488888;21298488888
2290;21662808000;20798488888;21298488888
2291;21672685000;20839800000;21339800000
2292;21672688000;20839800000;21339800000
2293;21672689000;20839800000;21339800000
2294;21672690000;20839800000;21339800000
2295;21672691000;20839800000;21339800000
2296;21672692000;20839800000;21339800000
2297;21672693000;20839800000;21339800000
2298;21672874000;20839822222;21339822222
2299;21672890000;20840122222;21340122222
2300;21672891000;20840122222;21340122222
2301;21672892000;20840122222;21340122222
2302;21688120000;20881455555;21381455555
2303;21688123000;20881455555;21381455555
2304;21688124000;20881455555;21381455555
2305;21688125000;20881455555;21381455555
2306;21688126000;20881455555;21381455555
2307;21688127000;20881455555;21381455555
2308;21688128000;20881455555;21381455555
2309;21688328000;20881477777;21381477777
2310;21688343000;20881788888;21381788888
2311;21688344000;20881788888;21381788888
2312;21688345000;20881788888;21381788888
2313;21702866000;20923144444;21423144444
2319;21702869000;20923144444;21423144444
2334;21834123000;20965133333;21465133333
2360;21884419000;21089800000;21589800000
2369;21964165000;21131455555;21631455555
2402;22031123000;21256455555;21756455555
2418;22055350000;21298133333;21798133333
2424;22068798000;21339788888;21839788888
2444;22131068000;21381788888;21881788888
2460;22233843000;21464788888;21964788888
2487;22233955000;21548422222;22048422222
2504;22345594000;21631455555;22131455555
2531;22350533000;21715155555;22215155555
2549;22416146000;21798133333;22298133333
2555;22417957000;21839788888;22339788888
2593;22594852000;21964788888;22464788888
2613;22631545000;22048133333;22548133333
2641;22702525000;22131755555;22631755555
2646;22702638000;22173133333;22673133333
2686;22872017000;22298455555;22798455555
2708;22926343000;22381755555;22881755555
2712;22978004000;22423122222;22923122222
2729;23017590000;22465100000;22965100000
2737;23077013000;22506466666;23006466666
2745;23077125000;22548122222;23048122222
2750;23137918000;22548422222;23048422222
2754;23137934000;22589800000;23089800000
2756;23137946000;22589800000;23089800000
2757;23137947000;22589800000;23089800000
2758;23137950000;22589800000;23089800000
2759;23137955000;22589800000;23089800000
2761;23137962000;22590111111;23090111111
2762;23137963000;22590111111;23090111111
2763;23137964000;22590111111;23090111111
2764;23167272000;22631466666;23131466666
2765;23167275000;22631466666;23131466666
2766;23167276000;22631466666;23131466666
2767;23167278000;22631466666;23131466666
2769;23167279000;22631466666;23131466666
2770;23167280000;22631466666;23131466666
2771;23167479000;22631488888;23131488888
2772;23167495000;22631755555;23131755555
2773;23167496000;22631755555;23131755555
2774;23167497000;22631755555;23131755555
2775;23188625000;22673122222;23173122222
2776;23188629000;22673122222;23173122222
2777;23188630000;22673122222;23173122222
2778;23188630000;22673122222;23173122222
2779;23188631000;22673122222;23173122222
2780;23188632000;22673122222;23173122222
2781;23188633000;22673122222;23173122222
2782;23188834000;22673155555;23173155555
2783;23188849000;22673444444;23173444444
2784;23257984000;22673444444;23173444444
2785;23257987000;22673444444;23173444444
2786;23349857000;22714788888;23214788888
2787;23349861000;22714788888;23214788888
2788;23349862000;22714788888;23214788888
2789;23349863000;22714788888;23214788888
2790;23349864000;22714788888;23214788888
2791;23349865000;22714788888;23214788888
2792;23349866000;22714788888;23214788888
2793;23349986000;22714811111;23214811111
2794;23349990000;22715111111;23215111111
2795;23349992000;22715111111;23215111111
2796;23349993000;22715111111;23215111111
2797;23391040000;22756466666;23256466666
2798;23391053000;22756466666;23256466666
2799;23391054000;22756466666;23256466666
2800;23391056000;22756466666;23256466666
2801;23391056000;22756466666;23256466666
2802;23391057000;22756466666;23256466666
2803;23391058000;22756466666;23256466666
2804;23391307000;22756488888;23256488888
2805;23391322000;22756766666;23256766666
2807;23391324000;22756766666;23256766666
2808;23432557000;22798122222;23298122222
2809;23432560000;22798122222;23298122222
2810;23432561000;22798122222;23298122222
2811;23498543000;22798122222;23298122222
2812;23498545000;22798122222;23298122222
2813;23498601000;22798122222;23298122222
2814;23498603000;22798122222;23298122222
2815;23512491000;22798144444;23298144444
2816;23512506000;22798433333;23298433333
2818;23512507000;22798433333;23298433333
2819;23553913000;22839788888;23339788888
2820;23553916000;22839788888;23339788888
2821;23553917000;22839788888;23339788888
2822;23553918000;22839788888;23339788888
2823;23553919000;22839788888;23339788888
2824;23553920000;22839788888;23339788888
2825;23618829000;22839788888;23339788888
2826;23669305000;22839822222;23339822222
2827;23669321000;22840166666;23340166666
2828;23669322000;22840166666;23340166666
2829;23669323000;22840166666;23340166666
2830;23710799000;22881466666;23381466666
2831;23710802000;22881466666;23381466666
2832;23710803000;22881466666;23381466666
2833;23710804000;22881466666;23381466666
2834;23710805000;22881466666;23381466666
2835;23710806000;22881466666;23381466666
2836;23710807000;22881466666;23381466666
2837;23711023000;22881488888;23381488888
2838;23711038000;22881744444;23381744444
2839;23711039000;22881744444;23381744444
2840;23711040000;22881744444;23381744444
2841;23752185000;22923122222;23423122222
2842;23752189000;22923122222;23423122222
2843;23752190000;22923122222;23423122222
2844;23752191000;22923122222;23423122222
2845;23752192000;22923122222;23423122222
2846;23752193000;22923122222;23423122222
2849;23752486000;22923422222;23423422222
2850;23752499000;22923422222;23423422222
2851;23752500000;22923422222;23423422222
2852;23793786000;22964800000;23464800000
2853;23793789000;22964800000;23464800000
2854;23793790000;22964800000;23464800000
2855;23793791000;22964800000;23464800000
2856;23793792000;22964800000;23464800000
2857;23859367000;22964800000;23464800000
2858;23859370000;22964800000;23464800000
2859;23873605000;22964822222;23464822222
2860;23873620000;22965111111;23465111111
2861;23873621000;22965111111;23465111111
2862;23873622000;22965111111;23465111111
2863;23915067000;23006466666;23506466666
2864;23915071000;23006466666;23506466666
2865;23915072000;23006466666;23506466666
2867;23915073000;23006466666;23506466666
2868;23915074000;23006466666;23506466666
2869;23915075000;23006466666;23506466666
2870;23915275000;23006488888;23506488888
2871;23915291000;23006800000;23506800000
2872;23915292000;23006800000;23506800000
2873;23915293000;23006800000;23506800000
2874;24029966000;23048122222;23548122222
2875;24029969000;23048122222;23548122222
2876;24029970000;23048122222;23548122222
2877;24029971000;23048122222;23548122222
2878;24029972000;23048122222;23548122222
2879;24029973000;23048122222;23548122222
2880;24029982000;23048122222;23548122222
2881;24030187000;23048155555;23548155555
2882;24030203000;23048433333;23548433333
2883;24030204000;23048433333;23548433333
2884;24030205000;23048433333;23548433333
2886;24071877000;23089800000;23589800000
2887;24071880000;23089800000;23589800000
2888;24071882000;23089800000;23589800000
2889;24071883000;23089800000;23589800000
2890;24071884000;23089800000;23589800000
2891;24099873000;23089800000;23589800000
2892;24114001000;23089822222;23589822222
2896;24114016000;23131466666;23631466666
2897;24114018000;23131466666;23631466666
2898;24114018000;23131466666;23631466666
2899;24114020000;23131466666;23631466666
2901;24155439000;23131466666;23631466666
2902;24155442000;23131466666;23631466666
2903;24155655000;23131488888;23631488888
2904;24155670000;23131744444;23631744444
2905;24155671000;23131744444;23631744444
2906;24155672000;23131744444;23631744444
2907;24196503000;23173122222;23673122222
2908;24221819000;23173122222;23673122222
2909;24221822000;23173122222;23673122222
2910;24221823000;23173122222;23673122222
2911;24221824000;23173122222;23673122222
2912;24222209000;23173122222;23673122222
2913;24222212000;23173122222;23673122222
2914;24270626000;23173144444;23673144444
2916;24270746000;23173411111;23673411111
2917;24270760000;23173411111;23673411111
2918;24312133000;23214800000;23714800000
2919;24312136000;23214800000;23714800000
2920;24312138000;23214800000;23714800000
2921;24312139000;23214800000;23714800000
2922;24312139000;23214800000;23714800000
2923;24312140000;23214800000;23714800000
2924;24312141000;23214800000;23714800000
2925;24312348000;23214822222;23714822222
2926;24340427000;23215122222;23715122222
2927;24340441000;23215122222;23715122222
2928;24340448000;23215122222;23715122222
2929;24432359000;23256466666;23756466666
2930;24432362000;23256466666;23756466666
2931;24432364000;23256466666;23756466666
2932;24432365000;23256466666;23756466666
2933;24432365000;23256466666;23756466666
2935;24432367000;23256466666;23756466666
2936;24432572000;23256488888;23756488888
2937;24432588000;23256733333;23756733333
2938;24432589000;23256733333;23756733333
2939;24432590000;23256733333;23756733333
2940;24473568000;23298122222;23798122222
2948;24475113000;23298400000;23798400000
2949;24475116000;23298400000;23798400000
2950;24475117000;23298400000;23798400000
2951;24516346000;23339788888;23839788888
2952;24516350000;23339788888;23839788888
2953;24516351000;23339788888;23839788888
2954;24516352000;23339788888;23839788888
2955;24516352000;23339788888;23839788888
2956;24516353000;23339788888;23839788888
2957;24516354000;23339788888;23839788888
2958;24516515000;23339811111;23839811111
2959;24516531000;23340100000;23840100000
2960;24516532000;23340100000;23840100000
2961;24516533000;23340100000;23840100000
2962;24556909000;23381455555;23881455555
2963;24580985000;23381455555;23881455555
2964;24580987000;23381455555;23881455555
2965;24581003000;23381455555;23881455555
2966;24581059000;23381455555;23881455555
2967;24581072000;23381455555;23881455555
2968;24581087000;23381455555;23881455555
2969;24631447000;23381477777;23881477777
2970;24631462000;23381744444;23881744444
2971;24631464000;23381744444;23881744444
2972;24631464000;23381744444;23881744444
2973;24672958000;23423144444;23923144444
2974;24672961000;23423144444;23923144444
2975;24672962000;23423144444;23923144444
2976;24672963000;23423144444;23923144444
2977;24672964000;23423144444;23923144444
2978;24672965000;23423144444;23923144444
2979;24672966000;23423144444;23923144444
2980;24673174000;23423166666;23923166666
2981;24673189000;23423444444;23923444444
2982;24673191000;23423444444;23923444444
2983;24701267000;23423444444;23923444444
2984;24793158000;23464800000;23964800000
2985;24793162000;23464800000;23964800000
2986;24793163000;23464800000;23964800000
2987;24793164000;23464800000;23964800000
2988;24793165000;23464800000;23964800000
2989;24793166000;23464800000;23964800000
2990;24793167000;23464800000;23964800000
2991;24793404000;23464822222;23964822222
2993;24793421000;23465100000;23965100000
2994;24793423000;23465100000;23965100000
2995;24834266000;23506455555;24006455555
3006;24875483000;23548122222;24048122222
3007;24875486000;23548122222;24048122222
3008;24875487000;23548122222;24048122222
3009;24875488000;23548122222;24048122222
3010;24875489000;23548122222;24048122222
3011;24875490000;23548122222;24048122222
3012;24875491000;23548122222;24048122222
3016;24875601000;23548388888;24048388888
3017;24916339000;23589800000;24089800000
3018;24916343000;23589800000;24089800000
3019;24916344000;23589800000;24089800000
3020;24916345000;23589800000;24089800000
3022;24916346000;23589800000;24089800000
3023;24916347000;23589800000;24089800000
3024;24992214000;23589822222;24089822222
3028;24992230000;23631466666;24131466666
3029;24992231000;23631466666;24131466666
3030;24992232000;23631466666;24131466666
3031;24992233000;23631466666;24131466666
3032;24992234000;23631466666;24131466666
3033;24992235000;23631466666;24131466666
3034;24992237000;23631466666;24131466666
3035;25033813000;23631488888;24131488888
3036;25033829000;23631755555;24131755555
3037;25033830000;23631755555;24131755555
3038;25033831000;23631755555;24131755555
3039;25075077000;23673122222;24173122222
3050;25195590000;23714800000;24214800000
3072;25275866000;23798122222;24298122222
3073;25275869000;23798122222;24298122222
3075;25275871000;23798122222;24298122222
3076;25275872000;23798122222;24298122222
3077;25275873000;23798122222;24298122222
3078;25275873000;23798122222;24298122222
3079;25276087000;23798155555;24298155555
3080;25276103000;23798433333;24298433333
3081;25276104000;23798433333;24298433333
3082;25276105000;23798433333;24298433333
3083;25313650000;23839800000;24339800000
3093;25395168000;23840088888;24340088888
3094;25436210000;23881455555;24381455555
3116;25516134000;23964800000;24464800000
3117;25516137000;23964800000;24464800000
3118;25516138000;23964800000;24464800000
3119;25516140000;23964800000;24464800000
3120;25516141000;23964800000;24464800000
3121;25516142000;23964800000;24464800000
3122;25516143000;23964800000;24464800000
3123;25516348000;23964822222;24464822222
3124;25516364000;23965111111;24465111111
3125;25516365000;23965111111;24465111111
3126;25516366000;23965111111;24465111111
3127;25554821000;24006455555;24506455555
3138;25676620000;24048133333;24548133333
3163;25756114000;24131455555;24631455555
3164;25756118000;24131455555;24631455555
3165;25756119000;24131455555;24631455555
3166;25756120000;24131455555;24631455555
3167;25756326000;24131477777;24631477777
3168;25756341000;24131777777;24631777777
3169;25756342000;24131777777;24631777777
3170;25756343000;24131777777;24631777777
3171;25794728000;24173133333;24673133333
3188;25917724000;24214800000;24714800000
3212;25996784000;24298422222;24798422222
3214;25996787000;24298422222;24798422222
3218;26033198000;24339800000;24839800000
3238;26101459000;24423133333;24923133333
3239;26101462000;24423133333;24923133333
3241;26101464000;24423133333;24923133333
3243;26101465000;24423133333;24923133333
3244;26101644000;24423155555;24923155555
3245;26101650000;24423433333;24923433333
3246;26101651000;24423433333;24923433333
3247;26101652000;24423433333;24923433333
3248;26133924000;24464788888;24964788888
3249;26133927000;24464788888;24964788888
3250;26133928000;24464788888;24964788888
3251;26133929000;24464788888;24964788888
3252;26133930000;24464788888;24964788888
3253;26133931000;24464788888;24964788888
3254;26133932000;24464788888;24964788888
3255;26134147000;24464811111;24964811111
3256;26134163000;24465122222;24965122222
3257;26134164000;24465122222;24965122222
3258;26134165000;24465122222;24965122222
3259;26164737000;24506455555;25006455555
3265;26164741000;24506455555;25006455555
3271;26264818000;24548133333;25048133333
3275;26264822000;24548133333;25048133333
3276;26264823000;24548133333;25048133333
3278;26264837000;24548411111;25048411111
3279;26264838000;24548411111;25048411111
3280;26264839000;24548411111;25048411111
3281;26264852000;24589788888;25089788888
3282;26264855000;24589788888;25089788888
3283;26264856000;24589788888;25089788888
3285;26264857000;24589788888;25089788888
3286;26264858000;24589788888;25089788888
3289;26280784000;24590100000;25090100000
3292;26319774000;24631455555;25131455555
3293;26319777000;24631455555;25131455555
3294;26319778000;24631455555;25131455555
3295;26319779000;24631455555;25131455555
3296;26319780000;24631455555;25131455555
3297;26319781000;24631455555;25131455555
3298;26319782000;24631455555;25131455555
3299;26322197000;24631477777;25131477777
3301;26322450000;24631755555;25131755555
3302;26322462000;24631755555;25131755555
3303;26363596000;24673133333;25173133333
3304;26363600000;24673133333;25173133333
3305;26363601000;24673133333;25173133333
3306;26363602000;24673133333;25173133333
3309;26363603000;24673133333;25173133333
3310;26363809000;24673155555;25173155555
3311;26363816000;24673433333;25173433333
3312;26363817000;24673433333;25173433333
3313;26363818000;24673433333;25173433333
3314;26403589000;24714788888;25214788888
3320;26403593000;24714788888;25214788888
3324;26505348000;24715133333;25215133333
3330;26505361000;24756466666;25256466666
3331;26505363000;24756466666;25256466666
3332;26505454000;24756488888;25256488888
3336;26505475000;24798133333;25298133333
3337;26505477000;24798133333;25298133333
3338;26505488000;24798133333;25298133333
3339;26505489000;24798133333;25298133333
3340;26505491000;24798133333;25298133333
3341;26505492000;24798133333;25298133333
3342;26505493000;24798133333;25298133333
3343;26505581000;24798155555;25298155555
3350;26505737000;24839788888;25339788888
3352;26505740000;24839788888;25339788888
3353;26505741000;24839788888;25339788888
3354;26597211000;24839811111;25339811111
3356;26597227000;24840100000;25340100000
3357;26597228000;24840100000;25340100000
3358;26638153000;24881455555;25381455555
3379;26678696000;24923433333;25423433333
3385;26745852000;24964788888;25464788888
3523;27159470000;25506466666;26006466666
3634;27173740000;25923122222;26423122222
3639;27226792000;25923122222;26423122222
3641;27226896000;25923433333;26423433333
3644;27231144000;25964788888;26464788888
3665;27280695000;26006777777;26506777777
3672;27347206000;26048133333;26548133333
3678;27347230000;26089800000;26589800000
3680;27347231000;26089800000;26589800000
3681;27347242000;26089800000;26589800000
3682;27347243000;26089800000;26589800000
3683;27347244000;26089800000;26589800000
3684;27347336000;26089822222;26589822222
3688;27347352000;26131466666;26631466666
3689;27347353000;26131466666;26631466666
3691;27347354000;26131466666;26631466666
3692;27347355000;26131466666;26631466666
3693;27347356000;26131466666;26631466666
3694;27347357000;26131466666;26631466666
3695;27405470000;26131488888;26631488888
3699;27405485000;26173122222;26673122222
3708;27467417000;26173444444;26673444444
3710;27486624000;26214811111;26714811111
3733;27528630000;26298122222;26798122222
3743;27592302000;26339800000;26839800000
3767;27752292000;26423122222;26923122222
3879;28112181000;26839800000;27339800000
3988;28208719000;27256455555;27756455555
4018;28253269000;27381455555;27881455555
4026;28309395000;27381777777;27881777777
4030;28338725000;27423144444;27923144444
4057;28363003000;27506455555;28006455555
4073;28429753000;27589788888;28089788888
4077;28429766000;27589788888;28089788888
4078;28429768000;27589788888;28089788888
4079;28429770000;27589788888;28089788888
4080;28429857000;27589811111;28089811111
4084;28429864000;27631455555;28131455555
4086;28429866000;27631455555;28131455555
4087;28429868000;27631455555;28131455555
4088;28429878000;27631455555;28131455555
4089;28429880000;27631455555;28131455555
4090;28429882000;27631455555;28131455555
4091;28436029000;27631477777;28131477777
4098;28436033000;27673144444;28173144444
4111;28569390000;27714788888;28214788888
4139;28613680000;27839788888;28339788888
4155;28698910000;27881455555;28381455555
4181;28724425000;27965144444;28465144444
4196;28790587000;28048133333;28548133333
4205;28796704000;28089800000;28589800000
4223;28866870000;28131555555;28631555555
4240;28910686000;28214788888;28714788888
4241;28910689000;28214788888;28714788888
4242;28910691000;28214788888;28714788888
4243;28910693000;28214788888;28714788888
4244;28910695000;28214788888;28714788888
4246;28969594000;28215155555;28715155555
4285;29078159000;28381466666;28881466666
4310;29085734000;28464788888;28964788888
4330;29151420000;28548133333;29048133333
4337;29155990000;28589800000;29089800000
4355;29227623000;28631488888;29131488888
4374;29271515000;28714788888;29214788888
4376;29271519000;28714788888;29214788888
4377;29330471000;28714811111;29214811111
4395;29330486000;28798122222;29298122222
4420;29439004000;28881466666;29381466666
4428;29449682000;28923122222;29423122222
4465;29605763000;29048144444;29548144444
4484;29605770000;29131466666;29631466666
4485;29605771000;29131466666;29631466666
4486;29605772000;29131466666;29631466666
4487;29651121000;29131488888;29631488888
4494;29651125000;29173122222;29673122222
4512;29772691000;29215177777;29715177777
4516;29843948000;29256466666;29756466666
4520;29873086000;29256488888;29756488888
4524;29873093000;29298122222;29798122222
4525;29873098000;29298122222;29798122222
4526;29873104000;29298122222;29798122222
4528;29873106000;29298122222;29798122222
4529;29873116000;29298122222;29798122222
4530;29873117000;29298122222;29798122222
4531;29873243000;29298155555;29798155555
4533;29873249000;29298422222;29798422222
4534;29873250000;29298422222;29798422222
4535;29873262000;29339800000;29839800000
4536;29873263000;29339800000;29839800000
4538;29927717000;29339800000;29839800000
4539;29927719000;29339800000;29839800000
4540;29927720000;29339800000;29839800000
4541;29927720000;29339800000;29839800000
4542;29927922000;29339822222;29839822222
4543;29927937000;29340100000;29840100000
4544;29927939000;29340100000;29840100000
4545;29927940000;29340100000;29840100000
4546;29966675000;29381466666;29881466666
4549;29966678000;29381466666;29881466666
4550;29966679000;29381466666;29881466666
4551;29994072000;29381466666;29881466666
4552;29994076000;29381466666;29881466666
4553;30043654000;29381488888;29881488888
4554;30043670000;29381755555;29881755555
4555;30043671000;29381755555;29881755555
4556;30043672000;29381755555;29881755555
4557;30085157000;29423122222;29923122222
4558;30085160000;29423122222;29923122222
4559;30085161000;29423122222;29923122222
4560;30085162000;29423122222;29923122222
4561;30085163000;29423122222;29923122222
4562;30085164000;29423122222;29923122222
4563;30085165000;29423122222;29923122222
4564;30085372000;29423155555;29923155555
4565;30113583000;29423444444;29923444444
4566;30113586000;29423444444;29923444444
4567;30113587000;29423444444;29923444444
4568;30205476000;29464800000;29964800000
4569;30205480000;29464800000;29964800000
4570;30205481000;29464800000;29964800000
4571;30205482000;29464800000;29964800000
4572;30205483000;29464800000;29964800000
4573;30205484000;29464800000;29964800000
4574;30205485000;29464800000;29964800000
4575;30205703000;29464822222;29964822222
4576;30205719000;29465100000;29965100000
4577;30205721000;29465100000;29965100000
4578;30205722000;29465100000;29965100000
4579;30247934000;29506466666;30006466666
4580;30247937000;29506466666;30006466666
4581;30247938000;29506466666;30006466666
4582;30247939000;29506466666;30006466666
4583;30247940000;29506466666;30006466666
4584;30247941000;29506466666;30006466666
4585;30247942000;29506466666;30006466666
4586;30248166000;29506488888;30006488888
4587;30248181000;29506744444;30006744444
4588;30248183000;29506744444;30006744444
4589;30248184000;29506744444;30006744444
4590;30289425000;29548122222;30048122222
4591;30289429000;29548122222;30048122222
4592;30289430000;29548122222;30048122222
4593;30289431000;29548122222;30048122222
4594;30354114000;29548122222;30048122222
4595;30354117000;29548122222;30048122222
4596;30354122000;29548122222;30048122222
4597;30367647000;29548144444;30048144444
4598;30367663000;29548388888;30048388888
4599;30367664000;29548388888;30048388888
4600;30367665000;29548388888;30048388888
4601;30409624000;29589800000;30089800000
4602;30409627000;29589800000;30089800000
4604;30409629000;29589800000;30089800000
4605;30409629000;29589800000;30089800000
4606;30409630000;29589800000;30089800000
4607;30409632000;29589800000;30089800000
4608;30409831000;29589822222;30089822222
4609;30474421000;29590111111;30090111111
4610;30474424000;29590111111;30090111111
4611;30474430000;29590111111;30090111111
4612;30566336000;29631466666;30131466666
4613;30566340000;29631466666;30131466666
4614;30566341000;29631466666;30131466666
4616;30566342000;29631466666;30131466666
4617;30566343000;29631466666;30131466666
4618;30566344000;29631466666;30131466666
4619;30566543000;29631488888;30131488888
4620;30566558000;29631744444;30131744444
4621;30566559000;29631744444;30131744444
4622;30566560000;29631744444;30131744444
4623;30607551000;29673122222;30173122222
4624;30607554000;29673122222;30173122222
4625;30607555000;29673122222;30173122222
4626;30607556000;29673122222;30173122222
4627;30607557000;29673122222;30173122222
4628;30607558000;29673122222;30173122222
4629;30607559000;29673122222;30173122222
4630;30607758000;29673144444;30173144444
4631;30607774000;29673422222;30173422222
4632;30607775000;29673422222;30173422222
4634;30648566000;29714800000;30214800000
4635;30648569000;29714800000;30214800000
4637;30648570000;29714800000;30214800000
4638;30648571000;29714800000;30214800000
4639;30648571000;29714800000;30214800000
4640;30648573000;29714800000;30214800000
4641;30765557000;29714822222;30214822222
4645;30765573000;29756455555;30256455555
4646;30765574000;29756455555;30256455555
4647;30765575000;29756455555;30256455555
4648;30765576000;29756455555;30256455555
4649;30765577000;29756455555;30256455555
4650;30765578000;29756455555;30256455555
4651;30765579000;29756455555;30256455555
4652;30807142000;29756477777;30256477777
4653;30807147000;29756777777;30256777777
4654;30807148000;29756777777;30256777777
4655;30807149000;29756777777;30256777777
4656;30848524000;29798122222;30298122222
4657;30848527000;29798122222;30298122222
4658;30848528000;29798122222;30298122222
4659;30848529000;29798122222;30298122222
4660;30848530000;29798122222;30298122222
4661;30848531000;29798122222;30298122222
4662;30848532000;29798122222;30298122222
4663;30849486000;29798155555;30298155555
4664;30849502000;29798466666;30298466666
4665;30849503000;29798466666;30298466666
4666;30849504000;29798466666;30298466666
4667;30890656000;29839800000;30339800000
4668;30890659000;29839800000;30339800000
4669;30890660000;29839800000;30339800000
4670;30890662000;29839800000;30339800000
4671;30890663000;29839800000;30339800000
4672;30890663000;29839800000;30339800000
4673;30890664000;29839800000;30339800000
4674;30890863000;29839822222;30339822222
4675;30955852000;29840088888;30340088888
4676;30955860000;29840088888;30340088888
4677;30955867000;29840088888;30340088888
4678;31047779000;29881455555;30381455555
4679;31047784000;29881455555;30381455555
4680;31047785000;29881455555;30381455555
4681;31047786000;29881455555;30381455555
4682;31047787000;29881455555;30381455555
4683;31047788000;29881455555;30381455555
4686;31088952000;29881733333;30381733333
4689;31130099000;29923133333;30423133333
4690;31130109000;29923133333;30423133333
4691;31130111000;29923133333;30423133333
4692;31130121000;29923133333;30423133333
4693;31130123000;29923133333;30423133333
4694;31130124000;29923133333;30423133333
4695;31130126000;29923133333;30423133333
4696;31130351000;29923155555;30423155555
4697;31130367000;29923422222;30423422222
4698;31130369000;29923422222;30423422222
4699;31130370000;29923422222;30423422222
4700;31169268000;29964800000;30464800000
4702;31169382000;29964800000;30464800000
4703;31169384000;29964800000;30464800000
4704;31169385000;29964800000;30464800000
4705;31169387000;29964800000;30464800000
4706;31169388000;29964800000;30464800000
4707;31169569000;29964822222;30464822222
4708;31169585000;29965111111;30465111111
4709;31169587000;29965111111;30465111111
4710;31196783000;29965111111;30465111111
4711;31288702000;30006455555;30506455555
4712;31288706000;30006455555;30506455555
4713;31288707000;30006455555;30506455555
4714;31288708000;30006455555;30506455555
4715;31288709000;30006455555;30506455555
4716;31288710000;30006455555;30506455555
4717;31288711000;30006455555;30506455555
4718;31288918000;30006477777;30506477777
4719;31288934000;30006777777;30506777777
4720;31288944000;30006777777;30506777777
4721;31288944000;30006777777;30506777777
4722;31329802000;30048122222;30548122222
4733;31371071000;30089800000;30589800000
4734;31371083000;30089800000;30589800000
4735;31371084000;30089800000;30589800000
4736;31371086000;30089800000;30589800000
4737;31371086000;30089800000;30589800000
4738;31371087000;30089800000;30589800000
4741;31371198000;30090111111;30590111111
4742;31371201000;30090111111;30590111111
4743;31371202000;30090111111;30590111111
4744;31411855000;30131455555;30631455555
4745;31411859000;30131455555;30631455555
4746;31411860000;30131455555;30631455555
4747;31411861000;30131455555;30631455555
4748;31411861000;30131455555;30631455555
4749;31437425000;30131455555;30631455555
4750;31437622000;30131455555;30631455555
4751;31487879000;30131477777;30631477777
4754;31487883000;30131766666;30631766666
4755;31529361000;30173122222;30673122222
4756;31529365000;30173122222;30673122222
4759;31529526000;30173122222;30673122222
4760;31529527000;30173122222;30673122222
4761;31529528000;30173122222;30673122222
4762;31529743000;30173144444;30673144444
4763;31529759000;30173444444;30673444444
4764;31529760000;30173444444;30673444444
4765;31529761000;30173444444;30673444444
4766;31570752000;30214800000;30714800000
4773;31570963000;30214822222;30714822222
4774;31570968000;30215166666;30715166666
4775;31570969000;30215166666;30715166666
4776;31570970000;30215166666;30715166666
4777;31611967000;30256455555;30756455555
4778;31611971000;30256455555;30756455555
4779;31611972000;30256455555;30756455555
4780;31611973000;30256455555;30756455555
4781;31611974000;30256455555;30756455555
4782;31611975000;30256455555;30756455555
4783;31611976000;30256455555;30756455555
4784;31612176000;30256477777;30756477777
4785;31612191000;30256766666;30756766666
4786;31612192000;30256766666;30756766666
4787;31612193000;30256766666;30756766666
4788;31652463000;30298133333;30798133333
4789;31678439000;30298133333;30798133333
4790;31678449000;30298133333;30798133333
4791;31678479000;30298133333;30798133333
4792;31678495000;30298133333;30798133333
4793;31678511000;30298133333;30798133333
4794;31680716000;30298133333;30798133333
4798;31811693000;30298455555;30798455555
4810;31892726000;30381455555;30881455555
4811;31892729000;30381455555;30881455555
4812;31892730000;30381455555;30881455555
4813;31892731000;30381455555;30881455555
4814;31892732000;30381455555;30881455555
4815;31892733000;30381455555;30881455555
4816;31892734000;30381455555;30881455555
4817;31892942000;30381477777;30881477777
4818;31892958000;30381777777;30881777777
4819;31892959000;30381777777;30881777777
4820;31892960000;30381777777;30881777777
4821;31931295000;30423133333;30923133333
4837;31967908000;30464800000;30964800000
4838;31967911000;30464800000;30964800000
4840;31968022000;30465122222;30965122222
4841;31968025000;30465122222;30965122222
4842;31968026000;30465122222;30965122222
4843;32005715000;30506466666;31006466666
4844;32005719000;30506466666;31006466666
4845;32005720000;30506466666;31006466666
4846;32005721000;30506466666;31006466666
4847;32005721000;30506466666;31006466666
4848;32005722000;30506466666;31006466666
4849;32005723000;30506466666;31006466666
4851;32005838000;30506766666;31006766666
4852;32005841000;30506766666;31006766666
4853;32005842000;30506766666;31006766666
4854;32042429000;30548133333;31048133333
4860;32042432000;30548133333;31048133333
4861;32173376000;30548155555;31048155555
4882;32173391000;30631455555;31131455555
4883;32244794000;30631477777;31131477777
4888;32280642000;30673133333;31173133333
4891;32280645000;30673133333;31173133333
4892;32280647000;30673133333;31173133333
4894;32292644000;30673155555;31173155555
4907;32292660000;30715200000;31215200000
4908;32292661000;30715200000;31215200000
4909;32359312000;30756466666;31256466666
4910;32359315000;30756466666;31256466666
4911;32359316000;30756466666;31256466666
4912;32359317000;30756466666;31256466666
4913;32359318000;30756466666;31256466666
4914;32359319000;30756466666;31256466666
4915;32359320000;30756466666;31256466666
4916;32359560000;30756488888;31256488888
4917;32359584000;30756777777;31256777777
4920;32392095000;30798133333;31298133333
4921;32392099000;30798133333;31298133333
4922;32392100000;30798133333;31298133333
4923;32392101000;30798133333;31298133333
4924;32392102000;30798133333;31298133333
4925;32392102000;30798133333;31298133333
4926;32392103000;30798133333;31298133333
4927;32451333000;30798155555;31298155555
4931;32451348000;30839788888;31339788888
4932;32451349000;30839788888;31339788888
4933;32451350000;30839788888;31339788888
4936;32492995000;30839788888;31339788888
4937;32492997000;30839788888;31339788888
4938;32493213000;30839811111;31339811111
4939;32493229000;30840155555;31340155555
4940;32493230000;30840155555;31340155555
4941;32493231000;30840155555;31340155555
4942;32534186000;30881455555;31381455555
4958;32573932000;30923122222;31423122222
4959;32573935000;30923122222;31423122222
4960;32577347000;30923144444;31423144444
4961;32577362000;30923444444;31423444444
4962;32577363000;30923444444;31423444444
4964;32618206000;30964788888;31464788888
4965;32618210000;30964788888;31464788888
4966;32618211000;30964788888;31464788888
4967;32618212000;30964788888;31464788888
4968;32618213000;30964788888;31464788888
4969;32618214000;30964788888;31464788888
4970;32618215000;30964788888;31464788888
4971;32618399000;30964811111;31464811111
4972;32618415000;30965155555;31465155555
4973;32618416000;30965155555;31465155555
4974;32618417000;30965155555;31465155555
4975;32657603000;31006477777;31506477777
4986;32761759000;31048133333;31548133333
4995;32761780000;31048455555;31548455555
4996;32761782000;31048455555;31548455555
4997;32761798000;31089811111;31589811111
4998;32761800000;31089811111;31589811111
5000;32761806000;31089811111;31589811111
5001;32761808000;31089811111;31589811111
5002;32761810000;31089811111;31589811111
5003;32761812000;31089811111;31589811111
5004;32761933000;31089822222;31589822222
5007;32761943000;31090166666;31590166666
5008;32853517000;31131466666;31631466666
5011;32853520000;31131466666;31631466666
5014;32881946000;31131466666;31631466666
5015;32882217000;31131488888;31631488888
5022;32882232000;31173133333;31673133333
5023;32882233000;31173133333;31673133333
5024;32882234000;31173133333;31673133333
5025;32882235000;31173133333;31673133333
5028;32894825000;31173444444;31673444444
5040;32935066000;31215122222;31715122222
5045;33002421000;31256455555;31756455555
5173;33385865000;31756466666;32256466666
5278;33483468000;32131466666;32631466666
5284;33483495000;32173122222;32673122222
5287;33483498000;32173122222;32673122222
5288;33483500000;32173122222;32673122222
5290;33483623000;32173155555;32673155555
5295;33483639000;32214811111;32714811111
5296;33483641000;32214811111;32714811111
5297;33483646000;32214811111;32714811111
5301;33497642000;32214833333;32714833333
5308;33497657000;32256466666;32756466666
5313;33603769000;32256755555;32756755555
5322;33603794000;32298122222;32798122222
5324;33603808000;32298444444;32798444444
5326;33603811000;32298444444;32798444444
5327;33609618000;32339788888;32839788888
5339;33695256000;32381466666;32881466666
5344;33723970000;32381466666;32881466666
5345;33724209000;32381488888;32881488888
5361;33724216000;32464800000;32964800000
5364;33724219000;32464800000;32964800000
5365;33724221000;32464800000;32964800000
5366;33724232000;32464800000;32964800000
5367;33776615000;32464822222;32964822222
5371;33776619000;32506466666;33006466666
5377;33844269000;32506466666;33006466666
5378;33844499000;32506488888;33006488888
5389;33846561000;32548155555;33048155555
5408;33846576000;32631466666;33131466666
5409;33846578000;32631466666;33131466666
5410;33846579000;32631466666;33131466666
5411;33901994000;32631488888;33131488888
5413;33902010000;32631777777;33131777777
5414;33902011000;32631777777;33131777777
5415;33932900000;32673122222;33173122222
5416;33932903000;32673122222;33173122222
5417;33932904000;32673122222;33173122222
5418;33932905000;32673122222;33173122222
5419;33932906000;32673122222;33173122222
5420;33932907000;32673122222;33173122222
5421;33932908000;32673122222;33173122222
5422;33933114000;32673155555;33173155555
5423;33933138000;32673455555;33173455555
5424;33933139000;32673455555;33173455555
5425;33933140000;32673455555;33173455555
5426;33963360000;32714833333;33214833333
5427;33963364000;32714833333;33214833333
5428;33963365000;32714833333;33214833333
5429;33963366000;32714833333;33214833333
5430;33963367000;32714833333;33214833333
5431;33964557000;32714833333;33214833333
5432;33964573000;32714833333;33214833333
5433;34022874000;32714844444;33214844444
5436;34022889000;32715155555;33215155555
5437;34063970000;32756466666;33256466666
5438;34063974000;32756466666;33256466666
5439;34063975000;32756466666;33256466666
5440;34063976000;32756466666;33256466666
5441;34063977000;32756466666;33256466666
5442;34063978000;32756466666;33256466666
5444;34064385000;32756488888;33256488888
5446;34064401000;32756777777;33256777777
5447;34064402000;32756777777;33256777777
5448;34104140000;32798122222;33298122222
5449;34104144000;32798122222;33298122222
5450;34104145000;32798122222;33298122222
5451;34104146000;32798122222;33298122222
5452;34104147000;32798122222;33298122222
5453;34104148000;32798122222;33298122222
5454;34104149000;32798122222;33298122222
5455;34104348000;32798144444;33298144444
