seqnum;now;rtptime;deadline
1;16256174000;15815655555;16315655555
3;16287357000;15847033333;16347033333
4;16287373000;15847033333;16347033333
5;16287375000;15847033333;16347033333
6;16287377000;15847033333;16347033333
7;16287388000;15847033333;16347033333
9;16416391000;15847033333;16347033333
10;16416708000;15847044444;16347044444
11;16416724000;15847400000;16347400000
12;16416726000;15847400000;16347400000
13;16416727000;15847400000;16347400000
14;16458180000;15888688888;16388688888
15;16458184000;15888688888;16388688888
16;16458185000;15888688888;16388688888
18;16526408000;15888688888;16388688888
19;16526415000;15888688888;16388688888
20;16526433000;15888688888;16388688888
21;16577061000;15888700000;16388700000
22;16577067000;15889077777;16389077777
23;16577078000;15889077777;16389077777
24;16577079000;15889077777;16389077777
27;16737126000;15930355555;16430355555
28;16737139000;15930355555;16430355555
29;16737140000;15930355555;16430355555
31;16737141000;15930355555;16430355555
33;16737251000;15930700000;16430700000
34;16737254000;15930700000;16430700000
35;16737255000;15930700000;16430700000
36;16778687000;15972022222;16472022222
37;16847082000;15972022222;16472022222
39;16847100000;15972022222;16472022222
41;16847110000;15972022222;16472022222
43;16897649000;15972033333;16472033333
44;16897664000;15972377777;16472377777
45;16897665000;15972377777;16472377777
46;16897666000;15972377777;16472377777
47;16939160000;16013688888;16513688888
48;16939173000;16013688888;16513688888
49;17007374000;16013688888;16513688888
50;17007377000;16013688888;16513688888
51;17007379000;16013688888;16513688888
53;17007393000;16013688888;16513688888
54;17058040000;16013700000;16513700000
56;17058063000;16014011111;16514011111
57;17058064000;16014011111;16514011111
59;17099060000;16055355555;16555355555
60;17099072000;16055355555;16555355555
61;17099074000;16055355555;16555355555
62;17099075000;16055355555;16555355555
63;17167697000;16055355555;16555355555
66;17218151000;16055666666;16555666666
67;17218154000;16055666666;16555666666
68;17218155000;16055666666;16555666666
69;17259379000;16097022222;16597022222
70;17259382000;16097022222;16597022222
71;17259383000;16097022222;16597022222
72;17259384000;16097022222;16597022222
73;17259385000;16097022222;16597022222
74;17259387000;16097022222;16597022222
75;17259388000;16097022222;16597022222
76;17259598000;16097033333;16597033333
77;17259602000;16097377777;16597377777
78;17328077000;16097377777;16597377777
79;17328080000;16097377777;16597377777
80;17378495000;16138700000;16638700000
81;17378498000;16138700000;16638700000
82;17378499000;16138700000;16638700000
83;17378500000;16138700000;16638700000
84;17378501000;16138700000;16638700000
86;17378502000;16138700000;16638700000
87;17378718000;16138711111;16638711111
88;17378733000;16139022222;16639022222
89;17378734000;16139022222;16639022222
90;17378735000;16139022222;16639022222
91;17420104000;16180377777;16680377777
93;17420107000;16180377777;16680377777
94;17420108000;16180377777;16680377777
95;17488389000;16180377777;16680377777
96;17488392000;16180377777;16680377777
97;17488402000;16180377777;16680377777
98;17538877000;16180388888;16680388888
102;17538892000;16222022222;16722022222
103;17538893000;16222022222;16722022222
104;17538894000;16222022222;16722022222
105;17538895000;16222022222;16722022222
106;17538896000;16222022222;16722022222
107;17538897000;16222022222;16722022222
108;17538898000;16222022222;16722022222
110;17580630000;16222311111;16722311111
112;17580643000;16222311111;16722311111
113;17621866000;16263688888;16763688888
114;17621875000;16263688888;16763688888
115;17621877000;16263688888;16763688888
116;17621879000;16263688888;16763688888
117;17621881000;16263688888;16763688888
118;17621883000;16263688888;16763688888
119;17621885000;16263688888;16763688888
120;17622064000;16263711111;16763711111
121;17622068000;16264011111;16764011111
122;17622070000;16264011111;16764011111
125;17662726000;16305355555;16805355555
135;17703456000;16347022222;16847022222
136;17703474000;16347022222;16847022222
138;17703476000;16347022222;16847022222
139;17703503000;16347022222;16847022222
140;17703505000;16347022222;16847022222
141;17703506000;16347022222;16847022222
142;17703748000;16347033333;16847033333
143;17703766000;16347333333;16847333333
144;17703768000;16347333333;16847333333
146;17743237000;16388666666;16888666666
147;17743242000;16388666666;16888666666
148;17743244000;16388666666;16888666666
150;17743246000;16388666666;16888666666
153;17743360000;16388677777;16888677777
154;17743364000;16388988888;16888988888
155;17743366000;16388988888;16888988888
156;17743368000;16388988888;16888988888
159;17859387000;16430355555;16930355555
170;17901137000;16472022222;16972022222
172;17901141000;16472022222;16972022222
173;17901142000;16472022222;16972022222
174;17901144000;16472022222;16972022222
175;17901344000;16472033333;16972033333
176;17901359000;16472333333;16972333333
178;17942543000;16472333333;16972333333
181;17942656000;16513688888;17013688888
182;17942659000;16513688888;17013688888
183;17942660000;16513688888;17013688888
184;17942661000;16513688888;17013688888
185;17942662000;16513688888;17013688888
187;17942676000;16514000000;17014000000
192;17983023000;16555355555;17055355555
216;18061106000;16638688888;17138688888
217;18061110000;16638688888;17138688888
218;18061112000;16638688888;17138688888
219;18061319000;16638700000;17138700000
220;18061334000;16639022222;17139022222
221;18061335000;16639022222;17139022222
222;18061336000;16639022222;17139022222
223;18099670000;16680355555;17180355555
224;18099673000;16680355555;17180355555
225;18099674000;16680355555;17180355555
226;18099675000;16680355555;17180355555
227;18099676000;16680355555;17180355555
228;18099677000;16680355555;17180355555
229;18099678000;16680355555;17180355555
230;18099885000;16680366666;17180366666
231;18099901000;16680666666;17180666666
232;18099902000;16680666666;17180666666
233;18099903000;16680666666;17180666666
234;18135619000;16722022222;17222022222
259;18264008000;16805355555;17305355555
260;18264011000;16805355555;17305355555
264;18264238000;16805644444;17305644444
265;18264241000;16805644444;17305644444
266;18264242000;16805644444;17305644444
270;18304523000;16847000000;17347000000
311;18450673000;17013666666;17513666666
329;18477974000;17055388888;17555388888
364;18477984000;17180622222;17680622222
365;18477986000;17180622222;17680622222
366;18587114000;17222022222;17722022222
367;18587118000;17222022222;17722022222
368;18587120000;17222022222;17722022222
369;18587121000;17222022222;17722022222
370;18587122000;17222022222;17722022222
371;18587123000;17222022222;17722022222
372;18587125000;17222022222;17722022222
373;18587334000;17222033333;17722033333
374;18587350000;17222288888;17722288888
375;18587352000;17222288888;17722288888
376;18587353000;17222288888;17722288888
378;18605698000;17263688888;17763688888
379;18605702000;17263688888;17763688888
380;18605703000;17263688888;17763688888
381;18605705000;17263688888;17763688888
382;18605706000;17263688888;17763688888
383;18605708000;17263688888;17763688888
384;18605813000;17263711111;17763711111
385;18605828000;17264011111;17764011111
386;18605830000;17264011111;17764011111
387;18605832000;17264011111;17764011111
388;18612318000;17305355555;17805355555
420;18738474000;17389033333;17889033333
423;18785876000;17430355555;17930355555
491;18984165000;17680333333;18180333333
563;19055997000;17930644444;18430644444
564;19072788000;17972000000;18472000000
565;19072791000;17972000000;18472000000
566;19072792000;17972000000;18472000000
567;19072793000;17972000000;18472000000
568;19072794000;17972000000;18472000000
569;19072795000;17972000000;18472000000
570;19072796000;17972000000;18472000000
571;19073002000;17972011111;18472011111
572;19073017000;17972288888;18472288888
573;19073018000;17972288888;18472288888
574;19073019000;17972288888;18472288888
575;19081863000;18013688888;18513688888
576;19081867000;18013688888;18513688888
577;19081868000;18013688888;18513688888
578;19081868000;18013688888;18513688888
579;19081869000;18013688888;18513688888
580;19081870000;18013688888;18513688888
581;19081871000;18013688888;18513688888
582;19081974000;18013700000;18513700000
583;19081999000;18014000000;18514000000
584;19082000000;18014000000;18514000000
585;19082001000;18014000000;18514000000
588;19082012000;18055355555;18555355555
590;19082014000;18055355555;18555355555
591;19091588000;18055355555;18555355555
594;19142257000;18055655555;18555655555
647;19342480000;18263688888;18763688888
723;19467614000;18555366666;19055366666
803;19662420000;18847288888;19347288888
876;19784085000;19138655555;19638655555
954;19947621000;19430333333;19930333333
987;20053519000;19555355555;20055355555
990;20053532000;19555666666;20055666666
991;20053533000;19555666666;20055666666
992;20053534000;19555666666;20055666666
993;20053541000;19597022222;20097022222
994;20053542000;19597022222;20097022222
995;20053543000;19597022222;20097022222
996;20053545000;19597022222;20097022222
997;20053546000;19597022222;20097022222
998;20053547000;19597022222;20097022222
999;20053548000;19597022222;20097022222
1000;20053652000;19597033333;20097033333
1001;20053659000;19597333333;20097333333
1002;20053661000;19597333333;20097333333
1006;20102314000;19638688888;20138688888
1014;20102425000;19639011111;20139011111
1015;20159895000;19680366666;20180366666
1016;20159898000;19680366666;20180366666
1017;20159899000;19680366666;20180366666
1018;20159900000;19680366666;20180366666
1019;20159901000;19680366666;20180366666
1020;20159902000;19680366666;20180366666
1021;20159903000;19680366666;20180366666
1022;20160022000;19680377777;20180377777
1023;20160037000;19680666666;20180666666
1024;20160038000;19680666666;20180666666
1025;20160039000;19680666666;20180666666
1026;20160172000;19722022222;20222022222
1027;20160176000;19722022222;20222022222
1028;20160177000;19722022222;20222022222
1029;20214517000;19722022222;20222022222
1030;20214529000;19722022222;20222022222
1031;20214530000;19722022222;20222022222
1032;20214531000;19722022222;20222022222
1034;20214681000;19722333333;20222333333
1036;20263966000;19722333333;20222333333
1037;20305351000;19763688888;20263688888
1038;20305355000;19763688888;20263688888
1040;20305356000;19763688888;20263688888
1041;20305357000;19763688888;20263688888
1043;20305358000;19763688888;20263688888
1044;20306381000;19763711111;20263711111
1045;20373965000;19764066666;20264066666
1047;20424240000;19764066666;20264066666
1048;20465543000;19805355555;20305355555
1049;20465546000;19805355555;20305355555
1050;20465547000;19805355555;20305355555
1051;20465548000;19805355555;20305355555
1052;20465549000;19805355555;20305355555
1053;20465550000;19805355555;20305355555
1054;20465551000;19805355555;20305355555
1057;20465880000;19805644444;20305644444
1058;20534273000;19805644444;20305644444
1060;20585435000;19847022222;20347022222
1061;20585438000;19847022222;20347022222
1062;20585439000;19847022222;20347022222
1063;20585440000;19847022222;20347022222
1064;20585441000;19847022222;20347022222
1065;20585442000;19847022222;20347022222
1066;20585560000;19847044444;20347044444
1067;20585575000;19847322222;20347322222
1068;20585576000;19847322222;20347322222
1069;20585577000;19847322222;20347322222
1070;20626978000;19888688888;20388688888
1071;20694585000;19888688888;20388688888
1072;20695350000;19888688888;20388688888
1073;20695510000;19888688888;20388688888
1074;20695715000;19888688888;20388688888
1075;20695717000;19888688888;20388688888
1077;20745090000;19888700000;20388700000
1078;20745106000;19889000000;20389000000
1079;20745107000;19889000000;20389000000
1080;20745108000;19889000000;20389000000
1081;20786526000;19930333333;20430333333
1082;20786530000;19930333333;20430333333
1083;20786531000;19930333333;20430333333
1084;20854855000;19930333333;20430333333
1085;20855611000;19930333333;20430333333
1086;20855968000;19930333333;20430333333
1087;20856203000;19930333333;20430333333
1088;20906638000;19930344444;20430344444
1089;20906653000;19930611111;20430611111
1091;20906763000;19930611111;20430611111
1092;20948199000;19972022222;20472022222
1093;20948203000;19972022222;20472022222
1095;20948204000;19972022222;20472022222
1097;21015194000;19972022222;20472022222
1098;21015922000;19972022222;20472022222
1100;21066828000;19972311111;20472311111
1101;21066832000;19972311111;20472311111
1102;21066833000;19972311111;20472311111
1103;21108141000;20013700000;20513700000
1104;21108144000;20013700000;20513700000
1105;21108145000;20013700000;20513700000
1107;21108146000;20013700000;20513700000
1108;21108147000;20013700000;20513700000
1109;21175505000;20013700000;20513700000
1110;21226069000;20013711111;20513711111
1111;21226075000;20014000000;20514000000
1112;21226076000;20014000000;20514000000
1113;21226077000;20014000000;20514000000
1114;21267572000;20055355555;20555355555
1115;21267575000;20055355555;20555355555
1116;21267576000;20055355555;20555355555
1117;21267577000;20055355555;20555355555
1118;21267578000;20055355555;20555355555
1119;21267579000;20055355555;20555355555
1120;21267580000;20055355555;20555355555
1121;21267795000;20055377777;20555377777
1122;21335823000;20055655555;20555655555
1123;21336174000;20055655555;20555655555
1125;21427765000;20097022222;20597022222
1126;21427769000;20097022222;20597022222
1127;21427770000;20097022222;20597022222
1128;21427771000;20097022222;20597022222
1129;21427772000;20097022222;20597022222
1130;21427773000;20097022222;20597022222
1131;21427774000;20097022222;20597022222
1132;21427893000;20097044444;20597044444
1134;21427908000;20097333333;20597333333
1135;21496146000;20097333333;20597333333
1136;21547929000;20138688888;20638688888
1137;21547932000;20138688888;20638688888
1138;21547933000;20138688888;20638688888
1139;21547934000;20138688888;20638688888
1140;21547935000;20138688888;20638688888
1141;21547936000;20138688888;20638688888
1142;21547937000;20138688888;20638688888
1143;21706789000;20138700000;20638700000
1144;21706804000;20139000000;20639000000
1146;21706922000;20139000000;20639000000
1147;21748316000;20180355555;20680355555
1148;21748319000;20180355555;20680355555
1149;21748320000;20180355555;20680355555
1151;21748321000;20180355555;20680355555
1153;21816637000;20180355555;20680355555
1154;21868578000;20180377777;20680377777
1155;21868594000;20180644444;20680644444
1156;21868595000;20180644444;20680644444
1157;21868596000;20180644444;20680644444
1158;21910066000;20222022222;20722022222
1159;21910069000;20222022222;20722022222
1160;21910070000;20222022222;20722022222
1161;21910071000;20222022222;20722022222
1162;21910072000;20222022222;20722022222
1163;21976927000;20222022222;20722022222
1164;21977150000;20222022222;20722022222
1165;22028834000;20222033333;20722033333
1166;22028841000;20222288888;20722288888
1167;22028842000;20222288888;20722288888
1168;22028843000;20222288888;20722288888
1169;22070345000;20263688888;20763688888
1170;22070349000;20263688888;20763688888
1171;22070350000;20263688888;20763688888
1172;22070351000;20263688888;20763688888
1173;22070352000;20263688888;20763688888
1174;22070353000;20263688888;20763688888
1175;22137460000;20263688888;20763688888
1176;22188000000;20263700000;20763700000
1178;22188133000;20263988888;20763988888
1181;22229567000;20305355555;20805355555
1182;22229571000;20305355555;20805355555
1184;22229572000;20305355555;20805355555
1185;22229573000;20305355555;20805355555
1187;22229692000;20305377777;20805377777
1188;22229707000;20305655555;20805655555
1189;22297747000;20305655555;20805655555
1190;22298018000;20305655555;20805655555
1192;22349581000;20347022222;20847022222
1195;22349584000;20347022222;20847022222
1197;22349586000;20347022222;20847022222
1198;22349705000;20347033333;20847033333
1199;22349720000;20347322222;20847322222
1200;22349722000;20347322222;20847322222
1201;22349722000;20347322222;20847322222
1202;22391143000;20388688888;20888688888
1203;22458024000;20388688888;20888688888
1204;22458509000;20388688888;20888688888
1205;22459475000;20388688888;20888688888
1207;22459496000;20388688888;20888688888
1208;22459497000;20388688888;20888688888
1209;22509976000;20388700000;20888700000
1210;22509991000;20389000000;20889000000
1211;22509992000;20389000000;20889000000
1213;22551786000;20430355555;20930355555
1214;22551789000;20430355555;20930355555
1215;22551790000;20430355555;20930355555
1216;22551791000;20430355555;20930355555
1217;22618317000;20430355555;20930355555
1218;22618977000;20430355555;20930355555
1219;22619822000;20430355555;20930355555
1220;22670284000;20430366666;20930366666
1224;22711960000;20472022222;20972022222
1226;22711973000;20472022222;20972022222
1227;22711974000;20472022222;20972022222
1228;22711975000;20472022222;20972022222
1229;22711976000;20472022222;20972022222
1230;22711977000;20472022222;20972022222
1231;22828985000;20472033333;20972033333
1232;22829001000;20472333333;20972333333
1233;22829002000;20472333333;20972333333
1234;22829003000;20472333333;20972333333
1235;22870508000;20513688888;21013688888
1236;22870511000;20513688888;21013688888
1237;22870512000;20513688888;21013688888
1238;22870513000;20513688888;21013688888
1239;22870514000;20513688888;21013688888
1240;22870515000;20513688888;21013688888
1241;22870516000;20513688888;21013688888
1242;22870723000;20513700000;21013700000
1243;22870738000;20513988888;21013988888
1244;22870740000;20513988888;21013988888
1245;22938814000;20513988888;21013988888
1246;22990301000;20555355555;21055355555
1247;22990305000;20555355555;21055355555
1248;22990306000;20555355555;21055355555
1249;22990307000;20555355555;21055355555
1250;22990308000;20555355555;21055355555
1251;22990308000;20555355555;21055355555
1252;22990309000;20555355555;21055355555
1253;22990508000;20555366666;21055366666
1254;22990523000;20555633333;21055633333
1255;22990524000;20555633333;21055633333
1256;22990525000;20555633333;21055633333
1257;23031908000;20597022222;21097022222
1258;23031911000;20597022222;21097022222
1259;23031912000;20597022222;21097022222
1260;23031913000;20597022222;21097022222
1264;23153695000;20597044444;21097044444
1265;23153710000;20597333333;21097333333
1266;23153711000;20597333333;21097333333
1267;23153712000;20597333333;21097333333
1268;23195174000;20638688888;21138688888
1269;23195177000;20638688888;21138688888
1271;23195178000;20638688888;21138688888
1273;23195179000;20638688888;21138688888
1274;23195180000;20638688888;21138688888
1275;23195380000;20638700000;21138700000
1276;23195396000;20639011111;21139011111
1277;23195397000;20639011111;21139011111
1279;23313966000;20680355555;21180355555
1280;23313970000;20680355555;21180355555
1281;23313971000;20680355555;21180355555
1282;23313972000;20680355555;21180355555
1283;23313973000;20680355555;21180355555
1284;23313974000;20680355555;21180355555
1285;23313975000;20680355555;21180355555
1286;23314129000;20680366666;21180366666
1287;23314145000;20680655555;21180655555
1288;23314146000;20680655555;21180655555
1289;23314148000;20680655555;21180655555
1290;23355505000;20722022222;21222022222
1291;23355508000;20722022222;21222022222
1292;23355509000;20722022222;21222022222
1293;23355510000;20722022222;21222022222
1295;23423848000;20722022222;21222022222
1296;23423852000;20722022222;21222022222
1297;23474464000;20722033333;21222033333
1298;23474479000;20722333333;21222333333
1299;23474480000;20722333333;21222333333
1300;23474481000;20722333333;21222333333
1301;23515519000;20763688888;21263688888
1302;23515522000;20763688888;21263688888
1303;23515523000;20763688888;21263688888
1304;23515524000;20763688888;21263688888
1305;23515525000;20763688888;21263688888
1307;23516159000;20763688888;21263688888
1308;23516373000;20763700000;21263700000
1309;23516388000;20764011111;21264011111
1312;23634409000;20805355555;21305355555
1313;23634412000;20805355555;21305355555
1314;23634413000;20805355555;21305355555
1316;23634490000;20805355555;21305355555
1317;23634501000;20805355555;21305355555
1318;23634503000;20805355555;21305355555
1319;23634704000;20805377777;21305377777
1320;23634719000;20805655555;21305655555
1321;23634721000;20805655555;21305655555
1325;23717838000;20847033333;21347033333
1326;23717841000;20847033333;21347033333
1327;23717842000;20847033333;21347033333
1328;23744719000;20847033333;21347033333
1330;23795028000;20847055555;21347055555
1331;23795050000;20847344444;21347344444
1332;23795052000;20847344444;21347344444
1333;23795053000;20847344444;21347344444
1334;23836657000;20888688888;21388688888
1335;23836661000;20888688888;21388688888
1336;23836669000;20888688888;21388688888
1337;23836670000;20888688888;21388688888
1338;23836671000;20888688888;21388688888
1339;23836672000;20888688888;21388688888
1340;23836673000;20888688888;21388688888
1341;23836873000;20888700000;21388700000
1342;23836888000;20889011111;21389011111
1345;23878030000;20930355555;21430355555
1347;23904889000;20930355555;21430355555
1348;23904891000;20930355555;21430355555
1350;23904973000;20930355555;21430355555
1352;23955441000;20930366666;21430366666
1353;23955456000;20930644444;21430644444
1354;23955457000;20930644444;21430644444
1355;23955458000;20930644444;21430644444
1357;23996656000;20972022222;21472022222
1358;23996659000;20972022222;21472022222
1359;23996660000;20972022222;21472022222
1360;23996661000;20972022222;21472022222
1361;23996662000;20972022222;21472022222
1362;23996663000;20972022222;21472022222
1363;23996870000;20972044444;21472044444
1366;24066408000;20972322222;21472322222
1368;24156868000;21013688888;21513688888
1370;24156871000;21013688888;21513688888
1371;24156872000;21013688888;21513688888
1372;24156882000;21013688888;21513688888
1373;24156883000;21013688888;21513688888
1375;24156992000;21014011111;21514011111
1376;24156996000;21014011111;21514011111
1377;24156997000;21014011111;21514011111
1378;24198305000;21055333333;21555333333
1379;24198308000;21055333333;21555333333
1380;24198309000;21055333333;21555333333
1381;24198311000;21055333333;21555333333
1382;24198311000;21055333333;21555333333
1383;24225450000;21055333333;21555333333
1384;24225689000;21055333333;21555333333
1385;24275914000;21055344444;21555344444
1387;24275930000;21055644444;21555644444
1388;24275931000;21055644444;21555644444
1389;24317597000;21097011111;21597011111
1390;24317601000;21097011111;21597011111
1391;24317602000;21097011111;21597011111
1392;24317603000;21097011111;21597011111
1393;24317604000;21097011111;21597011111
1394;24317605000;21097011111;21597011111
1395;24317606000;21097011111;21597011111
1396;24317768000;21097022222;21597022222
1397;24317774000;21097333333;21597333333
1400;24359511000;21138688888;21638688888
1401;24359514000;21138688888;21638688888
1402;24385732000;21138688888;21638688888
1403;24385735000;21138688888;21638688888
1405;24385823000;21138688888;21638688888
1406;24385838000;21138688888;21638688888
1407;24436251000;21138700000;21638700000
1408;24436266000;21139000000;21639000000
1409;24436267000;21139000000;21639000000
1410;24436268000;21139000000;21639000000
1412;24478057000;21180333333;21680333333
1413;24478060000;21180333333;21680333333
1414;24478061000;21180333333;21680333333
1415;24478062000;21180333333;21680333333
1416;24478063000;21180333333;21680333333
1417;24478064000;21180333333;21680333333
1418;24478166000;21180344444;21680344444
1420;24478181000;21180622222;21680622222
1421;24546128000;21180622222;21680622222
1422;24596539000;21222022222;21722022222
1423;24596543000;21222022222;21722022222
1424;24596544000;21222022222;21722022222
1426;24596545000;21222022222;21722022222
1427;24596546000;21222022222;21722022222
1429;24596745000;21222044444;21722044444
1430;24596760000;21222300000;21722300000
1432;24596762000;21222300000;21722300000
1434;24638183000;21263688888;21763688888
1435;24638186000;21263688888;21763688888
1436;24638187000;21263688888;21763688888
1437;24638188000;21263688888;21763688888
1438;24638189000;21263688888;21763688888
1439;24638190000;21263688888;21763688888
1442;24756674000;21264011111;21764011111
1444;24798124000;21305355555;21805355555
1445;24798127000;21305355555;21805355555
1446;24798128000;21305355555;21805355555
1447;24798130000;21305355555;21805355555
1448;24798131000;21305355555;21805355555
1449;24798132000;21305355555;21805355555
1450;24798133000;21305355555;21805355555
1451;24798339000;21305366666;21805366666
1452;24798354000;21305655555;21805655555
1453;24798356000;21305655555;21805655555
1454;24798357000;21305655555;21805655555
1455;24839657000;21347022222;21847022222
1456;24839661000;21347022222;21847022222
1457;24839662000;21347022222;21847022222
1459;24866801000;21347022222;21847022222
1460;24866827000;21347022222;21847022222
1461;24867078000;21347022222;21847022222
1462;24917313000;21347044444;21847044444
1464;24917328000;21347322222;21847322222
1465;24917329000;21347322222;21847322222
1466;24958968000;21388688888;21888688888
1467;24958972000;21388688888;21888688888
1468;24958973000;21388688888;21888688888
1469;24958974000;21388688888;21888688888
1470;24958975000;21388688888;21888688888
1471;24958976000;21388688888;21888688888
1472;24958977000;21388688888;21888688888
1474;24959581000;21389022222;21889022222
1475;24959584000;21389022222;21889022222
1476;24959585000;21389022222;21889022222
1477;25000503000;21430355555;21930355555
1478;25000506000;21430355555;21930355555
1481;25027168000;21430355555;21930355555
1483;25027174000;21430355555;21930355555
1484;25077642000;21430377777;21930377777
1485;25077657000;21430666666;21930666666
1487;25077782000;21430666666;21930666666
1488;25119286000;21472022222;21972022222
1489;25119290000;21472022222;21972022222
1490;25119291000;21472022222;21972022222
1491;25119292000;21472022222;21972022222
1492;25119293000;21472022222;21972022222
1493;25119294000;21472022222;21972022222
1494;25119295000;21472022222;21972022222
1495;25119524000;21472033333;21972033333
1496;25119540000;21472344444;21972344444
1497;25119541000;21472344444;21972344444
1498;25119542000;21472344444;21972344444
1499;25237776000;21513688888;22013688888
1500;25237779000;21513688888;22013688888
1501;25237780000;21513688888;22013688888
1502;25237781000;21513688888;22013688888
1503;25237782000;21513688888;22013688888
1504;25237783000;21513688888;22013688888
1505;25237784000;21513688888;22013688888
1506;25237983000;21513700000;22013700000
1507;25237998000;21514000000;22014000000
1508;25238000000;21514000000;22014000000
1509;25238001000;21514000000;22014000000
1510;25279378000;21555355555;22055355555
1511;25279381000;21555355555;22055355555
1513;25279561000;21555355555;22055355555
1514;25279563000;21555355555;22055355555
1515;25279564000;21555355555;22055355555
1516;25279565000;21555355555;22055355555
1517;25279773000;21555366666;22055366666
1518;25279779000;21555644444;22055644444
1520;25347729000;21555644444;22055644444
1521;25398078000;21597022222;22097022222
1522;25398091000;21597022222;22097022222
1523;25398092000;21597022222;22097022222
1524;25398093000;21597022222;22097022222
1525;25398094000;21597022222;22097022222
1526;25398095000;21597022222;22097022222
1527;25398096000;21597022222;22097022222
1528;25398295000;21597033333;22097033333
1529;25398302000;21597333333;22097333333
1530;25398303000;21597333333;22097333333
1531;25398304000;21597333333;22097333333
1532;25439694000;21638700000;22138700000
1533;25439706000;21638700000;22138700000
1534;25439707000;21638700000;22138700000
1536;25439887000;21638700000;22138700000
1537;25439889000;21638700000;22138700000
1538;25439890000;21638700000;22138700000
1539;25440105000;21638711111;22138711111
1540;25508016000;21639044444;22139044444
1541;25508260000;21639044444;22139044444
1542;25508262000;21639044444;22139044444
1543;25599847000;21680355555;22180355555
1544;25599850000;21680355555;22180355555
1545;25599851000;21680355555;22180355555
1546;25599852000;21680355555;22180355555
1547;25599853000;21680355555;22180355555
1548;25599854000;21680355555;22180355555
1549;25599855000;21680355555;22180355555
1550;25600054000;21680366666;22180366666
1551;25600060000;21680666666;22180666666
1552;25600061000;21680666666;22180666666
1553;25600062000;21680666666;22180666666
1554;25641107000;21722022222;22222022222
1555;25641110000;21722022222;22222022222
1556;25641111000;21722022222;22222022222
1557;25641123000;21722022222;22222022222
1559;25641205000;21722022222;22222022222
1560;25641207000;21722022222;22222022222
1561;25718777000;21722033333;22222033333
1565;25760482000;21763700000;22263700000
1566;25760484000;21763700000;22263700000
1567;25760485000;21763700000;22263700000
1568;25760486000;21763700000;22263700000
1569;25760487000;21763700000;22263700000
1570;25760488000;21763700000;22263700000
1571;25760489000;21763700000;22263700000
1572;25760689000;21763711111;22263711111
1573;25760704000;21764033333;22264033333
1574;25760713000;21764033333;22264033333
1576;25801829000;21805355555;22305355555
1578;25801833000;21805355555;22305355555
1579;25801834000;21805355555;22305355555
1580;25801835000;21805355555;22305355555
1581;25801835000;21805355555;22305355555
1582;25801836000;21805355555;22305355555
1583;25879080000;21805377777;22305377777
1587;25879096000;21847022222;22347022222
1588;25879097000;21847022222;22347022222
1589;25879098000;21847022222;22347022222
1590;25879099000;21847022222;22347022222
1591;25879099000;21847022222;22347022222
1592;25879100000;21847022222;22347022222
1593;25879101000;21847022222;22347022222
1594;25920651000;21847033333;22347033333
1595;25920666000;21847344444;22347344444
1596;25920667000;21847344444;22347344444
1597;25920668000;21847344444;22347344444
1598;25962022000;21888688888;22388688888
1600;25962407000;21888688888;22388688888
1601;25962409000;21888688888;22388688888
1602;25962410000;21888688888;22388688888
1603;25962411000;21888688888;22388688888
1604;25962412000;21888688888;22388688888
1607;26039247000;21889033333;22389033333
1612;26080596000;21930355555;22430355555
1613;26080600000;21930355555;22430355555
1614;26080601000;21930355555;22430355555
1615;26080602000;21930355555;22430355555
1617;26080612000;21930655555;22430655555
1618;26080613000;21930655555;22430655555
1619;26080614000;21930655555;22430655555
1620;26122010000;21972022222;22472022222
1621;26122013000;21972022222;22472022222
1622;26122014000;21972022222;22472022222
1623;26122015000;21972022222;22472022222
1624;26122016000;21972022222;22472022222
1625;26122017000;21972022222;22472022222
1628;26199863000;21972333333;22472333333
1631;26241146000;22013666666;22513666666
1632;26241149000;22013666666;22513666666
1633;26241150000;22013666666;22513666666
1635;26241151000;22013666666;22513666666
1636;26241153000;22013666666;22513666666
1637;26241154000;22013666666;22513666666
1638;26241362000;22013677777;22513677777
1640;26241377000;22014000000;22514000000
1641;26241378000;22014000000;22514000000
1642;26282674000;22055355555;22555355555
1643;26282677000;22055355555;22555355555
1644;26282678000;22055355555;22555355555
1645;26282679000;22055355555;22555355555
1646;26282680000;22055355555;22555355555
1648;26309511000;22055355555;22555355555
1649;26359962000;22055366666;22555366666
1653;26401860000;22097033333;22597033333
1654;26401862000;22097033333;22597033333
1655;26401863000;22097033333;22597033333
1657;26401864000;22097033333;22597033333
1658;26401865000;22097033333;22597033333
1661;26401980000;22097355555;22597355555
1662;26401984000;22097355555;22597355555
1663;26401985000;22097355555;22597355555
1664;26443214000;22138700000;22638700000
1666;26443217000;22138700000;22638700000
1667;26443218000;22138700000;22638700000
1668;26443219000;22138700000;22638700000
1670;26469771000;22138700000;22638700000
1671;26520234000;22138711111;22638711111
1675;26520249000;22180366666;22680366666
1676;26520250000;22180366666;22680366666
1677;26520251000;22180366666;22680366666
1678;26520252000;22180366666;22680366666
1679;26520253000;22180366666;22680366666
1680;26520254000;22180366666;22680366666
1681;26520255000;22180366666;22680366666
1682;26562005000;22180377777;22680377777
1683;26562021000;22180677777;22680677777
1685;26562110000;22180677777;22680677777
1686;26603391000;22222022222;22722022222
1687;26603395000;22222022222;22722022222
1688;26603396000;22222022222;22722022222
1689;26603396000;22222022222;22722022222
1690;26603397000;22222022222;22722022222
1692;26630126000;22222022222;22722022222
1693;26680504000;22222033333;22722033333
1697;26680519000;22263688888;22763688888
1698;26680520000;22263688888;22763688888
1699;26680521000;22263688888;22763688888
1700;26680522000;22263688888;22763688888
1701;26680523000;22263688888;22763688888
1702;26680524000;22263688888;22763688888
1704;26722382000;22263700000;22763700000
1705;26722397000;22264011111;22764011111
1706;26722399000;22264011111;22764011111
1707;26722400000;22264011111;22764011111
1708;26763742000;22305355555;22805355555
1709;26763746000;22305355555;22805355555
1710;26763747000;22305355555;22805355555
1711;26763756000;22305355555;22805355555
1712;26763757000;22305355555;22805355555
1713;26763758000;22305355555;22805355555
1714;26790577000;22305355555;22805355555
1715;26840754000;22305377777;22805377777
1719;26840770000;22347022222;22847022222
1720;26840771000;22347022222;22847022222
1721;26840772000;22347022222;22847022222
1722;26840773000;22347022222;22847022222
1723;26840773000;22347022222;22847022222
1725;26882682000;22347022222;22847022222
1726;26882897000;22347033333;22847033333
1728;26882912000;22347344444;22847344444
1729;26882913000;22347344444;22847344444
1730;26924005000;22388688888;22888688888
1731;26924008000;22388688888;22888688888
1732;26924009000;22388688888;22888688888
1733;26924011000;22388688888;22888688888
1734;26924011000;22388688888;22888688888
1735;26924012000;22388688888;22888688888
1740;27001204000;22389033333;22889033333
1741;27042451000;22430355555;22930355555
1743;27042455000;22430355555;22930355555
1745;27042456000;22430355555;22930355555
1746;27042457000;22430355555;22930355555
1747;27042458000;22430355555;22930355555
1748;27042664000;22430366666;22930366666
1749;27042680000;22430677777;22930677777
1750;27042681000;22430677777;22930677777
1751;27042682000;22430677777;22930677777
1752;27083923000;22472000000;22972000000
1753;27083927000;22472000000;22972000000
1754;27083928000;22472000000;22972000000
1755;27083929000;22472000000;22972000000
1756;27083930000;22472000000;22972000000
1757;27083931000;22472000000;22972000000
1761;27161493000;22472322222;22972322222
1763;27202865000;22513688888;23013688888
1764;27202868000;22513688888;23013688888
1765;27202869000;22513688888;23013688888
1767;27202870000;22513688888;23013688888
1768;27202871000;22513688888;23013688888
1769;27202872000;22513688888;23013688888
1770;27202974000;22513700000;23013700000
1771;27202990000;22514011111;23014011111
1772;27202991000;22514011111;23014011111
1774;27244371000;22555355555;23055355555
1775;27244375000;22555355555;23055355555
1776;27244375000;22555355555;23055355555
1777;27244376000;22555355555;23055355555
1778;27244377000;22555355555;23055355555
1782;27322110000;22555677777;23055677777
1786;27431917000;22597022222;23097022222
1792;27432021000;22597033333;23097033333
1797;27432028000;22638700000;23138700000
1799;27432029000;22638700000;23138700000
1800;27432030000;22638700000;23138700000
1801;27432031000;22638700000;23138700000
1802;27432057000;22638700000;23138700000
1804;27482416000;22639044444;23139044444
1807;27523642000;22680355555;23180355555
1808;27523645000;22680355555;23180355555
1809;27523646000;22680355555;23180355555
1810;27523647000;22680355555;23180355555
1811;27523648000;22680355555;23180355555
1812;27523649000;22680355555;23180355555
1813;27523650000;22680355555;23180355555
1815;27523963000;22680677777;23180677777
1818;27565226000;22722022222;23222022222
1819;27565230000;22722022222;23222022222
1820;27565231000;22722022222;23222022222
1821;27565232000;22722022222;23222022222
1823;27565233000;22722022222;23222022222
1824;27565234000;22722022222;23222022222
1825;27565337000;22722044444;23222044444
1826;27565352000;22722344444;23222344444
1829;27683722000;22763688888;23263688888
1830;27683726000;22763688888;23263688888
1831;27683727000;22763688888;23263688888
1832;27683728000;22763688888;23263688888
1833;27683729000;22763688888;23263688888
1834;27683730000;22763688888;23263688888
1836;27684063000;22763711111;23263711111
1837;27684069000;22764055555;23264055555
1838;27684070000;22764055555;23264055555
1839;27684071000;22764055555;23264055555
1840;27725126000;22805355555;23305355555
1841;27725130000;22805355555;23305355555
1842;27725140000;22805355555;23305355555
1843;27725141000;22805355555;23305355555
1844;27725142000;22805355555;23305355555
1845;27725143000;22805355555;23305355555
1846;27725144000;22805355555;23305355555
1847;27725282000;22805366666;23305366666
1848;27725285000;22805644444;23305644444
1849;27725286000;22805644444;23305644444
1855;27763387000;22847022222;23347022222
1858;27766311000;22847033333;23347033333
1859;27766326000;22847322222;23347322222
1860;27766327000;22847322222;23347322222
1861;27766336000;22847322222;23347322222
1862;27806425000;22888688888;23388688888
1863;27806428000;22888688888;23388688888
1864;27806429000;22888688888;23388688888
1865;27806430000;22888688888;23388688888
1867;27806431000;22888688888;23388688888
1868;27806432000;22888688888;23388688888
1869;27806631000;22888700000;23388700000
1870;27806646000;22889000000;23389000000
1872;27806647000;22889000000;23389000000
1873;27843287000;22930355555;23430355555
1874;27843290000;22930355555;23430355555
1875;27843291000;22930355555;23430355555
1876;27843292000;22930355555;23430355555
1877;27912651000;22930355555;23430355555
1879;27912662000;22930355555;23430355555
1880;27963272000;22930377777;23430377777
1885;28004539000;22972022222;23472022222
1886;28004541000;22972022222;23472022222
1887;28004542000;22972022222;23472022222
1889;28004543000;22972022222;23472022222
1890;28004544000;22972022222;23472022222
1891;28004752000;22972044444;23472044444
1892;28004767000;22972322222;23472322222
1893;28004769000;22972322222;23472322222
1894;28004769000;22972322222;23472322222
1895;28046273000;23013688888;23513688888
1896;28046277000;23013688888;23513688888
1897;28046278000;23013688888;23513688888
1898;28046279000;23013688888;23513688888
1899;28046280000;23013688888;23513688888
1900;28046281000;23013688888;23513688888
1901;28046282000;23013688888;23513688888
1902;28123402000;23013700000;23513700000
1906;28123417000;23055355555;23555355555
1907;28123419000;23055355555;23555355555
1908;28123419000;23055355555;23555355555
1910;28165069000;23055355555;23555355555
1911;28165071000;23055355555;23555355555
1912;28165072000;23055355555;23555355555
1913;28165281000;23055377777;23555377777
1914;28165297000;23055644444;23555644444
1915;28165298000;23055644444;23555644444
1916;28165299000;23055644444;23555644444
1917;28206382000;23097022222;23597022222
1918;28206385000;23097022222;23597022222
1919;28206386000;23097022222;23597022222
1920;28206388000;23097022222;23597022222
1921;28206388000;23097022222;23597022222
1922;28206389000;23097022222;23597022222
1923;28206390000;23097022222;23597022222
1924;28206596000;23097033333;23597033333
1925;28206612000;23097333333;23597333333
1926;28206613000;23097333333;23597333333
1927;28233255000;23097333333;23597333333
1928;28246884000;23138666666;23638666666
1931;28246887000;23138666666;23638666666
1932;28246888000;23138666666;23638666666
1933;28246889000;23138666666;23638666666
1934;28246890000;23138666666;23638666666
1935;28247096000;23138677777;23638677777
1936;28247111000;23138966666;23638966666
1938;28287700000;23138966666;23638966666
1940;28287824000;23180355555;23680355555
1941;28287828000;23180355555;23680355555
1942;28287829000;23180355555;23680355555
1943;28287830000;23180355555;23680355555
1944;28287831000;23180355555;23680355555
1945;28287832000;23180355555;23680355555
1946;28287951000;23180366666;23680366666
1947;28287966000;23180644444;23680644444
1949;28287968000;23180644444;23680644444
1950;28327152000;23222022222;23722022222
1951;28327156000;23222022222;23722022222
1952;28393536000;23222022222;23722022222
1953;28393551000;23222022222;23722022222
1954;28393552000;23222022222;23722022222
1955;28393783000;23222022222;23722022222
1956;28393945000;23222022222;23722022222
1957;28444022000;23222044444;23722044444
1961;28444037000;23263644444;23763644444
1962;28444038000;23263644444;23763644444
1964;28485401000;23263644444;23763644444
1965;28485403000;23263644444;23763644444
1966;28485404000;23263644444;23763644444
1967;28485405000;23263644444;23763644444
1968;28485615000;23263666666;23763666666
1969;28485630000;23263955555;23763955555
1970;28485631000;23263955555;23763955555
1971;28485633000;23263955555;23763955555
1972;28527040000;23305355555;23805355555
1973;28527053000;23305355555;23805355555
1974;28527054000;23305355555;23805355555
1975;28527055000;23305355555;23805355555
1976;28527056000;23305355555;23805355555
1977;28553870000;23305355555;23805355555
1978;28553877000;23305355555;23805355555
1982;28604229000;23305644444;23805644444
1983;28645539000;23347022222;23847022222
1985;28645542000;23347022222;23847022222
1986;28645551000;23347022222;23847022222
1988;28645552000;23347022222;23847022222
1989;28645553000;23347022222;23847022222
1990;28645761000;23347033333;23847033333
1991;28645776000;23347322222;23847322222
1992;28645778000;23347322222;23847322222
1993;28645778000;23347322222;23847322222
1994;28687063000;23388700000;23888700000
1995;28687076000;23388700000;23888700000
1996;28687077000;23388700000;23888700000
1997;28687078000;23388700000;23888700000
1998;28687079000;23388700000;23888700000
1999;28687079000;23388700000;23888700000
2001;28687250000;23388711111;23888711111
2002;28687254000;23389022222;23889022222
2003;28714147000;23389022222;23889022222
2004;28714155000;23389022222;23889022222
2005;28727914000;23430355555;23930355555
2010;28727918000;23430355555;23930355555
2011;28727919000;23430355555;23930355555
2012;28728126000;23430366666;23930366666
2013;28728141000;23430666666;23930666666
2014;28728142000;23430666666;23930666666
2015;28728143000;23430666666;23930666666
2016;28768851000;23472000000;23972000000
2018;28768855000;23472000000;23972000000
2019;28768856000;23472000000;23972000000
2020;28768857000;23472000000;23972000000
2021;28768858000;23472000000;23972000000
2022;28768859000;23472000000;23972000000
2023;28769013000;23472011111;23972011111
2024;28769019000;23472300000;23972300000
2025;28769020000;23472300000;23972300000
2026;28769022000;23472300000;23972300000
2027;28807353000;23513688888;24013688888
2028;28807357000;23513688888;24013688888
2029;28874508000;23513688888;24013688888
2030;28874524000;23513688888;24013688888
2035;28925336000;23513977777;24013977777
2038;28966670000;23555355555;24055355555
2039;28966673000;23555355555;24055355555
2041;28966684000;23555355555;24055355555
2045;28966883000;23555366666;24055366666
2047;28966899000;23555633333;24055633333
2049;29008212000;23597000000;24097000000
2050;29008216000;23597000000;24097000000
2051;29008217000;23597000000;24097000000
2052;29008218000;23597000000;24097000000
2053;29008219000;23597000000;24097000000
2054;29008220000;23597000000;24097000000
2055;29034840000;23597000000;24097000000
2056;29085301000;23597011111;24097011111
2060;29085316000;23638688888;24138688888
2061;29085318000;23638688888;24138688888
2062;29085318000;23638688888;24138688888
2063;29085320000;23638688888;24138688888
2064;29085321000;23638688888;24138688888
2065;29085321000;23638688888;24138688888
2067;29127218000;23638700000;24138700000
2068;29127233000;23639011111;24139011111
2069;29127235000;23639011111;24139011111
2070;29127236000;23639011111;24139011111
2071;29168330000;23680355555;24180355555
2073;29168333000;23680355555;24180355555
2074;29168335000;23680355555;24180355555
2075;29168335000;23680355555;24180355555
2076;29168336000;23680355555;24180355555
2077;29168337000;23680355555;24180355555
2078;29168507000;23680377777;24180377777
2080;29168511000;23680644444;24180644444
2081;29195181000;23680644444;24180644444
2082;29208957000;23722022222;24222022222
2089;29209161000;23722033333;24222033333
2090;29209176000;23722322222;24222322222
2091;29209177000;23722322222;24222322222
2092;29209178000;23722322222;24222322222
2093;29249068000;23763688888;24263688888
2095;29249071000;23763688888;24263688888
2096;29249072000;23763688888;24263688888
2097;29249073000;23763688888;24263688888
2098;29249074000;23763688888;24263688888
2099;29249075000;23763688888;24263688888
2100;29249275000;23763700000;24263700000
2101;29249281000;23764011111;24264011111
2102;29249282000;23764011111;24264011111
2103;29249283000;23764011111;24264011111
2104;29288871000;23805355555;24305355555
2105;29288875000;23805355555;24305355555
2106;29288876000;23805355555;24305355555
2107;29355534000;23805355555;24305355555
2108;29355536000;23805355555;24305355555
2109;29355538000;23805355555;24305355555
2110;29355560000;23805355555;24305355555
2113;29405955000;23805677777;24305677777
2115;29447214000;23847022222;24347022222
2117;29447218000;23847022222;24347022222
2118;29447219000;23847022222;24347022222
2119;29447220000;23847022222;24347022222
2120;29447221000;23847022222;24347022222
2122;29447492000;23847033333;24347033333
2123;29447514000;23847344444;24347344444
2124;29447516000;23847344444;24347344444
2125;29447517000;23847344444;24347344444
2126;29488509000;23888688888;24388688888
2127;29488512000;23888688888;24388688888
2128;29488513000;23888688888;24388688888
2129;29488514000;23888688888;24388688888
2130;29488515000;23888688888;24388688888
2131;29488516000;23888688888;24388688888
2132;29515832000;23888688888;24388688888
2136;29566231000;23889033333;24389033333
2137;29607404000;23930333333;24430333333
2138;29607408000;23930333333;24430333333
2139;29607409000;23930333333;24430333333
2140;29607410000;23930333333;24430333333
2141;29607411000;23930333333;24430333333
2142;29607412000;23930333333;24430333333
2143;29607413000;23930333333;24430333333
2144;29607611000;23930344444;24430344444
2145;29607627000;23930644444;24430644444
2146;29607628000;23930644444;24430644444
2147;29607629000;23930644444;24430644444
2148;29648796000;23972022222;24472022222
2149;29648799000;23972022222;24472022222
2150;29648800000;23972022222;24472022222
2151;29648801000;23972022222;24472022222
2152;29648802000;23972022222;24472022222
2153;29648803000;23972022222;24472022222
2154;29648804000;23972022222;24472022222
2155;29649003000;23972033333;24472033333
2156;29649018000;23972344444;24472344444
2157;29649019000;23972344444;24472344444
2158;29676149000;23972344444;24472344444
2160;29689802000;24013688888;24513688888
2161;29689805000;24013688888;24513688888
2162;29689806000;24013688888;24513688888
2163;29689807000;24013688888;24513688888
2164;29689808000;24013688888;24513688888
2165;29689809000;24013688888;24513688888
2166;29689929000;24013700000;24513700000
2167;29689944000;24014077777;24514077777
2168;29689945000;24014077777;24514077777
2169;29689946000;24014077777;24514077777
2170;29730452000;24055355555;24555355555
2171;29730455000;24055355555;24555355555
2172;29730456000;24055355555;24555355555
2173;29730457000;24055355555;24555355555
2174;29730458000;24055355555;24555355555
2175;29730459000;24055355555;24555355555
2177;29730658000;24055366666;24555366666
2178;29730673000;24055677777;24555677777
2179;29730674000;24055677777;24555677777
2180;29730675000;24055677777;24555677777
2182;29768241000;24097000000;24597000000
2184;29836435000;24097000000;24597000000
2185;29836437000;24097000000;24597000000
2186;29836442000;24097000000;24597000000
2189;29887135000;24097333333;24597333333
2192;29928461000;24138688888;24638688888
2194;29928465000;24138688888;24638688888
2195;29928466000;24138688888;24638688888
2196;29928467000;24138688888;24638688888
2197;29928468000;24138688888;24638688888
2198;29928469000;24138688888;24638688888
2199;29928675000;24138700000;24638700000
2200;29928690000;24139033333;24639033333
2201;29928691000;24139033333;24639033333
2202;29928692000;24139033333;24639033333
2203;29969735000;24180366666;24680366666
2204;29969738000;24180366666;24680366666
2205;29969740000;24180366666;24680366666
2206;29969740000;24180366666;24680366666
2207;29969741000;24180366666;24680366666
2208;29969742000;24180366666;24680366666
2209;29996707000;24180366666;24680366666
2213;30047102000;24180688888;24680688888
2214;30088342000;24222022222;24722022222
2215;30088346000;24222022222;24722022222
2216;30088347000;24222022222;24722022222
2217;30088348000;24222022222;24722022222
2218;30088349000;24222022222;24722022222
2219;30088350000;24222022222;24722022222
2220;30088351000;24222022222;24722022222
2221;30088556000;24222044444;24722044444
2222;30088571000;24222322222;24722322222
2223;30088572000;24222322222;24722322222
2224;30088573000;24222322222;24722322222
2225;30129524000;24263666666;24763666666
2226;30129528000;24263666666;24763666666
2227;30129529000;24263666666;24763666666
2228;30129530000;24263666666;24763666666
2229;30129531000;24263666666;24763666666
2230;30129532000;24263666666;24763666666
2231;30129533000;24263666666;24763666666
2232;30129739000;24263677777;24763677777
2234;30129842000;24264000000;24764000000
2235;30156987000;24264000000;24764000000
2236;30170656000;24305355555;24805355555
2240;30170659000;24305355555;24805355555
2241;30170669000;24305355555;24805355555
2242;30170670000;24305355555;24805355555
2243;30170869000;24305366666;24805366666
2244;30170875000;24305744444;24805744444
2245;30170876000;24305744444;24805744444
2246;30170877000;24305744444;24805744444
2247;30211370000;24347022222;24847022222
2248;30211373000;24347022222;24847022222
2249;30211374000;24347022222;24847022222
2250;30211375000;24347022222;24847022222
2251;30211376000;24347022222;24847022222
2252;30211377000;24347022222;24847022222
2253;30211378000;24347022222;24847022222
2254;30211591000;24347044444;24847044444
2256;30211594000;24347344444;24847344444
2258;30249658000;24388677777;24888677777
2259;30249662000;24388677777;24888677777
2260;30249663000;24388677777;24888677777
2261;30249664000;24388677777;24888677777
2262;30317337000;24388677777;24888677777
2263;30317340000;24388677777;24888677777
2264;30317341000;24388677777;24888677777
2265;30367830000;24388700000;24888700000
2270;30409489000;24430344444;24930344444
2271;30409491000;24430344444;24930344444
2272;30409492000;24430344444;24930344444
2273;30409493000;24430344444;24930344444
2274;30409494000;24430344444;24930344444
2275;30409495000;24430344444;24930344444
2276;30409703000;24430355555;24930355555
2277;30409719000;24430688888;24930688888
2278;30409720000;24430688888;24930688888
2279;30409721000;24430688888;24930688888
2280;30450815000;24472022222;24972022222
2282;30450819000;24472022222;24972022222
2283;30450820000;24472022222;24972022222
2284;30450821000;24472022222;24972022222
2285;30450822000;24472022222;24972022222
2286;30450823000;24472022222;24972022222
2290;30528015000;24472377777;24972377777
2291;30569244000;24513688888;25013688888
2292;30569247000;24513688888;25013688888
2293;30569249000;24513688888;25013688888
2294;30569250000;24513688888;25013688888
2295;30569251000;24513688888;25013688888
2296;30569252000;24513688888;25013688888
2297;30569253000;24513688888;25013688888
2298;30569459000;24513711111;25013711111
2299;30569475000;24514022222;25014022222
2300;30569476000;24514022222;25014022222
2302;30610810000;24555333333;25055333333
2303;30610813000;24555333333;25055333333
2304;30610814000;24555333333;25055333333
2306;30610815000;24555333333;25055333333
2307;30610817000;24555333333;25055333333
2309;30610918000;24555344444;25055344444
2310;30610934000;24555644444;25055644444
2311;30610935000;24555644444;25055644444
2312;30610936000;24555644444;25055644444
2313;30651520000;24597000000;25097000000
2323;30651632000;24597333333;25097333333
2324;30687213000;24638688888;25138688888
2325;30687216000;24638688888;25138688888
2326;30687217000;24638688888;25138688888
2327;30687218000;24638688888;25138688888
2328;30687219000;24638688888;25138688888
2329;30687220000;24638688888;25138688888
2331;30691713000;24638711111;25138711111
2332;30691717000;24639044444;25139044444
2333;30691718000;24639044444;25139044444
2334;30691719000;24639044444;25139044444
2335;30730096000;24680388888;25180388888
2336;30730099000;24680388888;25180388888
2338;30730101000;24680388888;25180388888
2339;30730102000;24680388888;25180388888
2340;30730103000;24680388888;25180388888
2346;30890510000;24722022222;25222022222
2347;30890513000;24722022222;25222022222
2348;30890514000;24722022222;25222022222
2349;30890515000;24722022222;25222022222
2350;30890516000;24722022222;25222022222
2351;30890517000;24722022222;25222022222
2352;30890518000;24722022222;25222022222
2353;30890620000;24722033333;25222033333
2354;30890635000;24722366666;25222366666
2355;30890636000;24722366666;25222366666
2356;30890637000;24722366666;25222366666
2357;30931672000;24763666666;25263666666
2358;30931675000;24763666666;25263666666
2359;30931677000;24763666666;25263666666
2360;30931677000;24763666666;25263666666
2361;30931678000;24763666666;25263666666
2362;30931679000;24763666666;25263666666
2363;30931680000;24763666666;25263666666
2364;30931879000;24763677777;25263677777
2365;30931894000;24764011111;25264011111
2367;30931895000;24764011111;25264011111
2368;30972378000;24805355555;25305355555
2373;30972382000;24805355555;25305355555
2374;30972383000;24805355555;25305355555
2375;30972584000;24805377777;25305377777
2379;31013370000;24847022222;25347022222
2380;31013381000;24847022222;25347022222
2381;31013382000;24847022222;25347022222
2382;31013383000;24847022222;25347022222
2383;31013384000;24847022222;25347022222
2384;31013385000;24847022222;25347022222
2385;31013386000;24847022222;25347022222
2386;31013595000;24847033333;25347033333
2387;31013610000;24847333333;25347333333
2388;31013611000;24847333333;25347333333
2389;31013612000;24847333333;25347333333
2390;31051106000;24888666666;25388666666
2391;31051110000;24888666666;25388666666
2392;31051111000;24888666666;25388666666
2393;31051112000;24888666666;25388666666
2394;31051113000;24888666666;25388666666
2395;31118940000;24888666666;25388666666
2399;31169669000;24889022222;25389022222
2401;31210691000;24930333333;25430333333
2402;31210695000;24930333333;25430333333
2403;31210696000;24930333333;25430333333
2404;31210697000;24930333333;25430333333
2405;31210698000;24930333333;25430333333
2406;31210699000;24930333333;25430333333
2407;31210700000;24930333333;25430333333
2408;31210907000;24930344444;25430344444
2410;31211095000;24930633333;25430633333
2411;31211097000;24930633333;25430633333
2412;31252422000;24972033333;25472033333
2414;31252426000;24972033333;25472033333
2415;31252427000;24972033333;25472033333
2416;31252428000;24972033333;25472033333
2417;31252429000;24972033333;25472033333
2418;31252430000;24972033333;25472033333
2421;31252544000;24972333333;25472333333
2422;31252547000;24972333333;25472333333
2423;31293204000;25013688888;25513688888
2428;31293208000;25013688888;25513688888
2429;31293209000;25013688888;25513688888
2430;31293408000;25013700000;25513700000
2431;31293423000;25014022222;25514022222
2432;31293424000;25014022222;25514022222
2434;31334263000;25055333333;25555333333
2436;31334267000;25055333333;25555333333
2438;31334268000;25055333333;25555333333
2439;31334269000;25055333333;25555333333
2442;31334279000;25055644444;25555644444
2446;31373460000;25097022222;25597022222
2447;31373464000;25097022222;25597022222
2448;31373465000;25097022222;25597022222
2449;31373466000;25097022222;25597022222
2450;31373467000;25097022222;25597022222
2451;31439579000;25097022222;25597022222
2452;31490061000;25097044444;25597044444
2457;31599938000;25138688888;25638688888
2460;31599941000;25138688888;25638688888
2461;31599942000;25138688888;25638688888
2462;31599943000;25138688888;25638688888
2463;31600192000;25138711111;25638711111
2468;31600198000;25180355555;25680355555
2469;31600209000;25180355555;25680355555
2470;31600211000;25180355555;25680355555
2471;31600212000;25180355555;25680355555
2472;31600213000;25180355555;25680355555
2473;31600214000;25180355555;25680355555
2474;31600324000;25180366666;25680366666
2480;31600702000;25222000000;25722000000
2481;31600714000;25222000000;25722000000
2484;31602404000;25222000000;25722000000
2485;31613787000;25222011111;25722011111
2488;31613802000;25222277777;25722277777
2489;31654370000;25263655555;25763655555
2490;31654373000;25263655555;25763655555
2491;31654374000;25263655555;25763655555
2492;31654375000;25263655555;25763655555
2493;31654376000;25263655555;25763655555
2494;31654377000;25263655555;25763655555
2495;31654378000;25263655555;25763655555
2496;31654577000;25263666666;25763666666
2497;31654592000;25263966666;25763966666
2498;31654594000;25263966666;25763966666
2499;31654594000;25263966666;25763966666
2501;31694516000;25305388888;25805388888
2502;31694520000;25305388888;25805388888
2504;31694521000;25305388888;25805388888
2505;31694522000;25305388888;25805388888
2506;31760518000;25305388888;25805388888
2507;31810685000;25305400000;25805400000
2511;31810700000;25347022222;25847022222
2512;31810701000;25347022222;25847022222
2513;31810702000;25347022222;25847022222
2515;31852337000;25347022222;25847022222
2516;31852348000;25347022222;25847022222
2518;31852549000;25347033333;25847033333
2519;31852564000;25347344444;25847344444
2520;31852565000;25347344444;25847344444
2521;31852566000;25347344444;25847344444
2524;31893977000;25388688888;25888688888
2525;31893980000;25388688888;25888688888
2526;31893988000;25388688888;25888688888
2527;31893989000;25388688888;25888688888
2528;31893990000;25388688888;25888688888
2529;31894092000;25388711111;25888711111
2530;31894107000;25389044444;25889044444
2531;31894108000;25389044444;25889044444
2532;31894109000;25389044444;25889044444
2533;31934278000;25430333333;25930333333
2540;31934496000;25430344444;25930344444
2541;31934511000;25430644444;25930644444
2542;31934512000;25430644444;25930644444
2543;31934513000;25430644444;25930644444
2544;31974459000;25472022222;25972022222
2545;31974463000;25472022222;25972022222
2546;31974464000;25472022222;25972022222
2549;31974465000;25472022222;25972022222
2550;31974466000;25472022222;25972022222
2551;31974664000;25472033333;25972033333
2552;31974679000;25472355555;25972355555
2555;32010536000;25513666666;26013666666
2556;32010539000;25513666666;26013666666
2557;32010540000;25513666666;26013666666
2558;32010541000;25513666666;26013666666
2559;32010542000;25513666666;26013666666
2561;32010543000;25513666666;26013666666
2562;32131372000;25513677777;26013677777
2569;32173054000;25555322222;26055322222
2570;32173057000;25555322222;26055322222
2571;32173058000;25555322222;26055322222
2572;32173059000;25555322222;26055322222
2573;32173267000;25555333333;26055333333
2574;32173282000;25555611111;26055611111
2575;32173283000;25555611111;26055611111
2577;32214275000;25597022222;26097022222
2578;32214279000;25597022222;26097022222
2579;32214280000;25597022222;26097022222
2580;32214281000;25597022222;26097022222
2582;32214282000;25597022222;26097022222
2583;32214283000;25597022222;26097022222
2584;32214408000;25597044444;26097044444
2585;32214423000;25597355555;26097355555
2586;32214424000;25597355555;26097355555
2587;32214425000;25597355555;26097355555
2588;32254899000;25638688888;26138688888
2599;32295387000;25680333333;26180333333
2600;32295390000;25680333333;26180333333
2601;32295391000;25680333333;26180333333
2602;32295392000;25680333333;26180333333
2603;32295393000;25680333333;26180333333
2604;32295394000;25680333333;26180333333
2606;32295488000;25680344444;26180344444
2607;32295503000;25680655555;26180655555
2608;32295505000;25680655555;26180655555
2609;32295506000;25680655555;26180655555
2610;32330097000;25722022222;26222022222
2611;32330101000;25722022222;26222022222
2612;32330102000;25722022222;26222022222
2613;32330103000;25722022222;26222022222
2614;32330104000;25722022222;26222022222
2616;32331907000;25722022222;26222022222
2617;32332117000;25722033333;26222033333
2618;32332132000;25722366666;26222366666
2619;32332134000;25722366666;26222366666
2620;32401570000;25722366666;26222366666
2621;32451940000;25763688888;26263688888
2627;32451944000;25763688888;26263688888
2628;32452149000;25763700000;26263700000
2629;32452165000;25764022222;26264022222
2630;32452166000;25764022222;26264022222
2631;32452167000;25764022222;26264022222
2632;32493334000;25805355555;26305355555
2634;32493716000;25805355555;26305355555
2635;32493727000;25805355555;26305355555
2636;32493728000;25805355555;26305355555
2637;32493729000;25805355555;26305355555
2639;32493938000;25805377777;26305377777
2641;32493954000;25805655555;26305655555
2642;32493955000;25805655555;26305655555
2643;32535018000;25847000000;26347000000
2646;32535022000;25847000000;26347000000
2647;32535023000;25847000000;26347000000
2648;32535024000;25847000000;26347000000
2649;32561865000;25847000000;26347000000
2650;32612326000;25847011111;26347011111
2655;32612341000;25888688888;26388688888
2657;32654035000;25888688888;26388688888
2658;32654038000;25888688888;26388688888
2659;32654039000;25888688888;26388688888
2660;32654040000;25888688888;26388688888
2661;32654210000;25888700000;26388700000
2662;32654216000;25889011111;26389011111
2663;32654217000;25889011111;26389011111
2665;32695254000;25930355555;26430355555
2666;32695258000;25930355555;26430355555
2668;32695259000;25930355555;26430355555
2669;32695260000;25930355555;26430355555
2670;32695261000;25930355555;26430355555
2672;32695355000;25930377777;26430377777
2673;32695370000;25930655555;26430655555
2674;32695371000;25930655555;26430655555
2675;32695379000;25930655555;26430655555
2676;32736002000;25972022222;26472022222
2687;32776344000;26013666666;26513666666
2689;32776347000;26013666666;26513666666
2690;32776348000;26013666666;26513666666
2691;32776349000;26013666666;26513666666
2693;32776350000;26013666666;26513666666
2694;32776444000;26013677777;26513677777
2696;32776459000;26013977777;26513977777
2697;32776460000;26013977777;26513977777
2698;32814559000;26055333333;26555333333
2700;32814563000;26055333333;26555333333
2701;32814564000;26055333333;26555333333
2702;32814565000;26055333333;26555333333
2703;32814566000;26055333333;26555333333
2704;32814566000;26055333333;26555333333
2706;32814680000;26055622222;26555622222
2711;32932903000;26097022222;26597022222
2717;32933015000;26097333333;26597333333
2718;32933018000;26097333333;26597333333
2719;32933019000;26097333333;26597333333
2721;32974560000;26138688888;26638688888
2722;32974564000;26138688888;26638688888
2723;32974565000;26138688888;26638688888
2724;32974566000;26138688888;26638688888
2725;32974567000;26138688888;26638688888
2726;32974568000;26138688888;26638688888
2727;32974661000;26138700000;26638700000
2728;32974676000;26139022222;26639022222
2729;32974678000;26139022222;26639022222
2730;32974678000;26139022222;26639022222
2731;33015990000;26180366666;26680366666
2732;33015993000;26180366666;26680366666
2733;33015994000;26180366666;26680366666
2734;33015995000;26180366666;26680366666
2735;33015996000;26180366666;26680366666
2739;33095743000;26180711111;26680711111
3807;33095906000;30222333333;30722333333
3808;33095910000;30222333333;30722333333
3809;33134853000;30263700000;30763700000
3810;33134857000;30263700000;30763700000
3811;33134858000;30263700000;30763700000
3812;33134859000;30263700000;30763700000
3813;33134860000;30263700000;30763700000
3814;33134861000;30263700000;30763700000
3815;33134862000;30263700000;30763700000
3816;33134959000;30263711111;30763711111
3817;33134975000;30263988888;30763988888
3818;33134977000;30263988888;30763988888
3819;33134977000;30263988888;30763988888
3820;33176640000;30305355555;30805355555
3821;33176644000;30305355555;30805355555
3823;33203146000;30305355555;30805355555
3825;33203149000;30305355555;30805355555
3826;33203154000;30305355555;30805355555
3827;33253642000;30305377777;30805377777
3831;33253657000;30347000000;30847000000
3832;33253658000;30347000000;30847000000
3833;33253659000;30347000000;30847000000
3834;33253660000;30347000000;30847000000
3835;33253661000;30347000000;30847000000
3836;33253662000;30347000000;30847000000
3837;33253663000;30347000000;30847000000
3838;33295360000;30347011111;30847011111
3840;33295708000;30347288888;30847288888
3842;33336836000;30388688888;30888688888
3843;33336840000;30388688888;30888688888
3844;33336841000;30388688888;30888688888
3845;33336842000;30388688888;30888688888
3846;33336842000;30388688888;30888688888
3847;33336843000;30388688888;30888688888
3848;33336844000;30388688888;30888688888
3849;33336941000;30388711111;30888711111
3850;33336957000;30389000000;30889000000
3851;33336958000;30389000000;30889000000
3852;33336959000;30389000000;30889000000
3853;33377624000;30430366666;30930366666
3864;33418281000;30472022222;30972022222
3866;33418285000;30472022222;30972022222
3867;33418286000;30472022222;30972022222
3868;33418287000;30472022222;30972022222
3869;33418288000;30472022222;30972022222
3870;33418289000;30472022222;30972022222
3871;33418489000;30472044444;30972044444
3872;33418504000;30472322222;30972322222
3873;33418505000;30472322222;30972322222
3874;33418506000;30472322222;30972322222
3875;33455449000;30513688888;31013688888
3876;33455452000;30513688888;31013688888
3877;33455454000;30513688888;31013688888
3878;33455454000;30513688888;31013688888
3879;33455455000;30513688888;31013688888
3880;33455456000;30513688888;31013688888
3881;33455457000;30513688888;31013688888
3882;33455627000;30513711111;31013711111
3883;33455631000;30513977777;31013977777
3884;33523753000;30513977777;31013977777
3886;33574146000;30555355555;31055355555
3897;33656604000;30597033333;31097033333
3898;33656607000;30597033333;31097033333
3899;33656616000;30597033333;31097033333
3900;33656617000;30597033333;31097033333
3901;33656618000;30597033333;31097033333
3902;33656619000;30597033333;31097033333
3904;33656825000;30597044444;31097044444
3905;33656841000;30597333333;31097333333
3906;33656842000;30597333333;31097333333
3907;33656843000;30597333333;31097333333
3910;33698235000;30638666666;31138666666
3929;33738101000;30680655555;31180655555
3930;33770560000;30722022222;31222022222
3931;33770564000;30722022222;31222022222
3932;33770565000;30722022222;31222022222
3934;33776878000;30722022222;31222022222
3937;33777000000;30722044444;31222044444
3938;33777004000;30722333333;31222333333
3939;33777005000;30722333333;31222333333
3940;33777006000;30722333333;31222333333
3941;33810605000;30763688888;31263688888
3942;33810609000;30763688888;31263688888
3943;33810610000;30763688888;31263688888
3944;33810611000;30763688888;31263688888
3945;33810612000;30763688888;31263688888
3946;33810613000;30763688888;31263688888
3947;33844279000;30763688888;31263688888
3948;33894904000;30763711111;31263711111
3956;33894919000;30805333333;31305333333
3957;33894921000;30805333333;31305333333
3958;33894921000;30805333333;31305333333
3959;33936012000;30805344444;31305344444
3960;33936027000;30805622222;31305622222
3961;33936029000;30805622222;31305622222
3962;33936030000;30805622222;31305622222
3963;33977487000;30847022222;31347022222
3965;33978320000;30847022222;31347022222
3966;33978322000;30847022222;31347022222
3968;33978323000;30847022222;31347022222
3969;33978324000;30847022222;31347022222
3970;33978532000;30847044444;31347044444
3971;33978548000;30847322222;31347322222
3973;33978549000;30847322222;31347322222
3974;34018589000;30888700000;31388700000
3987;34057940000;30930355555;31430355555
3988;34057952000;30930355555;31430355555
3989;34057953000;30930355555;31430355555
3990;34057954000;30930355555;31430355555
3991;34057955000;30930355555;31430355555
3992;34058161000;30930366666;31430366666
3994;34058167000;30930633333;31430633333
3995;34058177000;30930633333;31430633333
3996;34092179000;30972022222;31472022222
3997;34092182000;30972022222;31472022222
3998;34092183000;30972022222;31472022222
3999;34092184000;30972022222;31472022222
4002;34096778000;30972022222;31472022222
4003;34096996000;30972033333;31472033333
4004;34097012000;30972311111;31472311111
4005;34097013000;30972311111;31472311111
4006;34097014000;30972311111;31472311111
4007;34131116000;31013688888;31513688888
4009;34131119000;31013688888;31513688888
4010;34131121000;31013688888;31513688888
4011;34164825000;31013688888;31513688888
4012;34164842000;31013688888;31513688888
4013;34164871000;31013688888;31513688888
4014;34215432000;31013700000;31513700000
4020;34215447000;31055355555;31555355555
4021;34215449000;31055355555;31555355555
4022;34215449000;31055355555;31555355555
4023;34215450000;31055355555;31555355555
4024;34215451000;31055355555;31555355555
4025;34257014000;31055377777;31555377777
4026;34257029000;31055644444;31555644444
4027;34257031000;31055644444;31555644444
4029;34298466000;31097022222;31597022222
4030;34298470000;31097022222;31597022222
4031;34298471000;31097022222;31597022222
4033;34298472000;31097022222;31597022222
4034;34298473000;31097022222;31597022222
4035;34298474000;31097022222;31597022222
4037;34298484000;31097333333;31597333333
4038;34298485000;31097333333;31597333333
4043;34339072000;31138688888;31638688888
4054;34379316000;31180366666;31680366666
4056;34379320000;31180366666;31680366666
4057;34379321000;31180366666;31680366666
4058;34379414000;31180377777;31680377777
4059;34379430000;31180644444;31680644444
4060;34379431000;31180644444;31680644444
4061;34379432000;31180644444;31680644444
4063;34418175000;31222044444;31722044444
4064;34418179000;31222044444;31722044444
4066;34418180000;31222044444;31722044444
4068;34418181000;31222044444;31722044444
4069;34418279000;31222055555;31722055555
4070;34418294000;31222311111;31722311111
4071;34418295000;31222311111;31722311111
4072;34418296000;31222311111;31722311111
4073;34452263000;31263688888;31763688888
4074;34452267000;31263688888;31763688888
4075;34452277000;31263688888;31763688888
4078;34485403000;31263688888;31763688888
4081;34536064000;31263988888;31763988888
4086;34576927000;31305333333;31805333333
4089;34577509000;31305333333;31805333333
4090;34577521000;31305333333;31805333333
4091;34577719000;31305344444;31805344444
4092;34577722000;31305622222;31805622222
4094;34577724000;31305622222;31805622222
4096;34618905000;31347022222;31847022222
4097;34618909000;31347022222;31847022222
4098;34618910000;31347022222;31847022222
4099;34618911000;31347022222;31847022222
4100;34618912000;31347022222;31847022222
4101;34618913000;31347022222;31847022222
4102;34619010000;31347044444;31847044444
4103;34619026000;31347322222;31847322222
4104;34619027000;31347322222;31847322222
4108;34659601000;31388700000;31888700000
4120;34694047000;31430355555;31930355555
4121;34694051000;31430355555;31930355555
4122;34694052000;31430355555;31930355555
4123;34694052000;31430355555;31930355555
4124;34694251000;31430377777;31930377777
4125;34694266000;31430677777;31930677777
4126;34694268000;31430677777;31930677777
4127;34694269000;31430677777;31930677777
4128;34733873000;31472000000;31972000000
4129;34733876000;31472000000;31972000000
4130;34733877000;31472000000;31972000000
4131;34733878000;31472000000;31972000000
4132;34733879000;31472000000;31972000000
4133;34733880000;31472000000;31972000000
4134;34733881000;31472000000;31972000000
4135;34738674000;31472011111;31972011111
4136;34738689000;31472300000;31972300000
4137;34738691000;31472300000;31972300000
4138;34738691000;31472300000;31972300000
4139;34773943000;31513688888;32013688888
4140;34773947000;31513688888;32013688888
4141;34773948000;31513688888;32013688888
4143;34805928000;31513688888;32013688888
4144;34805942000;31513688888;32013688888
4145;34805947000;31513688888;32013688888
4146;34856431000;31513700000;32013700000
4153;34856446000;31555355555;32055355555
4154;34856448000;31555355555;32055355555
4155;34856449000;31555355555;32055355555
4157;34898336000;31555377777;32055377777
4158;34898351000;31555644444;32055644444
4159;34898352000;31555644444;32055644444
4160;34898353000;31555644444;32055644444
4161;34939452000;31597022222;32097022222
4162;34939455000;31597022222;32097022222
4163;34939456000;31597022222;32097022222
4165;34939457000;31597022222;32097022222
4166;34939458000;31597022222;32097022222
4167;34939459000;31597022222;32097022222
4168;34939658000;31597033333;32097033333
4169;34939673000;31597322222;32097322222
4170;34939674000;31597322222;32097322222
4171;34939675000;31597322222;32097322222
4172;34980263000;31638666666;32138666666
4184;35020722000;31680322222;32180322222
4185;35020725000;31680322222;32180322222
4186;35020726000;31680322222;32180322222
4187;35020727000;31680322222;32180322222
4188;35020728000;31680322222;32180322222
4189;35020729000;31680322222;32180322222
4190;35020927000;31680344444;32180344444
4191;35020942000;31680644444;32180644444
4192;35020943000;31680644444;32180644444
4195;35059553000;31722022222;32222022222
4196;35059556000;31722022222;32222022222
4197;35059557000;31722022222;32222022222
4198;35059558000;31722022222;32222022222
4199;35059559000;31722022222;32222022222
4200;35059560000;31722022222;32222022222
4201;35059657000;31722033333;32222033333
4202;35059673000;31722333333;32222333333
4203;35059674000;31722333333;32222333333
4204;35059675000;31722333333;32222333333
4205;35094777000;31763666666;32263666666
4206;35094781000;31763666666;32263666666
4209;35126531000;31763666666;32263666666
4211;35126534000;31763666666;32263666666
4216;35218502000;31805355555;32305355555
4218;35218506000;31805355555;32305355555
4219;35218507000;31805355555;32305355555
4220;35218508000;31805355555;32305355555
4221;35218509000;31805355555;32305355555
4222;35218510000;31805355555;32305355555
4223;35218716000;31805377777;32305377777
4226;35218732000;31805666666;32305666666
4227;35259738000;31847022222;32347022222
4228;35259741000;31847022222;32347022222
4229;35259742000;31847022222;32347022222
4230;35259743000;31847022222;32347022222
4231;35259744000;31847022222;32347022222
4232;35259745000;31847022222;32347022222
4235;35260396000;31847366666;32347366666
4236;35260400000;31847366666;32347366666
4239;35300909000;31888688888;32388688888
4251;35341474000;31930333333;32430333333
4252;35341478000;31930333333;32430333333
4253;35341479000;31930333333;32430333333
4254;35341480000;31930333333;32430333333
4255;35341481000;31930333333;32430333333
4256;35341679000;31930344444;32430344444
4257;35341694000;31930622222;32430622222
4258;35341696000;31930622222;32430622222
4259;35341696000;31930622222;32430622222
4262;35380708000;31972022222;32472022222
4263;35380711000;31972022222;32472022222
4264;35380712000;31972022222;32472022222
4265;35380713000;31972022222;32472022222
4266;35380714000;31972022222;32472022222
4267;35380812000;31972033333;32472033333
4268;35380827000;31972322222;32472322222
4269;35380829000;31972322222;32472322222
4270;35380829000;31972322222;32472322222
4271;35413185000;32013700000;32513700000
4272;35413189000;32013700000;32513700000
4273;35413190000;32013700000;32513700000
4274;35447146000;32013700000;32513700000
4276;35447184000;32013700000;32513700000
4282;35539072000;32055366666;32555366666
4292;35539199000;32055666666;32555666666
4293;35579759000;32097000000;32597000000
4294;35579762000;32097000000;32597000000
4295;35579763000;32097000000;32597000000
4296;35579764000;32097000000;32597000000
4297;35579765000;32097000000;32597000000
4298;35579766000;32097000000;32597000000
4299;35579767000;32097000000;32597000000
4300;35580247000;32097011111;32597011111
4301;35580263000;32097311111;32597311111
4302;35580264000;32097311111;32597311111
4303;35580265000;32097311111;32597311111
4304;35621595000;32138688888;32638688888
4323;35652430000;32180655555;32680655555
4324;35652434000;32180655555;32680655555
4325;35652435000;32180655555;32680655555
4326;35700205000;32222022222;32722022222
4327;35700209000;32222022222;32722022222
4328;35700210000;32222022222;32722022222
4329;35700211000;32222022222;32722022222
4330;35700212000;32222022222;32722022222
4331;35700213000;32222022222;32722022222
4333;35700420000;32222033333;32722033333
4334;35700436000;32222300000;32722300000
4335;35700437000;32222300000;32722300000
4336;35700438000;32222300000;32722300000
4338;35737782000;32263666666;32763666666
4339;35737786000;32263666666;32763666666
4340;35737787000;32263666666;32763666666
4341;35737787000;32263666666;32763666666
4342;35767692000;32263666666;32763666666
4348;35859939000;32305355555;32805355555
4359;35901188000;32347022222;32847022222
4360;35901191000;32347022222;32847022222
4361;35901193000;32347022222;32847022222
4362;35901194000;32347022222;32847022222
4363;35901194000;32347022222;32847022222
4364;35901196000;32347022222;32847022222
4367;35901406000;32347322222;32847322222
4368;35901409000;32347322222;32847322222
4372;35941190000;32388688888;32888688888
4390;35981337000;32430633333;32930633333
4391;35981340000;32430633333;32930633333
4392;36020245000;32472022222;32972022222
4393;36020249000;32472022222;32972022222
4395;36020250000;32472022222;32972022222
4396;36020251000;32472022222;32972022222
4398;36020252000;32472022222;32972022222
4400;36020365000;32472333333;32972333333
4401;36020369000;32472333333;32972333333
4403;36057347000;32513688888;33013688888
4404;36057350000;32513688888;33013688888
4406;36057352000;32513688888;33013688888
4407;36057352000;32513688888;33013688888
4408;36057353000;32513688888;33013688888
4410;36057451000;32513711111;33013711111
4411;36057467000;32514000000;33014000000
4412;36088266000;32514000000;33014000000
4414;36091280000;32555355555;33055355555
4423;36091392000;32555644444;33055644444
4424;36091395000;32555644444;33055644444
4425;36128297000;32597000000;33097000000
4426;36128300000;32597000000;33097000000
4427;36128301000;32597000000;33097000000
4428;36128302000;32597000000;33097000000
4433;36222484000;32597311111;33097311111
4434;36222488000;32597311111;33097311111
4435;36222489000;32597311111;33097311111
4436;36262041000;32638688888;33138688888
4458;36342440000;32722000000;33222000000
4459;36342443000;32722000000;33222000000
4460;36342444000;32722000000;33222000000
4461;36342445000;32722000000;33222000000
4462;36342454000;32722000000;33222000000
4463;36342456000;32722000000;33222000000
4464;36342457000;32722000000;33222000000
4466;36342571000;32722400000;33222400000
4467;36342574000;32722400000;33222400000
4468;36342575000;32722400000;33222400000
4469;36374128000;32763688888;33263688888
4470;36374131000;32763688888;33263688888
4471;36374132000;32763688888;33263688888
4472;36374133000;32763688888;33263688888
4474;36379065000;32763688888;33263688888
4475;36379067000;32763688888;33263688888
4476;36379268000;32763700000;33263700000
4477;36379283000;32764011111;33264011111
4478;36379284000;32764011111;33264011111
4479;36379285000;32764011111;33264011111
4480;36410512000;32805355555;33305355555
4492;36500889000;32847022222;33347022222
4494;36500893000;32847022222;33347022222
4495;36500894000;32847022222;33347022222
4496;36500894000;32847022222;33347022222
4497;36500895000;32847022222;33347022222
4498;36501103000;32847033333;33347033333
4499;36501118000;32847300000;33347300000
4500;36501120000;32847300000;33347300000
4501;36501121000;32847300000;33347300000
4502;36542606000;32888666666;33388666666
4503;36542610000;32888666666;33388666666
4504;36542611000;32888666666;33388666666
4505;36542612000;32888666666;33388666666
4506;36542613000;32888666666;33388666666
4507;36542614000;32888666666;33388666666
4508;36542615000;32888666666;33388666666
4509;36542821000;32888677777;33388677777
4510;36542837000;32888966666;33388966666
4511;36542838000;32888966666;33388966666
4512;36542839000;32888966666;33388966666
4513;36583150000;32930355555;33430355555
4826;36661396000;34097033333;34597033333
4827;36661407000;34097033333;34597033333
4828;36661613000;34097044444;34597044444
4829;36661629000;34097366666;34597366666
4830;36661630000;34097366666;34597366666
4833;36702759000;34138688888;34638688888
4834;36702763000;34138688888;34638688888
4835;36702764000;34138688888;34638688888
4836;36702765000;34138688888;34638688888
4837;36702766000;34138688888;34638688888
4838;36702767000;34138688888;34638688888
4840;36702777000;34139011111;34639011111
4841;36702778000;34139011111;34639011111
4842;36702789000;34139011111;34639011111
4845;36743540000;34180355555;34680355555
4865;36823221000;34263700000;34763700000
4866;36823225000;34263700000;34763700000
4867;36823226000;34263700000;34763700000
4869;36823227000;34263700000;34763700000
4870;36823228000;34263700000;34763700000
4871;36823229000;34263700000;34763700000
4872;36823435000;34263711111;34763711111
4873;36823451000;34264011111;34764011111
4874;36823453000;34264011111;34764011111
4876;36859128000;34305355555;34805355555
4877;36859131000;34305355555;34805355555
4878;36859132000;34305355555;34805355555
4879;36859133000;34305355555;34805355555
4880;36859134000;34305355555;34805355555
4881;36859135000;34305355555;34805355555
4882;36859136000;34305355555;34805355555
4883;36859234000;34305377777;34805377777
4884;36889952000;34305666666;34805666666
4885;36890003000;34305666666;34805666666
4886;36890006000;34305666666;34805666666
4887;36981874000;34347000000;34847000000
4897;36981990000;34347311111;34847311111
4898;37023126000;34388688888;34888688888
4899;37023129000;34388688888;34888688888
4900;37023130000;34388688888;34888688888
4902;37023132000;34388688888;34888688888
4903;37023133000;34388688888;34888688888
4904;37023134000;34388688888;34888688888
4905;37023364000;34388700000;34888700000
4907;37023371000;34389022222;34889022222
4908;37023372000;34389022222;34889022222
4909;37063824000;34430322222;34930322222
4933;37142257000;34513655555;35013655555
4934;37142261000;34513655555;35013655555
4935;37142262000;34513655555;35013655555
4936;37142262000;34513655555;35013655555
4937;37142263000;34513655555;35013655555
4938;37142442000;34513677777;35013677777
4939;37142446000;34513966666;35013966666
4940;37142447000;34513966666;35013966666
4942;37178879000;34555322222;35055322222
4943;37178883000;34555322222;35055322222
4944;37178884000;34555322222;35055322222
4946;37178885000;34555322222;35055322222
4947;37178886000;34555322222;35055322222
4948;37178887000;34555322222;35055322222
4949;37178984000;34555333333;35055333333
4950;37179007000;34555600000;35055600000
4953;37210685000;34597022222;35097022222
4954;37210689000;34597022222;35097022222
4955;37210691000;34597022222;35097022222
4959;37210838000;34597022222;35097022222
4964;37302659000;34638688888;35138688888
4968;37302663000;34638688888;35138688888
4969;37302664000;34638688888;35138688888
4973;37302829000;34639022222;35139022222
4974;37302832000;34639022222;35139022222
4975;37343919000;34680355555;35180355555
4976;37343922000;34680355555;35180355555
4977;37343923000;34680355555;35180355555
4978;37343924000;34680355555;35180355555
4979;37343925000;34680355555;35180355555
4980;37343926000;34680355555;35180355555
4981;37343927000;34680355555;35180355555
4982;37344076000;34680377777;35180377777
4983;37344078000;34680666666;35180666666
4984;37344079000;34680666666;35180666666
4985;37344080000;34680666666;35180666666
4986;37383746000;34722022222;35222022222
5006;37415119000;34764022222;35264022222
5007;37415123000;34764022222;35264022222
5008;37462966000;34805355555;35305355555
5009;37462970000;34805355555;35305355555
5011;37462971000;34805355555;35305355555
5012;37462972000;34805355555;35305355555
5013;37462973000;34805355555;35305355555
5014;37462974000;34805355555;35305355555
5015;37463183000;34805366666;35305366666
5016;37463190000;34805655555;35305655555
5018;37463191000;34805655555;35305655555
5019;37499150000;34847022222;35347022222
5021;37499154000;34847022222;35347022222
5022;37499155000;34847022222;35347022222
5023;37499156000;34847022222;35347022222
5024;37499157000;34847022222;35347022222
5030;37623036000;34888688888;35388688888
5041;37664310000;34930355555;35430355555
5042;37664314000;34930355555;35430355555
5044;37664315000;34930355555;35430355555
5045;37664316000;34930355555;35430355555
5046;37664317000;34930355555;35430355555
5047;37664318000;34930355555;35430355555
5048;37664495000;34930377777;35430377777
5049;37664499000;34930644444;35430644444
5050;37664500000;34930644444;35430644444
5051;37664501000;34930644444;35430644444
5052;37705240000;34972000000;35472000000
5074;37783025000;35055333333;35555333333
5075;37783029000;35055333333;35555333333
5076;37783030000;35055333333;35555333333
5078;37783031000;35055333333;35555333333
5079;37783032000;35055333333;35555333333
5080;37783033000;35055333333;35555333333
5081;37783271000;35055344444;35555344444
5082;37783286000;35055622222;35555622222
5083;37783287000;35055622222;35555622222
5085;37820557000;35097022222;35597022222
5087;37820561000;35097022222;35597022222
5088;37820562000;35097022222;35597022222
5089;37820563000;35097022222;35597022222
5090;37820564000;35097022222;35597022222
5091;37820565000;35097022222;35597022222
5092;37820662000;35097044444;35597044444
5093;37820678000;35097333333;35597333333
5094;37820679000;35097333333;35597333333
5095;37820680000;35097333333;35597333333
5096;37850131000;35138666666;35638666666
5097;37851689000;35138666666;35638666666
5098;37851740000;35138666666;35638666666
5099;37851742000;35138666666;35638666666
5100;37851758000;35138666666;35638666666
5101;37851809000;35138666666;35638666666
5102;37851811000;35138666666;35638666666
5103;37902276000;35138677777;35638677777
5113;37902291000;35180355555;35680355555
5114;37943890000;35180377777;35680377777
5115;37943906000;35180655555;35680655555
5116;37943907000;35180655555;35680655555
5118;37985319000;35222033333;35722033333
5119;37985323000;35222033333;35722033333
5120;37985324000;35222033333;35722033333
5121;37985325000;35222033333;35722033333
5122;37985327000;35222033333;35722033333
5125;37985417000;35222055555;35722055555
5126;37985424000;35222322222;35722322222
5128;37985426000;35222322222;35722322222
5129;38026118000;35263688888;35763688888
5147;38059353000;35305344444;35805344444
5148;38059368000;35305622222;35805622222
5149;38059369000;35305622222;35805622222
5150;38059370000;35305622222;35805622222
5151;38105777000;35346988888;35846988888
5152;38105781000;35346988888;35846988888
5153;38105782000;35346988888;35846988888
5154;38105783000;35346988888;35846988888
5156;38105936000;35346988888;35846988888
5157;38105947000;35346988888;35846988888
5158;38106171000;35347000000;35847000000
5159;38106187000;35347277777;35847277777
5160;38106188000;35347277777;35847277777
5161;38106189000;35347277777;35847277777
5162;38143367000;35388700000;35888700000
5166;38143371000;35388700000;35888700000
5167;38143372000;35388700000;35888700000
5168;38143373000;35388700000;35888700000
5169;38143579000;35388711111;35888711111
5170;38172259000;35389022222;35889022222
5173;38264178000;35430366666;35930366666
5186;38305425000;35471988888;35971988888
5187;38305429000;35471988888;35971988888
5189;38305430000;35471988888;35971988888
5190;38305431000;35471988888;35971988888
5191;38305555000;35472011111;35972011111
5192;38305571000;35472300000;35972300000
5193;38305572000;35472300000;35972300000
5194;38305573000;35472300000;35972300000
5195;38346205000;35513688888;36013688888
5218;38416630000;35597022222;36097022222
5219;38416634000;35597022222;36097022222
5220;38416635000;35597022222;36097022222
5221;38416636000;35597022222;36097022222
5222;38416636000;35597022222;36097022222
5223;38416637000;35597022222;36097022222
5224;38424655000;35597033333;36097033333
5225;38424671000;35597322222;36097322222
5227;38462447000;35597322222;36097322222
5230;38462564000;35638666666;36138666666
5231;38462567000;35638666666;36138666666
5232;38462568000;35638666666;36138666666
5233;38462569000;35638666666;36138666666
5234;38462570000;35638666666;36138666666
5235;38462694000;35638677777;36138677777
5236;38462710000;35638988888;36138988888
5237;38462711000;35638988888;36138988888
5238;38462712000;35638988888;36138988888
5239;38491873000;35680322222;36180322222
5240;38491877000;35680322222;36180322222
5241;38492810000;35680322222;36180322222
5243;38492876000;35680322222;36180322222
5244;38492879000;35680322222;36180322222
5248;38543257000;35680633333;36180633333
5259;38584865000;35722355555;36222355555
5260;38584869000;35722355555;36222355555
5261;38626093000;35763688888;36263688888
5263;38626111000;35763688888;36263688888
5264;38626112000;35763688888;36263688888
5265;38626113000;35763688888;36263688888
5266;38626114000;35763688888;36263688888
5267;38626115000;35763688888;36263688888
5268;38626354000;35763700000;36263700000
5269;38626370000;35764011111;36264011111
5270;38626371000;35764011111;36264011111
5271;38626372000;35764011111;36264011111
5272;38667456000;35805322222;36305322222
5294;38745957000;35888688888;36388688888
5295;38745961000;35888688888;36388688888
5296;38745962000;35888688888;36388688888
5297;38745963000;35888688888;36388688888
5298;38745964000;35888688888;36388688888
5299;38745965000;35888688888;36388688888
5300;38745966000;35888688888;36388688888
5301;38746173000;35888700000;36388700000
5302;38746189000;35889011111;36389011111
5303;38746190000;35889011111;36389011111
5304;38746191000;35889011111;36389011111
5307;38781734000;35930333333;36430333333
5309;38781738000;35930333333;36430333333
5310;38781739000;35930333333;36430333333
5311;38781740000;35930333333;36430333333
5312;38781841000;35930344444;36430344444
5313;38781857000;35930611111;36430611111
5314;38781858000;35930611111;36430611111
5315;38813363000;35930611111;36430611111
5316;38863743000;35972022222;36472022222
5332;38904977000;36013688888;36513688888
5333;38904980000;36013688888;36513688888
5334;38905259000;36013700000;36513700000
5335;38905274000;36014000000;36514000000
5336;38905276000;36014000000;36514000000
5337;38905277000;36014000000;36514000000
5338;38945882000;36055366666;36555366666
5339;38945886000;36055366666;36555366666
5340;38945887000;36055366666;36555366666
5341;38945888000;36055366666;36555366666
5343;38946764000;36055366666;36555366666
5344;38946765000;36055366666;36555366666
5345;38946960000;36055388888;36555388888
5346;38946965000;36055677777;36555677777
5347;38946966000;36055677777;36555677777
5348;38946967000;36055677777;36555677777
5349;38987596000;36097000000;36597000000
5371;39066652000;36180366666;36680366666
5372;39066656000;36180366666;36680366666
5373;39066657000;36180366666;36680366666
5374;39066658000;36180366666;36680366666
5375;39066659000;36180366666;36680366666
5376;39066668000;36180366666;36680366666
5377;39066669000;36180366666;36680366666
5378;39066770000;36180400000;36680400000
5379;39066785000;36180711111;36680711111
5380;39066786000;36180711111;36680711111
5381;39066787000;36180711111;36680711111
5382;39104210000;36222022222;36722022222
5383;39104214000;36222022222;36722022222
5384;39104215000;36222022222;36722022222
5385;39104216000;36222022222;36722022222
5386;39104217000;36222022222;36722022222
5388;39104218000;36222022222;36722022222
5389;39104424000;36222044444;36722044444
5392;39134244000;36222311111;36722311111
5396;39225951000;36263666666;36763666666
5407;39267244000;36305355555;36805355555
5408;39267247000;36305355555;36805355555
5409;39267249000;36305355555;36805355555
5410;39267250000;36305355555;36805355555
5411;39267456000;36305377777;36805377777
5412;39267472000;36305655555;36805655555
5413;39267473000;36305655555;36805655555
5416;39305969000;36347022222;36847022222
5435;39346330000;36389011111;36889011111
5436;39346334000;36389011111;36889011111
5437;39384352000;36430333333;36930333333
5438;39384355000;36430333333;36930333333
5439;39384356000;36430333333;36930333333
5440;39384357000;36430333333;36930333333
5441;39384358000;36430333333;36930333333
5444;39384693000;36430344444;36930344444
5445;39384708000;36430633333;36930633333
5446;39384710000;36430633333;36930633333
5448;39420716000;36472022222;36972022222
5449;39420720000;36472022222;36972022222
5450;39420721000;36472022222;36972022222
5451;39420722000;36472022222;36972022222
5452;39420723000;36472022222;36972022222
5453;39420724000;36472022222;36972022222
5455;39420843000;36472044444;36972044444
