seqnum;now;rtptime;deadline
1;11131885000;10392400000;10892400000
3;11242993000;10423644444;10923644444
25;11696126000;10506955555;11006955555
69;11696282000;10673622222;11173622222
70;11696292000;10673622222;11173622222
71;11696294000;10673622222;11173622222
72;11696296000;10673622222;11173622222
73;11696298000;10673622222;11173622222
74;11696300000;10673622222;11173622222
75;11696302000;10673622222;11173622222
76;11696429000;10673644444;11173644444
77;11696445000;10673977777;11173977777
78;11696447000;10673977777;11173977777
79;11696448000;10673977777;11173977777
80;11696461000;10715300000;11215300000
81;11696464000;10715300000;11215300000
82;11732396000;10715300000;11215300000
83;11732399000;10715300000;11215300000
84;11732404000;10715300000;11215300000
85;11732461000;10715300000;11215300000
86;11732463000;10715300000;11215300000
87;11811453000;10715311111;11215311111
111;11811465000;10798933333;11298933333
112;11811467000;10798933333;11298933333
113;11947263000;10840300000;11340300000
114;11947273000;10840300000;11340300000
115;11947275000;10840300000;11340300000
116;11947277000;10840300000;11340300000
117;11947278000;10840300000;11340300000
118;11947280000;10840300000;11340300000
119;11947281000;10840300000;11340300000
120;11947513000;10840311111;11340311111
121;11947528000;10840622222;11340622222
122;11947530000;10840622222;11340622222
123;11947532000;10840622222;11340622222
125;12001689000;10881955555;11381955555
126;12001695000;10881955555;11381955555
127;12001696000;10881955555;11381955555
128;12001698000;10881955555;11381955555
129;12001700000;10881955555;11381955555
130;12032951000;10881955555;11381955555
131;12083499000;10881977777;11381977777
156;12083519000;10965644444;11465644444
161;12333713000;11006955555;11506955555
180;12333752000;11090288888;11590288888
183;12333756000;11090288888;11590288888
184;12333758000;11090288888;11590288888
185;12333760000;11090288888;11590288888
186;12467582000;11090311111;11590311111
202;12467597000;11173611111;11673611111
213;12634093000;11215288888;11715288888
228;12634122000;11256955555;11756955555
230;12634235000;11256977777;11756977777
239;12634252000;11298633333;11798633333
240;12634254000;11298633333;11798633333
241;12636368000;11298655555;11798655555
283;12636383000;11465288888;11965288888
286;12952932000;11465644444;11965644444
310;13008661000;11548933333;12048933333
359;13312846000;11756944444;12256944444
436;13312959000;12048611111;12548611111
437;13312962000;12048611111;12548611111
438;13312963000;12048611111;12548611111
440;13312974000;12048944444;12548944444
441;13312985000;12048944444;12548944444
442;13312986000;12048944444;12548944444
443;13313001000;12090288888;12590288888
444;13313002000;12090288888;12590288888
445;13313003000;12090288888;12590288888
446;13313004000;12090288888;12590288888
447;13313005000;12090288888;12590288888
448;13313006000;12090288888;12590288888
449;13313007000;12090288888;12590288888
450;13313102000;12090300000;12590300000
451;13313117000;12090611111;12590611111
452;13313119000;12090611111;12590611111
453;13313120000;12090611111;12590611111
454;13314120000;12131944444;12631944444
455;13314123000;12131944444;12631944444
456;13314124000;12131944444;12631944444
457;13314125000;12131944444;12631944444
458;13314126000;12131944444;12631944444
459;13534775000;12131944444;12631944444
460;13534780000;12131944444;12631944444
461;13585318000;12131966666;12631966666
511;13585331000;12340288888;12840288888
512;13585346000;12340288888;12840288888
515;13787590000;12340288888;12840288888
516;13787874000;12340300000;12840300000
517;13787890000;12340644444;12840644444
518;13787891000;12340644444;12840644444
520;13821877000;12381955555;12881955555
521;13821881000;12381955555;12881955555
522;13821883000;12381955555;12881955555
523;13821884000;12381955555;12881955555
524;13821885000;12381955555;12881955555
525;13821887000;12381955555;12881955555
526;13821888000;12381955555;12881955555
527;13821989000;12381977777;12881977777
528;13822005000;12382300000;12882300000
529;13822007000;12382300000;12882300000
530;13822008000;12382300000;12882300000
535;13851389000;12423633333;12923633333
588;13947702000;12631966666;13131966666
591;13947705000;12631966666;13131966666
592;13947706000;12631966666;13131966666
593;13947907000;12631977777;13131977777
594;13947922000;12632277777;13132277777
595;13947923000;12632277777;13132277777
596;13947924000;12632277777;13132277777
597;13960692000;12673622222;13173622222
598;13960695000;12673622222;13173622222
599;13960696000;12673622222;13173622222
600;13960697000;12673622222;13173622222
601;13960698000;12673622222;13173622222
602;13960699000;12673622222;13173622222
603;13960700000;12673622222;13173622222
605;13960810000;12673944444;13173944444
606;13960814000;12673944444;13173944444
607;13960815000;12673944444;13173944444
608;13983633000;12715288888;13215288888
612;13983636000;12715288888;13215288888
613;13983637000;12715288888;13215288888
614;13983638000;12715288888;13215288888
615;13983777000;12715300000;13215300000
616;14135442000;12715666666;13215666666
617;14135447000;12715666666;13215666666
618;14135448000;12715666666;13215666666
619;14227274000;12756944444;13256944444
670;14388482000;12923644444;13423644444
671;14388498000;12923911111;13423911111
672;14388499000;12923911111;13423911111
673;14388500000;12923911111;13423911111
674;14421982000;12965288888;13465288888
675;14421986000;12965288888;13465288888
676;14421987000;12965288888;13465288888
677;14421988000;12965288888;13465288888
678;14421989000;12965288888;13465288888
679;14421990000;12965288888;13465288888
680;14421990000;12965288888;13465288888
681;14422211000;12965300000;13465300000
682;14422227000;12965622222;13465622222
683;14422228000;12965622222;13465622222
684;14422229000;12965622222;13465622222
685;14451607000;13006944444;13506944444
754;14566805000;13256955555;13756955555
755;14566817000;13256955555;13756955555
756;14566820000;13256955555;13756955555
757;14566821000;13256955555;13756955555
758;14567030000;13256966666;13756966666
759;14567049000;13257266666;13757266666
761;14567051000;13257266666;13757266666
762;14580328000;13298611111;13798611111
763;14580332000;13298611111;13798611111
764;14580333000;13298611111;13798611111
765;14580334000;13298611111;13798611111
766;14580336000;13298611111;13798611111
767;14580337000;13298611111;13798611111
768;14580338000;13298611111;13798611111
769;14580538000;13298633333;13798633333
770;14580554000;13298933333;13798933333
771;14580555000;13298933333;13798933333
772;14580556000;13298933333;13798933333
773;14594150000;13340288888;13840288888
774;14594152000;13340288888;13840288888
775;14594154000;13340288888;13840288888
778;14736217000;13340288888;13840288888
779;14736225000;13340288888;13840288888
780;14786711000;13340300000;13840300000
830;14786726000;13548622222;14048622222
831;14786728000;13548622222;14048622222
833;14987895000;13548622222;14048622222
834;14987900000;13548622222;14048622222
835;14988224000;13548633333;14048633333
836;14988240000;13548955555;14048955555
837;14988241000;13548955555;14048955555
838;14988243000;13548955555;14048955555
840;15022225000;13590288888;14090288888
841;15022229000;13590288888;14090288888
842;15022230000;13590288888;14090288888
843;15022232000;13590288888;14090288888
844;15022233000;13590288888;14090288888
845;15022235000;13590288888;14090288888
846;15022338000;13590300000;14090300000
848;15022354000;13590644444;14090644444
849;15022355000;13590644444;14090644444
850;15051859000;13631955555;14131955555
912;15153813000;13840333333;14340333333
913;15153829000;13840700000;14340700000
914;15153830000;13840700000;14340700000
915;15153831000;13840700000;14340700000
916;15165840000;13881944444;14381944444
917;15165844000;13881944444;14381944444
918;15165845000;13881944444;14381944444
919;15165846000;13881944444;14381944444
920;15165847000;13881944444;14381944444
921;15165848000;13881944444;14381944444
922;15165849000;13881944444;14381944444
923;15166064000;13881966666;14381966666
924;15166070000;13882266666;14382266666
925;15166071000;13882266666;14382266666
926;15166072000;13882266666;14382266666
927;15180282000;13923611111;14423611111
928;15180285000;13923611111;14423611111
930;15180406000;13923611111;14423611111
931;15180415000;13923611111;14423611111
932;15180416000;13923611111;14423611111
933;15180427000;13923611111;14423611111
934;15180610000;13923633333;14423633333
935;15180625000;13923911111;14423911111
936;15336681000;13923911111;14423911111
937;15336699000;13923911111;14423911111
938;15387061000;13965288888;14465288888
992;15551497000;14132255555;14632255555
993;15589439000;14173611111;14673611111
994;15589442000;14173611111;14673611111
995;15589443000;14173611111;14673611111
996;15589444000;14173611111;14673611111
997;15589445000;14173611111;14673611111
998;15589447000;14173611111;14673611111
1001;15589574000;14173922222;14673922222
1002;15589577000;14173922222;14673922222
1003;15589578000;14173922222;14673922222
1004;15625635000;14215288888;14715288888
1005;15625638000;14215288888;14715288888
1006;15625639000;14215288888;14715288888
1007;15625640000;14215288888;14715288888
1009;15625641000;14215288888;14715288888
1010;15625642000;14215288888;14715288888
1011;15625842000;14215300000;14715300000
1012;15625857000;14215644444;14715644444
1013;15625859000;14215644444;14715644444
1014;15625859000;14215644444;14715644444
1015;15655085000;14256944444;14756944444
1072;15763934000;14465288888;14965288888
1073;15763944000;14465288888;14965288888
1074;15763945000;14465288888;14965288888
1075;15763947000;14465288888;14965288888
1076;15763949000;14465288888;14965288888
1078;15786063000;14465644444;14965644444
1079;15786076000;14465644444;14965644444
1080;15786079000;14465644444;14965644444
1081;15786182000;14506955555;15006955555
1082;15786186000;14506955555;15006955555
1083;15786196000;14506955555;15006955555
1084;15786198000;14506955555;15006955555
1085;15786200000;14506955555;15006955555
1086;15786202000;14506955555;15006955555
1087;15786204000;14506955555;15006955555
1088;15786279000;14506966666;15006966666
1089;15786283000;14507266666;15007266666
1090;15786285000;14507266666;15007266666
1091;15786287000;14507266666;15007266666
1092;15788061000;14548622222;15048622222
1094;15788162000;14548622222;15048622222
1095;15788164000;14548622222;15048622222
1096;15937275000;14548622222;15048622222
1097;15937286000;14548622222;15048622222
1098;15937298000;14548622222;15048622222
1099;15987727000;14548644444;15048644444
1150;15987731000;14756944444;15256944444
1151;15987733000;14756944444;15256944444
1152;15987734000;14756944444;15256944444
1155;16189600000;14757255555;15257255555
1156;16189608000;14757255555;15257255555
1157;16189611000;14757255555;15257255555
1159;16225261000;14798622222;15298622222
1161;16225265000;14798622222;15298622222
1163;16225267000;14798622222;15298622222
1164;16225268000;14798622222;15298622222
1165;16225371000;14798633333;15298633333
1166;16225387000;14798911111;15298911111
1167;16225388000;14798911111;15298911111
1168;16225390000;14798911111;15298911111
1169;16254722000;14840288888;15340288888
1235;16368244000;15090288888;15590288888
1236;16368248000;15090288888;15590288888
1237;16368249000;15090288888;15590288888
1238;16368250000;15090288888;15590288888
1239;16368251000;15090288888;15590288888
1240;16368252000;15090288888;15590288888
1241;16368253000;15090288888;15590288888
1242;16368453000;15090300000;15590300000
1243;16368468000;15090600000;15590600000
1244;16368469000;15090600000;15590600000
1245;16368470000;15090600000;15590600000
1246;16382111000;15131955555;15631955555
1247;16382114000;15131955555;15631955555
1248;16382116000;15131955555;15631955555
1249;16382117000;15131955555;15631955555
1250;16382118000;15131955555;15631955555
1251;16382119000;15131955555;15631955555
1252;16382119000;15131955555;15631955555
1253;16382290000;15131966666;15631966666
1254;16382295000;15132266666;15632266666
1255;16382296000;15132266666;15632266666
1256;16537930000;15132266666;15632266666
1263;16588365000;15173611111;15673611111
1311;16752745000;15340677777;15840677777
1312;16789669000;15381944444;15881944444
1313;16789673000;15381944444;15881944444
1314;16789674000;15381944444;15881944444
1315;16789675000;15381944444;15881944444
1316;16789676000;15381944444;15881944444
1317;16789677000;15381944444;15881944444
1319;16789907000;15381966666;15881966666
1320;16789923000;15382255555;15882255555
1321;16789924000;15382255555;15882255555
1323;16823940000;15423611111;15923611111
1324;16823944000;15423611111;15923611111
1325;16823945000;15423611111;15923611111
1326;16823946000;15423611111;15923611111
1327;16823947000;15423611111;15923611111
1328;16823948000;15423611111;15923611111
1329;16823949000;15423611111;15923611111
1330;16824060000;15423633333;15923633333
1331;16824077000;15423911111;15923911111
1332;16824078000;15423911111;15923911111
1336;16853542000;15465277777;15965277777
1392;16966153000;15673622222;16173622222
1393;16966172000;15673622222;16173622222
1394;16966174000;15673622222;16173622222
1395;16966176000;15673622222;16173622222
1396;16966404000;15673633333;16173633333
1397;16966420000;15673944444;16173944444
1398;16966421000;15673944444;16173944444
1399;16966423000;15673944444;16173944444
1400;16966440000;15715288888;16215288888
1401;16966452000;15715288888;16215288888
1402;16966453000;15715288888;16215288888
1404;16966455000;15715288888;16215288888
1405;16966456000;15715288888;16215288888
1406;16966458000;15715288888;16215288888
1407;16966539000;15715300000;16215300000
1408;16966555000;15715655555;16215655555
1409;16966556000;15715655555;16215655555
1410;16966558000;15715655555;16215655555
1411;16987502000;15756955555;16256955555
1412;16987512000;15756955555;16256955555
1413;16987515000;15756955555;16256955555
1414;16987516000;15756955555;16256955555
1415;16987517000;15756955555;16256955555
1416;17138523000;15756955555;16256955555
1417;17138525000;15756955555;16256955555
1418;17189027000;15756966666;16256966666
1471;17189051000;15965277777;16465277777
1472;17189052000;15965277777;16465277777
1473;17391212000;15965300000;16465300000
1474;17391235000;15965622222;16465622222
1475;17391236000;15965622222;16465622222
1476;17391237000;15965622222;16465622222
1477;17424434000;16006944444;16506944444
1478;17424439000;16006944444;16506944444
1479;17424440000;16006944444;16506944444
1480;17424451000;16006944444;16506944444
1481;17424452000;16006944444;16506944444
1482;17424454000;16006944444;16506944444
1483;17424455000;16006944444;16506944444
1484;17424579000;16006966666;16506966666
1486;17424768000;16007266666;16507266666
1487;17424771000;16007266666;16507266666
1488;17454124000;16048611111;16548611111
1551;17551826000;16257300000;16757300000
1552;17551830000;16257300000;16757300000
1553;17551831000;16257300000;16757300000
1554;17564838000;16298622222;16798622222
1555;17564842000;16298622222;16798622222
1556;17564843000;16298622222;16798622222
1557;17564844000;16298622222;16798622222
1558;17564845000;16298622222;16798622222
1559;17564846000;16298622222;16798622222
1560;17564847000;16298622222;16798622222
1561;17564973000;16298633333;16798633333
1562;17564978000;16298944444;16798944444
1563;17564979000;16298944444;16798944444
1564;17564981000;16298944444;16798944444
1566;17580262000;16340288888;16840288888
1567;17580265000;16340288888;16840288888
1568;17580266000;16340288888;16840288888
1570;17580267000;16340288888;16840288888
1571;17580268000;16340288888;16840288888
1572;17580355000;16340300000;16840300000
1573;17580360000;16340644444;16840644444
1574;17580361000;16340644444;16840644444
1575;17580363000;16340644444;16840644444
1576;17789527000;16381944444;16881944444
1633;17991863000;16590277777;17090277777
1634;17991867000;16590277777;17090277777
1635;17991868000;16590277777;17090277777
1636;17991869000;16590277777;17090277777
1637;17991870000;16590277777;17090277777
1638;17992098000;16590300000;17090300000
1639;17992114000;16590633333;17090633333
1640;17992116000;16590633333;17090633333
1641;17992117000;16590633333;17090633333
1642;18025325000;16631955555;17131955555
1643;18025328000;16631955555;17131955555
1644;18025329000;16631955555;17131955555
1645;18025330000;16631955555;17131955555
1646;18025332000;16631955555;17131955555
1647;18025333000;16631955555;17131955555
1648;18025334000;16631955555;17131955555
1649;18025552000;16631966666;17131966666
1650;18025568000;16632277777;17132277777
1651;18025569000;16632277777;17132277777
1652;18025580000;16632277777;17132277777
1653;18055034000;16673611111;17173611111
1712;18167517000;16881944444;17381944444
1713;18167527000;16881944444;17381944444
1714;18167529000;16881944444;17381944444
1715;18167756000;16881966666;17381966666
1716;18167772000;16882277777;17382277777
1717;18167774000;16882277777;17382277777
1718;18167775000;16882277777;17382277777
1719;18167791000;16923622222;17423622222
1720;18167803000;16923622222;17423622222
1721;18167804000;16923622222;17423622222
1722;18167806000;16923622222;17423622222
1723;18167807000;16923622222;17423622222
1724;18167809000;16923622222;17423622222
1725;18167810000;16923622222;17423622222
1726;18167932000;16923644444;17423644444
1727;18167948000;16923933333;17423933333
1728;18167950000;16923933333;17423933333
1729;18167951000;16923933333;17423933333
1730;18187782000;16965288888;17465288888
1731;18187793000;16965288888;17465288888
1732;18187795000;16965288888;17465288888
1733;18187796000;16965288888;17465288888
1734;18187798000;16965288888;17465288888
1736;18339813000;16965288888;17465288888
1737;18390338000;16965311111;17465311111
1789;18390353000;17173622222;17673622222
1790;18390354000;17173622222;17673622222
1791;18390355000;17173622222;17673622222
1792;18592553000;17173633333;17673633333
1793;18592574000;17173922222;17673922222
1794;18592576000;17173922222;17673922222
1795;18592577000;17173922222;17673922222
1796;18625817000;17215288888;17715288888
1797;18625820000;17215288888;17715288888
1798;18625822000;17215288888;17715288888
1799;18625824000;17215288888;17715288888
1800;18625825000;17215288888;17715288888
1801;18625826000;17215288888;17715288888
1803;18626161000;17215300000;17715300000
1804;18626177000;17215644444;17715644444
1806;18626179000;17215644444;17715644444
1807;18655531000;17256955555;17756955555
1872;18753624000;17465644444;17965644444
1873;18766727000;17506955555;18006955555
1874;18766731000;17506955555;18006955555
1875;18766732000;17506955555;18006955555
1876;18766733000;17506955555;18006955555
1877;18766733000;17506955555;18006955555
1878;18766734000;17506955555;18006955555
1879;18766735000;17506955555;18006955555
1880;18766935000;17506977777;18006977777
1881;18766951000;17507255555;18007255555
1882;18766952000;17507255555;18007255555
1883;18766953000;17507255555;18007255555
1884;18782067000;17548644444;18048644444
1885;18782079000;17548644444;18048644444
1886;18782080000;17548644444;18048644444
1887;18782081000;17548644444;18048644444
1888;18782082000;17548644444;18048644444
1889;18782083000;17548644444;18048644444
1890;18782084000;17548644444;18048644444
1891;18782255000;17548655555;18048655555
1892;18782259000;17548944444;18048944444
1893;18782260000;17548944444;18048944444
1894;18782261000;17548944444;18048944444
1895;18990842000;17590333333;18090333333
1950;19193995000;17798611111;18298611111
1951;19193998000;17798611111;18298611111
1955;19194000000;17798611111;18298611111
1956;19194001000;17798611111;18298611111
1957;19194216000;17798633333;18298633333
1958;19194232000;17798900000;18298900000
1959;19194233000;17798900000;18298900000
1960;19194234000;17798900000;18298900000
1961;19227411000;17840277777;18340277777
1962;19227414000;17840277777;18340277777
1963;19227415000;17840277777;18340277777
1964;19227416000;17840277777;18340277777
1965;19227417000;17840277777;18340277777
1966;19227418000;17840277777;18340277777
1967;19227419000;17840277777;18340277777
1968;19227627000;17840300000;18340300000
1969;19227643000;17840611111;18340611111
1970;19227644000;17840611111;18340611111
1971;19227645000;17840611111;18340611111
1972;19257059000;17881955555;18381955555
2032;19369849000;18090288888;18590288888
2033;19369858000;18090288888;18590288888
2034;19370093000;18090300000;18590300000
2035;19370109000;18090588888;18590588888
2037;19370111000;18090588888;18590588888
2039;19377586000;18131955555;18631955555
2040;19377591000;18131955555;18631955555
2041;19377592000;18131955555;18631955555
2042;19377594000;18131955555;18631955555
2043;19377596000;18131955555;18631955555
2044;19377597000;18131955555;18631955555
2045;19377721000;18131966666;18631966666
2046;19377764000;18132233333;18632233333
2047;19377766000;18132233333;18632233333
2048;19377767000;18132233333;18632233333
2049;19391854000;18173611111;18673611111
2050;19391865000;18173611111;18673611111
2051;19391867000;18173611111;18673611111
2052;19391880000;18173611111;18673611111
2053;19391881000;18173611111;18673611111
2054;19391883000;18173611111;18673611111
2055;19541028000;18173611111;18673611111
2056;19591729000;18173633333;18673633333
2112;19792908000;18382277777;18882277777
2113;19792913000;18382277777;18882277777
2114;19792914000;18382277777;18882277777
2115;19829229000;18423622222;18923622222
2116;19829233000;18423622222;18923622222
2117;19829235000;18423622222;18923622222
2118;19829236000;18423622222;18923622222
2119;19829238000;18423622222;18923622222
2120;19829239000;18423622222;18923622222
2121;19829240000;18423622222;18923622222
2122;19829459000;18423633333;18923633333
2123;19829475000;18423933333;18923933333
2124;19829477000;18423933333;18923933333
2125;19829478000;18423933333;18923933333
2126;19858775000;18465277777;18965277777
2190;19959618000;18673944444;19173944444
2191;19959621000;18673944444;19173944444
2192;19980684000;18715288888;19215288888
2193;19980688000;18715288888;19215288888
2194;19980689000;18715288888;19215288888
2195;19980690000;18715288888;19215288888
2196;19980691000;18715288888;19215288888
2197;19980692000;18715288888;19215288888
2198;19980693000;18715288888;19215288888
2201;19980807000;18715644444;19215644444
2202;19980811000;18715644444;19215644444
2203;20001734000;18756944444;19256944444
2204;20001738000;18756944444;19256944444
2205;20001739000;18756944444;19256944444
2206;20001740000;18756944444;19256944444
2207;20001741000;18756944444;19256944444
2208;20001742000;18756944444;19256944444
2209;20001743000;18756944444;19256944444
2210;20001962000;18756966666;19256966666
2211;20001978000;18757288888;19257288888
2212;20001980000;18757288888;19257288888
2213;20001981000;18757288888;19257288888
2214;20192142000;18798600000;19298600000
2269;20394345000;19006944444;19506944444
2270;20394350000;19006944444;19506944444
2271;20394351000;19006944444;19506944444
2272;20394352000;19006944444;19506944444
2273;20394353000;19006944444;19506944444
2274;20394354000;19006944444;19506944444
2275;20394355000;19006944444;19506944444
2276;20394573000;19006966666;19506966666
2277;20394590000;19007288888;19507288888
2278;20394591000;19007288888;19507288888
2280;20427988000;19048611111;19548611111
2281;20428001000;19048611111;19548611111
2282;20428002000;19048611111;19548611111
2283;20428004000;19048611111;19548611111
2284;20428006000;19048611111;19548611111
2285;20428008000;19048611111;19548611111
2286;20428010000;19048611111;19548611111
2287;20428090000;19048633333;19548633333
2288;20428095000;19049000000;19549000000
2289;20428097000;19049000000;19549000000
2290;20428098000;19049000000;19549000000
2295;20457472000;19090277777;19590277777
2348;20572393000;19298611111;19798611111
2349;20572403000;19298611111;19798611111
2350;20572405000;19298611111;19798611111
2351;20572407000;19298611111;19798611111
2352;20572408000;19298611111;19798611111
2353;20572634000;19298633333;19798633333
2354;20572650000;19298955555;19798955555
2355;20572652000;19298955555;19798955555
2356;20572653000;19298955555;19798955555
2357;20572671000;19340288888;19840288888
2358;20572683000;19340288888;19840288888
2359;20572684000;19340288888;19840288888
2360;20572685000;19340288888;19840288888
2361;20572688000;19340288888;19840288888
2362;20572689000;19340288888;19840288888
2363;20572691000;19340288888;19840288888
2364;20572777000;19340300000;19840300000
2365;20572793000;19340655555;19840655555
2367;20572795000;19340655555;19840655555
2368;20583548000;19381944444;19881944444
2369;20583558000;19381944444;19881944444
2370;20583560000;19381944444;19881944444
2371;20583562000;19381944444;19881944444
2373;20742801000;19381944444;19881944444
2374;20742818000;19381944444;19881944444
2375;20793325000;19381966666;19881966666
2426;20793340000;19590288888;20090288888
2427;20793342000;19590288888;20090288888
2428;20793342000;19590288888;20090288888
2429;20793353000;19590288888;20090288888
2430;20996223000;19590300000;20090300000
2431;20996237000;19590655555;20090655555
2432;20996249000;19590655555;20090655555
2433;20996251000;19590655555;20090655555
2435;21029091000;19631955555;20131955555
2436;21029094000;19631955555;20131955555
2437;21029096000;19631955555;20131955555
2438;21029098000;19631955555;20131955555
2439;21029109000;19631955555;20131955555
2440;21029111000;19631955555;20131955555
2441;21029188000;19631977777;20131977777
2442;21029192000;19632311111;20132311111
2443;21029195000;19632311111;20132311111
2444;21029196000;19632311111;20132311111
2445;21058610000;19673622222;20173622222
2508;21156454000;19882300000;20382300000
2509;21156458000;19882300000;20382300000
2510;21156459000;19882300000;20382300000
2511;21169496000;19923611111;20423611111
2512;21169509000;19923611111;20423611111
2513;21169510000;19923611111;20423611111
2514;21169511000;19923611111;20423611111
2515;21169511000;19923611111;20423611111
2517;21169513000;19923611111;20423611111
2518;21169713000;19923633333;20423633333
2519;21169728000;19923922222;20423922222
2520;21169729000;19923922222;20423922222
2521;21169731000;19923922222;20423922222
2522;21184753000;19965277777;20465277777
2523;21184756000;19965277777;20465277777
2524;21184757000;19965277777;20465277777
2525;21184758000;19965277777;20465277777
2526;21184759000;19965277777;20465277777
2527;21184760000;19965277777;20465277777
2528;21184761000;19965277777;20465277777
2529;21184932000;19965300000;20465300000
2530;21184936000;19965655555;20465655555
2532;21343479000;19965655555;20465655555
2535;21393870000;20006966666;20506966666
2589;21595615000;20215288888;20715288888
2590;21595618000;20215288888;20715288888
2591;21595619000;20215288888;20715288888
2594;21595620000;20215288888;20715288888
2595;21595695000;20215300000;20715300000
2596;21595698000;20215677777;20715677777
2597;21595699000;20215677777;20715677777
2598;21595700000;20215677777;20715677777
2599;21629804000;20256944444;20756944444
2600;21629807000;20256944444;20756944444
2601;21629808000;20256944444;20756944444
2602;21629809000;20256944444;20756944444
2603;21629810000;20256944444;20756944444
2604;21629811000;20256944444;20756944444
2605;21629812000;20256944444;20756944444
2606;21629962000;20256966666;20756966666
2607;21629965000;20257288888;20757288888
2608;21629966000;20257288888;20757288888
2609;21629967000;20257288888;20757288888
2610;21659613000;20298633333;20798633333
2668;21774550000;20506944444;21006944444
2669;21774561000;20506944444;21006944444
2670;21774562000;20506944444;21006944444
2671;21774564000;20506944444;21006944444
2672;21774793000;20506966666;21006966666
2673;21774809000;20507233333;21007233333
2674;21774811000;20507233333;21007233333
2675;21774812000;20507233333;21007233333
2676;21774828000;20548622222;21048622222
2677;21774829000;20548622222;21048622222
2678;21774841000;20548622222;21048622222
2679;21774843000;20548622222;21048622222
2680;21774844000;20548622222;21048622222
2681;21774845000;20548622222;21048622222
2682;21774847000;20548622222;21048622222
2683;21774934000;20548644444;21048644444
2684;21774951000;20548933333;21048933333
2685;21774952000;20548933333;21048933333
2686;21774954000;20548933333;21048933333
2687;21785748000;20590288888;21090288888
2688;21785758000;20590288888;21090288888
2689;21785759000;20590288888;21090288888
2690;21785762000;20590288888;21090288888
2691;21944089000;20590288888;21090288888
2693;21944232000;20590288888;21090288888
2694;21994764000;20590311111;21090311111
2744;22195919000;20798611111;21298611111
2745;22195926000;20798611111;21298611111
2746;22195929000;20798611111;21298611111
2747;22195931000;20798611111;21298611111
2748;22195933000;20798611111;21298611111
2749;22196196000;20798633333;21298633333
2751;22196211000;20798911111;21298911111
2752;22196214000;20798911111;21298911111
2753;22230192000;20840288888;21340288888
2754;22230196000;20840288888;21340288888
2755;22230197000;20840288888;21340288888
2756;22230199000;20840288888;21340288888
2758;22230210000;20840288888;21340288888
2759;22230212000;20840288888;21340288888
2760;22230386000;20840300000;21340300000
2761;22230390000;20840611111;21340611111
2762;22230392000;20840611111;21340611111
2763;22230394000;20840611111;21340611111
2766;22259874000;20881944444;21381944444
2822;22357561000;21090288888;21590288888
2823;22357565000;21090288888;21590288888
2824;22357566000;21090288888;21590288888
2825;22357567000;21090288888;21590288888
2826;22357669000;21090300000;21590300000
2827;22357684000;21090600000;21590600000
2829;22357686000;21090600000;21590600000
2830;22371575000;21131955555;21631955555
2832;22371578000;21131955555;21631955555
2834;22371579000;21131955555;21631955555
2835;22371580000;21131955555;21631955555
2836;22371581000;21131955555;21631955555
2837;22371788000;21131966666;21631966666
2838;22371804000;21132244444;21632244444
2839;22371805000;21132244444;21632244444
2840;22371806000;21132244444;21632244444
2841;22386710000;21173611111;21673611111
2843;22386714000;21173611111;21673611111
2844;22386715000;21173611111;21673611111
2845;22386716000;21173611111;21673611111
2846;22386717000;21173611111;21673611111
2847;22386718000;21173611111;21673611111
2850;22386790000;21173911111;21673911111
2853;22595068000;21215300000;21715300000
2908;22796707000;21423611111;21923611111
2909;22796711000;21423611111;21923611111
2910;22796712000;21423611111;21923611111
2911;22796713000;21423611111;21923611111
2912;22796714000;21423611111;21923611111
2913;22796715000;21423611111;21923611111
2914;22796907000;21423633333;21923633333
2915;22796910000;21423888888;21923888888
2916;22796911000;21423888888;21923888888
2917;22796912000;21423888888;21923888888
2918;22830697000;21465277777;21965277777
2919;22830701000;21465277777;21965277777
2920;22830702000;21465277777;21965277777
2921;22830703000;21465277777;21965277777
2922;22830704000;21465277777;21965277777
2923;22830705000;21465277777;21965277777
2924;22830706000;21465277777;21965277777
2925;22830905000;21465300000;21965300000
2926;22830920000;21465622222;21965622222
2927;22830921000;21465622222;21965622222
2928;22830922000;21465622222;21965622222
2929;22860373000;21506966666;22006966666
2987;22977096000;21715288888;22215288888
2988;22977107000;21715288888;22215288888
2989;22977109000;21715288888;22215288888
2990;22977111000;21715288888;22215288888
2991;22977340000;21715300000;22215300000
2992;22977356000;21715600000;22215600000
2994;22977357000;21715600000;22215600000
2995;22977374000;21756944444;22256944444
2996;22977386000;21756944444;22256944444
2997;22977387000;21756944444;22256944444
2998;22977389000;21756944444;22256944444
2999;22977390000;21756944444;22256944444
3000;22977391000;21756944444;22256944444
3001;22977393000;21756944444;22256944444
3002;22977480000;21756966666;22256966666
3003;22977495000;21757244444;22257244444
3004;22977497000;21757244444;22257244444
3005;22977498000;21757244444;22257244444
3006;22987200000;21798722222;22298722222
3007;22987208000;21798722222;22298722222
3008;22987210000;21798722222;22298722222
3010;22987212000;21798722222;22298722222
3011;23145491000;21798722222;22298722222
3012;23145493000;21798722222;22298722222
3013;23196018000;21798744444;22298744444
3067;23196034000;22006955555;22506955555
3068;23399560000;22006966666;22506966666
3070;23399584000;22007266666;22507266666
3072;23431425000;22048611111;22548611111
3073;23431429000;22048611111;22548611111
3074;23431430000;22048611111;22548611111
3075;23431431000;22048611111;22548611111
3076;23431433000;22048611111;22548611111
3077;23431434000;22048611111;22548611111
3078;23431435000;22048611111;22548611111
3079;23431537000;22048633333;22548633333
3080;23431553000;22048944444;22548944444
3081;23431555000;22048944444;22548944444
3082;23431556000;22048944444;22548944444
3083;23461126000;22090288888;22590288888
3144;23559149000;22298611111;22798611111
3145;23559359000;22298633333;22798633333
3146;23559374000;22298911111;22798911111
3147;23559376000;22298911111;22798911111
3148;23559376000;22298911111;22798911111
3150;23573037000;22340288888;22840288888
3151;23573041000;22340288888;22840288888
3153;23573056000;22340288888;22840288888
3155;23573057000;22340288888;22840288888
3156;23573166000;22340300000;22840300000
3157;23573182000;22340633333;22840633333
3158;23573184000;22340633333;22840633333
3159;23573185000;22340633333;22840633333
3160;23588079000;22381944444;22881944444
3161;23588092000;22381944444;22881944444
3162;23588093000;22381944444;22881944444
3163;23588094000;22381944444;22881944444
3164;23588095000;22381944444;22881944444
3165;23588096000;22381944444;22881944444
3166;23588097000;22381944444;22881944444
3168;23588169000;22382266666;22882266666
3169;23588171000;22382266666;22882266666
3170;23588172000;22382266666;22882266666
3171;23796924000;22423644444;22923644444
3224;23961330000;22590611111;23090611111
3225;23961334000;22590611111;23090611111
3226;23998277000;22631944444;23131944444
3227;23998281000;22631944444;23131944444
3228;23998282000;22631944444;23131944444
3229;23998283000;22631944444;23131944444
3230;23998284000;22631944444;23131944444
3231;23998285000;22631944444;23131944444
3232;23998286000;22631944444;23131944444
3233;23998505000;22631966666;23131966666
3234;23998521000;22632255555;23132255555
3235;23998523000;22632255555;23132255555
3236;23998523000;22632255555;23132255555
3237;24032566000;22673622222;23173622222
3238;24032570000;22673622222;23173622222
3239;24032571000;22673622222;23173622222
3243;24033060000;22673622222;23173622222
3244;24033282000;22673633333;23173633333
3246;24033299000;22673922222;23173922222
3247;24033300000;22673922222;23173922222
3248;24062321000;22715311111;23215311111
3308;24178979000;22923611111;23423611111
3309;24178990000;22923611111;23423611111
3310;24179231000;22923633333;23423633333
3311;24179246000;22923911111;23423911111
3312;24179248000;22923911111;23423911111
3313;24179249000;22923911111;23423911111
3314;24179265000;22965288888;23465288888
3315;24179277000;22965288888;23465288888
3316;24179279000;22965288888;23465288888
3317;24179280000;22965288888;23465288888
3318;24179282000;22965288888;23465288888
3319;24179283000;22965288888;23465288888
3320;24179284000;22965288888;23465288888
3321;24179403000;22965311111;23465311111
3322;24179419000;22965655555;23465655555
3323;24179421000;22965655555;23465655555
3324;24179422000;22965655555;23465655555
3325;24189560000;23006966666;23506966666
3326;24189570000;23006966666;23506966666
3327;24189571000;23006966666;23506966666
3328;24189573000;23006966666;23506966666
3329;24189574000;23006966666;23506966666
3330;24189576000;23006966666;23506966666
3331;24347200000;23006966666;23506966666
3332;24397693000;23006988888;23506988888
3387;24600300000;23215322222;23715322222
3388;24600320000;23215655555;23715655555
3389;24600321000;23215655555;23715655555
3390;24600323000;23215655555;23715655555
3392;24633428000;23256977777;23756977777
3393;24633431000;23256977777;23756977777
3394;24633433000;23256977777;23756977777
3395;24633434000;23256977777;23756977777
3396;24633436000;23256977777;23756977777
3397;24633437000;23256977777;23756977777
3398;24633540000;23256988888;23756988888
3399;24633556000;23257288888;23757288888
3400;24633557000;23257288888;23757288888
3401;24633559000;23257288888;23757288888
3402;24663011000;23298700000;23798700000
3468;24782731000;23548611111;24048611111
3469;24782735000;23548611111;24048611111
3470;24782736000;23548611111;24048611111
3471;24782737000;23548611111;24048611111
3472;24782738000;23548611111;24048611111
3473;24782739000;23548611111;24048611111
3474;24782740000;23548611111;24048611111
3475;24782940000;23548633333;24048633333
3476;24782955000;23548944444;24048944444
3477;24782956000;23548944444;24048944444
3478;24782957000;23548944444;24048944444
3479;24795780000;23590277777;24090277777
3480;24795783000;23590277777;24090277777
3481;24795784000;23590277777;24090277777
3482;24795785000;23590277777;24090277777
3483;24795786000;23590277777;24090277777
3484;24795787000;23590277777;24090277777
3485;24795788000;23590277777;24090277777
3486;24796063000;23590300000;24090300000
3487;24796087000;23590633333;24090633333
3488;24796088000;23590633333;24090633333
3489;24796089000;23590633333;24090633333
3490;24809135000;23631977777;24131977777
3491;24947768000;23631977777;24131977777
3492;24947789000;23631977777;24131977777
3493;24947804000;23631977777;24131977777
3494;24947876000;23631977777;24131977777
3495;24947943000;23631977777;24131977777
3496;24948029000;23631977777;24131977777
3497;24998512000;23632000000;24132000000
3546;24998527000;23840277777;24340277777
3547;24998529000;23840277777;24340277777
3549;25200777000;23840277777;24340277777
3550;25200779000;23840277777;24340277777
3551;25200780000;23840277777;24340277777
3552;25201001000;23840300000;24340300000
3553;25201017000;23840611111;24340611111
3556;25235141000;23881944444;24381944444
3557;25235145000;23881944444;24381944444
3559;25235146000;23881944444;24381944444
3560;25235147000;23881944444;24381944444
3561;25235148000;23881944444;24381944444
3562;25235149000;23881944444;24381944444
3564;25235160000;23882266666;24382266666
3565;25235162000;23882266666;24382266666
3566;25235163000;23882266666;24382266666
3567;25268129000;23923633333;24423633333
3628;25382833000;24131955555;24631955555
3629;25383084000;24131966666;24631966666
3630;25383100000;24132255555;24632255555
3631;25383101000;24132255555;24632255555
3632;25383103000;24132255555;24632255555
3633;25383120000;24173611111;24673611111
3634;25383132000;24173611111;24673611111
3635;25383133000;24173611111;24673611111
3636;25383135000;24173611111;24673611111
3637;25383136000;24173611111;24673611111
3638;25383138000;24173611111;24673611111
3639;25383139000;24173611111;24673611111
3640;25383266000;24173633333;24673633333
3641;25383282000;24173922222;24673922222
3642;25383283000;24173922222;24673922222
3643;25383284000;24173922222;24673922222
3644;25392645000;24215300000;24715300000
3645;25392655000;24215300000;24715300000
3646;25392656000;24215300000;24715300000
3647;25392658000;24215300000;24715300000
3648;25392659000;24215300000;24715300000
3649;25392661000;24215300000;24715300000
3650;25392662000;24215300000;24715300000
3651;25598892000;24215322222;24715322222
3703;25598908000;24423611111;24923611111
3704;25598909000;24423611111;24923611111
3705;25598910000;24423611111;24923611111
3706;25803905000;24423633333;24923633333
3707;25803918000;24423922222;24923922222
3708;25803920000;24423922222;24923922222
3709;25803921000;24423922222;24923922222
3710;25834764000;24465277777;24965277777
3711;25834768000;24465277777;24965277777
3712;25834769000;24465277777;24965277777
3713;25834770000;24465277777;24965277777
3719;25834986000;24465622222;24965622222
3720;25834990000;24465622222;24965622222
3721;25867842000;24506977777;25006977777
3786;25964592000;24715611111;25215611111
3789;25978067000;24756944444;25256944444
3790;25978071000;24756944444;25256944444
3791;25978072000;24756944444;25256944444
3792;25978073000;24756944444;25256944444
3793;25978074000;24756944444;25256944444
3794;25978212000;24756966666;25256966666
3795;25978227000;24757255555;25257255555
3796;25978229000;24757255555;25257255555
3797;25978230000;24757255555;25257255555
3798;25993377000;24799077777;25299077777
3799;25993380000;24799077777;25299077777
3800;25993381000;24799077777;25299077777
3801;25993382000;24799077777;25299077777
3802;25993383000;24799077777;25299077777
3803;25993384000;24799077777;25299077777
3804;25993385000;24799077777;25299077777
3805;25993592000;24799766666;25299766666
3806;25993608000;24800088888;25300088888
3807;25993609000;24800088888;25300088888
3808;25993610000;24800088888;25300088888
3809;26007494000;24840300000;25340300000
3810;26007498000;24840300000;25340300000
3811;26149019000;24840300000;25340300000
3812;26149156000;24840300000;25340300000
3813;26149165000;24840300000;25340300000
3814;26149319000;24840300000;25340300000
3815;26149429000;24840300000;25340300000
3816;26199901000;24840311111;25340311111
3867;26199917000;25048622222;25548622222
3868;26199918000;25048622222;25548622222
3869;26199919000;25048622222;25548622222
3870;26199920000;25048622222;25548622222
3871;26402065000;25048644444;25548644444
3872;26402072000;25048955555;25548955555
3873;26402073000;25048955555;25548955555
3874;26402075000;25048955555;25548955555
3875;26435422000;25090277777;25590277777
3876;26435426000;25090277777;25590277777
3877;26435439000;25090277777;25590277777
3878;26435441000;25090277777;25590277777
3879;26435442000;25090277777;25590277777
3881;26435913000;25090277777;25590277777
3882;26436138000;25090300000;25590300000
3883;26436154000;25090600000;25590600000
3884;26436155000;25090600000;25590600000
3885;26436156000;25090600000;25590600000
3886;26465208000;25131966666;25631966666
3946;26583315000;25340288888;25840288888
3947;26583325000;25340288888;25840288888
3948;26583552000;25340300000;25840300000
3949;26583568000;25340655555;25840655555
3950;26583570000;25340655555;25840655555
3951;26583571000;25340655555;25840655555
3952;26583588000;25381944444;25881944444
3953;26583589000;25381944444;25881944444
3954;26583601000;25381944444;25881944444
3955;26583602000;25381944444;25881944444
3956;26583603000;25381944444;25881944444
3957;26583605000;25381944444;25881944444
3958;26583606000;25381944444;25881944444
3960;26583611000;25382266666;25882266666
3962;26583613000;25382266666;25882266666
3963;26604628000;25423644444;25923644444
3964;26604640000;25423644444;25923644444
3965;26604642000;25423644444;25923644444
3966;26604644000;25423644444;25923644444
3967;26604645000;25423644444;25923644444
3969;26604647000;25423644444;25923644444
3970;26604841000;25423666666;25923666666
3973;26750775000;25423922222;25923922222
3974;26841647000;25465300000;25965300000
4028;27005775000;25632255555;26132255555
4029;27035459000;25673611111;26173611111
4030;27035463000;25673611111;26173611111
4031;27035465000;25673611111;26173611111
4032;27035467000;25673611111;26173611111
4033;27035468000;25673611111;26173611111
4035;27035470000;25673611111;26173611111
4036;27035678000;25673633333;26173633333
4037;27035694000;25673922222;26173922222
4038;27035696000;25673922222;26173922222
4039;27035698000;25673922222;26173922222
4040;27065275000;25715300000;26215300000
4108;27185321000;25965288888;26465288888
4109;27185324000;25965288888;26465288888
4110;27185325000;25965288888;26465288888
4111;27185326000;25965288888;26465288888
4112;27185327000;25965288888;26465288888
4113;27185528000;25965300000;26465300000
4114;27185543000;25965633333;26465633333
4115;27185544000;25965633333;26465633333
4116;27185545000;25965633333;26465633333
4117;27198629000;26006977777;26506977777
4118;27198632000;26006977777;26506977777
4119;27198633000;26006977777;26506977777
4120;27198634000;26006977777;26506977777
4121;27198635000;26006977777;26506977777
4122;27198636000;26006977777;26506977777
4123;27198637000;26006977777;26506977777
4124;27198809000;26006988888;26506988888
4125;27198813000;26007277777;26507277777
4126;27198814000;26007277777;26507277777
4127;27198815000;26007277777;26507277777
4128;27212172000;26048622222;26548622222
4129;27212175000;26048622222;26548622222
4130;27212176000;26048622222;26548622222
4131;27350351000;26048622222;26548622222
4134;27350461000;26048622222;26548622222
4135;27401059000;26048644444;26548644444
4183;27401066000;26256944444;26756944444
4184;27401067000;26256944444;26756944444
4185;27401068000;26256944444;26756944444
4186;27401069000;26256944444;26756944444
4187;27401070000;26256944444;26756944444
4188;27401071000;26256944444;26756944444
4189;27401071000;26256944444;26756944444
4190;27603777000;26256966666;26756966666
4191;27603794000;26257266666;26757266666
4192;27603795000;26257266666;26757266666
4193;27603796000;26257266666;26757266666
4194;27637154000;26298611111;26798611111
4195;27637157000;26298611111;26798611111
4196;27637159000;26298611111;26798611111
4197;27637160000;26298611111;26798611111
4198;27637161000;26298611111;26798611111
4199;27637161000;26298611111;26798611111
4200;27637162000;26298611111;26798611111
4201;27637370000;26298633333;26798633333
4203;27637437000;26298944444;26798944444
4204;27637439000;26298944444;26798944444
4209;27666871000;26340311111;26840311111
4263;27785227000;26548611111;27048611111
4264;27785238000;26548611111;27048611111
4265;27785240000;26548611111;27048611111
4266;27785242000;26548611111;27048611111
4267;27785469000;26548633333;27048633333
4268;27785484000;26548933333;27048933333
4269;27785486000;26548933333;27048933333
4270;27785505000;26548933333;27048933333
4271;27785521000;26590277777;27090277777
4272;27785533000;26590277777;27090277777
4273;27785534000;26590277777;27090277777
4274;27785536000;26590277777;27090277777
4275;27785537000;26590277777;27090277777
4276;27785538000;26590277777;27090277777
4277;27785540000;26590277777;27090277777
4278;27785652000;26590300000;27090300000
4279;27785668000;26590633333;27090633333
4280;27785669000;26590633333;27090633333
4281;27785671000;26590633333;27090633333
4282;27794448000;26631966666;27131966666
4287;27794484000;26631966666;27131966666
4288;27794487000;26631966666;27131966666
4289;27794676000;26631988888;27131988888
4290;27951142000;26632277777;27132277777
4291;27951144000;26632277777;27132277777
4292;27951146000;26632277777;27132277777
4293;28043063000;26673633333;27173633333
4348;28238892000;26881944444;27381944444
4350;28238897000;26881944444;27381944444
4351;28238899000;26881944444;27381944444
4352;28238900000;26881944444;27381944444
4353;28238902000;26881944444;27381944444
4354;28238903000;26881944444;27381944444
4355;28239016000;26881966666;27381966666
4356;28239033000;26882300000;27382300000
4357;28239034000;26882300000;27382300000
4358;28239036000;26882300000;27382300000
4359;28268518000;26923633333;27423633333
4427;28381155000;27173611111;27673611111
4428;28381159000;27173611111;27673611111
4429;28381160000;27173611111;27673611111
4430;28381161000;27173611111;27673611111
4431;28381162000;27173611111;27673611111
4432;28381369000;27173633333;27673633333
4433;28381385000;27173933333;27673933333
4434;28381386000;27173933333;27673933333
4435;28381387000;27173933333;27673933333
4436;28395694000;27215311111;27715311111
4437;28395698000;27215311111;27715311111
4438;28395699000;27215311111;27715311111
4439;28395700000;27215311111;27715311111
4440;28395702000;27215311111;27715311111
4441;28395703000;27215311111;27715311111
4442;28395704000;27215311111;27715311111
4443;28396026000;27215333333;27715333333
4445;28396031000;27215655555;27715655555
4446;28396032000;27215655555;27715655555
4447;28410342000;27256955555;27756955555
4448;28410346000;27256955555;27756955555
4449;28410347000;27256955555;27756955555
4450;28551688000;27256955555;27756955555
4451;28551755000;27256955555;27756955555
4452;28551810000;27256955555;27756955555
4453;28551866000;27256955555;27756955555
4456;28602491000;27257266666;27757266666
4507;28804395000;27465277777;27965277777
4508;28804399000;27465277777;27965277777
4509;28804605000;27465300000;27965300000
4510;28804621000;27465622222;27965622222
4511;28804622000;27465622222;27965622222
4512;28804623000;27465622222;27965622222
4513;28837949000;27507000000;28007000000
4514;28837952000;27507000000;28007000000
4515;28837953000;27507000000;28007000000
4516;28837954000;27507000000;28007000000
4517;28837956000;27507000000;28007000000
4518;28837956000;27507000000;28007000000
4519;28837957000;27507000000;28007000000
4520;28838166000;27507011111;28007011111
4521;28838182000;27507266666;28007266666
4522;28838183000;27507266666;28007266666
4523;28838184000;27507266666;28007266666
4524;28867700000;27548622222;28048622222
4585;28988232000;27756944444;28256944444
4586;28988470000;27756966666;28256966666
4587;28988486000;27757244444;28257244444
4589;28988487000;27757244444;28257244444
4590;28988505000;27798611111;28298611111
4591;28988517000;27798611111;28298611111
4592;28988518000;27798611111;28298611111
4593;28988520000;27798611111;28298611111
4594;28988521000;27798611111;28298611111
4595;28988522000;27798611111;28298611111
4597;28988634000;27798633333;28298633333
4598;28988650000;27798911111;28298911111
4599;28988651000;27798911111;28298911111
4600;28988652000;27798911111;28298911111
4601;28996150000;27840300000;28340300000
4602;28996159000;27840300000;28340300000
4603;28996161000;27840300000;28340300000
4604;28996163000;27840300000;28340300000
4605;28996164000;27840300000;28340300000
4606;28996165000;27840300000;28340300000
4608;28996382000;27840322222;28340322222
4609;28996397000;27840611111;28340611111
4610;29152486000;27840611111;28340611111
4611;29152488000;27840611111;28340611111
4612;29202934000;27881966666;28381966666
4666;29389107000;28048977777;28548977777
4667;29410385000;28090277777;28590277777
4668;29410396000;28090277777;28590277777
4669;29410398000;28090277777;28590277777
4670;29410400000;28090277777;28590277777
4671;29410401000;28090277777;28590277777
4672;29410403000;28090277777;28590277777
4673;29410404000;28090277777;28590277777
4674;29410661000;28090300000;28590300000
4675;29410669000;28090600000;28590600000
4676;29410670000;28090600000;28590600000
4678;29438857000;28131977777;28631977777
4679;29438861000;28131977777;28631977777
4680;29438862000;28131977777;28631977777
4681;29438863000;28131977777;28631977777
4682;29438865000;28131977777;28631977777
4683;29438866000;28131977777;28631977777
4684;29438868000;28131977777;28631977777
4685;29438979000;28132000000;28632000000
4686;29438996000;28132255555;28632255555
4687;29438997000;28132255555;28632255555
4688;29438999000;28132255555;28632255555
4689;29468499000;28173622222;28673622222
4744;29567518000;28381944444;28881944444
4745;29567522000;28381944444;28881944444
4746;29567523000;28381944444;28881944444
4747;29567524000;28381944444;28881944444
4748;29567525000;28381944444;28881944444
4749;29567526000;28381944444;28881944444
4750;29567527000;28381944444;28881944444
4751;29567735000;28381966666;28881966666
4752;29567751000;28382277777;28882277777
4753;29567752000;28382277777;28882277777
4754;29567753000;28382277777;28882277777
4755;29580918000;28423633333;28923633333
4756;29580921000;28423633333;28923633333
4757;29580922000;28423633333;28923633333
4758;29580923000;28423633333;28923633333
4759;29580924000;28423633333;28923633333
4760;29580925000;28423633333;28923633333
4761;29580926000;28423633333;28923633333
4762;29581140000;28423655555;28923655555
4763;29581156000;28423933333;28923933333
4764;29581157000;28423933333;28923933333
4765;29581158000;28423933333;28923933333
4766;29596405000;28465288888;28965288888
4768;29753166000;28465288888;28965288888
4769;29753168000;28465288888;28965288888
4770;29753169000;28465288888;28965288888
4771;29753411000;28465288888;28965288888
4772;29753413000;28465288888;28965288888
4773;29804008000;28465311111;28965311111
4821;29804024000;28673611111;29173611111
4822;29804025000;28673611111;29173611111
4823;29804026000;28673611111;29173611111
4824;29804027000;28673611111;29173611111
4825;29804027000;28673611111;29173611111
4826;29804028000;28673611111;29173611111
4828;30005583000;28673633333;29173633333
4829;30005598000;28673944444;29173944444
4830;30005599000;28673944444;29173944444
4831;30005600000;28673944444;29173944444
4833;30039640000;28715300000;29215300000
4834;30039644000;28715300000;29215300000
4835;30039645000;28715300000;29215300000
4836;30039646000;28715300000;29215300000
4837;30039647000;28715300000;29215300000
4838;30039648000;28715300000;29215300000
4839;30039751000;28715322222;29215322222
4840;30039767000;28715655555;29215655555
4841;30039768000;28715655555;29215655555
4846;30069367000;28756955555;29256955555
4904;30189992000;28965277777;29465277777
4905;30190230000;28965300000;29465300000
4906;30190246000;28965655555;29465655555
4907;30190248000;28965655555;29465655555
4908;30190249000;28965655555;29465655555
4909;30190264000;29007088888;29507088888
4910;30190266000;29007088888;29507088888
4911;30190277000;29007088888;29507088888
4912;30190279000;29007088888;29507088888
4913;30190280000;29007088888;29507088888
4914;30190282000;29007088888;29507088888
4915;30190283000;29007088888;29507088888
4916;30190395000;29008533333;29508533333
4917;30190411000;29008900000;29508900000
4918;30190413000;29008900000;29508900000
4919;30190415000;29008900000;29508900000
4920;30199601000;29048633333;29548633333
4921;30199611000;29048633333;29548633333
4922;30199612000;29048633333;29548633333
4923;30199614000;29048633333;29548633333
4924;30199615000;29048633333;29548633333
4925;30199617000;29048633333;29548633333
4926;30199618000;29048633333;29548633333
4927;30404382000;29048644444;29548644444
4981;30404398000;29256966666;29756966666
4982;30612873000;29256988888;29756988888
4983;30612895000;29257311111;29757311111
4984;30612915000;29257311111;29757311111
4986;30640415000;29298633333;29798633333
4987;30640420000;29298633333;29798633333
4988;30640422000;29298633333;29798633333
4989;30640424000;29298633333;29798633333
4990;30640425000;29298633333;29798633333
4991;30640427000;29298633333;29798633333
4992;30640428000;29298633333;29798633333
4993;30640553000;29298655555;29798655555
4994;30640569000;29298977777;29798977777
4999;30669838000;29340311111;29840311111
5060;30775111000;29548944444;30048944444
5061;30775115000;29548944444;30048944444
5062;30775116000;29548944444;30048944444
5063;30787193000;29590288888;30090288888
5064;30787197000;29590288888;30090288888
5066;30787302000;29590288888;30090288888
5067;30787304000;29590288888;30090288888
5068;30787306000;29590288888;30090288888
5070;30787515000;29590311111;30090311111
5071;30787530000;29590655555;30090655555
5072;30787531000;29590655555;30090655555
5073;30787532000;29590655555;30090655555
5074;30801640000;29631977777;30131977777
5075;30801644000;29631977777;30131977777
5076;30801645000;29631977777;30131977777
5077;30801646000;29631977777;30131977777
5078;30801647000;29631977777;30131977777
5079;30801648000;29631977777;30131977777
5080;30801649000;29631977777;30131977777
5081;30801794000;29631988888;30131988888
5082;30801797000;29632277777;30132277777
5083;30801798000;29632277777;30132277777
5084;30801799000;29632277777;30132277777
5088;31005187000;29673622222;30173622222
5140;31207437000;29881944444;30381944444
5141;31207441000;29881944444;30381944444
5142;31207442000;29881944444;30381944444
5143;31207443000;29881944444;30381944444
5144;31207444000;29881944444;30381944444
5145;31207445000;29881944444;30381944444
5146;31207446000;29881944444;30381944444
5147;31207665000;29881966666;30381966666
5148;31207681000;29882277777;30382277777
5149;31207683000;29882277777;30382277777
5150;31207684000;29882277777;30382277777
5151;31241006000;29923644444;30423644444
5153;31241075000;29923644444;30423644444
5154;31241077000;29923644444;30423644444
5155;31241078000;29923644444;30423644444
5156;31241079000;29923644444;30423644444
5158;31241236000;29923666666;30423666666
5159;31241239000;29923933333;30423933333
5160;31241240000;29923933333;30423933333
5161;31241241000;29923933333;30423933333
5162;31270838000;29965288888;30465288888
5222;31392206000;30173611111;30673611111
5223;31392226000;30173611111;30673611111
5224;31392454000;30173633333;30673633333
5225;31392470000;30173922222;30673922222
5226;31392472000;30173922222;30673922222
5227;31392473000;30173922222;30673922222
5228;31392489000;30215300000;30715300000
5229;31392491000;30215300000;30715300000
5230;31392502000;30215300000;30715300000
5232;31392504000;30215300000;30715300000
5233;31392505000;30215300000;30715300000
5234;31392507000;30215300000;30715300000
5235;31392617000;30215322222;30715322222
5236;31392633000;30215677777;30715677777
5237;31392635000;30215677777;30715677777
5238;31392636000;30215677777;30715677777
5239;31401634000;30256966666;30756966666
5240;31401643000;30256966666;30756966666
5241;31401645000;30256966666;30756966666
5242;31401646000;30256966666;30756966666
5243;31401648000;30256966666;30756966666
5244;31401649000;30256966666;30756966666
5245;31555512000;30256966666;30756966666
5246;31606350000;30256988888;30756988888
5299;31606366000;30465277777;30965277777
5300;31606367000;30465277777;30965277777
5301;31814311000;30465300000;30965300000
5302;31814334000;30465644444;30965644444
5303;31814336000;30465644444;30965644444
5306;31842479000;30507055555;31007055555
5307;31842483000;30507055555;31007055555
5308;31842485000;30507055555;31007055555
5309;31842486000;30507055555;31007055555
5310;31842487000;30507055555;31007055555
5311;31842489000;30507055555;31007055555
5312;31842594000;30507811111;31007811111
5313;31842610000;30508333333;31008333333
5314;31842612000;30508333333;31008333333
5315;31842613000;30508333333;31008333333
5316;31871807000;30548633333;31048633333
5380;31978981000;30757288888;31257288888
5381;31978985000;30757288888;31257288888
5382;31990810000;30798633333;31298633333
5383;31990822000;30798633333;31298633333
5384;31990824000;30798633333;31298633333
5385;31990825000;30798633333;31298633333
5386;31990826000;30798633333;31298633333
5387;31990827000;30798633333;31298633333
5388;31990828000;30798633333;31298633333
5389;31991035000;30798655555;31298655555
5392;31991065000;30798955555;31298955555
5393;32004957000;30840322222;31340322222
5394;32004961000;30840322222;31340322222
5395;32004962000;30840322222;31340322222
5396;32004963000;30840322222;31340322222
5397;32004964000;30840322222;31340322222
5398;32004965000;30840322222;31340322222
5399;32004966000;30840322222;31340322222
5400;32005145000;30840333333;31340333333
5401;32005149000;30840666666;31340666666
5403;32005151000;30840666666;31340666666
5404;32018778000;30881955555;31381955555
5405;32156555000;30881955555;31381955555
5406;32156698000;30881955555;31381955555
5407;32156795000;30881955555;31381955555
5408;32156884000;30881955555;31381955555
5409;32156886000;30881955555;31381955555
5410;32157114000;30881955555;31381955555
5411;32207621000;30881977777;31381977777
5460;32207637000;31090277777;31590277777
5462;32408831000;31090277777;31590277777
5463;32408833000;31090277777;31590277777
5464;32408834000;31090277777;31590277777
5467;32408957000;31090622222;31590622222
5468;32408961000;31090622222;31590622222
5469;32408962000;31090622222;31590622222
5470;32445239000;31131977777;31631977777
5471;32445243000;31131977777;31631977777
5472;32445244000;31131977777;31631977777
5474;32445245000;31131977777;31631977777
5475;32445246000;31131977777;31631977777
5476;32445247000;31131977777;31631977777
5477;32445466000;31131988888;31631988888
5478;32445482000;31132266666;31632266666
5479;32445484000;31132266666;31632266666
5480;32445485000;31132266666;31632266666
5481;32474948000;31173622222;31673622222
5482;32474951000;31173622222;31673622222
5483;32474952000;31173622222;31673622222
5484;32474953000;31173622222;31673622222
5485;32474954000;31173622222;31673622222
5486;32474955000;31173622222;31673622222
5487;32474956000;31173622222;31673622222
5488;32475122000;31173644444;31673644444
5489;32475126000;31173911111;31673911111
5490;32475127000;31173911111;31673911111
5491;32475128000;31173911111;31673911111
5492;32499945000;31215288888;31715288888
5493;32499948000;31215288888;31715288888
5494;32499949000;31215288888;31715288888
5495;32499951000;31215288888;31715288888
5496;32499952000;31215288888;31715288888
5497;32499953000;31215288888;31715288888
5498;32499953000;31215288888;31715288888
5499;32500119000;31215311111;31715311111
