seqnum;now;rtptime;deadline;packet_len;payload_len
0;12526712000;11022000000;11222000000;10240;10228
1;12526891000;11022000000;11222000000;10240;10228
2;12526964000;11022000000;11222000000;10240;10228
3;12526982000;11022000000;11222000000;10240;10228
2;12527062000;11022000000;11222000000;10240;10228
3;12527069000;11022000000;11222000000;10240;10228
4;12727201000;11022000000;11222000000;10240;10228
5;12727349000;11022000000;11222000000;10240;10228
4;12728019000;11022000000;11222000000;10240;10228
5;12728035000;11022000000;11222000000;10240;10228
6;12927660000;11022000000;11222000000;10240;10228
7;12927871000;11022000000;11222000000;10240;10228
9;12927883000;11022000000;11222000000;10240;10228
6;12929021000;11022000000;11222000000;10240;10228
7;12929034000;11022000000;11222000000;10240;10228
8;12929254000;11022000000;11222000000;10240;10228
10;13128072000;11022000000;11222000000;10240;10228
11;13128330000;11053500000;11253500000;10240;10228
12;13128479000;11053500000;11253500000;10240;10228
9;13130028000;11022000000;11222000000;10240;10228
10;13130049000;11022000000;11222000000;10240;10228
11;13130278000;11053500000;11253500000;10240;10228
13;13328571000;11053500000;11253500000;10240;10228
14;13328775000;11053500000;11253500000;10240;10228
15;13328975000;11053500000;11253500000;10240;10228
16;13328995000;11053500000;11253500000;10240;10228
12;13331060000;11053500000;11253500000;10240;10228
13;13331068000;11053500000;11253500000;10240;10228
14;13331298000;11053500000;11253500000;10240;10228
17;13529058000;11053500000;11253500000;10240;10228
18;13529388000;11053500000;11253500000;10240;10228
19;13529608000;11053500000;11253500000;10240;10228
20;13529808000;11053500000;11253500000;10240;10228
15;13532112000;11053500000;11253500000;10240;10228
16;13532121000;11053500000;11253500000;10240;10228
17;13532348000;11053500000;11253500000;10240;10228
18;13532367000;11053500000;11253500000;10240;10228
21;13729482000;11053500000;11253500000;10240;10228
22;13729840000;11095211111;11295211111;10240;10228
23;13730053000;11095211111;11295211111;10240;10228
19;13733167000;11053500000;11253500000;10240;10228
20;13733177000;11053500000;11253500000;10240;10228
21;13733410000;11053500000;11253500000;10240;10228
22;13733419000;11095211111;11295211111;10240;10228
25;13930026000;11095211111;11295211111;10240;10228
26;13930296000;11095211111;11295211111;10240;10228
23;13930320000;11095211111;11295211111;10240;10228
27;13930475000;11095211111;11295211111;10240;10228
24;13933992000;11095211111;11295211111;10240;10228
25;13934000000;11095211111;11295211111;10240;10228
26;13934241000;11095211111;11295211111;10240;10228
27;13934484000;11095211111;11295211111;10240;10228
28;13934495000;11095211111;11295211111;10240;10228
30;14130996000;11095211111;11295211111;10240;10228
29;14131296000;11095211111;11295211111;10240;10228
30;14135022000;11095211111;11295211111;10240;10228
31;14135031000;11095211111;11295211111;10240;10228
32;14135254000;11095211111;11295211111;10240;10228
33;14135280000;11136800000;11336800000;10240;10228
34;14135510000;11136800000;11336800000;10240;10228
31;14331462000;11095211111;11295211111;10240;10228
35;14332251000;11136800000;11336800000;10240;10228
37;14336049000;11136800000;11336800000;10240;10228
38;14336075000;11136800000;11336800000;10240;10228
39;14336286000;11136800000;11336800000;10240;10228
40;14336307000;11136800000;11336800000;10240;10228
42;14537057000;11136800000;11336800000;10240;10228
43;14537081000;11136800000;11336800000;10240;10228
44;14537311000;11178566666;11378566666;10240;10228
33;17153136000;11136800000;11336800000;10240;10228
45;17153426000;11178566666;11378566666;10240;10228
46;17153450000;11178566666;11378566666;10240;10228
34;17353635000;11136800000;11336800000;10240;10228
47;17354476000;11178566666;11378566666;10240;10228
48;17354500000;11178566666;11378566666;10240;10228
49;17354725000;11178566666;11378566666;10240;10228
35;17555079000;11136800000;11336800000;10240;10228
50;17555409000;11178566666;11378566666;10240;10228
51;17555432000;11178566666;11378566666;10240;10228
52;17555708000;11178566666;11378566666;10240;10228
36;17755590000;11136800000;11336800000;10240;10228
53;17756434000;11178566666;11378566666;10240;10228
54;17756455000;11178566666;11378566666;10240;10228
55;17756709000;11220144444;11420144444;10240;10228
56;17957466000;11220144444;11420144444;10240;10228
57;17957496000;11220144444;11420144444;10240;10228
52;17957501000;11178566666;11378566666;10240;10228
53;17957508000;11178566666;11378566666;10240;10228
58;17957735000;11220144444;11420144444;10240;10228
54;17957759000;11178566666;11378566666;10240;10228
55;18156771000;11220144444;11420144444;10240;10228
56;18156981000;11220144444;11420144444;10240;10228
57;18156991000;11220144444;11420144444;10240;10228
58;18157207000;11220144444;11420144444;10240;10228
59;18157988000;11220144444;11420144444;10240;10228
60;18158195000;11220144444;11420144444;10240;10228
61;18158217000;11220144444;11420144444;10240;10228
60;18158355000;11220144444;11420144444;10240;10228
61;18158366000;11220144444;11420144444;10240;10228
62;18158567000;11220144444;11420144444;10240;10228
63;18158591000;11220144444;11420144444;10240;10228
64;18158826000;11220144444;11420144444;10240;10228
62;18357495000;11220144444;11420144444;10240;10228
63;18357680000;11220144444;11420144444;10240;10228
64;18357690000;11220144444;11420144444;10240;10228
65;18357881000;11220144444;11420144444;10240;10228
66;18358474000;11261777777;11461777777;10240;10228
67;18358698000;11261777777;11461777777;10240;10228
68;18358718000;11261777777;11461777777;10240;10228
65;18359208000;11220144444;11420144444;10240;10228
66;18359451000;11261777777;11461777777;10240;10228
68;18359788000;11261777777;11461777777;10240;10228
70;18558037000;11261777777;11461777777;10240;10228
71;18558211000;11261777777;11461777777;10240;10228
74;18558899000;11261777777;11461777777;10240;10228
75;18559108000;11261777777;11461777777;10240;10228
76;18559309000;11261777777;11461777777;10240;10228
69;18560253000;11261777777;11461777777;10240;10228
70;18560777000;11261777777;11461777777;10240;10228
77;18758468000;11303477777;11503477777;10240;10228
78;18758681000;11303477777;11503477777;10240;10228
79;18759361000;11303477777;11503477777;10240;10228
80;18759532000;11303477777;11503477777;10240;10228
71;18761247000;11261777777;11461777777;10240;10228
72;18761791000;11261777777;11461777777;10240;10228
73;18761799000;11261777777;11461777777;10240;10228
83;18958953000;11303477777;11503477777;10240;10228
84;18959156000;11303477777;11503477777;10240;10228
85;18959178000;11303477777;11503477777;10240;10228
86;18959357000;11303477777;11503477777;10240;10228
87;18959757000;11303477777;11503477777;10240;10228
88;18960001000;11345133333;11545133333;10240;10228
74;18962289000;11261777777;11461777777;10240;10228
75;18962786000;11261777777;11461777777;10240;10228
76;18962795000;11261777777;11461777777;10240;10228
77;18963044000;11303477777;11503477777;10240;10228
89;19159644000;11345133333;11545133333;10240;10228
90;19159860000;11345133333;11545133333;10240;10228
91;19159879000;11345133333;11545133333;10240;10228
78;19160002000;11303477777;11503477777;10240;10228
92;19160423000;11345133333;11545133333;10240;10228
79;19163256000;11303477777;11503477777;10240;10228
80;19163844000;11303477777;11503477777;10240;10228
81;19164095000;11303477777;11503477777;10240;10228
93;19360147000;11345133333;11545133333;10240;10228
94;19360349000;11345133333;11545133333;10240;10228
95;19360529000;11345133333;11545133333;10240;10228
82;19360923000;11303477777;11503477777;10240;10228
83;19364308000;11303477777;11503477777;10240;10228
84;19364846000;11303477777;11503477777;10240;10228
97;19560638000;11345133333;11545133333;10240;10228
98;19560842000;11345133333;11545133333;10240;10228
99;19560865000;11386766666;11586766666;10240;10228
85;19560971000;11303477777;11503477777;10240;10228
86;19560991000;11303477777;11503477777;10240;10228
100;19561021000;11386766666;11586766666;10240;10228
101;19561288000;11386766666;11586766666;10240;10228
87;19561869000;11303477777;11503477777;10240;10228
88;19562118000;11345133333;11545133333;10240;10228
89;19565347000;11345133333;11545133333;10240;10228
90;19565861000;11345133333;11545133333;10240;10228
102;19761138000;11386766666;11586766666;10240;10228
103;19761523000;11386766666;11586766666;10240;10228
91;19761856000;11345133333;11545133333;10240;10228
104;19762629000;11386766666;11586766666;10240;10228
93;19762920000;11345133333;11545133333;10240;10228
94;19766880000;11345133333;11545133333;10240;10228
95;19766890000;11345133333;11545133333;10240;10228
105;19962002000;11386766666;11586766666;10240;10228
106;19962208000;11386766666;11586766666;10240;10228
96;19962898000;11345133333;11545133333;10240;10228
107;19963082000;11386766666;11586766666;10240;10228
97;19963958000;11345133333;11545133333;10240;10228
98;19967776000;11345133333;11545133333;10240;10228
99;19968031000;11386766666;11586766666;10240;10228
108;20162701000;11386766666;11586766666;10240;10228
109;20162912000;11386766666;11586766666;10240;10228
110;20163582000;11428400000;11628400000;10240;10228
100;20164999000;11386766666;11586766666;10240;10228
101;20168809000;11386766666;11586766666;10240;10228
102;20168819000;11386766666;11586766666;10240;10228
111;20363145000;11428400000;11628400000;10240;10228
112;20363359000;11428400000;11628400000;10240;10228
113;20364036000;11428400000;11628400000;10240;10228
114;20364247000;11428400000;11628400000;10240;10228
103;20366044000;11386766666;11586766666;10240;10228
104;20366052000;11386766666;11586766666;10240;10228
105;20369808000;11386766666;11586766666;10240;10228
106;20369817000;11386766666;11586766666;10240;10228
115;20563641000;11428400000;11628400000;10240;10228
116;20563847000;11428400000;11628400000;10240;10228
117;20564530000;11428400000;11628400000;10240;10228
118;20564730000;11428400000;11628400000;10240;10228
107;20567090000;11386766666;11586766666;10240;10228
108;20567100000;11386766666;11586766666;10240;10228
109;20567335000;11386766666;11586766666;10240;10228
110;20570809000;11428400000;11628400000;10240;10228
111;20570818000;11428400000;11628400000;10240;10228
119;20764125000;11428400000;11628400000;10240;10228
121;20764984000;11470122222;11670122222;10240;10228
122;20765196000;11470122222;11670122222;10240;10228
113;20768152000;11428400000;11628400000;10240;10228
114;20768162000;11428400000;11628400000;10240;10228
115;20768394000;11428400000;11628400000;10240;10228
116;20771814000;11428400000;11628400000;10240;10228
117;20771822000;11428400000;11628400000;10240;10228
123;20964630000;11470122222;11670122222;10240;10228
124;20965497000;11470122222;11670122222;10240;10228
118;20969082000;11428400000;11628400000;10240;10228
119;20969093000;11428400000;11628400000;10240;10228
120;20972737000;11428400000;11628400000;10240;10228
121;20972990000;11470122222;11670122222;10240;10228
126;21165115000;11470122222;11670122222;10240;10228
127;21165321000;11470122222;11670122222;10240;10228
128;21165973000;11470122222;11670122222;10240;10228
122;21170148000;11470122222;11670122222;10240;10228
123;21170157000;11470122222;11670122222;10240;10228
124;21173527000;11470122222;11670122222;10240;10228
129;21365603000;11470122222;11670122222;10240;10228
130;21366468000;11470122222;11670122222;10240;10228
126;21371210000;11470122222;11670122222;10240;10228
127;21371219000;11470122222;11670122222;10240;10228
128;21374569000;11470122222;11670122222;10240;10228
132;21566084000;11511766666;11711766666;10240;10228
133;21766551000;11511766666;11711766666;10240;10228
134;21766753000;11511766666;11711766666;10240;10228
129;21766885000;11470122222;11670122222;10240;10228
130;21766894000;11470122222;11670122222;10240;10228
131;21767119000;11470122222;11670122222;10240;10228
135;21967029000;11511766666;11711766666;10240;10228
136;21967243000;11511766666;11711766666;10240;10228
137;21967435000;11511766666;11711766666;10240;10228
132;21967817000;11511766666;11711766666;10240;10228
133;21967827000;11511766666;11711766666;10240;10228
134;21968068000;11511766666;11711766666;10240;10228
135;21968078000;11511766666;11711766666;10240;10228
138;22167535000;11511766666;11711766666;10240;10228
139;22167732000;11511766666;11711766666;10240;10228
140;22167924000;11511766666;11711766666;10240;10228
136;22168825000;11511766666;11711766666;10240;10228
137;22168834000;11511766666;11711766666;10240;10228
138;22169094000;11511766666;11711766666;10240;10228
139;22169102000;11511766666;11711766666;10240;10228
141;22368020000;11511766666;11711766666;10240;10228
142;22368273000;11511766666;11711766666;10240;10228
143;22368474000;11553433333;11753433333;10240;10228
140;22369840000;11511766666;11711766666;10240;10228
141;22369850000;11511766666;11711766666;10240;10228
142;22370082000;11511766666;11711766666;10240;10228
143;22370092000;11553433333;11753433333;10240;10228
144;22370356000;11553433333;11753433333;10240;10228
144;22568484000;11553433333;11753433333;10240;10228
145;22568913000;11553433333;11753433333;10240;10228
146;22569119000;11553433333;11753433333;10240;10228
145;22570778000;11553433333;11753433333;10240;10228
146;22570787000;11553433333;11753433333;10240;10228
147;22571022000;11553433333;11753433333;10240;10228
148;22571044000;11553433333;11753433333;10240;10228
149;22571267000;11553433333;11753433333;10240;10228
147;22769385000;11553433333;11753433333;10240;10228
148;22769583000;11553433333;11753433333;10240;10228
150;22769717000;11553433333;11753433333;10240;10228
149;22769830000;11553433333;11753433333;10240;10228
150;22769849000;11553433333;11753433333;10240;10228
151;22770002000;11553433333;11753433333;10240;10228
151;22771803000;11553433333;11753433333;10240;10228
152;22771820000;11553433333;11753433333;10240;10228
154;22772061000;11595133333;11795133333;10240;10228
156;22772083000;11595133333;11795133333;10240;10228
152;22970038000;11553433333;11753433333;10240;10228
154;22970244000;11595133333;11795133333;10240;10228
155;22970463000;11595133333;11795133333;10240;10228
156;22970684000;11595133333;11795133333;10240;10228
157;22970693000;11595133333;11795133333;10240;10228
158;22972818000;11595133333;11795133333;10240;10228
159;22973065000;11595133333;11795133333;10240;10228
160;22973088000;11595133333;11795133333;10240;10228
161;22973314000;11595133333;11795133333;10240;10228
159;23170724000;11595133333;11795133333;10240;10228
160;23170930000;11595133333;11795133333;10240;10228
162;23173709000;11595133333;11795133333;10240;10228
163;23173729000;11595133333;11795133333;10240;10228
164;23173958000;11595133333;11795133333;10240;10228
165;23174203000;11636777777;11836777777;10240;10228
166;23174225000;11636777777;11836777777;10240;10228
167;23174452000;11636777777;11836777777;10240;10228
168;23174475000;11636777777;11836777777;10240;10228
161;23371218000;11595133333;11795133333;10240;10228
162;23371413000;11595133333;11795133333;10240;10228
169;23374637000;11636777777;11836777777;10240;10228
170;23374659000;11636777777;11836777777;10240;10228
172;23374896000;11636777777;11836777777;10240;10228
173;23375198000;11636777777;11836777777;10240;10228
174;23375221000;11636777777;11836777777;10240;10228
175;23375442000;11636777777;11836777777;10240;10228
163;23571733000;11595133333;11795133333;10240;10228
164;23571901000;11595133333;11795133333;10240;10228
165;23571911000;11636777777;11836777777;10240;10228
176;23575668000;11678444444;11878444444;10240;10228
177;23575690000;11678444444;11878444444;10240;10228
178;23575918000;11678444444;11878444444;10240;10228
179;23576194000;11678444444;11878444444;10240;10228
180;23576216000;11678444444;11878444444;10240;10228
181;23576443000;11678444444;11878444444;10240;10228
182;23576467000;11678444444;11878444444;10240;10228
166;23772226000;11636777777;11836777777;10240;10228
167;23772404000;11636777777;11836777777;10240;10228
168;23772621000;11636777777;11836777777;10240;10228
169;23772640000;11636777777;11836777777;10240;10228
183;23776696000;11678444444;11878444444;10240;10228
184;23776719000;11678444444;11878444444;10240;10228
185;23777236000;11678444444;11878444444;10240;10228
187;23777255000;11720111111;11920111111;10240;10228
188;23777460000;11720111111;11920111111;10240;10228
189;23777471000;11720111111;11920111111;10240;10228
170;23972643000;11636777777;11836777777;10240;10228
171;23972869000;11636777777;11836777777;10240;10228
173;23973082000;11636777777;11836777777;10240;10228
174;23977402000;11636777777;11836777777;10240;10228
190;23977721000;11720111111;11920111111;10240;10228
191;23977742000;11720111111;11920111111;10240;10228
192;23977966000;11720111111;11920111111;10240;10228
193;23977989000;11720111111;11920111111;10240;10228
194;23978250000;11720111111;11920111111;10240;10228
195;23978272000;11720111111;11920111111;10240;10228
175;24173085000;11636777777;11836777777;10240;10228
176;24173298000;11678444444;11878444444;10240;10228
177;24173510000;11678444444;11878444444;10240;10228
178;24177886000;11678444444;11878444444;10240;10228
198;24179008000;11761755555;11961755555;10240;10228
199;24179269000;11761755555;11961755555;10240;10228
180;24373590000;11678444444;11878444444;10240;10228
181;24373775000;11678444444;11878444444;10240;10228
182;24373965000;11678444444;11878444444;10240;10228
183;24378394000;11678444444;11878444444;10240;10228
201;24380060000;11761755555;11961755555;10240;10228
202;24380084000;11761755555;11961755555;10240;10228
184;24574068000;11678444444;11878444444;10240;10228
185;24574277000;11678444444;11878444444;10240;10228
186;24578813000;11678444444;11878444444;10240;10228
203;24581087000;11761755555;11961755555;10240;10228
204;24581113000;11761755555;11961755555;10240;10228
205;24581311000;11761755555;11961755555;10240;10228
187;24774576000;11720111111;11920111111;10240;10228
188;24774760000;11720111111;11920111111;10240;10228
189;24779327000;11720111111;11920111111;10240;10228
206;24782139000;11761755555;11961755555;10240;10228
207;24782162000;11761755555;11961755555;10240;10228
208;24782384000;11761755555;11961755555;10240;10228
209;24782406000;11803433333;12003433333;10240;10228
210;24782636000;11803433333;12003433333;10240;10228
190;24975202000;11720111111;11920111111;10240;10228
191;24975406000;11720111111;11920111111;10240;10228
192;24975841000;11720111111;11920111111;10240;10228
193;24979764000;11720111111;11920111111;10240;10228
211;24983187000;11803433333;12003433333;10240;10228
213;24983211000;11803433333;12003433333;10240;10228
194;25175691000;11720111111;11920111111;10240;10228
195;25175902000;11720111111;11920111111;10240;10228
196;25176106000;11720111111;11920111111;10240;10228
197;25176303000;11720111111;11920111111;10240;10228
198;25183909000;11761755555;11961755555;10240;10228
194;25183925000;11720111111;11920111111;10240;10228
195;25183928000;11720111111;11920111111;10240;10228
196;25183929000;11720111111;11920111111;10240;10228
197;25183930000;11720111111;11920111111;10240;10228
198;25183931000;11761755555;11961755555;10240;10228
216;25184246000;11803433333;12003433333;10240;10228
217;25184274000;11803433333;12003433333;10240;10228
200;25376411000;11761755555;11961755555;10240;10228
201;25376574000;11761755555;11961755555;10240;10228
202;25376811000;11761755555;11961755555;10240;10228
203;25376829000;11761755555;11961755555;10240;10228
205;25576867000;11761755555;11961755555;10240;10228
206;25577073000;11761755555;11961755555;10240;10228
207;25577264000;11761755555;11961755555;10240;10228
208;25577479000;11761755555;11961755555;10240;10228
209;25577489000;11803433333;12003433333;10240;10228
212;25777708000;11803433333;12003433333;10240;10228
213;25777943000;11803433333;12003433333;10240;10228
214;25777955000;11803433333;12003433333;10240;10228
215;25778124000;11803433333;12003433333;10240;10228
216;25978159000;11803433333;12003433333;10240;10228
217;25978399000;11803433333;12003433333;10240;10228
218;25978616000;11803433333;12003433333;10240;10228
219;25978636000;11803433333;12003433333;10240;10228
220;25978798000;11845144444;12045144444;10240;10228
221;25978809000;11845144444;12045144444;10240;10228
222;26178605000;11845144444;12045144444;10240;10228
223;26178821000;11845144444;12045144444;10240;10228
224;26179029000;11845144444;12045144444;10240;10228
225;26179234000;11845144444;12045144444;10240;10228
226;26179256000;11845144444;12045144444;10240;10228
227;26179437000;11845144444;12045144444;10240;10228
228;26379068000;11845144444;12045144444;10240;10228
229;26379693000;11845144444;12045144444;10240;10228
230;26379895000;11845144444;12045144444;10240;10228
231;26379924000;11886777777;12086777777;10240;10228
232;26380099000;11886777777;12086777777;10240;10228
233;26380299000;11886777777;12086777777;10240;10228
234;26579581000;11886777777;12086777777;10240;10228
235;26580141000;11886777777;12086777777;10240;10228
236;26580342000;11886777777;12086777777;10240;10228
237;26580575000;11886777777;12086777777;10240;10228
238;26580595000;11886777777;12086777777;10240;10228
239;26780076000;11886777777;12086777777;10240;10228
240;26780287000;11886777777;12086777777;10240;10228
241;26780543000;11886777777;12086777777;10240;10228
243;26781006000;11928411111;12128411111;10240;10228
244;26781218000;11928411111;12128411111;10240;10228
245;26980576000;11928411111;12128411111;10240;10228
246;26980774000;11928411111;12128411111;10240;10228
247;26981486000;11928411111;12128411111;10240;10228
248;26981700000;11928411111;12128411111;10240;10228
249;26981712000;11928411111;12128411111;10240;10228
250;27181965000;11928411111;12128411111;10240;10228
251;27182179000;11928411111;12128411111;10240;10228
252;27382369000;11928411111;12128411111;10240;10228
253;27382591000;11970144444;12170144444;10240;10228
254;27382787000;11970144444;12170144444;10240;10228
255;27582869000;11970144444;12170144444;10240;10228
256;27583086000;11970144444;12170144444;10240;10228
257;27583277000;11970144444;12170144444;10240;10228
258;27783552000;11970144444;12170144444;10240;10228
259;27783757000;11970144444;12170144444;10240;10228
260;27783769000;11970144444;12170144444;10240;10228
261;27984037000;11970144444;12170144444;10240;10228
262;27984253000;11970144444;12170144444;10240;10228
263;27984445000;11970144444;12170144444;10240;10228
265;28184736000;12011788888;12211788888;10240;10228
266;28184940000;12011788888;12211788888;10240;10228
267;28385230000;12011788888;12211788888;10240;10228
268;28411799000;12011788888;12211788888;10240;10228
269;28412003000;12011788888;12211788888;10240;10228
270;28585726000;12011788888;12211788888;10240;10228
271;28612261000;12011788888;12211788888;10240;10228
272;28612468000;12011788888;12211788888;10240;10228
273;28612479000;12011788888;12211788888;10240;10228
270;28616332000;12011788888;12211788888;10240;10228
271;28616340000;12011788888;12211788888;10240;10228
272;28616576000;12011788888;12211788888;10240;10228
273;28616595000;12011788888;12211788888;10240;10228
274;28616842000;12011788888;12211788888;10240;10228
274;28786103000;12011788888;12211788888;10240;10228
275;28786924000;12053422222;12253422222;10240;10228
277;28786947000;12053422222;12253422222;10240;10228
275;28812741000;12053422222;12253422222;10240;10228
276;28812951000;12053422222;12253422222;10240;10228
277;28813158000;12053422222;12253422222;10240;10228
280;28814621000;12053422222;12253422222;10240;10228
282;28817114000;12053422222;12253422222;10240;10228
283;28817138000;12053422222;12253422222;10240;10228
284;28817351000;12053422222;12253422222;10240;10228
285;28817373000;12053422222;12253422222;10240;10228
286;28817850000;12095133333;12295133333;10240;10228
278;28986587000;12053422222;12253422222;10240;10228
287;28987977000;12095133333;12295133333;10240;10228
288;28987999000;12095133333;12295133333;10240;10228
279;29013223000;12053422222;12253422222;10240;10228
280;29013422000;12053422222;12253422222;10240;10228
281;29013635000;12053422222;12253422222;10240;10228
290;29018168000;12095133333;12295133333;10240;10228
291;29018192000;12095133333;12295133333;10240;10228
292;29018853000;12095133333;12295133333;10240;10228
282;29187074000;12053422222;12253422222;10240;10228
293;29189031000;12095133333;12295133333;10240;10228
283;29213752000;12053422222;12253422222;10240;10228
285;29214048000;12053422222;12253422222;10240;10228
295;29219195000;12095133333;12295133333;10240;10228
296;29219219000;12095133333;12295133333;10240;10228
297;29219843000;12136744444;12336744444;10240;10228
286;29387593000;12095133333;12295133333;10240;10228
287;29414194000;12095133333;12295133333;10240;10228
288;29414397000;12095133333;12295133333;10240;10228
299;29414507000;12136744444;12336744444;10240;10228
289;29414634000;12095133333;12295133333;10240;10228
300;29414765000;12136744444;12336744444;10240;10228
301;29420251000;12136744444;12336744444;10240;10228
302;29420271000;12136744444;12336744444;10240;10228
292;29614702000;12095133333;12295133333;10240;10228
293;29614888000;12095133333;12295133333;10240;10228
303;29621292000;12136744444;12336744444;10240;10228
304;29621315000;12136744444;12336744444;10240;10228
305;29621551000;12136744444;12336744444;10240;10228
306;29621574000;12136744444;12336744444;10240;10228
296;29815299000;12095133333;12295133333;10240;10228
307;29822239000;12136744444;12336744444;10240;10228
308;29822486000;12178411111;12378411111;10240;10228
309;29822509000;12178411111;12378411111;10240;10228
310;29822738000;12178411111;12378411111;10240;10228
297;30015826000;12136744444;12336744444;10240;10228
311;30023338000;12178411111;12378411111;10240;10228
312;30023361000;12178411111;12378411111;10240;10228
313;30023617000;12178411111;12378411111;10240;10228
314;30023844000;12178411111;12378411111;10240;10228
298;30216302000;12136744444;12336744444;10240;10228
315;30224389000;12178411111;12378411111;10240;10228
316;30224404000;12178411111;12378411111;10240;10228
317;30224631000;12178411111;12378411111;10240;10228
318;30224643000;12178411111;12378411111;10240;10228
299;30416827000;12136744444;12336744444;10240;10228
319;30425451000;12220122222;12420122222;10240;10228
320;30425461000;12220122222;12420122222;10240;10228
321;30425700000;12220122222;12420122222;10240;10228
322;30425710000;12220122222;12420122222;10240;10228
318;30619195000;12178411111;12378411111;10240;10228
319;30619377000;12220122222;12420122222;10240;10228
320;30619387000;12220122222;12420122222;10240;10228
324;30626722000;12220122222;12420122222;10240;10228
325;30626733000;12220122222;12420122222;10240;10228
326;30626969000;12220122222;12420122222;10240;10228
321;30817975000;12220122222;12420122222;10240;10228
322;30818179000;12220122222;12420122222;10240;10228
323;30818197000;12220122222;12420122222;10240;10228
324;30818384000;12220122222;12420122222;10240;10228
325;30819644000;12220122222;12420122222;10240;10228
326;30819855000;12220122222;12420122222;10240;10228
328;30827443000;12220122222;12420122222;10240;10228
327;30827764000;12220122222;12420122222;10240;10228
328;30827774000;12220122222;12420122222;10240;10228
329;30828011000;12220122222;12420122222;10240;10228
329;31018392000;12220122222;12420122222;10240;10228
330;31018658000;12261777777;12461777777;10240;10228
331;31018844000;12261777777;12461777777;10240;10228
332;31018864000;12261777777;12461777777;10240;10228
333;31020093000;12261777777;12461777777;10240;10228
334;31027890000;12261777777;12461777777;10240;10228
335;31028101000;12261777777;12461777777;10240;10228
330;31028694000;12261777777;12461777777;10240;10228
331;31028705000;12261777777;12461777777;10240;10228
332;31029013000;12261777777;12461777777;10240;10228
336;31218879000;12261777777;12461777777;10240;10228
337;31219165000;12261777777;12461777777;10240;10228
338;31219325000;12261777777;12461777777;10240;10228
339;31219546000;12261777777;12461777777;10240;10228
340;31219557000;12261777777;12461777777;10240;10228
341;31220594000;12303433333;12503433333;10240;10228
342;31228591000;12303433333;12503433333;10240;10228
343;31228780000;12303433333;12503433333;10240;10228
344;31419382000;12303433333;12503433333;10240;10228
345;31419802000;12303433333;12503433333;10240;10228
346;31420012000;12303433333;12503433333;10240;10228
347;31420035000;12303433333;12503433333;10240;10228
348;31420220000;12303433333;12503433333;10240;10228
349;31429031000;12303433333;12503433333;10240;10228
350;31429242000;12303433333;12503433333;10240;10228
351;31620217000;12303433333;12503433333;10240;10228
352;31620416000;12345122222;12545122222;10240;10228
353;31620637000;12345122222;12545122222;10240;10228
354;31620660000;12345122222;12545122222;10240;10228
355;31620836000;12345122222;12545122222;10240;10228
356;31620859000;12345122222;12545122222;10240;10228
357;31629500000;12345122222;12545122222;10240;10228
358;31629705000;12345122222;12545122222;10240;10228
359;31820719000;12345122222;12545122222;10240;10228
361;31821107000;12345122222;12545122222;10240;10228
362;31821302000;12345122222;12545122222;10240;10228
363;31821325000;12386777777;12586777777;10240;10228
364;31821521000;12386777777;12586777777;10240;10228
365;31830167000;12386777777;12586777777;10240;10228
366;31830373000;12386777777;12586777777;10240;10228
367;32021223000;12386777777;12586777777;10240;10228
368;32021618000;12386777777;12586777777;10240;10228
369;32021783000;12386777777;12586777777;10240;10228
370;32222275000;12386777777;12586777777;10240;10228
371;32222477000;12386777777;12586777777;10240;10228
372;32222500000;12386777777;12586777777;10240;10228
373;32222688000;12386777777;12586777777;10240;10228
374;32222711000;12428411111;12628411111;10240;10228
375;32422777000;12428411111;12628411111;10240;10228
379;32623272000;12428411111;12628411111;10240;10228
380;32823758000;12428411111;12628411111;10240;10228
381;32823967000;12428411111;12628411111;10240;10228
377;32839668000;12428411111;12628411111;10240;10228
378;32839681000;12428411111;12628411111;10240;10228
379;32839909000;12428411111;12628411111;10240;10228
380;32839920000;12428411111;12628411111;10240;10228
381;32840123000;12428411111;12628411111;10240;10228
382;32840133000;12428411111;12628411111;10240;10228
383;32840410000;12428411111;12628411111;10240;10228
384;32840432000;12428411111;12628411111;10240;10228
385;32840444000;12470133333;12670133333;10240;10228
382;33024209000;12428411111;12628411111;10240;10228
383;33024417000;12428411111;12628411111;10240;10228
384;33024633000;12428411111;12628411111;10240;10228
386;33040694000;12470133333;12670133333;10240;10228
387;33040722000;12470133333;12670133333;10240;10228
388;33040944000;12470133333;12670133333;10240;10228
389;33040971000;12470133333;12670133333;10240;10228
390;33041186000;12470133333;12670133333;10240;10228
391;33041210000;12470133333;12670133333;10240;10228
392;33041434000;12470133333;12670133333;10240;10228
385;33224697000;12470133333;12670133333;10240;10228
386;33224903000;12470133333;12670133333;10240;10228
393;33225000000;12470133333;12670133333;10240;10228
394;33225027000;12470133333;12670133333;10240;10228
395;33225240000;12470133333;12670133333;10240;10228
396;33241865000;12511766666;12711766666;10240;10228
397;33242145000;12511766666;12711766666;10240;10228
398;33242174000;12511766666;12711766666;10240;10228
399;33242182000;12511766666;12711766666;10240;10228
400;33242385000;12511766666;12711766666;10240;10228
401;33242407000;12511766666;12711766666;10240;10228
402;33242666000;12511766666;12711766666;10240;10228
388;33425181000;12470133333;12670133333;10240;10228
389;33425379000;12470133333;12670133333;10240;10228
390;33425594000;12470133333;12670133333;10240;10228
403;33425847000;12511766666;12711766666;10240;10228
404;33425875000;12511766666;12711766666;10240;10228
405;33426238000;12511766666;12711766666;10240;10228
406;33442771000;12511766666;12711766666;10240;10228
409;33443145000;12553422222;12753422222;10240;10228
410;33443186000;12553422222;12753422222;10240;10228
411;33443381000;12553422222;12753422222;10240;10228
412;33443656000;12553422222;12753422222;10240;10228
391;33625674000;12470133333;12670133333;10240;10228
392;33625885000;12470133333;12670133333;10240;10228
393;33626059000;12470133333;12670133333;10240;10228
413;33626878000;12553422222;12753422222;10240;10228
414;33626903000;12553422222;12753422222;10240;10228
415;33643810000;12553422222;12753422222;10240;10228
416;33643838000;12553422222;12753422222;10240;10228
417;33644060000;12553422222;12753422222;10240;10228
418;33644296000;12595133333;12795133333;10240;10228
419;33644321000;12595133333;12795133333;10240;10228
420;33644567000;12595133333;12795133333;10240;10228
421;33644587000;12595133333;12795133333;10240;10228
395;33826281000;12470133333;12670133333;10240;10228
422;33826492000;12595133333;12795133333;10240;10228
397;33826551000;12511766666;12711766666;10240;10228
425;33844859000;12595133333;12795133333;10240;10228
426;33844899000;12595133333;12795133333;10240;10228
429;33845127000;12636766666;12836766666;10240;10228
430;33845364000;12636766666;12836766666;10240;10228
431;33845389000;12636766666;12836766666;10240;10228
398;34026792000;12511766666;12711766666;10240;10228
399;34027029000;12511766666;12711766666;10240;10228
432;34027328000;12636766666;12836766666;10240;10228
433;34045904000;12636766666;12836766666;10240;10228
436;34046388000;12636766666;12836766666;10240;10228
400;34227296000;12511766666;12711766666;10240;10228
401;34227490000;12511766666;12711766666;10240;10228
402;34227498000;12511766666;12711766666;10240;10228
403;34227699000;12511766666;12711766666;10240;10228
437;34246951000;12636766666;12836766666;10240;10228
438;34246976000;12636766666;12836766666;10240;10228
439;34247200000;12636766666;12836766666;10240;10228
440;34247506000;12678433333;12878433333;10240;10228
404;34427784000;12511766666;12711766666;10240;10228
405;34427995000;12511766666;12711766666;10240;10228
406;34428202000;12511766666;12711766666;10240;10228
409;34628460000;12553422222;12753422222;10240;10228
410;34628675000;12553422222;12753422222;10240;10228
411;34828964000;12553422222;12753422222;10240;10228
412;34829166000;12553422222;12753422222;10240;10228
413;35029470000;12553422222;12753422222;10240;10228
414;35029671000;12553422222;12753422222;10240;10228
410;35029678000;12553422222;12753422222;10240;10228
411;35029681000;12553422222;12753422222;10240;10228
412;35029682000;12553422222;12753422222;10240;10228
413;35029683000;12553422222;12753422222;10240;10228
414;35029684000;12553422222;12753422222;10240;10228
415;35029707000;12553422222;12753422222;10240;10228
416;35229954000;12553422222;12753422222;10240;10228
417;35230150000;12553422222;12753422222;10240;10228
418;35230167000;12595133333;12795133333;10240;10228
419;35230366000;12595133333;12795133333;10240;10228
420;35230618000;12595133333;12795133333;10240;10228
421;35430442000;12595133333;12795133333;10240;10228
422;35430653000;12595133333;12795133333;10240;10228
423;35430675000;12595133333;12795133333;10240;10228
424;35430857000;12595133333;12795133333;10240;10228
425;35431055000;12595133333;12795133333;10240;10228
426;35431267000;12595133333;12795133333;10240;10228
429;35631147000;12636766666;12836766666;10240;10228
430;35631324000;12636766666;12836766666;10240;10228
431;35631342000;12636766666;12836766666;10240;10228
432;35631520000;12636766666;12836766666;10240;10228
433;35631707000;12636766666;12836766666;10240;10228
434;35831610000;12636766666;12836766666;10240;10228
437;35832183000;12636766666;12836766666;10240;10228
438;36032101000;12636766666;12836766666;10240;10228
439;36032630000;12636766666;12836766666;10240;10228
440;36232582000;12678433333;12878433333;10240;10228
442;36233075000;12678433333;12878433333;10240;10228
443;36233261000;12678433333;12878433333;10240;10228
444;36433107000;12678433333;12878433333;10240;10228
445;36433506000;12678433333;12878433333;10240;10228
446;36433725000;12678433333;12878433333;10240;10228
447;36433747000;12678433333;12878433333;10240;10228
448;36633960000;12678433333;12878433333;10240;10228
449;36634170000;12678433333;12878433333;10240;10228
450;36634359000;12678433333;12878433333;10240;10228
451;36834439000;12720100000;12920100000;10240;10228
452;36834638000;12720100000;12920100000;10240;10228
453;36834852000;12720100000;12920100000;10240;10228
454;37034941000;12720100000;12920100000;10240;10228
456;37035315000;12720100000;12920100000;10240;10228
457;37235419000;12720100000;12920100000;10240;10228
458;37235770000;12720100000;12920100000;10240;10228
459;37435907000;12720100000;12920100000;10240;10228
460;37636389000;12720100000;12920100000;10240;10228
461;37636620000;12720100000;12920100000;10240;10228
463;37836889000;12761744444;12961744444;10240;10228
464;37837098000;12761744444;12961744444;10240;10228
465;37837120000;12761744444;12961744444;10240;10228
460;37837695000;12720100000;12920100000;10240;10228
461;37850983000;12720100000;12920100000;10240;10228
462;37851237000;12761744444;12961744444;10240;10228
463;37851249000;12761744444;12961744444;10240;10228
464;37851477000;12761744444;12961744444;10240;10228
465;37851488000;12761744444;12961744444;10240;10228
466;37851740000;12761744444;12961744444;10240;10228
466;38037375000;12761744444;12961744444;10240;10228
468;38037615000;12761744444;12961744444;10240;10228
467;38038710000;12761744444;12961744444;10240;10228
468;38052003000;12761744444;12961744444;10240;10228
469;38052019000;12761744444;12961744444;10240;10228
470;38052250000;12761744444;12961744444;10240;10228
472;38052277000;12761744444;12961744444;10240;10228
473;38052494000;12803422222;13003422222;10240;10228
469;38237864000;12761744444;12961744444;10240;10228
470;38238070000;12761744444;12961744444;10240;10228
474;38239749000;12803422222;13003422222;10240;10228
475;38253018000;12803422222;13003422222;10240;10228
476;38253274000;12803422222;13003422222;10240;10228
477;38253296000;12803422222;13003422222;10240;10228
478;38253537000;12803422222;13003422222;10240;10228
479;38253560000;12803422222;13003422222;10240;10228
471;38438297000;12761744444;12961744444;10240;10228
472;38438484000;12761744444;12961744444;10240;10228
480;38438626000;12803422222;13003422222;10240;10228
473;38438740000;12803422222;13003422222;10240;10228
481;38440837000;12803422222;13003422222;10240;10228
482;38440864000;12803422222;13003422222;10240;10228
484;38454059000;12845133333;13045133333;10240;10228
485;38454556000;12845133333;13045133333;10240;10228
486;38454578000;12845133333;13045133333;10240;10228
487;38454794000;12845133333;13045133333;10240;10228
474;38638766000;12803422222;13003422222;10240;10228
475;38638962000;12803422222;13003422222;10240;10228
476;38639158000;12803422222;13003422222;10240;10228
488;38639467000;12845133333;13045133333;10240;10228
489;38641882000;12845133333;13045133333;10240;10228
490;38641909000;12845133333;13045133333;10240;10228
491;38655110000;12845133333;13045133333;10240;10228
492;38655544000;12845133333;13045133333;10240;10228
477;38839261000;12803422222;13003422222;10240;10228
478;38839457000;12803422222;13003422222;10240;10228
479;38839675000;12803422222;13003422222;10240;10228
480;38839878000;12803422222;13003422222;10240;10228
493;38842913000;12845133333;13045133333;10240;10228
494;38842938000;12845133333;13045133333;10240;10228
495;38856138000;12886766666;13086766666;10240;10228
496;38856549000;12886766666;13086766666;10240;10228
481;39039755000;12803422222;13003422222;10240;10228
482;39039967000;12803422222;13003422222;10240;10228
483;39040180000;12803422222;13003422222;10240;10228
498;39043969000;12886766666;13086766666;10240;10228
499;39057135000;12886766666;13086766666;10240;10228
486;39240240000;12845133333;13045133333;10240;10228
487;39240413000;12845133333;13045133333;10240;10228
488;39240649000;12845133333;13045133333;10240;10228
501;39245018000;12886766666;13086766666;10240;10228
502;39258173000;12886766666;13086766666;10240;10228
489;39440732000;12845133333;13045133333;10240;10228
490;39440940000;12845133333;13045133333;10240;10228
491;39441131000;12845133333;13045133333;10240;10228
503;39446068000;12886766666;13086766666;10240;10228
504;39446097000;12886766666;13086766666;10240;10228
505;39459105000;12886766666;13086766666;10240;10228
494;39641545000;12845133333;13045133333;10240;10228
495;39641750000;12886766666;13086766666;10240;10228
507;39647116000;12928455555;13128455555;10240;10228
496;39842043000;12886766666;13086766666;10240;10228
497;39842257000;12886766666;13086766666;10240;10228
509;39848133000;12928455555;13128455555;10240;10228
498;40042549000;12886766666;13086766666;10240;10228
499;40042722000;12886766666;13086766666;10240;10228
500;40042732000;12886766666;13086766666;10240;10228
501;40042925000;12886766666;13086766666;10240;10228
502;40242961000;12886766666;13086766666;10240;10228
503;40243194000;12886766666;13086766666;10240;10228
510;40243228000;12928455555;13128455555;10240;10228
504;40243385000;12886766666;13086766666;10240;10228
505;40243391000;12886766666;13086766666;10240;10228
511;40243480000;12928455555;13128455555;10240;10228
506;40443462000;12928455555;13128455555;10240;10228
507;40443677000;12928455555;13128455555;10240;10228
508;40443876000;12928455555;13128455555;10240;10228
509;40444079000;12928455555;13128455555;10240;10228
512;40444111000;12928455555;13128455555;10240;10228
513;40444499000;12928455555;13128455555;10240;10228
514;40444541000;12928455555;13128455555;10240;10228
510;40644168000;12928455555;13128455555;10240;10228
511;40644358000;12928455555;13128455555;10240;10228
512;40644364000;12928455555;13128455555;10240;10228
513;40644525000;12928455555;13128455555;10240;10228
515;40645197000;12928455555;13128455555;10240;10228
517;40645487000;12970133333;13170133333;10240;10228
514;40844660000;12928455555;13128455555;10240;10228
515;40844868000;12928455555;13128455555;10240;10228
516;40845066000;12928455555;13128455555;10240;10228
517;40845929000;12970133333;13170133333;10240;10228
518;40846136000;12970133333;13170133333;10240;10228
518;40846193000;12970133333;13170133333;10240;10228
519;40846465000;12970133333;13170133333;10240;10228
520;40846489000;12970133333;13170133333;10240;10228
519;41045152000;12970133333;13170133333;10240;10228
520;41045353000;12970133333;13170133333;10240;10228
521;41045571000;12970133333;13170133333;10240;10228
522;41046423000;12970133333;13170133333;10240;10228
523;41046606000;12970133333;13170133333;10240;10228
522;41047507000;12970133333;13170133333;10240;10228
523;41047552000;12970133333;13170133333;10240;10228
526;41246019000;12970133333;13170133333;10240;10228
527;41246828000;12970133333;13170133333;10240;10228
528;41247061000;13011766666;13211766666;10240;10228
525;41248569000;12970133333;13170133333;10240;10228
529;41446539000;13011766666;13211766666;10240;10228
530;41447293000;13011766666;13211766666;10240;10228
531;41447497000;13011766666;13211766666;10240;10228
532;41447700000;13011766666;13211766666;10240;10228
533;41447719000;13011766666;13211766666;10240;10228
526;41449605000;12970133333;13170133333;10240;10228
527;41449621000;12970133333;13170133333;10240;10228
534;41647008000;13011766666;13211766666;10240;10228
535;41647762000;13011766666;13211766666;10240;10228
536;41647969000;13011766666;13211766666;10240;10228
537;41847482000;13011766666;13211766666;10240;10228
538;41847685000;13011766666;13211766666;10240;10228
539;41847708000;13053422222;13253422222;10240;10228
528;41847751000;13011766666;13211766666;10240;10228
540;41847894000;13053422222;13253422222;10240;10228
529;41848041000;13011766666;13211766666;10240;10228
530;41848053000;13011766666;13211766666;10240;10228
541;41848184000;13053422222;13253422222;10240;10228
542;41848384000;13053422222;13253422222;10240;10228
543;42047976000;13053422222;13253422222;10240;10228
544;42048173000;13053422222;13253422222;10240;10228
545;42048377000;13053422222;13253422222;10240;10228
546;42048398000;13053422222;13253422222;10240;10228
547;42048645000;13053422222;13253422222;10240;10228
531;42048668000;13011766666;13211766666;10240;10228
548;42048860000;13053422222;13253422222;10240;10228
