seqnum;now;rtptime;deadline
1;10423029000;9683044444;10183044444
6;10510084000;9714411111;10214411111
57;10673150000;9881388888;10381388888
58;10721592000;9922722222;10422722222
59;10721603000;9922722222;10422722222
60;10721604000;9922722222;10422722222
61;10721606000;9922722222;10422722222
62;10721607000;9922722222;10422722222
63;10721620000;9922722222;10422722222
64;10721622000;9922722222;10422722222
65;10742656000;9922733333;10422733333
136;10742665000;10214400000;10714400000
137;10742667000;10214400000;10714400000
138;10742668000;10214400000;10714400000
139;10742670000;10214400000;10714400000
140;10742672000;10214400000;10714400000
141;10742682000;10214400000;10714400000
142;10855968000;10214411111;10714411111
143;10855991000;10214700000;10714700000
144;10855992000;10214700000;10714700000
145;10855994000;10214700000;10714700000
146;10873025000;10256066666;10756066666
147;10873036000;10256066666;10756066666
148;10873038000;10256066666;10756066666
149;10873039000;10256066666;10756066666
150;10873041000;10256066666;10756066666
151;10873058000;10256066666;10756066666
152;10873060000;10256066666;10756066666
153;10873313000;10256077777;10756077777
154;10873331000;10256388888;10756388888
155;10873332000;10256388888;10756388888
156;10873334000;10256388888;10756388888
157;10885483000;10297722222;10797722222
158;10885489000;10297722222;10797722222
159;11023452000;10297722222;10797722222
163;11023532000;10297722222;10797722222
164;11073907000;10297744444;10797744444
214;11073914000;10506055555;11006055555
215;11073915000;10506055555;11006055555
216;11073917000;10506055555;11006055555
217;11073918000;10506055555;11006055555
218;11073928000;10506055555;11006055555
219;11275969000;10506066666;11006066666
220;11275975000;10506422222;11006422222
221;11275977000;10506422222;11006422222
222;11275978000;10506422222;11006422222
223;11309277000;10547722222;11047722222
224;11309280000;10547722222;11047722222
225;11309281000;10547722222;11047722222
226;11309282000;10547722222;11047722222
227;11309283000;10547722222;11047722222
228;11309284000;10547722222;11047722222
229;11309285000;10547722222;11047722222
230;11309375000;10547744444;11047744444
231;11309379000;10548033333;11048033333
233;11310502000;10548033333;11048033333
234;11348499000;10589400000;11089400000
294;11436221000;10797722222;11297722222
295;11436231000;10797722222;11297722222
296;11436376000;10797733333;11297733333
297;11436382000;10798000000;11298000000
298;11436383000;10798000000;11298000000
299;11436385000;10798000000;11298000000
300;11449757000;10839388888;11339388888
301;11449760000;10839388888;11339388888
302;11449762000;10839388888;11339388888
303;11449763000;10839388888;11339388888
304;11449764000;10839388888;11339388888
305;11449766000;10839388888;11339388888
306;11449767000;10839388888;11339388888
307;11449894000;10839400000;11339400000
308;11449899000;10839666666;11339666666
309;11449901000;10839666666;11339666666
310;11449903000;10839666666;11339666666
311;11464727000;10881066666;11381066666
312;11464730000;10881066666;11381066666
313;11464731000;10881066666;11381066666
314;11464732000;10881066666;11381066666
315;11464733000;10881066666;11381066666
316;11464734000;10881066666;11381066666
317;11624012000;10881066666;11381066666
318;11674410000;10881077777;11381077777
373;11876540000;11089400000;11589400000
374;11876558000;11089655555;11589655555
375;11876559000;11089655555;11589655555
376;11876561000;11089655555;11589655555
377;11909877000;11131044444;11631044444
378;11909882000;11131044444;11631044444
379;11909883000;11131044444;11631044444
380;11909884000;11131044444;11631044444
381;11909886000;11131044444;11631044444
382;11909887000;11131044444;11631044444
383;11909888000;11131044444;11631044444
384;11910015000;11131055555;11631055555
385;11910021000;11131344444;11631344444
386;11910023000;11131344444;11631344444
387;11910024000;11131344444;11631344444
388;11939518000;11172711111;11672711111
452;12036763000;11381344444;11881344444
453;12036767000;11381344444;11881344444
454;12050313000;11422711111;11922711111
455;12050317000;11422711111;11922711111
456;12050318000;11422711111;11922711111
457;12050334000;11422711111;11922711111
458;12050334000;11422711111;11922711111
459;12050336000;11422711111;11922711111
460;12050337000;11422711111;11922711111
461;12050462000;11422733333;11922733333
462;12050467000;11423000000;11923000000
463;12050468000;11423000000;11923000000
464;12050469000;11423000000;11923000000
465;12065302000;11464377777;11964377777
466;12065306000;11464377777;11964377777
467;12065307000;11464377777;11964377777
468;12065308000;11464377777;11964377777
469;12065309000;11464377777;11964377777
470;12065310000;11464377777;11964377777
471;12065311000;11464377777;11964377777
472;12065431000;11464400000;11964400000
473;12065437000;11464677777;11964677777
474;12065438000;11464677777;11964677777
475;12224723000;11464677777;11964677777
476;12275125000;11506066666;12006066666
531;12477242000;11714388888;12214388888
532;12477252000;11714388888;12214388888
533;12477254000;11714388888;12214388888
534;12477256000;11714388888;12214388888
535;12477266000;11714388888;12214388888
536;12477268000;11714388888;12214388888
537;12477269000;11714388888;12214388888
538;12477404000;11714400000;12214400000
539;12477410000;11714700000;12214700000
540;12477411000;11714700000;12214700000
541;12477412000;11714700000;12214700000
542;12510566000;11756044444;12256044444
543;12510570000;11756044444;12256044444
544;12510571000;11756044444;12256044444
545;12510572000;11756044444;12256044444
546;12510574000;11756044444;12256044444
547;12510575000;11756044444;12256044444
548;12510576000;11756044444;12256044444
549;12510701000;11756055555;12256055555
550;12510707000;11756388888;12256388888
551;12510708000;11756388888;12256388888
552;12510710000;11756388888;12256388888
553;12550018000;11797733333;12297733333
610;12637597000;12006044444;12506044444
611;12637607000;12006044444;12506044444
612;12637609000;12006044444;12506044444
613;12637611000;12006044444;12506044444
614;12637621000;12006044444;12506044444
615;12637736000;12006066666;12506066666
616;12637742000;12006366666;12506366666
617;12637744000;12006366666;12506366666
618;12637745000;12006366666;12506366666
619;12650478000;12047711111;12547711111
620;12650482000;12047711111;12547711111
621;12650483000;12047711111;12547711111
622;12650484000;12047711111;12547711111
623;12650486000;12047711111;12547711111
624;12650487000;12047711111;12547711111
625;12650489000;12047711111;12547711111
626;12650594000;12047722222;12547722222
627;12650600000;12048011111;12548011111
628;12650601000;12048011111;12548011111
629;12650603000;12048011111;12548011111
630;12665622000;12089400000;12589400000
631;12665625000;12089400000;12589400000
632;12665626000;12089400000;12589400000
633;12825352000;12089400000;12589400000
634;12825370000;12089400000;12589400000
635;12825372000;12089400000;12589400000
636;12825425000;12089400000;12589400000
637;12875772000;12089411111;12589411111
690;12875778000;12297722222;12797722222
691;12875779000;12297722222;12797722222
692;13079019000;12297733333;12797733333
693;13079040000;12298033333;12798033333
694;13079056000;12298033333;12798033333
695;13079058000;12298033333;12798033333
696;13112210000;12339388888;12839388888
697;13112222000;12339388888;12839388888
698;13112223000;12339388888;12839388888
699;13112225000;12339388888;12839388888
700;13112226000;12339388888;12839388888
701;13112227000;12339388888;12839388888
702;13112228000;12339388888;12839388888
703;13112318000;12339400000;12839400000
704;13112323000;12339700000;12839700000
706;13112326000;12339700000;12839700000
707;13141801000;12381066666;12881066666
767;13238654000;12589377777;13089377777
768;13238657000;12589377777;13089377777
770;13238715000;12589677777;13089677777
771;13238717000;12589677777;13089677777
772;13238719000;12589677777;13089677777
773;13259856000;12631055555;13131055555
774;13259859000;12631055555;13131055555
775;13259869000;12631055555;13131055555
776;13259870000;12631055555;13131055555
777;13259872000;12631055555;13131055555
778;13259873000;12631055555;13131055555
779;13259874000;12631055555;13131055555
780;13259961000;12631077777;13131077777
781;13259966000;12631377777;13131377777
782;13259979000;12631377777;13131377777
783;13259980000;12631377777;13131377777
784;13273077000;12672722222;13172722222
785;13273080000;12672722222;13172722222
786;13273081000;12672722222;13172722222
787;13273082000;12672722222;13172722222
788;13273083000;12672722222;13172722222
789;13273084000;12672722222;13172722222
790;13273085000;12672722222;13172722222
791;13512752000;12672733333;13172733333
846;13678238000;12881066666;13381066666
847;13678257000;12881377777;13381377777
848;13678259000;12881377777;13381377777
849;13678260000;12881377777;13381377777
851;13711988000;12922733333;13422733333
852;13711991000;12922733333;13422733333
853;13711993000;12922733333;13422733333
854;13711994000;12922733333;13422733333
855;13711995000;12922733333;13422733333
856;13711997000;12922733333;13422733333
857;13712091000;12922744444;13422744444
858;13712097000;12923044444;13423044444
859;13712098000;12923044444;13423044444
860;13712099000;12923044444;13423044444
861;13751214000;12964388888;13464388888
926;13838601000;13173022222;13673022222
927;13851451000;13214377777;13714377777
928;13851455000;13214377777;13714377777
929;13851457000;13214377777;13714377777
930;13851458000;13214377777;13714377777
931;13851459000;13214377777;13714377777
932;13851460000;13214377777;13714377777
933;13851462000;13214377777;13714377777
934;13851588000;13214400000;13714400000
935;13851594000;13214700000;13714700000
936;13851595000;13214700000;13714700000
937;13851597000;13214700000;13714700000
938;13866569000;13256044444;13756044444
939;13866573000;13256044444;13756044444
940;13866574000;13256044444;13756044444
941;13866575000;13256044444;13756044444
942;13866576000;13256044444;13756044444
943;13866577000;13256044444;13756044444
944;13866579000;13256044444;13756044444
945;13866703000;13256066666;13756066666
946;13866709000;13256388888;13756388888
947;13866711000;13256388888;13756388888
948;13866712000;13256388888;13756388888
949;14076912000;13297733333;13797733333
1004;14279130000;13506055555;14006055555
1006;14279251000;13506055555;14006055555
1007;14279254000;13506055555;14006055555
1008;14279256000;13506055555;14006055555
1009;14279257000;13506055555;14006055555
1010;14279258000;13506055555;14006055555
1011;14279386000;13506077777;14006077777
1012;14279392000;13506388888;14006388888
1013;14279394000;13506388888;14006388888
1014;14279395000;13506388888;14006388888
1015;14312435000;13547722222;14047722222
1016;14312439000;13547722222;14047722222
1017;14312440000;13547722222;14047722222
1018;14312442000;13547722222;14047722222
1019;14312443000;13547722222;14047722222
1020;14312444000;13547722222;14047722222
1021;14312446000;13547722222;14047722222
1022;14312542000;13547733333;14047733333
1023;14312548000;13548033333;14048033333
1024;14312549000;13548033333;14048033333
1025;14312551000;13548033333;14048033333
1026;14342070000;13589400000;14089400000
1084;14445825000;13797711111;14297711111
1085;14445827000;13797711111;14297711111
1086;14445828000;13797711111;14297711111
1087;14445829000;13797711111;14297711111
1088;14445914000;13797733333;14297733333
1089;14445919000;13798000000;14298000000
1090;14445921000;13798000000;14298000000
1091;14445922000;13798000000;14298000000
1092;14457538000;13839377777;14339377777
1093;14457541000;13839377777;14339377777
1094;14457542000;13839377777;14339377777
1095;14457543000;13839377777;14339377777
1096;14457544000;13839377777;14339377777
1097;14457545000;13839377777;14339377777
1098;14457546000;13839377777;14339377777
1099;14457650000;13839400000;14339400000
1100;14457655000;13839677777;14339677777
1101;14457656000;13839677777;14339677777
1102;14457657000;13839677777;14339677777
1103;14471620000;13881066666;14381066666
1104;14471623000;13881066666;14381066666
1105;14471624000;13881066666;14381066666
1106;14471625000;13881066666;14381066666
1107;14627215000;13881066666;14381066666
1108;14627218000;13881066666;14381066666
1109;14627219000;13881066666;14381066666
1110;14677609000;13881077777;14381077777
1163;14677615000;14089377777;14589377777
1164;14677616000;14089377777;14589377777
1165;14879709000;14089400000;14589400000
1166;14879735000;14089655555;14589655555
1167;14879736000;14089655555;14589655555
1168;14879737000;14089655555;14589655555
1169;14913097000;14131055555;14631055555
1170;14913101000;14131055555;14631055555
1171;14913102000;14131055555;14631055555
1172;14913103000;14131055555;14631055555
1173;14913103000;14131055555;14631055555
1174;14913104000;14131055555;14631055555
1175;14913105000;14131055555;14631055555
1176;14913228000;14131066666;14631066666
1177;14913234000;14131366666;14631366666
1178;14913235000;14131366666;14631366666
1179;14913236000;14131366666;14631366666
1180;14954685000;14172711111;14672711111
1241;15040107000;14381055555;14881055555
1242;15040259000;14381077777;14881077777
1243;15040264000;14381355555;14881355555
1244;15040265000;14381355555;14881355555
1245;15040267000;14381355555;14881355555
1246;15052990000;14422722222;14922722222
1247;15052994000;14422722222;14922722222
1248;15052995000;14422722222;14922722222
1249;15052996000;14422722222;14922722222
1250;15052997000;14422722222;14922722222
1251;15052998000;14422722222;14922722222
1252;15053000000;14422722222;14922722222
1253;15053135000;14422744444;14922744444
1254;15053140000;14423000000;14923000000
1255;15053142000;14423000000;14923000000
1256;15053143000;14423000000;14923000000
1257;15068118000;14464388888;14964388888
1258;15068120000;14464388888;14964388888
1259;15068122000;14464388888;14964388888
1260;15068123000;14464388888;14964388888
1261;15068125000;14464388888;14964388888
1262;15068126000;14464388888;14964388888
1263;15068127000;14464388888;14964388888
1264;15278668000;14464400000;14964400000
1320;15278674000;14673011111;15173011111
1321;15278676000;14673011111;15173011111
1322;15278676000;14673011111;15173011111
1323;15515213000;14714377777;15214377777
1324;15515225000;14714377777;15214377777
1325;15515227000;14714377777;15214377777
1326;15515229000;14714377777;15214377777
1327;15515231000;14714377777;15214377777
1328;15515232000;14714377777;15214377777
1329;15515234000;14714377777;15214377777
1330;15515456000;14714400000;15214400000
1331;15515473000;14714688888;15214688888
1332;15515475000;14714688888;15214688888
1333;15515476000;14714688888;15214688888
1334;15543730000;14756044444;15256044444
1399;15640897000;14964700000;15464700000
1400;15653747000;15006055555;15506055555
1401;15653751000;15006055555;15506055555
1402;15653752000;15006055555;15506055555
1403;15653753000;15006055555;15506055555
1404;15653754000;15006055555;15506055555
1405;15653755000;15006055555;15506055555
1406;15653756000;15006055555;15506055555
1407;15653909000;15006077777;15506077777
1408;15653915000;15006366666;15506366666
1409;15653916000;15006366666;15506366666
1410;15653917000;15006366666;15506366666
1411;15668853000;15047722222;15547722222
1412;15668856000;15047722222;15547722222
1413;15668857000;15047722222;15547722222
1414;15668858000;15047722222;15547722222
1415;15668859000;15047722222;15547722222
1416;15668860000;15047722222;15547722222
1417;15668861000;15047722222;15547722222
1418;15669016000;15047733333;15547733333
1419;15669022000;15048022222;15548022222
1420;15669023000;15048022222;15548022222
1421;15669024000;15048022222;15548022222
1422;15879709000;15089400000;15589400000
1475;16044196000;15256366666;15756366666
1476;16044205000;15256366666;15756366666
1477;16081060000;15297722222;15797722222
1479;16081066000;15297722222;15797722222
1480;16081067000;15297722222;15797722222
1481;16081069000;15297722222;15797722222
1482;16081070000;15297722222;15797722222
1483;16081072000;15297722222;15797722222
1484;16081281000;15297733333;15797733333
1485;16081297000;15298044444;15798044444
1486;16081299000;15298044444;15798044444
1487;16081300000;15298044444;15798044444
1488;16115259000;15339400000;15839400000
1489;16115262000;15339400000;15839400000
1490;16115264000;15339400000;15839400000
1491;16115265000;15339400000;15839400000
1492;16115267000;15339400000;15839400000
1493;16115268000;15339400000;15839400000
1494;16115270000;15339400000;15839400000
1495;16115477000;15339411111;15839411111
1496;16115493000;15339722222;15839722222
1497;16115495000;15339722222;15839722222
1498;16115510000;15339722222;15839722222
1504;16156276000;15381055555;15881055555
1555;16260161000;15589388888;16089388888
1556;16260172000;15589388888;16089388888
1557;16260174000;15589388888;16089388888
1558;16260176000;15589388888;16089388888
1559;16260177000;15589388888;16089388888
1560;16260179000;15589388888;16089388888
1561;16260394000;15589400000;16089400000
1562;16260410000;15589688888;16089688888
1563;16260412000;15589688888;16089688888
1564;16260413000;15589688888;16089688888
1565;16277329000;15631055555;16131055555
1566;16277343000;15631055555;16131055555
1567;16277345000;15631055555;16131055555
1568;16277346000;15631055555;16131055555
1569;16277347000;15631055555;16131055555
1570;16277349000;15631055555;16131055555
1571;16277351000;15631055555;16131055555
1572;16277587000;15631077777;16131077777
1573;16277604000;15631388888;16131388888
1574;16277605000;15631388888;16131388888
1575;16277606000;15631388888;16131388888
1576;16293734000;15672722222;16172722222
1577;16293738000;15672722222;16172722222
1578;16430427000;15672722222;16172722222
1579;16430429000;15672722222;16172722222
1580;16430434000;15672722222;16172722222
1581;16430449000;15672722222;16172722222
1582;16430454000;15672722222;16172722222
1583;16480926000;15672744444;16172744444
1634;16480941000;15881044444;16381044444
1635;16480942000;15881044444;16381044444
1636;16480943000;15881044444;16381044444
1637;16480944000;15881044444;16381044444
1638;16682381000;15881066666;16381066666
1639;16682405000;15881377777;16381377777
1640;16682406000;15881377777;16381377777
1641;16682408000;15881377777;16381377777
1642;16716395000;15922711111;16422711111
1643;16716406000;15922711111;16422711111
1644;16716409000;15922711111;16422711111
1645;16716410000;15922711111;16422711111
1646;16716412000;15922711111;16422711111
1647;16716414000;15922711111;16422711111
1648;16716416000;15922711111;16422711111
1649;16716606000;15922722222;16422722222
1650;16716615000;15923022222;16423022222
1651;16716616000;15923022222;16423022222
1652;16716617000;15923022222;16423022222
1653;16745936000;15964377777;16464377777
1713;16843202000;16172711111;16672711111
1714;16843206000;16172711111;16672711111
1715;16843371000;16172733333;16672733333
1716;16843377000;16173033333;16673033333
1717;16843378000;16173033333;16673033333
1718;16843379000;16173033333;16673033333
1719;16856752000;16214388888;16714388888
1720;16856755000;16214388888;16714388888
1721;16856757000;16214388888;16714388888
1722;16856758000;16214388888;16714388888
1723;16856759000;16214388888;16714388888
1724;16856759000;16214388888;16714388888
1725;16856760000;16214388888;16714388888
1726;16856915000;16214400000;16714400000
1727;16856921000;16214700000;16714700000
1728;16856923000;16214700000;16714700000
1729;16856923000;16214700000;16714700000
1730;16871690000;16256055555;16756055555
1731;16871693000;16256055555;16756055555
1732;16871694000;16256055555;16756055555
1733;16871695000;16256055555;16756055555
1734;16871696000;16256055555;16756055555
1735;16871697000;16256055555;16756055555
1736;17031178000;16256055555;16756055555
1737;17081656000;16256077777;16756077777
1791;17081663000;16464377777;16964377777
1792;17283686000;16464400000;16964400000
1793;17283695000;16464700000;16964700000
1794;17283697000;16464700000;16964700000
1795;17283698000;16464700000;16964700000
1796;17316979000;16506055555;17006055555
1797;17316982000;16506055555;17006055555
1798;17316984000;16506055555;17006055555
1799;17316985000;16506055555;17006055555
1800;17316986000;16506055555;17006055555
1801;17316987000;16506055555;17006055555
1803;17318196000;16506066666;17006066666
1804;17318203000;16506411111;17006411111
1805;17318205000;16506411111;17006411111
1806;17318207000;16506411111;17006411111
1807;17359934000;16547722222;17047722222
1871;17444050000;16756355555;17256355555
1872;17444061000;16756355555;17256355555
1873;17457587000;16797711111;17297711111
1874;17457592000;16797711111;17297711111
1875;17457593000;16797711111;17297711111
1876;17457595000;16797711111;17297711111
1877;17457596000;16797711111;17297711111
1878;17457597000;16797711111;17297711111
1879;17457612000;16797711111;17297711111
1880;17457769000;16797722222;17297722222
1881;17457775000;16798000000;17298000000
1882;17457777000;16798000000;17298000000
1883;17457778000;16798000000;17298000000
1884;17472567000;16839377777;17339377777
1885;17472571000;16839377777;17339377777
1886;17472572000;16839377777;17339377777
1887;17472574000;16839377777;17339377777
1888;17472575000;16839377777;17339377777
1889;17472576000;16839377777;17339377777
1890;17472577000;16839377777;17339377777
1891;17472761000;16839400000;17339400000
1892;17472768000;16839666666;17339666666
1893;17472769000;16839666666;17339666666
1894;17632262000;16839666666;17339666666
1895;17682690000;16881044444;17381044444
1949;17847110000;17048000000;17548000000
1950;17883984000;17089377777;17589377777
1952;17883989000;17089377777;17589377777
1953;17883991000;17089377777;17589377777
1954;17883992000;17089377777;17589377777
1955;17883993000;17089377777;17589377777
1956;17883995000;17089377777;17589377777
1957;17884220000;17089400000;17589400000
1958;17884236000;17089655555;17589655555
1959;17884237000;17089655555;17589655555
1960;17884239000;17089655555;17589655555
1961;17918195000;17131044444;17631044444
1962;17918199000;17131044444;17631044444
1963;17918201000;17131044444;17631044444
1964;17918202000;17131044444;17631044444
1965;17918203000;17131044444;17631044444
1966;17918205000;17131044444;17631044444
1967;17918206000;17131044444;17631044444
1968;17918406000;17131066666;17631066666
1969;17918422000;17131344444;17631344444
1970;17918424000;17131344444;17631344444
1971;17918425000;17131344444;17631344444
1972;17947750000;17172711111;17672711111
2029;18044313000;17381044444;17881044444
2030;18044316000;17381044444;17881044444
2031;18044317000;17381044444;17881044444
2032;18044319000;17381044444;17881044444
2033;18044320000;17381044444;17881044444
2034;18044526000;17381055555;17881055555
2035;18044542000;17381344444;17881344444
2036;18044543000;17381344444;17881344444
2037;18044544000;17381344444;17881344444
2038;18057387000;17422722222;17922722222
2039;18057390000;17422722222;17922722222
2040;18057391000;17422722222;17922722222
2041;18057392000;17422722222;17922722222
2042;18057393000;17422722222;17922722222
2043;18057394000;17422722222;17922722222
2044;18057395000;17422722222;17922722222
2045;18057603000;17422744444;17922744444
2046;18057619000;17423000000;17923000000
2047;18057620000;17423000000;17923000000
2048;18057621000;17423000000;17923000000
2049;18072690000;17464388888;17964388888
2050;18072694000;17464388888;17964388888
2051;18072695000;17464388888;17964388888
2052;18233757000;17464388888;17964388888
2053;18233759000;17464388888;17964388888
2054;18233761000;17464388888;17964388888
2055;18233769000;17464388888;17964388888
2056;18284279000;17464400000;17964400000
2108;18284294000;17672711111;18172711111
2109;18284295000;17672711111;18172711111
2110;18284296000;17672711111;18172711111
2111;18486354000;17672733333;18172733333
2112;18486369000;17673033333;18173033333
2113;18486370000;17673033333;18173033333
2114;18486371000;17673033333;18173033333
2115;18519673000;17714377777;18214377777
2116;18519677000;17714377777;18214377777
2117;18519678000;17714377777;18214377777
2118;18519678000;17714377777;18214377777
2119;18519680000;17714377777;18214377777
2120;18519680000;17714377777;18214377777
2121;18519681000;17714377777;18214377777
2122;18519881000;17714400000;18214400000
2123;18519896000;17714711111;18214711111
2124;18519897000;17714711111;18214711111
2125;18519898000;17714711111;18214711111
2126;18559840000;17756044444;18256044444
2184;18646574000;17964377777;18464377777
2189;18646704000;17964711111;18464711111
2190;18646709000;17964711111;18464711111
2191;18646710000;17964711111;18464711111
2192;18659454000;18006044444;18506044444
2193;18659458000;18006044444;18506044444
2194;18659459000;18006044444;18506044444
2195;18659460000;18006044444;18506044444
2196;18659462000;18006044444;18506044444
2197;18659463000;18006044444;18506044444
2198;18659464000;18006044444;18506044444
2199;18659665000;18006066666;18506066666
2200;18659681000;18006388888;18506388888
2201;18659702000;18006388888;18506388888
2202;18659704000;18006388888;18506388888
2203;18674588000;18047711111;18547711111
2204;18674592000;18047711111;18547711111
2205;18674593000;18047711111;18547711111
2206;18674594000;18047711111;18547711111
2207;18674595000;18047711111;18547711111
2208;18674597000;18047711111;18547711111
2209;18674598000;18047711111;18547711111
2210;18674799000;18047722222;18547722222
2211;18835115000;18048033333;18548033333
2212;18835118000;18048033333;18548033333
2213;18835123000;18048033333;18548033333
2214;18927009000;18089400000;18589400000
2265;19087235000;18256066666;18756066666
2266;19087256000;18256388888;18756388888
2267;19087258000;18256388888;18756388888
2268;19087259000;18256388888;18756388888
2269;19120681000;18297722222;18797722222
2270;19120684000;18297722222;18797722222
2271;19120686000;18297722222;18797722222
2272;19120687000;18297722222;18797722222
2273;19120689000;18297722222;18797722222
2274;19120690000;18297722222;18797722222
2275;19120692000;18297722222;18797722222
2276;19120899000;18297733333;18797733333
2277;19120915000;18298044444;18798044444
2278;19120917000;18298044444;18798044444
2279;19120918000;18298044444;18798044444
2280;19150342000;18339388888;18839388888
2339;19247736000;18547711111;19047711111
2345;19247849000;18548033333;19048033333
2346;19261326000;18589377777;19089377777
2347;19261330000;18589377777;19089377777
2348;19261331000;18589377777;19089377777
2349;19261332000;18589377777;19089377777
2350;19261333000;18589377777;19089377777
2351;19261334000;18589377777;19089377777
2352;19261334000;18589377777;19089377777
2353;19261536000;18589400000;19089400000
2354;19261551000;18589700000;19089700000
2355;19261552000;18589700000;19089700000
2356;19261553000;18589700000;19089700000
2357;19276365000;18631055555;19131055555
2358;19276369000;18631055555;19131055555
2359;19276370000;18631055555;19131055555
2360;19276371000;18631055555;19131055555
2361;19276372000;18631055555;19131055555
2362;19276373000;18631055555;19131055555
2363;19276374000;18631055555;19131055555
2364;19276591000;18631066666;19131066666
2365;19276607000;18631388888;19131388888
2366;19276608000;18631388888;19131388888
2367;19436588000;18631388888;19131388888
2368;19486957000;18672722222;19172722222
2420;19651349000;18839688888;19339688888
2421;19651353000;18839688888;19339688888
2422;19651354000;18839688888;19339688888
2423;19688266000;18881044444;19381044444
2424;19688269000;18881044444;19381044444
2425;19688270000;18881044444;19381044444
2426;19688271000;18881044444;19381044444
2427;19688272000;18881044444;19381044444
2428;19688274000;18881044444;19381044444
2429;19688275000;18881044444;19381044444
2430;19688494000;18881066666;19381066666
2431;19688511000;18881377777;19381377777
2432;19688512000;18881377777;19381377777
2433;19688513000;18881377777;19381377777
2434;19722487000;18922711111;19422711111
2435;19722490000;18922711111;19422711111
2436;19722492000;18922711111;19422711111
2437;19722493000;18922711111;19422711111
2438;19722494000;18922711111;19422711111
2441;19722986000;18922733333;19422733333
2442;19723003000;18923033333;19423033333
2443;19723004000;18923033333;19423033333
2444;19723005000;18923033333;19423033333
2451;19762532000;18964377777;19464377777
2496;19848105000;19131077777;19631077777
2501;19848126000;19172711111;19672711111
2502;19848128000;19172711111;19672711111
2503;19848129000;19172711111;19672711111
2504;19848130000;19172711111;19672711111
2505;19848132000;19172711111;19672711111
2506;19848133000;19172711111;19672711111
2507;19867083000;19172733333;19672733333
2508;19867098000;19173022222;19673022222
2509;19867100000;19173022222;19673022222
2510;19867101000;19173022222;19673022222
2511;19884690000;19214388888;19714388888
2512;19884694000;19214388888;19714388888
2513;19884695000;19214388888;19714388888
2514;19884696000;19214388888;19714388888
2515;19884698000;19214388888;19714388888
2516;19884699000;19214388888;19714388888
2517;19884700000;19214388888;19714388888
2518;19884901000;19214400000;19714400000
2519;19884916000;19214700000;19714700000
2520;19884919000;19214700000;19714700000
2521;19884937000;19214700000;19714700000
2522;19903533000;19256055555;19756055555
2523;19903537000;19256055555;19756055555
2524;20037399000;19256055555;19756055555
2525;20037402000;19256055555;19756055555
2526;20037408000;19256055555;19756055555
2527;20037414000;19256055555;19756055555
2528;20037418000;19256055555;19756055555
2529;20087898000;19256066666;19756066666
2580;20087914000;19464400000;19964400000
2581;20087915000;19464400000;19964400000
2582;20087916000;19464400000;19964400000
2583;20087917000;19464400000;19964400000
2584;20290156000;19464422222;19964422222
2585;20290178000;19464722222;19964722222
2586;20290180000;19464722222;19964722222
2587;20290181000;19464722222;19964722222
2588;20323335000;19506044444;20006044444
2589;20323340000;19506044444;20006044444
2590;20323341000;19506044444;20006044444
2591;20323342000;19506044444;20006044444
2592;20323343000;19506044444;20006044444
2593;20323345000;19506044444;20006044444
2594;20323346000;19506044444;20006044444
2595;20323551000;19506066666;20006066666
2596;20323567000;19506388888;20006388888
2597;20323569000;19506388888;20006388888
2598;20323570000;19506388888;20006388888
2599;20353519000;19547722222;20047722222
2653;20447599000;19714677777;20214677777
2660;20464880000;19756044444;20256044444
2661;20465105000;19756066666;20256066666
2662;20465120000;19756366666;20256366666
2663;20465122000;19756366666;20256366666
2664;20465123000;19756366666;20256366666
2665;20480682000;19797711111;20297711111
2666;20480686000;19797711111;20297711111
2667;20480687000;19797711111;20297711111
2668;20480688000;19797711111;20297711111
2669;20480689000;19797711111;20297711111
2670;20480690000;19797711111;20297711111
2671;20480691000;19797711111;20297711111
2672;20480869000;19797733333;20297733333
2673;20480874000;19798000000;20298000000
2674;20480875000;19798000000;20298000000
2675;20480877000;19798000000;20298000000
2676;20498133000;19839377777;20339377777
2677;20498138000;19839377777;20339377777
2678;20498139000;19839377777;20339377777
2679;20498140000;19839377777;20339377777
2680;20498141000;19839377777;20339377777
2681;20498142000;19839377777;20339377777
2682;20498143000;19839377777;20339377777
2683;20688444000;19839400000;20339400000
2739;20688460000;20048000000;20548000000
2740;20688461000;20048000000;20548000000
2741;20688462000;20048000000;20548000000
2742;20924878000;20089377777;20589377777
2743;20924881000;20089377777;20589377777
2744;20924882000;20089377777;20589377777
2745;20924883000;20089377777;20589377777
2746;20924884000;20089377777;20589377777
2747;20924885000;20089377777;20589377777
2748;20924887000;20089377777;20589377777
2749;20925099000;20089400000;20589400000
2750;20925115000;20089655555;20589655555
2751;20925116000;20089655555;20589655555
2752;20925117000;20089655555;20589655555
2753;20965386000;20131044444;20631044444
2811;21050801000;20339377777;20839377777
2818;21050950000;20339688888;20839688888
2819;21063690000;20381044444;20881044444
2820;21063695000;20381044444;20881044444
2821;21063696000;20381044444;20881044444
2822;21063697000;20381044444;20881044444
2823;21063698000;20381044444;20881044444
2824;21063700000;20381044444;20881044444
2825;21063702000;20381044444;20881044444
2826;21063914000;20381066666;20881066666
2827;21063930000;20381344444;20881344444
2828;21063931000;20381344444;20881344444
2829;21063932000;20381344444;20881344444
2830;21078839000;20422722222;20922722222
2831;21078843000;20422722222;20922722222
2832;21078844000;20422722222;20922722222
2833;21078846000;20422722222;20922722222
2834;21078847000;20422722222;20922722222
2835;21078848000;20422722222;20922722222
2836;21078849000;20422722222;20922722222
2837;21079059000;20422733333;20922733333
2839;21079229000;20423000000;20923000000
2840;21079232000;20423000000;20923000000
2841;21288942000;20464388888;20964388888
2895;21453418000;20631366666;21131366666
2896;21490281000;20672711111;21172711111
2897;21490288000;20672711111;21172711111
2898;21490289000;20672711111;21172711111
2899;21490291000;20672711111;21172711111
2900;21490292000;20672711111;21172711111
2901;21490294000;20672711111;21172711111
2902;21490313000;20672711111;21172711111
2903;21490529000;20672733333;21172733333
2904;21490545000;20673000000;21173000000
2907;21525814000;20714377777;21214377777
2908;21525818000;20714377777;21214377777
2909;21525819000;20714377777;21214377777
2910;21525820000;20714377777;21214377777
2911;21525822000;20714377777;21214377777
2912;21525823000;20714377777;21214377777
2913;21525824000;20714377777;21214377777
2914;21525949000;20714400000;21214400000
2915;21525964000;20714666666;21214666666
2916;21525966000;20714666666;21214666666
2917;21525967000;20714666666;21214666666
2918;21554688000;20756044444;21256044444
2966;21645616000;20922722222;21422722222
2976;21670419000;20964377777;21464377777
2977;21670423000;20964377777;21464377777
2979;21670424000;20964377777;21464377777
2980;21670633000;20964400000;21464400000
2981;21670649000;20964677777;21464677777
2982;21670650000;20964677777;21464677777
2983;21670651000;20964677777;21464677777
2984;21685416000;21006044444;21506044444
2985;21685419000;21006044444;21506044444
2986;21685420000;21006044444;21506044444
2987;21685421000;21006044444;21506044444
2988;21685423000;21006044444;21506044444
2989;21685424000;21006044444;21506044444
2990;21685424000;21006044444;21506044444
2992;21685520000;21006344444;21506344444
2993;21685523000;21006344444;21506344444
2994;21685524000;21006344444;21506344444
2995;21709438000;21047711111;21547711111
2996;21709442000;21047711111;21547711111
2997;21709443000;21047711111;21547711111
2998;21709444000;21047711111;21547711111
2999;21839397000;21047711111;21547711111
3000;21839400000;21047711111;21547711111
3001;21839401000;21047711111;21547711111
3002;21889876000;21047733333;21547733333
3055;21889892000;21256044444;21756044444
3056;21889894000;21256044444;21756044444
3057;22092000000;21256066666;21756066666
3058;22092016000;21256355555;21756355555
3059;22092017000;21256355555;21756355555
3060;22092018000;21256355555;21756355555
3061;22125295000;21297711111;21797711111
3062;22125299000;21297711111;21797711111
3063;22125300000;21297711111;21797711111
3064;22125302000;21297711111;21797711111
3065;22125303000;21297711111;21797711111
3066;22125304000;21297711111;21797711111
3067;22125305000;21297711111;21797711111
3068;22125523000;21297733333;21797733333
3069;22125540000;21298011111;21798011111
3070;22125541000;21298011111;21798011111
3071;22125542000;21298011111;21798011111
3072;22166844000;21339400000;21839400000
3126;22246465000;21506355555;22006355555
3134;22264344000;21547733333;22047733333
3135;22264362000;21548000000;22048000000
3136;22264363000;21548000000;22048000000
3137;22264365000;21548000000;22048000000
3138;22280570000;21589377777;22089377777
3139;22280574000;21589377777;22089377777
3140;22280575000;21589377777;22089377777
3141;22280577000;21589377777;22089377777
3142;22280579000;21589377777;22089377777
3143;22280580000;21589377777;22089377777
3144;22280581000;21589377777;22089377777
3145;22280784000;21589400000;22089400000
3146;22280800000;21589655555;22089655555
3147;22280802000;21589655555;22089655555
3148;22280803000;21589655555;22089655555
3149;22298521000;21631044444;22131044444
3150;22298525000;21631044444;22131044444
3151;22298526000;21631044444;22131044444
3152;22298527000;21631044444;22131044444
3153;22298529000;21631044444;22131044444
3154;22298530000;21631044444;22131044444
3155;22298532000;21631044444;22131044444
3156;22298741000;21631066666;22131066666
3157;22440388000;21631355555;22131355555
3158;22440400000;21631355555;22131355555
3159;22440418000;21631355555;22131355555
3160;22532322000;21672711111;22172711111
3213;22692489000;21839700000;22339700000
3214;22692500000;21839700000;22339700000
3215;22725990000;21881044444;22381044444
3216;22725995000;21881044444;22381044444
3217;22725997000;21881044444;22381044444
3218;22725998000;21881044444;22381044444
3219;22726000000;21881044444;22381044444
3220;22726001000;21881044444;22381044444
3221;22726003000;21881044444;22381044444
3222;22726222000;21881066666;22381066666
3223;22726239000;21881355555;22381355555
3224;22726240000;21881355555;22381355555
3225;22726242000;21881355555;22381355555
3226;22755626000;21922711111;22422711111
3284;22857036000;22131055555;22631055555
3292;22869864000;22172711111;22672711111
3293;22869868000;22172711111;22672711111
3294;22869869000;22172711111;22672711111
3295;22869870000;22172711111;22672711111
3296;22869871000;22172711111;22672711111
3297;22869872000;22172711111;22672711111
3298;22869873000;22172711111;22672711111
3299;22870115000;22172733333;22672733333
3300;22870130000;22173011111;22673011111
3301;22870131000;22173011111;22673011111
3302;22870132000;22173011111;22673011111
3303;22884193000;22214388888;22714388888
3304;22884196000;22214388888;22714388888
3305;22884197000;22214388888;22714388888
3306;22884198000;22214388888;22714388888
3307;22884199000;22214388888;22714388888
3308;22884200000;22214388888;22714388888
3309;22884201000;22214388888;22714388888
3310;22884402000;22214400000;22714400000
3311;22884418000;22214677777;22714677777
3312;22884419000;22214677777;22714677777
3313;22884420000;22214677777;22714677777
3314;22900971000;22256055555;22756055555
3315;23041176000;22256055555;22756055555
3316;23041179000;22256055555;22756055555
3317;23041180000;22256055555;22756055555
3318;23041181000;22256055555;22756055555
3319;23041237000;22256055555;22756055555
3320;23041239000;22256055555;22756055555
3321;23091716000;22256077777;22756077777
3371;23091732000;22464377777;22964377777
3372;23091733000;22464377777;22964377777
3373;23091734000;22464377777;22964377777
3374;23091735000;22464377777;22964377777
3375;23091736000;22464377777;22964377777
3376;23293943000;22464400000;22964400000
3377;23293958000;22464677777;22964677777
3378;23293960000;22464677777;22964677777
3379;23293961000;22464677777;22964677777
3380;23327250000;22506055555;23006055555
3381;23327254000;22506055555;23006055555
3382;23327255000;22506055555;23006055555
3383;23327256000;22506055555;23006055555
3384;23327257000;22506055555;23006055555
3385;23327258000;22506055555;23006055555
3386;23327259000;22506055555;23006055555
3387;23327465000;22506066666;23006066666
3388;23327481000;22506366666;23006366666
3389;23327482000;22506366666;23006366666
3390;23327484000;22506366666;23006366666
3391;23368882000;22547733333;23047733333
3441;23451489000;22714388888;23214388888
3450;23468738000;22756044444;23256044444
3451;23468743000;22756044444;23256044444
3452;23468744000;22756044444;23256044444
3453;23468954000;22756066666;23256066666
3454;23468970000;22756377777;23256377777
3455;23468971000;22756377777;23256377777
3456;23468973000;22756377777;23256377777
3457;23485121000;22797722222;23297722222
3458;23485125000;22797722222;23297722222
3459;23485126000;22797722222;23297722222
3461;23485607000;22797722222;23297722222
3462;23485621000;22797722222;23297722222
3463;23485622000;22797722222;23297722222
3464;23485826000;22797733333;23297733333
3465;23485842000;22798011111;23298011111
3466;23485844000;22798011111;23298011111
3467;23485845000;22798011111;23298011111
3468;23502395000;22839377777;23339377777
3469;23502399000;22839377777;23339377777
3470;23502401000;22839377777;23339377777
3471;23502403000;22839377777;23339377777
3472;23502404000;22839377777;23339377777
3473;23641706000;22839377777;23339377777
3474;23641712000;22839377777;23339377777
3475;23692199000;22839400000;23339400000
3529;23692216000;23047711111;23547711111
3530;23894403000;23047733333;23547733333
3531;23894427000;23048011111;23548011111
3532;23894429000;23048011111;23548011111
3533;23894430000;23048011111;23548011111
3534;23927611000;23089377777;23589377777
3535;23927615000;23089377777;23589377777
3536;23927616000;23089377777;23589377777
3537;23927618000;23089377777;23589377777
3538;23927619000;23089377777;23589377777
3539;23927620000;23089377777;23589377777
3540;23927622000;23089377777;23589377777
3541;23927833000;23089400000;23589400000
3542;23927849000;23089666666;23589666666
3543;23927851000;23089666666;23589666666
3544;23927852000;23089666666;23589666666
3545;23957805000;23131044444;23631044444
3600;24066872000;23339388888;23839388888
3609;24066990000;23339700000;23839700000
3610;24066994000;23339700000;23839700000
3611;24082704000;23381044444;23881044444
3612;24082718000;23381044444;23881044444
3613;24082719000;23381044444;23881044444
3614;24082720000;23381044444;23881044444
3615;24082721000;23381044444;23881044444
3616;24082722000;23381044444;23881044444
3617;24082723000;23381044444;23881044444
3618;24083089000;23381066666;23881066666
3619;24083105000;23381366666;23881366666
3620;24083106000;23381366666;23881366666
3621;24083107000;23381366666;23881366666
3622;24098982000;23422711111;23922711111
3623;24098985000;23422711111;23922711111
3624;24098986000;23422711111;23922711111
3625;24098987000;23422711111;23922711111
3626;24098988000;23422711111;23922711111
3627;24098989000;23422711111;23922711111
3628;24098990000;23422711111;23922711111
3629;24099205000;23422733333;23922733333
3630;24099221000;23423011111;23923011111
3631;24242487000;23423011111;23923011111
3632;24242503000;23423011111;23923011111
3633;24292886000;23464377777;23964377777
3687;24457280000;23631377777;24131377777
3688;24494197000;23672711111;24172711111
3689;24494200000;23672711111;24172711111
3690;24494201000;23672711111;24172711111
3691;24494202000;23672711111;24172711111
3692;24494203000;23672711111;24172711111
3693;24494204000;23672711111;24172711111
3694;24494205000;23672711111;24172711111
3695;24494406000;23672733333;24172733333
3696;24494421000;23673000000;24173000000
3697;24494422000;23673000000;24173000000
3698;24494423000;23673000000;24173000000
3699;24528428000;23714388888;24214388888
3700;24528431000;23714388888;24214388888
3701;24528432000;23714388888;24214388888
3702;24528433000;23714388888;24214388888
3703;24528434000;23714388888;24214388888
3704;24528435000;23714388888;24214388888
3705;24528436000;23714388888;24214388888
3706;24528609000;23714400000;24214400000
3707;24528613000;23714688888;24214688888
3708;24528614000;23714688888;24214688888
3709;24528615000;23714688888;24214688888
3710;24570718000;23756055555;24256055555
3757;24653893000;23922722222;24422722222
3766;24672235000;23964377777;24464377777
3767;24672240000;23964377777;24464377777
3768;24672242000;23964377777;24464377777
3769;24672243000;23964377777;24464377777
3770;24672245000;23964377777;24464377777
3771;24672246000;23964377777;24464377777
3772;24672462000;23964400000;24464400000
3773;24672479000;23964688888;24464688888
3774;24672480000;23964688888;24464688888
3775;24672482000;23964688888;24464688888
3776;24690065000;24006044444;24506044444
3777;24690069000;24006044444;24506044444
3778;24690071000;24006044444;24506044444
3779;24690072000;24006044444;24506044444
3780;24690073000;24006044444;24506044444
3781;24690075000;24006044444;24506044444
3782;24690076000;24006044444;24506044444
3783;24690278000;24006066666;24506066666
3784;24690294000;24006377777;24506377777
3785;24690296000;24006377777;24506377777
3786;24690297000;24006377777;24506377777
3787;24709004000;24047711111;24547711111
3788;24709008000;24047711111;24547711111
3789;24843648000;24047711111;24547711111
3790;24843655000;24047711111;24547711111
3791;24843662000;24047711111;24547711111
3792;24843678000;24047711111;24547711111
3793;24843680000;24047711111;24547711111
3794;24894164000;24047733333;24547733333
3845;24894180000;24256044444;24756044444
3846;24894181000;24256044444;24756044444
3847;24894182000;24256044444;24756044444
3848;24894183000;24256044444;24756044444
3849;25104919000;24256066666;24756066666
3850;25104945000;24256366666;24756366666
3851;25104948000;24256366666;24756366666
3852;25104951000;24256366666;24756366666
3853;25129748000;24297711111;24797711111
3854;25129761000;24297711111;24797711111
3855;25129763000;24297711111;24797711111
3856;25129766000;24297711111;24797711111
3857;25129768000;24297711111;24797711111
3858;25129771000;24297711111;24797711111
3859;25129772000;24297711111;24797711111
3860;25129961000;24297733333;24797733333
3861;25129966000;24298011111;24798011111
3862;25129968000;24298011111;24798011111
3863;25129969000;24298011111;24798011111
3864;25159829000;24339388888;24839388888
3916;25250519000;24506366666;25006366666
3924;25268245000;24547711111;25047711111
3925;25268249000;24547711111;25047711111
3926;25268451000;24547733333;25047733333
3927;25268483000;24548011111;25048011111
3928;25268485000;24548011111;25048011111
3929;25268486000;24548011111;25048011111
3930;25284538000;24589388888;25089388888
3931;25284542000;24589388888;25089388888
3932;25284543000;24589388888;25089388888
3933;25284544000;24589388888;25089388888
3934;25284546000;24589388888;25089388888
3935;25284547000;24589388888;25089388888
3936;25284548000;24589388888;25089388888
3937;25284720000;24589400000;25089400000
3938;25284724000;24589666666;25089666666
3939;25284726000;24589666666;25089666666
3940;25284727000;24589666666;25089666666
3941;25302383000;24631088888;25131088888
3942;25302385000;24631088888;25131088888
3943;25302386000;24631088888;25131088888
3944;25302387000;24631088888;25131088888
3945;25302388000;24631088888;25131088888
3946;25302390000;24631088888;25131088888
3947;25444921000;24631088888;25131088888
3948;25495383000;24631100000;25131100000
4000;25495399000;24839388888;25339388888
4001;25495400000;24839388888;25339388888
4002;25495401000;24839388888;25339388888
4003;25697479000;24839400000;25339400000
4007;25697495000;24881044444;25381044444
4008;25697496000;24881044444;25381044444
4009;25697497000;24881044444;25381044444
4010;25697498000;24881044444;25381044444
4011;25697499000;24881044444;25381044444
4012;25697500000;24881044444;25381044444
4013;25697501000;24881044444;25381044444
4014;25730874000;24881066666;25381066666
4015;25730890000;24881366666;25381366666
4016;25730891000;24881366666;25381366666
4017;25730892000;24881366666;25381366666
4018;25772938000;24922722222;25422722222
4065;25851634000;25089400000;25589400000
4083;25876405000;25131377777;25631377777
4084;25891888000;25172711111;25672711111
4085;25891892000;25172711111;25672711111
4086;25891893000;25172711111;25672711111
4087;25891895000;25172711111;25672711111
4088;25891896000;25172711111;25672711111
4089;25891898000;25172711111;25672711111
4090;25891899000;25172711111;25672711111
4091;25892103000;25172733333;25672733333
4092;25892119000;25173011111;25673011111
4093;25892121000;25173011111;25673011111
4094;25892122000;25173011111;25673011111
4095;25908420000;25214388888;25714388888
4096;25908424000;25214388888;25714388888
4097;25908425000;25214388888;25714388888
4098;25908427000;25214388888;25714388888
4099;25908429000;25214388888;25714388888
4100;25908430000;25214388888;25714388888
4101;25908431000;25214388888;25714388888
4102;25908610000;25214400000;25714400000
4103;25908615000;25214688888;25714688888
4104;25908616000;25214688888;25714688888
4105;25908618000;25214688888;25714688888
4106;26096158000;25256044444;25756044444
4157;26260758000;25422744444;25922744444
4160;26260780000;25423011111;25923011111
4161;26297482000;25464377777;25964377777
4162;26297487000;25464377777;25964377777
4163;26297489000;25464377777;25964377777
4164;26297490000;25464377777;25964377777
4165;26297492000;25464377777;25964377777
4166;26297493000;25464377777;25964377777
4167;26297494000;25464377777;25964377777
4168;26297708000;25464400000;25964400000
4169;26297725000;25464688888;25964688888
4170;26297726000;25464688888;25964688888
4171;26297728000;25464688888;25964688888
4172;26331684000;25506044444;26006044444
4173;26331688000;25506044444;26006044444
4174;26331689000;25506044444;26006044444
4175;26331691000;25506044444;26006044444
4176;26331692000;25506044444;26006044444
4177;26331694000;25506044444;26006044444
4178;26331695000;25506044444;26006044444
4179;26331841000;25506066666;26006066666
4180;26331844000;25506366666;26006366666
4181;26331846000;25506366666;26006366666
4182;26346361000;25506366666;26006366666
4183;26362108000;25547711111;26047711111
4229;26457187000;25714388888;26214388888
4239;26475544000;25756044444;26256044444
4240;26475547000;25756044444;26256044444
4241;26475549000;25756044444;26256044444
4242;26475550000;25756044444;26256044444
4243;26475550000;25756044444;26256044444
4244;26475551000;25756044444;26256044444
4245;26475752000;25756066666;26256066666
4246;26475767000;25756377777;26256377777
4247;26475769000;25756377777;26256377777
4248;26475770000;25756377777;26256377777
4249;26493375000;25797711111;26297711111
4250;26493378000;25797711111;26297711111
4251;26493379000;25797711111;26297711111
4252;26493380000;25797711111;26297711111
4253;26493382000;25797711111;26297711111
4254;26493383000;25797711111;26297711111
4255;26493384000;25797711111;26297711111
4256;26493523000;25797733333;26297733333
4257;26493525000;25798011111;26298011111
4258;26493526000;25798011111;26298011111
4259;26493527000;25798011111;26298011111
4260;26512652000;25839388888;26339388888
4261;26512654000;25839388888;26339388888
4262;26646627000;25839388888;26339388888
4263;26646630000;25839388888;26339388888
4264;26646631000;25839388888;26339388888
4265;26646632000;25839388888;26339388888
4266;26646688000;25839388888;26339388888
4267;26697162000;25839400000;26339400000
4313;26697177000;26006366666;26506366666
4314;26697179000;26006366666;26506366666
4315;26898809000;26047722222;26547722222
4318;26898812000;26047722222;26547722222
4319;26898813000;26047722222;26547722222
4320;26898814000;26047722222;26547722222
4323;26899489000;26048022222;26548022222
4324;26899492000;26048022222;26548022222
4325;26899493000;26048022222;26548022222
4326;26934528000;26089377777;26589377777
4327;26934531000;26089377777;26589377777
4328;26934532000;26089377777;26589377777
4329;26934533000;26089377777;26589377777
4330;26934534000;26089377777;26589377777
4331;26934535000;26089377777;26589377777
4332;26934536000;26089377777;26589377777
4333;26934736000;26089400000;26589400000
4334;26934751000;26089666666;26589666666
4335;26934752000;26089666666;26589666666
4336;26934753000;26089666666;26589666666
4337;26975116000;26131066666;26631066666
4387;27054582000;26297722222;26797722222
4396;27072036000;26339388888;26839388888
4397;27072040000;26339388888;26839388888
4398;27072073000;26339388888;26839388888
4399;27072310000;26339400000;26839400000
4400;27072325000;26339700000;26839700000
4401;27072327000;26339700000;26839700000
4402;27072329000;26339700000;26839700000
4403;27088071000;26381055555;26881055555
4404;27088075000;26381055555;26881055555
4405;27088077000;26381055555;26881055555
4406;27088079000;26381055555;26881055555
4407;27088080000;26381055555;26881055555
4408;27088081000;26381055555;26881055555
4409;27088083000;26381055555;26881055555
4410;27088285000;26381066666;26881066666
4411;27088301000;26381366666;26881366666
4412;27088302000;26381366666;26881366666
4413;27088304000;26381366666;26881366666
4414;27105650000;26422711111;26922711111
4415;27105652000;26422711111;26922711111
4416;27105653000;26422711111;26922711111
4417;27105654000;26422711111;26922711111
4418;27105656000;26422711111;26922711111
4419;27247262000;26422711111;26922711111
4420;27247264000;26422711111;26922711111
4421;27297649000;26422733333;26922733333
4468;27297655000;26589688888;27089688888
4469;27499822000;26631055555;27131055555
4472;27499831000;26631055555;27131055555
4473;27499833000;26631055555;27131055555
4475;27499835000;26631055555;27131055555
4476;27499987000;26631077777;27131077777
4478;27499993000;26631377777;27131377777
4479;27499995000;26631377777;27131377777
4480;27533169000;26672722222;27172722222
4481;27533173000;26672722222;27172722222
4482;27533175000;26672722222;27172722222
4483;27533176000;26672722222;27172722222
4484;27533177000;26672722222;27172722222
4485;27533178000;26672722222;27172722222
4486;27533180000;26672722222;27172722222
4487;27533304000;26672744444;27172744444
4488;27533309000;26673000000;27173000000
4489;27533311000;26673000000;27173000000
4490;27533312000;26673000000;27173000000
4491;27563327000;26714377777;27214377777
4545;27653906000;26881300000;27381300000
4552;27671642000;26922722222;27422722222
4553;27671765000;26922744444;27422744444
4554;27671771000;26923000000;27423000000
4555;27671772000;26923000000;27423000000
4556;27671773000;26923000000;27423000000
4557;27687879000;26964400000;27464400000
4558;27687883000;26964400000;27464400000
4559;27687884000;26964400000;27464400000
4560;27687885000;26964400000;27464400000
4561;27687886000;26964400000;27464400000
4562;27687887000;26964400000;27464400000
4563;27687888000;26964400000;27464400000
4564;27688015000;26964411111;27464411111
4565;27688020000;26964688888;27464688888
4566;27688021000;26964688888;27464688888
4567;27688022000;26964688888;27464688888
4568;27705705000;27006044444;27506044444
4569;27705708000;27006044444;27506044444
4570;27705709000;27006044444;27506044444
4571;27705710000;27006044444;27506044444
4572;27705711000;27006044444;27506044444
4573;27705712000;27006044444;27506044444
4574;27705713000;27006044444;27506044444
4575;27898293000;27006066666;27506066666
4626;27898300000;27214388888;27714388888
4627;27898302000;27214388888;27714388888
4628;27898303000;27214388888;27714388888
4629;27898304000;27214388888;27714388888
4630;28100412000;27214400000;27714400000
4634;28100419000;27256055555;27756055555
4635;28100421000;27256055555;27756055555
4636;28100422000;27256055555;27756055555
4637;28100423000;27256055555;27756055555
4638;28100424000;27256055555;27756055555
4639;28100434000;27256055555;27756055555
4640;28100435000;27256055555;27756055555
4641;28133826000;27256077777;27756077777
4642;28133832000;27256355555;27756355555
4643;28133833000;27256355555;27756355555
4644;28133834000;27256355555;27756355555
4645;28177330000;27297711111;27797711111
4705;28260794000;27506055555;28006055555
4709;28260897000;27506366666;28006366666
4710;28260909000;27506366666;28006366666
4711;28273705000;27547722222;28047722222
4712;28273709000;27547722222;28047722222
4713;28273710000;27547722222;28047722222
4714;28273711000;27547722222;28047722222
4715;28273713000;27547722222;28047722222
4716;28273714000;27547722222;28047722222
4717;28273715000;27547722222;28047722222
4718;28273830000;27547744444;28047744444
4719;28273835000;27548022222;28048022222
4720;28273836000;27548022222;28048022222
4721;28273838000;27548022222;28048022222
4722;28288862000;27589388888;28089388888
4723;28288866000;27589388888;28089388888
4724;28288867000;27589388888;28089388888
4725;28288869000;27589388888;28089388888
4726;28288870000;27589388888;28089388888
4727;28288871000;27589388888;28089388888
4728;28288872000;27589388888;28089388888
4729;28288995000;27589400000;28089400000
4730;28289000000;27589666666;28089666666
4731;28289002000;27589666666;28089666666
4732;28448526000;27589666666;28089666666
4733;28498856000;27631044444;28131044444
4784;28663426000;27797733333;28297733333
4787;28663447000;27798022222;28298022222
4788;28700198000;27839388888;28339388888
4789;28700202000;27839388888;28339388888
4790;28700203000;27839388888;28339388888
4791;28700205000;27839388888;28339388888
4792;28700206000;27839388888;28339388888
4793;28700207000;27839388888;28339388888
4794;28700208000;27839388888;28339388888
4795;28700333000;27839411111;28339411111
4796;28700338000;27839700000;28339700000
4797;28700340000;27839700000;28339700000
4798;28700341000;27839700000;28339700000
4799;28734429000;27881055555;28381055555
4800;28734433000;27881055555;28381055555
4801;28734435000;27881055555;28381055555
4802;28734436000;27881055555;28381055555
4803;28734437000;27881055555;28381055555
4804;28734438000;27881055555;28381055555
4805;28734439000;27881055555;28381055555
4806;28734562000;27881077777;28381077777
4807;28734568000;27881377777;28381377777
4808;28734569000;27881377777;28381377777
4809;28748857000;27881377777;28381377777
4810;28764836000;27922722222;28422722222
4861;28860090000;28089400000;28589400000
4866;28860097000;28131066666;28631066666
4867;28860098000;28131066666;28631066666
4868;28860099000;28131066666;28631066666
4869;28860109000;28131066666;28631066666
4870;28860110000;28131066666;28631066666
4871;28860111000;28131066666;28631066666
4873;28878625000;28131366666;28631366666
4874;28878628000;28131366666;28631366666
4875;28878629000;28131366666;28631366666
4876;28903277000;28172711111;28672711111
4877;28903280000;28172711111;28672711111
4878;28903281000;28172711111;28672711111
4879;28903282000;28172711111;28672711111
4880;28903283000;28172711111;28672711111
4881;28903285000;28172711111;28672711111
4882;28903286000;28172711111;28672711111
4883;28903412000;28172733333;28672733333
4884;28903418000;28173022222;28673022222
4885;28903419000;28173022222;28673022222
4886;28903439000;28173022222;28673022222
4887;28921126000;28214377777;28714377777
4888;28921130000;28214377777;28714377777
4889;29049267000;28214377777;28714377777
4890;29049270000;28214377777;28714377777
4891;29049284000;28214377777;28714377777
4892;29049292000;28214377777;28714377777
4893;29049299000;28214377777;28714377777
4894;29099680000;28214400000;28714400000
4942;29099686000;28422733333;28922733333
4943;29099687000;28422733333;28922733333
4944;29099688000;28422733333;28922733333
4945;29099689000;28422733333;28922733333
4946;29099690000;28422733333;28922733333
4947;29099691000;28422733333;28922733333
4948;29099692000;28422733333;28922733333
4949;29301839000;28422744444;28922744444
4952;29301845000;28423022222;28923022222
4953;29335170000;28464388888;28964388888
4954;29335173000;28464388888;28964388888
4955;29335174000;28464388888;28964388888
4956;29335175000;28464388888;28964388888
4957;29335176000;28464388888;28964388888
4958;29335177000;28464388888;28964388888
4959;29335178000;28464388888;28964388888
4960;29335290000;28464400000;28964400000
4961;29335295000;28464700000;28964700000
4962;29335296000;28464700000;28964700000
4963;29335297000;28464700000;28964700000
4964;29378713000;28506055555;29006055555
5018;29460171000;28673022222;29173022222
5021;29649963000;28714400000;29214400000
5032;29649979000;28756055555;29256055555
5034;29649981000;28756055555;29256055555
5035;29649993000;28756055555;29256055555
5036;29649994000;28756055555;29256055555
5037;29650113000;28756077777;29256077777
5045;29650132000;28797722222;29297722222
5046;29650133000;28797722222;29297722222
5047;29650135000;28797722222;29297722222
5048;29700254000;28797744444;29297744444
5095;29700261000;28964711111;29464711111
5096;29902401000;29006066666;29506066666
5102;29902412000;29006066666;29506066666
5103;29902557000;29006077777;29506077777
5104;29902563000;29006366666;29506366666
5105;29902564000;29006366666;29506366666
5106;29902565000;29006366666;29506366666
5107;29935705000;29047722222;29547722222
5108;29935709000;29047722222;29547722222
5110;29936923000;29047722222;29547722222
5111;29936925000;29047722222;29547722222
5112;29936926000;29047722222;29547722222
5113;29936928000;29047722222;29547722222
5114;29937080000;29047744444;29547744444
5116;29937086000;29048011111;29548011111
5117;29937088000;29048011111;29548011111
5118;29965341000;29089388888;29589388888
5176;30062630000;29297722222;29797722222
5182;30062697000;29298033333;29798033333
5183;30062709000;29298033333;29798033333
5184;30075529000;29339388888;29839388888
5185;30075533000;29339388888;29839388888
5186;30075534000;29339388888;29839388888
5187;30075535000;29339388888;29839388888
5188;30075536000;29339388888;29839388888
5189;30075537000;29339388888;29839388888
5190;30075538000;29339388888;29839388888
5191;30075641000;29339400000;29839400000
5192;30075647000;29339700000;29839700000
5193;30075648000;29339700000;29839700000
5194;30075649000;29339700000;29839700000
5195;30090685000;29381055555;29881055555
5196;30090689000;29381055555;29881055555
5197;30090690000;29381055555;29881055555
5198;30090691000;29381055555;29881055555
5199;30090692000;29381055555;29881055555
5200;30090693000;29381055555;29881055555
5201;30090694000;29381055555;29881055555
5202;30090819000;29381066666;29881066666
5203;30090825000;29381355555;29881355555
5204;30250426000;29381355555;29881355555
5205;30250429000;29381355555;29881355555
5206;30300760000;29422711111;29922711111
5254;30465187000;29589400000;30089400000
5261;30502567000;29631055555;30131055555
5262;30502570000;29631055555;30131055555
5263;30502571000;29631055555;30131055555
5264;30502572000;29631055555;30131055555
5265;30502573000;29631055555;30131055555
5266;30502574000;29631055555;30131055555
5267;30502575000;29631055555;30131055555
5268;30502648000;29631066666;30131066666
5269;30502663000;29631388888;30131388888
5270;30502664000;29631388888;30131388888
5271;30502665000;29631388888;30131388888
5272;30536315000;29672711111;30172711111
5273;30536319000;29672711111;30172711111
5274;30536320000;29672711111;30172711111
5275;30536321000;29672711111;30172711111
5276;30536331000;29672711111;30172711111
5277;30536332000;29672711111;30172711111
5278;30536333000;29672711111;30172711111
5279;30536457000;29672733333;30172733333
5280;30536462000;29673011111;30173011111
5281;30536464000;29673011111;30173011111
5282;30550957000;29673011111;30173011111
5283;30581209000;29714377777;30214377777
5334;30661998000;29881077777;30381077777
5338;30662018000;29922722222;30422722222
5339;30662020000;29922722222;30422722222
5340;30662022000;29922722222;30422722222
5341;30662023000;29922722222;30422722222
5342;30662024000;29922722222;30422722222
5343;30662026000;29922722222;30422722222
5344;30662027000;29922722222;30422722222
5345;30680348000;29922733333;30422733333
5346;30680365000;29923022222;30423022222
5347;30680366000;29923022222;30423022222
5348;30680367000;29923022222;30423022222
5349;30698064000;29964388888;30464388888
5350;30698078000;29964388888;30464388888
5351;30698079000;29964388888;30464388888
5352;30698081000;29964388888;30464388888
5353;30698082000;29964388888;30464388888
5354;30698083000;29964388888;30464388888
5355;30698085000;29964388888;30464388888
5356;30698295000;29964411111;30464411111
5357;30698312000;29964700000;30464700000
5358;30698313000;29964700000;30464700000
5359;30698314000;29964700000;30464700000
5360;30717443000;30006066666;30506066666
5361;30851264000;30006066666;30506066666
5362;30851267000;30006066666;30506066666
5363;30851269000;30006066666;30506066666
5364;30851286000;30006066666;30506066666
5365;30851287000;30006066666;30506066666
5366;30851388000;30006066666;30506066666
5367;30901855000;30006077777;30506077777
5413;30901871000;30173022222;30673022222
5414;30901872000;30173022222;30673022222
5415;31103956000;30214388888;30714388888
5418;31103969000;30214388888;30714388888
5419;31103971000;30214388888;30714388888
5420;31103972000;30214388888;30714388888
5421;31103974000;30214388888;30714388888
5422;31104234000;30214400000;30714400000
5423;31104251000;30214711111;30714711111
5424;31104253000;30214711111;30714711111
5425;31104254000;30214711111;30714711111
5426;31137270000;30256044444;30756044444
5427;31137275000;30256044444;30756044444
5428;31137277000;30256044444;30756044444
5429;31137278000;30256044444;30756044444
5430;31137280000;30256044444;30756044444
5431;31137281000;30256044444;30756044444
5432;31137283000;30256044444;30756044444
5433;31137505000;30256066666;30756066666
5434;31137522000;30256377777;30756377777
5435;31137524000;30256377777;30756377777
5436;31137526000;30256377777;30756377777
5437;31167668000;30297722222;30797722222
5477;31242299000;30422744444;30922744444
5478;31242314000;30423011111;30923011111
5479;31242316000;30423011111;30923011111
5480;31242317000;30423011111;30923011111
5481;31262287000;30464388888;30964388888
5482;31262290000;30464388888;30964388888
5483;31262291000;30464388888;30964388888
5484;31262292000;30464388888;30964388888
5485;31262294000;30464388888;30964388888
5486;31262295000;30464388888;30964388888
5487;31262296000;30464388888;30964388888
5488;31262504000;30464411111;30964411111
5489;31262520000;30464700000;30964700000
5490;31262521000;30464700000;30964700000
5491;31262522000;30464700000;30964700000
5492;31281680000;30506055555;31006055555
5493;31281684000;30506055555;31006055555
5494;31281685000;30506055555;31006055555
5495;31281686000;30506055555;31006055555
5496;31281687000;30506055555;31006055555
5497;31281688000;30506055555;31006055555
5498;31281689000;30506055555;31006055555
5499;31281897000;30506077777;31006077777
