seqnum;now;rtptime;deadline
2;5275385000;4983933333;5483933333
3;5356370000;5015344444;5515344444
56;5511950000;5182322222;5682322222
85;5595631000;5307033333;5807033333
107;5736989000;5390355555;5890355555
145;5737101000;5515677777;6015677777
146;5776648000;5557022222;6057022222
159;5868622000;5598688888;6098688888
191;6019492000;5723688888;6223688888
220;6060835000;5807377777;6307377777
227;6089531000;5848688888;6348688888
235;6102491000;5890355555;6390355555
237;6110175000;5890355555;6390355555
239;6110177000;5890355555;6390355555
240;6110178000;5890355555;6390355555
241;6110379000;5890400000;6390400000
243;6110394000;5890700000;6390700000
244;6110395000;5890700000;6390700000
245;6123817000;5932066666;6432066666
258;6160933000;5973688888;6473688888
267;6174600000;6015355555;6515355555
268;6174603000;6015355555;6515355555
269;6174604000;6015355555;6515355555
271;6174605000;6015355555;6515355555
274;6174803000;6015400000;6515400000
275;6174817000;6015666666;6515666666
276;6174819000;6015666666;6515666666
279;6326286000;6057022222;6557022222
318;6475385000;6182077777;6682077777
349;6475401000;6307022222;6807022222
350;6475402000;6307022222;6807022222
351;6539591000;6307066666;6807066666
373;6582320000;6390400000;6890400000
383;6582326000;6432022222;6932022222
384;6701793000;6432066666;6932066666
419;6701802000;6557366666;7057366666
420;6701814000;6557366666;7057366666
421;6822442000;6598688888;7098688888
444;6953650000;6682022222;7182022222
482;7048480000;6807022222;7307022222
505;7093922000;6890400000;7390400000
514;7093927000;6932022222;7432022222
515;7093928000;6932022222;7432022222
516;7201757000;6932066666;7432066666
551;7201772000;7057388888;7557388888
552;7201773000;7057388888;7557388888
553;7331075000;7098688888;7598688888
576;7452998000;7182022222;7682022222
609;7553681000;7307022222;7807022222
635;7689068000;7390355555;7890355555
668;7754833000;7515355555;8015355555
687;7791140000;7598688888;8098688888
697;7909968000;7640366666;8140366666
729;8007569000;7765355555;8265355555
753;8059202000;7848700000;8348700000
761;8059312000;7849100000;8349100000
762;8087683000;7890355555;8390355555
776;8203198000;7932100000;8432100000
812;8302257000;8057033333;8557033333
830;8357682000;8140355555;8640355555
841;8493055000;8182022222;8682022222
888;8606743000;8348688888;8848688888
910;8729569000;8432022222;8932022222
944;8799714000;8557022222;9057022222
965;8938394000;8640355555;9140355555
1000;9005302000;8765400000;9265400000
1021;9005308000;8848688888;9348688888
1022;9118723000;8848744444;9348744444
1051;9118738000;8973688888;9473688888
1052;9118739000;8973688888;9473688888
1053;9118740000;8973688888;9473688888
1054;9118741000;8973688888;9473688888
1055;9212426000;8973733333;9473733333
1077;9267590000;9057066666;9557066666
1092;9283664000;9140355555;9640355555
1094;9283666000;9140355555;9640355555
1095;9283667000;9140355555;9640355555
1096;9283668000;9140355555;9640355555
1097;9283669000;9140355555;9640355555
1098;9283670000;9140355555;9640355555
1099;9410736000;9140400000;9640400000
1132;9502628000;9265400000;9765400000
1148;9502634000;9348688888;9848688888
1149;9502635000;9348688888;9848688888
1150;9502636000;9348688888;9848688888
1151;9502637000;9348688888;9848688888
1152;9502638000;9348688888;9848688888
1153;9502639000;9348688888;9848688888
1156;9555102000;9349055555;9849055555
1169;9604064000;9432022222;9932022222
1178;9604176000;9432366666;9932366666
1179;9604180000;9432366666;9932366666
1180;9636601000;9473677777;9973677777
1189;9744431000;9474044444;9974044444
1221;9841930000;9599055555;10099055555
1240;9903077000;9682000000;10182000000
1254;9991096000;9724077777;10224077777
1275;10060948000;9807066666;10307066666
1297;10115313000;9890400000;10390400000
1309;10115328000;9932366666;10432366666
1310;10115329000;9932366666;10432366666
1311;10115330000;9932366666;10432366666
1312;10240049000;9973666666;10473666666
1341;10301536000;10057066666;10557066666
1363;10348618000;10140444444;10640444444
1372;10348623000;10182022222;10682022222
1373;10348625000;10182022222;10682022222
1374;10451487000;10182066666;10682066666
1406;10451492000;10307022222;10807022222
1407;10549152000;10307066666;10807066666
1432;10549167000;10390677777;10890677777
1433;10702403000;10432022222;10932022222
1466;10868713000;10557022222;11057022222
1516;10960253000;10723688888;11223688888
1536;11077105000;10806988888;11306988888
1570;11171028000;10932022222;11432022222
1590;11223291000;11015355555;11515355555
1600;11324673000;11057022222;11557022222
1621;11397773000;11140355555;11640355555
1646;11452832000;11223688888;11723688888
1662;11535295000;11265700000;11765700000
1687;11648684000;11390366666;11890366666
1707;11745228000;11432388888;11932388888
1738;11822872000;11557400000;12057400000
1750;11839857000;11599077777;12099077777
1769;11897780000;11682022222;12182022222
1779;11994189000;11723688888;12223688888
1809;12095192000;11848688888;12348688888
1835;12146182000;11932055555;12432055555
1845;12244312000;11973688888;12473688888
1879;12339218000;12098688888;12598688888
1901;12392491000;12182022222;12682022222
1909;12493206000;12223711111;12723711111
1944;12594307000;12348688888;12848688888
1961;12652664000;12432022222;12932022222
1976;12780721000;12473688888;12973688888
2009;12853410000;12598688888;13098688888
2029;12888064000;12682022222;13182022222
2039;12907496000;12723688888;13223688888
2040;12907499000;12723688888;13223688888
2041;12907500000;12723688888;13223688888
2042;12907501000;12723688888;13223688888
2043;12907502000;12723688888;13223688888
2044;12907503000;12723688888;13223688888
2045;12907708000;12723733333;13223733333
2048;12908442000;12724033333;13224033333
2049;13034962000;12765355555;13265355555
2084;13138575000;12890355555;13390355555
2112;13184546000;12974077777;13474077777
2119;13209536000;13015355555;13515355555
2128;13237926000;13057022222;13557022222
2129;13237930000;13057022222;13557022222
2130;13237931000;13057022222;13557022222
2131;13237932000;13057022222;13557022222
2132;13237933000;13057022222;13557022222
2135;13366546000;13057411111;13557411111
2169;13456650000;13182400000;13682400000
2196;13606414000;13307022222;13807022222
2233;13646496000;13432388888;13932388888
2239;13683629000;13473688888;13973688888
2253;13712983000;13515355555;14015355555
2268;13827266000;13557411111;14057411111
2299;13916543000;13682388888;14182388888
2318;13979017000;13765377777;14265377777
2322;13979129000;13765722222;14265722222
2323;13979133000;13765722222;14265722222
2324;14007008000;13807022222;14307022222
2338;14159090000;13848688888;14348688888
2383;14257322000;14015344444;14515344444
2408;14391912000;14098733333;14598733333
2440;14391928000;14223688888;14723688888
2441;14453873000;14223733333;14723733333
2463;14500591000;14307066666;14807066666
2475;14500596000;14349066666;14849066666
2476;14500598000;14349066666;14849066666
2477;14500598000;14349066666;14849066666
2478;14656419000;14390355555;14890355555
2511;14748969000;14515355555;15015355555
2541;14863130000;14599077777;15099077777
2560;14933788000;14682022222;15182022222
2585;15036634000;14765688888;15265688888
2616;15146188000;14890355555;15390355555
2634;15273584000;14973688888;15473688888
2665;15336374000;15098688888;15598688888
2690;15376244000;15182022222;15682022222
2701;15388607000;15223688888;15723688888
2702;15388611000;15223688888;15723688888
2703;15388612000;15223688888;15723688888
2704;15388613000;15223688888;15723688888
2705;15388768000;15223733333;15723733333
2706;15388774000;15224044444;15724044444
2707;15388775000;15224044444;15724044444
2708;15388776000;15224044444;15724044444
2709;15577200000;15265355555;15765355555
2762;15675502000;15432366666;15932366666
2781;15783280000;15515355555;16015355555
2804;15852674000;15598733333;16098733333
2828;15852690000;15682333333;16182333333
2829;15852691000;15682333333;16182333333
2830;15931949000;15723688888;16223688888
2848;15952829000;15765400000;16265400000
2859;15976594000;15807066666;16307066666
2860;15976600000;15807388888;16307388888
2861;15976601000;15807388888;16307388888
2862;15976602000;15807388888;16307388888
2863;16118233000;15848688888;16348688888
2904;16204284000;15974033333;16474033333
2921;16261737000;16057022222;16557022222
2936;16287750000;16098744444;16598744444
2945;16287765000;16140355555;16640355555
2948;16409924000;16140688888;16640688888
2979;16501966000;16265355555;16765355555
2999;16618926000;16348688888;16848688888
3031;16717251000;16473688888;16973688888
3050;16774963000;16557022222;17057022222
3064;16870086000;16598688888;17098688888
3099;16963252000;16723688888;17223688888
3123;17015794000;16807066666;17307066666
3128;17015809000;16848688888;17348688888
3129;17015810000;16848688888;17348688888
3130;17015811000;16848688888;17348688888
3131;17015812000;16848688888;17348688888
3132;17015813000;16848688888;17348688888
3133;17015814000;16848688888;17348688888
3134;17041069000;16848733333;17348733333
3144;17041085000;16890355555;17390355555
3145;17195358000;16890400000;17390400000
3176;17195363000;17015355555;17515355555
3177;17195364000;17015355555;17515355555
3184;17319047000;17057022222;17557022222
3213;17421204000;17140700000;17640700000
3243;17499525000;17265355555;17765355555
3267;17532937000;17349055555;17849055555
3268;17532940000;17349055555;17849055555
3269;17532941000;17349055555;17849055555
3270;17578032000;17390355555;17890355555
3289;17742757000;17432366666;17932366666
3333;17843914000;17599044444;18099044444
3352;17894757000;17682022222;18182022222
3365;17915990000;17723733333;18223733333
3374;17915996000;17765355555;18265355555
3375;17915998000;17765355555;18265355555
3376;18074387000;17765400000;18265400000
3406;18074402000;17890355555;18390355555
3407;18074404000;17890355555;18390355555
3408;18074404000;17890355555;18390355555
3409;18158963000;17890400000;18390400000
3439;18159052000;18015355555;18515355555
3440;18159055000;18015355555;18515355555
3441;18159056000;18015355555;18515355555
3442;18210983000;18015400000;18515400000
3452;18210989000;18057022222;18557022222
3453;18327654000;18057066666;18557066666
3484;18327661000;18182022222;18682022222
3488;18416836000;18182366666;18682366666
3501;18479407000;18265355555;18765355555
3513;18614595000;18307022222;18807022222
3543;18666874000;18390655555;18890655555
3565;18704611000;18474044444;18974044444
3575;18727152000;18515666666;19015666666
3579;18763669000;18557022222;19057022222
3590;18896346000;18598688888;19098688888
3624;18985031000;18723688888;19223688888
3646;19112938000;18807000000;19307000000
3673;19163783000;18890366666;19390366666
3681;19163798000;18932011111;19432011111
3682;19163799000;18932011111;19432011111
3683;19163800000;18932011111;19432011111
3684;19184330000;18932033333;19432033333
3697;19204304000;18973977777;19473977777
3698;19204306000;18973977777;19473977777
3699;19242250000;19015333333;19515333333
3703;19242254000;19015333333;19515333333
3704;19242255000;19015333333;19515333333
3705;19242256000;19015333333;19515333333
3706;19242679000;19015344444;19515344444
3708;19242696000;19015588888;19515588888
3711;19266705000;19057011111;19557011111
3715;19266709000;19057011111;19557011111
3716;19266719000;19057011111;19557011111
3719;19266843000;19057322222;19557322222
3720;19266846000;19057322222;19557322222
3721;19295861000;19098666666;19598666666
3722;19295865000;19098666666;19598666666
3723;19295866000;19098666666;19598666666
3724;19295867000;19098666666;19598666666
3725;19295868000;19098666666;19598666666
3726;19295869000;19098666666;19598666666
3727;19295870000;19098666666;19598666666
3728;19296068000;19098677777;19598677777
3729;19296083000;19098955555;19598955555
3730;19296084000;19098955555;19598955555
3731;19296085000;19098955555;19598955555
3735;19483922000;19140333333;19640333333
3763;19535107000;19223977777;19723977777
3770;19572200000;19265333333;19765333333
3776;19598804000;19307000000;19807000000
3789;19613727000;19348666666;19848666666
3791;19613730000;19348666666;19848666666
3792;19613731000;19348666666;19848666666
3793;19613732000;19348666666;19848666666
3794;19613931000;19348677777;19848677777
3797;19613946000;19348977777;19848977777
3798;19641030000;19390333333;19890333333
3799;19641034000;19390333333;19890333333
3800;19641034000;19390333333;19890333333
3801;19641035000;19390333333;19890333333
3802;19641037000;19390333333;19890333333
3803;19641050000;19390333333;19890333333
3804;19641052000;19390333333;19890333333
3806;19641168000;19390600000;19890600000
3807;19641171000;19390600000;19890600000
3808;19641172000;19390600000;19890600000
3809;19672074000;19432000000;19932000000
3810;19672078000;19432000000;19932000000
3811;19672079000;19432000000;19932000000
3812;19672080000;19432000000;19932000000
3813;19672081000;19432000000;19932000000
3814;19672082000;19432000000;19932000000
3815;19672083000;19432000000;19932000000
3816;19672280000;19432011111;19932011111
3817;19672296000;19432288888;19932288888
3818;19672297000;19432288888;19932288888
3821;19864159000;19473666666;19973666666
3839;19896093000;19515600000;20015600000
3849;19934623000;19557011111;20057011111
3856;19934638000;19598633333;20098633333
3857;19934639000;19598633333;20098633333
3858;19934640000;19598633333;20098633333
3859;19934641000;19598633333;20098633333
3860;20041051000;19598655555;20098655555
3883;20041066000;19682288888;20182288888
3884;20041067000;19682288888;20182288888
3885;20041068000;19682288888;20182288888
3886;20149764000;19723666666;20223666666
3908;20202245000;19807000000;20307000000
3921;20231679000;19848666666;20348666666
3922;20231692000;19848666666;20348666666
3923;20231693000;19848666666;20348666666
3924;20231694000;19848666666;20348666666
3925;20231695000;19848666666;20348666666
3926;20231918000;19848677777;20348677777
3927;20231937000;19848977777;20348977777
3928;20231939000;19848977777;20348977777
3929;20231940000;19848977777;20348977777
3930;20260027000;19890333333;20390333333
3934;20260030000;19890333333;20390333333
3935;20260032000;19890333333;20390333333
3936;20260032000;19890333333;20390333333
3937;20260153000;19890344444;20390344444
3938;20260158000;19890611111;20390611111
3939;20260159000;19890611111;20390611111
3940;20260160000;19890611111;20390611111
3941;20287885000;19932022222;20432022222
3942;20287888000;19932022222;20432022222
3943;20287890000;19932022222;20432022222
3944;20287890000;19932022222;20432022222
3945;20287891000;19932022222;20432022222
3946;20287892000;19932022222;20432022222
3947;20287893000;19932022222;20432022222
3949;20287956000;19932344444;20432344444
3950;20287968000;19932344444;20432344444
3951;20287969000;19932344444;20432344444
3952;20318991000;19973666666;20473666666
3953;20318994000;19973666666;20473666666
3954;20318995000;19973666666;20473666666
3955;20318996000;19973666666;20473666666
3956;20318998000;19973666666;20473666666
3957;20318999000;19973666666;20473666666
3958;20318999000;19973666666;20473666666
3959;20319162000;19973677777;20473677777
3960;20319167000;19973977777;20473977777
3961;20319168000;19973977777;20473977777
3962;20319169000;19973977777;20473977777
3963;20338518000;20015333333;20515333333
3964;20338522000;20015333333;20515333333
3965;20338523000;20015333333;20515333333
3967;20338524000;20015333333;20515333333
3970;20338615000;20015344444;20515344444
3971;20338620000;20015600000;20515600000
3972;20370115000;20015600000;20515600000
3973;20370401000;20015600000;20515600000
3976;20421544000;20056988888;20556988888
3977;20421547000;20056988888;20556988888
3978;20421548000;20056988888;20556988888
3979;20421549000;20056988888;20556988888
3980;20421550000;20056988888;20556988888
3981;20421622000;20057000000;20557000000
3982;20421637000;20057311111;20557311111
3983;20421638000;20057311111;20557311111
3984;20421639000;20057311111;20557311111
3988;20605784000;20098666666;20598666666
3997;20643822000;20140333333;20640333333
4009;20678524000;20181988888;20681988888
4021;20709497000;20223666666;20723666666
4023;20709501000;20223666666;20723666666
4024;20709502000;20223666666;20723666666
4025;20709624000;20223677777;20723677777
4026;20709629000;20223966666;20723966666
4027;20709630000;20223966666;20723966666
4028;20709631000;20223966666;20723966666
4029;20829499000;20265333333;20765333333
4048;20867408000;20307288888;20807288888
4059;20904190000;20348955555;20848955555
4065;20937280000;20390322222;20890322222
4073;20970677000;20432000000;20932000000
4074;20970681000;20432000000;20932000000
4075;20970682000;20432000000;20932000000
4079;20970831000;20432000000;20932000000
4080;20970976000;20432011111;20932011111
4081;20970982000;20432422222;20932422222
4082;20970983000;20432422222;20932422222
4083;20970984000;20432422222;20932422222
4084;20991394000;20473800000;20973800000
4092;20991458000;20474100000;20974100000
4093;20991461000;20474100000;20974100000
4094;20991478000;20474100000;20974100000
4095;21022728000;20515333333;21015333333
4097;21022731000;20515333333;21015333333
4098;21022732000;20515333333;21015333333
4099;21022733000;20515333333;21015333333
4100;21022734000;20515333333;21015333333
4101;21022735000;20515333333;21015333333
4102;21022855000;20515344444;21015344444
4106;21034524000;20557000000;21057000000
4107;21034526000;20557000000;21057000000
4108;21034527000;20557000000;21057000000
4109;21034538000;20557000000;21057000000
4111;21037961000;20557000000;21057000000
4112;21037975000;20557000000;21057000000
4114;21038057000;20557344444;21057344444
4115;21038059000;20557344444;21057344444
4116;21038060000;20557344444;21057344444
4117;21072854000;20598666666;21098666666
4118;21072857000;20598666666;21098666666
4119;21072858000;20598666666;21098666666
4121;21072859000;20598666666;21098666666
4122;21072860000;20598666666;21098666666
4123;21072861000;20598666666;21098666666
4124;21072983000;20598677777;21098677777
4125;21072988000;20598977777;21098977777
4126;21095746000;20598977777;21098977777
4209;21779064000;20932000000;21432000000
4234;21855430000;21015344444;21515344444
4315;21855437000;21348666666;21848666666
4316;21855439000;21348666666;21848666666
4317;21855440000;21348666666;21848666666
4318;21855441000;21348666666;21848666666
4319;21855442000;21348666666;21848666666
4320;21855443000;21348666666;21848666666
4323;21938514000;21348977777;21848977777
4392;22061738000;21640333333;22140333333
4412;22187316000;21682300000;22182300000
4469;22466629000;21932055555;22432055555
4554;22500710000;22224022222;22724022222
4568;22646248000;22306988888;22806988888
4598;22646304000;22390666666;22890666666
4599;22646307000;22390666666;22890666666
4600;22646308000;22390666666;22890666666
4601;22651376000;22432022222;22932022222
4602;22651380000;22432022222;22932022222
4603;22651381000;22432022222;22932022222
4605;22651881000;22432022222;22932022222
4606;22651893000;22432022222;22932022222
4607;22651894000;22432022222;22932022222
4608;22651999000;22432066666;22932066666
4609;22652004000;22432355555;22932355555
4610;22652006000;22432355555;22932355555
4611;22652006000;22432355555;22932355555
4612;22672099000;22473688888;22973688888
4623;22681268000;22515355555;23015355555
4624;22681271000;22515355555;23015355555
4625;22681272000;22515355555;23015355555
4626;22681273000;22515355555;23015355555
4627;22681274000;22515355555;23015355555
4628;22681275000;22515355555;23015355555
4629;22681276000;22515355555;23015355555
4630;22681492000;22515400000;23015400000
4631;22681498000;22515655555;23015655555
4635;22704408000;22557022222;23057022222
4644;22829895000;22557388888;23057388888
4676;22933197000;22682333333;23182333333
4697;22977983000;22765677777;23265677777
4709;23079018000;22807366666;23307366666
4732;23153703000;22890677777;23390677777
4741;23177361000;22932388888;23432388888
4757;23252024000;23015355555;23515355555
4775;23268354000;23057388888;23557388888
4776;23268358000;23057388888;23557388888
4777;23305720000;23098688888;23598688888
4788;23412060000;23140355555;23640355555
4814;23481919000;23223688888;23723688888
4828;23507808000;23265400000;23765400000
4844;23507815000;23348688888;23848688888
4845;23507817000;23348688888;23848688888
4846;23507818000;23348688888;23848688888
4849;23533455000;23348688888;23848688888
4850;23565656000;23348744444;23848744444
4862;23565662000;23390711111;23890711111
4863;23565664000;23390711111;23890711111
4864;23565665000;23390711111;23890711111
4865;23702492000;23432022222;23932022222
4907;23794289000;23557388888;24057388888
4926;23851402000;23640355555;24140355555
4933;23989859000;23682011111;24182011111
4971;24072735000;23807088888;24307088888
4992;24072742000;23890355555;24390355555
4993;24103486000;23890400000;24390400000
5003;24103508000;23932055555;24432055555
5004;24124639000;23932111111;24432111111
5016;24124646000;23974066666;24474066666
5017;24124648000;23974066666;24474066666
5022;24278690000;24015366666;24515366666
5049;24331957000;24099022222;24599022222
5066;24490116000;24182000000;24682000000
5098;24562851000;24307022222;24807022222
5123;24606794000;24390344444;24890344444
5134;24623814000;24432022222;24932022222
5147;24745669000;24473733333;24973733333
5179;24745676000;24598688888;25098688888
5180;24843240000;24598733333;25098733333
5202;24980394000;24682066666;25182066666
5237;24987874000;24807366666;25307366666
5238;24987877000;24807366666;25307366666
5239;25083317000;24848711111;25348711111
5266;25194412000;24932000000;25432000000
5289;25306785000;25015355555;25515355555
5319;25448233000;25140355555;25640355555
5354;25533799000;25265377777;25765377777
5380;25560119000;25349088888;25849088888
5389;25585037000;25390400000;25890400000
5401;25585043000;25432366666;25932366666
5402;25585044000;25432366666;25932366666
5405;25743872000;25473700000;25973700000
5446;25841866000;25599044444;26099044444
5468;25955298000;25682388888;26182388888
5479;25989230000;25724044444;26224044444
5480;25989234000;25724044444;26224044444
5481;26029022000;25765355555;26265355555
5482;26029026000;25765355555;26265355555
5483;26029027000;25765355555;26265355555
5484;26029028000;25765355555;26265355555
5485;26029028000;25765355555;26265355555
5486;26029029000;25765355555;26265355555
5487;26029030000;25765355555;26265355555
5488;26029151000;25765411111;26265411111
5489;26029156000;25765700000;26265700000
5490;26029158000;25765700000;26265700000
5491;26029159000;25765700000;26265700000
5492;26063959000;25807022222;26307022222
5493;26063962000;25807022222;26307022222
5494;26063963000;25807022222;26307022222
5495;26063964000;25807022222;26307022222
5496;26063965000;25807022222;26307022222
5497;26063966000;25807022222;26307022222
5498;26063967000;25807022222;26307022222
5499;26064088000;25807066666;26307066666
