seqnum;now;rtptime;deadline
1;10618904000;9562755555;10062755555
3;10698903000;9594166666;10094166666
22;10740460000;9636244444;10136244444
23;10740463000;9636244444;10136244444
24;10740464000;9636244444;10136244444
25;10781254000;9677477777;10177477777
26;10781261000;9677477777;10177477777
27;10781262000;9677477777;10177477777
28;10781263000;9677477777;10177477777
29;10781265000;9677477777;10177477777
30;10781266000;9677477777;10177477777
31;10781268000;9677477777;10177477777
32;10781465000;9677488888;10177488888
33;10781487000;9677822222;10177822222
34;10781489000;9677822222;10177822222
35;10781490000;9677822222;10177822222
36;10820733000;9719144444;10219144444
37;10820737000;9719144444;10219144444
38;10820739000;9719144444;10219144444
39;10820741000;9719144444;10219144444
40;11017774000;9719144444;10219144444
41;11018013000;9719144444;10219144444
42;11018061000;9719144444;10219144444
43;11068529000;9719155555;10219155555
76;11418612000;9844155555;10344155555
77;11418629000;9844500000;10344500000
78;11418632000;9844500000;10344500000
79;11418634000;9844500000;10344500000
80;11418648000;9885822222;10385822222
81;11418660000;9885822222;10385822222
82;11418661000;9885822222;10385822222
83;11418662000;9885822222;10385822222
84;11418663000;9885822222;10385822222
85;11418664000;9885822222;10385822222
86;11418666000;9885822222;10385822222
87;11418803000;9885844444;10385844444
88;11418819000;9886211111;10386211111
89;11418820000;9886211111;10386211111
90;11418821000;9886211111;10386211111
91;11418842000;9927477777;10427477777
92;11418843000;9927477777;10427477777
93;11418844000;9927477777;10427477777
94;11418845000;9927477777;10427477777
95;11418846000;9927477777;10427477777
96;11418847000;9927477777;10427477777
97;11418848000;9927477777;10427477777
98;11594105000;9927500000;10427500000
131;11689276000;10052488888;10552488888
132;11689281000;10052788888;10552788888
133;11689283000;10052788888;10552788888
134;11689284000;10052788888;10552788888
135;11719530000;10094144444;10594144444
136;11719533000;10094144444;10594144444
137;11719534000;10094144444;10594144444
138;11719535000;10094144444;10594144444
139;11719536000;10094144444;10594144444
143;11719645000;10094455555;10594455555
144;11719648000;10094455555;10594455555
145;11719649000;10094455555;10594455555
146;11748059000;10135811111;10635811111
147;11748068000;10135811111;10635811111
148;11748069000;10135811111;10635811111
149;11748071000;10135811111;10635811111
150;11748072000;10135811111;10635811111
151;11748073000;10135811111;10635811111
152;11748074000;10135811111;10635811111
153;11748279000;10135833333;10635833333
154;11748294000;10136166666;10636166666
155;11748296000;10136166666;10636166666
156;11748297000;10136166666;10636166666
157;11869688000;10177477777;10677477777
192;12188562000;10302477777;10802477777
193;12188570000;10302477777;10802477777
194;12188572000;10302477777;10802477777
195;12188584000;10302477777;10802477777
196;12188585000;10302477777;10802477777
197;12225184000;10302500000;10802500000
230;12710596000;10427500000;10927500000
302;12710602000;10719144444;11219144444
303;12710603000;10719144444;11219144444
304;12710604000;10719144444;11219144444
305;12710605000;10719144444;11219144444
308;13241995000;10719433333;11219433333
360;13725945000;10927477777;11427477777
417;14192430000;11135833333;11635833333
476;14192445000;11385800000;11885800000
477;14192447000;11385800000;11885800000
478;14192448000;11385800000;11885800000
479;14192449000;11385800000;11885800000
480;14192450000;11385800000;11885800000
481;14192451000;11385800000;11885800000
482;14192452000;11385800000;11885800000
483;14641385000;11385822222;11885822222
596;14641401000;11802788888;12302788888
597;14722272000;11844133333;12344133333
599;14722276000;11844133333;12344133333
600;14722277000;11844133333;12344133333
601;14722278000;11844133333;12344133333
602;14722279000;11844133333;12344133333
603;14722280000;11844133333;12344133333
604;14722501000;11844155555;12344155555
605;14722517000;11844466666;12344466666
606;14722518000;11844466666;12344466666
607;14722519000;11844466666;12344466666
608;14724073000;11885822222;12385822222
609;14724088000;11885822222;12385822222
610;14724089000;11885822222;12385822222
611;14724090000;11885822222;12385822222
612;14724091000;11885822222;12385822222
613;14724092000;11885822222;12385822222
614;14724093000;11885822222;12385822222
615;14724291000;11885844444;12385844444
616;14724306000;11886222222;12386222222
617;14724307000;11886222222;12386222222
618;14724308000;11886222222;12386222222
619;14765759000;11927477777;12427477777
620;14765763000;11927477777;12427477777
621;15026486000;11927477777;12427477777
622;15027200000;11927477777;12427477777
623;15027215000;11927477777;12427477777
624;15027434000;11927477777;12427477777
625;15027450000;11927477777;12427477777
626;15078167000;11927500000;12427500000
645;15078182000;12010811111;12510811111
646;15078183000;12010811111;12510811111
647;15078184000;12010811111;12510811111
648;15080627000;12010833333;12510833333
649;15080642000;12011144444;12511144444
650;15080643000;12011144444;12511144444
651;15080644000;12011144444;12511144444
652;15081260000;12052477777;12552477777
653;15081264000;12052477777;12552477777
654;15081265000;12052477777;12552477777
655;15081266000;12052477777;12552477777
656;15081267000;12052477777;12552477777
657;15081268000;12052477777;12552477777
658;15081269000;12052477777;12552477777
659;15082744000;12052488888;12552488888
660;15082760000;12052788888;12552788888
661;15082761000;12052788888;12552788888
662;15082762000;12052788888;12552788888
663;15125013000;12094144444;12594144444
664;15125016000;12094144444;12594144444
665;15125017000;12094144444;12594144444
666;15125018000;12094144444;12594144444
667;15125019000;12094144444;12594144444
668;15427902000;12094144444;12594144444
669;15428158000;12094144444;12594144444
670;15478671000;12094166666;12594166666
673;15478686000;12094455555;12594455555
674;15479503000;12135811111;12635811111
675;15479516000;12135811111;12635811111
676;15479517000;12135811111;12635811111
677;15479518000;12135811111;12635811111
678;15479519000;12135811111;12635811111
679;15479520000;12135811111;12635811111
680;15479520000;12135811111;12635811111
681;15481169000;12135822222;12635822222
682;15481184000;12136155555;12636155555
683;15481185000;12136155555;12636155555
684;15481186000;12136155555;12636155555
685;15483271000;12177477777;12677477777
686;15483274000;12177477777;12677477777
687;15483275000;12177477777;12677477777
688;15828621000;12177477777;12677477777
689;15828835000;12177477777;12677477777
690;15828851000;12177477777;12677477777
691;15829173000;12177477777;12677477777
692;15879643000;12177488888;12677488888
693;15879658000;12177800000;12677800000
694;15879659000;12177800000;12677800000
695;15879660000;12177800000;12677800000
696;15921884000;12219144444;12719144444
697;15921887000;12219144444;12719144444
698;15921888000;12219144444;12719144444
699;15921889000;12219144444;12719144444
700;15921890000;12219144444;12719144444
701;15921891000;12219144444;12719144444
702;15921892000;12219144444;12719144444
703;15922089000;12219166666;12719166666
704;15922105000;12219477777;12719477777
705;15922106000;12219477777;12719477777
706;15922107000;12219477777;12719477777
707;15922120000;12260811111;12760811111
708;16229304000;12260811111;12760811111
709;16229557000;12260811111;12760811111
710;16229564000;12260811111;12760811111
711;16229878000;12260811111;12760811111
712;16230113000;12260811111;12760811111
713;16230370000;12260811111;12760811111
714;16280840000;12260822222;12760822222
715;16280855000;12261144444;12761144444
716;16280857000;12261144444;12761144444
717;16280858000;12261144444;12761144444
718;16322961000;12302488888;12802488888
719;16322964000;12302488888;12802488888
720;16322965000;12302488888;12802488888
721;16322966000;12302488888;12802488888
722;16322967000;12302488888;12802488888
723;16322968000;12302488888;12802488888
724;16322969000;12302488888;12802488888
725;16323166000;12302500000;12802500000
726;16323181000;12302811111;12802811111
727;16323182000;12302811111;12802811111
728;16629969000;12302811111;12802811111
729;16680578000;12344144444;12844144444
730;16680582000;12344144444;12844144444
731;16680590000;12344144444;12844144444
732;16680591000;12344144444;12844144444
733;16680592000;12344144444;12844144444
734;16680593000;12344144444;12844144444
735;16680594000;12344144444;12844144444
736;16681511000;12344166666;12844166666
737;16681526000;12344466666;12844466666
738;16681527000;12344466666;12844466666
739;16681528000;12344466666;12844466666
740;16723632000;12385811111;12885811111
741;16723635000;12385811111;12885811111
742;16723636000;12385811111;12885811111
743;16723638000;12385811111;12885811111
744;16723639000;12385811111;12885811111
745;16723640000;12385811111;12885811111
746;16723641000;12385811111;12885811111
747;16723839000;12385833333;12885833333
748;16723854000;12386166666;12886166666
749;16723855000;12386166666;12886166666
750;17030700000;12386166666;12886166666
751;17081308000;12427477777;12927477777
752;17081312000;12427477777;12927477777
753;17081313000;12427477777;12927477777
754;17081314000;12427477777;12927477777
755;17081315000;12427477777;12927477777
756;17081316000;12427477777;12927477777
757;17081317000;12427477777;12927477777
758;17082588000;12427500000;12927500000
759;17082603000;12427788888;12927788888
760;17082604000;12427788888;12927788888
761;17082605000;12427788888;12927788888
762;17084238000;12469144444;12969144444
763;17084241000;12469144444;12969144444
764;17084242000;12469144444;12969144444
765;17084243000;12469144444;12969144444
766;17431622000;12469144444;12969144444
767;17431838000;12469144444;12969144444
768;17432123000;12469144444;12969144444
769;17482809000;12469155555;12969155555
770;17482824000;12469433333;12969433333
771;17482825000;12469433333;12969433333
772;17482826000;12469433333;12969433333
773;17483308000;12510833333;13010833333
774;17483312000;12510833333;13010833333
775;17483312000;12510833333;13010833333
776;17483313000;12510833333;13010833333
777;17483314000;12510833333;13010833333
778;17483315000;12510833333;13010833333
779;17832838000;12510833333;13010833333
780;17883538000;12510855555;13010855555
781;17883553000;12511188888;13011188888
782;17883554000;12511188888;13011188888
783;17883555000;12511188888;13011188888
784;17883664000;12552477777;13052477777
785;17883667000;12552477777;13052477777
786;17883668000;12552477777;13052477777
787;17883669000;12552477777;13052477777
788;17883670000;12552477777;13052477777
789;17883671000;12552477777;13052477777
790;17883672000;12552477777;13052477777
791;17885648000;12552488888;13052488888
792;18233874000;12552800000;13052800000
793;18234113000;12552800000;13052800000
794;18234130000;12552800000;13052800000
795;18284771000;12594133333;13094133333
796;18284774000;12594133333;13094133333
797;18284775000;12594133333;13094133333
798;18284776000;12594133333;13094133333
799;18284777000;12594133333;13094133333
800;18284778000;12594133333;13094133333
801;18284779000;12594133333;13094133333
802;18286339000;12594155555;13094155555
803;18634584000;12594466666;13094466666
804;18634824000;12594466666;13094466666
805;18634828000;12594466666;13094466666
806;18685544000;12635800000;13135800000
807;18685548000;12635800000;13135800000
808;18685549000;12635800000;13135800000
809;18685550000;12635800000;13135800000
810;18685551000;12635800000;13135800000
811;18685552000;12635800000;13135800000
812;18685552000;12635800000;13135800000
813;19085572000;12635822222;13135822222
814;19085587000;12636166666;13136166666
815;19085588000;12636166666;13136166666
816;19085589000;12636166666;13136166666
817;19127528000;12677466666;13177466666
818;19127532000;12677466666;13177466666
819;19127533000;12677466666;13177466666
820;19127534000;12677466666;13177466666
821;19127535000;12677466666;13177466666
822;19127535000;12677466666;13177466666
823;19435837000;12677466666;13177466666
824;19486290000;12677477777;13177477777
825;19486304000;12677788888;13177788888
826;19486306000;12677788888;13177788888
827;19486307000;12677788888;13177788888
828;19487126000;12719133333;13219133333
829;19487129000;12719133333;13219133333
830;19487130000;12719133333;13219133333
831;19487131000;12719133333;13219133333
832;19487132000;12719133333;13219133333
833;19836409000;12719133333;13219133333
834;19836663000;12719133333;13219133333
835;19886883000;12719155555;13219155555
836;19886899000;12719455555;13219455555
837;19886900000;12719455555;13219455555
838;19886901000;12719455555;13219455555
839;19887638000;12760800000;13260800000
840;19887641000;12760800000;13260800000
841;19887642000;12760800000;13260800000
842;19887643000;12760800000;13260800000
843;19887644000;12760800000;13260800000
844;20237038000;12760800000;13260800000
845;20237329000;12760800000;13260800000
846;20288016000;12760822222;13260822222
847;20288031000;12761211111;13261211111
848;20288032000;12761211111;13261211111
849;20288033000;12761211111;13261211111
850;20289166000;12802477777;13302477777
851;20289169000;12802477777;13302477777
852;20289170000;12802477777;13302477777
853;20637675000;12802477777;13302477777
854;20637678000;12802477777;13302477777
855;20638307000;12802477777;13302477777
856;20638570000;12802477777;13302477777
857;20689039000;12802500000;13302500000
858;20689054000;12802788888;13302788888
859;20689055000;12802788888;13302788888
860;20689056000;12802788888;13302788888
861;20731505000;12844144444;13344144444
862;21038304000;12844144444;13344144444
863;21038626000;12844144444;13344144444
864;21038943000;12844144444;13344144444
865;21039205000;12844144444;13344144444
866;21039217000;12844144444;13344144444
867;21039535000;12844144444;13344144444
868;21090752000;12844166666;13344166666
869;21090768000;12844466666;13344466666
870;21090769000;12844466666;13344466666
871;21438926000;12844466666;13344466666
872;21530819000;12885811111;13385811111
873;21530823000;12885811111;13385811111
874;21530824000;12885811111;13385811111
875;21530825000;12885811111;13385811111
876;21530826000;12885811111;13385811111
877;21530827000;12885811111;13385811111
878;21530828000;12885811111;13385811111
879;21531026000;12885833333;13385833333
880;21839585000;12886155555;13386155555
881;21839587000;12886155555;13386155555
882;21840135000;12886155555;13386155555
883;21890714000;12927477777;13427477777
884;21890717000;12927477777;13427477777
885;21890718000;12927477777;13427477777
886;21890719000;12927477777;13427477777
887;21890720000;12927477777;13427477777
888;21890721000;12927477777;13427477777
889;22240165000;12927477777;13427477777
890;22290630000;12927488888;13427488888
891;22290645000;12927788888;13427788888
892;22290646000;12927788888;13427788888
893;22290647000;12927788888;13427788888
894;22332952000;12969144444;13469144444
895;22332955000;12969144444;13469144444
896;22332956000;12969144444;13469144444
897;22332957000;12969144444;13469144444
898;22640794000;12969144444;13469144444
899;22641065000;12969144444;13469144444
900;22641330000;12969144444;13469144444
901;22691793000;12969155555;13469155555
902;22691808000;12969433333;13469433333
903;22691809000;12969433333;13469433333
904;22691811000;12969433333;13469433333
905;22693031000;13010811111;13510811111
906;22693035000;13010811111;13510811111
907;23041416000;13010811111;13510811111
908;23041731000;13010811111;13510811111
909;23041966000;13010811111;13510811111
910;23042221000;13010811111;13510811111
911;23042224000;13010811111;13510811111
912;23092916000;13010833333;13510833333
913;23092931000;13011155555;13511155555
914;23092932000;13011155555;13511155555
915;23092933000;13011155555;13511155555
916;23492497000;13052466666;13552466666
917;23492500000;13052466666;13552466666
918;23492501000;13052466666;13552466666
919;23492502000;13052466666;13552466666
920;23492503000;13052466666;13552466666
921;23492504000;13052466666;13552466666
922;23492505000;13052466666;13552466666
923;23494017000;13052488888;13552488888
924;23494032000;13052800000;13552800000
925;23842818000;13052800000;13552800000
926;23843015000;13052800000;13552800000
927;23893603000;13094144444;13594144444
928;23893607000;13094144444;13594144444
929;23893608000;13094144444;13594144444
930;23893608000;13094144444;13594144444
931;23893609000;13094144444;13594144444
932;23893610000;13094144444;13594144444
933;23893611000;13094144444;13594144444
934;24293773000;13094166666;13594166666
935;24293788000;13094477777;13594477777
936;24293797000;13094477777;13594477777
937;24293798000;13094477777;13594477777
938;24294544000;13135811111;13635811111
939;24294547000;13135811111;13635811111
940;24294548000;13135811111;13635811111
941;24294549000;13135811111;13635811111
942;24294550000;13135811111;13635811111
943;24644030000;13135811111;13635811111
944;24644297000;13135811111;13635811111
945;24694777000;13135822222;13635822222
946;24694792000;13136188888;13636188888
947;24694793000;13136188888;13636188888
948;24694794000;13136188888;13636188888
949;24739391000;13177511111;13677511111
950;24739395000;13177511111;13677511111
951;24739396000;13177511111;13677511111
952;25044683000;13177511111;13677511111
953;25044885000;13177511111;13677511111
954;25045166000;13177511111;13677511111
955;25047784000;13177511111;13677511111
956;25098528000;13177533333;13677533333
957;25098543000;13177844444;13677844444
958;25098545000;13177844444;13677844444
959;25098545000;13177844444;13677844444
960;25140165000;13219144444;13719144444
961;25445333000;13219144444;13719144444
962;25445336000;13219144444;13719144444
963;25445583000;13219144444;13719144444
964;25448404000;13219144444;13719144444
965;25448723000;13219144444;13719144444
966;25449019000;13219144444;13719144444
967;25499491000;13219166666;13719166666
968;25499497000;13219466666;13719466666
969;25499498000;13219466666;13719466666
970;25845998000;13219466666;13719466666
971;25896561000;13260811111;13760811111
972;25896564000;13260811111;13760811111
973;25896565000;13260811111;13760811111
974;25896566000;13260811111;13760811111
975;25896567000;13260811111;13760811111
976;25896568000;13260811111;13760811111
977;25896569000;13260811111;13760811111
978;25900367000;13260833333;13760833333
979;26246653000;13261133333;13761133333
980;26246658000;13261133333;13761133333
981;26246928000;13261133333;13761133333
982;26300001000;13302477777;13802477777
983;26300004000;13302477777;13802477777
984;26300005000;13302477777;13802477777
985;26300006000;13302477777;13802477777
986;26300007000;13302477777;13802477777
987;26300008000;13302477777;13802477777
988;26647174000;13302477777;13802477777
989;26697653000;13302488888;13802488888
990;26697668000;13302777777;13802777777
991;26697669000;13302777777;13802777777
994;26700968000;13344144444;13844144444
995;26700971000;13344144444;13844144444
996;26700972000;13344144444;13844144444
997;26700973000;13344144444;13844144444
998;27047806000;13344144444;13844144444
999;27048084000;13344144444;13844144444
1000;27101240000;13344166666;13844166666
1001;27101246000;13344477777;13844477777
1002;27101247000;13344477777;13844477777
1003;27101248000;13344477777;13844477777
1004;27143383000;13385800000;13885800000
1005;27143387000;13385800000;13885800000
1006;27448445000;13385800000;13885800000
1007;27448727000;13385800000;13885800000
1008;27451560000;13385800000;13885800000
1009;27451910000;13385800000;13885800000
1010;27452114000;13385800000;13885800000
1011;27502595000;13385822222;13885822222
1012;27502610000;13386166666;13886166666
1013;27502611000;13386166666;13886166666
1014;27849156000;13386166666;13886166666
1015;27941006000;13427466666;13927466666
1016;27941009000;13427466666;13927466666
1017;27941010000;13427466666;13927466666
1018;27941011000;13427466666;13927466666
1019;27941012000;13427466666;13927466666
1020;27941013000;13427466666;13927466666
1021;27941014000;13427466666;13927466666
1022;28300105000;13427488888;13927488888
1023;28300120000;13427800000;13927800000
1024;28300121000;13427800000;13927800000
1025;28300122000;13427800000;13927800000
1026;28303547000;13469133333;13969133333
1027;28303550000;13469133333;13969133333
1028;28303551000;13469133333;13969133333
1029;28303552000;13469133333;13969133333
1030;28650410000;13469133333;13969133333
1031;28650668000;13469133333;13969133333
1032;28653400000;13469133333;13969133333
1033;28703858000;13469144444;13969144444
1034;28703873000;13469455555;13969455555
1035;28703875000;13469455555;13969455555
1036;28703875000;13469455555;13969455555
1037;28746053000;13510800000;14010800000
1038;29051066000;13510800000;14010800000
1039;29051385000;13510800000;14010800000
1040;29054068000;13510800000;14010800000
1041;29054376000;13510800000;14010800000
1042;29054598000;13510800000;14010800000
1043;29054824000;13510800000;14010800000
1044;29105298000;13510822222;14010822222
1045;29105314000;13511188888;14011188888
1046;29451723000;13511188888;14011188888
1047;29451992000;13511188888;14011188888
1048;29505103000;13552488888;14052488888
1049;29505106000;13552488888;14052488888
1050;29505107000;13552488888;14052488888
1051;29505108000;13552488888;14052488888
1052;29505109000;13552488888;14052488888
1053;29505110000;13552488888;14052488888
1054;29852379000;13552488888;14052488888
1055;29902838000;13552500000;14052500000
1056;29902853000;13552811111;14052811111
1057;29902854000;13552811111;14052811111
1058;29902855000;13552811111;14052811111
1059;29906497000;13594155555;14094155555
1060;29906500000;13594155555;14094155555
1061;29906501000;13594155555;14094155555
1062;30253057000;13594155555;14094155555
1063;30253061000;13594155555;14094155555
1064;30256104000;13594155555;14094155555
1065;30256416000;13594155555;14094155555
1066;30306875000;13594166666;14094166666
1067;30306890000;13594444444;14094444444
1068;30306892000;13594444444;14094444444
1069;30306893000;13594444444;14094444444
1070;30704062000;13635811111;14135811111
1071;30704066000;13635811111;14135811111
1072;30704067000;13635811111;14135811111
1073;30704068000;13635811111;14135811111
1074;30704069000;13635811111;14135811111
1075;30704070000;13635811111;14135811111
1076;30704071000;13635811111;14135811111
1077;30708205000;13635833333;14135833333
1078;31054352000;13636144444;14136144444
1079;31054609000;13636144444;14136144444
1080;31057394000;13636144444;14136144444
1081;31108367000;13677477777;14177477777
1082;31108371000;13677477777;14177477777
1083;31108372000;13677477777;14177477777
1084;31108373000;13677477777;14177477777
1085;31108374000;13677477777;14177477777
1086;31455031000;13677477777;14177477777
1087;31455266000;13677477777;14177477777
1088;31508405000;13677500000;14177500000
1089;31508420000;13677766666;14177766666
1090;31508421000;13677766666;14177766666
1091;31508422000;13677766666;14177766666
1092;31509426000;13719144444;14219144444
1093;31509430000;13719144444;14219144444
1094;31855735000;13719144444;14219144444
1095;31855738000;13719144444;14219144444
1096;31858763000;13719144444;14219144444
1097;31859340000;13719144444;14219144444
1098;31859595000;13719144444;14219144444
1099;31910067000;13719166666;14219166666
1100;31910082000;13719433333;14219433333
1101;31910083000;13719433333;14219433333
1102;32256395000;13719433333;14219433333
1103;32348315000;13760800000;14260800000
1104;32348318000;13760800000;14260800000
1105;32348319000;13760800000;14260800000
1106;32348320000;13760800000;14260800000
1107;32348321000;13760800000;14260800000
1108;32348322000;13760800000;14260800000
1109;32348323000;13760800000;14260800000
1110;32348527000;13760822222;14260822222
1111;32657071000;13761188888;14261188888
1112;32657380000;13761188888;14261188888
1113;32659961000;13761188888;14261188888
1114;32711065000;13802466666;14302466666
1115;32711068000;13802466666;14302466666
1116;32711069000;13802466666;14302466666
1117;32711070000;13802466666;14302466666
1118;33057760000;13802466666;14302466666
1119;33058007000;13802466666;14302466666
1120;33060634000;13802466666;14302466666
1121;33111665000;13802488888;14302488888
1122;33111681000;13802788888;14302788888
1123;33111682000;13802788888;14302788888
1124;33458396000;13802788888;14302788888
1125;33550294000;13844133333;14344133333
1126;33550298000;13844133333;14344133333
1127;33550299000;13844133333;14344133333
1128;33550300000;13844133333;14344133333
1129;33550301000;13844133333;14344133333
1130;33550301000;13844133333;14344133333
1131;33859077000;13844133333;14344133333
1132;33909538000;13844144444;14344144444
1133;33909553000;13844466666;14344466666
1134;33909555000;13844466666;14344466666
1135;33909556000;13844466666;14344466666
1136;33913136000;13885811111;14385811111
1137;33913139000;13885811111;14385811111
1138;34259761000;13885811111;14385811111
1139;34260038000;13885811111;14385811111
1140;34262620000;13885811111;14385811111
1141;34263349000;13885811111;14385811111
1142;34263656000;13885811111;14385811111
1143;34314116000;13885822222;14385822222
1144;34660412000;13886166666;14386166666
1145;34660669000;13886166666;14386166666
1146;34663282000;13886166666;14386166666
1147;34714288000;13927477777;14427477777
1148;34714292000;13927477777;14427477777
1149;34714293000;13927477777;14427477777
1150;35061081000;13927477777;14427477777
1151;35061317000;13927477777;14427477777
1152;35063951000;13927477777;14427477777
1153;35064644000;13927477777;14427477777
1154;35115292000;13927500000;14427500000
1155;35115307000;13927788888;14427788888
1156;35461733000;13927788888;14427788888
1157;35462022000;13927788888;14427788888
1158;35514944000;13969166666;14469166666
1159;35514947000;13969166666;14469166666
1160;35514948000;13969166666;14469166666
1161;35514949000;13969166666;14469166666
1162;35862391000;13969166666;14469166666
1163;35862642000;13969166666;14469166666
1164;35865188000;13969166666;14469166666
1165;35916255000;13969188888;14469188888
1166;35916270000;13969455555;14469455555
1167;35916271000;13969455555;14469455555
1168;36263045000;13969455555;14469455555
1169;36354951000;14010811111;14510811111
1170;36354954000;14010811111;14510811111
1171;36354955000;14010811111;14510811111
1172;36354956000;14010811111;14510811111
1173;36354957000;14010811111;14510811111
1174;36663766000;14010811111;14510811111
1175;36664009000;14010811111;14510811111
1176;36716851000;14010833333;14510833333
1177;36716867000;14011133333;14511133333
1178;36716868000;14011133333;14511133333
1179;36716869000;14011133333;14511133333
1180;37114663000;14052477777;14552477777
1181;37114666000;14052477777;14552477777
1182;37114667000;14052477777;14552477777
1183;37114668000;14052477777;14552477777
1184;37114669000;14052477777;14552477777
1185;37114670000;14052477777;14552477777
1186;37464977000;14052477777;14552477777
1187;37515435000;14052488888;14552488888
1188;37515450000;14052777777;14552777777
1189;37515451000;14052777777;14552777777
1190;37515452000;14052777777;14552777777
1191;37560375000;14094144444;14594144444
1192;37865583000;14094144444;14594144444
1193;37865879000;14094144444;14594144444
1194;37868407000;14094144444;14594144444
1195;37869112000;14094144444;14594144444
1196;37869347000;14094144444;14594144444
1197;37869350000;14094144444;14594144444
1198;38316569000;14094155555;14594155555
1199;38316583000;14094444444;14594444444
1200;38316585000;14094444444;14594444444
1201;38316586000;14094444444;14594444444
1202;38320144000;14135811111;14635811111
1203;38320147000;14135811111;14635811111
1204;38666905000;14135811111;14635811111
1205;38667141000;14135811111;14635811111
1206;38669744000;14135811111;14635811111
1207;38670351000;14135811111;14635811111
1208;38670613000;14135811111;14635811111
1209;38721081000;14135833333;14635833333
1210;39067481000;14136155555;14636155555
1211;39067772000;14136155555;14636155555
1212;39070360000;14136155555;14636155555
1213;39121306000;14177466666;14677466666
1214;39121310000;14177466666;14677466666
1215;39121311000;14177466666;14677466666
1216;39468173000;14177466666;14677466666
1217;39468411000;14177466666;14677466666
1218;39471048000;14177466666;14677466666
1219;39471609000;14177466666;14677466666
1220;39522077000;14177488888;14677488888
1221;39522092000;14177822222;14677822222
1222;39868836000;14177822222;14677822222
1223;39869115000;14177822222;14677822222
1224;39921989000;14219133333;14719133333
1225;39921992000;14219133333;14719133333
1226;39921993000;14219133333;14719133333
1227;39921994000;14219133333;14719133333
1228;40269503000;14219133333;14719133333
1229;40269774000;14219133333;14719133333
1230;40272218000;14219133333;14719133333
1231;40323307000;14219155555;14719155555
1232;40323321000;14219488888;14719488888
1233;40323323000;14219488888;14719488888
1234;40670307000;14219488888;14719488888
1235;40762169000;14260800000;14760800000
1236;40762173000;14260800000;14760800000
1237;40762174000;14260800000;14760800000
1238;40762175000;14260800000;14760800000
1239;40762185000;14260800000;14760800000
