seqnum;now;rtptime;deadline
1;20451401000;19811133333;20311133333
2;20451404000;19811133333;20311133333
3;20482469000;19842366666;20342366666
4;20482485000;19842366666;20342366666
5;20482486000;19842366666;20342366666
6;20482488000;19842366666;20342366666
7;20482489000;19842366666;20342366666
8;20641328000;19842366666;20342366666
9;20641482000;19842366666;20342366666
10;20691858000;19842377777;20342377777
11;20691862000;19842700000;20342700000
12;20691864000;19842700000;20342700000
13;20691865000;19842700000;20342700000
14;20733276000;19884022222;20384022222
15;20733280000;19884022222;20384022222
16;20733281000;19884022222;20384022222
17;20733281000;19884022222;20384022222
18;20733282000;19884022222;20384022222
19;20733283000;19884022222;20384022222
20;20733284000;19884022222;20384022222
21;20932066000;19884033333;20384033333
27;21121883000;19925733333;20425733333
29;21121888000;19925733333;20425733333
30;21121891000;19925733333;20425733333
31;21121892000;19925733333;20425733333
32;21122140000;19925744444;20425744444
39;21122146000;19967411111;20467411111
40;21122149000;19967411111;20467411111
41;21122162000;19967411111;20467411111
42;21122169000;19967411111;20467411111
46;21171676000;19967822222;20467822222
62;21255029000;20050722222;20550722222
63;21255032000;20050722222;20550722222
64;21255033000;20050722222;20550722222
65;21255206000;20050744444;20550744444
66;21255208000;20051033333;20551033333
67;21255209000;20051033333;20551033333
68;21255210000;20051033333;20551033333
70;21296302000;20092400000;20592400000
71;21296305000;20092400000;20592400000
73;21296307000;20092400000;20592400000
74;21296308000;20092400000;20592400000
76;21296429000;20092411111;20592411111
77;21296444000;20092733333;20592733333
78;21296446000;20092733333;20592733333
79;21296447000;20092733333;20592733333
80;21335098000;20134055555;20634055555
81;21335101000;20134055555;20634055555
82;21335102000;20134055555;20634055555
83;21335103000;20134055555;20634055555
84;21335104000;20134055555;20634055555
85;21335105000;20134055555;20634055555
86;21362124000;20134055555;20634055555
87;21412594000;20134077777;20634077777
105;21412609000;20217400000;20717400000
106;21412610000;20217400000;20717400000
107;21412611000;20217400000;20717400000
108;21412612000;20217400000;20717400000
109;21495822000;20217411111;20717411111
110;21495827000;20217688888;20717688888
111;21495829000;20217688888;20717688888
112;21495830000;20217688888;20717688888
113;21536468000;20259055555;20759055555
114;21536471000;20259055555;20759055555
115;21536472000;20259055555;20759055555
116;21536474000;20259055555;20759055555
117;21536484000;20259055555;20759055555
118;21536486000;20259055555;20759055555
119;21536487000;20259055555;20759055555
120;21536631000;20259077777;20759077777
121;21536634000;20259400000;20759400000
122;21536635000;20259400000;20759400000
123;21536637000;20259400000;20759400000
124;21576170000;20300722222;20800722222
125;21576173000;20300722222;20800722222
126;21576174000;20300722222;20800722222
127;21576175000;20300722222;20800722222
128;21602383000;20300722222;20800722222
129;21602391000;20300722222;20800722222
130;21602393000;20300722222;20800722222
131;21652876000;20300744444;20800744444
148;21652892000;20384055555;20884055555
149;21652893000;20384055555;20884055555
150;21652894000;20384055555;20884055555
151;21652895000;20384055555;20884055555
152;21652896000;20384055555;20884055555
153;21734379000;20384077777;20884077777
154;21734404000;20384400000;20884400000
155;21734406000;20384400000;20884400000
156;21734408000;20384400000;20884400000
157;21779155000;20425722222;20925722222
158;21779165000;20425722222;20925722222
159;21779177000;20425722222;20925722222
161;21779180000;20425722222;20925722222
162;21779182000;20425722222;20925722222
163;21779183000;20425722222;20925722222
164;21779352000;20425744444;20925744444
165;21779356000;20426044444;20926044444
166;21779358000;20426044444;20926044444
167;21779360000;20426044444;20926044444
168;21815884000;20467400000;20967400000
169;21815891000;20467400000;20967400000
173;21815894000;20467400000;20967400000
174;21842744000;20467400000;20967400000
177;21894906000;20467722222;20967722222
207;22017258000;20592400000;21092400000
208;22017420000;20592411111;21092411111
209;22017424000;20592677777;21092677777
210;22017426000;20592677777;21092677777
212;22056647000;20634055555;21134055555
213;22056652000;20634055555;21134055555
214;22056653000;20634055555;21134055555
215;22056654000;20634055555;21134055555
216;22056655000;20634055555;21134055555
217;22056657000;20634055555;21134055555
218;22056658000;20634055555;21134055555
219;22056781000;20634077777;21134077777
220;22056796000;20634400000;21134400000
221;22056798000;20634400000;21134400000
222;22056799000;20634400000;21134400000
223;22092795000;20675711111;21175711111
256;22192302000;20800733333;21300733333
266;22192415000;20801022222;21301022222
267;22201314000;20842388888;21342388888
268;22201317000;20842388888;21342388888
269;22201318000;20842388888;21342388888
270;22201319000;20842388888;21342388888
271;22201320000;20842388888;21342388888
272;22201321000;20842388888;21342388888
273;22201322000;20842388888;21342388888
274;22221745000;20842411111;21342411111
275;22221750000;20842666666;21342666666
276;22221751000;20842666666;21342666666
277;22221753000;20842666666;21342666666
278;22249823000;20884044444;21384044444
279;22249826000;20884044444;21384044444
280;22249827000;20884044444;21384044444
281;22249827000;20884044444;21384044444
282;22249828000;20884044444;21384044444
283;22249829000;20884044444;21384044444
284;22249830000;20884044444;21384044444
285;22249975000;20884066666;21384066666
286;22249977000;20884388888;21384388888
287;22323351000;20884388888;21384388888
288;22323362000;20884388888;21384388888
289;22373775000;20925711111;21425711111
324;22498286000;21050722222;21550722222
325;22498303000;21050722222;21550722222
326;22498304000;21050722222;21550722222
327;22498306000;21050722222;21550722222
328;22498307000;21050722222;21550722222
329;22498522000;21050744444;21550744444
330;22498538000;21051011111;21551011111
331;22498540000;21051011111;21551011111
334;22538249000;21092388888;21592388888
335;22538252000;21092388888;21592388888
336;22538253000;21092388888;21592388888
337;22538255000;21092388888;21592388888
338;22538256000;21092388888;21592388888
339;22538258000;21092388888;21592388888
340;22538381000;21092411111;21592411111
341;22538396000;21092677777;21592677777
342;22538398000;21092677777;21592677777
343;22538399000;21092677777;21592677777
344;22572616000;21134044444;21634044444
378;22674602000;21259055555;21759055555
388;22704065000;21300722222;21800722222
390;22704077000;21300722222;21800722222
391;22704079000;21300722222;21800722222
392;22704079000;21300722222;21800722222
393;22704081000;21300722222;21800722222
394;22704081000;21300722222;21800722222
395;22704294000;21300744444;21800744444
396;22704309000;21301011111;21801011111
397;22704311000;21301011111;21801011111
398;22704312000;21301011111;21801011111
399;22732117000;21342388888;21842388888
400;22732131000;21342388888;21842388888
401;22732132000;21342388888;21842388888
402;22732134000;21342388888;21842388888
403;22732135000;21342388888;21842388888
404;22732136000;21342388888;21842388888
405;22732138000;21342388888;21842388888
406;22732285000;21342411111;21842411111
407;22732289000;21342666666;21842666666
408;22732290000;21342666666;21842666666
409;22732291000;21342666666;21842666666
410;22750995000;21384044444;21884044444
411;22804052000;21384044444;21884044444
412;22804069000;21384044444;21884044444
414;22804082000;21384044444;21884044444
415;22804103000;21384044444;21884044444
416;22804108000;21384044444;21884044444
421;22896030000;21425722222;21925722222
456;23018224000;21550722222;22050722222
457;23018227000;21550722222;22050722222
458;23018228000;21550722222;22050722222
459;23018229000;21550722222;22050722222
461;23018429000;21550744444;22050744444
462;23018444000;21551000000;22051000000
463;23018445000;21551000000;22051000000
464;23018446000;21551000000;22051000000
465;23055371000;21592400000;22092400000
520;23192238000;21800722222;22300722222
529;23192325000;21801022222;22301022222
530;23192327000;21801022222;22301022222
532;23216314000;21842400000;22342400000
533;23216317000;21842400000;22342400000
534;23216319000;21842400000;22342400000
535;23216320000;21842400000;22342400000
536;23216321000;21842400000;22342400000
537;23216323000;21842400000;22342400000
538;23216392000;21842411111;22342411111
539;23216396000;21842688888;22342688888
540;23216397000;21842688888;22342688888
541;23216399000;21842688888;22342688888
542;23237389000;21884044444;22384044444
543;23237391000;21884044444;22384044444
544;23237393000;21884044444;22384044444
545;23237394000;21884044444;22384044444
546;23237396000;21884044444;22384044444
547;23237397000;21884044444;22384044444
548;23237408000;21884044444;22384044444
549;23237549000;21884066666;22384066666
550;23237552000;21884400000;22384400000
551;23284641000;21884400000;22384400000
552;23284648000;21884400000;22384400000
553;23335052000;21925711111;22425711111
603;23499642000;22092377777;22592377777
604;23499792000;22092400000;22592400000
605;23499795000;22092677777;22592677777
606;23499796000;22092677777;22592677777
607;23499797000;22092677777;22592677777
608;23537655000;22134055555;22634055555
675;23697899000;22384066666;22884066666
682;23698012000;22384400000;22884400000
683;23698015000;22384400000;22884400000
684;23698016000;22384400000;22884400000
685;23717618000;22425722222;22925722222
686;23717622000;22425722222;22925722222
687;23717623000;22425722222;22925722222
688;23717624000;22425722222;22925722222
690;23717625000;22425722222;22925722222
691;23717626000;22425722222;22925722222
692;23717826000;22425744444;22925744444
693;23717841000;22426044444;22926044444
694;23717842000;22426044444;22926044444
695;23717843000;22426044444;22926044444
696;23729948000;22467400000;22967400000
697;23729951000;22467400000;22967400000
698;23729952000;22467400000;22967400000
699;23729953000;22467400000;22967400000
700;23729954000;22467400000;22967400000
701;23729955000;22467400000;22967400000
702;23729956000;22467400000;22967400000
703;23730075000;22467411111;22967411111
705;23730077000;22467733333;22967733333
706;23765623000;22467733333;22967733333
707;23815655000;22509066666;23009066666
762;24051193000;22717400000;23217400000
835;24153018000;22967411111;23467411111
836;24153022000;22967700000;23467700000
837;24153023000;22967700000;23467700000
838;24153024000;22967700000;23467700000
839;24169713000;23009066666;23509066666
840;24169716000;23009066666;23509066666
841;24169717000;23009066666;23509066666
842;24169718000;23009066666;23509066666
843;24169719000;23009066666;23509066666
844;24169720000;23009066666;23509066666
845;24169721000;23009066666;23509066666
846;24169920000;23009077777;23509077777
847;24169935000;23009388888;23509388888
849;24183590000;23009388888;23509388888
850;24183726000;23050722222;23550722222
853;24183729000;23050722222;23550722222
856;24183730000;23050722222;23550722222
857;24183821000;23050733333;23550733333
858;24183824000;23051033333;23551033333
859;24183825000;23051033333;23551033333
860;24183826000;23051033333;23551033333
861;24183834000;23092422222;23592422222
862;24183835000;23092422222;23592422222
863;24183836000;23092422222;23592422222
864;24245829000;23092422222;23592422222
869;24296509000;23092733333;23592733333
919;24496591000;23300722222;23800722222
987;24619784000;23550722222;24050722222
998;24642367000;23592377777;24092377777
999;24642370000;23592377777;24092377777
1000;24642577000;23592400000;24092400000
1002;24642592000;23592677777;24092677777
1003;24642593000;23592677777;24092677777
1004;24661653000;23634044444;24134044444
1005;24661656000;23634044444;24134044444
1006;24661657000;23634044444;24134044444
1007;24661658000;23634044444;24134044444
1008;24661659000;23634044444;24134044444
1009;24661660000;23634044444;24134044444
1010;24661661000;23634044444;24134044444
1011;24661831000;23634066666;24134066666
1012;24661835000;23634388888;24134388888
1013;24661837000;23634388888;24134388888
1014;24661837000;23634388888;24134388888
1015;24661846000;23675733333;24175733333
1016;24661847000;23675733333;24175733333
1017;24661857000;23675733333;24175733333
1018;24661858000;23675733333;24175733333
1019;24661879000;23675733333;24175733333
1020;24661880000;23675733333;24175733333
1021;24661881000;23675733333;24175733333
1022;24661932000;23675744444;24175744444
1023;24726417000;23676100000;24176100000
1024;24726419000;23676100000;24176100000
1025;24726655000;23676100000;24176100000
1026;24818204000;23717388888;24217388888
1078;24977327000;23884377777;24384377777
1147;25130034000;24175722222;24675722222
1156;25130131000;24176011111;24676011111
1157;25130134000;24176011111;24676011111
1158;25147896000;24217388888;24717388888
1159;25147900000;24217388888;24717388888
1160;25147900000;24217388888;24717388888
1161;25147901000;24217388888;24717388888
1162;25147902000;24217388888;24717388888
1163;25147903000;24217388888;24717388888
1164;25147904000;24217388888;24717388888
1165;25148119000;24217400000;24717400000
1166;25148134000;24217666666;24717666666
1167;25148135000;24217666666;24717666666
1168;25148136000;24217666666;24717666666
1169;25148147000;24259055555;24759055555
1170;25148158000;24259055555;24759055555
1171;25148159000;24259055555;24759055555
1172;25148160000;24259055555;24759055555
1173;25148161000;24259055555;24759055555
1174;25148162000;24259055555;24759055555
1175;25148163000;24259055555;24759055555
1176;25183301000;24259066666;24759066666
1177;25183305000;24259388888;24759388888
1178;25183307000;24259388888;24759388888
1181;25221705000;24300722222;24800722222
1226;25355840000;24467388888;24967388888
1234;25355928000;24467700000;24967700000
1235;25382162000;24509044444;25009044444
1236;25382166000;24509044444;25009044444
1238;25382265000;24509044444;25009044444
1239;25382267000;24509044444;25009044444
1240;25382268000;24509044444;25009044444
1241;25382269000;24509044444;25009044444
1242;25382424000;24509066666;25009066666
1243;25382431000;24509366666;25009366666
1244;25382432000;24509366666;25009366666
1245;25382433000;24509366666;25009366666
1246;25404376000;24550733333;25050733333
1247;25404378000;24550733333;25050733333
1248;25404379000;24550733333;25050733333
1249;25404380000;24550733333;25050733333
1250;25404381000;24550733333;25050733333
1251;25404382000;24550733333;25050733333
1252;25404383000;24550733333;25050733333
1253;25404524000;24550744444;25050744444
1254;25404527000;24551011111;25051011111
1255;25404528000;24551011111;25051011111
1256;25404529000;24551011111;25051011111
1257;25497747000;24592377777;25092377777
1312;25697174000;24800733333;25300733333
1384;25904446000;25050722222;25550722222
1392;25938683000;25092388888;25592388888
1464;26075193000;25342666666;25842666666
1468;26095749000;25384055555;25884055555
1469;26095752000;25384055555;25884055555
1470;26095753000;25384055555;25884055555
1471;26095754000;25384055555;25884055555
1472;26095755000;25384055555;25884055555
1473;26144668000;25384066666;25884066666
1474;26144683000;25384422222;25884422222
1475;26144684000;25384422222;25884422222
1476;26144685000;25384422222;25884422222
1477;26181952000;25425733333;25925733333
1543;26338362000;25675722222;26175722222
1552;26338478000;25676022222;26176022222
1553;26338481000;25676022222;26176022222
1554;26358565000;25717388888;26217388888
1555;26358568000;25717388888;26217388888
1556;26358570000;25717388888;26217388888
1557;26358571000;25717388888;26217388888
1558;26358572000;25717388888;26217388888
1559;26358573000;25717388888;26217388888
1560;26358574000;25717388888;26217388888
1561;26425395000;25717400000;26217400000
1623;26437322000;25967388888;26467388888
1625;26437325000;25967388888;26467388888
1626;26437326000;25967388888;26467388888
1627;26568313000;25967400000;26467400000
1631;26568328000;26009066666;26509066666
1632;26568329000;26009066666;26509066666
1635;26648923000;26009066666;26509066666
1637;26648927000;26009066666;26509066666
1638;26664522000;26009077777;26509077777
1702;26677667000;26259055555;26759055555
1704;26812250000;26259077777;26759077777
1710;26812266000;26300733333;26800733333
1711;26812267000;26300733333;26800733333
1712;26812268000;26300733333;26800733333
1713;26812269000;26300733333;26800733333
1716;26894807000;26301033333;26801033333
1782;27039322000;26551022222;27051022222
1788;27050660000;26592400000;27092400000
1789;27050663000;26592400000;27092400000
1790;27050664000;26592400000;27092400000
1791;27050665000;26592400000;27092400000
1792;27050864000;26592411111;27092411111
1793;27050879000;26592688888;27092688888
1794;27050880000;26592688888;27092688888
1795;27050881000;26592688888;27092688888
1796;27105916000;26634066666;27134066666
1797;27105919000;26634066666;27134066666
1798;27105920000;26634066666;27134066666
1799;27105921000;26634066666;27134066666
1800;27105922000;26634066666;27134066666
1801;27105923000;26634066666;27134066666
1802;27105924000;26634066666;27134066666
1803;27106132000;26634088888;27134088888
1804;27106147000;26634422222;27134422222
1805;27106148000;26634422222;27134422222
1806;27106149000;26634422222;27134422222
1807;27143454000;26675722222;27175722222
1863;27292073000;26884055555;27384055555
1868;27369817000;26884055555;27384055555
1870;27369918000;26884377777;27384377777
1879;27369944000;26925711111;27425711111
1881;27369948000;26926000000;27426000000
1882;27369950000;26926000000;27426000000
1883;27369951000;26926000000;27426000000
1884;27369963000;26967400000;27467400000
1886;27369979000;26967400000;27467400000
1888;27369981000;26967400000;27467400000
1889;27369982000;26967400000;27467400000
1890;27369986000;26967400000;27467400000
1892;27420468000;26967700000;27467700000
1918;27544580000;27092388888;27592388888
1919;27544583000;27092388888;27592388888
1922;27544584000;27092388888;27592388888
1923;27544585000;27092388888;27592388888
1925;27544695000;27092677777;27592677777
1926;27544699000;27092677777;27592677777
1927;27544700000;27092677777;27592677777
1928;27584329000;27134044444;27634044444
1929;27584332000;27134044444;27634044444
1930;27584333000;27134044444;27634044444
1931;27584334000;27134044444;27634044444
1932;27584335000;27134044444;27634044444
1933;27584336000;27134044444;27634044444
1934;27584337000;27134044444;27634044444
1935;27584536000;27134066666;27634066666
1936;27584551000;27134366666;27634366666
1937;27584552000;27134366666;27634366666
1938;27584553000;27134366666;27634366666
1939;27728087000;27175733333;27675733333
1951;27744335000;27217388888;27717388888
1954;27744338000;27217388888;27717388888
1955;27744339000;27217388888;27717388888
1956;27744340000;27217388888;27717388888
1957;27744465000;27217400000;27717400000
1958;27744481000;27217666666;27717666666
1959;27744482000;27217666666;27717666666
1960;27744483000;27217666666;27717666666
1962;27751114000;27259066666;27759066666
1963;27751118000;27259066666;27759066666
1964;27751119000;27259066666;27759066666
1965;27751120000;27259066666;27759066666
1966;27751121000;27259066666;27759066666
1967;27751122000;27259066666;27759066666
1968;27751246000;27259077777;27759077777
1969;27751261000;27259400000;27759400000
1970;27751263000;27259400000;27759400000
1972;27751274000;27300733333;27800733333
1973;27751275000;27300733333;27800733333
1983;27942672000;27342400000;27842400000
1985;27942676000;27342400000;27842400000
1987;27942677000;27342400000;27842400000
1988;27942678000;27342400000;27842400000
1989;27942679000;27342400000;27842400000
1990;27942878000;27342411111;27842411111
1991;27942894000;27342666666;27842666666
1992;27942895000;27342666666;27842666666
1993;27942896000;27342666666;27842666666
1994;27983900000;27384044444;27884044444
1995;27983903000;27384044444;27884044444
1996;27983904000;27384044444;27884044444
1997;27983905000;27384044444;27884044444
1998;27983906000;27384044444;27884044444
1999;27983907000;27384044444;27884044444
2000;27983908000;27384044444;27884044444
2001;27984107000;27384066666;27884066666
2002;27984122000;27384377777;27884377777
2003;27984123000;27384377777;27884377777
2004;27984124000;27384377777;27884377777
2005;28024918000;27425722222;27925722222
2006;28024920000;27425722222;27925722222
2007;28091022000;27425722222;27925722222
2016;28182978000;27467400000;27967400000
2019;28182981000;27467400000;27967400000
2020;28182982000;27467400000;27967400000
2021;28182983000;27467400000;27967400000
2022;28182984000;27467400000;27967400000
2023;28183205000;27467433333;27967433333
2024;28183227000;27467722222;27967722222
2025;28183228000;27467722222;27967722222
2026;28183229000;27467722222;27967722222
2027;28224218000;27509066666;28009066666
2028;28224222000;27509066666;28009066666
2029;28224223000;27509066666;28009066666
2030;28224224000;27509066666;28009066666
2031;28224225000;27509066666;28009066666
2032;28224226000;27509066666;28009066666
2033;28224227000;27509066666;28009066666
2034;28224493000;27509077777;28009077777
2035;28224498000;27509355555;28009355555
2036;28224499000;27509355555;28009355555
2037;28224500000;27509355555;28009355555
2038;28265400000;27550722222;28050722222
2039;28265402000;27550722222;28050722222
2040;28265403000;27550722222;28050722222
2041;28331311000;27550722222;28050722222
2043;28331336000;27550722222;28050722222
2045;28381994000;27550744444;28050744444
2057;28382009000;27592666666;28092666666
2058;28382011000;27592666666;28092666666
2059;28382012000;27592666666;28092666666
2060;28423322000;27634044444;28134044444
2061;28423325000;27634044444;28134044444
2062;28423326000;27634044444;28134044444
2063;28423327000;27634044444;28134044444
2064;28423328000;27634044444;28134044444
2065;28423329000;27634044444;28134044444
2066;28423330000;27634044444;28134044444
2067;28423529000;27634066666;28134066666
2068;28423544000;27634377777;28134377777
2069;28423545000;27634377777;28134377777
2070;28423546000;27634377777;28134377777
2071;28506474000;27675722222;28175722222
2072;28506477000;27675722222;28175722222
2073;28506478000;27675722222;28175722222
2074;28506479000;27675722222;28175722222
2075;28506480000;27675722222;28175722222
2076;28506481000;27675722222;28175722222
2077;28506482000;27675722222;28175722222
2081;28622061000;27676033333;28176033333
2093;28705064000;27759066666;28259066666
2094;28705068000;27759066666;28259066666
2095;28705069000;27759066666;28259066666
2096;28705070000;27759066666;28259066666
2097;28705071000;27759066666;28259066666
2098;28705072000;27759066666;28259066666
2099;28705073000;27759066666;28259066666
2100;28705279000;27759077777;28259077777
2101;28705295000;27759388888;28259388888
2102;28705296000;27759388888;28259388888
2103;28705297000;27759388888;28259388888
2104;28746271000;27800722222;28300722222
2105;28746274000;27800722222;28300722222
2106;28746275000;27800722222;28300722222
2107;28746276000;27800722222;28300722222
2108;28746277000;27800722222;28300722222
2109;28746278000;27800722222;28300722222
2110;28746279000;27800722222;28300722222
2111;28746484000;27800744444;28300744444
2112;28746500000;27801033333;28301033333
2113;28746501000;27801033333;28301033333
2114;28746502000;27801033333;28301033333
2115;28862323000;27842388888;28342388888
2127;28903298000;27884066666;28384066666
2129;28903301000;27884066666;28384066666
2130;28903302000;27884066666;28384066666
2131;28903303000;27884066666;28384066666
2132;28903304000;27884066666;28384066666
2133;28903881000;27884088888;28384088888
2134;28903896000;27884422222;28384422222
2135;28903897000;27884422222;28384422222
2136;28903898000;27884422222;28384422222
2137;28945402000;27925711111;28425711111
2138;28945406000;27925711111;28425711111
2139;28945407000;27925711111;28425711111
2140;28945408000;27925711111;28425711111
2141;28945409000;27925711111;28425711111
2142;28945410000;27925711111;28425711111
2143;28945411000;27925711111;28425711111
2144;28945616000;27925733333;28425733333
2145;28945632000;27926022222;28426022222
2146;28945633000;27926022222;28426022222
2147;28945634000;27926022222;28426022222
2148;28986108000;27967388888;28467388888
2149;28986112000;27967388888;28467388888
2151;28986389000;27967388888;28467388888
2152;29052250000;27967388888;28467388888
2153;29052252000;27967388888;28467388888
2162;29143587000;28009066666;28509066666
2171;29185774000;28050722222;28550722222
2172;29185777000;28050722222;28550722222
2173;29185778000;28050722222;28550722222
2174;29185779000;28050722222;28550722222
2175;29185780000;28050722222;28550722222
2176;29185781000;28050722222;28550722222
2177;29185977000;28050744444;28550744444
2178;29185993000;28051033333;28551033333
2179;29185994000;28051033333;28551033333
2180;29186002000;28051033333;28551033333
2181;29226730000;28092400000;28592400000
2182;29226734000;28092400000;28592400000
2183;29226735000;28092400000;28592400000
2184;29226736000;28092400000;28592400000
2185;29226737000;28092400000;28592400000
2187;29226738000;28092400000;28592400000
2188;29226867000;28092411111;28592411111
2189;29226871000;28092733333;28592733333
2190;29226872000;28092733333;28592733333
2191;29226873000;28092733333;28592733333
2192;29266110000;28134066666;28634066666
2193;29266112000;28134066666;28634066666
2194;29292557000;28134066666;28634066666
2198;29292612000;28134066666;28634066666
2204;29384350000;28175722222;28675722222
2213;29384435000;28176033333;28676033333
2214;29425732000;28217400000;28717400000
2215;29425735000;28217400000;28717400000
2216;29425736000;28217400000;28717400000
2217;29425737000;28217400000;28717400000
2219;29426095000;28217400000;28717400000
2220;29426097000;28217400000;28717400000
2221;29426305000;28217411111;28717411111
2222;29426321000;28217700000;28717700000
2223;29426322000;28217700000;28717700000
2224;29426323000;28217700000;28717700000
2225;29466860000;28259055555;28759055555
2226;29466863000;28259055555;28759055555
2227;29466864000;28259055555;28759055555
2228;29466865000;28259055555;28759055555
2229;29466866000;28259055555;28759055555
2230;29466867000;28259055555;28759055555
2231;29466868000;28259055555;28759055555
2232;29467082000;28259077777;28759077777
2233;29467098000;28259388888;28759388888
2234;29467099000;28259388888;28759388888
2235;29532839000;28259388888;28759388888
2236;29583241000;28300733333;28800733333
2250;29624612000;28342377777;28842377777
2255;29625147000;28342688888;28842688888
2256;29625151000;28342688888;28842688888
2257;29625152000;28342688888;28842688888
2258;29666350000;28384066666;28884066666
2259;29666353000;28384066666;28884066666
2261;29666354000;28384066666;28884066666
2262;29666355000;28384066666;28884066666
2263;29666356000;28384066666;28884066666
2264;29666357000;28384066666;28884066666
2265;29666556000;28384077777;28884077777
2266;29666571000;28384422222;28884422222
2267;29666572000;28384422222;28884422222
2268;29666573000;28384422222;28884422222
2269;29707357000;28425733333;28925733333
2270;29707360000;28425733333;28925733333
2271;29707361000;28425733333;28925733333
2272;29707362000;28425733333;28925733333
2273;29707363000;28425733333;28925733333
2275;29707364000;28425733333;28925733333
2276;29707564000;28425744444;28925744444
2277;29773154000;28426055555;28926055555
2278;29773162000;28426055555;28926055555
2279;29773390000;28426055555;28926055555
2280;29865062000;28467400000;28967400000
2297;29906311000;28509077777;29009077777
2298;29906519000;28509088888;29009088888
2299;29906535000;28509433333;29009433333
2300;29906536000;28509433333;29009433333
2301;29906537000;28509433333;29009433333
2302;29947242000;28550722222;29050722222
2303;29947246000;28550722222;29050722222
2304;29947247000;28550722222;29050722222
2305;29947248000;28550722222;29050722222
2306;29947249000;28550722222;29050722222
2307;29947250000;28550722222;29050722222
2308;29947251000;28550722222;29050722222
2309;29947417000;28550744444;29050744444
2310;29947422000;28551033333;29051033333
2311;29947423000;28551033333;29051033333
2312;29947424000;28551033333;29051033333
2313;29986309000;28592377777;29092377777
2314;29986311000;28592377777;29092377777
2315;29986312000;28592377777;29092377777
2316;29986313000;28592377777;29092377777
2317;29986314000;28592377777;29092377777
2318;29986315000;28592377777;29092377777
2319;29986316000;28592377777;29092377777
2320;30063918000;28592400000;29092400000
2336;30063933000;28675711111;29175711111
2337;30063934000;28675711111;29175711111
2338;30063935000;28675711111;29175711111
2339;30063936000;28675711111;29175711111
2340;30063937000;28675711111;29175711111
2341;30063938000;28675711111;29175711111
2342;30147195000;28675733333;29175733333
2346;30147211000;28717411111;29217411111
2347;30147212000;28717411111;29217411111
2348;30147213000;28717411111;29217411111
2349;30147214000;28717411111;29217411111
2350;30147214000;28717411111;29217411111
2351;30147223000;28717411111;29217411111
2352;30147224000;28717411111;29217411111
2353;30187225000;28717433333;29217433333
2354;30187241000;28717733333;29217733333
2355;30187242000;28717733333;29217733333
2356;30187243000;28717733333;29217733333
2357;30226990000;28759055555;29259055555
2358;30226994000;28759055555;29259055555
2359;30226995000;28759055555;29259055555
2360;30226995000;28759055555;29259055555
2361;30226996000;28759055555;29259055555
2362;30226997000;28759055555;29259055555
2363;30226998000;28759055555;29259055555
2364;30227204000;28759077777;29259077777
2365;30227219000;28759411111;29259411111
2367;30253789000;28759411111;29259411111
2368;30259825000;28800722222;29300722222
2379;30302899000;28842388888;29342388888
2383;30302902000;28842388888;29342388888
2385;30302903000;28842388888;29342388888
2386;30303102000;28842400000;29342400000
2387;30303118000;28842700000;29342700000
2388;30303119000;28842700000;29342700000
2389;30303120000;28842700000;29342700000
2390;30387584000;28884066666;29384066666
2391;30387587000;28884066666;29384066666
2394;30387589000;28884066666;29384066666
2397;30387778000;28884088888;29384088888
2398;30387781000;28884433333;29384433333
2399;30387782000;28884433333;29384433333
2400;30387783000;28884433333;29384433333
2401;30428240000;28925711111;29425711111
2402;30428243000;28925711111;29425711111
2403;30428244000;28925711111;29425711111
2404;30428245000;28925711111;29425711111
2405;30428246000;28925711111;29425711111
2406;30428247000;28925711111;29425711111
2407;30428248000;28925711111;29425711111
2409;30428362000;28926022222;29426022222
2410;30428365000;28926022222;29426022222
2411;30428366000;28926022222;29426022222
2412;30544481000;28967400000;29467400000
2428;30585734000;29009066666;29509066666
2435;30627594000;29050733333;29550733333
2436;30627598000;29050733333;29550733333
2437;30627599000;29050733333;29550733333
2438;30627600000;29050733333;29550733333
2439;30627601000;29050733333;29550733333
2441;30627808000;29050744444;29550744444
2442;30627824000;29051033333;29551033333
2443;30627825000;29051033333;29551033333
2444;30627826000;29051033333;29551033333
2445;30668325000;29092377777;29592377777
2446;30668328000;29092377777;29592377777
2447;30668329000;29092377777;29592377777
2448;30668330000;29092377777;29592377777
2449;30668331000;29092377777;29592377777
2450;30668332000;29092377777;29592377777
2452;30668502000;29092400000;29592400000
2453;30668506000;29092700000;29592700000
2454;30668507000;29092700000;29592700000
2455;30668509000;29092700000;29592700000
2456;30708340000;29134044444;29634044444
2457;30708343000;29134044444;29634044444
2458;30734419000;29134044444;29634044444
2461;30734436000;29134044444;29634044444
2462;30734438000;29134044444;29634044444
2463;30784925000;29134066666;29634066666
2473;30784940000;29175733333;29675733333
2474;30826547000;29175744444;29675744444
2481;30826562000;29217400000;29717400000
2482;30826563000;29217400000;29717400000
2483;30826564000;29217400000;29717400000
2484;30826565000;29217400000;29717400000
2485;30867942000;29217411111;29717411111
2486;30867957000;29217688888;29717688888
2487;30867958000;29217688888;29717688888
2488;30867959000;29217688888;29717688888
2489;30908603000;29259066666;29759066666
2490;30908607000;29259066666;29759066666
2491;30908608000;29259066666;29759066666
2492;30908609000;29259066666;29759066666
2493;30908610000;29259066666;29759066666
2494;30908610000;29259066666;29759066666
2495;30908611000;29259066666;29759066666
2498;30909033000;29259388888;29759388888
2500;30949075000;29300711111;29800711111
2501;30949087000;29300711111;29800711111
2502;30949088000;29300711111;29800711111
2503;30949089000;29300711111;29800711111
2504;30949090000;29300711111;29800711111
2505;30974727000;29300711111;29800711111
2506;30974734000;29300711111;29800711111
2507;31025305000;29300733333;29800733333
2522;31025320000;29384044444;29884044444
2523;31025321000;29384044444;29884044444
2524;31025322000;29384044444;29884044444
2525;31025323000;29384044444;29884044444
2526;31025324000;29384044444;29884044444
2527;31025325000;29384044444;29884044444
2528;31025333000;29384044444;29884044444
2529;31108613000;29384066666;29884066666
2533;31149823000;29425733333;29925733333
2534;31149825000;29425733333;29925733333
2535;31149826000;29425733333;29925733333
2536;31149827000;29425733333;29925733333
2537;31149828000;29425733333;29925733333
2538;31149829000;29425733333;29925733333
2539;31149830000;29425733333;29925733333
2540;31150038000;29425744444;29925744444
2541;31150062000;29426044444;29926044444
2542;31150063000;29426044444;29926044444
2543;31150064000;29426044444;29926044444
2544;31188579000;29467388888;29967388888
2545;31188583000;29467388888;29967388888
2548;31188584000;29467388888;29967388888
2549;31188585000;29467388888;29967388888
2550;31188586000;29467388888;29967388888
2551;31188756000;29467411111;29967411111
2552;31188760000;29467711111;29967711111
2553;31215001000;29467711111;29967711111
2554;31215054000;29467711111;29967711111
2555;31227354000;29509066666;30009066666
2566;31259606000;29550722222;30050722222
2569;31259610000;29550722222;30050722222
2570;31259611000;29550722222;30050722222
2571;31259612000;29550722222;30050722222
2572;31259613000;29550722222;30050722222
2573;31259836000;29550733333;30050733333
2574;31259851000;29551044444;30051044444
2575;31259852000;29551044444;30051044444
2576;31259853000;29551044444;30051044444
2577;31302937000;29592388888;30092388888
2578;31302940000;29592388888;30092388888
2581;31302941000;29592388888;30092388888
2582;31302942000;29592388888;30092388888
2584;31303148000;29592400000;30092400000
2585;31303163000;29592700000;30092700000
2586;31303164000;29592700000;30092700000
2587;31303165000;29592700000;30092700000
2588;31331081000;29634044444;30134044444
2589;31331083000;29634044444;30134044444
2590;31331084000;29634044444;30134044444
2591;31331085000;29634044444;30134044444
2592;31331086000;29634044444;30134044444
2594;31331087000;29634044444;30134044444
2596;31331158000;29634411111;30134411111
2597;31331160000;29634411111;30134411111
2598;31331161000;29634411111;30134411111
2602;31505689000;29675733333;30175733333
2615;31547280000;29717400000;30217400000
2623;31588562000;29759055555;30259055555
2624;31588565000;29759055555;30259055555
2625;31588566000;29759055555;30259055555
2626;31588567000;29759055555;30259055555
2627;31588568000;29759055555;30259055555
2628;31588773000;29759077777;30259077777
2629;31588789000;29759400000;30259400000
2630;31588790000;29759400000;30259400000
2631;31588791000;29759400000;30259400000
2632;31629512000;29800711111;30300711111
2633;31629516000;29800711111;30300711111
2634;31629517000;29800711111;30300711111
2636;31629834000;29800711111;30300711111
2637;31629836000;29800711111;30300711111
2638;31629837000;29800711111;30300711111
2639;31630064000;29800733333;30300733333
2640;31630070000;29801011111;30301011111
2641;31630071000;29801011111;30301011111
2642;31630072000;29801011111;30301011111
2643;31669564000;29842377777;30342377777
2645;31669568000;29842377777;30342377777
2646;31669569000;29842377777;30342377777
2647;31695633000;29842377777;30342377777
2649;31695651000;29842377777;30342377777
2650;31746134000;29842400000;30342400000
2664;31746149000;29884388888;30384388888
2665;31829337000;29925722222;30425722222
2673;31829454000;29926000000;30426000000
2674;31829457000;29926000000;30426000000
2675;31829458000;29926000000;30426000000
2676;31869962000;29967400000;30467400000
2677;31869966000;29967400000;30467400000
2678;31869967000;29967400000;30467400000
2679;31869968000;29967400000;30467400000
2680;31869968000;29967400000;30467400000
2681;31869969000;29967400000;30467400000
2682;31869970000;29967400000;30467400000
2683;31870170000;29967411111;30467411111
2684;31870186000;29967688888;30467688888
2685;31870187000;29967688888;30467688888
2686;31870188000;29967688888;30467688888
2687;31909965000;30009066666;30509066666
2688;31909969000;30009066666;30509066666
2689;31909969000;30009066666;30509066666
2690;31909970000;30009066666;30509066666
2691;31909971000;30009066666;30509066666
2692;31909972000;30009066666;30509066666
2693;31909973000;30009066666;30509066666
2694;31910172000;30009077777;30509077777
2695;31935924000;30009366666;30509366666
2696;31935931000;30009366666;30509366666
2697;31936187000;30009366666;30509366666
2698;32027850000;30050711111;30550711111
2724;32109474000;30134222222;30634222222
2725;32109477000;30134222222;30634222222
2726;32109478000;30134222222;30634222222
2727;32109676000;30134411111;30634411111
2728;32109691000;30134811111;30634811111
2729;32109693000;30134811111;30634811111
2730;32109694000;30134811111;30634811111
2731;32149019000;30175711111;30675711111
2732;32149023000;30175711111;30675711111
2733;32149024000;30175711111;30675711111
2734;32149025000;30175711111;30675711111
2735;32149025000;30175711111;30675711111
2736;32149026000;30175711111;30675711111
2737;32149027000;30175711111;30675711111
2738;32149248000;30175722222;30675722222
2739;32149263000;30175977777;30675977777
2740;32149264000;30175977777;30675977777
2741;32149265000;30175977777;30675977777
2742;32187407000;30217377777;30717377777
2761;32225823000;30259366666;30759366666
2765;32260814000;30300711111;30800711111
2777;32350813000;30342388888;30842388888
2778;32350817000;30342388888;30842388888
2779;32350818000;30342388888;30842388888
2780;32350819000;30342388888;30842388888
2782;32351130000;30342400000;30842400000
2783;32351145000;30342677777;30842677777
2784;32351146000;30342677777;30842677777
2785;32351147000;30342677777;30842677777
2786;32390484000;30384066666;30884066666
2787;32390487000;30384066666;30884066666
2788;32390488000;30384066666;30884066666
2789;32390489000;30384066666;30884066666
2790;32390490000;30384066666;30884066666
2791;32390491000;30384066666;30884066666
2792;32390492000;30384066666;30884066666
2793;32390625000;30384077777;30884077777
2794;32390630000;30384433333;30884433333
2795;32390631000;30384433333;30884433333
2796;32390632000;30384433333;30884433333
2797;32428880000;30425722222;30925722222
2815;32458001000;30467411111;30967411111
2819;32458016000;30509044444;31009044444
2820;32458017000;30509044444;31009044444
2821;32458018000;30509044444;31009044444
2822;32458019000;30509044444;31009044444
2823;32458020000;30509044444;31009044444
2824;32458021000;30509044444;31009044444
2825;32458022000;30509044444;31009044444
2826;32497165000;30509066666;31009066666
2831;32497181000;30550711111;31050711111
2832;32497183000;30550711111;31050711111
2833;32497184000;30550711111;31050711111
2834;32497185000;30550711111;31050711111
2835;32497195000;30550711111;31050711111
2836;32497196000;30550711111;31050711111
2837;32530678000;30550733333;31050733333
2838;32530693000;30551044444;31051044444
2839;32530694000;30551044444;31051044444
2840;32530695000;30551044444;31051044444
2841;32562513000;30592377777;31092377777
2842;32562516000;30592377777;31092377777
2843;32562517000;30592377777;31092377777
2845;32562695000;30592377777;31092377777
2846;32562697000;30592377777;31092377777
2847;32562698000;30592377777;31092377777
2848;32562905000;30592400000;31092400000
2849;32562921000;30592666666;31092666666
2850;32562922000;30592666666;31092666666
2851;32562923000;30592666666;31092666666
2852;32593114000;30634066666;31134066666
2853;32593117000;30634066666;31134066666
2854;32656821000;30634066666;31134066666
2855;32656826000;30634066666;31134066666
2856;32656832000;30634066666;31134066666
2857;32657053000;30634066666;31134066666
2861;32707522000;30634377777;31134377777
2870;32749091000;30675744444;31175744444
2882;32749106000;30717688888;31217688888
2883;32749107000;30717688888;31217688888
2884;32749108000;30717688888;31217688888
2885;32831485000;30759055555;31259055555
2886;32831488000;30759055555;31259055555
2887;32831489000;30759055555;31259055555
2888;32831490000;30759055555;31259055555
2890;32831492000;30759055555;31259055555
2893;32831605000;30759422222;31259422222
2894;32831608000;30759422222;31259422222
2895;32831609000;30759422222;31259422222
2896;32871729000;30800722222;31300722222
2897;32871733000;30800722222;31300722222
2898;32871734000;30800722222;31300722222
2899;32871735000;30800722222;31300722222
2900;32871736000;30800722222;31300722222
2901;32871737000;30800722222;31300722222
2902;32871745000;30800722222;31300722222
2903;32871954000;30800733333;31300733333
2904;32871969000;30801000000;31301000000
2908;32910289000;30842388888;31342388888
2922;32947253000;30884066666;31384066666
2927;32947395000;30884411111;31384411111
2928;32947398000;30884411111;31384411111
2929;32979113000;30925733333;31425733333
2940;33006874000;30967388888;31467388888
2941;33006877000;30967388888;31467388888
2942;33006878000;30967388888;31467388888
2943;33006879000;30967388888;31467388888
2944;33006880000;30967388888;31467388888
2945;33006881000;30967388888;31467388888
2946;33006882000;30967388888;31467388888
2947;33007087000;30967411111;31467411111
2948;33007102000;30967688888;31467688888
2949;33007103000;30967688888;31467688888
2950;33007104000;30967688888;31467688888
2951;33039240000;31009055555;31509055555
2952;33039243000;31009055555;31509055555
2953;33039244000;31009055555;31509055555
2954;33039245000;31009055555;31509055555
2955;33039246000;31009055555;31509055555
2956;33039247000;31009055555;31509055555
2957;33039248000;31009055555;31509055555
2958;33039447000;31009066666;31509066666
2959;33039461000;31009377777;31509377777
2960;33039463000;31009377777;31509377777
2961;33039464000;31009377777;31509377777
2962;33187826000;31050722222;31550722222
2981;33229708000;31092677777;31592677777
2992;33270798000;31134388888;31634388888
2993;33270801000;31134388888;31634388888
2994;33270802000;31134388888;31634388888
2995;33311702000;31175733333;31675733333
2996;33311705000;31175733333;31675733333
2997;33311707000;31175733333;31675733333
2998;33311708000;31175733333;31675733333
2999;33311709000;31175733333;31675733333
3000;33311710000;31175733333;31675733333
3001;33311711000;31175733333;31675733333
3002;33311918000;31175744444;31675744444
3003;33311933000;31176000000;31676000000
3005;33311989000;31176000000;31676000000
3007;33351727000;31217388888;31717388888
3008;33351730000;31217388888;31717388888
3009;33351731000;31217388888;31717388888
3010;33351732000;31217388888;31717388888
3011;33351733000;31217388888;31717388888
3012;33351734000;31217388888;31717388888
3013;33351839000;31217400000;31717400000
3014;33351854000;31217655555;31717655555
3015;33351855000;31217655555;31717655555
3016;33377712000;31217655555;31717655555
3017;33390546000;31259044444;31759044444
3029;33428345000;31300711111;31800711111
3034;33428348000;31300711111;31800711111
3035;33428548000;31300733333;31800733333
3039;33436182000;31342400000;31842400000
3040;33436193000;31342400000;31842400000
3041;33436194000;31342400000;31842400000
3042;33436196000;31342400000;31842400000
3043;33436196000;31342400000;31842400000
3044;33436197000;31342400000;31842400000
3047;33458422000;31342655555;31842655555
3051;33493743000;31384055555;31884055555
3052;33493746000;31384055555;31884055555
3053;33493747000;31384055555;31884055555
3054;33493748000;31384055555;31884055555
3055;33493749000;31384055555;31884055555
3056;33493750000;31384055555;31884055555
3057;33493869000;31384077777;31884077777
3058;33493884000;31384366666;31884366666
3059;33493886000;31384366666;31884366666
3061;33527647000;31425722222;31925722222
3062;33527650000;31425722222;31925722222
3063;33527661000;31425722222;31925722222
3064;33527662000;31425722222;31925722222
3066;33527664000;31425722222;31925722222
3067;33527666000;31425722222;31925722222
3068;33527761000;31425744444;31925744444
3069;33527764000;31426011111;31926011111
3070;33618003000;31426011111;31926011111
3071;33618017000;31426011111;31926011111
3072;33668415000;31467377777;31967377777
3086;33709984000;31509055555;32009055555
3100;33751495000;31550700000;32050700000
3101;33751697000;31550711111;32050711111
3102;33751712000;31550988888;32050988888
3103;33751713000;31550988888;32050988888
3104;33751714000;31550988888;32050988888
3105;33792499000;31592400000;32092400000
3106;33792502000;31592400000;32092400000
3107;33792503000;31592400000;32092400000
3110;33792629000;31592400000;32092400000
3111;33792633000;31592400000;32092400000
3112;33792816000;31592411111;32092411111
3113;33792821000;31592666666;32092666666
3114;33792822000;31592666666;32092666666
3115;33792831000;31592666666;32092666666
3116;33832448000;31634055555;32134055555
3117;33832451000;31634055555;32134055555
3118;33832453000;31634055555;32134055555
3119;33832463000;31634055555;32134055555
3120;33832465000;31634055555;32134055555
3121;33832466000;31634055555;32134055555
3122;33832468000;31634055555;32134055555
3123;33832612000;31634066666;32134066666
3124;33858292000;31634400000;32134400000
3125;33858299000;31634400000;32134400000
3126;33858305000;31634400000;32134400000
3127;33949539000;31675722222;32175722222
3150;34032274000;31759044444;32259044444
3151;34032277000;31759044444;32259044444
3152;34032278000;31759044444;32259044444
3153;34032279000;31759044444;32259044444
3154;34032280000;31759044444;32259044444
3155;34032281000;31759044444;32259044444
3156;34032486000;31759066666;32259066666
3157;34032502000;31759377777;32259377777
3158;34032503000;31759377777;32259377777
3159;34032504000;31759377777;32259377777
3160;34071854000;31800711111;32300711111
3161;34071857000;31800711111;32300711111
3162;34071858000;31800711111;32300711111
3163;34071859000;31800711111;32300711111
3164;34071860000;31800711111;32300711111
3165;34071861000;31800711111;32300711111
3168;34071975000;31801022222;32301022222
3169;34071978000;31801022222;32301022222
3170;34071979000;31801022222;32301022222
3175;34110851000;31842400000;32342400000
3192;34147325000;31884377777;32384377777
3194;34176166000;31925733333;32425733333
3207;34211749000;31967388888;32467388888
3208;34211753000;31967388888;32467388888
3209;34211754000;31967388888;32467388888
3210;34211755000;31967388888;32467388888
3211;34211945000;31967400000;32467400000
3212;34211951000;31967700000;32467700000
3213;34211952000;31967700000;32467700000
3215;34243078000;32009055555;32509055555
3216;34243081000;32009055555;32509055555
3217;34243082000;32009055555;32509055555
3219;34243083000;32009055555;32509055555
3220;34243084000;32009055555;32509055555
3221;34243085000;32009055555;32509055555
3222;34243216000;32009066666;32509066666
3223;34243222000;32009377777;32509377777
3224;34243223000;32009377777;32509377777
3225;34243224000;32009377777;32509377777
3226;34272123000;32050722222;32550722222
3227;34272126000;32050722222;32550722222
3228;34272127000;32050722222;32550722222
3229;34272128000;32050722222;32550722222
3230;34272129000;32050722222;32550722222
3231;34272130000;32050722222;32550722222
3232;34272131000;32050722222;32550722222
3233;34389551000;32050733333;32550733333
3253;34389567000;32134066666;32634066666
3254;34389568000;32134066666;32634066666
3255;34472739000;32134077777;32634077777
3269;34472746000;32176011111;32676011111
3270;34552186000;32217388888;32717388888
3271;34552190000;32217388888;32717388888
3272;34552191000;32217388888;32717388888
3273;34552192000;32217388888;32717388888
3274;34552193000;32217388888;32717388888
3275;34552194000;32217388888;32717388888
3276;34552195000;32217388888;32717388888
3277;34552355000;32217400000;32717400000
3278;34552362000;32217677777;32717677777
3279;34552363000;32217677777;32717677777
3280;34552364000;32217677777;32717677777
3281;34589996000;32259055555;32759055555
3311;34713057000;32342666666;32842666666
3326;34792690000;32425711111;32925711111
3327;34792695000;32425711111;32925711111
3328;34792696000;32425711111;32925711111
3329;34792698000;32425711111;32925711111
3330;34792699000;32425711111;32925711111
3331;34792700000;32425711111;32925711111
3332;34792919000;32425733333;32925733333
3333;34792934000;32426022222;32926022222
3334;34792936000;32426022222;32926022222
3335;34792937000;32426022222;32926022222
3336;34828273000;32467388888;32967388888
3368;34898042000;32551011111;33051011111
3383;34946066000;32634055555;33134055555
3384;34946070000;32634055555;33134055555
3385;34946071000;32634055555;33134055555
3386;34946072000;32634055555;33134055555
3387;34946278000;32634077777;33134077777
3388;34946293000;32634377777;33134377777
3389;34946294000;32634377777;33134377777
3390;34946295000;32634377777;33134377777
3391;34964924000;32675711111;33175711111
3392;34964927000;32675711111;33175711111
3393;34964928000;32675711111;33175711111
3394;34964938000;32675711111;33175711111
3395;34964939000;32675711111;33175711111
3396;34964940000;32675711111;33175711111
3397;34964940000;32675711111;33175711111
3398;34965154000;32675733333;33175733333
3399;34965169000;32676022222;33176022222
3400;34965170000;32676022222;33176022222
3402;34993895000;32717388888;33217388888
3403;34993898000;32717388888;33217388888
3404;34993899000;32717388888;33217388888
3405;34993900000;32717388888;33217388888
3406;34993901000;32717388888;33217388888
3407;35059667000;32717388888;33217388888
3408;35059681000;32717388888;33217388888
3409;35110229000;32717400000;33217400000
3430;35110244000;32800733333;33300733333
3431;35193367000;32800744444;33300744444
3460;35299933000;32925722222;33425722222
3462;35299936000;32925722222;33425722222
3463;35299937000;32925722222;33425722222
3464;35311814000;32925733333;33425733333
3501;35311831000;33092400000;33592400000
3504;35334115000;33092400000;33592400000
3505;35334117000;33092400000;33592400000
3506;35334118000;33092400000;33592400000
3507;35334119000;33092400000;33592400000
3508;35409504000;33092411111;33592411111
3531;35409519000;33176044444;33676044444
3532;35409520000;33176044444;33676044444
3533;35409521000;33176044444;33676044444
3534;35483967000;33217388888;33717388888
3536;35483970000;33217388888;33717388888
3537;35483971000;33217388888;33717388888
3538;35483972000;33217388888;33717388888
3539;35483973000;33217388888;33717388888
3540;35483974000;33217388888;33717388888
3541;35484181000;33217400000;33717400000
3542;35484197000;33217700000;33717700000
3543;35484198000;33217700000;33717700000
3544;35484199000;33217700000;33717700000
3546;35505492000;33259055555;33759055555
3547;35505495000;33259055555;33759055555
3548;35505497000;33259055555;33759055555
3549;35505498000;33259055555;33759055555
3550;35505499000;33259055555;33759055555
3551;35505500000;33259055555;33759055555
3552;35505613000;33259066666;33759066666
3553;35505619000;33259455555;33759455555
3554;35505620000;33259455555;33759455555
3555;35540210000;33259455555;33759455555
3561;35590623000;33300722222;33800722222
3578;35673830000;33384055555;33884055555
3610;35753845000;33467722222;33967722222
3611;35792996000;33509066666;34009066666
3647;35893929000;33634055555;34134055555
3682;35955193000;33759066666;34259066666
3683;35955197000;33759066666;34259066666
3684;35955397000;33759077777;34259077777
3685;35955412000;33759411111;34259411111
3686;35955413000;33759411111;34259411111
3687;35955414000;33759411111;34259411111
3688;35981731000;33800722222;34300722222
3689;35981744000;33800722222;34300722222
3690;35981746000;33800722222;34300722222
3691;35981747000;33800722222;34300722222
3692;35981748000;33800722222;34300722222
3693;35981750000;33800722222;34300722222
3694;35981752000;33800722222;34300722222
3695;35981898000;33800744444;34300744444
3696;35981902000;33801011111;34301011111
3697;35981903000;33801011111;34301011111
3698;35981905000;33801011111;34301011111
3699;36003800000;33842400000;34342400000
3700;36003802000;33842400000;34342400000
3701;36003804000;33842400000;34342400000
3702;36003805000;33842400000;34342400000
3703;36003807000;33842400000;34342400000
3704;36003817000;33842400000;34342400000
3705;36020742000;33842400000;34342400000
3706;36071214000;33842411111;34342411111
3729;36071229000;33926000000;34426000000
3730;36071230000;33926000000;34426000000
3731;36071231000;33926000000;34426000000
3735;36177232000;33967388888;34467388888
3836;36488901000;34342388888;34842388888
3908;36488993000;34634055555;35134055555
3909;36488995000;34634055555;35134055555
3910;36488997000;34634055555;35134055555
3911;36488998000;34634055555;35134055555
3912;36489000000;34634055555;35134055555
3913;36489010000;34634055555;35134055555
3914;36489012000;34634055555;35134055555
3915;36489119000;34634066666;35134066666
3917;36489123000;34634377777;35134377777
3918;36489125000;34634377777;35134377777
3921;36489143000;34675722222;35175722222
3922;36489145000;34675722222;35175722222
3923;36489146000;34675722222;35175722222
3924;36489147000;34675722222;35175722222
3925;36489149000;34675722222;35175722222
3926;36489257000;34675733333;35175733333
3927;36489261000;34676033333;35176033333
3928;36489262000;34676033333;35176033333
3929;36489264000;34676033333;35176033333
3930;36489271000;34717400000;35217400000
3931;36489282000;34717400000;35217400000
3932;36489283000;34717400000;35217400000
3933;36489285000;34717400000;35217400000
3934;36489286000;34717400000;35217400000
3935;36501291000;34717400000;35217400000
3938;36551952000;34717688888;35217688888
3964;36676156000;34842388888;35342388888
3987;36753314000;34925722222;35425722222
4028;36850625000;35051022222;35551022222
4063;36923924000;35217400000;35717400000
4064;36923938000;35217400000;35717400000
4065;36923939000;35217400000;35717400000
4067;36923941000;35217400000;35717400000
4068;36923942000;35217400000;35717400000
4069;36924099000;35217411111;35717411111
4070;36924103000;35217677777;35717677777
4071;36924105000;35217677777;35717677777
4072;36924106000;35217677777;35717677777
4073;36946062000;35259066666;35759066666
4074;36946065000;35259066666;35759066666
4075;36946066000;35259066666;35759066666
4076;36946068000;35259066666;35759066666
4077;36946069000;35259066666;35759066666
4078;36946080000;35259066666;35759066666
4079;36946081000;35259066666;35759066666
4081;36946154000;35259366666;35759366666
4082;36946156000;35259366666;35759366666
4083;36946158000;35259366666;35759366666
4084;36970532000;35300711111;35800711111
4085;36970535000;35300711111;35800711111
4087;36981862000;35300711111;35800711111
4088;36981876000;35300711111;35800711111
4090;36981879000;35300711111;35800711111
4091;37032362000;35300733333;35800733333
4116;37032377000;35384377777;35884377777
4117;37156640000;35425744444;35925744444
4139;37233374000;35509066666;36009066666
4181;37330833000;35634388888;36134388888
4214;37382942000;35759388888;36259388888
4216;37406996000;35800711111;36300711111
4218;37406999000;35800711111;36300711111
4219;37407001000;35800711111;36300711111
4220;37407012000;35800711111;36300711111
4221;37407013000;35800711111;36300711111
4223;37407139000;35800733333;36300733333
4224;37407144000;35801022222;36301022222
4225;37407145000;35801022222;36301022222
4226;37407147000;35801022222;36301022222
4227;37428946000;35842377777;36342377777
4228;37428949000;35842377777;36342377777
4229;37428950000;35842377777;36342377777
4230;37428952000;35842377777;36342377777
4231;37428953000;35842377777;36342377777
4232;37428964000;35842377777;36342377777
4233;37428965000;35842377777;36342377777
4234;37429114000;35842400000;36342400000
4235;37429117000;35842700000;36342700000
4236;37429119000;35842700000;36342700000
4237;37429120000;35842700000;36342700000
4238;37447429000;35884055555;36384055555
4239;37462411000;35884055555;36384055555
4241;37462432000;35884055555;36384055555
4242;37462434000;35884055555;36384055555
4244;37462449000;35884055555;36384055555
4245;37512896000;35884066666;36384066666
4264;37512912000;35967388888;36467388888
4265;37512913000;35967388888;36467388888
4266;37512914000;35967388888;36467388888
4267;37596069000;35967400000;36467400000
4293;37596075000;36092388888;36592388888
4294;37596076000;36092388888;36592388888
4295;37596077000;36092388888;36592388888
4296;37596078000;36092388888;36592388888
4297;37596079000;36092388888;36592388888
4298;37596080000;36092388888;36592388888
4299;37596090000;36092388888;36592388888
4300;37715780000;36092400000;36592400000
4332;37715796000;36217400000;36717400000
4333;37802740000;36217411111;36717411111
4368;37802755000;36342677777;36842677777
4369;37802756000;36342677777;36842677777
4370;37905027000;36384066666;36884066666
4371;37905041000;36384066666;36884066666
4373;37905063000;36384066666;36884066666
4374;37905064000;36384066666;36884066666
4375;37905066000;36384066666;36884066666
4376;37905067000;36384066666;36884066666
4377;37905226000;36384077777;36884077777
4378;37905230000;36384455555;36884455555
4379;37905231000;36384455555;36884455555
4380;37905233000;36384455555;36884455555
4381;37926783000;36425722222;36925722222
4382;37926786000;36425722222;36925722222
4383;37926788000;36425722222;36925722222
4384;37926789000;36425722222;36925722222
4386;37926808000;36425722222;36925722222
4387;37926810000;36425722222;36925722222
4388;37926955000;36425744444;36925744444
4389;37926958000;36426055555;36926055555
4390;37926960000;36426055555;36926055555
4391;37926961000;36426055555;36926055555
4392;37945071000;36467400000;36967400000
4401;37945212000;36467711111;36967711111
4402;37945214000;36467711111;36967711111
4403;37965956000;36509055555;37009055555
4412;38035555000;36509377777;37009377777
4446;38157618000;36634433333;37134433333
4447;38195880000;36675733333;37175733333
4486;38290005000;36800722222;37300722222
4524;38386826000;36967388888;37467388888
4525;38386839000;36967388888;37467388888
4526;38386841000;36967388888;37467388888
4527;38386842000;36967388888;37467388888
4528;38386844000;36967388888;37467388888
4529;38386845000;36967388888;37467388888
4530;38386847000;36967388888;37467388888
4531;38386993000;36967411111;37467411111
4532;38386997000;36967677777;37467677777
4533;38386998000;36967677777;37467677777
4534;38386999000;36967677777;37467677777
4535;38408403000;37009055555;37509055555
4536;38408405000;37009055555;37509055555
4537;38408407000;37009055555;37509055555
4538;38408408000;37009055555;37509055555
4539;38408409000;37009055555;37509055555
4540;38408420000;37009055555;37509055555
4541;38408421000;37009055555;37509055555
4542;38408560000;37009066666;37509066666
4543;38408563000;37009366666;37509366666
4544;38408565000;37009366666;37509366666
4545;38408566000;37009366666;37509366666
4546;38426635000;37050722222;37550722222
4556;38426748000;37051000000;37551000000
4559;38447312000;37092377777;37592377777
4566;38516179000;37092666666;37592666666
4598;38638649000;37217666666;37717666666
4599;38638653000;37217666666;37717666666
4600;38638654000;37217666666;37717666666
4601;38676836000;37259044444;37759044444
4639;38773904000;37384022222;37884022222
4675;38852668000;37509355555;38009355555
4676;38852682000;37509355555;38009355555
4677;38852684000;37509355555;38009355555
4678;38877345000;37550722222;38050722222
4679;38877348000;37550722222;38050722222
4680;38877349000;37550722222;38050722222
4681;38877351000;37550722222;38050722222
4682;38877352000;37550722222;38050722222
4683;38877363000;37550722222;38050722222
4684;38877364000;37550722222;38050722222
4685;38877507000;37550733333;38050733333
4686;38877510000;37550988888;38050988888
4687;38877512000;37550988888;38050988888
4689;38897618000;37592400000;38092400000
4691;38897620000;37592400000;38092400000
4692;38897622000;37592400000;38092400000
4693;38897623000;37592400000;38092400000
4694;38897625000;37592400000;38092400000
4695;38897626000;37592400000;38092400000
4696;38897729000;37592411111;38092411111
4697;38897732000;37592666666;38092666666
4698;38897733000;37592666666;38092666666
4699;38897735000;37592666666;38092666666
4700;38913919000;37634066666;38134066666
4716;38996666000;37675733333;38175733333
4753;39119605000;37801033333;38301033333
4757;39157689000;37842400000;38342400000
4792;39248993000;37967388888;38467388888
4829;39322199000;38092700000;38592700000
4830;39322213000;38092700000;38592700000
4831;39322214000;38092700000;38592700000
4833;39348942000;38134066666;38634066666
4834;39348945000;38134066666;38634066666
4835;39348946000;38134066666;38634066666
4836;39348957000;38134066666;38634066666
4837;39348958000;38134066666;38634066666
4838;39348960000;38134066666;38634066666
4839;39349072000;38134077777;38634077777
4840;39349075000;38134433333;38634433333
4841;39349077000;38134433333;38634433333
4842;39349078000;38134433333;38634433333
4843;39370592000;38175722222;38675722222
4844;39370595000;38175722222;38675722222
4845;39370596000;38175722222;38675722222
4846;39370598000;38175722222;38675722222
4848;39370599000;38175722222;38675722222
4849;39370610000;38175722222;38675722222
4850;39370757000;38175744444;38675744444
4851;39370760000;38176022222;38676022222
4852;39370762000;38176022222;38676022222
4853;39370763000;38176022222;38676022222
4854;39385334000;38217400000;38717400000
4855;39385338000;38217400000;38717400000
4856;39385339000;38217400000;38717400000
4857;39385339000;38217400000;38717400000
4858;39385358000;38217400000;38717400000
4859;39385359000;38217400000;38717400000
4860;39385360000;38217400000;38717400000
4861;39435450000;38217411111;38717411111
4882;39435465000;38300722222;38800722222
4883;39518645000;38300744444;38800744444
4908;39518651000;38384400000;38884400000
4909;39637545000;38425711111;38925711111
4949;39737603000;38550744444;39050744444
4987;39737619000;38717400000;39217400000
4988;39737620000;38717400000;39217400000
4989;39737621000;38717400000;39217400000
4990;39737622000;38717400000;39217400000
4991;39737623000;38717400000;39217400000
4992;39737624000;38717400000;39217400000
4993;39811516000;38717411111;39217411111
4994;39811522000;38717722222;39217722222
4995;39811524000;38717722222;39217722222
4996;39811525000;38717722222;39217722222
4997;39833307000;38759044444;39259044444
4998;39833310000;38759044444;39259044444
4999;39833311000;38759044444;39259044444
5001;39833798000;38759044444;39259044444
5002;39833800000;38759044444;39259044444
5003;39833802000;38759044444;39259044444
5004;39833964000;38759066666;39259066666
5005;39833967000;38759411111;39259411111
5006;39833968000;38759411111;39259411111
5007;39833970000;38759411111;39259411111
5008;39851892000;38800733333;39300733333
5009;39851895000;38800733333;39300733333
5010;39851896000;38800733333;39300733333
5011;39865363000;38800733333;39300733333
5012;39865375000;38800733333;39300733333
5013;39865386000;38800733333;39300733333
5014;39865389000;38800733333;39300733333
5015;39915838000;38800744444;39300744444
5041;39915854000;38925711111;39425711111
5042;39915855000;38925711111;39425711111
5043;39915856000;38925711111;39425711111
5044;39915857000;38925711111;39425711111
5045;39915857000;38925711111;39425711111
5046;39915859000;38925711111;39425711111
5047;39915859000;38925711111;39425711111
5048;40039766000;38925733333;39425733333
5066;40039771000;39009066666;39509066666
5067;40039772000;39009066666;39509066666
5068;40039773000;39009066666;39509066666
5071;40117834000;39009377777;39509377777
5102;40201627000;39134055555;39634055555
5141;40300570000;39300866666;39800866666
5142;40300584000;39300866666;39800866666
5143;40300585000;39300866666;39800866666
5144;40300587000;39300866666;39800866666
5145;40300589000;39300866666;39800866666
5146;40300590000;39300866666;39800866666
5147;40300740000;39300955555;39800955555
5148;40300744000;39301288888;39801288888
5149;40300746000;39301288888;39801288888
5150;40300747000;39301288888;39801288888
5151;40320677000;39342400000;39842400000
5153;40320761000;39342400000;39842400000
5154;40320763000;39342400000;39842400000
5155;40320765000;39342400000;39842400000
5158;40320920000;39342411111;39842411111
5159;40320926000;39342677777;39842677777
5160;40320927000;39342677777;39842677777
5161;40320929000;39342677777;39842677777
5162;40337738000;39384055555;39884055555
5163;40337740000;39384055555;39884055555
5164;40337742000;39384055555;39884055555
5165;40337743000;39384055555;39884055555
5166;40337744000;39384055555;39884055555
5167;40337755000;39384055555;39884055555
5168;40345961000;39384055555;39884055555
5169;40396452000;39384066666;39884066666
5197;40396467000;39509066666;40009066666
5198;40396468000;39509066666;40009066666
5199;40396469000;39509066666;40009066666
5200;40396470000;39509066666;40009066666
5201;40396471000;39509066666;40009066666
5202;40520355000;39509077777;40009077777
5222;40520361000;39592400000;40092400000
5223;40520363000;39592400000;40092400000
5224;40596850000;39592411111;40092411111
5264;40596865000;39759066666;40259066666
5265;40596866000;39759066666;40259066666
5266;40596867000;39759066666;40259066666
5267;40596868000;39759066666;40259066666
5271;40701299000;39759388888;40259388888
5301;40826831000;39884066666;40384066666
5312;40826857000;39925733333;40425733333
5315;40826867000;39926011111;40426011111
5317;40826893000;39967388888;40467388888
5319;40826895000;39967388888;40467388888
5320;40826897000;39967388888;40467388888
5321;40826899000;39967388888;40467388888
5323;40827012000;39967400000;40467400000
5325;40827025000;39967711111;40467711111
5326;40827026000;39967711111;40467711111
5327;40831238000;40009066666;40509066666
5337;40831372000;40009388888;40509388888
5338;40918961000;40050777777;40550777777
5383;41079235000;40217377777;40717377777
5422;41177674000;40342400000;40842400000
5459;41177689000;40509055555;41009055555
5460;41177690000;40509055555;41009055555
5461;41177691000;40509055555;41009055555
5462;41177692000;40509055555;41009055555
5463;41177693000;40509055555;41009055555
5464;41177694000;40509055555;41009055555
5465;41177695000;40509055555;41009055555
5466;41256580000;40509077777;41009077777
5467;41256585000;40509400000;41009400000
5468;41256587000;40509400000;41009400000
5469;41256589000;40509400000;41009400000
5470;41278032000;40550722222;41050722222
5471;41278035000;40550722222;41050722222
5473;41278615000;40550722222;41050722222
5474;41278617000;40550722222;41050722222
5475;41278618000;40550722222;41050722222
5476;41278620000;40550722222;41050722222
5477;41278773000;40550744444;41050744444
5478;41278776000;40551011111;41051011111
5481;41296233000;40592377777;41092377777
5482;41296236000;40592377777;41092377777
5483;41296237000;40592377777;41092377777
5484;41296239000;40592377777;41092377777
5485;41307165000;40592377777;41092377777
5487;41357489000;40592377777;41092377777
5488;41357704000;40592400000;41092400000
5489;41357719000;40592677777;41092677777
5490;41357720000;40592677777;41092677777
5491;41357721000;40592677777;41092677777
5492;41399152000;40634044444;41134044444
5493;41399155000;40634044444;41134044444
5494;41399156000;40634044444;41134044444
5495;41399157000;40634044444;41134044444
5496;41399158000;40634044444;41134044444
5497;41399159000;40634044444;41134044444
5498;41399160000;40634044444;41134044444
5499;41399367000;40634066666;41134066666
