seqnum;now;rtptime;deadline
3;10421091000;9825100000;10325100000
4;10421105000;9825100000;10325100000
5;10421106000;9825100000;10325100000
6;10421108000;9825100000;10325100000
7;10421109000;9825100000;10325100000
8;10421110000;9825100000;10325100000
9;10421122000;9825100000;10325100000
10;10501205000;9825122222;10325122222
20;10501220000;9866766666;10366766666
21;10542490000;9866788888;10366788888
22;10542499000;9867188888;10367188888
23;10542501000;9867188888;10367188888
24;10542502000;9867188888;10367188888
25;10583450000;9908433333;10408433333
26;10583453000;9908433333;10408433333
27;10583455000;9908433333;10408433333
28;10583456000;9908433333;10408433333
29;10583458000;9908433333;10408433333
30;10583459000;9908433333;10408433333
31;10583460000;9908433333;10408433333
32;10583649000;9908444444;10408444444
33;10583653000;9908788888;10408788888
34;10583655000;9908788888;10408788888
35;10583656000;9908788888;10408788888
36;10622330000;9950100000;10450100000
37;10622334000;9950100000;10450100000
38;10622335000;9950100000;10450100000
39;10622336000;9950100000;10450100000
42;10660294000;9950100000;10450100000
43;10711041000;9950111111;10450111111
65;10788010000;10033455555;10533455555
66;10788015000;10033755555;10533755555
67;10788016000;10033755555;10533755555
68;10788018000;10033755555;10533755555
69;10834379000;10075100000;10575100000
70;10834382000;10075100000;10575100000
71;10834383000;10075100000;10575100000
72;10834384000;10075100000;10575100000
74;10834385000;10075100000;10575100000
75;10834386000;10075100000;10575100000
76;10834590000;10075122222;10575122222
77;10834605000;10075455555;10575455555
78;10834606000;10075455555;10575455555
81;10871652000;10116766666;10616766666
82;10871655000;10116766666;10616766666
84;10871656000;10116766666;10616766666
85;10871657000;10116766666;10616766666
86;10871658000;10116766666;10616766666
88;10871670000;10117111111;10617111111
89;10901046000;10117111111;10617111111
90;10901289000;10117111111;10617111111
94;11075110000;10158444444;10658444444
114;11145343000;10241766666;10741766666
146;11393882000;10366766666;10866766666
211;11690256000;10575400000;11075400000
267;12067522000;10825100000;11325100000
311;12419769000;10991766666;11491766666
416;13045183000;11366766666;11866766666
512;13391800000;11741777777;12241777777
601;13391924000;12075088888;12575088888
602;13391928000;12075088888;12575088888
603;13391929000;12075088888;12575088888
604;13392054000;12075111111;12575111111
605;13392069000;12075411111;12575411111
606;13392070000;12075411111;12575411111
607;13392072000;12075411111;12575411111
609;13392083000;12116755555;12616755555
610;13392094000;12116755555;12616755555
611;13392096000;12116755555;12616755555
613;13392097000;12116755555;12616755555
614;13392098000;12116755555;12616755555
615;13392202000;12116777777;12616777777
616;13392217000;12117122222;12617122222
617;13392218000;12117122222;12617122222
618;13392220000;12117122222;12617122222
620;13392231000;12158433333;12658433333
621;13392243000;12158433333;12658433333
622;13392244000;12158433333;12658433333
623;13392245000;12158433333;12658433333
624;13392246000;12158433333;12658433333
625;13392247000;12158433333;12658433333
626;13392348000;12158455555;12658455555
627;13392363000;12158811111;12658811111
628;13392365000;12158811111;12658811111
629;13392365000;12158811111;12658811111
632;13402252000;12200111111;12700111111
633;13402256000;12200111111;12700111111
635;13402257000;12200111111;12700111111
636;13402258000;12200111111;12700111111
637;13402349000;12200122222;12700122222
640;13402352000;12200400000;12700400000
641;13402359000;12241766666;12741766666
642;13402360000;12241766666;12741766666
643;13402361000;12241766666;12741766666
644;13402372000;12241766666;12741766666
647;13402373000;12241766666;12741766666
648;13402452000;12241788888;12741788888
649;13402454000;12242100000;12742100000
650;13402455000;12242100000;12742100000
651;13402456000;12242100000;12742100000
652;13404812000;12283433333;12783433333
653;13404814000;12283433333;12783433333
654;13404815000;12283433333;12783433333
655;13404815000;12283433333;12783433333
656;13404837000;12283433333;12783433333
657;13404838000;12283433333;12783433333
658;13404839000;12283433333;12783433333
659;13404970000;12283455555;12783455555
660;13404973000;12283744444;12783744444
661;13404974000;12283744444;12783744444
662;13404975000;12283744444;12783744444
663;13404981000;12325088888;12825088888
664;13404982000;12325088888;12825088888
665;13404983000;12325088888;12825088888
666;13404994000;12325088888;12825088888
667;13404995000;12325088888;12825088888
668;13404996000;12325088888;12825088888
669;13404997000;12325088888;12825088888
670;13405037000;12325111111;12825111111
671;13405039000;12325388888;12825388888
672;13405040000;12325388888;12825388888
673;13405041000;12325388888;12825388888
674;13407647000;12366755555;12866755555
675;13407649000;12366755555;12866755555
676;13407650000;12366755555;12866755555
677;13407651000;12366755555;12866755555
678;13550389000;12366755555;12866755555
679;13550394000;12366755555;12866755555
680;13550647000;12366755555;12866755555
681;13601561000;12366777777;12866777777
702;13601577000;12450111111;12950111111
703;13604937000;12450122222;12950122222
704;13604952000;12450433333;12950433333
705;13604953000;12450433333;12950433333
706;13604954000;12450433333;12950433333
707;13605558000;12491766666;12991766666
708;13605561000;12491766666;12991766666
709;13605562000;12491766666;12991766666
710;13605563000;12491766666;12991766666
711;13605564000;12491766666;12991766666
714;13606244000;12491777777;12991777777
715;13606250000;12492077777;12992077777
716;13606251000;12492077777;12992077777
717;13606252000;12492077777;12992077777
718;13606776000;12533433333;13033433333
720;13606779000;12533433333;13033433333
721;13606780000;12533433333;13033433333
722;13606781000;12533433333;13033433333
724;13606782000;12533433333;13033433333
725;13606981000;12533455555;13033455555
726;13606996000;12533722222;13033722222
728;13791083000;12533722222;13033722222
729;13882999000;12575088888;13075088888
756;13883110000;12658433333;13158433333
757;13883114000;12658433333;13158433333
758;13883233000;12658455555;13158455555
759;13883248000;12658755555;13158755555
760;13883249000;12658755555;13158755555
761;13883250000;12658755555;13158755555
762;13883261000;12700111111;13200111111
763;13883272000;12700111111;13200111111
764;13883273000;12700111111;13200111111
765;13883274000;12700111111;13200111111
766;13883275000;12700111111;13200111111
767;13883276000;12700111111;13200111111
768;13883277000;12700111111;13200111111
771;13883281000;12700411111;13200411111
772;13883282000;12700411111;13200411111
773;13889260000;12741800000;13241800000
774;13889263000;12741800000;13241800000
775;13889264000;12741800000;13241800000
776;13889266000;12741800000;13241800000
777;13889266000;12741800000;13241800000
778;13889267000;12741800000;13241800000
779;14031706000;12741800000;13241800000
780;14082463000;12741833333;13241833333
813;14087469000;12866788888;13366788888
816;14087758000;12867133333;13367133333
817;14129268000;12908433333;13408433333
818;14129272000;12908433333;13408433333
819;14129273000;12908433333;13408433333
820;14129274000;12908433333;13408433333
821;14129275000;12908433333;13408433333
822;14129276000;12908433333;13408433333
823;14129277000;12908433333;13408433333
824;14129477000;12908455555;13408455555
825;14129492000;12908744444;13408744444
826;14129493000;12908744444;13408744444
827;14129494000;12908744444;13408744444
828;14130811000;12950100000;13450100000
829;14130814000;12950100000;13450100000
830;14130815000;12950100000;13450100000
831;14130816000;12950100000;13450100000
832;14130817000;12950100000;13450100000
833;14130818000;12950100000;13450100000
834;14130819000;12950100000;13450100000
835;14130938000;12950122222;13450122222
836;14273046000;12950422222;13450422222
837;14273300000;12950422222;13450422222
838;14273693000;12950422222;13450422222
839;14324328000;12991766666;13491766666
845;14325579000;12991766666;13491766666
846;14325790000;12991788888;13491788888
847;14325805000;12992111111;13492111111
848;14325806000;12992111111;13492111111
849;14325807000;12992111111;13492111111
850;14367443000;13033433333;13533433333
851;14367454000;13033433333;13533433333
852;14367455000;13033433333;13533433333
853;14367456000;13033433333;13533433333
854;14367457000;13033433333;13533433333
855;14367458000;13033433333;13533433333
856;14367459000;13033433333;13533433333
857;14367680000;13033455555;13533455555
858;14367695000;13033744444;13533744444
859;14367696000;13033744444;13533744444
860;14367697000;13033744444;13533744444
862;14367708000;13075088888;13575088888
863;14367709000;13075088888;13575088888
864;14367720000;13075088888;13575088888
865;14367721000;13075088888;13575088888
866;14513605000;13075088888;13575088888
867;14514039000;13075088888;13575088888
868;14564492000;13075111111;13575111111
872;14564498000;13116755555;13616755555
873;14564499000;13116755555;13616755555
874;14564509000;13116755555;13616755555
876;14566580000;13116755555;13616755555
877;14566583000;13116755555;13616755555
878;14566594000;13116755555;13616755555
879;14567151000;13116777777;13616777777
880;14567167000;13117111111;13617111111
881;14567168000;13117111111;13617111111
882;14567169000;13117111111;13617111111
883;14568789000;13158522222;13658522222
884;14568792000;13158522222;13658522222
885;14568793000;13158522222;13658522222
887;14569431000;13158522222;13658522222
888;14569434000;13158522222;13658522222
889;14569445000;13158522222;13658522222
890;14572207000;13158555555;13658555555
891;14572222000;13158900000;13658900000
893;14754840000;13158900000;13658900000
894;14806421000;13200100000;13700100000
895;14806424000;13200100000;13700100000
896;14806425000;13200100000;13700100000
897;14806426000;13200100000;13700100000
898;14806427000;13200100000;13700100000
899;14806427000;13200100000;13700100000
900;14806428000;13200100000;13700100000
901;14808433000;13200122222;13700122222
902;14808448000;13200400000;13700400000
903;14808449000;13200400000;13700400000
906;14810210000;13241766666;13741766666
907;14810213000;13241766666;13741766666
908;14810214000;13241766666;13741766666
909;14810215000;13241766666;13741766666
910;14810216000;13241766666;13741766666
911;14810217000;13241766666;13741766666
912;15045895000;13241788888;13741788888
914;15045910000;13242100000;13742100000
915;15045911000;13242100000;13742100000
916;15088867000;13283433333;13783433333
917;15088870000;13283433333;13783433333
918;15088871000;13283433333;13783433333
919;15088872000;13283433333;13783433333
920;15088873000;13283433333;13783433333
921;15088874000;13283433333;13783433333
923;15089073000;13283455555;13783455555
924;15089088000;13283777777;13783777777
925;15089089000;13283777777;13783777777
926;15089090000;13283777777;13783777777
927;15092071000;13325100000;13825100000
928;15092074000;13325100000;13825100000
929;15236861000;13325100000;13825100000
930;15237967000;13325100000;13825100000
931;15238214000;13325100000;13825100000
932;15239769000;13325100000;13825100000
933;15239771000;13325100000;13825100000
935;15290402000;13325400000;13825400000
936;15290406000;13325400000;13825400000
937;15290407000;13325400000;13825400000
938;15331884000;13366777777;13866777777
939;15331887000;13366777777;13866777777
940;15331888000;13366777777;13866777777
941;15478734000;13366777777;13866777777
942;15478997000;13366777777;13866777777
943;15480445000;13366777777;13866777777
944;15480751000;13366777777;13866777777
945;15531198000;13366800000;13866800000
946;15531214000;13367188888;13867188888
947;15531215000;13367188888;13867188888
948;15531216000;13367188888;13867188888
949;15573218000;13408455555;13908455555
950;15573222000;13408455555;13908455555
951;15720342000;13408455555;13908455555
952;15721163000;13408455555;13908455555
953;15721166000;13408455555;13908455555
954;15721412000;13408455555;13908455555
955;15721679000;13408455555;13908455555
956;15772373000;13408477777;13908477777
957;15772389000;13408788888;13908788888
958;15772390000;13408788888;13908788888
959;15960961000;13408788888;13908788888
960;16012199000;13450100000;13950100000
961;16012202000;13450100000;13950100000
962;16012203000;13450100000;13950100000
963;16012204000;13450100000;13950100000
964;16012205000;13450100000;13950100000
965;16012214000;13450100000;13950100000
968;16253313000;13450433333;13950433333
969;16253317000;13450433333;13950433333
972;16493554000;13491766666;13991766666
973;16493557000;13491766666;13991766666
974;16493558000;13491766666;13991766666
975;16493559000;13491766666;13991766666
976;16493560000;13491766666;13991766666
977;16493561000;13491766666;13991766666
978;16495441000;13491788888;13991788888
980;16734957000;13492100000;13992100000
981;16734969000;13492100000;13992100000
982;16776261000;13533422222;14033422222
983;16776264000;13533422222;14033422222
984;16776265000;13533422222;14033422222
985;16776266000;13533422222;14033422222
986;16924550000;13533422222;14033422222
987;16925373000;13533422222;14033422222
988;16926027000;13533422222;14033422222
989;16976506000;13533444444;14033444444
991;16976997000;13533733333;14033733333
992;17165322000;13533733333;14033733333
993;17216491000;13575088888;14075088888
995;17216504000;13575088888;14075088888
996;17216505000;13575088888;14075088888
998;17407533000;13575088888;14075088888
999;17408274000;13575088888;14075088888
1000;17459761000;13575111111;14075111111
1002;17648277000;13575411111;14075411111
1004;17700301000;13616755555;14116755555
1005;17889006000;13616755555;14116755555
1006;17889268000;13616755555;14116755555
1007;17890810000;13616755555;14116755555
1008;18129719000;13616755555;14116755555
1009;18129973000;13616755555;14116755555
1010;18131512000;13616755555;14116755555
1011;18420810000;13616777777;14116777777
1012;18420826000;13617133333;14117133333
1013;18420827000;13617133333;14117133333
1014;18612016000;13617133333;14117133333
1015;18663309000;13658433333;14158433333
1022;18663443000;13658455555;14158455555
1023;18663449000;13658755555;14158755555
1025;18663522000;13658755555;14158755555
1026;18704892000;13700100000;14200100000
1027;18704895000;13700100000;14200100000
1028;18704896000;13700100000;14200100000
1029;18704897000;13700100000;14200100000
1030;18704898000;13700100000;14200100000
1031;18704899000;13700100000;14200100000
1032;18704900000;13700100000;14200100000
1033;18705028000;13700122222;14200122222
1034;18705033000;13700422222;14200422222
1036;18705068000;13700422222;14200422222
1041;18746395000;13741766666;14241766666
1043;18746399000;13741766666;14241766666
1044;18746453000;13741800000;14241800000
1045;18746457000;13742155555;14242155555
1046;18746458000;13742155555;14242155555
1047;18746459000;13742155555;14242155555
1048;18787319000;13783422222;14283422222
1051;18852491000;13783422222;14283422222
1052;18852494000;13783422222;14283422222
1053;18852738000;13783422222;14283422222
1054;18852740000;13783422222;14283422222
1055;18903424000;13783444444;14283444444
1106;18903430000;13991766666;14491766666
1107;18903431000;13991766666;14491766666
1108;18903432000;13991766666;14491766666
1109;18903433000;13991766666;14491766666
1110;19105430000;13991788888;14491788888
1182;19105434000;14283422222;14783422222
1183;19105435000;14283422222;14783422222
1184;19105436000;14283422222;14783422222
1185;19105437000;14283422222;14783422222
1186;19105438000;14283422222;14783422222
1187;19276753000;14283444444;14783444444
1188;19276768000;14283744444;14783744444
1189;19276769000;14283744444;14783744444
1190;19276770000;14283744444;14783744444
1191;19287662000;14325088888;14825088888
1192;19287666000;14325088888;14825088888
1193;19287667000;14325088888;14825088888
1194;19287672000;14325088888;14825088888
1196;19287674000;14325088888;14825088888
1197;19287675000;14325088888;14825088888
1198;19287898000;14325100000;14825100000
1199;19287913000;14325377777;14825377777
1200;19287914000;14325377777;14825377777
1201;19287915000;14325377777;14825377777
1202;19296690000;14366766666;14866766666
1203;19296693000;14366766666;14866766666
1204;19296694000;14366766666;14866766666
1205;19296695000;14366766666;14866766666
1206;19296696000;14366766666;14866766666
1207;19333808000;14366766666;14866766666
1208;19334053000;14366766666;14866766666
1213;19426483000;14408433333;14908433333
1263;19586872000;14575100000;15075100000
1337;19750448000;14866766666;15366766666
1338;19750452000;14866766666;15366766666
1340;19750462000;14866766666;15366766666
1341;19750669000;14866788888;15366788888
1342;19750684000;14867111111;15367111111
1343;19750685000;14867111111;15367111111
1344;19750686000;14867111111;15367111111
1345;19764800000;14908433333;15408433333
1346;19764804000;14908433333;15408433333
1347;19764805000;14908433333;15408433333
1348;19764806000;14908433333;15408433333
1349;19764807000;14908433333;15408433333
1350;19764807000;14908433333;15408433333
1351;19764808000;14908433333;15408433333
1353;19764918000;14908733333;15408733333
1354;19764921000;14908733333;15408733333
1355;19764922000;14908733333;15408733333
1356;19783058000;14950100000;15450100000
1357;19783060000;14950100000;15450100000
1358;19783061000;14950100000;15450100000
1359;19783062000;14950100000;15450100000
1360;19783063000;14950100000;15450100000
1361;19783064000;14950100000;15450100000
1363;19783203000;14950122222;15450122222
1364;19814717000;14950433333;15450433333
1365;19815631000;14950433333;15450433333
1366;19815910000;14950433333;15450433333
1367;19906606000;14991788888;15491788888
1415;20066961000;15158433333;15658433333
1492;20245526000;15450088888;15950088888
1496;20245642000;15450433333;15950433333
1497;20245645000;15450433333;15950433333
1498;20245646000;15450433333;15950433333
1499;20256369000;15491755555;15991755555
1500;20256372000;15491755555;15991755555
1501;20256373000;15491755555;15991755555
1502;20256374000;15491755555;15991755555
1503;20256375000;15491755555;15991755555
1504;20256376000;15491755555;15991755555
1505;20256377000;15491755555;15991755555
1506;20256591000;15491777777;15991777777
1507;20256606000;15492088888;15992088888
1508;20256607000;15492088888;15992088888
1509;20256608000;15492088888;15992088888
1510;20264580000;15533422222;16033422222
1511;20264583000;15533422222;16033422222
1512;20264584000;15533422222;16033422222
1513;20264585000;15533422222;16033422222
1514;20264586000;15533422222;16033422222
1515;20264587000;15533422222;16033422222
1516;20264588000;15533422222;16033422222
1517;20264792000;15533444444;16033444444
1518;20264808000;15533733333;16033733333
1519;20264809000;15533733333;16033733333
1520;20296095000;15533733333;16033733333
1521;20347342000;15575100000;16075100000
1570;20511876000;15741766666;16241766666
1571;20511880000;15741766666;16241766666
1572;20512093000;15741788888;16241788888
1573;20512096000;15742133333;16242133333
1574;20512097000;15742133333;16242133333
1575;20512098000;15742133333;16242133333
1576;20548971000;15783433333;16283433333
1650;20711696000;16033766666;16533766666
1651;20711699000;16033766666;16533766666
1652;20711700000;16033766666;16533766666
1654;20737013000;16075100000;16575100000
1655;20737016000;16075100000;16575100000
1656;20737017000;16075100000;16575100000
1657;20737018000;16075100000;16575100000
1659;20737019000;16075100000;16575100000
1660;20737139000;16075122222;16575122222
1661;20737154000;16075422222;16575422222
1662;20737156000;16075422222;16575422222
1663;20737156000;16075422222;16575422222
1664;20749755000;16116777777;16616777777
1665;20749759000;16116777777;16616777777
1666;20749759000;16116777777;16616777777
1667;20749761000;16116777777;16616777777
1668;20749761000;16116777777;16616777777
1669;20749762000;16116777777;16616777777
1670;20749763000;16116777777;16616777777
1671;20749961000;16116800000;16616800000
1675;20780954000;16158444444;16658444444
1676;20780956000;16158444444;16658444444
1677;20780957000;16158444444;16658444444
1678;20780958000;16158444444;16658444444
1679;20780959000;16158444444;16658444444
1680;20780960000;16158444444;16658444444
1681;20780961000;16158444444;16658444444
1682;20869596000;16158466666;16658466666
1723;20869612000;16325100000;16825100000
1724;20869613000;16325100000;16825100000
1725;20869614000;16325100000;16825100000
1726;21030051000;16325122222;16825122222
1793;21030065000;16575411111;17075411111
1796;21195706000;16616766666;17116766666
1804;21195818000;16617133333;17117133333
1805;21195821000;16617133333;17117133333
1806;21195823000;16617133333;17117133333
1807;21209855000;16658433333;17158433333
1810;21209867000;16658433333;17158433333
1812;21209878000;16658433333;17158433333
1813;21209879000;16658433333;17158433333
1814;21210077000;16658455555;17158455555
1815;21210092000;16658766666;17158766666
1816;21210093000;16658766666;17158766666
1817;21210094000;16658766666;17158766666
1818;21220292000;16700100000;17200100000
1819;21220295000;16700100000;17200100000
1820;21220296000;16700100000;17200100000
1821;21220298000;16700100000;17200100000
1822;21220298000;16700100000;17200100000
1824;21220300000;16700100000;17200100000
1825;21220505000;16700111111;17200111111
1826;21220520000;16700433333;17200433333
1828;21220522000;16700433333;17200433333
1829;21309547000;16741766666;17241766666
1881;21474083000;16908744444;17408744444
1882;21474086000;16908744444;17408744444
1883;21474087000;16908744444;17408744444
1884;21511218000;16950100000;17450100000
1944;21653404000;17158433333;17658433333
1957;21674672000;17200111111;17700111111
1958;21674688000;17200388888;17700388888
1959;21674689000;17200388888;17700388888
1960;21674690000;17200388888;17700388888
1961;21693704000;17241766666;17741766666
1962;21693707000;17241766666;17741766666
1964;21693708000;17241766666;17741766666
1965;21693709000;17241766666;17741766666
1966;21693710000;17241766666;17741766666
1967;21693711000;17241766666;17741766666
1968;21693921000;17241788888;17741788888
1969;21693936000;17242100000;17742100000
1970;21693938000;17242100000;17742100000
1971;21693938000;17242100000;17742100000
1972;21707817000;17283433333;17783433333
1973;21707820000;17283433333;17783433333
1975;21707821000;17283433333;17783433333
1976;21707822000;17283433333;17783433333
1977;21707823000;17283433333;17783433333
1978;21707824000;17283433333;17783433333
1979;21707961000;17283455555;17783455555
1980;21707963000;17283733333;17783733333
1981;21740587000;17283733333;17783733333
1982;21740601000;17283733333;17783733333
1983;21791206000;17325100000;17825100000
2030;21955207000;17491766666;17991766666
2031;21955210000;17491766666;17991766666
2032;21955211000;17491766666;17991766666
2033;21955212000;17491766666;17991766666
2034;21955349000;17491777777;17991777777
2036;21955364000;17492088888;17992088888
2043;21992840000;17533433333;18033433333
2094;22135588000;17741766666;18241766666
2110;22156340000;17783433333;18283433333
2111;22156554000;17783444444;18283444444
2112;22156569000;17783766666;18283766666
2113;22156571000;17783766666;18283766666
2114;22156572000;17783766666;18283766666
2115;22175479000;17825100000;18325100000
2116;22175483000;17825100000;18325100000
2117;22175484000;17825100000;18325100000
2118;22175485000;17825100000;18325100000
2119;22175486000;17825100000;18325100000
2120;22175487000;17825100000;18325100000
2121;22175488000;17825100000;18325100000
2122;22175663000;17825111111;18325111111
2123;22175668000;17825411111;18325411111
2124;22175669000;17825411111;18325411111
2125;22175670000;17825411111;18325411111
2126;22189550000;17866766666;18366766666
2129;22189728000;17866766666;18366766666
2130;22189729000;17866766666;18366766666
2131;22189730000;17866766666;18366766666
2133;22189928000;17866788888;18366788888
2134;22189944000;17867133333;18367133333
2135;22189945000;17867133333;18367133333
2136;22189946000;17867133333;18367133333
2137;22271898000;17908433333;18408433333
2189;22436493000;18075433333;18575433333
2190;22436496000;18075433333;18575433333
2191;22436497000;18075433333;18575433333
2197;22473504000;18116766666;18616766666
2243;22587131000;18283444444;18783444444
2272;22587147000;18408433333;18908433333
2273;22587148000;18408433333;18908433333
2274;22587149000;18408433333;18908433333
2275;22587150000;18408433333;18908433333
2276;22640092000;18408455555;18908455555
2277;22640108000;18408800000;18908800000
2278;22640109000;18408800000;18908800000
2279;22640110000;18408800000;18908800000
2280;22653851000;18450100000;18950100000
2281;22653854000;18450100000;18950100000
2282;22653855000;18450100000;18950100000
2283;22653856000;18450100000;18950100000
2284;22653857000;18450100000;18950100000
2285;22653858000;18450100000;18950100000
2286;22653859000;18450100000;18950100000
2287;22654064000;18450111111;18950111111
2288;22654088000;18450455555;18950455555
2289;22654089000;18450455555;18950455555
2290;22654090000;18450455555;18950455555
2291;22664928000;18491777777;18991777777
2292;22664932000;18491777777;18991777777
2293;22664933000;18491777777;18991777777
2294;22664934000;18491777777;18991777777
2295;22703520000;18491777777;18991777777
2296;22704337000;18491777777;18991777777
2297;22704854000;18491777777;18991777777
2298;22755860000;18491800000;18991800000
2348;22755866000;18700266666;19200266666
2349;22755868000;18700266666;19200266666
2352;22944604000;18700266666;19200266666
2353;22957701000;18700288888;19200288888
2412;22957717000;18950111111;19450111111
2415;22957718000;18950111111;19450111111
2416;22957720000;18950111111;19450111111
2417;22957721000;18950111111;19450111111
2419;23107784000;18950122222;19450122222
2427;23107799000;18991766666;19491766666
2428;23107800000;18991766666;19491766666
2429;23107801000;18991766666;19491766666
2430;23123532000;18991788888;19491788888
2431;23123548000;18992100000;19492100000
2432;23123549000;18992100000;19492100000
2433;23123550000;18992100000;19492100000
2434;23137761000;19033433333;19533433333
2435;23137764000;19033433333;19533433333
2436;23137765000;19033433333;19533433333
2437;23137766000;19033433333;19533433333
2439;23137767000;19033433333;19533433333
2440;23137768000;19033433333;19533433333
2441;23137967000;19033455555;19533455555
2442;23137982000;19033766666;19533766666
2443;23137983000;19033766666;19533766666
2444;23137984000;19033766666;19533766666
2445;23148289000;19075088888;19575088888
2446;23148292000;19075088888;19575088888
2447;23148293000;19075088888;19575088888
2448;23148294000;19075088888;19575088888
2449;23148295000;19075088888;19575088888
2451;23185155000;19075088888;19575088888
2452;23236276000;19075111111;19575111111
2506;23236291000;19283433333;19783433333
2507;23438739000;19283455555;19783455555
2561;23438757000;19491766666;19991766666
2562;23570951000;19491788888;19991788888
2582;23570967000;19575100000;20075100000
2583;23570968000;19575100000;20075100000
2584;23604636000;19575122222;20075122222
2585;23604652000;19575400000;20075400000
2586;23604653000;19575400000;20075400000
2587;23604654000;19575400000;20075400000
2588;23618273000;19616766666;20116766666
2589;23618276000;19616766666;20116766666
2590;23618277000;19616766666;20116766666
2591;23618278000;19616766666;20116766666
2592;23618279000;19616766666;20116766666
2593;23618280000;19616766666;20116766666
2595;23618534000;19616788888;20116788888
2596;23618538000;19617122222;20117122222
2597;23618539000;19617122222;20117122222
2598;23618540000;19617122222;20117122222
2599;23629133000;19658433333;20158433333
2600;23629137000;19658433333;20158433333
2601;23629138000;19658433333;20158433333
2602;23629139000;19658433333;20158433333
2603;23629140000;19658433333;20158433333
2605;23629141000;19658433333;20158433333
2606;23629346000;19658444444;20158444444
2607;23667259000;19658788888;20158788888
2608;23667477000;19658788888;20158788888
2609;23667961000;19658788888;20158788888
2612;23759083000;19700111111;20200111111
2662;23919506000;19867122222;20367122222
2705;24032467000;20033444444;20533444444
2730;24032493000;20117100000;20617100000
2731;24086262000;20158444444;20658444444
2732;24086265000;20158444444;20658444444
2733;24086266000;20158444444;20658444444
2734;24086267000;20158444444;20658444444
2736;24086268000;20158444444;20658444444
2737;24086270000;20158444444;20658444444
2738;24086468000;20158466666;20658466666
2739;24086489000;20158733333;20658733333
2740;24086500000;20158733333;20658733333
2741;24086501000;20158733333;20658733333
2742;24101295000;20200100000;20700100000
2743;24101298000;20200100000;20700100000
2746;24101300000;20200100000;20700100000
2747;24101301000;20200100000;20700100000
2748;24101302000;20200100000;20700100000
2749;24101504000;20200122222;20700122222
2751;24101519000;20200377777;20700377777
2752;24101520000;20200377777;20700377777
2754;24112078000;20241766666;20741766666
2755;24112081000;20241766666;20741766666
2756;24112082000;20241766666;20741766666
2757;24112083000;20241766666;20741766666
2758;24112092000;20241766666;20741766666
2759;24112093000;20241766666;20741766666
2760;24112216000;20241788888;20741788888
2761;24112232000;20242077777;20742077777
2762;24148241000;20242077777;20742077777
2763;24148649000;20242077777;20742077777
2764;24199019000;20283422222;20783422222
2815;24363668000;20450111111;20950111111
2816;24363674000;20450411111;20950411111
2817;24363675000;20450411111;20950411111
2818;24363676000;20450411111;20950411111
2819;24400792000;20491766666;20991766666
2865;24520842000;20658444444;21158444444
2890;24570166000;20741766666;21241766666
2891;24570170000;20741766666;21241766666
2892;24570262000;20741788888;21241788888
2894;24570268000;20742100000;21242100000
2895;24570269000;20742100000;21242100000
2897;24588703000;20783422222;21283422222
2899;24588707000;20783422222;21283422222
2901;24588708000;20783422222;21283422222
2902;24588709000;20783422222;21283422222
2903;24588779000;20783444444;21283444444
2904;24588784000;20783711111;21283711111
2905;24588786000;20783711111;21283711111
2906;24588787000;20783711111;21283711111
2907;24602291000;20825100000;21325100000
2908;24602294000;20825100000;21325100000
2911;24602295000;20825100000;21325100000
2912;24602296000;20825100000;21325100000
2913;24602297000;20825100000;21325100000
2914;24602442000;20825122222;21325122222
2916;24602457000;20825366666;21325366666
2918;24609281000;20866855555;21366855555
2919;24609283000;20866855555;21366855555
2920;24629872000;20866855555;21366855555
2921;24629875000;20866855555;21366855555
2922;24632090000;20866855555;21366855555
2923;24633489000;20866855555;21366855555
2924;24633789000;20866855555;21366855555
2925;24684181000;20866888888;21366888888
2974;24684198000;21075088888;21575088888
2975;24684199000;21075088888;21575088888
2976;24684200000;21075088888;21575088888
2977;24684201000;21075088888;21575088888
2978;24684202000;21075088888;21575088888
2979;24684203000;21075088888;21575088888
2980;24886518000;21075111111;21575111111
3037;24886762000;21283711111;21783711111
3039;25043459000;21325100000;21825100000
3050;25058218000;21366777777;21866777777
3051;25058221000;21366777777;21866777777
3052;25058222000;21366777777;21866777777
3053;25058233000;21366777777;21866777777
3054;25058234000;21366777777;21866777777
3056;25058298000;21366777777;21866777777
3057;25058516000;21366800000;21866800000
3059;25058531000;21367122222;21867122222
3060;25058532000;21367122222;21867122222
3061;25071539000;21408433333;21908433333
3062;25071543000;21408433333;21908433333
3063;25071544000;21408433333;21908433333
3064;25071545000;21408433333;21908433333
3066;25071546000;21408433333;21908433333
3067;25071547000;21408433333;21908433333
3068;25071728000;21408455555;21908455555
3069;25071743000;21408722222;21908722222
3070;25071744000;21408722222;21908722222
3071;25071745000;21408722222;21908722222
3072;25081136000;21450100000;21950100000
3073;25111444000;21450100000;21950100000
3074;25111731000;21450100000;21950100000
3075;25111733000;21450100000;21950100000
3076;25112159000;21450100000;21950100000
3077;25114270000;21450100000;21950100000
3078;25114768000;21450100000;21950100000
3079;25165525000;21450122222;21950122222
3128;25165540000;21658422222;22158422222
3129;25165541000;21658422222;22158422222
3130;25165542000;21658422222;22158422222
3133;25352859000;21658422222;22158422222
3134;25367040000;21658444444;22158444444
3190;25367114000;21867111111;22367111111
3191;25367116000;21867111111;22367111111
3192;25367117000;21867111111;22367111111
3196;25525822000;21908433333;22408433333
3206;25540555000;21950111111;22450111111
3207;25540559000;21950111111;22450111111
3208;25540559000;21950111111;22450111111
3209;25540560000;21950111111;22450111111
3210;25540561000;21950111111;22450111111
3213;25540672000;21950422222;22450422222
3214;25540675000;21950422222;22450422222
3215;25561376000;21991755555;22491755555
3216;25561379000;21991755555;22491755555
3217;25561380000;21991755555;22491755555
3218;25561381000;21991755555;22491755555
3219;25561382000;21991755555;22491755555
3220;25561383000;21991755555;22491755555
3221;25561392000;21991755555;22491755555
3222;25561590000;21991777777;22491777777
3223;25561606000;21992088888;22492088888
3224;25561607000;21992088888;22492088888
3225;25561608000;21992088888;22492088888
3226;25569210000;22033422222;22533422222
3227;25569213000;22033422222;22533422222
3228;25569214000;22033422222;22533422222
3229;25593994000;22033422222;22533422222
3230;25594271000;22033422222;22533422222
3232;25596944000;22033422222;22533422222
3236;25647542000;22033722222;22533722222
3282;25849785000;22241766666;22741766666
3340;25982027000;22450088888;22950088888
3352;25999139000;22491755555;22991755555
3353;25999142000;22491755555;22991755555
3356;25999253000;22492100000;22992100000
3359;26023206000;22533422222;23033422222
3360;26023209000;22533422222;23033422222
3361;26023210000;22533422222;23033422222
3362;26023211000;22533422222;23033422222
3363;26023212000;22533422222;23033422222
3364;26023213000;22533422222;23033422222
3365;26023333000;22533444444;23033444444
3366;26023348000;22533722222;23033722222
3367;26023349000;22533722222;23033722222
3368;26023350000;22533722222;23033722222
3369;26036182000;22575111111;23075111111
3370;26036185000;22575111111;23075111111
3371;26036186000;22575111111;23075111111
3372;26036187000;22575111111;23075111111
3373;26036188000;22575111111;23075111111
3374;26036189000;22575111111;23075111111
3375;26036190000;22575111111;23075111111
3376;26036360000;22575144444;23075144444
3377;26036365000;22575433333;23075433333
3378;26036366000;22575433333;23075433333
3379;26036367000;22575433333;23075433333
3380;26045394000;22616766666;23116766666
3383;26045397000;22616766666;23116766666
3384;26075210000;22616766666;23116766666
3385;26075742000;22616766666;23116766666
3386;26075744000;22616766666;23116766666
3387;26126443000;22616788888;23116788888
3437;26126458000;22825111111;23325111111
3438;26126459000;22825111111;23325111111
3441;26316285000;22825111111;23325111111
3442;26328095000;22825133333;23325133333
3476;26328111000;22950411111;23450411111
3477;26328112000;22950411111;23450411111
3478;26328113000;22950411111;23450411111
3479;26441695000;22991766666;23491766666
3511;26479051000;23075422222;23575422222
3512;26495701000;23116766666;23616766666
3513;26495714000;23116766666;23616766666
3515;26495715000;23116766666;23616766666
3516;26495716000;23116766666;23616766666
3517;26495717000;23116766666;23616766666
3518;26495718000;23116766666;23616766666
3519;26495933000;23116788888;23616788888
3520;26495948000;23117100000;23617100000
3521;26495949000;23117100000;23617100000
3523;26509712000;23158422222;23658422222
3527;26509716000;23158422222;23658422222
3529;26509717000;23158422222;23658422222
3530;26509837000;23158444444;23658444444
3531;26509852000;23158744444;23658744444
3532;26509853000;23158744444;23658744444
3533;26509854000;23158744444;23658744444
3534;26520638000;23200088888;23700088888
3535;26520641000;23200088888;23700088888
3536;26520642000;23200088888;23700088888
3537;26520643000;23200088888;23700088888
3538;26557188000;23200088888;23700088888
3539;26557190000;23200088888;23700088888
3540;26557420000;23200088888;23700088888
3541;26607903000;23200111111;23700111111
3592;26607918000;23408422222;23908422222
3593;26607919000;23408422222;23908422222
3594;26607920000;23408422222;23908422222
3595;26607921000;23408422222;23908422222
3596;26810452000;23408444444;23908444444
3637;26810457000;23575100000;24075100000
3638;26810458000;23575100000;24075100000
3639;26810459000;23575100000;24075100000
3640;26923449000;23575122222;24075122222
3672;26923465000;23700088888;24200088888
3673;26977787000;23700111111;24200111111
3674;26977802000;23700411111;24200411111
3675;26977803000;23700411111;24200411111
3676;26977804000;23700411111;24200411111
3677;26991546000;23741755555;24241755555
3678;26991549000;23741755555;24241755555
3679;26991550000;23741755555;24241755555
3680;26991551000;23741755555;24241755555
3681;26991552000;23741755555;24241755555
3682;26991553000;23741755555;24241755555
3683;26991554000;23741755555;24241755555
3684;26991752000;23741777777;24241777777
3685;26991767000;23742122222;24242122222
3686;26991776000;23742122222;24242122222
3687;26991777000;23742122222;24242122222
3688;27002575000;23783444444;24283444444
3690;27002579000;23783444444;24283444444
3691;27002580000;23783444444;24283444444
3692;27002581000;23783444444;24283444444
3693;27002582000;23783444444;24283444444
3694;27002583000;23783444444;24283444444
3700;27130543000;23825100000;24325100000
3751;27291115000;23992088888;24492088888
3782;27381671000;24116766666;24616766666
3822;27463637000;24283444444;24783444444
3823;27463641000;24283444444;24783444444
3824;27463642000;24283444444;24783444444
3825;27463643000;24283444444;24783444444
3826;27463643000;24283444444;24783444444
3827;27463757000;24283466666;24783466666
3828;27463761000;24283744444;24783744444
3829;27463762000;24283744444;24783744444
3830;27463763000;24283744444;24783744444
3831;27477436000;24325100000;24825100000
3833;27477439000;24325100000;24825100000
3834;27477441000;24325100000;24825100000
3835;27477441000;24325100000;24825100000
3837;27477443000;24325100000;24825100000
3839;27477553000;24325377777;24825377777
3840;27477556000;24325377777;24825377777
3841;27477557000;24325377777;24825377777
3842;27495785000;24366755555;24866755555
3843;27495788000;24366755555;24866755555
3844;27495789000;24366755555;24866755555
3845;27495790000;24366755555;24866755555
3846;27495791000;24366755555;24866755555
3847;27495792000;24366755555;24866755555
3848;27495793000;24366755555;24866755555
3849;27495991000;24366777777;24866777777
3850;27520256000;24367122222;24867122222
3851;27520258000;24367122222;24867122222
3852;27520841000;24367122222;24867122222
3853;27611841000;24408422222;24908422222
3902;27773615000;24575100000;25075100000
3941;27891114000;24741788888;25241788888
3978;27943945000;24866755555;25366755555
3979;27943949000;24866755555;25366755555
3980;27943950000;24866755555;25366755555
3981;27944147000;24866777777;25366777777
3982;27944162000;24867100000;25367100000
3983;27944163000;24867100000;25367100000
3984;27944164000;24867100000;25367100000
3985;27958533000;24908422222;25408422222
3986;27958536000;24908422222;25408422222
3987;27958537000;24908422222;25408422222
3988;27958538000;24908422222;25408422222
3989;27958539000;24908422222;25408422222
3990;27958540000;24908422222;25408422222
3991;27958541000;24908422222;25408422222
3992;27958711000;24908444444;25408444444
3993;27958715000;24908711111;25408711111
3994;27958716000;24908711111;25408711111
3995;27958717000;24908711111;25408711111
3996;27968673000;24950088888;25450088888
3997;27968675000;24950088888;25450088888
3998;27968676000;24950088888;25450088888
3999;27968677000;24950088888;25450088888
4000;27968678000;24950088888;25450088888
4001;27968679000;24950088888;25450088888
4002;27968680000;24950088888;25450088888
4003;27968818000;24950111111;25450111111
4004;28001944000;24950400000;25450400000
4005;28002388000;24950400000;25450400000
4008;28093598000;24991777777;25491777777
4059;28254432000;25158722222;25658722222
4090;28344916000;25283433333;25783433333
4128;28421853000;25450100000;25950100000
4129;28421867000;25450100000;25950100000
4130;28421868000;25450100000;25950100000
4131;28421870000;25450100000;25950100000
4132;28421871000;25450100000;25950100000
4133;28421874000;25450100000;25950100000
4137;28421950000;25450466666;25950466666
4138;28421953000;25450466666;25950466666
4139;28443917000;25491777777;25991777777
4141;28443920000;25491777777;25991777777
4143;28443921000;25491777777;25991777777
4144;28443922000;25491777777;25991777777
4145;28443923000;25491777777;25991777777
4146;28444120000;25491800000;25991800000
4147;28444136000;25492088888;25992088888
4148;28444137000;25492088888;25992088888
4149;28444138000;25492088888;25992088888
4150;28453256000;25533433333;26033433333
4151;28453259000;25533433333;26033433333
4152;28453260000;25533433333;26033433333
4153;28453261000;25533433333;26033433333
4154;28453262000;25533433333;26033433333
4155;28453263000;25533433333;26033433333
4156;28453267000;25533433333;26033433333
4157;28453465000;25533455555;26033455555
4158;28453487000;25533711111;26033711111
4159;28453488000;25533711111;26033711111
4160;28453496000;25533711111;26033711111
4161;28533259000;25575088888;26075088888
4215;28698327000;25742088888;26242088888
4216;28735510000;25783433333;26283433333
4253;28826968000;25908422222;26408422222
4290;28887858000;26033733333;26533733333
4291;28887862000;26033733333;26533733333
4292;28887863000;26033733333;26533733333
4293;28903955000;26075088888;26575088888
4294;28903958000;26075088888;26575088888
4295;28903959000;26075088888;26575088888
4296;28903960000;26075088888;26575088888
4297;28903961000;26075088888;26575088888
4298;28903962000;26075088888;26575088888
4300;28904167000;26075111111;26575111111
4301;28904182000;26075400000;26575400000
4302;28904183000;26075400000;26575400000
4304;28918376000;26116755555;26616755555
4305;28918380000;26116755555;26616755555
4306;28918381000;26116755555;26616755555
4307;28918382000;26116755555;26616755555
4308;28918383000;26116755555;26616755555
4309;28918384000;26116755555;26616755555
4310;28918385000;26116755555;26616755555
4311;28918519000;26116777777;26616777777
4312;28918534000;26117100000;26617100000
4315;28929653000;26158422222;26658422222
4317;28964572000;26158422222;26658422222
4318;28966493000;26158422222;26658422222
4319;28966806000;26158422222;26658422222
4320;28967312000;26158422222;26658422222
4321;28967315000;26158422222;26658422222
4322;29017992000;26158444444;26658444444
4369;29017998000;26325400000;26825400000
4370;29220428000;26366755555;26866755555
4415;29336039000;26533433333;27033433333
4442;29378552000;26616755555;27116755555
4443;29378760000;26616777777;27116777777
4444;29378776000;26617122222;27117122222
4445;29378777000;26617122222;27117122222
4447;29393607000;26658522222;27158522222
4448;29393610000;26658522222;27158522222
4451;29393612000;26658522222;27158522222
4452;29393613000;26658522222;27158522222
4453;29393614000;26658522222;27158522222
4455;29393625000;26658833333;27158833333
4456;29393627000;26658833333;27158833333
4457;29393638000;26658833333;27158833333
4458;29414430000;26700111111;27200111111
4459;29414433000;26700111111;27200111111
4460;29414435000;26700111111;27200111111
4461;29414436000;26700111111;27200111111
4462;29414437000;26700111111;27200111111
4463;29414437000;26700111111;27200111111
4465;29414637000;26700133333;27200133333
4466;29414654000;26700422222;27200422222
4467;29414655000;26700422222;27200422222
4468;29414656000;26700422222;27200422222
4469;29422616000;26741766666;27241766666
4471;29448251000;26741766666;27241766666
4472;29448253000;26741766666;27241766666
4473;29448463000;26741766666;27241766666
4474;29448466000;26741766666;27241766666
4475;29448762000;26741766666;27241766666
4480;29541287000;26783422222;27283422222
4525;29701805000;26950100000;27450100000
4571;29822183000;27116766666;27616766666
4595;29857964000;27200100000;27700100000
4596;29857967000;27200100000;27700100000
4597;29858142000;27200122222;27700122222
4599;29858146000;27200377777;27700377777
4600;29858148000;27200377777;27700377777
4601;29873798000;27241766666;27741766666
4602;29873802000;27241766666;27741766666
4604;29873803000;27241766666;27741766666
4606;29873804000;27241766666;27741766666
4607;29873805000;27241766666;27741766666
4608;29873980000;27241788888;27741788888
4612;29895713000;27283422222;27783422222
4613;29895715000;27283422222;27783422222
4614;29895716000;27283422222;27783422222
4615;29895717000;27283422222;27783422222
4616;29895718000;27283422222;27783422222
4617;29895719000;27283422222;27783422222
4618;29895720000;27283422222;27783422222
4619;29895926000;27283444444;27783444444
4620;29895941000;27283722222;27783722222
4621;29895943000;27283722222;27783722222
4622;29895944000;27283722222;27783722222
4623;29904082000;27325088888;27825088888
4624;29904085000;27325088888;27825088888
4625;29904086000;27325088888;27825088888
4626;29904088000;27325088888;27825088888
4627;29929920000;27325088888;27825088888
4628;29930291000;27325088888;27825088888
4629;29930567000;27325088888;27825088888
4630;29981041000;27325111111;27825111111
4685;30182503000;27533444444;28033444444
4726;30182510000;27700100000;28200100000
4727;30182511000;27700100000;28200100000
4728;30182533000;27700100000;28200100000
4729;30296564000;27700122222;28200122222
4762;30350798000;27825111111;28325111111
4763;30350803000;27825400000;28325400000
4764;30350805000;27825400000;28325400000
4765;30350806000;27825400000;28325400000
4766;30365064000;27867122222;28367122222
4767;30365067000;27867122222;28367122222
4768;30365068000;27867122222;28367122222
4769;30365069000;27867122222;28367122222
4770;30365070000;27867122222;28367122222
4771;30365071000;27867122222;28367122222
4772;30365072000;27867122222;28367122222
4773;30365268000;27867477777;28367477777
4774;30365283000;27867844444;28367844444
4775;30365284000;27867844444;28367844444
4776;30365286000;27867844444;28367844444
4777;30375795000;27908433333;28408433333
4778;30375798000;27908433333;28408433333
4779;30375799000;27908433333;28408433333
4780;30375800000;27908433333;28408433333
4781;30375801000;27908433333;28408433333
4782;30375802000;27908433333;28408433333
4783;30375803000;27908433333;28408433333
4784;30375972000;27908455555;28408455555
4785;30412204000;27908733333;28408733333
4786;30412452000;27908733333;28408733333
4787;30412715000;27908733333;28408733333
4788;30504148000;27950100000;28450100000
4839;30664760000;28116800000;28616800000
4880;30664776000;28283422222;28783422222
4881;30664778000;28283422222;28783422222
4882;30664779000;28283422222;28783422222
4887;30804376000;28325088888;28825088888
4918;30851231000;28408755555;28908755555
4919;30851235000;28408755555;28908755555
4920;30862380000;28450100000;28950100000
4921;30862383000;28450100000;28950100000
4922;30862384000;28450100000;28950100000
4923;30862385000;28450100000;28950100000
4924;30862386000;28450100000;28950100000
4925;30862387000;28450100000;28950100000
4926;30862388000;28450100000;28950100000
4927;30862587000;28450122222;28950122222
4928;30862602000;28450433333;28950433333
4929;30862603000;28450433333;28950433333
4930;30862604000;28450433333;28950433333
4931;30870074000;28491755555;28991755555
4932;30870077000;28491755555;28991755555
4933;30870078000;28491755555;28991755555
4934;30870079000;28491755555;28991755555
4935;30870080000;28491755555;28991755555
4936;30870081000;28491755555;28991755555
4937;30870082000;28491755555;28991755555
4938;30870251000;28491777777;28991777777
4940;30870255000;28492100000;28992100000
4945;30945310000;28533433333;29033433333
4994;31109931000;28700433333;29200433333
4995;31109935000;28700433333;29200433333
4996;31109936000;28700433333;29200433333
4997;31147139000;28741766666;29241766666
5043;31267325000;28908433333;29408433333
5074;31332168000;29033422222;29533422222
5076;31332171000;29033422222;29533422222
5077;31332173000;29033422222;29533422222
5078;31332174000;29033422222;29533422222
5079;31332175000;29033422222;29533422222
5080;31332176000;29033422222;29533422222
5081;31332382000;29033444444;29533444444
5082;31332398000;29033755555;29533755555
5083;31332399000;29033755555;29533755555
5084;31332400000;29033755555;29533755555
5085;31346275000;29075177777;29575177777
5086;31346279000;29075177777;29575177777
5087;31346280000;29075177777;29575177777
5088;31346281000;29075177777;29575177777
5089;31346282000;29075177777;29575177777
5090;31346283000;29075177777;29575177777
5091;31346284000;29075177777;29575177777
5092;31346458000;29075211111;29575211111
5093;31346463000;29075688888;29575688888
5094;31346464000;29075688888;29575688888
5095;31346465000;29075688888;29575688888
5096;31353775000;29116766666;29616766666
5097;31376548000;29116766666;29616766666
5098;31376869000;29116766666;29616766666
5099;31377091000;29116766666;29616766666
5100;31377093000;29116766666;29616766666
5101;31377335000;29116766666;29616766666
5102;31377859000;29116766666;29616766666
5103;31428314000;29116788888;29616788888
5145;31592074000;29283433333;29783433333
5146;31592076000;29283433333;29783433333
5148;31592187000;29283755555;29783755555
5156;31630819000;29325111111;29825111111
5202;31750251000;29491788888;29991788888
5228;31750267000;29616766666;30116766666
5229;31750268000;29616766666;30116766666
5231;31809655000;29616766666;30116766666
5232;31809658000;29616766666;30116766666
5233;31809678000;29616766666;30116766666
5234;31809679000;29616766666;30116766666
5235;31809880000;29616788888;30116788888
5236;31809895000;29617133333;30117133333
5238;31809896000;29617133333;30117133333
5239;31821526000;29658433333;30158433333
5240;31821530000;29658433333;30158433333
5241;31821531000;29658433333;30158433333
5242;31821532000;29658433333;30158433333
5243;31821533000;29658433333;30158433333
5244;31821534000;29658433333;30158433333
5245;31821535000;29658433333;30158433333
5247;31821644000;29658744444;30158744444
5248;31821647000;29658744444;30158744444
5249;31821649000;29658744444;30158744444
5250;31839085000;29700088888;30200088888
5251;31839089000;29700088888;30200088888
5253;31858269000;29700088888;30200088888
5254;31858271000;29700088888;30200088888
5255;31858502000;29700088888;30200088888
5256;31858528000;29700088888;30200088888
5257;31909495000;29700111111;30200111111
5307;31909501000;29908466666;30408466666
5308;31909502000;29908466666;30408466666
5309;31909504000;29908466666;30408466666
5310;31909504000;29908466666;30408466666
5311;31909505000;29908466666;30408466666
5312;32113061000;29908488888;30408488888
5358;32113079000;30075400000;30575400000
5359;32113080000;30075400000;30575400000
5360;32245753000;30116766666;30616766666
5385;32287286000;30200088888;30700088888
5386;32287289000;30200088888;30700088888
5387;32287291000;30200088888;30700088888
5388;32287292000;30200088888;30700088888
5389;32287490000;30200111111;30700111111
5390;32287496000;30200411111;30700411111
5391;32287497000;30200411111;30700411111
5392;32287498000;30200411111;30700411111
5393;32299778000;30241755555;30741755555
5394;32299782000;30241755555;30741755555
5395;32299783000;30241755555;30741755555
5396;32299784000;30241755555;30741755555
5397;32299785000;30241755555;30741755555
5398;32299786000;30241755555;30741755555
5399;32299786000;30241755555;30741755555
5400;32299956000;30241777777;30741777777
5401;32299960000;30242133333;30742133333
5402;32299961000;30242133333;30742133333
5403;32299962000;30242133333;30742133333
5404;32309482000;30283444444;30783444444
5405;32309484000;30283444444;30783444444
5406;32309485000;30283444444;30783444444
5407;32309486000;30283444444;30783444444
5408;32338638000;30283444444;30783444444
5409;32340097000;30283444444;30783444444
5410;32340396000;30283444444;30783444444
5411;32390868000;30283466666;30783466666
5463;32390883000;30491766666;30991766666
5464;32390884000;30491766666;30991766666
5465;32390885000;30491766666;30991766666
5466;32593491000;30491788888;30991788888
5477;32627273000;30533466666;31033466666
5478;32627279000;30533744444;31033744444
5479;32627290000;30533744444;31033744444
5480;32627291000;30533744444;31033744444
5481;32657585000;30575100000;31075100000
5482;32657589000;30575100000;31075100000
5484;32657590000;30575100000;31075100000
5485;32657591000;30575100000;31075100000
5486;32657592000;30575100000;31075100000
5487;32657593000;30575100000;31075100000
5488;32657864000;30575122222;31075122222
5489;32657880000;30575400000;31075400000
5490;32657881000;30575400000;31075400000
5491;32657882000;30575400000;31075400000
5492;32683402000;30616766666;31116766666
5493;32683405000;30616766666;31116766666
5494;32683407000;30616766666;31116766666
5495;32683408000;30616766666;31116766666
5496;32683409000;30616766666;31116766666
5497;32683410000;30616766666;31116766666
5498;32683411000;30616766666;31116766666
5499;32683631000;30616788888;31116788888
