seqnum;now;rtptime;deadline
12;5478496000;5229777777;5429777777
14;5478501000;5229777777;5429777777
15;5478503000;5229777777;5429777777
16;5478505000;5229777777;5429777777
17;5478516000;5229777777;5429777777
21;5539405000;5229777777;5429777777
32;5581092000;5271522222;5471522222
44;5581105000;5354800000;5554800000
45;5581108000;5354800000;5554800000
46;5581109000;5354800000;5554800000
47;5581111000;5354800000;5554800000
50;5603445000;5354800000;5554800000
51;5603457000;5354800000;5554800000
52;5603459000;5354800000;5554800000
53;5603460000;5354800000;5554800000
54;5664457000;5354800000;5554800000
66;5664473000;5438088888;5638088888
67;5664474000;5438088888;5638088888
68;5664476000;5438088888;5638088888
69;5664478000;5438088888;5638088888
70;5664479000;5438088888;5638088888
71;5664481000;5438088888;5638088888
72;5664482000;5438088888;5638088888
73;5664484000;5438088888;5638088888
74;5664485000;5438088888;5638088888
75;5664496000;5438088888;5638088888
76;5747805000;5438088888;5638088888
85;5747811000;5479800000;5679800000
86;5747813000;5479800000;5679800000
87;5789312000;5479800000;5679800000
98;5831037000;5521522222;5721522222
109;5872617000;5563111111;5763111111
121;5872623000;5646455555;5846455555
122;5872624000;5646455555;5846455555
123;5872625000;5646455555;5846455555
124;5872626000;5646455555;5846455555
125;5872627000;5646455555;5846455555
126;5872628000;5646455555;5846455555
127;5872629000;5646455555;5846455555
128;5872630000;5646455555;5846455555
129;5872631000;5646455555;5846455555
130;5872632000;5646455555;5846455555
133;5997750000;5688055555;5888055555
151;6039316000;5729744444;5929744444
162;6081026000;5771444444;5971444444
173;6122671000;5813088888;6013088888
184;6164326000;5854755555;6054755555
198;6247748000;5938133333;6138133333
218;6289331000;5979744444;6179744444
231;6372859000;6063066666;6263066666
253;6456231000;6146444444;6346444444
271;6497666000;6188100000;6388100000
284;6539339000;6229755555;6429755555
294;6581016000;6271433333;6471433333
306;6622633000;6313066666;6513066666
317;6664280000;6354700000;6554700000
328;6706012000;6396444444;6596444444
341;6789527000;6479733333;6679733333
358;6831036000;6521455555;6721455555
372;6872680000;6563044444;6763044444
382;6917357000;6604722222;6804722222
392;6956078000;6646444444;6846444444
407;7039621000;6729766666;6929766666
423;7081066000;6771444444;6971444444
436;7122630000;6813066666;7013066666
448;7164346000;6854766666;7054766666
462;7247730000;6938066666;7138066666
480;7289335000;6979755555;7179755555
490;7331022000;7021444444;7221444444
500;7372682000;7063100000;7263100000
512;7414312000;7104733333;7304733333
523;7456039000;7146455555;7346455555
541;7539381000;7229722222;7429722222
556;7581060000;7271477777;7471477777
568;7622682000;7313100000;7513100000
581;7664330000;7354744444;7554744444
593;7706143000;7396455555;7596455555
604;7747665000;7438066666;7638066666
612;7747671000;7479766666;7679766666
613;7747672000;7479766666;7679766666
616;7831146000;7521466666;7721466666
640;7914412000;7604733333;7804733333
660;7997884000;7688111111;7888111111
678;8039345000;7729766666;7929766666
690;8081017000;7771455555;7971455555
702;8122730000;7813133333;8013133333
712;8164316000;7854733333;8054733333
723;8206000000;7896433333;8096433333
735;8247647000;7938122222;8138122222
747;8289393000;7979722222;8179722222
759;8289408000;8063122222;8263122222
762;8311859000;8063122222;8263122222
763;8311870000;8063122222;8263122222
764;8311872000;8063122222;8263122222
765;8311872000;8063122222;8263122222
766;8311873000;8063122222;8263122222
767;8311874000;8063122222;8263122222
768;8311875000;8063122222;8263122222
769;8372735000;8063122222;8263122222
779;8372741000;8104744444;8304744444
780;8414317000;8104744444;8304744444
791;8456064000;8146500000;8346500000
803;8456070000;8229755555;8429755555
804;8456071000;8229755555;8429755555
805;8456072000;8229755555;8429755555
806;8456073000;8229755555;8429755555
807;8456074000;8229755555;8429755555
808;8456075000;8229755555;8429755555
809;8456076000;8229755555;8429755555
810;8456077000;8229755555;8429755555
811;8456078000;8229755555;8429755555
812;8456091000;8229755555;8429755555
813;8539540000;8229755555;8429755555
825;8539546000;8313111111;8513111111
826;8539547000;8313111111;8513111111
827;8539548000;8313111111;8513111111
828;8539549000;8313111111;8513111111
829;8539550000;8313111111;8513111111
830;8539551000;8313111111;8513111111
831;8539552000;8313111111;8513111111
832;8539553000;8313111111;8513111111
833;8539554000;8313111111;8513111111
834;8539555000;8313111111;8513111111
835;8622903000;8313111111;8513111111
843;8622909000;8354766666;8554766666
844;8622910000;8354766666;8554766666
845;8622911000;8354766666;8554766666
846;8664342000;8354766666;8554766666
856;8664348000;8396455555;8596455555
857;8706034000;8396455555;8596455555
868;8747669000;8438088888;8638088888
879;8789358000;8479777777;8679777777
891;8789364000;8563122222;8763122222
892;8789365000;8563122222;8763122222
893;8789366000;8563122222;8763122222
894;8789367000;8563122222;8763122222
895;8789368000;8563122222;8763122222
896;8789369000;8563122222;8763122222
897;8789370000;8563122222;8763122222
898;8789371000;8563122222;8763122222
903;8914413000;8604733333;8804733333
923;8956102000;8646444444;8846444444
935;8956117000;8729755555;8929755555
939;8978387000;8729755555;8929755555
940;8978389000;8729755555;8929755555
941;8978390000;8729755555;8929755555
942;8978391000;8729755555;8929755555
943;8978392000;8729755555;8929755555
944;8978403000;8729755555;8929755555
945;9039383000;8729755555;8929755555
955;9039389000;8771455555;8971455555
956;9081004000;8771455555;8971455555
967;9122694000;8813111111;9013111111
978;9164329000;8854766666;9054766666
985;9164335000;8896444444;9096444444
986;9164336000;8896444444;9096444444
987;9164337000;8896444444;9096444444
988;9164338000;8896444444;9096444444
989;9206009000;8896444444;9096444444
1000;9247678000;8938100000;9138100000
1011;9289335000;8979755555;9179755555
1022;9331054000;9021488888;9221488888
1036;9353717000;9104755555;9304755555
1038;9353719000;9104755555;9304755555
1039;9353721000;9104755555;9304755555
1040;9353722000;9104755555;9304755555
1041;9353723000;9104755555;9304755555
1042;9353724000;9104755555;9304755555
1043;9353725000;9104755555;9304755555
1044;9414367000;9104755555;9304755555
1054;9414373000;9146488888;9346488888
1055;9456053000;9146488888;9346488888
1065;9456068000;9188111111;9388111111
1066;9497671000;9188111111;9388111111
1077;9539343000;9229766666;9429766666
1088;9581027000;9271466666;9471466666
1099;9622659000;9313077777;9513077777
1110;9664299000;9354733333;9554733333
1118;9664314000;9396444444;9596444444
1119;9664315000;9396444444;9596444444
1120;9664316000;9396444444;9596444444
1121;9706018000;9396444444;9596444444
1133;9706024000;9479733333;9679733333
1134;9706026000;9479733333;9679733333
1135;9706027000;9479733333;9679733333
1136;9706027000;9479733333;9679733333
1137;9706028000;9479733333;9679733333
1138;9706029000;9479733333;9679733333
1139;9706030000;9479733333;9679733333
1140;9706031000;9479733333;9679733333
1141;9706032000;9479733333;9679733333
1142;9706033000;9479733333;9679733333
1146;9831131000;9521455555;9721455555
1166;9914476000;9604688888;9804688888
1182;9956013000;9646433333;9846433333
1194;9997670000;9688088888;9888088888
1206;10039324000;9729744444;9929744444
1220;10081116000;9771444444;9971444444
1231;10122695000;9813122222;10013122222
1241;10122701000;9854755555;10054755555
1242;10164333000;9854755555;10054755555
1252;10164339000;9896422222;10096422222
1253;10205983000;9896422222;10096422222
1262;10205989000;9938088888;10138088888
1263;10205990000;9938088888;10138088888
1264;10247666000;9938088888;10138088888
1274;10247672000;9979744444;10179744444
1277;10331011000;10021477777;10221477777
1297;10372801000;10063111111;10263111111
1309;10372817000;10146444444;10346444444
1310;10372818000;10146444444;10346444444
1311;10372819000;10146444444;10346444444
1312;10372820000;10146444444;10346444444
1316;10394994000;10146444444;10346444444
1317;10394996000;10146444444;10346444444
1318;10394997000;10146444444;10346444444
1319;10456120000;10146444444;10346444444
1329;10456125000;10188100000;10388100000
1330;10497676000;10188100000;10388100000
1342;10497689000;10271455555;10471455555
1343;10497691000;10271455555;10471455555
1344;10497692000;10271455555;10471455555
1345;10497693000;10271455555;10471455555
1346;10497693000;10271455555;10471455555
1347;10497694000;10271455555;10471455555
1348;10497696000;10271455555;10471455555
1349;10497696000;10271455555;10471455555
1350;10497697000;10271455555;10471455555
1351;10497698000;10271455555;10471455555
1352;10581248000;10271455555;10471455555
1364;10581254000;10354722222;10554722222
1365;10581255000;10354722222;10554722222
1366;10581256000;10354722222;10554722222
1367;10581257000;10354722222;10554722222
1368;10581258000;10354722222;10554722222
1369;10581259000;10354722222;10554722222
1370;10581260000;10354722222;10554722222
1371;10581261000;10354722222;10554722222
1372;10581262000;10354722222;10554722222
1373;10581263000;10354722222;10554722222
1374;10664508000;10354722222;10554722222
1383;10664521000;10396455555;10596455555
1384;10664522000;10396455555;10596455555
1385;10706034000;10396455555;10596455555
1396;10747704000;10438122222;10638122222
1407;10789344000;10479766666;10679766666
1417;10789349000;10521466666;10721466666
1418;10831046000;10521466666;10721466666
1430;10831052000;10604722222;10804722222
1431;10831054000;10604722222;10804722222
1432;10831055000;10604722222;10804722222
1433;10831056000;10604722222;10804722222
1434;10831057000;10604722222;10804722222
1435;10831058000;10604722222;10804722222
1436;10831059000;10604722222;10804722222
1437;10831060000;10604722222;10804722222
1438;10831061000;10604722222;10804722222
1439;10831062000;10604722222;10804722222
1440;10914509000;10604722222;10804722222
1449;10914523000;10646444444;10846444444
1450;10914524000;10646444444;10846444444
1451;10956024000;10646444444;10846444444
1463;10956030000;10729788888;10929788888
1464;10956031000;10729788888;10929788888
1465;10956032000;10729788888;10929788888
1466;10956033000;10729788888;10929788888
1467;10956034000;10729788888;10929788888
1468;10956035000;10729788888;10929788888
1469;10956036000;10729788888;10929788888
1470;10956037000;10729788888;10929788888
1471;10956038000;10729788888;10929788888
1472;10956039000;10729788888;10929788888
1473;11039571000;10729788888;10929788888
1485;11039577000;10813133333;11013133333
1486;11039578000;10813133333;11013133333
1487;11039579000;10813133333;11013133333
1488;11039580000;10813133333;11013133333
1489;11039581000;10813133333;11013133333
1492;11061830000;10813133333;11013133333
1493;11061834000;10813133333;11013133333
1494;11061835000;10813133333;11013133333
1495;11122809000;10813133333;11013133333
1504;11122815000;10854755555;11054755555
1505;11122816000;10854755555;11054755555
1506;11164308000;10854755555;11054755555
1517;11206034000;10896455555;11096455555
1528;11247668000;10938088888;11138088888
1539;11289316000;10979755555;11179755555
1549;11289322000;11021466666;11221466666
1550;11331047000;11021466666;11221466666
1559;11331053000;11063088888;11263088888
1560;11331055000;11063088888;11263088888
1561;11372652000;11063088888;11263088888
1571;11372658000;11104744444;11304744444
1572;11414305000;11104744444;11304744444
1583;11456031000;11146466666;11346466666
1595;11456037000;11229766666;11429766666
1596;11456039000;11229766666;11429766666
1597;11456039000;11229766666;11429766666
1598;11456040000;11229766666;11429766666
1602;11478628000;11229766666;11429766666
1603;11478631000;11229766666;11429766666
1604;11478632000;11229766666;11429766666
1606;11581382000;11271488888;11471488888
1625;11622665000;11313100000;11513100000
1636;11664320000;11354755555;11554755555
1647;11706047000;11396466666;11596466666
1660;11747835000;11438144444;11638144444
1671;11789353000;11479777777;11679777777
1683;11789359000;11563122222;11763122222
1684;11789360000;11563122222;11763122222
1685;11789361000;11563122222;11763122222
1686;11789362000;11563122222;11763122222
1687;11789363000;11563122222;11763122222
1688;11789364000;11563122222;11763122222
1689;11789365000;11563122222;11763122222
1690;11789365000;11563122222;11763122222
1691;11789367000;11563122222;11763122222
1692;11789367000;11563122222;11763122222
1693;11872907000;11563122222;11763122222
1703;11872913000;11604733333;11804733333
1704;11914309000;11604733333;11804733333
1717;11936650000;11688133333;11888133333
1719;11936653000;11688133333;11888133333
1720;11936654000;11688133333;11888133333
1721;11936655000;11688133333;11888133333
1722;11936656000;11688133333;11888133333
1723;11936657000;11688133333;11888133333
1724;11936658000;11688133333;11888133333
1725;11936659000;11688133333;11888133333
1726;11997743000;11688133333;11888133333
1737;12039245000;11729733333;11929733333
1747;12039251000;11771466666;11971466666
1750;12122745000;11813133333;12013133333
1769;12164283000;11854777777;12054777777
1780;12205949000;11896444444;12096444444
1790;12247605000;11938100000;12138100000
1803;12289334000;11979766666;12179766666
1815;12289340000;12063144444;12263144444
1816;12289342000;12063144444;12263144444
1817;12289343000;12063144444;12263144444
1818;12289343000;12063144444;12263144444
1819;12289345000;12063144444;12263144444
1820;12289355000;12063144444;12263144444
1821;12289356000;12063144444;12263144444
1822;12289356000;12063144444;12263144444
1823;12289357000;12063144444;12263144444
1824;12289358000;12063144444;12263144444
1825;12372867000;12063144444;12263144444
1839;12395359000;12146477777;12346477777
1840;12395361000;12146477777;12346477777
1841;12395372000;12146477777;12346477777
1842;12395373000;12146477777;12346477777
1843;12395374000;12146477777;12346477777
1844;12395375000;12146477777;12346477777
1845;12395376000;12146477777;12346477777
1846;12395376000;12146477777;12346477777
1847;12456084000;12146477777;12346477777
1858;12497564000;12188044444;12388044444
1869;12539225000;12229711111;12429711111
1881;12539231000;12313033333;12513033333
1882;12539232000;12313033333;12513033333
1883;12539233000;12313033333;12513033333
1884;12539234000;12313033333;12513033333
1885;12539235000;12313033333;12513033333
1886;12539236000;12313033333;12513033333
1887;12539237000;12313033333;12513033333
1888;12539238000;12313033333;12513033333
1889;12539239000;12313033333;12513033333
1890;12539240000;12313033333;12513033333
1891;12622757000;12313033333;12513033333
1900;12622762000;12354733333;12554733333
1901;12622764000;12354733333;12554733333
1902;12664245000;12354733333;12554733333
1913;12705969000;12396455555;12596455555
1925;12705975000;12479755555;12679755555
1926;12705976000;12479755555;12679755555
1927;12705977000;12479755555;12679755555
1928;12705978000;12479755555;12679755555
1929;12705979000;12479755555;12679755555
1930;12705980000;12479755555;12679755555
1931;12705981000;12479755555;12679755555
1932;12705982000;12479755555;12679755555
1933;12705983000;12479755555;12679755555
1934;12705984000;12479755555;12679755555
1935;12789478000;12479755555;12679755555
1941;12789484000;12521433333;12721433333
1942;12789485000;12521433333;12721433333
1943;12789486000;12521433333;12721433333
1944;12789487000;12521433333;12721433333
1945;12789488000;12521433333;12721433333
1946;12830842000;12521433333;12721433333
1957;12872564000;12563044444;12763044444
1968;12914225000;12604711111;12804711111
1979;12955935000;12646422222;12846422222
1993;12978344000;12729744444;12929744444
1994;12978347000;12729744444;12929744444
1995;12978347000;12729744444;12929744444
1996;12978358000;12729744444;12929744444
1997;12978359000;12729744444;12929744444
1998;12978360000;12729744444;12929744444
1999;12978361000;12729744444;12929744444
2000;12978362000;12729744444;12929744444
2001;13039354000;12729744444;12929744444
2012;13080923000;12771411111;12971411111
2023;13122636000;12813122222;13013122222
2033;13122642000;12854755555;13054755555
2034;13164268000;12854755555;13054755555
2045;13205969000;12896444444;13096444444
2053;13205975000;12938066666;13138066666
2054;13205976000;12938066666;13138066666
2055;13205977000;12938066666;13138066666
2056;13247579000;12938066666;13138066666
2067;13289243000;12979733333;13179733333
2079;13289249000;13063055555;13263055555
2082;13311649000;13063055555;13263055555
2083;13311651000;13063055555;13263055555
2084;13311653000;13063055555;13263055555
2086;13311654000;13063055555;13263055555
2087;13311662000;13063055555;13263055555
2088;13311664000;13063055555;13263055555
2089;13372664000;13063055555;13263055555
2101;13372670000;13146455555;13346455555
2102;13372672000;13146455555;13346455555
2103;13372673000;13146455555;13346455555
2104;13372673000;13146455555;13346455555
2105;13372674000;13146455555;13346455555
2106;13372675000;13146455555;13346455555
2107;13372676000;13146455555;13346455555
2108;13372677000;13146455555;13346455555
2109;13372678000;13146455555;13346455555
2110;13372679000;13146455555;13346455555
2111;13456176000;13146455555;13346455555
2118;13456182000;13188111111;13388111111
2119;13456183000;13188111111;13388111111
2120;13456184000;13188111111;13388111111
2121;13456185000;13188111111;13388111111
2122;13497643000;13188111111;13388111111
2131;13497648000;13229766666;13429766666
2132;13497650000;13229766666;13429766666
2133;13539279000;13229766666;13429766666
2144;13580981000;13271466666;13471466666
2155;13622669000;13313155555;13513155555
2170;13644956000;13396466666;13596466666
2171;13644958000;13396466666;13596466666
2172;13644959000;13396466666;13596466666
2173;13644960000;13396466666;13596466666
2174;13644962000;13396466666;13596466666
2175;13644963000;13396466666;13596466666
2176;13644964000;13396466666;13596466666
2177;13706034000;13396466666;13596466666
2188;13747684000;13438144444;13638144444
2199;13789290000;13479777777;13679777777
2210;13831003000;13521488888;13721488888
2220;13831009000;13563088888;13763088888
2223;13914323000;13604711111;13804711111
2242;13955970000;13646455555;13846455555
2253;13997616000;13688100000;13888100000
2266;14081207000;13771488888;13971488888
2284;14122635000;13813144444;14013144444
2295;14164305000;13854777777;14054777777
2307;14206007000;13896477777;14096477777
2321;14289478000;13979755555;14179755555
2338;14331007000;14021488888;14221488888
2347;14372639000;14063122222;14263122222
2358;14414306000;14104788888;14304788888
2372;14455994000;14146511111;14346511111
2385;14497678000;14188133333;14388133333
2392;14539317000;14229788888;14429788888
2406;14580985000;14271444444;14471444444
2420;14664504000;14354777777;14554777777
2440;14705848000;14396444444;14596444444
2450;14747630000;14438111111;14638111111
2461;14789281000;14479766666;14679766666
2472;14830986000;14521455555;14721455555
2483;14872651000;14563122222;14763122222
2496;14914189000;14604733333;14804733333
2507;14955946000;14646433333;14846433333
2522;14978455000;14729766666;14929766666
2523;14978457000;14729766666;14929766666
2524;14978458000;14729766666;14929766666
2525;14978459000;14729766666;14929766666
2526;14978460000;14729766666;14929766666
2527;14978461000;14729766666;14929766666
2528;14978462000;14729766666;14929766666
2529;15039377000;14729766666;14929766666
2538;15039383000;14771466666;14971466666
2539;15039385000;14771466666;14971466666
2540;15081010000;14771466666;14971466666
2549;15081016000;14813122222;15013122222
2550;15081017000;14813122222;15013122222
2551;15122635000;14813122222;15013122222
2561;15122641000;14854777777;15054777777
2562;15164291000;14854777777;15054777777
2574;15164297000;14938111111;15138111111
2575;15164298000;14938111111;15138111111
2576;15164299000;14938111111;15138111111
2577;15164300000;14938111111;15138111111
2578;15164301000;14938111111;15138111111
2579;15164302000;14938111111;15138111111
2580;15164303000;14938111111;15138111111
2581;15164304000;14938111111;15138111111
2582;15164305000;14938111111;15138111111
2586;15289370000;14979755555;15179755555
2606;15331049000;15021466666;15221466666
2612;15331055000;15063100000;15263100000
2613;15331057000;15063100000;15263100000
2614;15331058000;15063100000;15263100000
2615;15331059000;15063100000;15263100000
2616;15331060000;15063100000;15263100000
2617;15372628000;15063100000;15263100000
2628;15414223000;15104711111;15304711111
2639;15456005000;15146477777;15346477777
2651;15456011000;15229711111;15429711111
2652;15456012000;15229711111;15429711111
2653;15456013000;15229711111;15429711111
2654;15456014000;15229711111;15429711111
2655;15456015000;15229711111;15429711111
2656;15456016000;15229711111;15429711111
2660;15478432000;15229711111;15429711111
2661;15539319000;15229711111;15429711111
2672;15580981000;15271466666;15471466666
2682;15580987000;15313066666;15513066666
2683;15622580000;15313066666;15513066666
2694;15664245000;15354733333;15554733333
2704;15664251000;15396455555;15596455555
2705;15705981000;15396455555;15596455555
2714;15705987000;15438100000;15638100000
2715;15705988000;15438100000;15638100000
2716;15747585000;15438100000;15638100000
2728;15747590000;15521466666;15721466666
2729;15747592000;15521466666;15721466666
2730;15747593000;15521466666;15721466666
2731;15747594000;15521466666;15721466666
2732;15747595000;15521466666;15721466666
2733;15747596000;15521466666;15721466666
2734;15747597000;15521466666;15721466666
2735;15747598000;15521466666;15721466666
2736;15747598000;15521466666;15721466666
2737;15747599000;15521466666;15721466666
2738;15831191000;15521466666;15721466666
2748;15831197000;15563055555;15763055555
2751;15914311000;15604688888;15804688888
2771;15956010000;15646444444;15846444444
2781;15956016000;15688100000;15888100000
2782;15997616000;15688100000;15888100000
2793;16039238000;15729711111;15929711111
2805;16039243000;15813055555;16013055555
2806;16039245000;15813055555;16013055555
2807;16039246000;15813055555;16013055555
2808;16039247000;15813055555;16013055555
2809;16039248000;15813055555;16013055555
2810;16039248000;15813055555;16013055555
2811;16039249000;15813055555;16013055555
2812;16039250000;15813055555;16013055555
2813;16039251000;15813055555;16013055555
2814;16039252000;15813055555;16013055555
2815;16122777000;15813055555;16013055555
2825;16122783000;15854755555;16054755555
2826;16164267000;15854755555;16054755555
2838;16164274000;15938044444;16138044444
2839;16164276000;15938044444;16138044444
2840;16164278000;15938044444;16138044444
2841;16164279000;15938044444;16138044444
2842;16164281000;15938044444;16138044444
2843;16164282000;15938044444;16138044444
2844;16164284000;15938044444;16138044444
2845;16164285000;15938044444;16138044444
2846;16164286000;15938044444;16138044444
2847;16164288000;15938044444;16138044444
2848;16247770000;15938044444;16138044444
2858;16247776000;15979744444;16179744444
2861;16331027000;16021444444;16221444444
2881;16372679000;16063111111;16263111111
2888;16372685000;16104733333;16304733333
2889;16372686000;16104733333;16304733333
2890;16372687000;16104733333;16304733333
2891;16372688000;16104733333;16304733333
2892;16414246000;16104733333;16304733333
2902;16414252000;16146477777;16346477777
2903;16455992000;16146477777;16346477777
2913;16455998000;16188066666;16388066666
2914;16497591000;16188066666;16388066666
2922;16497597000;16229733333;16429733333
2923;16497598000;16229733333;16429733333
2924;16497599000;16229733333;16429733333
2925;16539248000;16229733333;16429733333
2937;16539254000;16313044444;16513044444
2938;16539255000;16313044444;16513044444
2939;16539256000;16313044444;16513044444
2940;16539257000;16313044444;16513044444
2941;16539258000;16313044444;16513044444
2942;16539259000;16313044444;16513044444
2943;16539260000;16313044444;16513044444
2944;16539261000;16313044444;16513044444
2945;16539262000;16313044444;16513044444
2949;16664295000;16354711111;16554711111
2971;16747701000;16438088888;16638088888
2991;16789323000;16479744444;16679744444
3002;16830963000;16521422222;16721422222
3014;16830970000;16604688888;16804688888
3015;16830971000;16604688888;16804688888
3016;16830972000;16604688888;16804688888
3017;16830973000;16604688888;16804688888
3018;16830974000;16604688888;16804688888
3019;16830975000;16604688888;16804688888
3020;16830976000;16604688888;16804688888
3021;16830977000;16604688888;16804688888
3022;16830978000;16604688888;16804688888
3023;16830979000;16604688888;16804688888
3024;16914409000;16604688888;16804688888
3034;16914415000;16646433333;16846433333
3035;16955945000;16646433333;16846433333
3047;16955951000;16729744444;16929744444
3048;16955952000;16729744444;16929744444
3049;16955953000;16729744444;16929744444
3050;16955954000;16729744444;16929744444
3051;16955955000;16729744444;16929744444
3052;16955956000;16729744444;16929744444
3053;16955966000;16729744444;16929744444
3054;16955967000;16729744444;16929744444
3055;16955968000;16729744444;16929744444
3056;16955969000;16729744444;16929744444
3057;17039457000;16729744444;16929744444
3067;17039463000;16771455555;16971455555
3068;17080967000;16771455555;16971455555
3077;17080973000;16813077777;17013077777
3078;17080975000;16813077777;17013077777
3079;17122581000;16813077777;17013077777
3090;17164248000;16854733333;17054733333
3102;17164254000;16938044444;17138044444
3103;17164255000;16938044444;17138044444
3104;17164256000;16938044444;17138044444
3105;17164257000;16938044444;17138044444
3108;17186702000;16938044444;17138044444
3110;17186705000;16938044444;17138044444
3111;17186706000;16938044444;17138044444
3112;17247715000;16938044444;17138044444
3124;17247721000;17021444444;17221444444
3125;17247723000;17021444444;17221444444
3126;17247724000;17021444444;17221444444
3127;17247725000;17021444444;17221444444
3128;17247725000;17021444444;17221444444
3129;17247726000;17021444444;17221444444
3130;17247727000;17021444444;17221444444
3131;17247728000;17021444444;17221444444
3132;17247729000;17021444444;17221444444
3133;17247730000;17021444444;17221444444
3134;17331207000;17021444444;17221444444
3144;17331213000;17063055555;17263055555
3145;17372614000;17063055555;17263055555
3155;17372620000;17104722222;17304722222
3156;17414276000;17104722222;17304722222
3167;17455999000;17146444444;17346444444
3177;17456005000;17188055555;17388055555
3178;17497616000;17188055555;17388055555
3188;17497622000;17229711111;17429711111
3189;17539273000;17229711111;17429711111
3201;17539279000;17313033333;17513033333
3202;17539280000;17313033333;17513033333
3203;17539281000;17313033333;17513033333
3204;17539282000;17313033333;17513033333
3205;17539283000;17313033333;17513033333
3206;17539284000;17313033333;17513033333
3207;17539285000;17313033333;17513033333
3208;17539286000;17313033333;17513033333
3209;17539287000;17313033333;17513033333
3210;17539288000;17313033333;17513033333
3211;17622817000;17313033333;17513033333
3223;17622823000;17396433333;17596433333
3224;17622824000;17396433333;17596433333
3225;17622825000;17396433333;17596433333
3226;17622826000;17396433333;17596433333
3229;17645011000;17396433333;17596433333
3231;17645014000;17396433333;17596433333
3232;17645015000;17396433333;17596433333
3233;17706095000;17396433333;17596433333
3244;17747666000;17438088888;17638088888
3255;17789298000;17479722222;17679722222
3266;17830987000;17521433333;17721433333
3276;17830993000;17563100000;17763100000
3277;17872663000;17563100000;17763100000
3288;17914290000;17604711111;17804711111
3297;17914296000;17646455555;17846455555
3298;17914297000;17646455555;17846455555
3299;17956038000;17646455555;17846455555
3310;17997679000;17688100000;17888100000
3322;17997685000;17771455555;17971455555
3323;17997687000;17771455555;17971455555
3324;17997688000;17771455555;17971455555
3325;17997689000;17771455555;17971455555
3326;17997689000;17771455555;17971455555
3327;17997690000;17771455555;17971455555
3328;17997691000;17771455555;17971455555
3329;17997692000;17771455555;17971455555
3330;17997693000;17771455555;17971455555
3331;17997694000;17771455555;17971455555
3332;18081244000;17771455555;17971455555
3344;18081250000;17854755555;18054755555
3345;18081251000;17854755555;18054755555
3346;18081252000;17854755555;18054755555
3347;18081253000;17854755555;18054755555
3348;18081254000;17854755555;18054755555
3349;18081255000;17854755555;18054755555
3350;18081256000;17854755555;18054755555
3351;18081257000;17854755555;18054755555
3352;18081258000;17854755555;18054755555
3353;18081259000;17854755555;18054755555
3354;18164535000;17854755555;18054755555
3364;18164541000;17896422222;18096422222
3365;18206005000;17896422222;18096422222
3376;18247676000;17938111111;18138111111
3387;18289325000;17979744444;18179744444
3397;18289330000;18021455555;18221455555
3398;18331036000;18021455555;18221455555
3408;18331042000;18063122222;18263122222
3409;18372686000;18063122222;18263122222
3420;18414294000;18104733333;18304733333
3429;18414307000;18146466666;18346466666
3430;18414308000;18146466666;18346466666
3431;18456046000;18146466666;18346466666
3442;18497675000;18188111111;18388111111
3454;18497681000;18271477777;18471477777
3455;18497682000;18271477777;18471477777
3456;18497683000;18271477777;18471477777
3457;18497684000;18271477777;18471477777
3458;18497685000;18271477777;18471477777
3459;18497686000;18271477777;18471477777
3460;18497687000;18271477777;18471477777
3461;18497688000;18271477777;18471477777
3462;18497689000;18271477777;18471477777
3463;18497690000;18271477777;18471477777
3464;18581270000;18271477777;18471477777
3476;18581276000;18354711111;18554711111
3477;18581277000;18354711111;18554711111
3478;18581278000;18354711111;18554711111
3479;18581279000;18354711111;18554711111
3482;18603341000;18354711111;18554711111
3483;18603343000;18354711111;18554711111
3484;18603344000;18354711111;18554711111
3485;18603354000;18354711111;18554711111
3486;18664364000;18354711111;18554711111
3494;18664370000;18396444444;18596444444
3495;18664372000;18396444444;18596444444
3496;18664373000;18396444444;18596444444
3497;18706009000;18396444444;18596444444
3507;18706015000;18438122222;18638122222
3508;18747702000;18438122222;18638122222
3518;18747708000;18479755555;18679755555
3521;18831113000;18521433333;18721433333
3542;18914522000;18604744444;18804744444
3559;18956013000;18646433333;18846433333
3570;18997668000;18688100000;18888100000
3581;19039307000;18729733333;18929733333
3593;19081034000;18771466666;18971466666
3606;19122696000;18813100000;19013100000
3618;19164419000;18854733333;19054733333
3631;19186918000;18938055555;19138055555
3633;19186920000;18938055555;19138055555
3634;19186921000;18938055555;19138055555
3635;19186922000;18938055555;19138055555
3636;19186923000;18938055555;19138055555
3637;19186924000;18938055555;19138055555
3640;19247711000;18938055555;19138055555
3652;19247717000;19021433333;19221433333
3653;19247718000;19021433333;19221433333
3654;19247729000;19021433333;19221433333
3655;19247730000;19021433333;19221433333
3656;19247731000;19021433333;19221433333
3657;19247732000;19021433333;19221433333
3658;19247734000;19021433333;19221433333
3659;19247735000;19021433333;19221433333
3660;19247736000;19021433333;19221433333
3661;19247737000;19021433333;19221433333
3662;19331226000;19021433333;19221433333
3672;19331232000;19063133333;19263133333
3673;19372691000;19063133333;19263133333
3685;19372697000;19146466666;19346466666
3686;19372698000;19146466666;19346466666
3687;19372699000;19146466666;19346466666
3688;19372700000;19146466666;19346466666
3689;19372701000;19146466666;19346466666
3690;19372702000;19146466666;19346466666
3691;19372703000;19146466666;19346466666
3692;19372704000;19146466666;19346466666
3693;19372705000;19146466666;19346466666
3694;19372706000;19146466666;19346466666
3695;19456252000;19146466666;19346466666
3706;19497665000;19188088888;19388088888
3717;19539298000;19229733333;19429733333
3728;19581045000;19271466666;19471466666
3736;19581051000;19313055555;19513055555
3737;19581052000;19313055555;19513055555
3738;19581053000;19313055555;19513055555
3739;19622635000;19313055555;19513055555
3750;19664278000;19354711111;19554711111
3761;19706014000;19396433333;19596433333
3772;19747630000;19438044444;19638044444
3784;19747636000;19521444444;19721444444
3785;19747637000;19521444444;19721444444
3786;19747638000;19521444444;19721444444
3787;19747639000;19521444444;19721444444
3788;19747640000;19521444444;19721444444
3789;19747641000;19521444444;19721444444
3790;19747642000;19521444444;19721444444
3791;19747643000;19521444444;19721444444
3792;19747644000;19521444444;19721444444
3793;19747645000;19521444444;19721444444
3794;19831234000;19521444444;19721444444
3801;19831240000;19563088888;19763088888
3802;19831241000;19563088888;19763088888
3803;19831242000;19563088888;19763088888
3804;19831243000;19563088888;19763088888
3805;19872654000;19563088888;19763088888
3816;19914251000;19604688888;19804688888
3826;19914257000;19646422222;19846422222
3827;19955986000;19646422222;19846422222
3838;19997658000;19688100000;19888100000
3850;19997672000;19771444444;19971444444
3851;19997674000;19771444444;19971444444
3852;19997675000;19771444444;19971444444
3853;19997676000;19771444444;19971444444
3854;19997677000;19771444444;19971444444
3855;19997678000;19771444444;19971444444
3856;19997679000;19771444444;19971444444
3857;19997680000;19771444444;19971444444
3858;19997681000;19771444444;19971444444
3859;19997682000;19771444444;19971444444
3860;20081235000;19771444444;19971444444
3871;20122676000;19813100000;20013100000
3882;20164300000;19854744444;20054744444
3892;20164307000;19896444444;20096444444
3893;20206009000;19896444444;20096444444
3905;20206015000;19979722222;20179722222
3906;20206016000;19979722222;20179722222
3907;20206017000;19979722222;20179722222
3908;20206018000;19979722222;20179722222
3909;20206019000;19979722222;20179722222
3910;20206020000;19979722222;20179722222
3911;20206021000;19979722222;20179722222
3912;20206022000;19979722222;20179722222
3913;20206023000;19979722222;20179722222
3914;20206024000;19979722222;20179722222
3915;20289508000;19979722222;20179722222
3926;20331023000;20021444444;20221444444
3937;20372621000;20063055555;20263055555
3948;20414264000;20104700000;20304700000
3960;20414270000;20188055555;20388055555
3961;20414271000;20188055555;20388055555
3962;20414272000;20188055555;20388055555
3963;20414273000;20188055555;20388055555
3964;20414274000;20188055555;20388055555
3965;20414275000;20188055555;20388055555
3966;20414276000;20188055555;20388055555
3967;20414277000;20188055555;20388055555
3968;20414278000;20188055555;20388055555
3969;20414279000;20188055555;20388055555
3970;20497840000;20188055555;20388055555
3981;20539287000;20229711111;20429711111
3992;20581033000;20271455555;20471455555
4003;20622616000;20313033333;20513033333
4014;20664306000;20354744444;20554744444
4021;20664311000;20396466666;20596466666
4022;20664313000;20396466666;20596466666
4023;20664314000;20396466666;20596466666
4024;20664315000;20396466666;20596466666
4025;20706039000;20396466666;20596466666
4036;20747695000;20438100000;20638100000
4047;20789310000;20479733333;20679733333
4058;20831019000;20521444444;20721444444
4072;20853360000;20604722222;20804722222
4073;20853362000;20604722222;20804722222
4074;20853363000;20604722222;20804722222
4075;20853364000;20604722222;20804722222
4076;20853365000;20604722222;20804722222
4077;20853366000;20604722222;20804722222
4078;20853367000;20604722222;20804722222
4079;20853368000;20604722222;20804722222
4080;20914372000;20604722222;20804722222
4091;20955989000;20646433333;20846433333
4102;20997660000;20688100000;20888100000
4111;20997666000;20729744444;20929744444
4112;20997667000;20729744444;20929744444
4113;21039320000;20729744444;20929744444
4125;21039326000;20813122222;21013122222
4126;21039327000;20813122222;21013122222
4127;21039328000;20813122222;21013122222
4128;21039329000;20813122222;21013122222
4129;21039330000;20813122222;21013122222
4130;21039331000;20813122222;21013122222
4131;21039332000;20813122222;21013122222
4132;21039333000;20813122222;21013122222
4133;21039334000;20813122222;21013122222
4134;21039335000;20813122222;21013122222
4135;21122907000;20813122222;21013122222
4143;21122913000;20854777777;21054777777
4144;21122914000;20854777777;21054777777
4145;21122916000;20854777777;21054777777
4146;21164338000;20854777777;21054777777
4158;21164344000;20938077777;21138077777
4159;21164345000;20938077777;21138077777
4160;21164346000;20938077777;21138077777
4161;21164347000;20938077777;21138077777
4162;21164348000;20938077777;21138077777
4163;21164349000;20938077777;21138077777
4164;21164350000;20938077777;21138077777
4165;21164351000;20938077777;21138077777
4166;21164352000;20938077777;21138077777
4167;21164353000;20938077777;21138077777
4168;21247863000;20938077777;21138077777
4178;21247870000;20979744444;21179744444
4179;21289323000;20979744444;21179744444
4190;21331024000;21021444444;21221444444
4201;21372703000;21063111111;21263111111
4211;21372709000;21104733333;21304733333
4212;21414297000;21104733333;21304733333
4222;21414312000;21146466666;21346466666
4223;21456012000;21146466666;21346466666
4235;21456037000;21229755555;21429755555
4236;21456038000;21229755555;21429755555
4237;21456039000;21229755555;21429755555
4240;21478438000;21229755555;21429755555
4241;21478439000;21229755555;21429755555
4242;21478440000;21229755555;21429755555
4243;21478441000;21229755555;21429755555
4244;21478442000;21229755555;21429755555
4245;21539430000;21229755555;21429755555
4257;21539436000;21313044444;21513044444
4258;21539437000;21313044444;21513044444
4259;21539438000;21313044444;21513044444
4260;21539439000;21313044444;21513044444
4261;21539440000;21313044444;21513044444
4262;21539441000;21313044444;21513044444
4263;21539442000;21313044444;21513044444
4264;21539443000;21313044444;21513044444
4267;21622696000;21313044444;21513044444
4278;21664303000;21354744444;21554744444
4289;21706034000;21396455555;21596455555
4299;21706040000;21438122222;21638122222
4300;21747687000;21438122222;21638122222
4310;21747693000;21479733333;21679733333
4311;21789312000;21479733333;21679733333
4322;21831069000;21521488888;21721488888
4333;21872712000;21563133333;21763133333
4345;21872718000;21646444444;21846444444
4346;21872719000;21646444444;21846444444
4347;21872720000;21646444444;21846444444
4348;21872721000;21646444444;21846444444
4351;21895217000;21646444444;21846444444
4352;21895219000;21646444444;21846444444
4353;21895220000;21646444444;21846444444
4354;21895221000;21646444444;21846444444
4355;21955988000;21646444444;21846444444
4366;21997640000;21688133333;21888133333
4374;21997646000;21729744444;21929744444
4375;21997647000;21729744444;21929744444
4376;21997648000;21729744444;21929744444
4377;22039256000;21729744444;21929744444
4387;22039262000;21771455555;21971455555
4388;22080968000;21771455555;21971455555
4400;22080974000;21854766666;22054766666
4401;22080975000;21854766666;22054766666
4402;22080976000;21854766666;22054766666
4403;22080978000;21854766666;22054766666
4404;22080978000;21854766666;22054766666
4405;22080979000;21854766666;22054766666
4406;22080980000;21854766666;22054766666
4407;22080981000;21854766666;22054766666
4408;22080982000;21854766666;22054766666
4409;22080983000;21854766666;22054766666
4410;22164500000;21854766666;22054766666
4422;22164506000;21938088888;22138088888
4423;22164508000;21938088888;22138088888
4424;22164509000;21938088888;22138088888
4425;22164510000;21938088888;22138088888
4426;22164518000;21938088888;22138088888
4427;22164519000;21938088888;22138088888
4428;22164520000;21938088888;22138088888
4431;22187037000;21938088888;22138088888
4433;22289595000;21979777777;22179777777
4450;22331016000;22021488888;22221488888
4462;22372615000;22063100000;22263100000
4474;22414224000;22104711111;22304711111
4486;22455974000;22146455555;22346455555
4499;22539457000;22229733333;22429733333
4519;22580949000;22271433333;22471433333
4531;22622639000;22313055555;22513055555
4542;22664246000;22354733333;22554733333
4553;22705960000;22396433333;22596433333
4564;22747585000;22438100000;22638100000
4575;22789225000;22479711111;22679711111
4586;22830938000;22521422222;22721422222
4597;22872540000;22563044444;22763044444
4608;22914193000;22604677777;22804677777
4618;22914199000;22646444444;22846444444
4619;22955960000;22646444444;22846444444
4629;22955966000;22688066666;22888066666
4630;22997579000;22688066666;22888066666
4641;23039270000;22729744444;22929744444
4652;23080978000;22771444444;22971444444
4664;23080984000;22854711111;23054711111
4665;23080986000;22854711111;23054711111
4666;23080986000;22854711111;23054711111
4667;23080987000;22854711111;23054711111
4668;23080988000;22854711111;23054711111
4669;23080989000;22854711111;23054711111
4672;23103486000;22854711111;23054711111
4673;23103488000;22854711111;23054711111
4674;23164311000;22854711111;23054711111
4685;23205924000;22896411111;23096411111
4694;23205930000;22938055555;23138055555
4695;23205932000;22938055555;23138055555
4696;23247568000;22938055555;23138055555
4707;23289217000;22979733333;23179733333
4717;23289223000;23021466666;23221466666
4718;23330970000;23021466666;23221466666
4729;23372602000;23063088888;23263088888
4741;23372608000;23146455555;23346455555
4742;23372617000;23146455555;23346455555
4743;23372618000;23146455555;23346455555
4744;23372619000;23146455555;23346455555
4745;23372620000;23146455555;23346455555
4746;23372621000;23146455555;23346455555
4747;23372622000;23146455555;23346455555
4748;23372623000;23146455555;23346455555
4749;23372624000;23146455555;23346455555
4750;23372624000;23146455555;23346455555
4751;23456192000;23146455555;23346455555
4762;23497611000;23188100000;23388100000
4773;23539280000;23229766666;23429766666
4787;23561653000;23313088888;23513088888
4788;23561655000;23313088888;23513088888
4789;23561656000;23313088888;23513088888
4790;23561657000;23313088888;23513088888
4791;23561658000;23313088888;23513088888
4792;23561660000;23313088888;23513088888
4793;23561661000;23313088888;23513088888
4794;23561662000;23313088888;23513088888
4795;23622718000;23313088888;23513088888
4806;23664237000;23354722222;23554722222
4817;23705984000;23396455555;23596455555
4828;23747591000;23438077777;23638077777
4839;23789281000;23479777777;23679777777
4850;23830957000;23521444444;23721444444
4860;23830963000;23563166666;23763166666
4861;23872653000;23563166666;23763166666
4872;23914275000;23604733333;23804733333
4883;23955994000;23646477777;23846477777
4893;23956000000;23688133333;23888133333
4894;23997636000;23688133333;23888133333
4905;24039258000;23729755555;23929755555
4916;24080971000;23771466666;23971466666
4927;24122612000;23813100000;24013100000
4936;24122618000;23854777777;24054777777
4937;24122619000;23854777777;24054777777
4938;24164290000;23854777777;24054777777
4947;24164296000;23896444444;24096444444
4948;24164297000;23896444444;24096444444
4949;24205982000;23896444444;24096444444
4960;24247615000;23938100000;24138100000
4969;24247621000;23979777777;24179777777
4970;24247622000;23979777777;24179777777
4971;24289290000;23979777777;24179777777
4977;24289296000;24021477777;24221477777
4978;24289297000;24021477777;24221477777
4979;24289298000;24021477777;24221477777
4982;24330888000;24021477777;24221477777
4983;24330894000;24063100000;24263100000
4984;24330895000;24063100000;24263100000
4985;24330896000;24063100000;24263100000
4986;24330897000;24063100000;24263100000
4987;24330898000;24063100000;24263100000
4989;24372608000;24063100000;24263100000
4990;24372621000;24063100000;24263100000
4993;24372682000;24063100000;24263100000
4994;24372686000;24104722222;24304722222
4995;24372687000;24104722222;24304722222
4996;24372688000;24104722222;24304722222
4997;24372689000;24104722222;24304722222
4998;24372690000;24104722222;24304722222
4999;24372691000;24104722222;24304722222
5000;24372692000;24104722222;24304722222
5001;24372693000;24104722222;24304722222
5002;24372694000;24104722222;24304722222
5003;24372695000;24104722222;24304722222
5004;24414207000;24104722222;24304722222
5006;24456187000;24146466666;24346466666
5007;24456200000;24146466666;24346466666
5008;24456201000;24146466666;24346466666
5009;24456202000;24146466666;24346466666
5010;24456203000;24146466666;24346466666
5011;24456204000;24146466666;24346466666
5012;24456205000;24146466666;24346466666
5013;24456206000;24146466666;24346466666
5014;24456207000;24146466666;24346466666
5015;24456267000;24146466666;24346466666
5016;24456271000;24188111111;24388111111
5017;24456272000;24188111111;24388111111
5018;24456273000;24188111111;24388111111
5019;24456274000;24188111111;24388111111
5269;25490360000;25146422222;25346422222
5301;25572954000;25229800000;25429800000
5325;25603375000;25354800000;25554800000
5327;25603378000;25354800000;25554800000
5328;25603379000;25354800000;25554800000
5329;25603380000;25354800000;25554800000
5330;25603381000;25354800000;25554800000
5331;25603382000;25354800000;25554800000
5332;25603383000;25354800000;25554800000
5333;25603384000;25354800000;25554800000
5336;25739649000;25396488888;25596488888
5358;25822755000;25479788888;25679788888
5377;25864392000;25521488888;25721488888
5390;25947883000;25604777777;25804777777
5411;25989448000;25646500000;25846500000
5423;25989454000;25729777777;25929777777
5424;25989455000;25729777777;25929777777
5425;25989456000;25729777777;25929777777
5428;26019802000;25729777777;25929777777
5429;26019805000;25729777777;25929777777
5430;26019815000;25729777777;25929777777
5431;26019816000;25729777777;25929777777
5432;26019817000;25729777777;25929777777
5433;26072728000;25729777777;25929777777
5456;26072734000;25854811111;26054811111
5457;26072735000;25854811111;26054811111
5458;26072736000;25854811111;26054811111
5459;26072737000;25854811111;26054811111
5460;26072738000;25854811111;26054811111
5461;26072739000;25854811111;26054811111
5462;26072740000;25854811111;26054811111
5463;26072741000;25854811111;26054811111
5464;26072742000;25854811111;26054811111
5465;26072743000;25854811111;26054811111
5466;26198126000;25854811111;26054811111
5467;26198133000;25896477777;26096477777
5468;26198134000;25896477777;26096477777
5469;26198136000;25896477777;26096477777
5470;26198138000;25896477777;26096477777
5471;26198139000;25896477777;26096477777
5472;26198140000;25896477777;26096477777
5473;26198142000;25896477777;26096477777
5474;26198143000;25896477777;26096477777
5475;26198145000;25896477777;26096477777
5476;26198146000;25896477777;26096477777
5477;26239376000;25896477777;26096477777
5478;26239381000;25938155555;26138155555
5479;26239383000;25938155555;26138155555
5480;26239384000;25938155555;26138155555
5481;26239385000;25938155555;26138155555
5482;26239386000;25938155555;26138155555
5483;26239386000;25938155555;26138155555
5484;26239387000;25938155555;26138155555
5485;26239388000;25938155555;26138155555
5486;26239389000;25938155555;26138155555
5487;26239390000;25938155555;26138155555
5488;26281051000;25938155555;26138155555
5489;26281057000;25979822222;26179822222
5490;26281058000;25979822222;26179822222
5491;26281059000;25979822222;26179822222
5492;26281060000;25979822222;26179822222
5493;26281061000;25979822222;26179822222
5494;26281062000;25979822222;26179822222
5495;26281063000;25979822222;26179822222
5496;26281064000;25979822222;26179822222
5497;26281065000;25979822222;26179822222
5498;26281066000;25979822222;26179822222
5499;26322720000;25979822222;26179822222
