seqnum;now;rtptime;deadline
56;6228747000;5925355555;6125355555
57;6228750000;5925355555;6125355555
58;6228751000;5925355555;6125355555
59;6228753000;5925355555;6125355555
60;6228754000;5925355555;6125355555
61;6228756000;5925355555;6125355555
62;6228758000;5925355555;6125355555
118;6436598000;6133655555;6333655555
121;6477921000;6175366666;6375366666
144;6561276000;6258644444;6458644444
153;6561386000;6258644444;6458644444
154;6561391000;6300366666;6500366666
155;6561393000;6300366666;6500366666
156;6561393000;6300366666;6500366666
157;6561395000;6300366666;6500366666
158;6561395000;6300366666;6500366666
161;6574924000;6300366666;6500366666
162;6574927000;6300366666;6500366666
163;6574928000;6300366666;6500366666
164;6602851000;6300366666;6500366666
165;6602867000;6342044444;6542044444
166;6602868000;6342044444;6542044444
167;6602869000;6342044444;6542044444
168;6602870000;6342044444;6542044444
169;6602871000;6342044444;6542044444
170;6602872000;6342044444;6542044444
171;6602873000;6342044444;6542044444
172;6602873000;6342044444;6542044444
173;6602875000;6342044444;6542044444
174;6602875000;6342044444;6542044444
175;6644603000;6342044444;6542044444
176;6644608000;6383677777;6583677777
177;6644610000;6383677777;6583677777
178;6644610000;6383677777;6583677777
179;6644611000;6383677777;6583677777
180;6644612000;6383677777;6583677777
181;6644613000;6383677777;6583677777
182;6644614000;6383677777;6583677777
183;6644615000;6383677777;6583677777
184;6644616000;6383677777;6583677777
185;6644617000;6383677777;6583677777
186;6686159000;6383677777;6583677777
190;6702211000;6425422222;6625422222
191;6702213000;6425422222;6625422222
192;6702223000;6425422222;6625422222
193;6702224000;6425422222;6625422222
194;6702225000;6425422222;6625422222
195;6702226000;6425422222;6625422222
196;6702227000;6425422222;6625422222
197;6727882000;6425422222;6625422222
206;6727887000;6466966666;6666966666
207;6727889000;6466966666;6666966666
208;6769506000;6466966666;6666966666
217;6769521000;6508644444;6708644444
218;6769522000;6508644444;6708644444
219;6811186000;6508644444;6708644444
229;6811192000;6550377777;6750377777
230;6852864000;6550377777;6750377777
231;6852880000;6591988888;6791988888
232;6852882000;6591988888;6791988888
233;6852883000;6591988888;6791988888
234;6852885000;6591988888;6791988888
235;6852886000;6591988888;6791988888
236;6852888000;6591988888;6791988888
237;6852889000;6591988888;6791988888
238;6852890000;6591988888;6791988888
239;6852892000;6591988888;6791988888
240;6852893000;6591988888;6791988888
241;6894471000;6591988888;6791988888
253;6894487000;6675444444;6875444444
254;6894489000;6675444444;6875444444
255;6894490000;6675444444;6875444444
256;6894491000;6675444444;6875444444
257;6894493000;6675444444;6875444444
258;6894494000;6675444444;6875444444
259;6894496000;6675444444;6875444444
260;6894497000;6675444444;6875444444
261;6894498000;6675444444;6875444444
262;6894500000;6675444444;6875444444
263;6978220000;6675444444;6875444444
274;7019586000;6717044444;6917044444
280;7019592000;6758633333;6958633333
281;7019593000;6758633333;6958633333
282;7019594000;6758633333;6958633333
283;7019595000;6758633333;6958633333
284;7019596000;6758633333;6958633333
285;7061167000;6758633333;6958633333
296;7103001000;6800444444;7000444444
306;7103007000;6842055555;7042055555
307;7144600000;6842055555;7042055555
318;7186242000;6883700000;7083700000
329;7227946000;6925388888;7125388888
340;7269644000;6967100000;7167100000
351;7311133000;7008722222;7208722222
362;7352977000;7050422222;7250422222
373;7394586000;7092022222;7292022222
384;7436117000;7133700000;7333700000
395;7477955000;7175411111;7375411111
406;7519670000;7217022222;7417022222
417;7561316000;7258711111;7458711111
428;7603063000;7300422222;7500422222
438;7603094000;7342022222;7542022222
439;7644638000;7342022222;7542022222
450;7686362000;7383722222;7583722222
460;7686391000;7425433333;7625433333
461;7728029000;7425433333;7625433333
473;7728042000;7508722222;7708722222
474;7728044000;7508722222;7708722222
475;7728046000;7508722222;7708722222
476;7728047000;7508722222;7708722222
477;7728049000;7508722222;7708722222
478;7728080000;7508722222;7708722222
479;7728081000;7508722222;7708722222
480;7728083000;7508722222;7708722222
481;7728084000;7508722222;7708722222
482;7728085000;7508722222;7708722222
483;7811476000;7508722222;7708722222
495;7811481000;7592066666;7792066666
496;7811483000;7592066666;7792066666
497;7811483000;7592066666;7792066666
498;7811484000;7592066666;7792066666
499;7811485000;7592066666;7792066666
500;7811486000;7592066666;7792066666
501;7811487000;7592066666;7792066666
502;7811488000;7592066666;7792066666
503;7811489000;7592066666;7792066666
504;7811490000;7592066666;7792066666
505;7894822000;7592066666;7792066666
516;7936267000;7633711111;7833711111
525;7936272000;7675411111;7875411111
526;7936274000;7675411111;7875411111
527;7977957000;7675411111;7875411111
538;8019580000;7717088888;7917088888
549;8061176000;7758700000;7958700000
561;8061181000;7842066666;8042066666
562;8061182000;7842066666;8042066666
563;8061193000;7842066666;8042066666
564;8061194000;7842066666;8042066666
565;8061195000;7842066666;8042066666
566;8061197000;7842066666;8042066666
567;8061198000;7842066666;8042066666
568;8061200000;7842066666;8042066666
569;8061201000;7842066666;8042066666
570;8061202000;7842066666;8042066666
571;8144869000;7842066666;8042066666
580;8144881000;7883711111;8083711111
581;8144884000;7883711111;8083711111
582;8186268000;7883711111;8083711111
593;8227939000;7925455555;8125455555
605;8227955000;8008711111;8208711111
606;8227957000;8008711111;8208711111
607;8227958000;8008711111;8208711111
608;8227960000;8008711111;8208711111
609;8227962000;8008711111;8208711111
610;8227963000;8008711111;8208711111
611;8227964000;8008711111;8208711111
612;8227966000;8008711111;8208711111
613;8227967000;8008711111;8208711111
616;8353268000;8050422222;8250422222
636;8394591000;8092033333;8292033333
649;8478174000;8175400000;8375400000
668;8519602000;8217055555;8417055555
681;8561375000;8258744444;8458744444
692;8602966000;8300422222;8500422222
703;8644583000;8342033333;8542033333
714;8686243000;8383700000;8583700000
725;8727989000;8425444444;8625444444
735;8727995000;8467055555;8667055555
736;8769609000;8467055555;8667055555
747;8811224000;8508688888;8708688888
757;8811230000;8550444444;8750444444
758;8852988000;8550444444;8750444444
770;8852994000;8633700000;8833700000
771;8852995000;8633700000;8833700000
772;8852996000;8633700000;8833700000
773;8852997000;8633700000;8833700000
774;8852998000;8633700000;8833700000
775;8852999000;8633700000;8833700000
776;8853000000;8633700000;8833700000
777;8853001000;8633700000;8833700000
778;8853001000;8633700000;8833700000
779;8853002000;8633700000;8833700000
780;8936458000;8633700000;8833700000
791;8977986000;8675444444;8875444444
802;9019587000;8717044444;8917044444
810;9019593000;8758744444;8958744444
811;9019594000;8758744444;8958744444
812;9019595000;8758744444;8958744444
815;9103001000;8800444444;9000444444
835;9144615000;8842033333;9042033333
846;9186147000;8883688888;9083688888
857;9227897000;8925422222;9125422222
868;9269565000;8967088888;9167088888
881;9297432000;9050455555;9250455555
882;9297435000;9050455555;9250455555
883;9297437000;9050455555;9250455555
884;9297438000;9050455555;9250455555
885;9297440000;9050455555;9250455555
886;9297441000;9050455555;9250455555
887;9297443000;9050455555;9250455555
888;9297453000;9050455555;9250455555
889;9297454000;9050455555;9250455555
890;9353080000;9050455555;9250455555
901;9394444000;9092033333;9292033333
912;9436232000;9133688888;9333688888
923;9477836000;9175433333;9375433333
933;9477842000;9217044444;9417044444
934;9519588000;9217044444;9417044444
945;9561218000;9258722222;9458722222
956;9603003000;9300455555;9500455555
968;9603017000;9383722222;9583722222
969;9603019000;9383722222;9583722222
970;9603020000;9383722222;9583722222
971;9603021000;9383722222;9583722222
972;9603022000;9383722222;9583722222
973;9603022000;9383722222;9583722222
974;9603023000;9383722222;9583722222
975;9603024000;9383722222;9583722222
976;9603025000;9383722222;9583722222
977;9603026000;9383722222;9583722222
978;9686396000;9383722222;9583722222
989;9727910000;9425433333;9625433333
1000;9769615000;9467088888;9667088888
1011;9811282000;9508722222;9708722222
1022;9852952000;9550433333;9750433333
1033;9894665000;9592122222;9792122222
1044;9936313000;9633733333;9833733333
1055;9977952000;9675444444;9875444444
1066;10019626000;9717066666;9917066666
1077;10061302000;9758744444;9958744444
1088;10102987000;9800444444;10000444444
1097;10102993000;9842055555;10042055555
1098;10102994000;9842055555;10042055555
1099;10144609000;9842055555;10042055555
1110;10186193000;9883722222;10083722222
1119;10186198000;9925433333;10125433333
1120;10186200000;9925433333;10125433333
1121;10227990000;9925433333;10125433333
1130;10227996000;9967100000;10167100000
1131;10227997000;9967100000;10167100000
1132;10269643000;9967100000;10167100000
1143;10311287000;10008744444;10208744444
1154;10352940000;10050422222;10250422222
1166;10352946000;10133677777;10333677777
1167;10352956000;10133677777;10333677777
1168;10352957000;10133677777;10333677777
1169;10352958000;10133677777;10333677777
1170;10352959000;10133677777;10333677777
1171;10352960000;10133677777;10333677777
1172;10352961000;10133677777;10333677777
1173;10352962000;10133677777;10333677777
1174;10352963000;10133677777;10333677777
1175;10352964000;10133677777;10333677777
1176;10436419000;10133677777;10333677777
1186;10436425000;10175422222;10375422222
1187;10477952000;10175422222;10375422222
1198;10519631000;10217088888;10417088888
1209;10561279000;10258722222;10458722222
1221;10561285000;10342088888;10542088888
1222;10561287000;10342088888;10542088888
1223;10561288000;10342088888;10542088888
1224;10561289000;10342088888;10542088888
1225;10561290000;10342088888;10542088888
1226;10561291000;10342088888;10542088888
1227;10561292000;10342088888;10542088888
1228;10561293000;10342088888;10542088888
1229;10561294000;10342088888;10542088888
1230;10561295000;10342088888;10542088888
1231;10644825000;10342088888;10542088888
1242;10686279000;10383722222;10583722222
1253;10727846000;10425433333;10625433333
1264;10769652000;10467100000;10667100000
1275;10811269000;10508733333;10708733333
1286;10852967000;10550433333;10750433333
1297;10894631000;10592100000;10792100000
1308;10936262000;10633722222;10833722222
1318;10936268000;10675455555;10875455555
1319;10977963000;10675455555;10875455555
1330;11019622000;10717077777;10917077777
1341;11061228000;10758700000;10958700000
1353;11061233000;10842077777;11042077777
1354;11061235000;10842077777;11042077777
1355;11061236000;10842077777;11042077777
1356;11061236000;10842077777;11042077777
1357;11061238000;10842077777;11042077777
1358;11061239000;10842077777;11042077777
1359;11061239000;10842077777;11042077777
1360;11061240000;10842077777;11042077777
1361;11061241000;10842077777;11042077777
1362;11061242000;10842077777;11042077777
1363;11144818000;10842077777;11042077777
1374;11186264000;10883722222;11083722222
1385;11227997000;10925455555;11125455555
1396;11269643000;10967100000;11167100000
1407;11311272000;11008711111;11208711111
1418;11352998000;11050455555;11250455555
1428;11353004000;11092111111;11292111111
1429;11394654000;11092111111;11292111111
1440;11436243000;11133711111;11333711111
1450;11436249000;11175422222;11375422222
1451;11477966000;11175422222;11375422222
1465;11505663000;11258711111;11458711111
1466;11505666000;11258711111;11458711111
1467;11505667000;11258711111;11458711111
1468;11505668000;11258711111;11458711111
1469;11505669000;11258711111;11458711111
1470;11505670000;11258711111;11458711111
1471;11505671000;11258711111;11458711111
1472;11505672000;11258711111;11458711111
1473;11561314000;11258711111;11458711111
1485;11561321000;11342088888;11542088888
1486;11561322000;11342088888;11542088888
1487;11561323000;11342088888;11542088888
1488;11561324000;11342088888;11542088888
1489;11561325000;11342088888;11542088888
1490;11561326000;11342088888;11542088888
1491;11561327000;11342088888;11542088888
1492;11561328000;11342088888;11542088888
1493;11561329000;11342088888;11542088888
1494;11561330000;11342088888;11542088888
1495;11644839000;11342088888;11542088888
1506;11686203000;11383722222;11583722222
1517;11727861000;11425388888;11625388888
1527;11727866000;11467033333;11667033333
1528;11769595000;11467033333;11667033333
1539;11811210000;11508700000;11708700000
1549;11811217000;11550455555;11750455555
1550;11853013000;11550455555;11750455555
1562;11853019000;11633722222;11833722222
1563;11853021000;11633722222;11833722222
1564;11853021000;11633722222;11833722222
1565;11853022000;11633722222;11833722222
1566;11853023000;11633722222;11833722222
1567;11853024000;11633722222;11833722222
1568;11853025000;11633722222;11833722222
1569;11853026000;11633722222;11833722222
1570;11853027000;11633722222;11833722222
1571;11853028000;11633722222;11833722222
1572;11936471000;11633722222;11833722222
1584;11936477000;11717100000;11917100000
1585;11936478000;11717100000;11917100000
1586;11936479000;11717100000;11917100000
1587;11936480000;11717100000;11917100000
1588;11936481000;11717100000;11917100000
1589;11936482000;11717100000;11917100000
1590;11936482000;11717100000;11917100000
1591;11936483000;11717100000;11917100000
1592;11936484000;11717100000;11917100000
1593;11936485000;11717100000;11917100000
1594;12019874000;11717100000;11917100000
1604;12019880000;11758722222;11958722222
1605;12061263000;11758722222;11958722222
1615;12061269000;11800466666;12000466666
1616;12103023000;11800466666;12000466666
1627;12144614000;11842100000;12042100000
1639;12144620000;11925455555;12125455555
1640;12144621000;11925455555;12125455555
1641;12144622000;11925455555;12125455555
1642;12144623000;11925455555;12125455555
1643;12144624000;11925455555;12125455555
1644;12144625000;11925455555;12125455555
1645;12144626000;11925455555;12125455555
1646;12144626000;11925455555;12125455555
1650;12269869000;11967044444;12167044444
1671;12311328000;12008722222;12208722222
1682;12352986000;12050444444;12250444444
1693;12394570000;12092055555;12292055555
1704;12436210000;12133700000;12333700000
1715;12477965000;12175422222;12375422222
1725;12477971000;12217111111;12417111111
1726;12519653000;12217111111;12417111111
1737;12561241000;12258711111;12458711111
1748;12602988000;12300444444;12500444444
1760;12602994000;12383755555;12583755555
1761;12602995000;12383755555;12583755555
1762;12602996000;12383755555;12583755555
1763;12602997000;12383755555;12583755555
1764;12602998000;12383755555;12583755555
1765;12602999000;12383755555;12583755555
1766;12603000000;12383755555;12583755555
1767;12603001000;12383755555;12583755555
1768;12603002000;12383755555;12583755555
1769;12603003000;12383755555;12583755555
1770;12686507000;12383755555;12583755555
1781;12727972000;12425433333;12625433333
1792;12769588000;12467044444;12667044444
1803;12811255000;12508711111;12708711111
1813;12811261000;12550466666;12750466666
1814;12852984000;12550466666;12750466666
1825;12894659000;12592066666;12792066666
1833;12894665000;12633711111;12833711111
1834;12894666000;12633711111;12833711111
1835;12894667000;12633711111;12833711111
1836;12936238000;12633711111;12833711111
1848;12936245000;12717022222;12917022222
1849;12936246000;12717022222;12917022222
1850;12936247000;12717022222;12917022222
1851;12936248000;12717022222;12917022222
1852;12936249000;12717022222;12917022222
1853;12936250000;12717022222;12917022222
1854;12936251000;12717022222;12917022222
1855;12936252000;12717022222;12917022222
1856;12936253000;12717022222;12917022222
1857;12936254000;12717022222;12917022222
1858;13019742000;12717022222;12917022222
1870;13019749000;12800422222;13000422222
1871;13019750000;12800422222;13000422222
1872;13019751000;12800422222;13000422222
1873;13019752000;12800422222;13000422222
1874;13019753000;12800422222;13000422222
1875;13019754000;12800422222;13000422222
1876;13019755000;12800422222;13000422222
1877;13019756000;12800422222;13000422222
1878;13019757000;12800422222;13000422222
1879;13019758000;12800422222;13000422222
1880;13103147000;12800422222;13000422222
1889;13103153000;12842055555;13042055555
1890;13103155000;12842055555;13042055555
1891;13144595000;12842055555;13042055555
1901;13144601000;12883722222;13083722222
1902;13186266000;12883722222;13083722222
1913;13227958000;12925400000;13125400000
1924;13269609000;12967044444;13167044444
1935;13311246000;13008711111;13208711111
1946;13352968000;13050422222;13250422222
1957;13394600000;13092055555;13292055555
1969;13394615000;13175388888;13375388888
1970;13394616000;13175388888;13375388888
1971;13394618000;13175388888;13375388888
1972;13394619000;13175388888;13375388888
1973;13394620000;13175388888;13375388888
1974;13394620000;13175388888;13375388888
1975;13394621000;13175388888;13375388888
1976;13394622000;13175388888;13375388888
1977;13394623000;13175388888;13375388888
1978;13394624000;13175388888;13375388888
1979;13478172000;13175388888;13375388888
1988;13478177000;13217066666;13417066666
1989;13478179000;13217066666;13417066666
1990;13519615000;13217066666;13417066666
2001;13561253000;13258722222;13458722222
2012;13602988000;13300444444;13500444444
2020;13602994000;13342088888;13542088888
2021;13602995000;13342088888;13542088888
2022;13602996000;13342088888;13542088888
2025;13686360000;13383744444;13583744444
2044;13727976000;13425433333;13625433333
2057;13811477000;13508722222;13708722222
2078;13853094000;13550444444;13750444444
2089;13894630000;13592066666;13792066666
2100;13936262000;13633722222;13833722222
2111;13977966000;13675422222;13875422222
2122;14019667000;13717122222;13917122222
2133;14061287000;13758744444;13958744444
2144;14103011000;13800466666;14000466666
2155;14144629000;13842088888;14042088888
2166;14186241000;13883744444;14083744444
2176;14186256000;13925444444;14125444444
2177;14227985000;13925444444;14125444444
2187;14227991000;13967100000;14167100000
2188;14269632000;13967100000;14167100000
2198;14269638000;14008755555;14208755555
2199;14311299000;14008755555;14208755555
2211;14311305000;14092044444;14292044444
2212;14311307000;14092044444;14292044444
2213;14311308000;14092044444;14292044444
2214;14311308000;14092044444;14292044444
2215;14311309000;14092044444;14292044444
2216;14311310000;14092044444;14292044444
2217;14311311000;14092044444;14292044444
2221;14394659000;14092044444;14292044444
2233;14394665000;14175444444;14375444444
2234;14394666000;14175444444;14375444444
2235;14394667000;14175444444;14375444444
2236;14394668000;14175444444;14375444444
2237;14394669000;14175444444;14375444444
2238;14394670000;14175444444;14375444444
2239;14394671000;14175444444;14375444444
2240;14394672000;14175444444;14375444444
2241;14394673000;14175444444;14375444444
2242;14394673000;14175444444;14375444444
2243;14478198000;14175444444;14375444444
2254;14519599000;14217055555;14417055555
2264;14519605000;14258744444;14458744444
2265;14561287000;14258744444;14458744444
2276;14603026000;14300466666;14500466666
2287;14644600000;14342066666;14542066666
2299;14644606000;14425400000;14625400000
2300;14644608000;14425400000;14625400000
2301;14644609000;14425400000;14625400000
2302;14644609000;14425400000;14625400000
2303;14644610000;14425400000;14625400000
2304;14644611000;14425400000;14625400000
2305;14644612000;14425400000;14625400000
2306;14644613000;14425400000;14625400000
2307;14644614000;14425400000;14625400000
2308;14644615000;14425400000;14625400000
2309;14728164000;14425400000;14625400000
2319;14728169000;14467044444;14667044444
2320;14769587000;14467044444;14667044444
2331;14811317000;14508755555;14708755555
2342;14852938000;14550455555;14750455555
2354;14852953000;14633722222;14833722222
2355;14852955000;14633722222;14833722222
2356;14852956000;14633722222;14833722222
2357;14852958000;14633722222;14833722222
2358;14852959000;14633722222;14833722222
2359;14852961000;14633722222;14833722222
2360;14852962000;14633722222;14833722222
2361;14852963000;14633722222;14833722222
2362;14852965000;14633722222;14833722222
2363;14852966000;14633722222;14833722222
2364;14936487000;14633722222;14833722222
2375;14978024000;14675466666;14875466666
2386;15019582000;14717100000;14917100000
2397;15061246000;14758711111;14958711111
2408;15103015000;14800455555;15000455555
2418;15103021000;14842033333;15042033333
2419;15144569000;14842033333;15042033333
2430;15186277000;14883733333;15083733333
2441;15228007000;14925466666;15125466666
2453;15228013000;15008722222;15208722222
2454;15228023000;15008722222;15208722222
2455;15228024000;15008722222;15208722222
2456;15228025000;15008722222;15208722222
2457;15228026000;15008722222;15208722222
2458;15228027000;15008722222;15208722222
2459;15228028000;15008722222;15208722222
2460;15228029000;15008722222;15208722222
2461;15228030000;15008722222;15208722222
2462;15228031000;15008722222;15208722222
2463;15311430000;15008722222;15208722222
2474;15352986000;15050444444;15250444444
2483;15352992000;15092088888;15292088888
2484;15352993000;15092088888;15292088888
2485;15394623000;15092088888;15292088888
2496;15436222000;15133744444;15333744444
2506;15436238000;15175411111;15375411111
2507;15477956000;15175411111;15375411111
2519;15477961000;15258711111;15458711111
2520;15477963000;15258711111;15458711111
2521;15477964000;15258711111;15458711111
2522;15477965000;15258711111;15458711111
2523;15477966000;15258711111;15458711111
2524;15477966000;15258711111;15458711111
2525;15477967000;15258711111;15458711111
2526;15477968000;15258711111;15458711111
2527;15477969000;15258711111;15458711111
2528;15477970000;15258711111;15458711111
2529;15561478000;15258711111;15458711111
2540;15602979000;15300444444;15500444444
2550;15602985000;15342144444;15542144444
2551;15644687000;15342144444;15542144444
2561;15644693000;15383766666;15583766666
2562;15686328000;15383766666;15583766666
2572;15686333000;15425444444;15625444444
2573;15727998000;15425444444;15625444444
2585;15728004000;15508711111;15708711111
2586;15728005000;15508711111;15708711111
2587;15728006000;15508711111;15708711111
2588;15728007000;15508711111;15708711111
2589;15728008000;15508711111;15708711111
2590;15728009000;15508711111;15708711111
2591;15728010000;15508711111;15708711111
2592;15728010000;15508711111;15708711111
2593;15728011000;15508711111;15708711111
2596;15853271000;15550433333;15750433333
2617;15894625000;15592111111;15792111111
2628;15936190000;15633733333;15833733333
2639;15977907000;15675433333;15875433333
2648;15977912000;15717044444;15917044444
2649;15977914000;15717044444;15917044444
2650;16019525000;15717044444;15917044444
2661;16061232000;15758688888;15958688888
2672;16102959000;15800422222;16000422222
2684;16102965000;15883688888;16083688888
2685;16102966000;15883688888;16083688888
2686;16102967000;15883688888;16083688888
2687;16102968000;15883688888;16083688888
2688;16102969000;15883688888;16083688888
2689;16102970000;15883688888;16083688888
2690;16102971000;15883688888;16083688888
2691;16102972000;15883688888;16083688888
2692;16102973000;15883688888;16083688888
2693;16102974000;15883688888;16083688888
2694;16186435000;15883688888;16083688888
2704;16186441000;15925466666;16125466666
2705;16227944000;15925466666;16125466666
2716;16269509000;15967033333;16167033333
2727;16311180000;16008722222;16208722222
2736;16311184000;16050411111;16250411111
2737;16311186000;16050411111;16250411111
2738;16352885000;16050411111;16250411111
2749;16394584000;16092033333;16292033333
2760;16436207000;16133666666;16333666666
2772;16436213000;16217044444;16417044444
2773;16436214000;16217044444;16417044444
2774;16436215000;16217044444;16417044444
2775;16436216000;16217044444;16417044444
2776;16436217000;16217044444;16417044444
2777;16436218000;16217044444;16417044444
2778;16436218000;16217044444;16417044444
2779;16436219000;16217044444;16417044444
2780;16436220000;16217044444;16417044444
2781;16436221000;16217044444;16417044444
2782;16519801000;16217044444;16417044444
2792;16519806000;16258722222;16458722222
2793;16561256000;16258722222;16458722222
2804;16602980000;16300444444;16500444444
2814;16602986000;16342044444;16542044444
2815;16644583000;16342044444;16542044444
2826;16686244000;16383700000;16583700000
2836;16686249000;16425422222;16625422222
2837;16727962000;16425422222;16625422222
2849;16727968000;16508755555;16708755555
2850;16727969000;16508755555;16708755555
2851;16727970000;16508755555;16708755555
2852;16727971000;16508755555;16708755555
2853;16727972000;16508755555;16708755555
2854;16727973000;16508755555;16708755555
2855;16727974000;16508755555;16708755555
2856;16727975000;16508755555;16708755555
2857;16727983000;16508755555;16708755555
2858;16727984000;16508755555;16708755555
2859;16811477000;16508755555;16708755555
2871;16811484000;16592100000;16792100000
2872;16811485000;16592100000;16792100000
2873;16811486000;16592100000;16792100000
2874;16811487000;16592100000;16792100000
2875;16811488000;16592100000;16792100000
2876;16811489000;16592100000;16792100000
2877;16811490000;16592100000;16792100000
2878;16811491000;16592100000;16792100000
2879;16811492000;16592100000;16792100000
2880;16811493000;16592100000;16792100000
2881;16894789000;16592100000;16792100000
2892;16936262000;16633722222;16833722222
2902;16936268000;16675433333;16875433333
2903;16977916000;16675433333;16875433333
2914;17019599000;16717055555;16917055555
2925;17061269000;16758711111;16958711111
2937;17061275000;16842044444;17042044444
2938;17061276000;16842044444;17042044444
2939;17061277000;16842044444;17042044444
2940;17061278000;16842044444;17042044444
2941;17061279000;16842044444;17042044444
2942;17061280000;16842044444;17042044444
2943;17061281000;16842044444;17042044444
2944;17061281000;16842044444;17042044444
2945;17061282000;16842044444;17042044444
2946;17061283000;16842044444;17042044444
2947;17144847000;16842044444;17042044444
2957;17144852000;16883733333;17083733333
2958;17186268000;16883733333;17083733333
2969;17227965000;16925433333;17125433333
2980;17269591000;16967055555;17167055555
2992;17269597000;17050433333;17250433333
2993;17269598000;17050433333;17250433333
2994;17269599000;17050433333;17250433333
2995;17269600000;17050433333;17250433333
2996;17269601000;17050433333;17250433333
2997;17269602000;17050433333;17250433333
2998;17269603000;17050433333;17250433333
2999;17269604000;17050433333;17250433333
3000;17269605000;17050433333;17250433333
3001;17269605000;17050433333;17250433333
3002;17353158000;17050433333;17250433333
3013;17394597000;17092055555;17292055555
3022;17394603000;17133688888;17333688888
3023;17394604000;17133688888;17333688888
3024;17436229000;17133688888;17333688888
3036;17436235000;17217055555;17417055555
3037;17436236000;17217055555;17417055555
3038;17436237000;17217055555;17417055555
3039;17436238000;17217055555;17417055555
3040;17436239000;17217055555;17417055555
3041;17436240000;17217055555;17417055555
3042;17436241000;17217055555;17417055555
3043;17436242000;17217055555;17417055555
3044;17436243000;17217055555;17417055555
3045;17436244000;17217055555;17417055555
3046;17519827000;17217055555;17417055555
3055;17519832000;17258711111;17458711111
3060;17603061000;17300433333;17500433333
3079;17644705000;17342066666;17542066666
3091;17644720000;17425422222;17625422222
3092;17644721000;17425422222;17625422222
3093;17644722000;17425422222;17625422222
3094;17644723000;17425422222;17625422222
3095;17644724000;17425422222;17625422222
3096;17644725000;17425422222;17625422222
3097;17644726000;17425422222;17625422222
3098;17644727000;17425422222;17625422222
3099;17644728000;17425422222;17625422222
3100;17644728000;17425422222;17625422222
3101;17728217000;17425422222;17625422222
3111;17728223000;17467044444;17667044444
3112;17769586000;17467044444;17667044444
3122;17769592000;17508711111;17708711111
3123;17811272000;17508711111;17708711111
3134;17852963000;17550433333;17750433333
3145;17894599000;17592055555;17792055555
3157;17894605000;17675444444;17875444444
3158;17894606000;17675444444;17875444444
3159;17894607000;17675444444;17875444444
3160;17894608000;17675444444;17875444444
3161;17894609000;17675444444;17875444444
3162;17894610000;17675444444;17875444444
3163;17894611000;17675444444;17875444444
3164;17894612000;17675444444;17875444444
3165;17894613000;17675444444;17875444444
3166;17894613000;17675444444;17875444444
3167;17978187000;17675444444;17875444444
3178;18019631000;17717066666;17917066666
3189;18061297000;17758744444;17958744444
3199;18061303000;17800455555;18000455555
3200;18102938000;17800455555;18000455555
3211;18144612000;17842055555;18042055555
3220;18144618000;17883722222;18083722222
3221;18144619000;17883722222;18083722222
3222;18186281000;17883722222;18083722222
3234;18186287000;17967122222;18167122222
3235;18186295000;17967122222;18167122222
3236;18186296000;17967122222;18167122222
3237;18186297000;17967122222;18167122222
3238;18186298000;17967122222;18167122222
3239;18186299000;17967122222;18167122222
3240;18186300000;17967122222;18167122222
3241;18186301000;17967122222;18167122222
3242;18186302000;17967122222;18167122222
3243;18186302000;17967122222;18167122222
3244;18269817000;17967122222;18167122222
3256;18269832000;18050444444;18250444444
3257;18269834000;18050444444;18250444444
3258;18269836000;18050444444;18250444444
3259;18269837000;18050444444;18250444444
3260;18269839000;18050444444;18250444444
3261;18269840000;18050444444;18250444444
3262;18269841000;18050444444;18250444444
3263;18269843000;18050444444;18250444444
3264;18269844000;18050444444;18250444444
3265;18269846000;18050444444;18250444444
3266;18353132000;18050444444;18250444444
3275;18353136000;18092066666;18292066666
3276;18353138000;18092066666;18292066666
3277;18394588000;18092066666;18292066666
3289;18394594000;18175511111;18375511111
3290;18394595000;18175511111;18375511111
3293;18422321000;18175511111;18375511111
3294;18422324000;18175511111;18375511111
3295;18422326000;18175511111;18375511111
3296;18422327000;18175511111;18375511111
3297;18422329000;18175511111;18375511111
3298;18422340000;18175511111;18375511111
3299;18478060000;18175511111;18375511111
3310;18519533000;18217044444;18417044444
3321;18561167000;18258700000;18458700000
3333;18561171000;18342100000;18542100000
3334;18561182000;18342100000;18542100000
3335;18561184000;18342100000;18542100000
3336;18561185000;18342100000;18542100000
3337;18561187000;18342100000;18542100000
3338;18561188000;18342100000;18542100000
3339;18561189000;18342100000;18542100000
3340;18561191000;18342100000;18542100000
3341;18561192000;18342100000;18542100000
3342;18561193000;18342100000;18542100000
3343;18644787000;18342100000;18542100000
3354;18686206000;18383733333;18583733333
3365;18727966000;18425422222;18625422222
3375;18727972000;18467100000;18667100000
3376;18769656000;18467100000;18667100000
3387;18811279000;18508722222;18708722222
3398;18852991000;18550455555;18750455555
3410;18852997000;18633711111;18833711111
3411;18852999000;18633711111;18833711111
3412;18853000000;18633711111;18833711111
3413;18853001000;18633711111;18833711111
3414;18853002000;18633711111;18833711111
3415;18853002000;18633711111;18833711111
3416;18853003000;18633711111;18833711111
3417;18853004000;18633711111;18833711111
3418;18853005000;18633711111;18833711111
3419;18853006000;18633711111;18833711111
3420;18936466000;18633711111;18833711111
3431;18977967000;18675422222;18875422222
3441;18977973000;18717100000;18917100000
3442;19019643000;18717100000;18917100000
3453;19061146000;18758700000;18958700000
3463;19061152000;18800433333;19000433333
3464;19102978000;18800433333;19000433333
3472;19102984000;18842066666;19042066666
3473;19102985000;18842066666;19042066666
3474;19102986000;18842066666;19042066666
3475;19144610000;18842066666;19042066666
3485;19144616000;18883688888;19083688888
3486;19186171000;18883688888;19083688888
3498;19186187000;18967100000;19167100000
3499;19186189000;18967100000;19167100000
3500;19186190000;18967100000;19167100000
3501;19186192000;18967100000;19167100000
3504;19213991000;18967100000;19167100000
3505;19213992000;18967100000;19167100000
3509;19311542000;19008777777;19208777777
3527;19352920000;19050444444;19250444444
3539;19394598000;19092122222;19292122222
3551;19436258000;19133711111;19333711111
3563;19478059000;19175422222;19375422222
3574;19519570000;19217100000;19417100000
3585;19561294000;19258733333;19458733333
3596;19603015000;19300444444;19500444444
3607;19644587000;19342055555;19542055555
3618;19686266000;19383722222;19583722222
3629;19727915000;19425433333;19625433333
3640;19769594000;19467033333;19667033333
3651;19811251000;19508711111;19708711111
3662;19852951000;19550455555;19750455555
3673;19894643000;19592100000;19792100000
3684;19936263000;19633733333;19833733333
3693;19936269000;19675444444;19875444444
3694;19936270000;19675444444;19875444444
3695;19977985000;19675444444;19875444444
3706;20019539000;19717055555;19917055555
3717;20061262000;19758722222;19958722222
3729;20061268000;19842055555;20042055555
3730;20061269000;19842055555;20042055555
3731;20061270000;19842055555;20042055555
3732;20061271000;19842055555;20042055555
3733;20061272000;19842055555;20042055555
3734;20061273000;19842055555;20042055555
3735;20061274000;19842055555;20042055555
3736;20061275000;19842055555;20042055555
3737;20061275000;19842055555;20042055555
3738;20061276000;19842055555;20042055555
3739;20144807000;19842055555;20042055555
3749;20144812000;19883677777;20083677777
3750;20186218000;19883677777;20083677777
3761;20228009000;19925466666;20125466666
3771;20228014000;19967055555;20167055555
3772;20269588000;19967055555;20167055555
3783;20311232000;20008700000;20208700000
3794;20352978000;20050433333;20250433333
3806;20352984000;20133700000;20333700000
3807;20352985000;20133700000;20333700000
3808;20352986000;20133700000;20333700000
3809;20352987000;20133700000;20333700000
3810;20352988000;20133700000;20333700000
3811;20352988000;20133700000;20333700000
3812;20352990000;20133700000;20333700000
3813;20352990000;20133700000;20333700000
3814;20352991000;20133700000;20333700000
3815;20352992000;20133700000;20333700000
3816;20436450000;20133700000;20333700000
3825;20436456000;20175477777;20375477777
3826;20436457000;20175477777;20375477777
3827;20477956000;20175477777;20375477777
3836;20477972000;20217066666;20417066666
3837;20477973000;20217066666;20417066666
3838;20519543000;20217066666;20417066666
3849;20561214000;20258744444;20458744444
3860;20603022000;20300477777;20500477777
3872;20603027000;20383733333;20583733333
3873;20603029000;20383733333;20583733333
3874;20603029000;20383733333;20583733333
3875;20603030000;20383733333;20583733333
3876;20603031000;20383733333;20583733333
3877;20603032000;20383733333;20583733333
3878;20603033000;20383733333;20583733333
3879;20603034000;20383733333;20583733333
3880;20603035000;20383733333;20583733333
3881;20603036000;20383733333;20583733333
3882;20686499000;20383733333;20583733333
3892;20686505000;20425433333;20625433333
3893;20727977000;20425433333;20625433333
3904;20769596000;20467055555;20667055555
3916;20769602000;20550433333;20750433333
3917;20769603000;20550433333;20750433333
3918;20769604000;20550433333;20750433333
3919;20769605000;20550433333;20750433333
3920;20769606000;20550433333;20750433333
3921;20769607000;20550433333;20750433333
3922;20769608000;20550433333;20750433333
3923;20769608000;20550433333;20750433333
3924;20769609000;20550433333;20750433333
3925;20769610000;20550433333;20750433333
3926;20853125000;20550433333;20750433333
3935;20853141000;20592100000;20792100000
3936;20853142000;20592100000;20792100000
3937;20894558000;20592100000;20792100000
3948;20936204000;20633733333;20833733333
3959;20977916000;20675444444;20875444444
3971;20977921000;20758733333;20958733333
3972;20977923000;20758733333;20958733333
3973;20977924000;20758733333;20958733333
3974;20977935000;20758733333;20958733333
3975;20977936000;20758733333;20958733333
3976;20977938000;20758733333;20958733333
3977;20977939000;20758733333;20958733333
3978;20977940000;20758733333;20958733333
3979;20977942000;20758733333;20958733333
3980;20977943000;20758733333;20958733333
3981;21061410000;20758733333;20958733333
3992;21102918000;20800444444;21000444444
4003;21144573000;20842100000;21042100000
4014;21186264000;20883722222;21083722222
4025;21227964000;20925422222;21125422222
4036;21269630000;20967088888;21167088888
4047;21311264000;21008733333;21208733333
4058;21352992000;21050433333;21250433333
4068;21352998000;21092066666;21292066666
4069;21394631000;21092066666;21292066666
4080;21436230000;21133688888;21333688888
4090;21436236000;21175444444;21375444444
4091;21478001000;21175444444;21375444444
4101;21478007000;21217033333;21417033333
4104;21561356000;21258744444;21458744444
4125;21644795000;21342044444;21542044444
4146;21686388000;21383755555;21583755555
4156;21686404000;21425422222;21625422222
4157;21727962000;21425422222;21625422222
4168;21769578000;21467033333;21667033333
4178;21769584000;21508744444;21708744444
4179;21811248000;21508744444;21708744444
4191;21811255000;21592088888;21792088888
4192;21811256000;21592088888;21792088888
4193;21811257000;21592088888;21792088888
4194;21811258000;21592088888;21792088888
4195;21811259000;21592088888;21792088888
4196;21811260000;21592088888;21792088888
4197;21811261000;21592088888;21792088888
4198;21811262000;21592088888;21792088888
4199;21811263000;21592088888;21792088888
4200;21811264000;21592088888;21792088888
4201;21894793000;21592088888;21792088888
4213;21894799000;21675455555;21875455555
4214;21894809000;21675455555;21875455555
4215;21894810000;21675455555;21875455555
4216;21894811000;21675455555;21875455555
4217;21894812000;21675455555;21875455555
4218;21894813000;21675455555;21875455555
4219;21894814000;21675455555;21875455555
4220;21894815000;21675455555;21875455555
4221;21894816000;21675455555;21875455555
4222;21894817000;21675455555;21875455555
4223;21978136000;21675455555;21875455555
4235;21978141000;21758733333;21958733333
4236;21978143000;21758733333;21958733333
4237;21978153000;21758733333;21958733333
4238;21978155000;21758733333;21958733333
4239;21978156000;21758733333;21958733333
4240;21978157000;21758733333;21958733333
4241;21978159000;21758733333;21958733333
4242;21978160000;21758733333;21958733333
4243;21978161000;21758733333;21958733333
4244;21978163000;21758733333;21958733333
4245;22061409000;21758733333;21958733333
4257;22061414000;21842033333;22042033333
4258;22061416000;21842033333;22042033333
4259;22061417000;21842033333;22042033333
4260;22061427000;21842033333;22042033333
4261;22061429000;21842033333;22042033333
4262;22061430000;21842033333;22042033333
4263;22061432000;21842033333;22042033333
4264;22061433000;21842033333;22042033333
4265;22061434000;21842033333;22042033333
4266;22061436000;21842033333;22042033333
4267;22144781000;21842033333;22042033333
4276;22144786000;21883733333;22083733333
4277;22144788000;21883733333;22083733333
4278;22186262000;21883733333;22083733333
4289;22227936000;21925455555;22125455555
4300;22269523000;21967044444;22167044444
4311;22311180000;22008711111;22208711111
4322;22352908000;22050433333;22250433333
4332;22352913000;22092088888;22292088888
4333;22394546000;22092088888;22292088888
4344;22436253000;22133711111;22333711111
4355;22478005000;22175466666;22375466666
4367;22478010000;22258733333;22458733333
4368;22478012000;22258733333;22458733333
4369;22478013000;22258733333;22458733333
4370;22478014000;22258733333;22458733333
4371;22478015000;22258733333;22458733333
4372;22478016000;22258733333;22458733333
4373;22478017000;22258733333;22458733333
4374;22478017000;22258733333;22458733333
4375;22478018000;22258733333;22458733333
4376;22478019000;22258733333;22458733333
4377;22561467000;22258733333;22458733333
4388;22603001000;22300444444;22500444444
4399;22644631000;22342088888;22542088888
4410;22686309000;22383766666;22583766666
4421;22727968000;22425411111;22625411111
4432;22769645000;22467088888;22667088888
4443;22811249000;22508711111;22708711111
4454;22853011000;22550466666;22750466666
4465;22894702000;22592144444;22792144444
4476;22936291000;22633733333;22833733333
4487;22978024000;22675466666;22875466666
4498;23019596000;22717055555;22917055555
4508;23019602000;22758711111;22958711111
4509;23061250000;22758711111;22958711111
4520;23102969000;22800433333;23000433333
4529;23102975000;22842044444;23042044444
4530;23102976000;22842044444;23042044444
4531;23144526000;22842044444;23042044444
4543;23144533000;22925433333;23125433333
4544;23144535000;22925433333;23125433333
4545;23144536000;22925433333;23125433333
4546;23144547000;22925433333;23125433333
4547;23144548000;22925433333;23125433333
4548;23144550000;22925433333;23125433333
4549;23144551000;22925433333;23125433333
4550;23144553000;22925433333;23125433333
4551;23144554000;22925433333;23125433333
4552;23144555000;22925433333;23125433333
4553;23228216000;22925433333;23125433333
4565;23228221000;23008733333;23208733333
4566;23228222000;23008733333;23208733333
4567;23228223000;23008733333;23208733333
4568;23228224000;23008733333;23208733333
4569;23228232000;23008733333;23208733333
4570;23228234000;23008733333;23208733333
4571;23228234000;23008733333;23208733333
4572;23228235000;23008733333;23208733333
4573;23228236000;23008733333;23208733333
4574;23228237000;23008733333;23208733333
4575;23311416000;23008733333;23208733333
4585;23311423000;23050433333;23250433333
4586;23352910000;23050433333;23250433333
4598;23352915000;23133666666;23333666666
4599;23352916000;23133666666;23333666666
4600;23352918000;23133666666;23333666666
4601;23352928000;23133666666;23333666666
4602;23352930000;23133666666;23333666666
4603;23352931000;23133666666;23333666666
4604;23352932000;23133666666;23333666666
4605;23352934000;23133666666;23333666666
4606;23352935000;23133666666;23333666666
4607;23352937000;23133666666;23333666666
4608;23436391000;23133666666;23333666666
4618;23436397000;23175411111;23375411111
4619;23477953000;23175411111;23375411111
4630;23519460000;23217055555;23417055555
4641;23561158000;23258688888;23458688888
4652;23602931000;23300400000;23500400000
4663;23644643000;23342066666;23542066666
4674;23686265000;23383722222;23583722222
4685;23727897000;23425422222;23625422222
4696;23769578000;23467033333;23667033333
4707;23811243000;23508688888;23708688888
4718;23852901000;23550422222;23750422222
4729;23894612000;23592055555;23792055555
4740;23936223000;23633666666;23833666666
4751;23977984000;23675444444;23875444444
4762;24019737000;23717155555;23917155555
4772;24019742000;23758744444;23958744444
4773;24061301000;23758744444;23958744444
4784;24102921000;23800466666;24000466666
4794;24102927000;23842100000;24042100000
4795;24144641000;23842100000;24042100000
4806;24186286000;23883744444;24083744444
4817;24228008000;23925466666;24125466666
4829;24228013000;24008755555;24208755555
4830;24228015000;24008755555;24208755555
4831;24228016000;24008755555;24208755555
4832;24228017000;24008755555;24208755555
4833;24228018000;24008755555;24208755555
4834;24228018000;24008755555;24208755555
4835;24228019000;24008755555;24208755555
4836;24228020000;24008755555;24208755555
4837;24228021000;24008755555;24208755555
4838;24228022000;24008755555;24208755555
4839;24311526000;24008755555;24208755555
4850;24353012000;24050455555;24250455555
4861;24394620000;24092077777;24292077777
4872;24436240000;24133700000;24333700000
4883;24478004000;24175433333;24375433333
4894;24519662000;24217122222;24417122222
4904;24519668000;24258744444;24458744444
4905;24561275000;24258744444;24458744444
4916;24602950000;24300466666;24500466666
4927;24644668000;24342111111;24542111111
4939;24644674000;24425455555;24625455555
4940;24644675000;24425455555;24625455555
4941;24644676000;24425455555;24625455555
4942;24644677000;24425455555;24625455555
4943;24644677000;24425455555;24625455555
4944;24644678000;24425455555;24625455555
4945;24644679000;24425455555;24625455555
4946;24644680000;24425455555;24625455555
4947;24644681000;24425455555;24625455555
4948;24644682000;24425455555;24625455555
4949;24728218000;24425455555;24625455555
4960;24769643000;24467088888;24667088888
4971;24811247000;24508744444;24708744444
4982;24853036000;24550477777;24750477777
4992;24853042000;24592088888;24792088888
4993;24894597000;24592088888;24792088888
5004;24936274000;24633733333;24833733333
5015;24978023000;24675466666;24875466666
5027;24978028000;24758733333;24958733333
5028;24978030000;24758733333;24958733333
5029;24978030000;24758733333;24958733333
5030;24978031000;24758733333;24958733333
5031;24978032000;24758733333;24958733333
5032;24978033000;24758733333;24958733333
5033;24978034000;24758733333;24958733333
5034;24978035000;24758733333;24958733333
5035;24978036000;24758733333;24958733333
5036;24978037000;24758733333;24958733333
5037;25061445000;24758733333;24958733333
5047;25061452000;24800455555;25000455555
5048;25102998000;24800455555;25000455555
5059;25144628000;24842066666;25042066666
5070;25186205000;24883722222;25083722222
5081;25227985000;24925444444;25125444444
5092;25269629000;24967088888;25167088888
5103;25311226000;25008744444;25208744444
5115;25311241000;25092100000;25292100000
5116;25311243000;25092100000;25292100000
5117;25311253000;25092100000;25292100000
5118;25311255000;25092100000;25292100000
5119;25311256000;25092100000;25292100000
5120;25311258000;25092100000;25292100000
5121;25311259000;25092100000;25292100000
5122;25311260000;25092100000;25292100000
5123;25311262000;25092100000;25292100000
5124;25311263000;25092100000;25292100000
5125;25394783000;25092100000;25292100000
5135;25394789000;25133711111;25333711111
5136;25436251000;25133711111;25333711111
5147;25477990000;25175433333;25375433333
5159;25477996000;25258733333;25458733333
5160;25477997000;25258733333;25458733333
5161;25477998000;25258733333;25458733333
5162;25477999000;25258733333;25458733333
5163;25478000000;25258733333;25458733333
5164;25478001000;25258733333;25458733333
5165;25478002000;25258733333;25458733333
5166;25478002000;25258733333;25458733333
5170;25603228000;25300466666;25500466666
5190;25644539000;25342055555;25542055555
5200;25686187000;25383711111;25583711111
5213;25728012000;25425444444;25625444444
5224;25769593000;25467066666;25667066666
5237;25797310000;25550466666;25750466666
5238;25797313000;25550466666;25750466666
5239;25797314000;25550466666;25750466666
5240;25797315000;25550466666;25750466666
5241;25797316000;25550466666;25750466666
5242;25797316000;25550466666;25750466666
5243;25797317000;25550466666;25750466666
5244;25797318000;25550466666;25750466666
5245;25797319000;25550466666;25750466666
5246;25853093000;25550466666;25750466666
5256;25853099000;25592055555;25792055555
5257;25894589000;25592055555;25792055555
5268;25936229000;25633688888;25833688888
5279;25977962000;25675422222;25875422222
5290;26019585000;25717044444;25917044444
5301;26061180000;25758700000;25958700000
5312;26102931000;25800455555;26000455555
5323;26144500000;25842044444;26042044444
5334;26186241000;25883700000;26083700000
5345;26227885000;25925411111;26125411111
5356;26269578000;25967088888;26167088888
5367;26311223000;26008744444;26208744444
5378;26353014000;26050455555;26250455555
5388;26353020000;26092100000;26292100000
5389;26394687000;26092100000;26292100000
5400;26436291000;26133711111;26333711111
5411;26477973000;26175433333;26375433333
5422;26519633000;26217122222;26417122222
5433;26561275000;26258733333;26458733333
5444;26602997000;26300477777;26500477777
5456;26603003000;26383766666;26583766666
5457;26603004000;26383766666;26583766666
5458;26603005000;26383766666;26583766666
5459;26603006000;26383766666;26583766666
5460;26603007000;26383766666;26583766666
5461;26603008000;26383766666;26583766666
5462;26603009000;26383766666;26583766666
5463;26603010000;26383766666;26583766666
5464;26603011000;26383766666;26583766666
5465;26603011000;26383766666;26583766666
5466;26686538000;26383766666;26583766666
5467;26686544000;26425466666;26625466666
5468;26686545000;26425466666;26625466666
5469;26686546000;26425466666;26625466666
5470;26686547000;26425466666;26625466666
5471;26686548000;26425466666;26625466666
5472;26686549000;26425466666;26625466666
5473;26686550000;26425466666;26625466666
5474;26686551000;26425466666;26625466666
5475;26686552000;26425466666;26625466666
5476;26686552000;26425466666;26625466666
5477;26727997000;26425466666;26625466666
5478;26728002000;26467066666;26667066666
5479;26728004000;26467066666;26667066666
5480;26728005000;26467066666;26667066666
5481;26728006000;26467066666;26667066666
5482;26728007000;26467066666;26667066666
5483;26728008000;26467066666;26667066666
5484;26728008000;26467066666;26667066666
5485;26728009000;26467066666;26667066666
5486;26728010000;26467066666;26667066666
5487;26728011000;26467066666;26667066666
5488;26769598000;26467066666;26667066666
5489;26769604000;26508755555;26708755555
5490;26769605000;26508755555;26708755555
5491;26769606000;26508755555;26708755555
5492;26769607000;26508755555;26708755555
5493;26769608000;26508755555;26708755555
5494;26769609000;26508755555;26708755555
5495;26769610000;26508755555;26708755555
5496;26769611000;26508755555;26708755555
5497;26769612000;26508755555;26708755555
5498;26769613000;26508755555;26708755555
5499;26811289000;26508755555;26708755555
