seqnum;now;rtptime;deadline
143;11677178000;11466888888;11666888888
144;11677184000;11466888888;11666888888
145;11677185000;11466888888;11666888888
146;11677186000;11466888888;11666888888
147;11677188000;11466888888;11666888888
148;11677189000;11466888888;11666888888
149;11677191000;11466888888;11666888888
150;11677192000;11466888888;11666888888
151;11677194000;11466888888;11666888888
152;11677196000;11466888888;11666888888
153;11677899000;11466888888;11666888888
154;11677919000;11508588888;11708588888
155;11677921000;11508588888;11708588888
156;11677922000;11508588888;11708588888
157;11677923000;11508588888;11708588888
158;11677925000;11508588888;11708588888
159;11677926000;11508588888;11708588888
160;11677927000;11508588888;11708588888
161;11677928000;11508588888;11708588888
162;11677929000;11508588888;11708588888
163;11677930000;11508588888;11708588888
164;11718747000;11508588888;11708588888
165;11718753000;11550388888;11750388888
166;11718754000;11550388888;11750388888
167;11718755000;11550388888;11750388888
168;11718756000;11550388888;11750388888
169;11718757000;11550388888;11750388888
170;11718758000;11550388888;11750388888
171;11718759000;11550388888;11750388888
172;11718760000;11550388888;11750388888
173;11718761000;11550388888;11750388888
174;11718762000;11550388888;11750388888
175;11760546000;11550388888;11750388888
176;11760561000;11592011111;11792011111
177;11760562000;11592011111;11792011111
178;11760563000;11592011111;11792011111
179;11760564000;11592011111;11792011111
180;11760565000;11592011111;11792011111
181;11760566000;11592011111;11792011111
182;11760567000;11592011111;11792011111
183;11760568000;11592011111;11792011111
184;11760569000;11592011111;11792011111
185;11760570000;11592011111;11792011111
186;11802233000;11592011111;11792011111
187;11802259000;11633677777;11833677777
188;11802261000;11633677777;11833677777
189;11802263000;11633677777;11833677777
190;11802264000;11633677777;11833677777
191;11802265000;11633677777;11833677777
192;11802267000;11633677777;11833677777
193;11802269000;11633677777;11833677777
194;11802270000;11633677777;11833677777
195;11802272000;11633677777;11833677777
196;11802273000;11633677777;11833677777
197;11843833000;11633677777;11833677777
198;11843838000;11675333333;11875333333
199;11843840000;11675333333;11875333333
200;11843841000;11675333333;11875333333
201;11843842000;11675333333;11875333333
202;11843842000;11675333333;11875333333
203;11843843000;11675333333;11875333333
204;11843844000;11675333333;11875333333
205;11843845000;11675333333;11875333333
206;11843846000;11675333333;11875333333
207;11843847000;11675333333;11875333333
208;11885482000;11675333333;11875333333
209;11885488000;11717000000;11917000000
210;11885489000;11717000000;11917000000
211;11885490000;11717000000;11917000000
212;11885491000;11717000000;11917000000
213;11885492000;11717000000;11917000000
214;11885493000;11717000000;11917000000
215;11885494000;11717000000;11917000000
216;11885495000;11717000000;11917000000
217;11885496000;11717000000;11917000000
218;11885497000;11717000000;11917000000
219;11927197000;11717000000;11917000000
220;11927203000;11758700000;11958700000
221;11927204000;11758700000;11958700000
222;11927205000;11758700000;11958700000
223;11927206000;11758700000;11958700000
224;11927207000;11758700000;11958700000
225;11927208000;11758700000;11958700000
226;11927209000;11758700000;11958700000
227;11927210000;11758700000;11958700000
228;11927211000;11758700000;11958700000
229;11927212000;11758700000;11958700000
230;11968855000;11758700000;11958700000
231;11968861000;11800377777;12000377777
232;11968862000;11800377777;12000377777
233;11968863000;11800377777;12000377777
234;11968864000;11800377777;12000377777
235;11968865000;11800377777;12000377777
236;11968866000;11800377777;12000377777
237;11968867000;11800377777;12000377777
238;11968868000;11800377777;12000377777
239;11968868000;11800377777;12000377777
240;11968869000;11800377777;12000377777
241;12010543000;11800377777;12000377777
242;12010549000;11841988888;12041988888
243;12010550000;11841988888;12041988888
244;12010551000;11841988888;12041988888
245;12010563000;11841988888;12041988888
246;12010564000;11841988888;12041988888
247;12010565000;11841988888;12041988888
248;12010566000;11841988888;12041988888
249;12010567000;11841988888;12041988888
250;12010567000;11841988888;12041988888
251;12010568000;11841988888;12041988888
252;12052143000;11841988888;12041988888
253;12052148000;11883700000;12083700000
254;12052150000;11883700000;12083700000
255;12052151000;11883700000;12083700000
256;12052152000;11883700000;12083700000
257;12052152000;11883700000;12083700000
258;12052153000;11883700000;12083700000
259;12052154000;11883700000;12083700000
260;12052155000;11883700000;12083700000
261;12052156000;11883700000;12083700000
262;12052157000;11883700000;12083700000
263;12093858000;11883700000;12083700000
264;12093863000;11925411111;12125411111
265;12093864000;11925411111;12125411111
266;12093865000;11925411111;12125411111
267;12093866000;11925411111;12125411111
268;12093867000;11925411111;12125411111
269;12093868000;11925411111;12125411111
270;12093869000;11925411111;12125411111
271;12093870000;11925411111;12125411111
272;12093871000;11925411111;12125411111
273;12093872000;11925411111;12125411111
274;12135572000;11925411111;12125411111
275;12135578000;11967000000;12167000000
276;12135579000;11967000000;12167000000
277;12135580000;11967000000;12167000000
278;12135581000;11967000000;12167000000
279;12135582000;11967000000;12167000000
280;12135583000;11967000000;12167000000
281;12135584000;11967000000;12167000000
282;12135584000;11967000000;12167000000
283;12135585000;11967000000;12167000000
284;12135586000;11967000000;12167000000
285;12177158000;11967000000;12167000000
286;12177166000;12008688888;12208688888
287;12177167000;12008688888;12208688888
288;12177168000;12008688888;12208688888
289;12177170000;12008688888;12208688888
290;12177171000;12008688888;12208688888
291;12177172000;12008688888;12208688888
292;12177173000;12008688888;12208688888
293;12177174000;12008688888;12208688888
294;12177175000;12008688888;12208688888
295;12177176000;12008688888;12208688888
296;12218875000;12008688888;12208688888
297;12218887000;12050377777;12250377777
298;12218889000;12050377777;12250377777
299;12218890000;12050377777;12250377777
300;12218891000;12050377777;12250377777
301;12218892000;12050377777;12250377777
302;12218893000;12050377777;12250377777
303;12218894000;12050377777;12250377777
304;12218895000;12050377777;12250377777
305;12218896000;12050377777;12250377777
306;12218897000;12050377777;12250377777
307;12260528000;12050377777;12250377777
308;12260543000;12092000000;12292000000
309;12260544000;12092000000;12292000000
310;12260545000;12092000000;12292000000
311;12260546000;12092000000;12292000000
312;12260547000;12092000000;12292000000
313;12260548000;12092000000;12292000000
314;12260549000;12092000000;12292000000
315;12260550000;12092000000;12292000000
316;12260551000;12092000000;12292000000
317;12260552000;12092000000;12292000000
318;12302154000;12092000000;12292000000
319;12302160000;12133655555;12333655555
320;12302161000;12133655555;12333655555
321;12302162000;12133655555;12333655555
322;12302163000;12133655555;12333655555
323;12302164000;12133655555;12333655555
324;12302165000;12133655555;12333655555
325;12302166000;12133655555;12333655555
326;12302167000;12133655555;12333655555
327;12302168000;12133655555;12333655555
328;12302169000;12133655555;12333655555
329;12343814000;12133655555;12333655555
330;12343819000;12175366666;12375366666
331;12343820000;12175366666;12375366666
332;12343821000;12175366666;12375366666
333;12343822000;12175366666;12375366666
334;12343823000;12175366666;12375366666
335;12343824000;12175366666;12375366666
336;12343825000;12175366666;12375366666
337;12343826000;12175366666;12375366666
338;12343827000;12175366666;12375366666
339;12343828000;12175366666;12375366666
340;12385538000;12175366666;12375366666
341;12385545000;12216977777;12416977777
342;12385556000;12216977777;12416977777
343;12385557000;12216977777;12416977777
344;12385558000;12216977777;12416977777
345;12385559000;12216977777;12416977777
346;12385560000;12216977777;12416977777
347;12385561000;12216977777;12416977777
348;12385582000;12216977777;12416977777
349;12385583000;12216977777;12416977777
350;12385584000;12216977777;12416977777
351;12427134000;12216977777;12416977777
352;12427140000;12258677777;12458677777
353;12427141000;12258677777;12458677777
354;12427142000;12258677777;12458677777
355;12427143000;12258677777;12458677777
356;12427144000;12258677777;12458677777
357;12427145000;12258677777;12458677777
358;12427146000;12258677777;12458677777
359;12427147000;12258677777;12458677777
360;12427147000;12258677777;12458677777
361;12427148000;12258677777;12458677777
362;12468835000;12258677777;12458677777
363;12468841000;12300411111;12500411111
364;12468842000;12300411111;12500411111
365;12468843000;12300411111;12500411111
366;12468844000;12300411111;12500411111
367;12468845000;12300411111;12500411111
368;12468846000;12300411111;12500411111
369;12468846000;12300411111;12500411111
370;12468847000;12300411111;12500411111
371;12468848000;12300411111;12500411111
372;12468849000;12300411111;12500411111
373;12510575000;12300411111;12500411111
374;12510581000;12341977777;12541977777
375;12510582000;12341977777;12541977777
376;12510583000;12341977777;12541977777
377;12510584000;12341977777;12541977777
378;12510585000;12341977777;12541977777
379;12510586000;12341977777;12541977777
380;12510587000;12341977777;12541977777
381;12510588000;12341977777;12541977777
382;12510589000;12341977777;12541977777
383;12510590000;12341977777;12541977777
384;12552138000;12341977777;12541977777
385;12552143000;12383677777;12583677777
386;12552145000;12383677777;12583677777
387;12552146000;12383677777;12583677777
388;12552147000;12383677777;12583677777
389;12552147000;12383677777;12583677777
390;12552148000;12383677777;12583677777
391;12552149000;12383677777;12583677777
392;12552150000;12383677777;12583677777
393;12552151000;12383677777;12583677777
394;12552152000;12383677777;12583677777
395;12593836000;12383677777;12583677777
396;12593841000;12425388888;12625388888
397;12593842000;12425388888;12625388888
398;12593843000;12425388888;12625388888
399;12593844000;12425388888;12625388888
400;12593845000;12425388888;12625388888
401;12593846000;12425388888;12625388888
402;12593847000;12425388888;12625388888
403;12593848000;12425388888;12625388888
404;12593849000;12425388888;12625388888
405;12593850000;12425388888;12625388888
406;12635560000;12425388888;12625388888
407;12635566000;12467000000;12667000000
408;12635567000;12467000000;12667000000
409;12635568000;12467000000;12667000000
410;12635569000;12467000000;12667000000
411;12635570000;12467000000;12667000000
412;12635571000;12467000000;12667000000
413;12635572000;12467000000;12667000000
414;12635573000;12467000000;12667000000
415;12635573000;12467000000;12667000000
416;12635574000;12467000000;12667000000
417;12677157000;12467000000;12667000000
418;12677163000;12508688888;12708688888
419;12677164000;12508688888;12708688888
420;12677165000;12508688888;12708688888
421;12677166000;12508688888;12708688888
422;12677167000;12508688888;12708688888
423;12677168000;12508688888;12708688888
424;12677169000;12508688888;12708688888
425;12677170000;12508688888;12708688888
426;12677171000;12508688888;12708688888
427;12677172000;12508688888;12708688888
428;12718862000;12508688888;12708688888
429;12718867000;12550366666;12750366666
430;12718869000;12550366666;12750366666
431;12718870000;12550366666;12750366666
432;12718870000;12550366666;12750366666
433;12718871000;12550366666;12750366666
434;12718872000;12550366666;12750366666
435;12718873000;12550366666;12750366666
436;12718874000;12550366666;12750366666
437;12718875000;12550366666;12750366666
438;12718876000;12550366666;12750366666
439;12760471000;12550366666;12750366666
440;12760477000;12592000000;12792000000
441;12760478000;12592000000;12792000000
442;12760488000;12592000000;12792000000
443;12760489000;12592000000;12792000000
444;12760490000;12592000000;12792000000
445;12760491000;12592000000;12792000000
446;12760492000;12592000000;12792000000
447;12760492000;12592000000;12792000000
448;12760493000;12592000000;12792000000
449;12760494000;12592000000;12792000000
450;12802158000;12592000000;12792000000
451;12802164000;12633666666;12833666666
452;12802165000;12633666666;12833666666
453;12802166000;12633666666;12833666666
454;12802167000;12633666666;12833666666
455;12802168000;12633666666;12833666666
456;12802169000;12633666666;12833666666
457;12802170000;12633666666;12833666666
458;12802171000;12633666666;12833666666
459;12802172000;12633666666;12833666666
460;12802173000;12633666666;12833666666
461;12843816000;12633666666;12833666666
462;12843822000;12675344444;12875344444
463;12843823000;12675344444;12875344444
464;12843824000;12675344444;12875344444
465;12843825000;12675344444;12875344444
466;12843826000;12675344444;12875344444
467;12843827000;12675344444;12875344444
468;12843828000;12675344444;12875344444
469;12843829000;12675344444;12875344444
470;12843830000;12675344444;12875344444
471;12843831000;12675344444;12875344444
472;12885452000;12675344444;12875344444
473;12885457000;12716988888;12916988888
474;12885458000;12716988888;12916988888
475;12885459000;12716988888;12916988888
476;12885460000;12716988888;12916988888
477;12885461000;12716988888;12916988888
478;12885462000;12716988888;12916988888
479;12885463000;12716988888;12916988888
480;12885464000;12716988888;12916988888
481;12885465000;12716988888;12916988888
482;12885466000;12716988888;12916988888
483;12927147000;12716988888;12916988888
484;12927152000;12758688888;12958688888
485;12927154000;12758688888;12958688888
486;12927155000;12758688888;12958688888
487;12927155000;12758688888;12958688888
488;12927157000;12758688888;12958688888
489;12927158000;12758688888;12958688888
490;12927158000;12758688888;12958688888
491;12927159000;12758688888;12958688888
492;12927160000;12758688888;12958688888
493;12927161000;12758688888;12958688888
494;12968803000;12758688888;12958688888
495;12968822000;12800366666;13000366666
496;12968823000;12800366666;13000366666
497;12968824000;12800366666;13000366666
498;12968825000;12800366666;13000366666
499;12968826000;12800366666;13000366666
500;12968828000;12800366666;13000366666
501;12968829000;12800366666;13000366666
502;12968830000;12800366666;13000366666
503;12968831000;12800366666;13000366666
504;12968832000;12800366666;13000366666
505;13010613000;12800366666;13000366666
506;13010640000;12841988888;13041988888
507;13010642000;12841988888;13041988888
508;13010643000;12841988888;13041988888
509;13010645000;12841988888;13041988888
510;13010646000;12841988888;13041988888
511;13010647000;12841988888;13041988888
512;13010649000;12841988888;13041988888
513;13010650000;12841988888;13041988888
514;13010651000;12841988888;13041988888
515;13010653000;12841988888;13041988888
516;13054130000;12841988888;13041988888
517;13054159000;12883711111;13083711111
518;13054161000;12883711111;13083711111
519;13054162000;12883711111;13083711111
520;13054164000;12883711111;13083711111
521;13054165000;12883711111;13083711111
522;13054166000;12883711111;13083711111
523;13054168000;12883711111;13083711111
524;13054169000;12883711111;13083711111
525;13054170000;12883711111;13083711111
526;13054172000;12883711111;13083711111
527;13093923000;12883711111;13083711111
528;13093948000;12925366666;13125366666
529;13093950000;12925366666;13125366666
530;13093952000;12925366666;13125366666
531;13093953000;12925366666;13125366666
532;13093955000;12925366666;13125366666
533;13093956000;12925366666;13125366666
534;13093958000;12925366666;13125366666
535;13093959000;12925366666;13125366666
536;13093961000;12925366666;13125366666
537;13093962000;12925366666;13125366666
538;13135951000;12925366666;13125366666
539;13135969000;12967000000;13167000000
540;13135971000;12967000000;13167000000
541;13135973000;12967000000;13167000000
542;13135975000;12967000000;13167000000
543;13135976000;12967000000;13167000000
544;13135978000;12967000000;13167000000
545;13135979000;12967000000;13167000000
546;13135980000;12967000000;13167000000
547;13135982000;12967000000;13167000000
548;13135983000;12967000000;13167000000
549;13177220000;12967000000;13167000000
550;13177246000;13008688888;13208688888
551;13177248000;13008688888;13208688888
552;13177267000;13008688888;13208688888
553;13177269000;13008688888;13208688888
554;13177271000;13008688888;13208688888
555;13177272000;13008688888;13208688888
556;13177273000;13008688888;13208688888
557;13177274000;13008688888;13208688888
558;13177276000;13008688888;13208688888
559;13177277000;13008688888;13208688888
560;13218848000;13008688888;13208688888
561;13218853000;13050355555;13250355555
562;13218855000;13050355555;13250355555
563;13218855000;13050355555;13250355555
564;13218856000;13050355555;13250355555
565;13218857000;13050355555;13250355555
566;13218858000;13050355555;13250355555
567;13218860000;13050355555;13250355555
568;13218861000;13050355555;13250355555
569;13218862000;13050355555;13250355555
570;13218863000;13050355555;13250355555
571;13260526000;13050355555;13250355555
572;13260532000;13092022222;13292022222
573;13260533000;13092022222;13292022222
574;13260534000;13092022222;13292022222
575;13260535000;13092022222;13292022222
576;13260536000;13092022222;13292022222
577;13260537000;13092022222;13292022222
578;13260538000;13092022222;13292022222
579;13260538000;13092022222;13292022222
580;13260539000;13092022222;13292022222
581;13260540000;13092022222;13292022222
582;13302180000;13092022222;13292022222
583;13302185000;13133700000;13333700000
584;13302187000;13133700000;13333700000
585;13302188000;13133700000;13333700000
586;13302188000;13133700000;13333700000
587;13302189000;13133700000;13333700000
588;13302190000;13133700000;13333700000
589;13302191000;13133700000;13333700000
590;13302192000;13133700000;13333700000
591;13302193000;13133700000;13333700000
592;13302194000;13133700000;13333700000
593;13343858000;13133700000;13333700000
594;13343864000;13175366666;13375366666
595;13343865000;13175366666;13375366666
596;13343866000;13175366666;13375366666
597;13343867000;13175366666;13375366666
598;13343868000;13175366666;13375366666
599;13343869000;13175366666;13375366666
600;13343870000;13175366666;13375366666
601;13343870000;13175366666;13375366666
602;13343871000;13175366666;13375366666
603;13343872000;13175366666;13375366666
604;13385623000;13175366666;13375366666
605;13385641000;13217033333;13417033333
606;13385642000;13217033333;13417033333
607;13385644000;13217033333;13417033333
608;13385646000;13217033333;13417033333
609;13385647000;13217033333;13417033333
610;13385648000;13217033333;13417033333
611;13385659000;13217033333;13417033333
612;13385660000;13217033333;13417033333
613;13385661000;13217033333;13417033333
614;13385663000;13217033333;13417033333
615;13427208000;13217033333;13417033333
616;13427214000;13258688888;13458688888
617;13427215000;13258688888;13458688888
618;13427216000;13258688888;13458688888
619;13427217000;13258688888;13458688888
620;13427218000;13258688888;13458688888
621;13427219000;13258688888;13458688888
622;13427220000;13258688888;13458688888
623;13427221000;13258688888;13458688888
624;13427222000;13258688888;13458688888
625;13427223000;13258688888;13458688888
626;13468847000;13258688888;13458688888
627;13468852000;13300366666;13500366666
628;13468854000;13300366666;13500366666
629;13468855000;13300366666;13500366666
630;13468855000;13300366666;13500366666
631;13468856000;13300366666;13500366666
632;13468857000;13300366666;13500366666
633;13468858000;13300366666;13500366666
634;13468859000;13300366666;13500366666
635;13468860000;13300366666;13500366666
636;13468861000;13300366666;13500366666
637;13510537000;13300366666;13500366666
638;13510543000;13341977777;13541977777
639;13510544000;13341977777;13541977777
640;13510545000;13341977777;13541977777
641;13510546000;13341977777;13541977777
642;13510547000;13341977777;13541977777
643;13510548000;13341977777;13541977777
644;13510549000;13341977777;13541977777
645;13510550000;13341977777;13541977777
646;13510550000;13341977777;13541977777
647;13510551000;13341977777;13541977777
648;13552135000;13341977777;13541977777
649;13552140000;13383688888;13583688888
650;13552142000;13383688888;13583688888
651;13552142000;13383688888;13583688888
652;13552143000;13383688888;13583688888
653;13552144000;13383688888;13583688888
654;13552145000;13383688888;13583688888
655;13552167000;13383688888;13583688888
656;13552168000;13383688888;13583688888
657;13552169000;13383688888;13583688888
658;13552170000;13383688888;13583688888
659;13593847000;13383688888;13583688888
660;13593852000;13425366666;13625366666
661;13593853000;13425366666;13625366666
662;13593854000;13425366666;13625366666
663;13593855000;13425366666;13625366666
664;13593856000;13425366666;13625366666
665;13593857000;13425366666;13625366666
666;13593858000;13425366666;13625366666
667;13593859000;13425366666;13625366666
668;13593860000;13425366666;13625366666
669;13593861000;13425366666;13625366666
670;13635531000;13425366666;13625366666
671;13635546000;13467000000;13667000000
672;13635547000;13467000000;13667000000
673;13635548000;13467000000;13667000000
674;13635549000;13467000000;13667000000
675;13635550000;13467000000;13667000000
676;13635551000;13467000000;13667000000
677;13635552000;13467000000;13667000000
678;13635552000;13467000000;13667000000
679;13635553000;13467000000;13667000000
680;13635554000;13467000000;13667000000
681;13677157000;13467000000;13667000000
682;13677163000;13508711111;13708711111
683;13677164000;13508711111;13708711111
684;13677165000;13508711111;13708711111
685;13677166000;13508711111;13708711111
686;13677167000;13508711111;13708711111
687;13677168000;13508711111;13708711111
688;13677169000;13508711111;13708711111
689;13677170000;13508711111;13708711111
690;13677171000;13508711111;13708711111
691;13677171000;13508711111;13708711111
692;13718870000;13508711111;13708711111
693;13718875000;13550377777;13750377777
694;13718876000;13550377777;13750377777
695;13718877000;13550377777;13750377777
696;13718878000;13550377777;13750377777
697;13718879000;13550377777;13750377777
698;13718880000;13550377777;13750377777
699;13718881000;13550377777;13750377777
700;13718882000;13550377777;13750377777
701;13718883000;13550377777;13750377777
702;13718884000;13550377777;13750377777
703;13760550000;13550377777;13750377777
704;13760556000;13592011111;13792011111
705;13760572000;13592011111;13792011111
706;13760573000;13592011111;13792011111
707;13760574000;13592011111;13792011111
708;13760575000;13592011111;13792011111
709;13760576000;13592011111;13792011111
710;13760577000;13592011111;13792011111
711;13760578000;13592011111;13792011111
712;13760579000;13592011111;13792011111
713;13760580000;13592011111;13792011111
714;13802168000;13592011111;13792011111
715;13802173000;13633677777;13833677777
716;13802175000;13633677777;13833677777
717;13802176000;13633677777;13833677777
718;13802177000;13633677777;13833677777
719;13802177000;13633677777;13833677777
720;13802178000;13633677777;13833677777
721;13802179000;13633677777;13833677777
722;13802180000;13633677777;13833677777
723;13802181000;13633677777;13833677777
724;13802182000;13633677777;13833677777
725;13843653000;13633677777;13833677777
726;13843659000;13675377777;13875377777
727;13843660000;13675377777;13875377777
728;13843661000;13675377777;13875377777
729;13843662000;13675377777;13875377777
730;13843663000;13675377777;13875377777
731;13843664000;13675377777;13875377777
732;13843665000;13675377777;13875377777
733;13843665000;13675377777;13875377777
734;13843666000;13675377777;13875377777
735;13843667000;13675377777;13875377777
736;13885546000;13675377777;13875377777
737;13885562000;13717000000;13917000000
738;13885563000;13717000000;13917000000
739;13885564000;13717000000;13917000000
740;13885565000;13717000000;13917000000
741;13885566000;13717000000;13917000000
742;13885567000;13717000000;13917000000
743;13885568000;13717000000;13917000000
744;13885569000;13717000000;13917000000
745;13885569000;13717000000;13917000000
746;13885570000;13717000000;13917000000
747;13927157000;13717000000;13917000000
748;13927172000;13758700000;13958700000
749;13927173000;13758700000;13958700000
750;13927174000;13758700000;13958700000
751;13927175000;13758700000;13958700000
752;13927176000;13758700000;13958700000
753;13927177000;13758700000;13958700000
754;13927178000;13758700000;13958700000
755;13927179000;13758700000;13958700000
756;13927180000;13758700000;13958700000
757;13927188000;13758700000;13958700000
758;13968859000;13758700000;13958700000
759;13968874000;13800377777;14000377777
760;13968876000;13800377777;14000377777
761;13968877000;13800377777;14000377777
762;13968878000;13800377777;14000377777
763;13968878000;13800377777;14000377777
764;13968879000;13800377777;14000377777
765;13968880000;13800377777;14000377777
766;13968881000;13800377777;14000377777
767;13968882000;13800377777;14000377777
768;13968883000;13800377777;14000377777
769;14010527000;13800377777;14000377777
770;14010542000;13841988888;14041988888
771;14010544000;13841988888;14041988888
772;14010544000;13841988888;14041988888
773;14010545000;13841988888;14041988888
774;14010546000;13841988888;14041988888
775;14010547000;13841988888;14041988888
776;14010548000;13841988888;14041988888
777;14010549000;13841988888;14041988888
778;14010550000;13841988888;14041988888
779;14010551000;13841988888;14041988888
780;14052146000;13841988888;14041988888
781;14052152000;13883711111;14083711111
782;14052153000;13883711111;14083711111
783;14052154000;13883711111;14083711111
784;14052155000;13883711111;14083711111
785;14052156000;13883711111;14083711111
786;14052157000;13883711111;14083711111
787;14052158000;13883711111;14083711111
788;14052159000;13883711111;14083711111
789;14052160000;13883711111;14083711111
790;14052161000;13883711111;14083711111
791;14093910000;13883711111;14083711111
792;14093928000;13925400000;14125400000
793;14093930000;13925400000;14125400000
794;14093932000;13925400000;14125400000
795;14093933000;13925400000;14125400000
796;14093935000;13925400000;14125400000
797;14093937000;13925400000;14125400000
798;14093938000;13925400000;14125400000
799;14093939000;13925400000;14125400000
800;14093941000;13925400000;14125400000
801;14093943000;13925400000;14125400000
802;14135564000;13925400000;14125400000
803;14135570000;13967011111;14167011111
804;14135571000;13967011111;14167011111
805;14135572000;13967011111;14167011111
806;14135573000;13967011111;14167011111
807;14135574000;13967011111;14167011111
808;14135575000;13967011111;14167011111
809;14135576000;13967011111;14167011111
810;14135577000;13967011111;14167011111
811;14135578000;13967011111;14167011111
812;14135579000;13967011111;14167011111
813;14177170000;13967011111;14167011111
814;14177185000;14008700000;14208700000
815;14177186000;14008700000;14208700000
816;14177187000;14008700000;14208700000
817;14177189000;14008700000;14208700000
818;14177190000;14008700000;14208700000
819;14177191000;14008700000;14208700000
820;14177191000;14008700000;14208700000
821;14177192000;14008700000;14208700000
822;14177193000;14008700000;14208700000
823;14177194000;14008700000;14208700000
824;14218910000;14008700000;14208700000
825;14218923000;14050366666;14250366666
826;14218924000;14050366666;14250366666
827;14218925000;14050366666;14250366666
828;14218926000;14050366666;14250366666
829;14218927000;14050366666;14250366666
830;14218929000;14050366666;14250366666
831;14218930000;14050366666;14250366666
832;14218931000;14050366666;14250366666
833;14218932000;14050366666;14250366666
834;14218933000;14050366666;14250366666
835;14260526000;14050366666;14250366666
836;14260532000;14092000000;14292000000
837;14260534000;14092000000;14292000000
838;14260544000;14092000000;14292000000
839;14260545000;14092000000;14292000000
840;14260546000;14092000000;14292000000
841;14260547000;14092000000;14292000000
842;14260548000;14092000000;14292000000
843;14260549000;14092000000;14292000000
844;14260550000;14092000000;14292000000
845;14260551000;14092000000;14292000000
846;14302157000;14092000000;14292000000
847;14302163000;14133700000;14333700000
848;14302164000;14133700000;14333700000
849;14302165000;14133700000;14333700000
850;14302166000;14133700000;14333700000
851;14302167000;14133700000;14333700000
852;14302168000;14133700000;14333700000
853;14302169000;14133700000;14333700000
854;14302170000;14133700000;14333700000
855;14302171000;14133700000;14333700000
856;14302172000;14133700000;14333700000
857;14343856000;14133700000;14333700000
858;14343862000;14175377777;14375377777
859;14343863000;14175377777;14375377777
860;14343873000;14175377777;14375377777
861;14343874000;14175377777;14375377777
862;14343875000;14175377777;14375377777
863;14343876000;14175377777;14375377777
864;14343877000;14175377777;14375377777
865;14343878000;14175377777;14375377777
866;14343879000;14175377777;14375377777
867;14343880000;14175377777;14375377777
868;14385562000;14175377777;14375377777
869;14385568000;14217022222;14417022222
870;14385569000;14217022222;14417022222
871;14385570000;14217022222;14417022222
872;14385571000;14217022222;14417022222
873;14385572000;14217022222;14417022222
874;14385573000;14217022222;14417022222
875;14385574000;14217022222;14417022222
876;14385575000;14217022222;14417022222
877;14385576000;14217022222;14417022222
878;14385577000;14217022222;14417022222
879;14427190000;14217022222;14417022222
880;14427205000;14258688888;14458688888
881;14427206000;14258688888;14458688888
882;14427207000;14258688888;14458688888
883;14427208000;14258688888;14458688888
884;14427209000;14258688888;14458688888
885;14427210000;14258688888;14458688888
886;14427211000;14258688888;14458688888
887;14427212000;14258688888;14458688888
888;14427213000;14258688888;14458688888
889;14427214000;14258688888;14458688888
890;14468849000;14258688888;14458688888
891;14468864000;14300400000;14500400000
892;14468865000;14300400000;14500400000
893;14468866000;14300400000;14500400000
894;14468867000;14300400000;14500400000
895;14468868000;14300400000;14500400000
896;14468869000;14300400000;14500400000
897;14468870000;14300400000;14500400000
898;14468871000;14300400000;14500400000
899;14468871000;14300400000;14500400000
900;14468872000;14300400000;14500400000
901;14510567000;14300400000;14500400000
902;14510582000;14341988888;14541988888
903;14510583000;14341988888;14541988888
904;14510584000;14341988888;14541988888
905;14510585000;14341988888;14541988888
906;14510586000;14341988888;14541988888
907;14510587000;14341988888;14541988888
908;14510588000;14341988888;14541988888
909;14510589000;14341988888;14541988888
910;14510590000;14341988888;14541988888
911;14510591000;14341988888;14541988888
912;14552119000;14341988888;14541988888
913;14552134000;14383688888;14583688888
914;14552135000;14383688888;14583688888
915;14552136000;14383688888;14583688888
916;14552137000;14383688888;14583688888
917;14552138000;14383688888;14583688888
918;14552139000;14383688888;14583688888
919;14552140000;14383688888;14583688888
920;14552141000;14383688888;14583688888
921;14552142000;14383688888;14583688888
922;14552143000;14383688888;14583688888
923;14593914000;14383688888;14583688888
924;14593932000;14425377777;14625377777
925;14593934000;14425377777;14625377777
926;14593936000;14425377777;14625377777
927;14593946000;14425377777;14625377777
928;14593948000;14425377777;14625377777
929;14593949000;14425377777;14625377777
930;14593950000;14425377777;14625377777
931;14593952000;14425377777;14625377777
932;14593953000;14425377777;14625377777
933;14593954000;14425377777;14625377777
934;14635499000;14425377777;14625377777
935;14635505000;14467011111;14667011111
936;14635506000;14467011111;14667011111
937;14635529000;14467011111;14667011111
938;14635530000;14467011111;14667011111
939;14635531000;14467011111;14667011111
940;14635532000;14467011111;14667011111
941;14635533000;14467011111;14667011111
942;14635534000;14467011111;14667011111
943;14635535000;14467011111;14667011111
944;14635536000;14467011111;14667011111
945;14677169000;14467011111;14667011111
946;14677175000;14508700000;14708700000
947;14677176000;14508700000;14708700000
948;14677177000;14508700000;14708700000
949;14677178000;14508700000;14708700000
950;14677179000;14508700000;14708700000
951;14677179000;14508700000;14708700000
952;14677180000;14508700000;14708700000
953;14677181000;14508700000;14708700000
954;14677182000;14508700000;14708700000
955;14677183000;14508700000;14708700000
956;14718858000;14508700000;14708700000
957;14718863000;14550388888;14750388888
958;14718864000;14550388888;14750388888
959;14718865000;14550388888;14750388888
960;14718866000;14550388888;14750388888
961;14718867000;14550388888;14750388888
962;14718878000;14550388888;14750388888
963;14718879000;14550388888;14750388888
964;14718880000;14550388888;14750388888
965;14718880000;14550388888;14750388888
966;14718881000;14550388888;14750388888
967;14760547000;14550388888;14750388888
968;14760562000;14592022222;14792022222
969;14760563000;14592022222;14792022222
970;14760564000;14592022222;14792022222
971;14760565000;14592022222;14792022222
972;14760566000;14592022222;14792022222
973;14760567000;14592022222;14792022222
974;14760568000;14592022222;14792022222
975;14760569000;14592022222;14792022222
976;14760570000;14592022222;14792022222
977;14760571000;14592022222;14792022222
978;14802180000;14592022222;14792022222
979;14802186000;14633688888;14833688888
980;14802187000;14633688888;14833688888
981;14802188000;14633688888;14833688888
982;14802189000;14633688888;14833688888
983;14802190000;14633688888;14833688888
984;14802191000;14633688888;14833688888
985;14802192000;14633688888;14833688888
986;14802193000;14633688888;14833688888
987;14802194000;14633688888;14833688888
988;14802194000;14633688888;14833688888
989;14843846000;14633688888;14833688888
990;14843852000;14675366666;14875366666
991;14843853000;14675366666;14875366666
992;14843854000;14675366666;14875366666
993;14843855000;14675366666;14875366666
994;14843856000;14675366666;14875366666
995;14843857000;14675366666;14875366666
996;14843858000;14675366666;14875366666
997;14843859000;14675366666;14875366666
998;14843860000;14675366666;14875366666
999;14843861000;14675366666;14875366666
1000;14885560000;14675366666;14875366666
1001;14885566000;14717022222;14917022222
1002;14885567000;14717022222;14917022222
1003;14885568000;14717022222;14917022222
1004;14885569000;14717022222;14917022222
1005;14885570000;14717022222;14917022222
1006;14885570000;14717022222;14917022222
1007;14885571000;14717022222;14917022222
1008;14885572000;14717022222;14917022222
1009;14885573000;14717022222;14917022222
1010;14885574000;14717022222;14917022222
1011;14927180000;14717022222;14917022222
1012;14927185000;14758700000;14958700000
1013;14927187000;14758700000;14958700000
1014;14927188000;14758700000;14958700000
1015;14927188000;14758700000;14958700000
1016;14927189000;14758700000;14958700000
1017;14927190000;14758700000;14958700000
1018;14927191000;14758700000;14958700000
1019;14927192000;14758700000;14958700000
1020;14927193000;14758700000;14958700000
1021;14927194000;14758700000;14958700000
1022;14968858000;14758700000;14958700000
1023;14968864000;14800377777;15000377777
1024;14968865000;14800377777;15000377777
1025;14968866000;14800377777;15000377777
1026;14968867000;14800377777;15000377777
1027;14968868000;14800377777;15000377777
1028;14968869000;14800377777;15000377777
1029;14968870000;14800377777;15000377777
1030;14968871000;14800377777;15000377777
1031;14968872000;14800377777;15000377777
1032;14968874000;14800377777;15000377777
1033;15010544000;14800377777;15000377777
1034;15010550000;14842000000;15042000000
1035;15010551000;14842000000;15042000000
1036;15010552000;14842000000;15042000000
1037;15010553000;14842000000;15042000000
1038;15010554000;14842000000;15042000000
1039;15010554000;14842000000;15042000000
1040;15010555000;14842000000;15042000000
1041;15010556000;14842000000;15042000000
1042;15010557000;14842000000;15042000000
1043;15010558000;14842000000;15042000000
1044;15052157000;14842000000;15042000000
1045;15052163000;14883700000;15083700000
1046;15052164000;14883700000;15083700000
1047;15052165000;14883700000;15083700000
1048;15052166000;14883700000;15083700000
1049;15052167000;14883700000;15083700000
1050;15052168000;14883700000;15083700000
1051;15052169000;14883700000;15083700000
1052;15052170000;14883700000;15083700000
1053;15052170000;14883700000;15083700000
1054;15052171000;14883700000;15083700000
1055;15093858000;14883700000;15083700000
1056;15093863000;14925366666;15125366666
1057;15093864000;14925366666;15125366666
1058;15093866000;14925366666;15125366666
1059;15093867000;14925366666;15125366666
1060;15093867000;14925366666;15125366666
1061;15093868000;14925366666;15125366666
1062;15093869000;14925366666;15125366666
1063;15093877000;14925366666;15125366666
1064;15093879000;14925366666;15125366666
1065;15093879000;14925366666;15125366666
1066;15135531000;14925366666;15125366666
1067;15135537000;14967022222;15167022222
1068;15135538000;14967022222;15167022222
1069;15135539000;14967022222;15167022222
1070;15135540000;14967022222;15167022222
1071;15135541000;14967022222;15167022222
1072;15135542000;14967022222;15167022222
1073;15135543000;14967022222;15167022222
1074;15135544000;14967022222;15167022222
1075;15135545000;14967022222;15167022222
1076;15135546000;14967022222;15167022222
1077;15177180000;14967022222;15167022222
1078;15177186000;15008722222;15208722222
1079;15177187000;15008722222;15208722222
1080;15177188000;15008722222;15208722222
1081;15177189000;15008722222;15208722222
1082;15177190000;15008722222;15208722222
1083;15177191000;15008722222;15208722222
1084;15177192000;15008722222;15208722222
1085;15177192000;15008722222;15208722222
1086;15177193000;15008722222;15208722222
1087;15177194000;15008722222;15208722222
1088;15218882000;15008722222;15208722222
1089;15218897000;15050388888;15250388888
1090;15218898000;15050388888;15250388888
1091;15218899000;15050388888;15250388888
1092;15218900000;15050388888;15250388888
1093;15218901000;15050388888;15250388888
1094;15218902000;15050388888;15250388888
1095;15218903000;15050388888;15250388888
1096;15218904000;15050388888;15250388888
1097;15218904000;15050388888;15250388888
1098;15218905000;15050388888;15250388888
1099;15260555000;15050388888;15250388888
1100;15260570000;15092011111;15292011111
1101;15260571000;15092011111;15292011111
1102;15260572000;15092011111;15292011111
1103;15260573000;15092011111;15292011111
1104;15260574000;15092011111;15292011111
1105;15260575000;15092011111;15292011111
1106;15260576000;15092011111;15292011111
1107;15260576000;15092011111;15292011111
1108;15260577000;15092011111;15292011111
1109;15260578000;15092011111;15292011111
1110;15302171000;15092011111;15292011111
1111;15302186000;15133733333;15333733333
1112;15302187000;15133733333;15333733333
1113;15302188000;15133733333;15333733333
1114;15302189000;15133733333;15333733333
1115;15302190000;15133733333;15333733333
1116;15302191000;15133733333;15333733333
1117;15302192000;15133733333;15333733333
1118;15302193000;15133733333;15333733333
1119;15302194000;15133733333;15333733333
1120;15302195000;15133733333;15333733333
1121;15343894000;15133733333;15333733333
1122;15343909000;15175400000;15375400000
1123;15343911000;15175400000;15375400000
1124;15343912000;15175400000;15375400000
1125;15343913000;15175400000;15375400000
1126;15343914000;15175400000;15375400000
1127;15343915000;15175400000;15375400000
1128;15343916000;15175400000;15375400000
1129;15343916000;15175400000;15375400000
1130;15343917000;15175400000;15375400000
1131;15343918000;15175400000;15375400000
1132;15387961000;15175400000;15375400000
1133;15387978000;15217033333;15417033333
1134;15387990000;15217033333;15417033333
1135;15387991000;15217033333;15417033333
1136;15387993000;15217033333;15417033333
1137;15387995000;15217033333;15417033333
1138;15387996000;15217033333;15417033333
1139;15387997000;15217033333;15417033333
1140;15387998000;15217033333;15417033333
1141;15388000000;15217033333;15417033333
1142;15388001000;15217033333;15417033333
1143;15427184000;15217033333;15417033333
1144;15427190000;15258688888;15458688888
1145;15427191000;15258688888;15458688888
1146;15427192000;15258688888;15458688888
1147;15427193000;15258688888;15458688888
1148;15427194000;15258688888;15458688888
1149;15427195000;15258688888;15458688888
1150;15427196000;15258688888;15458688888
1151;15427197000;15258688888;15458688888
1152;15427198000;15258688888;15458688888
1153;15427198000;15258688888;15458688888
1154;15468680000;15258688888;15458688888
1155;15468687000;15300366666;15500366666
1156;15468689000;15300366666;15500366666
1157;15468690000;15300366666;15500366666
1158;15468691000;15300366666;15500366666
1159;15468692000;15300366666;15500366666
1160;15468693000;15300366666;15500366666
1161;15468694000;15300366666;15500366666
1162;15468695000;15300366666;15500366666
1163;15468705000;15300366666;15500366666
1164;15468706000;15300366666;15500366666
1165;15510531000;15300366666;15500366666
