seqnum;now;rtptime;deadline
1;5352666000;5062377777;5562377777
3;5436006000;5093588888;5593588888
14;5475181000;5135244444;5635244444
36;5556410000;5218577777;5718577777
44;5556503000;5218933333;5718933333
45;5556515000;5218933333;5718933333
46;5556516000;5218933333;5718933333
47;5595798000;5260244444;5760244444
69;5734534000;5343577777;5843577777
113;5857303000;5510211111;6010211111
150;6001520000;5635211111;6135211111
199;6153856000;5802211111;6302211111
233;6290434000;5927266666;6427266666
265;6350806000;6052244444;6552244444
276;6465310000;6093844444;6593844444
321;6625492000;6260922222;6760922222
353;6770633000;6385566666;6885566666
386;6819705000;6510555555;7010555555
419;6968073000;6635566666;7135566666
454;7067319000;6801866666;7301866666
487;7234332000;6926877777;7426877777
510;7264126000;7010244444;7510244444
511;7264130000;7010244444;7510244444
512;7264131000;7010244444;7510244444
513;7264132000;7010244444;7510244444
514;7264134000;7010244444;7510244444
515;7264135000;7010244444;7510244444
516;7264263000;7010266666;7510266666
517;7264268000;7010555555;7510555555
518;7264270000;7010555555;7510555555
519;7264271000;7010555555;7510555555
520;7286449000;7051877777;7551877777
542;7412993000;7135244444;7635244444
571;7475004000;7218600000;7718600000
572;7475025000;7218866666;7718866666
573;7475027000;7218866666;7718866666
574;7475028000;7218866666;7718866666
575;7497338000;7260244444;7760244444
576;7497349000;7260244444;7760244444
577;7497351000;7260244444;7760244444
578;7497353000;7260244444;7760244444
579;7497354000;7260244444;7760244444
580;7497356000;7260244444;7760244444
581;7497357000;7260244444;7760244444
582;7497495000;7260266666;7760266666
583;7497501000;7260555555;7760555555
584;7497503000;7260555555;7760555555
585;7497504000;7260555555;7760555555
586;7519100000;7301877777;7801877777
587;7519104000;7301877777;7801877777
588;7519105000;7301877777;7801877777
589;7519107000;7301877777;7801877777
590;7519108000;7301877777;7801877777
591;7519109000;7301877777;7801877777
592;7519111000;7301877777;7801877777
593;7519216000;7301900000;7801900000
594;7522455000;7302188888;7802188888
595;7522457000;7302188888;7802188888
596;7522616000;7302188888;7802188888
597;7655973000;7343600000;7843600000
637;7769808000;7468600000;7968600000
670;7858192000;7593600000;8093600000
671;7858198000;7593877777;8093877777
672;7858200000;7593877777;8093877777
673;7858200000;7593877777;8093877777
674;7882176000;7635244444;8135244444
675;7882180000;7635244444;8135244444
676;7882181000;7635244444;8135244444
677;7882182000;7635244444;8135244444
678;7882183000;7635244444;8135244444
679;7882184000;7635244444;8135244444
680;7882185000;7635244444;8135244444
681;7882310000;7635266666;8135266666
682;7882315000;7635566666;8135566666
683;7882317000;7635566666;8135566666
684;7882318000;7635566666;8135566666
685;7913308000;7676888888;8176888888
703;8057228000;7718600000;8218600000
736;8155580000;7843600000;8343600000
769;8219358000;7968622222;8468622222
770;8219373000;7968900000;8468900000
771;8219375000;7968900000;8468900000
772;8219376000;7968900000;8468900000
773;8248638000;8010211111;8510211111
802;8418488000;8093600000;8593600000
836;8418494000;8218877777;8718877777
837;8418496000;8218877777;8718877777
838;8418497000;8218877777;8718877777
839;8550067000;8260222222;8760222222
857;8580477000;8301900000;8801900000
858;8580483000;8302211111;8802211111
859;8580485000;8302211111;8802211111
860;8580486000;8302211111;8802211111
861;8587384000;8343577777;8843577777
862;8587387000;8343577777;8843577777
863;8587389000;8343577777;8843577777
864;8587390000;8343577777;8843577777
865;8587390000;8343577777;8843577777
866;8587392000;8343577777;8843577777
867;8587393000;8343577777;8843577777
868;8587463000;8343600000;8843600000
869;8587468000;8343888888;8843888888
870;8587469000;8343888888;8843888888
871;8587470000;8343888888;8843888888
872;8609571000;8385211111;8885211111
885;8739060000;8426922222;8926922222
916;8825756000;8551911111;9051911111
917;8825759000;8551911111;9051911111
918;8825760000;8551911111;9051911111
919;8825761000;8551911111;9051911111
920;8825762000;8551911111;9051911111
921;8825773000;8551911111;9051911111
922;8825774000;8551911111;9051911111
923;8825897000;8551933333;9051933333
924;8825902000;8552244444;9052244444
925;8825903000;8552244444;9052244444
926;8825904000;8552244444;9052244444
927;8854688000;8593577777;9093577777
960;8926696000;8718577777;9218577777
961;8926700000;8718577777;9218577777
962;8926701000;8718577777;9218577777
963;8926702000;8718577777;9218577777
964;8926703000;8718577777;9218577777
965;8926704000;8718577777;9218577777
966;8926705000;8718577777;9218577777
967;8926832000;8718600000;9218600000
968;8926838000;8718888888;9218888888
969;8926840000;8718888888;9218888888
970;8926841000;8718888888;9218888888
971;9061881000;8760211111;9260211111
993;9133260000;8843577777;9343577777
1025;9186472000;8927233333;9427233333
1026;9217656000;8968544444;9468544444
1057;9339126000;9052211111;9552211111
1090;9431009000;9177200000;9677200000
1092;9461703000;9218544444;9718544444
1124;9615622000;9302255555;9802255555
1158;9709666000;9468577777;9968577777
1180;9822137000;9551922222;10051922222
1213;9915210000;9676911111;10176911111
1214;9915214000;9676911111;10176911111
1215;9915215000;9676911111;10176911111
1216;9915216000;9676911111;10176911111
1217;9915217000;9676911111;10176911111
1218;9915218000;9676911111;10176911111
1219;9915218000;9676911111;10176911111
1220;9915332000;9676933333;10176933333
1221;9915337000;9677222222;10177222222
1222;9915339000;9677222222;10177222222
1223;9915340000;9677222222;10177222222
1224;9944530000;9718577777;10218577777
1246;9983633000;9801911111;10301911111
1255;9983699000;9802200000;10302200000
1256;9983711000;9802200000;10302200000
1257;10105849000;9843544444;10343544444
1290;10216804000;9968566666;10468566666
1323;10297105000;10093566666;10593566666
1345;10341753000;10176933333;10676933333
1356;10371330000;10218566666;10718566666
1367;10394650000;10260355555;10760355555
1368;10394654000;10260355555;10760355555
1369;10394655000;10260355555;10760355555
1370;10394656000;10260355555;10760355555
1371;10394657000;10260355555;10760355555
1372;10394658000;10260355555;10760355555
1373;10394659000;10260355555;10760355555
1374;10394760000;10260444444;10760444444
1375;10394766000;10260755555;10760755555
1376;10394767000;10260755555;10760755555
1377;10394768000;10260755555;10760755555
1378;10427625000;10301944444;10801944444
1379;10427628000;10301944444;10801944444
1380;10427629000;10301944444;10801944444
1381;10427630000;10301944444;10801944444
1382;10427631000;10301944444;10801944444
1383;10427632000;10301944444;10801944444
1384;10427633000;10301944444;10801944444
1385;10427751000;10302022222;10802022222
1386;10427755000;10302355555;10802355555
1387;10427757000;10302355555;10802355555
1388;10427758000;10302355555;10802355555
1389;10463820000;10343566666;10843566666
1390;10463824000;10343566666;10843566666
1391;10463825000;10343566666;10843566666
1392;10463826000;10343566666;10843566666
1393;10463827000;10343566666;10843566666
1394;10463827000;10343566666;10843566666
1395;10463828000;10343566666;10843566666
1396;10463941000;10343588888;10843588888
1397;10463946000;10343888888;10843888888
1398;10463947000;10343888888;10843888888
1399;10463948000;10343888888;10843888888
1400;10501068000;10385277777;10885277777
1401;10501071000;10385277777;10885277777
1402;10501072000;10385277777;10885277777
1403;10501073000;10385277777;10885277777
1404;10501074000;10385277777;10885277777
1405;10501075000;10385277777;10885277777
1406;10501076000;10385277777;10885277777
1407;10501188000;10385355555;10885355555
1408;10501193000;10385666666;10885666666
1409;10501194000;10385666666;10885666666
1410;10501195000;10385666666;10885666666
1411;10540070000;10426944444;10926944444
1412;10540083000;10426944444;10926944444
1413;10540084000;10426944444;10926944444
1414;10540085000;10426944444;10926944444
1415;10540086000;10426944444;10926944444
1416;10540087000;10426944444;10926944444
1417;10540088000;10426944444;10926944444
1418;10540209000;10427022222;10927022222
1419;10540214000;10427344444;10927344444
1420;10540215000;10427344444;10927344444
1421;10540216000;10427344444;10927344444
1422;10580153000;10468622222;10968622222
1423;10580156000;10468622222;10968622222
1424;10580157000;10468622222;10968622222
1425;10580158000;10468622222;10968622222
1426;10580159000;10468622222;10968622222
1427;10580160000;10468622222;10968622222
1428;10580161000;10468622222;10968622222
1429;10580281000;10468666666;10968666666
1430;10580286000;10468933333;10968933333
1431;10580287000;10468933333;10968933333
1432;10580288000;10468933333;10968933333
1433;10621159000;10510277777;11010277777
1434;10621163000;10510277777;11010277777
1435;10621164000;10510277777;11010277777
1436;10621164000;10510277777;11010277777
1437;10621165000;10510277777;11010277777
1438;10621166000;10510277777;11010277777
1439;10621167000;10510277777;11010277777
1440;10621269000;10510355555;11010355555
1441;10621274000;10510655555;11010655555
1442;10621275000;10510655555;11010655555
1443;10621276000;10510655555;11010655555
1444;10662552000;10551944444;11051944444
1445;10662556000;10551944444;11051944444
1446;10662557000;10551944444;11051944444
1447;10662558000;10551944444;11051944444
1448;10662559000;10551944444;11051944444
1449;10662560000;10551944444;11051944444
1450;10662561000;10551944444;11051944444
1451;10662679000;10552022222;11052022222
1452;10662684000;10552344444;11052344444
1453;10662686000;10552344444;11052344444
1454;10662686000;10552344444;11052344444
1455;10829035000;10593611111;11093611111
1477;10903328000;10676977777;11176977777
1499;10970991000;10760255555;11260255555
1510;11001649000;10801922222;11301922222
1521;11030844000;10843588888;11343588888
1532;11057506000;10885288888;11385288888
1543;11084482000;10926922222;11426922222
1544;11084486000;10926922222;11426922222
1545;11084487000;10926922222;11426922222
1546;11084488000;10926922222;11426922222
1547;11084489000;10926922222;11426922222
1548;11084489000;10926922222;11426922222
1549;11084490000;10926922222;11426922222
1550;11084611000;10926944444;11426944444
1551;11084616000;10927255555;11427255555
1552;11084618000;10927255555;11427255555
1553;11084619000;10927255555;11427255555
1554;11114609000;10968588888;11468588888
1555;11114612000;10968588888;11468588888
1556;11114613000;10968588888;11468588888
1557;11114614000;10968588888;11468588888
1558;11114615000;10968588888;11468588888
1559;11114616000;10968588888;11468588888
1560;11114617000;10968588888;11468588888
1561;11114738000;10968600000;11468600000
1562;11114744000;10968877777;11468877777
1563;11114745000;10968877777;11468877777
1564;11114746000;10968877777;11468877777
1565;11145804000;11010255555;11510255555
1566;11145808000;11010255555;11510255555
1567;11145809000;11010255555;11510255555
1568;11145810000;11010255555;11510255555
1569;11145811000;11010255555;11510255555
1570;11145812000;11010255555;11510255555
1571;11145813000;11010255555;11510255555
1572;11145934000;11010277777;11510277777
1573;11145939000;11010577777;11510577777
1574;11145940000;11010577777;11510577777
1575;11145941000;11010577777;11510577777
1576;11178812000;11051944444;11551944444
1577;11178824000;11051944444;11551944444
1578;11178825000;11051944444;11551944444
1579;11178826000;11051944444;11551944444
1580;11178827000;11051944444;11551944444
1581;11178828000;11051944444;11551944444
1582;11178829000;11051944444;11551944444
1583;11178918000;11051955555;11551955555
1584;11178923000;11052277777;11552277777
1585;11178924000;11052277777;11552277777
1586;11178925000;11052277777;11552277777
1587;11269134000;11093622222;11593622222
1598;11310161000;11135233333;11635233333
1609;11350983000;11176922222;11676922222
1620;11391195000;11218577777;11718577777
1631;11430461000;11260244444;11760244444
1642;11468861000;11301944444;11801944444
1653;11505048000;11343588888;11843588888
1664;11709104000;11385244444;11885244444
1710;11797722000;11551911111;12051911111
1728;11865140000;11593900000;12093900000
1750;11927375000;11677300000;12177300000
1758;11965767000;11718577777;12218577777
1769;11994112000;11760211111;12260211111
1780;12070245000;11801911111;12301911111
1796;12148151000;11885244444;12385244444
1818;12213093000;11968577777;12468577777
1829;12242247000;12010222222;12510222222
1840;12269759000;12051911111;12551911111
1841;12269762000;12051911111;12551911111
1842;12269763000;12051911111;12551911111
1843;12269764000;12051911111;12551911111
1844;12269765000;12051911111;12551911111
1845;12269766000;12051911111;12551911111
1846;12269767000;12051911111;12551911111
1847;12269869000;12051922222;12551922222
1848;12269874000;12052200000;12552200000
1849;12269876000;12052200000;12552200000
1850;12269877000;12052200000;12552200000
1851;12296397000;12093577777;12593577777
1852;12296400000;12093577777;12593577777
1853;12296401000;12093577777;12593577777
1854;12296402000;12093577777;12593577777
1855;12296403000;12093577777;12593577777
1856;12296404000;12093577777;12593577777
1857;12296405000;12093577777;12593577777
1858;12352972000;12093588888;12593588888
1862;12352978000;12135244444;12635244444
1863;12352980000;12135244444;12635244444
1864;12352981000;12135244444;12635244444
1865;12352982000;12135244444;12635244444
1866;12352983000;12135244444;12635244444
1867;12352993000;12135244444;12635244444
1868;12352994000;12135244444;12635244444
1869;12394068000;12135255555;12635255555
1873;12394074000;12176911111;12676911111
1874;12394075000;12176911111;12676911111
1875;12394076000;12176911111;12676911111
1876;12394077000;12176911111;12676911111
1877;12394078000;12176911111;12676911111
1878;12394079000;12176911111;12676911111
1879;12394080000;12176911111;12676911111
1880;12434387000;12176944444;12676944444
1884;12434393000;12218577777;12718577777
1885;12434395000;12218577777;12718577777
1886;12434396000;12218577777;12718577777
1887;12434397000;12218577777;12718577777
1888;12434398000;12218577777;12718577777
1889;12434398000;12218577777;12718577777
1890;12434399000;12218577777;12718577777
1891;12598786000;12218588888;12718588888
1918;12653135000;12343566666;12843566666
1920;12653137000;12343566666;12843566666
1921;12653138000;12343566666;12843566666
1922;12653139000;12343566666;12843566666
1923;12653141000;12343566666;12843566666
1924;12691751000;12343588888;12843588888
1938;12691757000;12385544444;12885544444
1939;12832428000;12426911111;12926911111
1972;12916639000;12551911111;13051911111
1994;12954982000;12635222222;13135222222
2005;12977721000;12676911111;13176911111
2006;12977725000;12676911111;13176911111
2007;12977726000;12676911111;13176911111
2008;12977727000;12676911111;13176911111
2009;12977728000;12676911111;13176911111
2010;12977729000;12676911111;13176911111
2011;12977730000;12676911111;13176911111
2012;12977846000;12676933333;13176933333
2013;12977851000;12677277777;13177277777
2014;12977852000;12677277777;13177277777
2015;12977853000;12677277777;13177277777
2016;13002414000;12718644444;13218644444
2017;13002418000;12718644444;13218644444
2018;13002419000;12718644444;13218644444
2019;13002420000;12718644444;13218644444
2020;13002421000;12718644444;13218644444
2021;13002422000;12718644444;13218644444
2022;13002423000;12718644444;13218644444
2023;13075183000;12718666666;13218666666
2027;13075189000;12760188888;13260188888
2028;13075190000;12760188888;13260188888
2029;13075191000;12760188888;13260188888
2030;13075192000;12760188888;13260188888
2031;13075202000;12760188888;13260188888
2032;13075203000;12760188888;13260188888
2033;13075204000;12760188888;13260188888
2034;13116320000;12760211111;13260211111
2038;13116326000;12801911111;13301911111
2039;13116328000;12801911111;13301911111
2040;13116328000;12801911111;13301911111
2041;13116329000;12801911111;13301911111
2042;13116339000;12801911111;13301911111
2043;13116341000;12801911111;13301911111
2044;13116342000;12801911111;13301911111
2045;13156988000;12801922222;13301922222
2049;13156994000;12843577777;13343577777
2050;13156996000;12843577777;13343577777
2051;13156996000;12843577777;13343577777
2052;13156998000;12843577777;13343577777
2053;13156998000;12843577777;13343577777
2054;13157009000;12843577777;13343577777
2055;13157009000;12843577777;13343577777
2056;13195450000;12843588888;13343588888
2060;13195457000;12885211111;13385211111
2061;13195459000;12885211111;13385211111
2062;13195460000;12885211111;13385211111
2063;13195461000;12885211111;13385211111
2064;13195479000;12885211111;13385211111
2065;13195480000;12885211111;13385211111
2066;13195481000;12885211111;13385211111
2067;13233944000;12885222222;13385222222
2071;13233950000;12926911111;13426911111
2072;13233951000;12926911111;13426911111
2073;13233952000;12926911111;13426911111
2074;13233953000;12926911111;13426911111
2075;13233963000;12926911111;13426911111
2076;13233964000;12926911111;13426911111
2077;13233965000;12926911111;13426911111
2078;13270989000;12926933333;13426933333
2081;13270996000;12927233333;13427233333
2082;13308690000;12968577777;13468577777
2090;13308754000;12968866666;13468866666
2091;13308766000;12968866666;13468866666
2092;13308767000;12968866666;13468866666
2093;13343323000;13010211111;13510211111
2096;13343327000;13010211111;13510211111
2097;13343328000;13010211111;13510211111
2098;13343329000;13010211111;13510211111
2099;13343330000;13010211111;13510211111
2100;13343449000;13010222222;13510222222
2101;13343455000;13010533333;13510533333
2102;13343456000;13010533333;13510533333
2103;13343457000;13010533333;13510533333
2104;13379456000;13051911111;13551911111
2105;13379460000;13051911111;13551911111
2106;13379461000;13051911111;13551911111
2107;13379462000;13051911111;13551911111
2108;13379463000;13051911111;13551911111
2109;13379464000;13051911111;13551911111
2110;13379465000;13051911111;13551911111
2111;13379565000;13051922222;13551922222
2112;13379571000;13052244444;13552244444
2113;13379572000;13052244444;13552244444
2114;13379573000;13052244444;13552244444
2115;13417064000;13093577777;13593577777
2116;13417068000;13093577777;13593577777
2117;13417069000;13093577777;13593577777
2118;13417070000;13093577777;13593577777
2119;13417071000;13093577777;13593577777
2120;13417072000;13093577777;13593577777
2121;13417073000;13093577777;13593577777
2122;13466846000;13093600000;13593600000
2130;13466852000;13135244444;13635244444
2131;13466853000;13135244444;13635244444
2132;13466854000;13135244444;13635244444
2133;13508210000;13135266666;13635266666
2139;13508216000;13176911111;13676911111
2140;13508218000;13176911111;13676911111
2141;13508219000;13176911111;13676911111
2142;13508220000;13176911111;13676911111
2143;13508221000;13176911111;13676911111
2144;13548980000;13176922222;13676922222
2148;13548986000;13218544444;13718544444
2149;13548988000;13218544444;13718544444
2150;13548989000;13218544444;13718544444
2151;13548990000;13218544444;13718544444
2152;13548991000;13218544444;13718544444
2153;13548992000;13218544444;13718544444
2154;13549002000;13218544444;13718544444
2155;13587384000;13218566666;13718566666
2163;13587390000;13260244444;13760244444
2164;13587392000;13260244444;13760244444
2165;13587393000;13260244444;13760244444
2166;13625190000;13260266666;13760266666
2170;13625196000;13301877777;13801877777
2171;13625197000;13301877777;13801877777
2172;13625198000;13301877777;13801877777
2173;13625199000;13301877777;13801877777
2174;13625200000;13301877777;13801877777
2175;13625210000;13301877777;13801877777
2176;13625211000;13301877777;13801877777
2177;13663179000;13301900000;13801900000
2181;13663185000;13343577777;13843577777
2182;13663186000;13343577777;13843577777
2183;13663187000;13343577777;13843577777
2184;13663188000;13343577777;13843577777
2185;13663189000;13343577777;13843577777
2186;13663190000;13343577777;13843577777
2187;13663191000;13343577777;13843577777
2188;13757167000;13343600000;13843600000
2205;13757173000;13426911111;13926911111
2206;13757174000;13426911111;13926911111
2207;13757175000;13426911111;13926911111
2208;13757176000;13426911111;13926911111
2209;13757177000;13426911111;13926911111
2210;13836267000;13426933333;13926933333
2214;13836273000;13468577777;13968577777
2215;13836274000;13468577777;13968577777
2216;13836275000;13468577777;13968577777
2217;13836276000;13468577777;13968577777
2218;13836277000;13468577777;13968577777
2219;13836287000;13468577777;13968577777
2220;13836288000;13468577777;13968577777
2221;13871405000;13468600000;13968600000
2238;13871412000;13551911111;14051911111
2239;13871413000;13551911111;14051911111
2240;13871414000;13551911111;14051911111
2241;13871423000;13551911111;14051911111
2242;13871423000;13551911111;14051911111
2243;13939819000;13551922222;14051922222
2247;13939825000;13593577777;14093577777
2248;13939827000;13593577777;14093577777
2249;13939828000;13593577777;14093577777
2250;13939829000;13593577777;14093577777
2251;13939830000;13593577777;14093577777
2252;13939840000;13593577777;14093577777
2253;13939841000;13593577777;14093577777
2254;13964957000;13593600000;14093600000
2255;13964964000;13593888888;14093888888
2256;13964965000;13593888888;14093888888
2257;13964966000;13593888888;14093888888
2258;13999748000;13635211111;14135211111
2271;14021498000;13676911111;14176911111
2273;14021501000;13676911111;14176911111
2274;14021502000;13676911111;14176911111
2275;14021503000;13676911111;14176911111
2276;14021605000;13676922222;14176922222
2277;14021610000;13677266666;14177266666
2278;14021612000;13677266666;14177266666
2279;14021613000;13677266666;14177266666
2280;14118131000;13718577777;14218577777
2305;14197146000;13801911111;14301911111
2313;14235997000;13843577777;14343577777
2339;14299292000;13926911111;14426911111
2346;14334631000;13968577777;14468577777
2347;14334634000;13968577777;14468577777
2348;14334635000;13968577777;14468577777
2349;14334636000;13968577777;14468577777
2350;14334637000;13968577777;14468577777
2351;14334638000;13968577777;14468577777
2352;14334639000;13968577777;14468577777
2353;14334762000;13968588888;14468588888
2354;14334768000;13968877777;14468877777
2355;14334770000;13968877777;14468877777
2356;14334771000;13968877777;14468877777
2357;14360667000;14010244444;14510244444
2374;14429390000;14051911111;14551911111
2379;14470768000;14093577777;14593577777
2405;14550389000;14176911111;14676911111
2418;14589359000;14218544444;14718544444
2445;14687518000;14343577777;14843577777
2456;14721516000;14385211111;14885211111
2478;14759525000;14468555555;14968555555
2489;14784379000;14510188888;15010188888
2490;14784383000;14510188888;15010188888
2491;14784383000;14510188888;15010188888
2492;14784384000;14510188888;15010188888
2493;14784385000;14510188888;15010188888
2494;14784386000;14510188888;15010188888
2495;14784387000;14510188888;15010188888
2496;14841103000;14510200000;15010200000
2522;14841109000;14635200000;15135200000
2523;14841110000;14635200000;15135200000
2524;14841111000;14635200000;15135200000
2525;14841112000;14635200000;15135200000
2526;14841113000;14635200000;15135200000
2527;14841123000;14635200000;15135200000
2528;14841124000;14635200000;15135200000
2529;14961149000;14635233333;15135233333
2554;14961155000;14718888888;15218888888
2555;15140534000;14760200000;15260200000
2594;15140651000;14885222222;15385222222
2600;15215494000;14926911111;15426911111
2613;15308453000;14968577777;15468577777
2645;15434190000;15093577777;15593577777
2676;15548411000;15218577777;15718577777
2718;15671837000;15343911111;15843911111
2761;15768842000;15510588888;16010588888
2772;15804491000;15552244444;16052244444
2778;15876805000;15593577777;16093577777
2806;15984333000;15677255555;16177255555
2825;16069116000;15760255555;16260255555
2858;16157190000;15885277777;16385277777
2884;16245203000;15968866666;16468866666
2896;16292902000;16051922222;16551922222
2918;16406427000;16135355555;16635355555
2951;16485113000;16260233333;16760233333
2959;16485200000;16260533333;16760533333
2960;16485203000;16260533333;16760533333
2961;16485205000;16260533333;16760533333
2962;16515299000;16301888888;16801888888
2970;16515419000;16302188888;16802188888
2972;16515422000;16302188888;16802188888
2973;16527154000;16343577777;16843577777
2981;16681582000;16343866666;16843866666
3017;16816033000;16510211111;17010211111
3046;16844072000;16593600000;17093600000
3047;16844076000;16593855555;17093855555
3048;16844077000;16593855555;17093855555
3049;16844078000;16593855555;17093855555
3050;16864324000;16635222222;17135222222
3051;16864328000;16635222222;17135222222
3052;16864329000;16635222222;17135222222
3053;16864329000;16635222222;17135222222
3054;16864330000;16635222222;17135222222
3055;16864331000;16635222222;17135222222
3056;16864332000;16635222222;17135222222
3057;16864540000;16635244444;17135244444
3058;16864555000;16635566666;17135566666
3059;16864556000;16635566666;17135566666
3060;16864557000;16635566666;17135566666
3061;16894376000;16676911111;17176911111
3071;17080351000;16677222222;17177222222
3102;17151440000;16802188888;17302188888
3116;17209159000;16885211111;17385211111
3126;17209208000;16885522222;17385522222
3127;17209220000;16926911111;17426911111
3128;17209221000;16926911111;17426911111
3129;17209222000;16926911111;17426911111
3130;17209223000;16926911111;17426911111
3131;17209224000;16926911111;17426911111
3132;17209225000;16926911111;17426911111
3133;17209226000;16926911111;17426911111
3134;17209278000;16926933333;17426933333
3135;17209281000;16927233333;17427233333
3136;17209282000;16927233333;17427233333
3137;17209283000;16927233333;17427233333
3138;17221313000;16968577777;17468577777
3139;17221317000;16968577777;17468577777
3140;17221318000;16968577777;17468577777
3141;17221319000;16968577777;17468577777
3142;17221320000;16968577777;17468577777
3143;17221321000;16968577777;17468577777
3144;17221322000;16968577777;17468577777
3145;17221477000;16968588888;17468588888
3146;17221483000;16968844444;17468844444
3147;17221484000;16968844444;17468844444
3148;17228072000;16968844444;17468844444
3149;17361459000;17010233333;17510233333
3171;17441172000;17093577777;17593577777
3183;17478172000;17135211111;17635211111
3201;17510145000;17177277777;17677277777
3204;17547200000;17218722222;17718722222
3215;17575302000;17260211111;17760211111
3216;17575305000;17260211111;17760211111
3217;17575306000;17260211111;17760211111
3218;17575308000;17260211111;17760211111
3219;17575309000;17260211111;17760211111
3220;17575311000;17260211111;17760211111
3221;17575321000;17260211111;17760211111
3222;17575470000;17260233333;17760233333
3223;17575473000;17260533333;17760533333
3224;17575475000;17260533333;17760533333
3225;17575477000;17260533333;17760533333
3226;17605476000;17301911111;17801911111
3237;17630469000;17343588888;17843588888
3238;17630472000;17343588888;17843588888
3239;17630473000;17343588888;17843588888
3240;17630474000;17343588888;17843588888
3241;17630475000;17343588888;17843588888
3242;17630476000;17343588888;17843588888
3243;17630477000;17343588888;17843588888
3244;17630648000;17343600000;17843600000
3245;17630652000;17343877777;17843877777
3246;17630653000;17343877777;17843877777
3247;17630654000;17343877777;17843877777
3248;17724500000;17385211111;17885211111
3270;17804769000;17468544444;17968544444
3277;17804919000;17468566666;17968566666
3278;17804922000;17468811111;17968811111
3279;17804923000;17468811111;17968811111
3280;17804924000;17468811111;17968811111
3281;17843391000;17510211111;18010211111
3303;17916804000;17593544444;18093544444
3309;17916807000;17593544444;18093544444
3310;17917006000;17593566666;18093566666
3311;17917022000;17593833333;18093833333
3312;17917023000;17593833333;18093833333
3313;17917024000;17593833333;18093833333
3314;17951063000;17635211111;18135211111
3315;17951067000;17635211111;18135211111
3316;17951068000;17635211111;18135211111
3317;17951069000;17635211111;18135211111
3318;17951069000;17635211111;18135211111
3319;17951070000;17635211111;18135211111
3320;17951071000;17635211111;18135211111
3321;17951286000;17635222222;18135222222
3322;17951301000;17635533333;18135533333
3323;17951302000;17635533333;18135533333
3324;17951303000;17635533333;18135533333
3325;17978876000;17676911111;18176911111
3336;18082999000;17718544444;18218544444
3369;18199980000;17843577777;18343577777
3393;18263572000;17926911111;18426911111
3410;18290810000;17968822222;18468822222
3411;18290812000;17968822222;18468822222
3412;18290813000;17968822222;18468822222
3413;18326032000;18010233333;18510233333
3435;18443844000;18093566666;18593566666
3468;18559982000;18218566666;18718566666
3494;18623281000;18301911111;18801911111
3513;18684238000;18385211111;18885211111
3534;18736112000;18468544444;18968544444
3550;18744241000;18510211111;19010211111
3551;18744243000;18510211111;19010211111
3552;18744315000;18510222222;19010222222
3553;18744318000;18510511111;19010511111
3554;18744327000;18510511111;19010511111
3555;18744328000;18510511111;19010511111
3556;18773117000;18551877777;19051877777
3557;18773119000;18551877777;19051877777
3558;18773120000;18551877777;19051877777
3559;18773121000;18551877777;19051877777
3560;18773121000;18551877777;19051877777
3561;18773122000;18551877777;19051877777
3562;18773124000;18551877777;19051877777
3563;18773267000;18551900000;19051900000
3564;18773270000;18552200000;19052200000
3565;18773271000;18552200000;19052200000
3566;18773272000;18552200000;19052200000
3567;18799385000;18593577777;19093577777
3568;18799389000;18593577777;19093577777
3569;18799390000;18593577777;19093577777
3570;18799390000;18593577777;19093577777
3571;18799391000;18593577777;19093577777
3572;18799392000;18593577777;19093577777
3573;18799393000;18593577777;19093577777
3574;18883723000;18593600000;19093600000
3585;18924821000;18635266666;19135266666
3611;18924836000;18760244444;19260244444
3612;18924837000;18760244444;19260244444
3613;18924838000;18760244444;19260244444
3614;18924839000;18760244444;19260244444
3615;18924840000;18760244444;19260244444
3616;18924841000;18760244444;19260244444
3617;18924842000;18760244444;19260244444
3618;19039381000;18760266666;19260266666
3637;19039396000;18843577777;19343577777
3638;19039397000;18843577777;19343577777
3639;19039398000;18843577777;19343577777
3640;19097099000;18843600000;19343600000
3650;19097104000;18885244444;19385244444
3651;19120138000;18885266666;19385266666
3652;19120141000;18885566666;19385566666
3653;19120142000;18885566666;19385566666
3654;19120144000;18885566666;19385566666
3655;19151053000;18926877777;19426877777
3656;19151056000;18926877777;19426877777
3657;19151057000;18926877777;19426877777
3658;19151058000;18926877777;19426877777
3659;19151059000;18926877777;19426877777
3660;19151060000;18926877777;19426877777
3661;19151061000;18926877777;19426877777
3662;19250981000;18926900000;19426900000
3688;19250986000;19051911111;19551911111
3689;19250987000;19051911111;19551911111
3690;19250988000;19051911111;19551911111
3691;19250989000;19051911111;19551911111
3692;19250990000;19051911111;19551911111
3693;19250991000;19051911111;19551911111
3694;19250992000;19051911111;19551911111
3695;19340110000;19051933333;19551933333
3721;19340125000;19176900000;19676900000
3722;19340126000;19176900000;19676900000
3723;19340127000;19176900000;19676900000
3724;19340128000;19176900000;19676900000
3725;19340129000;19176900000;19676900000
3726;19340130000;19176900000;19676900000
3727;19340131000;19176900000;19676900000
3728;19400106000;19176911111;19676911111
3737;19400121000;19218588888;19718588888
3741;19403929000;19218866666;19718866666
3742;19403941000;19218866666;19718866666
3743;19500032000;19260244444;19760244444
3754;19528726000;19301911111;19801911111
3776;19613497000;19385277777;19885277777
3795;19692203000;19427177777;19927177777
3811;19855944000;19510255555;20010255555
3861;19979755000;19677255555;20177255555
3894;20132681000;19802233333;20302233333
3925;20235004000;19926922222;20426922222
3960;20358478000;20052222222;20552222222
3964;20394225000;20093588888;20593588888
3990;20465927000;20176922222;20676922222
4017;20559464000;20260566666;20760566666
4028;20621504000;20302266666;20802266666
4060;20694386000;20427277777;20927277777
4063;20712207000;20468588888;20968588888
4092;20810448000;20552244444;21052244444
4114;20926213000;20635544444;21135544444
4137;20953595000;20718888888;21218888888
4158;21047525000;20802233333;21302233333
4175;21153985000;20885244444;21385244444
4205;21273737000;21010244444;21510244444
4238;21344992000;21135255555;21635255555
4260;21375401000;21218588888;21718588888
4271;21407032000;21260255555;21760255555
4279;21455156000;21260577777;21760577777
4293;21535898000;21343611111;21843611111
4315;21610450000;21426944444;21926944444
4326;21645793000;21468611111;21968611111
4337;21681122000;21510277777;22010277777
4348;21714016000;21551944444;22051944444
4359;21746379000;21593600000;22093600000
4370;21778819000;21635277777;22135277777
4372;21778823000;21635277777;22135277777
4373;21778835000;21635277777;22135277777
4374;21778836000;21635277777;22135277777
4375;21778841000;21635277777;22135277777
4377;21779035000;21635355555;22135355555
4381;21779051000;21676955555;22176955555
4382;21779052000;21676955555;22176955555
4383;21779053000;21676955555;22176955555
4384;21779055000;21676955555;22176955555
4385;21779056000;21676955555;22176955555
4386;21779057000;21676955555;22176955555
4387;21779058000;21676955555;22176955555
4388;21812041000;21677033333;22177033333
4389;21812064000;21677377777;22177377777
4390;21812065000;21677377777;22177377777
4391;21812066000;21677377777;22177377777
4392;21846051000;21718611111;22218611111
4393;21846055000;21718611111;22218611111
4394;21846056000;21718611111;22218611111
4395;21846057000;21718611111;22218611111
4396;21846058000;21718611111;22218611111
4397;21846059000;21718611111;22218611111
4398;21846060000;21718611111;22218611111
4399;21846267000;21718688888;22218688888
4400;21846282000;21718988888;22218988888
4401;21846283000;21718988888;22218988888
4402;21846284000;21718988888;22218988888
4403;21881473000;21760266666;22260266666
4404;21881476000;21760266666;22260266666
4405;21881487000;21760266666;22260266666
4406;21881488000;21760266666;22260266666
4407;21881489000;21760266666;22260266666
4408;21881490000;21760266666;22260266666
4409;21881491000;21760266666;22260266666
4410;21881666000;21760355555;22260355555
4411;21881681000;21760666666;22260666666
4412;21881682000;21760666666;22260666666
4413;21881684000;21760666666;22260666666
4414;21918695000;21801944444;22301944444
4415;21918697000;21801944444;22301944444
4416;21918698000;21801944444;22301944444
4417;21918699000;21801944444;22301944444
4418;21918700000;21801944444;22301944444
4419;21918701000;21801944444;22301944444
4420;21918702000;21801944444;22301944444
4421;21918843000;21802022222;22302022222
4422;21918845000;21802333333;22302333333
4423;21918846000;21802333333;22302333333
4424;21918847000;21802333333;22302333333
4425;21957521000;21843611111;22343611111
4426;21957525000;21843611111;22343611111
4427;21957526000;21843611111;22343611111
4428;21957527000;21843611111;22343611111
4429;21957528000;21843611111;22343611111
4430;21957529000;21843611111;22343611111
4431;21957530000;21843611111;22343611111
4432;21957729000;21843688888;22343688888
4433;21957744000;21843977777;22343977777
4434;21957745000;21843977777;22343977777
4435;21957746000;21843977777;22343977777
4436;21997439000;21885266666;22385266666
4437;21997442000;21885266666;22385266666
4438;21997443000;21885266666;22385266666
4439;21997444000;21885266666;22385266666
4440;21997445000;21885266666;22385266666
4441;21997446000;21885266666;22385266666
4442;21997447000;21885266666;22385266666
4443;21997646000;21885355555;22385355555
4444;21997652000;21885677777;22385677777
4445;21997653000;21885677777;22385677777
4446;21997654000;21885677777;22385677777
4447;22038193000;21926944444;22426944444
4448;22038196000;21926944444;22426944444
4449;22038197000;21926944444;22426944444
4450;22038198000;21926944444;22426944444
4451;22038199000;21926944444;22426944444
4452;22038200000;21926944444;22426944444
4453;22038201000;21926944444;22426944444
4454;22038399000;21927022222;22427022222
4455;22038405000;21927355555;22427355555
4456;22038406000;21927355555;22427355555
4457;22038407000;21927355555;22427355555
4458;22079401000;21968611111;22468611111
4459;22079405000;21968611111;22468611111
4460;22079406000;21968611111;22468611111
4461;22079406000;21968611111;22468611111
4462;22079408000;21968611111;22468611111
4463;22079409000;21968611111;22468611111
4464;22079409000;21968611111;22468611111
4465;22079607000;21968688888;22468688888
4466;22079613000;21968966666;22468966666
4467;22079614000;21968966666;22468966666
4468;22079616000;21968966666;22468966666
4469;22120836000;22010288888;22510288888
4470;22120839000;22010288888;22510288888
4471;22120840000;22010288888;22510288888
4472;22120841000;22010288888;22510288888
4473;22120842000;22010288888;22510288888
4474;22120843000;22010288888;22510288888
4475;22120844000;22010288888;22510288888
4476;22121050000;22010366666;22510366666
4477;22121063000;22010700000;22510700000
4478;22121064000;22010700000;22510700000
4479;22121065000;22010700000;22510700000
4480;22162411000;22051944444;22551944444
4481;22162414000;22051944444;22551944444
4482;22162415000;22051944444;22551944444
4483;22162416000;22051944444;22551944444
4484;22162417000;22051944444;22551944444
4485;22162418000;22051944444;22551944444
4486;22162419000;22051944444;22551944444
4487;22162617000;22052022222;22552022222
4488;22162623000;22052322222;22552322222
4489;22162624000;22052322222;22552322222
4490;22162625000;22052322222;22552322222
4491;22204056000;22093611111;22593611111
4492;22204060000;22093611111;22593611111
4493;22204061000;22093611111;22593611111
4494;22204062000;22093611111;22593611111
4495;22204063000;22093611111;22593611111
4496;22204064000;22093611111;22593611111
4497;22204064000;22093611111;22593611111
4498;22204264000;22093688888;22593688888
4499;22204270000;22093955555;22593955555
4500;22204271000;22093955555;22593955555
4501;22204272000;22093955555;22593955555
4502;22245696000;22135266666;22635266666
4503;22245699000;22135266666;22635266666
4504;22245700000;22135266666;22635266666
4505;22245701000;22135266666;22635266666
4506;22245702000;22135266666;22635266666
4507;22245703000;22135266666;22635266666
4508;22245704000;22135266666;22635266666
4509;22245902000;22135344444;22635344444
4510;22245908000;22135655555;22635655555
4511;22245909000;22135655555;22635655555
4512;22245910000;22135655555;22635655555
4513;22287364000;22176944444;22676944444
4514;22287367000;22176944444;22676944444
4515;22287368000;22176944444;22676944444
4516;22287369000;22176944444;22676944444
4517;22287370000;22176944444;22676944444
4518;22287371000;22176944444;22676944444
4519;22287372000;22176944444;22676944444
4520;22287490000;22177022222;22677022222
4521;22287494000;22177311111;22677311111
4522;22287496000;22177311111;22677311111
4523;22287497000;22177311111;22677311111
4524;22328993000;22218611111;22718611111
4525;22328995000;22218611111;22718611111
4526;22328996000;22218611111;22718611111
4527;22328997000;22218611111;22718611111
4528;22328998000;22218611111;22718611111
4529;22328999000;22218611111;22718611111
4530;22329000000;22218611111;22718611111
4531;22329150000;22218688888;22718688888
4532;22329152000;22218944444;22718944444
4533;22329153000;22218944444;22718944444
4534;22329154000;22218944444;22718944444
4535;22370724000;22260266666;22760266666
4536;22370727000;22260266666;22760266666
4537;22370728000;22260266666;22760266666
4538;22370729000;22260266666;22760266666
4539;22370730000;22260266666;22760266666
4540;22370731000;22260266666;22760266666
4541;22370732000;22260266666;22760266666
4542;22370930000;22260344444;22760344444
4543;22370936000;22260644444;22760644444
4544;22370938000;22260644444;22760644444
4545;22370938000;22260644444;22760644444
4546;22412412000;22301944444;22801944444
4547;22412416000;22301944444;22801944444
4548;22412417000;22301944444;22801944444
4549;22412418000;22301944444;22801944444
4550;22412420000;22301944444;22801944444
4551;22412421000;22301944444;22801944444
4552;22412422000;22301944444;22801944444
4553;22412621000;22302022222;22802022222
4554;22412636000;22302344444;22802344444
4555;22412637000;22302344444;22802344444
4556;22412638000;22302344444;22802344444
4557;22453890000;22343611111;22843611111
4558;22453894000;22343611111;22843611111
4559;22453895000;22343611111;22843611111
4560;22453897000;22343611111;22843611111
4561;22453898000;22343611111;22843611111
4562;22453899000;22343611111;22843611111
4563;22453900000;22343611111;22843611111
4564;22454033000;22343700000;22843700000
4565;22454036000;22344022222;22844022222
4566;22454037000;22344022222;22844022222
4567;22454038000;22344022222;22844022222
4568;22495771000;22385288888;22885288888
4569;22495774000;22385288888;22885288888
4570;22495775000;22385288888;22885288888
4571;22495776000;22385288888;22885288888
4572;22495777000;22385288888;22885288888
4573;22495778000;22385288888;22885288888
4574;22495779000;22385288888;22885288888
4575;22495977000;22385366666;22885366666
4576;22495983000;22385666666;22885666666
4577;22495992000;22385666666;22885666666
4578;22495993000;22385666666;22885666666
4579;22537201000;22426955555;22926955555
4580;22537204000;22426955555;22926955555
4581;22537205000;22426955555;22926955555
4582;22537207000;22426955555;22926955555
4583;22537208000;22426955555;22926955555
4584;22537209000;22426955555;22926955555
4585;22537210000;22426955555;22926955555
4586;22537408000;22427033333;22927033333
4587;22537423000;22427344444;22927344444
4588;22537424000;22427344444;22927344444
4589;22537425000;22427344444;22927344444
4590;22579059000;22468622222;22968622222
4591;22579063000;22468622222;22968622222
4592;22579064000;22468622222;22968622222
4593;22579065000;22468622222;22968622222
4594;22579066000;22468622222;22968622222
4595;22579067000;22468622222;22968622222
4596;22579068000;22468622222;22968622222
4597;22579221000;22468700000;22968700000
4598;22579227000;22468955555;22968955555
4599;22579228000;22468955555;22968955555
4600;22579229000;22468955555;22968955555
4601;22620746000;22510288888;23010288888
4602;22620750000;22510288888;23010288888
4603;22620751000;22510288888;23010288888
4604;22620752000;22510288888;23010288888
4605;22620752000;22510288888;23010288888
4606;22620753000;22510288888;23010288888
4607;22620755000;22510288888;23010288888
4608;22620953000;22510366666;23010366666
4609;22620960000;22510666666;23010666666
4610;22620961000;22510666666;23010666666
4611;22620961000;22510666666;23010666666
4612;22662383000;22551955555;23051955555
4613;22662387000;22551955555;23051955555
4614;22662388000;22551955555;23051955555
4615;22662398000;22551955555;23051955555
4616;22662399000;22551955555;23051955555
4617;22662400000;22551955555;23051955555
4618;22662401000;22551955555;23051955555
4619;22662582000;22552033333;23052033333
4620;22662597000;22552333333;23052333333
4621;22662598000;22552333333;23052333333
4622;22662599000;22552333333;23052333333
4623;22905812000;22593622222;23093622222
4667;22992844000;22760222222;23260222222
4689;23029894000;22843577777;23343577777
4697;23029959000;22843855555;23343855555
4698;23029962000;22843855555;23343855555
4699;23029972000;22843855555;23343855555
4700;23051914000;22885244444;23385244444
4701;23051918000;22885244444;23385244444
4702;23051919000;22885244444;23385244444
4703;23051920000;22885244444;23385244444
4704;23051921000;22885244444;23385244444
4705;23051922000;22885244444;23385244444
4706;23051923000;22885244444;23385244444
4707;23052034000;22885266666;23385266666
4708;23052039000;22885555555;23385555555
4709;23052040000;22885555555;23385555555
4710;23052041000;22885555555;23385555555
4711;23076250000;22926911111;23426911111
4712;23076254000;22926911111;23426911111
4713;23076255000;22926911111;23426911111
4714;23076256000;22926911111;23426911111
4715;23076257000;22926911111;23426911111
4716;23076258000;22926911111;23426911111
4717;23076259000;22926911111;23426911111
4718;23076381000;22926933333;23426933333
4719;23076386000;22927222222;23427222222
4720;23076387000;22927222222;23427222222
4721;23076388000;22927222222;23427222222
4722;23185117000;22968577777;23468577777
4744;23265772000;23051888888;23551888888
4755;23304729000;23093566666;23593566666
4777;23376196000;23176911111;23676911111
4788;23413125000;23218566666;23718566666
4789;23413129000;23218566666;23718566666
4790;23413131000;23218566666;23718566666
4791;23413132000;23218566666;23718566666
4792;23413133000;23218566666;23718566666
4793;23413134000;23218566666;23718566666
4794;23413135000;23218566666;23718566666
4795;23413356000;23218588888;23718588888
4797;23413362000;23218877777;23718877777
4799;23442660000;23260244444;23760244444
4810;23474117000;23301911111;23801911111
4818;23474212000;23302233333;23802233333
4819;23474216000;23302233333;23802233333
4820;23474217000;23302233333;23802233333
4821;23509879000;23343566666;23843566666
4822;23509882000;23343566666;23843566666
4823;23509883000;23343566666;23843566666
4824;23509884000;23343566666;23843566666
4825;23509885000;23343566666;23843566666
4826;23509886000;23343566666;23843566666
4827;23509887000;23343566666;23843566666
4828;23510110000;23343588888;23843588888
4829;23510133000;23343888888;23843888888
4830;23510134000;23343888888;23843888888
4831;23510135000;23343888888;23843888888
4832;23536160000;23385244444;23885244444
4840;23583408000;23385566666;23885566666
4843;23624671000;23426888888;23926888888
4854;23666195000;23468566666;23968566666
4865;23706971000;23510255555;24010255555
4876;23746844000;23551900000;24051900000
4884;23746956000;23552222222;24052222222
4885;23746959000;23552222222;24052222222
4886;23746960000;23552222222;24052222222
4887;23785760000;23593577777;24093577777
4895;23868939000;23593922222;24093922222
4909;23945874000;23676900000;24176900000
4933;24012363000;23760233333;24260233333
4949;24047419000;23801933333;24301933333
4953;24047434000;23843577777;24343577777
4954;24047435000;23843577777;24343577777
4955;24047437000;23843577777;24343577777
4956;24047438000;23843577777;24343577777
4957;24047439000;23843577777;24343577777
4958;24047439000;23843577777;24343577777
4959;24047441000;23843577777;24343577777
4960;24150647000;23843588888;24343588888
4975;24150663000;23926911111;24426911111
4976;24150664000;23926911111;24426911111
4977;24150665000;23926911111;24426911111
4978;24150666000;23926911111;24426911111
4979;24150666000;23926911111;24426911111
4980;24150667000;23926911111;24426911111
4981;24150668000;23926911111;24426911111
4982;24218726000;23926933333;24426933333
5008;24218742000;24051911111;24551911111
5009;24218743000;24051911111;24551911111
5010;24218744000;24051911111;24551911111
5011;24218744000;24051911111;24551911111
5012;24218746000;24051911111;24551911111
5013;24218747000;24051911111;24551911111
5014;24218747000;24051911111;24551911111
5015;24295297000;24051933333;24551933333
5016;24295313000;24052222222;24552222222
5017;24295314000;24052222222;24552222222
5018;24295315000;24052222222;24552222222
5019;24325998000;24093577777;24593577777
5038;24388412000;24135566666;24635566666
5041;24429502000;24176877777;24676877777
5071;24509114000;24260566666;24760566666
5074;24547938000;24301888888;24801888888
5084;24548034000;24302222222;24802222222
5085;24585631000;24343566666;24843566666
5101;24665110000;24385244444;24885244444
5107;24665221000;24426888888;24926888888
5108;24665225000;24426888888;24926888888
5109;24665226000;24426888888;24926888888
5110;24665227000;24426888888;24926888888
5111;24665228000;24426888888;24926888888
5112;24665229000;24426888888;24926888888
5113;24665230000;24426888888;24926888888
5114;24665353000;24426900000;24926900000
5115;24665369000;24427200000;24927200000
5116;24665370000;24427200000;24927200000
5117;24665371000;24427200000;24927200000
5118;24682154000;24468566666;24968566666
5119;24682158000;24468566666;24968566666
5120;24682159000;24468566666;24968566666
5121;24682160000;24468566666;24968566666
5122;24682161000;24468566666;24968566666
5123;24682162000;24468566666;24968566666
5124;24682163000;24468566666;24968566666
5125;24682284000;24468588888;24968588888
5126;24693961000;24468855555;24968855555
5127;24694187000;24468855555;24968855555
5128;24694383000;24468855555;24968855555
5129;24789261000;24510277777;25010277777
5140;24829242000;24551888888;25051888888
5168;24873305000;24635188888;25135188888
5173;24929450000;24676900000;25176900000
5181;24929563000;24677222222;25177222222
5182;24929566000;24677222222;25177222222
5183;24929567000;24677222222;25177222222
5184;24962787000;24718566666;25218566666
5204;24977992000;24760511111;25260511111
5206;25011267000;24801900000;25301900000
5207;25011270000;24801900000;25301900000
5208;25011271000;24801900000;25301900000
5209;25011272000;24801900000;25301900000
5210;25011273000;24801900000;25301900000
5211;25011274000;24801900000;25301900000
5212;25011275000;24801900000;25301900000
5213;25011430000;24801922222;25301922222
5214;25011436000;24802233333;25302233333
5215;25011437000;24802233333;25302233333
5216;25011438000;24802233333;25302233333
5217;25043739000;24843566666;25343566666
5224;25043897000;24843588888;25343588888
5225;25043903000;24843877777;25343877777
5226;25043904000;24843877777;25343877777
5227;25043905000;24843877777;25343877777
5228;25154928000;24885244444;25385244444
5250;25227301000;24968577777;25468577777
5272;25286124000;25051911111;25551911111
5289;25307489000;25093588888;25593588888
5301;25332684000;25135266666;25635266666
5302;25332690000;25135566666;25635566666
5303;25332692000;25135566666;25635566666
5304;25332693000;25135566666;25635566666
5305;25366830000;25176911111;25676911111
5313;25366916000;25177211111;25677211111
5314;25366920000;25177211111;25677211111
5315;25366921000;25177211111;25677211111
5316;25385242000;25218544444;25718544444
5327;25417809000;25260222222;25760222222
5328;25417812000;25260222222;25760222222
5329;25417814000;25260222222;25760222222
5330;25417815000;25260222222;25760222222
5331;25417815000;25260222222;25760222222
5332;25417816000;25260222222;25760222222
5333;25417817000;25260222222;25760222222
5334;25417972000;25260233333;25760233333
5335;25417978000;25260544444;25760544444
5336;25417980000;25260544444;25760544444
5337;25417980000;25260544444;25760544444
5338;25449758000;25301877777;25801877777
5339;25449762000;25301877777;25801877777
5340;25449763000;25301877777;25801877777
5341;25449764000;25301877777;25801877777
5342;25449765000;25301877777;25801877777
5343;25449767000;25301877777;25801877777
5344;25449768000;25301877777;25801877777
5345;25449928000;25301900000;25801900000
5346;25449935000;25302200000;25802200000
5347;25449936000;25302200000;25802200000
5348;25449937000;25302200000;25802200000
5349;25480417000;25343577777;25843577777
5350;25480420000;25343577777;25843577777
5351;25480422000;25343577777;25843577777
5352;25480423000;25343577777;25843577777
5353;25480424000;25343577777;25843577777
5354;25480425000;25343577777;25843577777
5355;25480426000;25343577777;25843577777
5356;25480593000;25343600000;25843600000
5357;25480600000;25343888888;25843888888
5358;25480601000;25343888888;25843888888
5359;25480602000;25343888888;25843888888
5360;25515858000;25385222222;25885222222
5361;25515861000;25385222222;25885222222
5362;25515862000;25385222222;25885222222
5363;25515863000;25385222222;25885222222
5364;25515864000;25385222222;25885222222
5365;25515865000;25385222222;25885222222
5366;25515866000;25385222222;25885222222
5367;25516066000;25385233333;25885233333
5368;25516072000;25385544444;25885544444
5369;25516073000;25385544444;25885544444
5370;25516074000;25385544444;25885544444
5371;25553986000;25426877777;25926877777
5372;25553990000;25426877777;25926877777
5373;25553991000;25426877777;25926877777
5374;25553991000;25426877777;25926877777
5375;25553992000;25426877777;25926877777
5376;25553993000;25426877777;25926877777
5377;25553994000;25426877777;25926877777
5378;25554201000;25426900000;25926900000
5379;25554217000;25427188888;25927188888
5380;25554218000;25427188888;25927188888
5381;25554219000;25427188888;25927188888
5382;25592414000;25468566666;25968566666
5383;25592417000;25468566666;25968566666
5384;25592418000;25468566666;25968566666
5385;25592419000;25468566666;25968566666
5386;25592420000;25468566666;25968566666
5387;25592421000;25468566666;25968566666
5388;25592422000;25468566666;25968566666
5389;25592622000;25468588888;25968588888
5390;25592637000;25468855555;25968855555
5391;25592638000;25468855555;25968855555
5392;25592639000;25468855555;25968855555
5393;25631372000;25510255555;26010255555
5394;25631374000;25510255555;26010255555
5395;25631375000;25510255555;26010255555
5396;25631376000;25510255555;26010255555
5397;25631377000;25510255555;26010255555
5398;25631378000;25510255555;26010255555
5399;25631379000;25510255555;26010255555
5400;25631522000;25510288888;26010288888
5401;25631524000;25510588888;26010588888
5402;25631525000;25510588888;26010588888
5403;25631526000;25510588888;26010588888
5404;25667078000;25551911111;26051911111
5405;25667091000;25551911111;26051911111
5406;25667092000;25551911111;26051911111
5407;25667093000;25551911111;26051911111
5408;25667094000;25551911111;26051911111
5409;25667095000;25551911111;26051911111
5410;25667096000;25551911111;26051911111
5411;25667305000;25551955555;26051955555
5412;25667321000;25552266666;26052266666
5413;25667322000;25552266666;26052266666
5414;25667323000;25552266666;26052266666
5415;25705416000;25593611111;26093611111
5416;25705420000;25593611111;26093611111
5417;25705421000;25593611111;26093611111
5418;25705422000;25593611111;26093611111
5419;25705423000;25593611111;26093611111
5420;25705424000;25593611111;26093611111
5421;25705425000;25593611111;26093611111
5422;25705626000;25593666666;26093666666
5423;25705641000;25593955555;26093955555
5424;25705643000;25593955555;26093955555
5425;25705643000;25593955555;26093955555
5426;25746068000;25635277777;26135277777
5427;25746072000;25635277777;26135277777
5428;25746073000;25635277777;26135277777
5429;25746074000;25635277777;26135277777
5430;25746075000;25635277777;26135277777
5431;25746076000;25635277777;26135277777
5432;25746077000;25635277777;26135277777
5433;25746231000;25635355555;26135355555
5434;25746238000;25635666666;26135666666
5435;25746239000;25635666666;26135666666
5436;25746240000;25635666666;26135666666
5437;25787529000;25676944444;26176944444
5438;25787533000;25676944444;26176944444
5439;25787534000;25676944444;26176944444
5440;25787545000;25676944444;26176944444
5441;25787546000;25676944444;26176944444
5442;25787547000;25676944444;26176944444
5443;25787548000;25676944444;26176944444
5444;25787756000;25677022222;26177022222
5445;25787771000;25677355555;26177355555
5446;25787772000;25677355555;26177355555
5447;25787773000;25677355555;26177355555
5448;25829078000;25718577777;26218577777
5449;25829091000;25718577777;26218577777
5450;25829093000;25718577777;26218577777
5451;25829094000;25718577777;26218577777
5452;25829095000;25718577777;26218577777
5453;25829096000;25718577777;26218577777
5454;25829097000;25718577777;26218577777
5455;25829314000;25718655555;26218655555
5456;25829330000;25718955555;26218955555
5457;25829332000;25718955555;26218955555
5458;25829333000;25718955555;26218955555
5459;25870724000;25760244444;26260244444
5460;25870728000;25760244444;26260244444
5461;25870729000;25760244444;26260244444
5462;25870730000;25760244444;26260244444
5463;25870731000;25760244444;26260244444
5464;25870732000;25760244444;26260244444
5465;25870733000;25760244444;26260244444
5466;25870940000;25760322222;26260322222
5467;25870956000;25760633333;26260633333
5468;25870957000;25760633333;26260633333
5469;25870958000;25760633333;26260633333
5470;25912382000;25801911111;26301911111
5471;25912386000;25801911111;26301911111
5472;25912387000;25801911111;26301911111
5473;25912388000;25801911111;26301911111
5474;25912389000;25801911111;26301911111
5475;25912390000;25801911111;26301911111
5476;25912391000;25801911111;26301911111
5477;25912582000;25801988888;26301988888
5478;25912585000;25802322222;26302322222
5479;25912586000;25802322222;26302322222
5480;25912587000;25802322222;26302322222
5481;25954037000;25843577777;26343577777
5482;25954041000;25843577777;26343577777
5483;25954048000;25843577777;26343577777
5484;25954050000;25843577777;26343577777
5485;25954051000;25843577777;26343577777
5486;25954052000;25843577777;26343577777
5487;25954053000;25843577777;26343577777
5488;25954270000;25843655555;26343655555
5489;25954277000;25843944444;26343944444
5490;25954279000;25843944444;26343944444
5491;25954280000;25843944444;26343944444
5492;25995702000;25885255555;26385255555
5493;25995706000;25885255555;26385255555
5494;25995707000;25885255555;26385255555
5495;25995708000;25885255555;26385255555
5496;25995709000;25885255555;26385255555
5497;25995710000;25885255555;26385255555
5498;25995711000;25885255555;26385255555
5499;25995918000;25885333333;26385333333
