seqnum;now;rtptime;deadline
1;13586141000;13378600000;13878600000
2;13586170000;13378600000;13878600000
3;13627104000;13409711111;13909711111
8;13627131000;13409711111;13909711111
9;13627132000;13409711111;13909711111
10;13627389000;13409722222;13909722222
11;13627435000;13410044444;13910044444
15;13667435000;13451344444;13951344444
19;13667468000;13451344444;13951344444
20;13667471000;13451344444;13951344444
21;13667687000;13451366666;13951366666
22;13667720000;13451744444;13951744444
23;13667728000;13451744444;13951744444
24;13667730000;13451744444;13951744444
25;13708839000;13493011111;13993011111
33;13709126000;13493366666;13993366666
34;13709130000;13493366666;13993366666
35;13709156000;13493366666;13993366666
36;13750211000;13534677777;14034677777
37;13750245000;13534677777;14034677777
38;13750247000;13534677777;14034677777
39;13750249000;13534677777;14034677777
40;13750270000;13534677777;14034677777
41;13750272000;13534677777;14034677777
42;13750274000;13534677777;14034677777
43;13750497000;13534700000;14034700000
44;13750526000;13535022222;14035022222
45;13750528000;13535022222;14035022222
46;13750541000;13535022222;14035022222
47;13790808000;13576344444;14076344444
48;13790851000;13576344444;14076344444
49;13790853000;13576344444;14076344444
50;13790856000;13576344444;14076344444
51;13790858000;13576344444;14076344444
52;13790859000;13576344444;14076344444
53;13790861000;13576344444;14076344444
54;13791095000;13576366666;14076366666
55;13791111000;13576677777;14076677777
56;13791135000;13576677777;14076677777
57;13791137000;13576677777;14076677777
58;13831618000;13617988888;14117988888
66;13831796000;13618311111;14118311111
67;13831821000;13618311111;14118311111
68;13831824000;13618311111;14118311111
69;13871077000;13659655555;14159655555
77;13871247000;13659988888;14159988888
78;13871271000;13659988888;14159988888
79;13871272000;13659988888;14159988888
80;13910408000;13701344444;14201344444
88;13910591000;13701677777;14201677777
89;13910616000;13701677777;14201677777
90;13910619000;13701677777;14201677777
91;13949008000;13743011111;14243011111
99;13949205000;13743355555;14243355555
100;13949230000;13743355555;14243355555
101;13949232000;13743355555;14243355555
102;13986823000;13784677777;14284677777
110;13986973000;13784966666;14284966666
111;13986997000;13784966666;14284966666
112;13986999000;13784966666;14284966666
113;14025900000;13826366666;14326366666
118;14025927000;13826366666;14326366666
119;14025929000;13826366666;14326366666
120;14026162000;13826388888;14326388888
121;14026190000;13826722222;14326722222
122;14026196000;13826722222;14326722222
123;14026197000;13826722222;14326722222
124;14063251000;13868011111;14368011111
132;14063400000;13868333333;14368333333
134;14063425000;13868333333;14368333333
135;14101851000;13909677777;14409677777
143;14102001000;13909966666;14409966666
144;14102005000;13909966666;14409966666
145;14102006000;13909966666;14409966666
146;14141052000;13951344444;14451344444
151;14141080000;13951344444;14451344444
152;14141088000;13951344444;14451344444
153;14141315000;13951366666;14451366666
154;14141322000;13951677777;14451677777
155;14141345000;13951677777;14451677777
156;14141347000;13951677777;14451677777
157;14180284000;13993011111;14493011111
165;14180447000;13993333333;14493333333
166;14180471000;13993333333;14493333333
167;14180472000;13993333333;14493333333
168;14220946000;14034677777;14534677777
176;14221093000;14035011111;14535011111
179;14261869000;14076344444;14576344444
187;14262031000;14076644444;14576644444
188;14262062000;14076644444;14576644444
189;14262064000;14076644444;14576644444
190;14303282000;14118000000;14618000000
198;14303443000;14118300000;14618300000
199;14303467000;14118300000;14618300000
200;14303469000;14118300000;14618300000
201;14344596000;14159655555;14659655555
209;14344743000;14159944444;14659944444
210;14344747000;14159944444;14659944444
211;14344769000;14159944444;14659944444
212;14386330000;14201322222;14701322222
220;14386557000;14201733333;14701733333
221;14386581000;14201733333;14701733333
222;14386583000;14201733333;14701733333
223;14427989000;14243011111;14743011111
231;14428164000;14243366666;14743366666
232;14428188000;14243366666;14743366666
235;14469467000;14284655555;14784655555
242;14469755000;14284966666;14784966666
243;14469779000;14284966666;14784966666
244;14469781000;14284966666;14784966666
245;14511285000;14326322222;14826322222
253;14511434000;14326655555;14826655555
254;14511459000;14326655555;14826655555
255;14511460000;14326655555;14826655555
256;14552793000;14367988888;14867988888
264;14553079000;14368300000;14868300000
265;14553104000;14368300000;14868300000
266;14553105000;14368300000;14868300000
267;14594622000;14409666666;14909666666
275;14594791000;14409955555;14909955555
277;14594815000;14409955555;14909955555
278;14636277000;14451322222;14951322222
286;14636535000;14451644444;14951644444
287;14636560000;14451644444;14951644444
288;14636561000;14451644444;14951644444
289;14677960000;14492988888;14992988888
296;14678211000;14493000000;14993000000
297;14678218000;14493277777;14993277777
298;14678241000;14493277777;14993277777
299;14678243000;14493277777;14993277777
300;14719683000;14534655555;15034655555
307;14719957000;14534666666;15034666666
308;14719973000;14534955555;15034955555
309;14719996000;14534955555;15034955555
310;14720008000;14534955555;15034955555
311;14761127000;14576311111;15076311111
319;14761397000;14576611111;15076611111
320;14761400000;14576611111;15076611111
321;14761426000;14576611111;15076611111
322;14802817000;14618011111;15118011111
330;14803135000;14618311111;15118311111
331;14803160000;14618311111;15118311111
332;14803161000;14618311111;15118311111
333;14844484000;14659677777;15159677777
341;14844752000;14659966666;15159966666
342;14844777000;14659966666;15159966666
343;14844778000;14659966666;15159966666
344;14886303000;14701344444;15201344444
352;14886467000;14701666666;15201666666
353;14886491000;14701666666;15201666666
354;14886493000;14701666666;15201666666
355;14927971000;14743011111;15243011111
363;14928120000;14743311111;15243311111
364;14928144000;14743311111;15243311111
365;14928146000;14743311111;15243311111
366;14969634000;14784677777;15284677777
374;14969795000;14784955555;15284955555
375;14969820000;14784955555;15284955555
376;14969821000;14784955555;15284955555
377;15011300000;14826344444;15326344444
385;15011462000;14826644444;15326644444
386;15011486000;14826644444;15326644444
387;15011487000;14826644444;15326644444
388;15052971000;14868011111;15368011111
396;15053127000;14868322222;15368322222
397;15053152000;14868322222;15368322222
398;15053153000;14868322222;15368322222
399;15095361000;14909677777;15409677777
407;15095543000;14909955555;15409955555
408;15095569000;14909955555;15409955555
409;15095578000;14909955555;15409955555
410;15136409000;14951344444;15451344444
418;15136580000;14951666666;15451666666
419;15136584000;14951666666;15451666666
420;15136607000;14951666666;15451666666
421;15178007000;14993011111;15493011111
428;15178263000;14993033333;15493033333
429;15178280000;14993333333;15493333333
430;15178294000;14993333333;15493333333
431;15178297000;14993333333;15493333333
432;15219749000;15034688888;15534688888
440;15219919000;15035022222;15535022222
441;15219944000;15035022222;15535022222
444;15261193000;15076344444;15576344444
447;15261232000;15076344444;15576344444
448;15261234000;15076344444;15576344444
449;15261236000;15076344444;15576344444
450;15261466000;15076366666;15576366666
451;15261495000;15076644444;15576644444
452;15261497000;15076644444;15576644444
453;15261510000;15076644444;15576644444
454;15303559000;15118011111;15618011111
455;15303595000;15118011111;15618011111
456;15303598000;15118011111;15618011111
457;15303600000;15118011111;15618011111
458;15303603000;15118011111;15618011111
459;15303605000;15118011111;15618011111
460;15303607000;15118011111;15618011111
461;15303861000;15118033333;15618033333
462;15303892000;15118300000;15618300000
463;15303901000;15118300000;15618300000
464;15303903000;15118300000;15618300000
465;15344648000;15159677777;15659677777
473;15344813000;15159955555;15659955555
474;15344837000;15159955555;15659955555
475;15344839000;15159955555;15659955555
476;15386327000;15201344444;15701344444
484;15386490000;15201677777;15701677777
485;15386514000;15201677777;15701677777
486;15386515000;15201677777;15701677777
487;15427965000;15243011111;15743011111
495;15428117000;15243322222;15743322222
496;15428121000;15243322222;15743322222
497;15428143000;15243322222;15743322222
498;15469653000;15284677777;15784677777
506;15469801000;15284988888;15784988888
507;15469825000;15284988888;15784988888
508;15469827000;15284988888;15784988888
509;15511302000;15326344444;15826344444
515;15511326000;15326344444;15826344444
516;15511500000;15326366666;15826366666
517;15511504000;15326666666;15826666666
518;15511525000;15326666666;15826666666
519;15511526000;15326666666;15826666666
520;15552970000;15368011111;15868011111
527;15553207000;15368033333;15868033333
528;15553214000;15368333333;15868333333
529;15553237000;15368333333;15868333333
530;15553238000;15368333333;15868333333
531;15594488000;15409688888;15909688888
539;15594755000;15409977777;15909977777
540;15594780000;15409977777;15909977777
541;15594781000;15409977777;15909977777
542;15636299000;15451344444;15951344444
551;15636548000;15451688888;15951688888
552;15636572000;15451688888;15951688888
553;15677963000;15493011111;15993011111
561;15678123000;15493311111;15993311111
562;15678147000;15493311111;15993311111
563;15678149000;15493311111;15993311111
564;15719637000;15534677777;16034677777
571;15719892000;15534700000;16034700000
572;15719908000;15535000000;16035000000
573;15719931000;15535000000;16035000000
574;15719933000;15535000000;16035000000
575;15761302000;15576344444;16076344444
583;15761466000;15576666666;16076666666
584;15761469000;15576666666;16076666666
585;15761470000;15576666666;16076666666
588;15802813000;15618011111;16118011111
594;15803126000;15618333333;16118333333
595;15803150000;15618333333;16118333333
596;15803152000;15618333333;16118333333
597;15844632000;15659677777;16159677777
605;15844795000;15659977777;16159977777
606;15844819000;15659977777;16159977777
607;15844820000;15659977777;16159977777
608;15886357000;15701344444;16201344444
616;15886500000;15701666666;16201666666
617;15886515000;15701666666;16201666666
618;15886517000;15701666666;16201666666
619;15928012000;15743011111;16243011111
627;15928199000;15743322222;16243322222
628;15928224000;15743322222;16243322222
629;15928226000;15743322222;16243322222
630;15969637000;15784677777;16284677777
635;15969665000;15784677777;16284677777
636;15969667000;15784677777;16284677777
637;15969893000;15784700000;16284700000
638;15969921000;15784966666;16284966666
639;15969926000;15784966666;16284966666
640;15969928000;15784966666;16284966666
641;16011298000;15826344444;16326344444
649;16011459000;15826655555;16326655555
650;16011483000;15826655555;16326655555
651;16011485000;15826655555;16326655555
652;16052941000;15867988888;16367988888
660;16053197000;15868311111;16368311111
661;16053222000;15868311111;16368311111
662;16053223000;15868311111;16368311111
663;16094608000;15909655555;16409655555
671;16094704000;15909944444;16409944444
672;16094723000;15909944444;16409944444
673;16094725000;15909944444;16409944444
674;16136331000;15951344444;16451344444
682;16136480000;15951677777;16451677777
683;16136504000;15951677777;16451677777
684;16136505000;15951677777;16451677777
685;16177968000;15993011111;16493011111
693;16178225000;15993333333;16493333333
694;16178259000;15993333333;16493333333
695;16178261000;15993333333;16493333333
696;16219632000;16034677777;16534677777
704;16219719000;16035011111;16535011111
706;16219739000;16035011111;16535011111
707;16261333000;16076344444;16576344444
715;16261494000;16076655555;16576655555
716;16261518000;16076655555;16576655555
717;16261519000;16076655555;16576655555
718;16303041000;16118011111;16618011111
726;16303227000;16118311111;16618311111
727;16303252000;16118311111;16618311111
728;16303253000;16118311111;16618311111
729;16344638000;16159677777;16659677777
737;16344801000;16159966666;16659966666
738;16344825000;16159966666;16659966666
739;16344826000;16159966666;16659966666
740;16386300000;16201344444;16701344444
748;16386470000;16201677777;16701677777
749;16386494000;16201677777;16701677777
750;16386495000;16201677777;16701677777
751;16427975000;16243022222;16743022222
759;16428115000;16243344444;16743344444
760;16428134000;16243344444;16743344444
761;16428136000;16243344444;16743344444
762;16469623000;16284677777;16784677777
770;16469729000;16284988888;16784988888
771;16469739000;16284988888;16784988888
772;16469741000;16284988888;16784988888
773;16511373000;16326344444;16826344444
781;16511535000;16326677777;16826677777
782;16511554000;16326677777;16826677777
783;16511565000;16326677777;16826677777
784;16552999000;16368011111;16868011111
791;16553244000;16368033333;16868033333
792;16553264000;16368333333;16868333333
793;16553279000;16368333333;16868333333
794;16553281000;16368333333;16868333333
795;16594643000;16409677777;16909677777
803;16594783000;16409977777;16909977777
804;16594802000;16409977777;16909977777
805;16594803000;16409977777;16909977777
806;16636245000;16451344444;16951344444
814;16636414000;16451688888;16951688888
815;16636431000;16451688888;16951688888
816;16636433000;16451688888;16951688888
817;16677976000;16493011111;16993011111
824;16678227000;16493033333;16993033333
825;16678234000;16493322222;16993322222
826;16678257000;16493322222;16993322222
827;16678259000;16493322222;16993322222
828;16719665000;16534677777;17034677777
836;16719814000;16535000000;17035000000
837;16719838000;16535000000;17035000000
838;16719840000;16535000000;17035000000
839;16761357000;16576344444;17076344444
847;16761507000;16576677777;17076677777
848;16761510000;16576677777;17076677777
849;16761512000;16576677777;17076677777
852;16802851000;16618022222;17118022222
858;16803197000;16618355555;17118355555
859;16803221000;16618355555;17118355555
860;16803223000;16618355555;17118355555
861;16844510000;16659677777;17159677777
869;16844837000;16660000000;17160000000
870;16844861000;16660000000;17160000000
871;16844863000;16660000000;17160000000
872;16886334000;16701344444;17201344444
879;16886577000;16701366666;17201366666
880;16886594000;16701677777;17201677777
881;16886617000;16701677777;17201677777
882;16886618000;16701677777;17201677777
883;16928000000;16743011111;17243011111
889;16928024000;16743011111;17243011111
891;16928203000;16743333333;17243333333
892;16928235000;16743333333;17243333333
893;16928237000;16743333333;17243333333
894;16969691000;16784677777;17284677777
901;16969929000;16784700000;17284700000
902;16969945000;16784988888;17284988888
903;16969946000;16784988888;17284988888
904;16969969000;16784988888;17284988888
905;17011189000;16826344444;17326344444
913;17011524000;16826666666;17326666666
914;17011527000;16826666666;17326666666
915;17011529000;16826666666;17326666666
916;17053051000;16868011111;17368011111
924;17053200000;16868344444;17368344444
925;17053204000;16868344444;17368344444
928;17095796000;16909677777;17409677777
935;17095980000;16909966666;17409966666
936;17095985000;16909966666;17409966666
937;17095987000;16909966666;17409966666
938;17136352000;16951344444;17451344444
942;17136380000;16951344444;17451344444
943;17136382000;16951344444;17451344444
944;17136383000;16951344444;17451344444
945;17136609000;16951366666;17451366666
946;17136637000;16951688888;17451688888
947;17136643000;16951688888;17451688888
948;17136644000;16951688888;17451688888
949;17177866000;16993011111;17493011111
954;17177894000;16993011111;17493011111
955;17177896000;16993011111;17493011111
956;17178095000;16993033333;17493033333
957;17178100000;16993344444;17493344444
958;17178121000;16993344444;17493344444
959;17178122000;16993344444;17493344444
960;17219537000;17034677777;17534677777
968;17219893000;17035022222;17535022222
969;17219917000;17035022222;17535022222
970;17219918000;17035022222;17535022222
971;17261339000;17076322222;17576322222
979;17261499000;17076633333;17576633333
980;17261523000;17076633333;17576633333
981;17261525000;17076633333;17576633333
982;17303067000;17118011111;17618011111
990;17303200000;17118322222;17618322222
991;17303219000;17118322222;17618322222
992;17303221000;17118322222;17618322222
993;17344733000;17159677777;17659677777
1001;17344881000;17159977777;17659977777
1002;17344883000;17159977777;17659977777
1003;17344885000;17159977777;17659977777
1004;17386359000;17201344444;17701344444
1012;17386507000;17201688888;17701688888
1013;17386525000;17201688888;17701688888
1014;17386537000;17201688888;17701688888
1015;17428078000;17243011111;17743011111
1023;17428210000;17243344444;17743344444
1024;17428229000;17243344444;17743344444
1025;17428231000;17243344444;17743344444
1026;17469714000;17284677777;17784677777
1034;17469875000;17285000000;17785000000
1035;17469899000;17285000000;17785000000
1036;17469901000;17285000000;17785000000
1037;17511459000;17326344444;17826344444
1045;17511629000;17326688888;17826688888
1046;17511654000;17326688888;17826688888
1047;17511656000;17326688888;17826688888
1048;17553070000;17368011111;17868011111
1055;17553320000;17368033333;17868033333
1056;17553352000;17368322222;17868322222
1057;17553360000;17368322222;17868322222
1058;17553361000;17368322222;17868322222
1059;17594744000;17409677777;17909677777
1067;17594892000;17409966666;17909966666
1068;17594917000;17409966666;17909966666
1069;17594918000;17409966666;17909966666
1072;17636243000;17451344444;17951344444
1078;17636581000;17451677777;17951677777
1079;17636605000;17451677777;17951677777
1080;17636607000;17451677777;17951677777
1081;17678070000;17493011111;17993011111
1089;17678232000;17493311111;17993311111
1090;17678256000;17493311111;17993311111
1091;17678258000;17493311111;17993311111
1092;17719731000;17534677777;18034677777
1100;17719892000;17534988888;18034988888
1101;17719917000;17534988888;18034988888
1102;17719918000;17534988888;18034988888
1103;17761406000;17576344444;18076344444
1111;17761570000;17576655555;18076655555
1112;17761594000;17576655555;18076655555
1113;17761595000;17576655555;18076655555
1114;17802922000;17618011111;18118011111
1122;17803246000;17618322222;18118322222
1123;17803270000;17618322222;18118322222
1124;17803272000;17618322222;18118322222
1125;17844749000;17659677777;18159677777
1133;17844912000;17659977777;18159977777
1134;17844936000;17659977777;18159977777
1135;17844938000;17659977777;18159977777
1136;17886431000;17701355555;18201355555
1144;17886593000;17701688888;18201688888
1145;17886617000;17701688888;18201688888
1146;17886619000;17701688888;18201688888
1147;17928112000;17743011111;18243011111
1155;17928272000;17743311111;18243311111
1156;17928296000;17743311111;18243311111
1157;17928298000;17743311111;18243311111
1160;17969599000;17784677777;18284677777
1166;17969899000;17784966666;18284966666
1167;17969923000;17784966666;18284966666
1171;18011278000;17826344444;18326344444
1175;18011303000;17826344444;18326344444
1177;18011535000;17826655555;18326655555
1178;18011567000;17826655555;18326655555
1179;18011569000;17826655555;18326655555
1180;18053077000;17867988888;18367988888
1188;18053236000;17868311111;18368311111
1189;18053260000;17868311111;18368311111
1190;18053262000;17868311111;18368311111
1191;18094766000;17909655555;18409655555
1194;18094790000;17909655555;18409655555
1195;18094792000;17909655555;18409655555
1197;18094794000;17909655555;18409655555
1198;18095019000;17909666666;18409666666
1199;18095026000;17909933333;18409933333
1200;18095058000;17909933333;18409933333
1201;18095060000;17909933333;18409933333
1202;18136412000;17951322222;18451322222
1209;18136663000;17951333333;18451333333
1210;18136670000;17951655555;18451655555
1211;18136693000;17951655555;18451655555
1212;18136694000;17951655555;18451655555
1213;18178078000;17992977777;18492977777
1221;18178240000;17993288888;18493288888
1222;18178264000;17993288888;18493288888
1223;18178266000;17993288888;18493288888
1224;18219762000;18034655555;18534655555
1232;18219911000;18034988888;18534988888
1233;18219935000;18034988888;18534988888
1234;18219936000;18034988888;18534988888
1235;18261451000;18076344444;18576344444
1242;18261688000;18076366666;18576366666
1243;18261726000;18076644444;18576644444
1244;18261728000;18076644444;18576644444
1245;18261729000;18076644444;18576644444
1246;18303190000;18118011111;18618011111
1247;18303236000;18118011111;18618011111
1248;18303257000;18118011111;18618011111
1249;18303260000;18118011111;18618011111
1250;18303262000;18118011111;18618011111
1251;18303263000;18118011111;18618011111
1252;18303274000;18118011111;18618011111
1253;18303452000;18118033333;18618033333
1254;18303476000;18118300000;18618300000
1255;18303482000;18118300000;18618300000
1256;18303493000;18118300000;18618300000
1257;18344792000;18159677777;18659677777
1262;18344818000;18159677777;18659677777
1263;18344820000;18159677777;18659677777
1264;18345040000;18159700000;18659700000
1265;18345082000;18159966666;18659966666
1266;18345102000;18159966666;18659966666
1267;18345103000;18159966666;18659966666
1268;18386489000;18201355555;18701355555
1276;18386621000;18201700000;18701700000
1277;18386639000;18201700000;18701700000
1278;18386641000;18201700000;18701700000
1279;18428140000;18243011111;18743011111
1287;18428288000;18243322222;18743322222
1288;18428291000;18243322222;18743322222
1289;18428299000;18243322222;18743322222
1290;18469820000;18284677777;18784677777
1298;18469950000;18284988888;18784988888
1299;18469969000;18284988888;18784988888
1300;18469981000;18284988888;18784988888
1301;18511474000;18326344444;18826344444
1309;18511607000;18326677777;18826677777
1310;18511616000;18326677777;18826677777
1311;18511628000;18326677777;18826677777
1312;18552991000;18368011111;18868011111
1320;18553317000;18368333333;18868333333
1321;18553337000;18368333333;18868333333
1322;18553338000;18368333333;18868333333
1323;18594823000;18409677777;18909677777
1331;18594972000;18409966666;18909966666
1332;18594976000;18409966666;18909966666
1333;18594977000;18409966666;18909966666
1334;18636490000;18451344444;18951344444
1335;18636517000;18451344444;18951344444
1336;18636519000;18451344444;18951344444
1337;18636520000;18451344444;18951344444
1338;18636521000;18451344444;18951344444
1339;18636523000;18451344444;18951344444
1340;18636524000;18451344444;18951344444
1341;18636746000;18451366666;18951366666
1342;18636774000;18451677777;18951677777
1344;18636780000;18451677777;18951677777
1345;18678175000;18493011111;18993011111
1353;18678273000;18493311111;18993311111
1354;18678292000;18493311111;18993311111
1355;18678293000;18493311111;18993311111
1356;18719906000;18534677777;19034677777
1364;18720071000;18534988888;19034988888
1365;18720075000;18534988888;19034988888
1366;18720109000;18534988888;19034988888
1367;18761502000;18576344444;19076344444
1370;18761529000;18576344444;19076344444
1371;18761530000;18576344444;19076344444
1372;18761532000;18576344444;19076344444
1373;18761533000;18576344444;19076344444
1374;18761758000;18576366666;19076366666
1375;18761786000;18576722222;19076722222
1376;18761791000;18576722222;19076722222
1377;18761793000;18576722222;19076722222
1378;18803187000;18618011111;19118011111
1386;18803319000;18618344444;19118344444
1387;18803337000;18618344444;19118344444
1388;18803349000;18618344444;19118344444
1389;18844878000;18659688888;19159688888
1397;18845015000;18659988888;19159988888
1398;18845027000;18659988888;19159988888
1399;18845028000;18659988888;19159988888
1400;18886490000;18701344444;19201344444
1403;18886527000;18701344444;19201344444
1404;18886528000;18701344444;19201344444
1406;18886529000;18701344444;19201344444
1407;18886656000;18701366666;19201366666
1408;18886659000;18701677777;19201677777
1412;18928021000;18743011111;19243011111
1418;18928291000;18743033333;19243033333
1419;18928298000;18743322222;19243322222
1420;18928321000;18743322222;19243322222
1421;18928323000;18743322222;19243322222
1422;18969847000;18784677777;19284677777
1429;18970095000;18784700000;19284700000
1430;18970111000;18784977777;19284977777
1431;18970135000;18784977777;19284977777
1432;18970136000;18784977777;19284977777
1433;19011521000;18826344444;19326344444
1439;19011546000;18826344444;19326344444
1441;19011779000;18826666666;19326666666
1442;19011782000;18826666666;19326666666
1443;19011804000;18826666666;19326666666
1444;19053190000;18868011111;19368011111
1452;19053352000;18868322222;19368322222
1453;19053377000;18868322222;19368322222
1454;19053378000;18868322222;19368322222
1455;19094858000;18909677777;19409677777
1463;19095019000;18909966666;19409966666
1464;19095051000;18909966666;19409966666
1465;19095052000;18909966666;19409966666
1466;19136531000;18951344444;19451344444
1474;19136691000;18951677777;19451677777
1475;19136716000;18951677777;19451677777
1476;19136717000;18951677777;19451677777
1477;19178216000;18993022222;19493022222
1484;19178469000;18993044444;19493044444
1485;19178476000;18993355555;19493355555
1486;19178499000;18993355555;19493355555
1487;19178501000;18993355555;19493355555
1488;19219877000;19034688888;19534688888
1496;19219973000;19035022222;19535022222
1497;19219991000;19035022222;19535022222
1498;19219992000;19035022222;19535022222
1499;19261384000;19076344444;19576344444
1507;19261728000;19076655555;19576655555
1508;19261752000;19076655555;19576655555
1509;19261754000;19076655555;19576655555
1510;19303238000;19118011111;19618011111
1518;19303399000;19118311111;19618311111
1519;19303424000;19118311111;19618311111
1520;19303425000;19118311111;19618311111
1521;19344883000;19159677777;19659677777
1529;19345052000;19159966666;19659966666
1530;19345076000;19159966666;19659966666
1531;19345078000;19159966666;19659966666
1532;19386577000;19201344444;19701344444
1541;19386773000;19201677777;19701677777
1542;19386797000;19201677777;19701677777
1543;19428223000;19243011111;19743011111
1549;19428247000;19243011111;19743011111
1551;19428474000;19243333333;19743333333
1552;19428498000;19243333333;19743333333
1553;19428499000;19243333333;19743333333
1554;19469750000;19284688888;19784688888
1562;19470082000;19285011111;19785011111
1563;19470106000;19285011111;19785011111
1564;19470108000;19285011111;19785011111
1565;19511647000;19326355555;19826355555
1573;19511807000;19326700000;19826700000
1574;19511819000;19326700000;19826700000
1575;19511827000;19326700000;19826700000
1576;19553252000;19368000000;19868000000
1577;19553279000;19368000000;19868000000
1578;19553281000;19368000000;19868000000
1579;19553282000;19368000000;19868000000
1581;19553283000;19368000000;19868000000
1582;19553285000;19368000000;19868000000
1583;19553501000;19368022222;19868022222
1584;19553522000;19368333333;19868333333
1585;19553527000;19368333333;19868333333
1586;19553528000;19368333333;19868333333
1587;19594744000;19409666666;19909666666
1595;19595061000;19409966666;19909966666
1596;19595086000;19409966666;19909966666
1597;19595088000;19409966666;19909966666
1598;19636580000;19451322222;19951322222
1606;19636741000;19451666666;19951666666
1607;19636745000;19451666666;19951666666
1608;19636746000;19451666666;19951666666
1609;19678221000;19492988888;19992988888
1615;19678248000;19492988888;19992988888
1616;19678473000;19493000000;19993000000
1617;19678501000;19493311111;19993311111
1618;19678506000;19493311111;19993311111
1619;19678508000;19493311111;19993311111
1620;19719889000;19534655555;20034655555
1628;19720057000;19534977777;20034977777
1629;19720081000;19534977777;20034977777
1630;19720083000;19534977777;20034977777
1631;19761552000;19576311111;20076311111
1639;19761714000;19576644444;20076644444
1640;19761739000;19576644444;20076644444
1641;19761741000;19576644444;20076644444
1642;19803224000;19617988888;20117988888
1650;19803361000;19618322222;20118322222
1651;19803370000;19618322222;20118322222
1652;19803382000;19618322222;20118322222
1653;19844891000;19659655555;20159655555
1661;19845037000;19659977777;20159977777
1662;19845039000;19659977777;20159977777
1663;19845066000;19659977777;20159977777
1664;19886531000;19701322222;20201322222
1671;19886685000;19701333333;20201333333
1672;19886688000;19701666666;20201666666
1673;19886697000;19701666666;20201666666
1674;19886709000;19701666666;20201666666
1675;19928328000;19743011111;20243011111
1683;19928501000;19743333333;20243333333
1684;19928525000;19743333333;20243333333
1685;19928527000;19743333333;20243333333
1686;19969923000;19784677777;20284677777
1694;19970098000;19784988888;20284988888
1695;19970122000;19784988888;20284988888
1696;19970124000;19784988888;20284988888
1697;20011598000;19826355555;20326355555
1705;20011759000;19826677777;20326677777
1706;20011771000;19826677777;20326677777
1707;20011773000;19826677777;20326677777
1708;20053265000;19868022222;20368022222
1716;20053425000;19868366666;20368366666
1717;20053449000;19868366666;20368366666
1718;20053451000;19868366666;20368366666
1719;20094950000;19909677777;20409677777
1727;20095107000;19909966666;20409966666
1728;20095131000;19909966666;20409966666
1729;20095133000;19909966666;20409966666
1730;20136587000;19951344444;20451344444
1738;20136748000;19951688888;20451688888
1739;20136772000;19951688888;20451688888
1740;20136774000;19951688888;20451688888
1741;20178262000;19993011111;20493011111
1749;20178423000;19993344444;20493344444
1750;20178447000;19993344444;20493344444
1751;20178449000;19993344444;20493344444
1752;20219944000;20034677777;20534677777
1759;20220160000;20034700000;20534700000
1760;20220184000;20035022222;20535022222
1761;20220186000;20035022222;20535022222
1762;20220187000;20035022222;20535022222
1763;20261592000;20076344444;20576344444
1764;20261618000;20076344444;20576344444
1765;20261620000;20076344444;20576344444
1766;20261621000;20076344444;20576344444
1767;20261622000;20076344444;20576344444
1768;20261623000;20076344444;20576344444
1769;20261624000;20076344444;20576344444
1770;20261827000;20076366666;20576366666
1771;20261865000;20076666666;20576666666
1772;20261882000;20076666666;20576666666
1773;20261883000;20076666666;20576666666
1774;20303255000;20118011111;20618011111
1782;20303392000;20118333333;20618333333
1783;20303401000;20118333333;20618333333
1784;20303413000;20118333333;20618333333
1785;20344927000;20159677777;20659677777
1793;20345017000;20159977777;20659977777
1794;20345035000;20159977777;20659977777
1795;20345037000;20159977777;20659977777
1796;20386581000;20201344444;20701344444
1804;20386719000;20201688888;20701688888
1806;20386721000;20201688888;20701688888
1807;20428262000;20243011111;20743011111
1809;20428288000;20243011111;20743011111
1810;20428289000;20243011111;20743011111
1811;20428291000;20243011111;20743011111
1812;20428292000;20243011111;20743011111
1813;20428293000;20243011111;20743011111
1814;20428511000;20243033333;20743033333
1815;20428542000;20243355555;20743355555
1816;20428546000;20243355555;20743355555
1817;20428548000;20243355555;20743355555
1818;20469924000;20284677777;20784677777
1826;20470062000;20285000000;20785000000
1827;20470082000;20285000000;20785000000
1828;20470084000;20285000000;20785000000
1829;20511592000;20326344444;20826344444
1836;20511829000;20326366666;20826366666
1837;20511845000;20326688888;20826688888
1838;20511866000;20326688888;20826688888
1839;20511867000;20326688888;20826688888
1842;20553114000;20368011111;20868011111
1848;20553415000;20368311111;20868311111
1849;20553439000;20368311111;20868311111
1850;20553441000;20368311111;20868311111
1851;20594752000;20409655555;20909655555
1859;20595018000;20409922222;20909922222
1860;20595051000;20409922222;20909922222
1861;20595053000;20409922222;20909922222
1862;20636597000;20451344444;20951344444
1870;20636758000;20451666666;20951666666
1871;20636782000;20451666666;20951666666
1872;20636783000;20451666666;20951666666
1873;20678273000;20493022222;20993022222
1881;20678448000;20493322222;20993322222
1883;20678472000;20493322222;20993322222
1884;20720017000;20534688888;21034688888
1892;20720220000;20535000000;21035000000
1893;20720224000;20535000000;21035000000
1894;20720249000;20535000000;21035000000
1895;20761633000;20576355555;21076355555
1902;20761872000;20576377777;21076377777
1903;20761909000;20576677777;21076677777
1904;20761918000;20576677777;21076677777
1908;20803127000;20618022222;21118022222
1914;20803441000;20618333333;21118333333
1915;20803465000;20618333333;21118333333
1919;20844790000;20659688888;21159688888
1925;20845076000;20659988888;21159988888
1926;20845100000;20659988888;21159988888
1927;20845102000;20659988888;21159988888
1928;20886626000;20701355555;21201355555
1934;20886653000;20701355555;21201355555
1936;20886808000;20701677777;21201677777
1937;20886833000;20701677777;21201677777
1938;20886834000;20701677777;21201677777
1939;20928277000;20743022222;21243022222
1947;20928446000;20743333333;21243333333
1948;20928470000;20743333333;21243333333
1949;20928472000;20743333333;21243333333
1950;20969948000;20784688888;21284688888
1958;20970112000;20784977777;21284977777
1959;20970136000;20784977777;21284977777
1962;21011462000;20826355555;21326355555
1969;21011783000;20826666666;21326666666
1970;21011811000;20826666666;21326666666
1971;21011812000;20826666666;21326666666
1972;21053282000;20868022222;21368022222
1980;21053431000;20868333333;21368333333
1981;21053455000;20868333333;21368333333
1982;21053460000;20868333333;21368333333
1983;21094985000;20909688888;21409688888
1991;21095137000;20909966666;21409966666
1992;21095141000;20909966666;21409966666
1993;21095143000;20909966666;21409966666
1994;21136663000;20951355555;21451355555
1997;21136700000;20951355555;21451355555
1998;21136703000;20951355555;21451355555
1999;21136704000;20951355555;21451355555
2000;21136706000;20951355555;21451355555
2001;21136942000;20951377777;21451377777
2002;21136964000;20951688888;21451688888
2003;21136969000;20951688888;21451688888
2004;21136970000;20951688888;21451688888
2005;21178301000;20993022222;21493022222
2013;21178450000;20993344444;21493344444
2014;21178478000;20993344444;21493344444
2015;21178480000;20993344444;21493344444
2016;21219991000;21034700000;21534700000
2024;21220140000;21035022222;21535022222
2025;21220144000;21035022222;21535022222
2028;21261463000;21076355555;21576355555
2035;21261722000;21076655555;21576655555
2036;21261736000;21076655555;21576655555
2037;21261748000;21076655555;21576655555
2038;21303295000;21118022222;21618022222
2046;21303457000;21118322222;21618322222
2047;21303482000;21118322222;21618322222
2048;21303483000;21118322222;21618322222
2049;21344948000;21159688888;21659688888
2056;21345184000;21159711111;21659711111
2057;21345191000;21159977777;21659977777
2058;21345215000;21159977777;21659977777
2059;21345216000;21159977777;21659977777
2060;21386614000;21201355555;21701355555
2068;21386776000;21201688888;21701688888
2069;21386800000;21201688888;21701688888
2070;21386801000;21201688888;21701688888
2071;21428282000;21243022222;21743022222
2079;21428443000;21243333333;21743333333
2080;21428467000;21243333333;21743333333
2081;21428468000;21243333333;21743333333
2082;21469978000;21284688888;21784688888
2089;21470215000;21284711111;21784711111
2090;21470222000;21285000000;21785000000
2091;21470245000;21285000000;21785000000
2092;21470246000;21285000000;21785000000
2093;21511642000;21326355555;21826355555
2101;21511791000;21326688888;21826688888
2102;21511816000;21326688888;21826688888
2103;21511817000;21326688888;21826688888
2104;21553287000;21368022222;21868022222
2110;21553312000;21368022222;21868022222
2111;21553526000;21368044444;21868044444
2112;21553563000;21368366666;21868366666
2113;21553565000;21368366666;21868366666
2114;21553566000;21368366666;21868366666
2115;21594953000;21409688888;21909688888
2122;21595190000;21409711111;21909711111
2123;21595218000;21410000000;21910000000
2124;21595224000;21410000000;21910000000
2127;21636503000;21451366666;21951366666
2134;21636847000;21451733333;21951733333
2135;21636850000;21451733333;21951733333
2136;21636875000;21451733333;21951733333
2137;21678305000;21493022222;21993022222
2145;21678470000;21493355555;21993355555
2146;21678494000;21493355555;21993355555
2147;21678495000;21493355555;21993355555
2148;21719986000;21534688888;22034688888
2155;21720223000;21534711111;22034711111
2156;21720240000;21535033333;22035033333
2157;21720263000;21535033333;22035033333
2158;21720265000;21535033333;22035033333
2159;21761675000;21576355555;22076355555
2167;21761823000;21576733333;22076733333
2168;21761847000;21576733333;22076733333
2169;21761849000;21576733333;22076733333
2170;21803365000;21618022222;22118022222
2177;21803603000;21618044444;22118044444
2178;21803620000;21618366666;22118366666
2179;21803643000;21618366666;22118366666
2180;21803644000;21618366666;22118366666
2181;21845008000;21659688888;22159688888
2189;21845180000;21660022222;22160022222
2190;21845204000;21660022222;22160022222
2191;21845214000;21660022222;22160022222
2192;21886681000;21701355555;22201355555
2200;21886842000;21701711111;22201711111
2201;21886866000;21701711111;22201711111
2202;21886868000;21701711111;22201711111
2203;21928425000;21743011111;22243011111
2211;21928600000;21743344444;22243344444
2212;21928625000;21743344444;22243344444
2213;21928627000;21743344444;22243344444
2214;21970025000;21784677777;22284677777
2220;21970066000;21784677777;22284677777
2221;21970269000;21784700000;22284700000
2222;21970298000;21785000000;22285000000
2223;21970304000;21785000000;22285000000
2224;21970305000;21785000000;22285000000
2225;22011704000;21826344444;22326344444
2233;22011853000;21826677777;22326677777
2234;22011878000;21826677777;22326677777
2235;22011879000;21826677777;22326677777
2236;22053406000;21868011111;22368011111
2244;22053570000;21868344444;22368344444
2245;22053574000;21868344444;22368344444
2246;22053586000;21868344444;22368344444
2247;22095076000;21909677777;22409677777
2255;22095226000;21909988888;22409988888
2256;22095250000;21909988888;22409988888
2257;22095252000;21909988888;22409988888
2258;22136569000;21951344444;22451344444
2266;22136907000;21951688888;22451688888
2267;22136911000;21951688888;22451688888
2268;22136912000;21951688888;22451688888
2269;22178421000;21993011111;22493011111
2276;22178673000;21993033333;22493033333
2277;22178680000;21993355555;22493355555
2278;22178703000;21993355555;22493355555
2279;22178705000;21993355555;22493355555
2280;22220070000;22034677777;22534677777
2288;22220231000;22035033333;22535033333
2289;22220256000;22035033333;22535033333
2290;22220257000;22035033333;22535033333
2291;22261735000;22076344444;22576344444
2299;22261897000;22076677777;22576677777
2300;22261921000;22076677777;22576677777
2301;22261923000;22076677777;22576677777
2302;22305570000;22118011111;22618011111
2310;22305769000;22118333333;22618333333
2311;22305795000;22118333333;22618333333
2312;22305797000;22118333333;22618333333
2313;22345084000;22159677777;22659677777
2321;22345248000;22159977777;22659977777
2322;22345272000;22159977777;22659977777
2323;22345273000;22159977777;22659977777
2324;22386758000;22201344444;22701344444
2332;22386922000;22201700000;22701700000
2333;22386947000;22201700000;22701700000
2334;22386948000;22201700000;22701700000
2337;22428289000;22243022222;22743022222
2343;22428613000;22243355555;22743355555
2345;22428617000;22243355555;22743355555
2348;22469948000;22284677777;22784677777
2349;22469975000;22284677777;22784677777
2350;22469977000;22284677777;22784677777
2351;22469978000;22284677777;22784677777
2352;22469979000;22284677777;22784677777
2353;22470203000;22284700000;22784700000
2354;22470231000;22285011111;22785011111
2355;22470237000;22285011111;22785011111
2356;22470238000;22285011111;22785011111
2357;22511781000;22326344444;22826344444
2365;22511930000;22326688888;22826688888
2366;22511954000;22326688888;22826688888
2367;22511956000;22326688888;22826688888
2368;22553443000;22368011111;22868011111
2376;22553616000;22368344444;22868344444
2377;22553620000;22368344444;22868344444
2378;22553621000;22368344444;22868344444
2379;22595120000;22409677777;22909677777
2387;22595283000;22409966666;22909966666
2388;22595307000;22409966666;22909966666
2389;22595309000;22409966666;22909966666
2390;22636790000;22451344444;22951344444
2398;22636952000;22451688888;22951688888
2399;22636976000;22451688888;22951688888
2400;22636978000;22451688888;22951688888
2401;22678305000;22493011111;22993011111
2409;22678600000;22493322222;22993322222
2410;22678604000;22493322222;22993322222
2411;22678625000;22493322222;22993322222
2412;22720164000;22534677777;23034677777
2420;22720313000;22535000000;23035000000
2421;22720337000;22535000000;23035000000
2422;22720339000;22535000000;23035000000
2423;22761810000;22576344444;23076344444
2431;22762012000;22576722222;23076722222
2432;22762037000;22576722222;23076722222
2433;22762038000;22576722222;23076722222
2434;22803340000;22618022222;23118022222
2442;22803681000;22618355555;23118355555
2443;22803705000;22618355555;23118355555
2444;22803706000;22618355555;23118355555
2445;22845167000;22659688888;23159688888
2453;22845330000;22660000000;23160000000
2454;22845355000;22660000000;23160000000
2455;22845356000;22660000000;23160000000
2456;22886824000;22701344444;23201344444
2464;22886986000;22701677777;23201677777
2465;22887010000;22701677777;23201677777
2466;22887012000;22701677777;23201677777
2467;22928496000;22743011111;23243011111
2475;22928657000;22743333333;23243333333
2476;22928681000;22743333333;23243333333
2477;22928683000;22743333333;23243333333
2478;22970174000;22784677777;23284677777
2487;22970401000;22784988888;23284988888
2488;22970425000;22784988888;23284988888
2491;23011705000;22826344444;23326344444
2497;23011997000;22826666666;23326666666
2498;23012001000;22826666666;23326666666
2499;23012022000;22826666666;23326666666
2500;23053516000;22868011111;23368011111
2508;23053679000;22868344444;23368344444
2509;23053704000;22868344444;23368344444
2510;23053705000;22868344444;23368344444
2511;23095214000;22909677777;23409677777
2519;23095378000;22909966666;23409966666
2520;23095402000;22909966666;23409966666
2521;23095404000;22909966666;23409966666
2522;23136771000;22951344444;23451344444
2530;23137032000;22951688888;23451688888
2531;23137071000;22951688888;23451688888
2532;23137072000;22951688888;23451688888
2533;23178373000;22993011111;23493011111
2540;23178623000;22993033333;23493033333
2541;23178630000;22993344444;23493344444
2542;23178631000;22993344444;23493344444
2543;23178655000;22993344444;23493344444
2544;23220197000;23034677777;23534677777
2552;23220346000;23035022222;23535022222
2553;23220370000;23035022222;23535022222
2554;23220371000;23035022222;23535022222
2555;23261865000;23076344444;23576344444
2563;23262027000;23076666666;23576666666
2564;23262059000;23076666666;23576666666
2565;23262061000;23076666666;23576666666
2566;23303380000;23118011111;23618011111
2574;23303701000;23118322222;23618322222
2575;23303705000;23118322222;23618322222
2576;23303727000;23118322222;23618322222
2577;23345209000;23159677777;23659677777
2585;23345371000;23159977777;23659977777
2586;23345395000;23159977777;23659977777
2587;23345397000;23159977777;23659977777
2588;23386725000;23201344444;23701344444
2596;23387077000;23201688888;23701688888
2597;23387081000;23201688888;23701688888
2598;23387103000;23201688888;23701688888
2599;23428547000;23243011111;23743011111
2607;23428709000;23243344444;23743344444
2608;23428734000;23243344444;23743344444
2609;23428735000;23243344444;23743344444
2610;23470222000;23284677777;23784677777
2618;23470386000;23285000000;23785000000
2619;23470410000;23285000000;23785000000
2620;23470411000;23285000000;23785000000
2621;23511818000;23326344444;23826344444
2629;23512081000;23326688888;23826688888
2630;23512086000;23326688888;23826688888
2631;23512112000;23326688888;23826688888
2632;23553563000;23368011111;23868011111
2640;23553712000;23368322222;23868322222
2641;23553736000;23368322222;23868322222
2642;23553738000;23368322222;23868322222
2643;23595105000;23409677777;23909677777
2651;23595339000;23409955555;23909955555
2655;23636750000;23451344444;23951344444
2661;23637004000;23451366666;23951366666
2662;23637042000;23451666666;23951666666
2663;23637056000;23451666666;23951666666
2664;23637057000;23451666666;23951666666
2665;23678571000;23493011111;23993011111
2673;23678734000;23493300000;23993300000
2674;23678758000;23493300000;23993300000
2675;23678759000;23493300000;23993300000
2676;23720287000;23534688888;24034688888
2682;23720312000;23534688888;24034688888
2683;23720542000;23534711111;24034711111
2684;23720548000;23535000000;24035000000
2685;23720572000;23535000000;24035000000
2686;23720573000;23535000000;24035000000
2687;23761909000;23576344444;24076344444
2693;23761934000;23576344444;24076344444
2694;23762167000;23576366666;24076366666
2695;23762174000;23576655555;24076655555
2696;23762197000;23576655555;24076655555
2697;23762199000;23576655555;24076655555
2698;23803424000;23618011111;24118011111
2705;23803668000;23618033333;24118033333
2706;23803675000;23618311111;24118311111
2707;23803677000;23618311111;24118311111
2708;23803690000;23618311111;24118311111
2709;23845248000;23659677777;24159677777
2717;23845410000;23659966666;24159966666
2718;23845434000;23659966666;24159966666
2719;23845436000;23659966666;24159966666
2720;23886921000;23701344444;24201344444
2728;23887089000;23701655555;24201655555
2729;23887113000;23701655555;24201655555
2730;23887115000;23701655555;24201655555
2731;23928590000;23743011111;24243011111
2739;23928752000;23743311111;24243311111
2740;23928776000;23743311111;24243311111
2741;23928778000;23743311111;24243311111
2742;23970259000;23784677777;24284677777
2750;23970421000;23784966666;24284966666
2751;23970425000;23784966666;24284966666
2752;23970447000;23784966666;24284966666
2753;24011953000;23826366666;24326366666
2761;24012099000;23826677777;24326677777
2762;24012123000;23826677777;24326677777
2763;24012125000;23826677777;24326677777
2764;24053601000;23868000000;24368000000
2772;24053764000;23868322222;24368322222
2773;24053788000;23868322222;24368322222
2774;24053790000;23868322222;24368322222
2775;24095250000;23909655555;24409655555
2783;24095406000;23909933333;24409933333
2784;24095430000;23909933333;24409933333
2785;24095432000;23909933333;24409933333
2786;24136918000;23951322222;24451322222
2794;24137088000;23951655555;24451655555
2795;24137112000;23951655555;24451655555
2796;24137113000;23951655555;24451655555
2797;24178590000;23992988888;24492988888
2805;24178752000;23993300000;24493300000
2806;24178777000;23993300000;24493300000
2807;24178778000;23993300000;24493300000
2808;24220248000;24034644444;24534644444
2816;24220410000;24034955555;24534955555
2817;24220434000;24034955555;24534955555
2818;24220436000;24034955555;24534955555
2819;24261928000;24076322222;24576322222
2827;24262090000;24076622222;24576622222
2828;24262115000;24076622222;24576622222
2829;24262116000;24076622222;24576622222
2830;24303664000;24117988888;24617988888
2837;24303907000;24118011111;24618011111
2838;24303914000;24118288888;24618288888
2840;24303929000;24118288888;24618288888
2841;24345349000;24159655555;24659655555
2849;24345511000;24159933333;24659933333
2850;24345535000;24159933333;24659933333
2851;24345537000;24159933333;24659933333
2852;24386958000;24201311111;24701311111
2860;24387110000;24201633333;24701633333
2861;24387134000;24201633333;24701633333
2862;24387135000;24201633333;24701633333
2863;24428609000;24242988888;24742988888
2871;24428771000;24243300000;24743300000
2872;24428795000;24243300000;24743300000
2873;24428796000;24243300000;24743300000
2874;24470341000;24284677777;24784677777
2882;24470489000;24284977777;24784977777
2883;24470513000;24284977777;24784977777
2884;24470515000;24284977777;24784977777
2885;24512012000;24326355555;24826355555
2893;24512179000;24326677777;24826677777
2894;24512203000;24326677777;24826677777
2895;24512205000;24326677777;24826677777
2896;24553664000;24368011111;24868011111
2903;24553917000;24368033333;24868033333
2904;24553924000;24368300000;24868300000
2905;24553947000;24368300000;24868300000
2906;24553949000;24368300000;24868300000
2907;24595309000;24409677777;24909677777
2915;24595469000;24409944444;24909944444
2916;24595494000;24409944444;24909944444
2917;24595495000;24409944444;24909944444
2918;24636978000;24451344444;24951344444
2926;24637125000;24451655555;24951655555
2927;24637149000;24451655555;24951655555
2928;24637151000;24451655555;24951655555
2929;24678679000;24493011111;24993011111
2937;24678840000;24493288888;24993288888
2938;24678864000;24493288888;24993288888
2939;24678865000;24493288888;24993288888
2940;24720430000;24534677777;25034677777
2948;24720600000;24534966666;25034966666
2949;24720625000;24534966666;25034966666
2950;24720627000;24534966666;25034966666
2951;24761995000;24576344444;25076344444
2959;24762158000;24576644444;25076644444
2960;24762185000;24576644444;25076644444
2963;24803500000;24618000000;25118000000
2970;24803935000;24618444444;25118444444
2971;24803939000;24618444444;25118444444
2972;24803961000;24618444444;25118444444
2973;24845333000;24659677777;25159677777
2981;24845495000;24659966666;25159966666
2982;24845520000;24659966666;25159966666
2983;24845521000;24659966666;25159966666
2984;24887002000;24701344444;25201344444
2991;24887200000;24701366666;25201366666
2992;24887207000;24701655555;25201655555
2993;24887231000;24701655555;25201655555
2994;24887232000;24701655555;25201655555
2995;24928690000;24743011111;25243011111
3004;24928859000;24743300000;25243300000
3005;24928884000;24743300000;25243300000
3006;24970347000;24784677777;25284677777
3014;24970509000;24784944444;25284944444
3015;24970533000;24784944444;25284944444
3016;24970535000;24784944444;25284944444
3017;25011856000;24826344444;25326344444
3025;25012137000;24826633333;25326633333
3026;25012141000;24826633333;25326633333
3027;25012142000;24826633333;25326633333
3028;25053682000;24868011111;25368011111
3036;25053844000;24868300000;25368300000
3037;25053868000;24868300000;25368300000
3038;25053870000;24868300000;25368300000
3039;25095353000;24909677777;25409677777
3047;25095516000;24909944444;25409944444
3048;25095540000;24909944444;25409944444
3049;25095542000;24909944444;25409944444
3050;25137020000;24951344444;25451344444
3058;25137184000;24951655555;25451655555
3059;25137208000;24951655555;25451655555
3060;25137210000;24951655555;25451655555
3061;25178689000;24993011111;25493011111
3069;25178852000;24993311111;25493311111
3070;25178876000;24993311111;25493311111
3071;25178878000;24993311111;25493311111
3072;25220219000;25034688888;25534688888
3080;25220507000;25035000000;25535000000
3081;25220532000;25035000000;25535000000
3082;25220533000;25035000000;25535000000
3085;25261894000;25076344444;25576344444
3091;25262135000;25076633333;25576633333
3092;25262139000;25076633333;25576633333
3093;25262161000;25076633333;25576633333
3096;25303535000;25118000000;25618000000
3102;25303800000;25118288888;25618288888
3103;25303825000;25118288888;25618288888
3104;25303826000;25118288888;25618288888
3105;25345348000;25159655555;25659655555
3113;25345509000;25159922222;25659922222
3114;25345533000;25159922222;25659922222
3115;25345535000;25159922222;25659922222
3116;25387013000;25201322222;25701322222
3124;25387178000;25201644444;25701644444
3125;25387202000;25201644444;25701644444
3126;25387204000;25201644444;25701644444
3127;25428681000;25242988888;25742988888
3135;25428843000;25243288888;25743288888
3136;25428868000;25243288888;25743288888
3137;25428869000;25243288888;25743288888
3138;25470366000;25284644444;25784644444
3146;25470514000;25284922222;25784922222
3147;25470538000;25284922222;25784922222
3148;25470540000;25284922222;25784922222
3149;25513158000;25326322222;25826322222
3157;25513345000;25326633333;25826633333
3158;25513349000;25326633333;25826633333
3159;25513372000;25326633333;25826633333
3160;25553688000;25367988888;25867988888
3163;25553715000;25367988888;25867988888
3164;25553717000;25367988888;25867988888
3165;25553719000;25367988888;25867988888
3166;25553721000;25367988888;25867988888
3167;25553947000;25368000000;25868000000
3168;25553975000;25368288888;25868288888
3169;25553981000;25368288888;25868288888
3170;25553982000;25368288888;25868288888
3171;25595371000;25409655555;25909655555
3179;25595523000;25409933333;25909933333
3180;25595526000;25409933333;25909933333
3181;25595528000;25409933333;25909933333
3182;25637017000;25451311111;25951311111
3183;25637054000;25451311111;25951311111
3184;25637055000;25451311111;25951311111
3185;25637056000;25451311111;25951311111
3186;25637058000;25451311111;25951311111
3187;25637059000;25451311111;25951311111
3188;25637060000;25451311111;25951311111
3189;25637262000;25451333333;25951333333
3190;25637290000;25451622222;25951622222
3191;25637295000;25451622222;25951622222
3192;25637296000;25451622222;25951622222
3193;25678694000;25492988888;25992988888
3201;25678909000;25493277777;25993277777
3202;25678912000;25493277777;25993277777
3203;25678924000;25493277777;25993277777
3204;25720369000;25534655555;26034655555
3211;25720621000;25534677777;26034677777
3212;25720659000;25534966666;26034966666
3214;25720661000;25534966666;26034966666
3215;25762038000;25576322222;26076322222
3216;25762069000;25576322222;26076322222
3217;25762071000;25576322222;26076322222
3218;25762072000;25576322222;26076322222
3219;25762082000;25576322222;26076322222
3220;25762083000;25576322222;26076322222
3221;25762085000;25576322222;26076322222
3222;25762302000;25576333333;26076333333
3223;25762318000;25576633333;26076633333
3224;25762341000;25576633333;26076633333
3225;25762343000;25576633333;26076633333
3226;25803720000;25617977777;26117977777
3234;25803880000;25618266666;26118266666
3235;25803904000;25618266666;26118266666
3236;25803906000;25618266666;26118266666
3237;25845436000;25659677777;26159677777
3245;25845598000;25659966666;26159966666
3246;25845622000;25659966666;26159966666
3247;25845624000;25659966666;26159966666
3248;25887075000;25701355555;26201355555
3256;25887237000;25701677777;26201677777
3257;25887261000;25701677777;26201677777
3258;25887263000;25701677777;26201677777
3259;25928805000;25743011111;26243011111
3267;25928977000;25743311111;26243311111
3268;25929001000;25743311111;26243311111
3269;25929002000;25743311111;26243311111
3270;25970248000;25784677777;26284677777
3278;25970521000;25784966666;26284966666
3279;25970545000;25784966666;26284966666
3280;25970546000;25784966666;26284966666
3281;26012085000;25826344444;26326344444
3287;26012109000;25826344444;26326344444
3288;26012337000;25826366666;26326366666
3289;26012365000;25826655555;26326655555
3290;26012373000;25826655555;26326655555
3291;26012375000;25826655555;26326655555
3292;26053736000;25868011111;26368011111
3300;26053884000;25868322222;26368322222
3301;26053908000;25868322222;26368322222
3302;26053909000;25868322222;26368322222
3303;26095403000;25909677777;26409677777
3311;26095563000;25909955555;26409955555
3312;26095587000;25909955555;26409955555
3313;26095589000;25909955555;26409955555
3314;26136924000;25951344444;26451344444
3322;26137242000;25951666666;26451666666
3323;26137246000;25951666666;26451666666
3324;26137269000;25951666666;26451666666
3325;26178742000;25993011111;26493011111
3333;26178952000;25993322222;26493322222
3334;26178976000;25993322222;26493322222
3335;26178977000;25993322222;26493322222
3336;26220433000;26034677777;26534677777
3345;26220610000;26035000000;26535000000
3346;26220613000;26035000000;26535000000
3347;26261932000;26076344444;26576344444
3349;26261960000;26076344444;26576344444
3350;26261961000;26076344444;26576344444
3351;26261962000;26076344444;26576344444
3352;26261964000;26076344444;26576344444
3353;26261971000;26076344444;26576344444
3354;26262211000;26076366666;26576366666
3355;26262248000;26076644444;26576644444
3356;26262254000;26076644444;26576644444
3357;26262255000;26076644444;26576644444
3358;26303786000;26118011111;26618011111
3365;26304024000;26118033333;26618033333
3366;26304071000;26118311111;26618311111
3367;26304072000;26118311111;26618311111
3368;26304074000;26118311111;26618311111
3369;26345272000;26159677777;26659677777
3370;26345299000;26159677777;26659677777
3371;26345300000;26159677777;26659677777
3372;26345302000;26159677777;26659677777
3373;26345303000;26159677777;26659677777
3374;26345304000;26159677777;26659677777
3375;26345305000;26159677777;26659677777
3376;26345531000;26159700000;26659700000
3377;26345559000;26159955555;26659955555
3378;26345564000;26159955555;26659955555
3379;26345565000;26159955555;26659955555
3380;26387102000;26201344444;26701344444
3388;26387264000;26201677777;26701677777
3389;26387288000;26201677777;26701677777
3390;26387289000;26201677777;26701677777
3391;26428772000;26243022222;26743022222
3399;26428904000;26243333333;26743333333
3400;26428924000;26243333333;26743333333
3401;26428926000;26243333333;26743333333
3402;26470429000;26284677777;26784677777
3410;26470561000;26284988888;26784988888
3411;26470580000;26284988888;26784988888
3412;26470582000;26284988888;26784988888
3413;26512111000;26326344444;26826344444
3420;26512333000;26326366666;26826366666
3421;26512347000;26326666666;26826666666
3422;26512348000;26326666666;26826666666
3423;26512357000;26326666666;26826666666
3424;26553771000;26368011111;26868011111
3432;26553903000;26368333333;26868333333
3433;26553923000;26368333333;26868333333
3434;26553924000;26368333333;26868333333
3435;26595444000;26409677777;26909677777
3443;26595616000;26409966666;26909966666
3444;26595640000;26409966666;26909966666
3445;26595641000;26409966666;26909966666
3446;26637116000;26451344444;26951344444
3454;26637272000;26451677777;26951677777
3455;26637297000;26451677777;26951677777
3456;26637298000;26451677777;26951677777
3457;26678615000;26493011111;26993011111
3465;26679165000;26493311111;26993311111
3466;26679169000;26493311111;26993311111
3467;26679170000;26493311111;26993311111
3468;26720550000;26534677777;27034677777
3475;26720810000;26534700000;27034700000
3476;26720848000;26534988888;27034988888
3477;26720856000;26534988888;27034988888
3480;26761965000;26576344444;27076344444
3481;26761993000;26576344444;27076344444
3482;26761995000;26576344444;27076344444
3483;26761996000;26576344444;27076344444
3484;26761997000;26576344444;27076344444
3486;26762266000;26576366666;27076366666
3487;26762303000;26576666666;27076666666
3488;26762309000;26576666666;27076666666
3489;26762310000;26576666666;27076666666
3490;26803801000;26618011111;27118011111
3498;26803931000;26618333333;27118333333
3499;26803950000;26618333333;27118333333
3500;26803951000;26618333333;27118333333
3501;26845453000;26659677777;27159677777
3509;26845586000;26659977777;27159977777
3510;26845595000;26659977777;27159977777
3511;26845606000;26659977777;27159977777
3512;26887138000;26701355555;27201355555
3520;26887275000;26701688888;27201688888
3521;26887278000;26701688888;27201688888
3522;26887286000;26701688888;27201688888
3523;26928790000;26743011111;27243011111
3530;26929041000;26743033333;27243033333
3531;26929055000;26743311111;27243311111
3532;26929078000;26743311111;27243311111
3533;26929080000;26743311111;27243311111
3534;26970463000;26784677777;27284677777
3542;26970627000;26784966666;27284966666
3543;26970630000;26784966666;27284966666
3544;26970652000;26784966666;27284966666
3545;27012132000;26826344444;27326344444
3553;27012291000;26826655555;27326655555
3554;27012315000;26826655555;27326655555
3555;27012317000;26826655555;27326655555
3556;27053798000;26868011111;27368011111
3564;27053929000;26868333333;27368333333
3565;27053939000;26868333333;27368333333
3566;27053950000;26868333333;27368333333
3567;27095460000;26909677777;27409677777
3574;27095685000;26909700000;27409700000
3575;27095700000;26909966666;27409966666
3576;27095721000;26909966666;27409966666
3577;27095723000;26909966666;27409966666
3578;27137218000;26951344444;27451344444
3586;27137345000;26951677777;27451677777
3587;27137355000;26951677777;27451677777
3588;27137356000;26951677777;27451677777
3589;27178628000;26993011111;27493011111
3594;27178660000;26993011111;27493011111
3595;27178661000;26993011111;27493011111
3596;27178862000;26993033333;27493033333
3597;27178881000;26993322222;27493322222
3598;27178896000;26993322222;27493322222
3601;27220318000;27034677777;27534677777
3608;27220658000;27035011111;27535011111
3609;27220682000;27035011111;27535011111
3610;27220684000;27035011111;27535011111
3611;27262127000;27076333333;27576333333
3619;27262289000;27076666666;27576666666
3620;27262313000;27076666666;27576666666
3621;27262315000;27076666666;27576666666
3622;27303786000;27117988888;27617988888
3631;27303992000;27118311111;27618311111
3632;27304016000;27118311111;27618311111
3633;27345453000;27159655555;27659655555
3641;27345614000;27159966666;27659966666
3642;27345638000;27159966666;27659966666
3643;27345639000;27159966666;27659966666
3644;27387139000;27201333333;27701333333
3652;27387300000;27201700000;27701700000
3653;27387324000;27201700000;27701700000
3654;27387325000;27201700000;27701700000
3655;27428796000;27242988888;27742988888
3663;27428958000;27243322222;27743322222
3664;27428983000;27243322222;27743322222
3665;27428984000;27243322222;27743322222
3666;27470490000;27284655555;27784655555
3674;27470651000;27285000000;27785000000
3675;27470675000;27285000000;27785000000
3676;27470677000;27285000000;27785000000
3677;27512158000;27326322222;27826322222
3684;27512368000;27326344444;27826344444
3685;27512373000;27326677777;27826677777
3686;27512374000;27326677777;27826677777
3687;27512375000;27326677777;27826677777
3688;27553788000;27367977777;27867977777
3695;27554039000;27368000000;27868000000
3696;27554053000;27368288888;27868288888
3697;27554077000;27368288888;27868288888
3698;27554078000;27368288888;27868288888
3699;27595331000;27409677777;27909677777
3707;27595655000;27409966666;27909966666
3708;27595679000;27409966666;27909966666
3709;27595681000;27409966666;27909966666
3710;27637142000;27451322222;27951322222
3718;27637303000;27451677777;27951677777
3719;27637327000;27451677777;27951677777
3720;27637329000;27451677777;27951677777
3721;27678655000;27492988888;27992988888
3729;27678993000;27493300000;27993300000
3730;27679017000;27493300000;27993300000
3731;27679019000;27493300000;27993300000
3732;27720483000;27534655555;28034655555
3740;27720646000;27534966666;28034966666
3741;27720670000;27534966666;28034966666
3742;27720671000;27534966666;28034966666
3743;27761996000;27576322222;28076322222
3751;27762320000;27576655555;28076655555
3752;27762324000;27576655555;28076655555
3753;27762346000;27576655555;28076655555
3754;27803835000;27618000000;28118000000
3761;27804084000;27618022222;28118022222
3762;27804101000;27618311111;28118311111
3763;27804124000;27618311111;28118311111
3764;27804126000;27618311111;28118311111
3765;27845491000;27659655555;28159655555
3773;27845652000;27659944444;28159944444
3775;27845676000;27659944444;28159944444
3776;27887179000;27701344444;28201344444
3784;27887312000;27701677777;28201677777
3785;27887331000;27701677777;28201677777
3786;27887333000;27701677777;28201677777
3787;27928905000;27742988888;28242988888
3795;27929069000;27743288888;28243288888
3796;27929102000;27743288888;28243288888
3799;27970353000;27784655555;28284655555
3806;27970611000;27784933333;28284933333
3807;27970636000;27784933333;28284933333
3808;27970637000;27784933333;28284933333
3809;28012175000;27826322222;28326322222
3817;28012338000;27826622222;28326622222
3818;28012362000;27826622222;28326622222
3819;28012364000;27826622222;28326622222
3820;28053867000;27868011111;28368011111
3827;28054104000;27868033333;28368033333
3828;28054120000;27868311111;28368311111
3829;28054144000;27868311111;28368311111
3830;28054145000;27868311111;28368311111
3831;28095398000;27909677777;28409677777
3839;28095643000;27909955555;28409955555
3840;28095646000;27909955555;28409955555
3841;28095648000;27909955555;28409955555
3842;28137219000;27951344444;28451344444
3850;28137349000;27951666666;28451666666
3851;28137367000;27951666666;28451666666
3852;28137369000;27951666666;28451666666
3853;28178898000;27993011111;28493011111
3861;28179030000;27993322222;28493322222
3862;28179039000;27993322222;28493322222
3863;28179059000;27993322222;28493322222
3866;28220399000;28034688888;28534688888
3872;28220720000;28035000000;28535000000
3873;28220744000;28035000000;28535000000
3874;28220746000;28035000000;28535000000
3875;28262062000;28076344444;28576344444
3883;28262323000;28076633333;28576633333
3884;28262327000;28076633333;28576633333
3885;28262329000;28076633333;28576633333
3886;28303877000;28118011111;28618011111
3894;28304024000;28118300000;28618300000
3895;28304038000;28118300000;28618300000
3898;28345458000;28159677777;28659677777
3905;28345673000;28159955555;28659955555
3907;28345697000;28159955555;28659955555
3908;28387242000;28201344444;28701344444
3911;28387269000;28201344444;28701344444
3912;28387271000;28201344444;28701344444
3913;28387272000;28201344444;28701344444
3914;28387274000;28201344444;28701344444
3915;28387484000;28201366666;28701366666
3916;28387525000;28201666666;28701666666
3917;28387526000;28201666666;28701666666
3918;28387528000;28201666666;28701666666
3919;28428890000;28243011111;28743011111
3921;28428917000;28243011111;28743011111
3922;28428919000;28243011111;28743011111
3923;28428920000;28243011111;28743011111
3924;28428921000;28243011111;28743011111
3925;28428922000;28243011111;28743011111
3926;28429141000;28243033333;28743033333
3927;28429169000;28243344444;28743344444
3928;28429175000;28243344444;28743344444
3929;28429176000;28243344444;28743344444
3930;28470585000;28284677777;28784677777
3938;28470747000;28284977777;28784977777
3939;28470779000;28284977777;28784977777
3940;28470781000;28284977777;28784977777
3941;28512229000;28326344444;28826344444
3949;28512392000;28326655555;28826655555
3950;28512416000;28326655555;28826655555
3951;28512418000;28326655555;28826655555
3952;28553899000;28368011111;28868011111
3960;28554069000;28368322222;28868322222
3961;28554093000;28368322222;28868322222
3962;28554095000;28368322222;28868322222
3963;28595563000;28409677777;28909677777
3971;28595724000;28409955555;28909955555
3972;28595749000;28409955555;28909955555
3973;28595750000;28409955555;28909955555
3974;28637236000;28451344444;28951344444
3982;28637385000;28451666666;28951666666
3983;28637409000;28451666666;28951666666
3984;28637410000;28451666666;28951666666
3985;28678934000;28493011111;28993011111
3994;28679083000;28493300000;28993300000
3995;28679087000;28493300000;28993300000
3996;28720588000;28534677777;29034677777
3999;28720616000;28534677777;29034677777
4001;28720617000;28534677777;29034677777
4002;28720618000;28534677777;29034677777
4003;28720828000;28534700000;29034700000
4004;28720866000;28534977777;29034977777
4005;28720871000;28534977777;29034977777
4006;28720873000;28534977777;29034977777
4007;28762241000;28576344444;29076344444
4014;28762503000;28576366666;29076366666
4015;28762510000;28576655555;29076655555
4017;28762533000;28576655555;29076655555
4018;28803909000;28618011111;29118011111
4026;28804077000;28618311111;29118311111
4027;28804101000;28618311111;29118311111
4028;28804103000;28618311111;29118311111
4029;28845585000;28659688888;29159688888
4037;28845746000;28659977777;29159977777
4038;28845770000;28659977777;29159977777
4039;28845772000;28659977777;29159977777
4040;28887240000;28701344444;29201344444
4048;28887400000;28701666666;29201666666
4049;28887425000;28701666666;29201666666
4050;28887427000;28701666666;29201666666
4051;28928936000;28743011111;29243011111
4059;28929098000;28743311111;29243311111
4060;28929122000;28743311111;29243311111
4061;28929123000;28743311111;29243311111
4062;28970582000;28784677777;29284677777
4070;28970741000;28784966666;29284966666
4071;28970765000;28784966666;29284966666
4074;29012103000;28826344444;29326344444
4081;29012370000;28826644444;29326644444
4082;29012394000;28826644444;29326644444
4083;29012396000;28826644444;29326644444
4084;29053945000;28868011111;29368011111
4092;29054090000;28868333333;29368333333
4093;29054094000;28868333333;29368333333
4094;29054116000;28868333333;29368333333
4095;29095585000;28909677777;29409677777
4103;29095748000;28909955555;29409955555
4104;29095772000;28909955555;29409955555
4105;29095774000;28909955555;29409955555
4106;29137325000;28951344444;29451344444
4114;29137500000;28951666666;29451666666
4115;29137525000;28951666666;29451666666
4116;29137526000;28951666666;29451666666
4117;29178783000;28993011111;29493011111
4122;29178810000;28993011111;29493011111
4123;29178814000;28993011111;29493011111
4124;29179026000;28993033333;29493033333
4125;29179078000;28993322222;29493322222
4126;29179087000;28993322222;29493322222
4127;29179088000;28993322222;29493322222
4128;29220432000;29034677777;29534677777
4136;29220756000;29035000000;29535000000
4137;29220775000;29035000000;29535000000
4138;29220777000;29035000000;29535000000
4139;29262113000;29076344444;29576344444
4147;29262408000;29076644444;29576644444
4148;29262427000;29076644444;29576644444
4149;29262438000;29076644444;29576644444
4150;29303927000;29118011111;29618011111
4158;29304083000;29118300000;29618300000
4159;29304103000;29118300000;29618300000
4160;29304105000;29118300000;29618300000
4161;29345595000;29159677777;29659677777
4169;29345743000;29159955555;29659955555
4170;29345763000;29159955555;29659955555
4171;29345764000;29159955555;29659955555
4172;29387260000;29201344444;29701344444
4180;29387398000;29201677777;29701677777
4181;29387417000;29201677777;29701677777
4182;29387418000;29201677777;29701677777
4183;29428928000;29243011111;29743011111
4191;29429067000;29243322222;29743322222
4192;29429088000;29243322222;29743322222
4193;29429089000;29243322222;29743322222
4194;29470602000;29284677777;29784677777
4202;29470771000;29284988888;29784988888
4203;29470795000;29284988888;29784988888
4204;29470797000;29284988888;29784988888
4205;29512318000;29326344444;29826344444
4212;29512550000;29326366666;29826366666
4213;29512557000;29326666666;29826666666
4214;29512572000;29326666666;29826666666
4215;29512573000;29326666666;29826666666
4216;29553991000;29368011111;29868011111
4224;29554180000;29368333333;29868333333
4225;29554205000;29368333333;29868333333
4226;29554206000;29368333333;29868333333
4227;29595477000;29409677777;29909677777
4235;29595734000;29409966666;29909966666
4236;29595758000;29409966666;29909966666
4237;29595760000;29409966666;29909966666
4238;29637285000;29451344444;29951344444
4246;29637448000;29451688888;29951688888
4247;29637472000;29451688888;29951688888
4248;29637474000;29451688888;29951688888
4249;29678977000;29493011111;29993011111
4256;29679204000;29493033333;29993033333
4257;29679211000;29493322222;29993322222
4258;29679234000;29493322222;29993322222
4259;29679236000;29493322222;29993322222
4260;29720639000;29534677777;30034677777
4268;29720787000;29534988888;30034988888
4269;29720811000;29534988888;30034988888
4270;29720813000;29534988888;30034988888
4271;29762292000;29576344444;30076344444
4279;29762451000;29576677777;30076677777
4280;29762475000;29576677777;30076677777
4281;29762477000;29576677777;30076677777
4282;29803958000;29618011111;30118011111
4290;29804100000;29618333333;30118333333
4291;29804124000;29618333333;30118333333
4292;29804125000;29618333333;30118333333
4293;29845629000;29659677777;30159677777
4301;29845790000;29659977777;30159977777
4302;29845814000;29659977777;30159977777
4303;29845816000;29659977777;30159977777
4304;29887309000;29701355555;30201355555
4312;29887469000;29701677777;30201677777
4313;29887493000;29701677777;30201677777
4314;29887495000;29701677777;30201677777
4315;29928820000;29743011111;30243011111
4323;29929137000;29743322222;30243322222
4324;29929160000;29743322222;30243322222
4325;29929162000;29743322222;30243322222
4328;29970486000;29784677777;30284677777
4334;29970778000;29784977777;30284977777
4335;29970802000;29784977777;30284977777
4336;29970804000;29784977777;30284977777
4337;30012312000;29826344444;30326344444
4345;30012473000;29826666666;30326666666
4346;30012497000;29826666666;30326666666
4347;30012499000;29826666666;30326666666
4348;30053982000;29868011111;30368011111
4356;30054128000;29868344444;30368344444
4357;30054152000;29868344444;30368344444
4358;30054153000;29868344444;30368344444
4359;30095655000;29909677777;30409677777
4367;30095819000;29909966666;30409966666
4368;30095843000;29909966666;30409966666
4369;30095845000;29909966666;30409966666
4370;30137326000;29951344444;30451344444
4378;30137490000;29951677777;30451677777
4379;30137514000;29951677777;30451677777
4380;30137515000;29951677777;30451677777
4381;30178990000;29993011111;30493011111
4387;30179014000;29993011111;30493011111
4389;30179208000;29993333333;30493333333
4390;30179240000;29993333333;30493333333
4391;30179241000;29993333333;30493333333
4392;30220660000;30034677777;30534677777
4400;30220822000;30035011111;30535011111
4401;30220846000;30035011111;30535011111
4402;30220847000;30035011111;30535011111
4403;30262330000;30076344444;30576344444
4412;30262558000;30076655555;30576655555
4413;30262572000;30076655555;30576655555
4414;30303992000;30118000000;30618000000
4422;30304124000;30118311111;30618311111
4423;30304127000;30118311111;30618311111
4424;30304135000;30118311111;30618311111
4425;30345720000;30159655555;30659655555
4433;30345895000;30159944444;30659944444
4434;30345915000;30159944444;30659944444
4435;30345917000;30159944444;30659944444
4436;30387376000;30201344444;30701344444
4444;30387508000;30201688888;30701688888
4445;30387510000;30201688888;30701688888
4446;30387512000;30201688888;30701688888
4447;30429012000;30243011111;30743011111
4455;30429163000;30243333333;30743333333
4456;30429183000;30243333333;30743333333
4457;30429184000;30243333333;30743333333
4458;30470678000;30284677777;30784677777
4466;30470810000;30285000000;30785000000
4467;30470830000;30285000000;30785000000
4468;30470841000;30285000000;30785000000
4469;30512352000;30326344444;30826344444
4477;30512512000;30326677777;30826677777
4478;30512520000;30326677777;30826677777
4479;30512532000;30326677777;30826677777
4480;30553856000;30368011111;30868011111
4488;30554130000;30368300000;30868300000
4489;30554141000;30368300000;30868300000
4490;30554142000;30368300000;30868300000
4491;30595714000;30409677777;30909677777
4499;30595863000;30409944444;30909944444
4500;30595866000;30409944444;30909944444
4501;30595868000;30409944444;30909944444
4502;30637365000;30451344444;30951344444
4503;30637392000;30451344444;30951344444
4504;30637394000;30451344444;30951344444
4505;30637395000;30451344444;30951344444
4506;30637397000;30451344444;30951344444
4507;30637398000;30451344444;30951344444
4508;30637399000;30451344444;30951344444
4509;30637624000;30451366666;30951366666
4510;30637652000;30451655555;30951655555
4511;30637657000;30451655555;30951655555
4512;30637659000;30451655555;30951655555
4513;30679032000;30493011111;30993011111
4519;30679076000;30493011111;30993011111
4520;30679311000;30493033333;30993033333
4521;30679318000;30493300000;30993300000
4523;30679320000;30493300000;30993300000
4524;30722058000;30534677777;31034677777
4532;30722240000;30534966666;31034966666
4533;30722244000;30534966666;31034966666
4534;30722267000;30534966666;31034966666
4535;30762372000;30576344444;31076344444
4543;30762521000;30576644444;31076644444
4544;30762545000;30576644444;31076644444
4545;30762546000;30576644444;31076644444
4546;30803889000;30618011111;31118011111
4554;30804177000;30618300000;31118300000
4555;30804190000;30618300000;31118300000
4556;30804199000;30618300000;31118300000
4557;30845708000;30659677777;31159677777
4565;30845845000;30659966666;31159966666
4568;30887225000;30701344444;31201344444
4576;30887548000;30701655555;31201655555
4577;30887572000;30701655555;31201655555
4578;30887574000;30701655555;31201655555
4579;30929058000;30743011111;31243011111
4587;30929200000;30743300000;31243300000
4588;30929224000;30743300000;31243300000
4589;30929226000;30743300000;31243300000
4590;30970748000;30784677777;31284677777
4598;30970908000;30784955555;31284955555
4599;30970912000;30784955555;31284955555
4600;30970934000;30784955555;31284955555
4601;31012391000;30826344444;31326344444
4609;31012557000;30826633333;31326633333
4610;31012582000;30826633333;31326633333
4611;31012585000;30826633333;31326633333
4612;31054080000;30868011111;31368011111
4620;31054220000;30868300000;31368300000
4621;31054236000;30868300000;31368300000
4622;31054238000;30868300000;31368300000
4623;31095734000;30909677777;31409677777
4631;31095855000;30909944444;31409944444
4632;31095859000;30909944444;31409944444
4633;31095873000;30909944444;31409944444
4634;31137452000;30951344444;31451344444
4642;31137575000;30951655555;31451655555
4643;31137578000;30951655555;31451655555
4644;31137592000;30951655555;31451655555
4645;31178916000;30993011111;31493011111
4653;31179220000;30993311111;31493311111
4654;31179237000;30993311111;31493311111
4655;31179239000;30993311111;31493311111
4656;31220752000;31034688888;31534688888
4664;31220873000;31035000000;31535000000
4665;31220889000;31035000000;31535000000
4666;31220892000;31035000000;31535000000
4667;31262405000;31076344444;31576344444
4675;31262527000;31076633333;31576633333
4676;31262543000;31076633333;31576633333
4677;31262545000;31076633333;31576633333
4678;31304074000;31118011111;31618011111
4685;31304286000;31118033333;31618033333
4686;31304294000;31118300000;31618300000
4687;31304308000;31118300000;31618300000
4688;31304311000;31118300000;31618300000
4689;31345739000;31159677777;31659677777
4697;31345860000;31159944444;31659944444
4698;31345876000;31159944444;31659944444
4699;31345879000;31159944444;31659944444
4700;31387254000;31201344444;31701344444
4708;31387586000;31201666666;31701666666
4709;31387602000;31201666666;31701666666
4710;31387604000;31201666666;31701666666
4711;31429101000;31243011111;31743011111
4718;31429313000;31243033333;31743033333
4719;31429320000;31243311111;31743311111
4720;31429345000;31243311111;31743311111
4721;31429347000;31243311111;31743311111
4722;31470779000;31284677777;31784677777
4730;31470900000;31284966666;31784966666
4731;31470916000;31284966666;31784966666
4732;31470918000;31284966666;31784966666
4733;31512408000;31326344444;31826344444
4741;31512528000;31326655555;31826655555
4742;31512543000;31326655555;31826655555
4743;31512545000;31326655555;31826655555
4744;31554145000;31368011111;31868011111
4752;31554324000;31368333333;31868333333
4753;31554349000;31368333333;31868333333
4754;31554350000;31368333333;31868333333
4755;31595790000;31409677777;31909677777
4763;31595939000;31409977777;31909977777
4764;31595943000;31409977777;31909977777
4765;31595944000;31409977777;31909977777
4766;31637411000;31451333333;31951333333
4769;31637439000;31451333333;31951333333
4770;31637440000;31451333333;31951333333
4771;31637442000;31451333333;31951333333
4772;31637443000;31451333333;31951333333
4773;31637669000;31451355555;31951355555
4774;31637697000;31451688888;31951688888
4775;31637702000;31451688888;31951688888
4776;31637704000;31451688888;31951688888
4777;31679076000;31492988888;31992988888
4785;31679239000;31493300000;31993300000
4786;31679263000;31493300000;31993300000
4787;31679264000;31493300000;31993300000
4788;31720737000;31534655555;32034655555
4796;31720993000;31534977777;32034977777
4797;31721017000;31534977777;32034977777
4798;31721019000;31534977777;32034977777
4799;31762432000;31576322222;32076322222
4806;31762670000;31576333333;32076333333
4807;31762708000;31576655555;32076655555
4808;31762710000;31576655555;32076655555
4809;31762711000;31576655555;32076655555
4810;31803904000;31617977777;32117977777
4813;31803931000;31617977777;32117977777
4814;31803933000;31617977777;32117977777
4815;31803934000;31617977777;32117977777
4816;31803935000;31617977777;32117977777
4817;31804187000;31618000000;32118000000
4818;31804215000;31618300000;32118300000
4819;31804220000;31618300000;32118300000
4820;31804222000;31618300000;32118300000
4821;31845570000;31659644444;32159644444
4829;31845831000;31659944444;32159944444
4830;31845855000;31659944444;32159944444
4831;31845857000;31659944444;32159944444
4832;31887407000;31701322222;32201322222
4840;31887569000;31701655555;32201655555
4841;31887593000;31701655555;32201655555
4842;31887595000;31701655555;32201655555
4843;31929206000;31743011111;32243011111
4848;31929253000;31743011111;32243011111
4850;31929489000;31743033333;32243033333
4852;31929505000;31743322222;32243322222
4853;31929530000;31743322222;32243322222
4854;31970767000;31784677777;32284677777
4861;31971005000;31784700000;32284700000
4862;31971021000;31784988888;32284988888
4863;31971059000;31784988888;32284988888
4864;31971061000;31784988888;32284988888
4865;32012458000;31826344444;32326344444
4873;32012621000;31826666666;32326666666
4874;32012646000;31826666666;32326666666
4875;32012647000;31826666666;32326666666
4876;32053951000;31868022222;32368022222
4884;32054304000;31868366666;32368366666
4885;32054308000;31868366666;32368366666
4886;32054331000;31868366666;32368366666
4887;32095775000;31909688888;32409688888
4895;32095937000;31909988888;32409988888
4896;32095962000;31909988888;32409988888
4897;32095963000;31909988888;32409988888
4898;32137419000;31951333333;32451333333
4906;32137581000;31951688888;32451688888
4907;32137605000;31951688888;32451688888
4908;32137606000;31951688888;32451688888
4909;32179103000;31992988888;32492988888
4917;32179265000;31993322222;32493322222
4918;32179289000;31993322222;32493322222
4919;32179291000;31993322222;32493322222
4920;32220758000;32034655555;32534655555
4928;32220920000;32035000000;32535000000
4929;32220923000;32035000000;32535000000
4930;32220925000;32035000000;32535000000
4931;32262409000;32076322222;32576322222
4939;32262572000;32076644444;32576644444
4940;32262596000;32076644444;32576644444
4941;32262597000;32076644444;32576644444
4942;32304073000;32117977777;32617977777
4950;32304235000;32118288888;32618288888
4951;32304260000;32118288888;32618288888
4952;32304261000;32118288888;32618288888
4953;32345744000;32159655555;32659655555
4961;32345913000;32159955555;32659955555
4962;32345937000;32159955555;32659955555
4963;32345938000;32159955555;32659955555
4964;32387433000;32201322222;32701322222
4972;32387584000;32201666666;32701666666
4973;32387608000;32201666666;32701666666
4974;32387609000;32201666666;32701666666
4975;32429075000;32242988888;32742988888
4983;32429244000;32243322222;32743322222
4984;32429269000;32243322222;32743322222
4985;32429270000;32243322222;32743322222
4986;32470738000;32284644444;32784644444
4994;32470913000;32284955555;32784955555
4996;32470917000;32284955555;32784955555
4997;32512441000;32326344444;32826344444
5005;32512604000;32326688888;32826688888
5006;32512629000;32326688888;32826688888
5007;32512630000;32326688888;32826688888
5008;32554116000;32368011111;32868011111
5016;32554278000;32368333333;32868333333
5017;32554282000;32368333333;32868333333
5018;32554304000;32368333333;32868333333
5019;32595779000;32409677777;32909677777
5027;32595939000;32409966666;32909966666
5031;32637298000;32451344444;32951344444
5038;32637645000;32451677777;32951677777
5039;32637669000;32451677777;32951677777
5040;32637670000;32451677777;32951677777
5041;32679128000;32493011111;32993011111
5049;32679291000;32493311111;32993311111
5050;32679315000;32493311111;32993311111
5051;32679317000;32493311111;32993311111
5052;32723837000;32534677777;33034677777
5060;32723992000;32534988888;33034988888
5061;32724010000;32534988888;33034988888
5062;32724012000;32534988888;33034988888
5063;32762466000;32576344444;33076344444
5071;32762631000;32576666666;33076666666
5072;32762655000;32576666666;33076666666
5073;32762657000;32576666666;33076666666
5074;32804150000;32618011111;33118011111
5082;32804312000;32618333333;33118333333
5083;32804336000;32618333333;33118333333
5084;32804338000;32618333333;33118333333
5085;32845827000;32659677777;33159677777
5093;32845991000;32659977777;33159977777
5094;32846016000;32659977777;33159977777
5095;32846017000;32659977777;33159977777
5096;32887497000;32701344444;33201344444
5104;32887658000;32701666666;33201666666
5105;32887683000;32701666666;33201666666
5106;32887684000;32701666666;33201666666
5107;32929011000;32743011111;33243011111
5115;32929308000;32743322222;33243322222
5116;32929332000;32743322222;33243322222
5117;32929334000;32743322222;33243322222
5118;32970686000;32784677777;33284677777
5126;32970998000;32784977777;33284977777
5127;32971023000;32784977777;33284977777
5128;32971024000;32784977777;33284977777
5129;33012514000;32826344444;33326344444
5137;33012676000;32826655555;33326655555
5138;33012700000;32826655555;33326655555
5139;33012701000;32826655555;33326655555
5140;33054186000;32868011111;33368011111
5148;33054348000;32868333333;33368333333
5149;33054372000;32868333333;33368333333
5150;33054373000;32868333333;33368333333
5151;33095886000;32909677777;33409677777
5159;33096055000;32909966666;33409966666
5160;33096059000;32909966666;33409966666
5161;33096071000;32909966666;33409966666
5162;33137607000;32951344444;33451344444
5170;33137776000;32951677777;33451677777
5171;33137801000;32951677777;33451677777
5172;33137802000;32951677777;33451677777
5173;33179208000;32993011111;33493011111
5181;33179372000;32993333333;33493333333
5182;33179397000;32993333333;33493333333
5183;33179402000;32993333333;33493333333
5187;33220724000;33034677777;33534677777
5192;33221076000;33035011111;33535011111
5193;33221100000;33035011111;33535011111
5194;33221102000;33035011111;33535011111
5195;33262551000;33076344444;33576344444
5203;33262714000;33076655555;33576655555
5204;33262738000;33076655555;33576655555
5205;33262740000;33076655555;33576655555
5206;33304218000;33118011111;33618011111
5214;33304380000;33118311111;33618311111
5215;33304405000;33118311111;33618311111
5216;33304406000;33118311111;33618311111
5217;33345889000;33159677777;33659677777
5225;33346059000;33159966666;33659966666
5226;33346084000;33159966666;33659966666
5227;33346086000;33159966666;33659966666
5228;33387404000;33201344444;33701344444
5235;33387655000;33201366666;33701366666
5236;33387662000;33201677777;33701677777
5237;33387663000;33201677777;33701677777
5238;33387695000;33201677777;33701677777
5239;33429219000;33243000000;33743000000
5247;33429380000;33243322222;33743322222
5248;33429404000;33243322222;33743322222
5249;33429406000;33243322222;33743322222
5250;33470880000;33284655555;33784655555
5258;33471007000;33284966666;33784966666
5259;33471022000;33284966666;33784966666
5260;33471024000;33284966666;33784966666
5261;33512554000;33326322222;33826322222
5269;33512715000;33326655555;33826655555
5271;33512740000;33326655555;33826655555
5272;33554224000;33367988888;33867988888
5280;33554388000;33368311111;33868311111
5281;33554412000;33368311111;33868311111
5282;33554414000;33368311111;33868311111
5283;33595884000;33409644444;33909644444
5291;33596073000;33409922222;33909922222
5292;33596077000;33409922222;33909922222
5293;33596078000;33409922222;33909922222
5294;33637587000;33451344444;33951344444
5301;33637840000;33451355555;33951355555
5302;33637847000;33451688888;33951688888
5303;33637870000;33451688888;33951688888
5304;33637872000;33451688888;33951688888
5305;33679235000;33492988888;33992988888
5313;33679398000;33493300000;33993300000
5314;33679422000;33493300000;33993300000
5315;33679423000;33493300000;33993300000
5316;33720907000;33534655555;34034655555
5324;33721063000;33534966666;34034966666
5325;33721087000;33534966666;34034966666
5326;33721089000;33534966666;34034966666
5327;33762579000;33576322222;34076322222
5334;33762817000;33576333333;34076333333
5335;33762834000;33576633333;34076633333
5336;33762857000;33576633333;34076633333
5337;33762858000;33576633333;34076633333
5338;33804238000;33617977777;34117977777
5346;33804401000;33618288888;34118288888
5347;33804425000;33618288888;34118288888
5348;33804427000;33618288888;34118288888
5349;33845918000;33659655555;34159655555
5357;33846082000;33659955555;34159955555
5358;33846106000;33659955555;34159955555
5359;33846108000;33659955555;34159955555
5360;33887584000;33701322222;34201322222
5368;33887745000;33701655555;34201655555
5369;33887769000;33701655555;34201655555
5370;33887771000;33701655555;34201655555
5371;33929374000;33743011111;34243011111
5379;33929557000;33743322222;34243322222
5380;33929582000;33743322222;34243322222
5381;33929584000;33743322222;34243322222
5382;33970972000;33784677777;34284677777
5390;33971131000;33784966666;34284966666
5391;33971156000;33784966666;34284966666
5392;33971157000;33784966666;34284966666
5393;34012624000;33826344444;34326344444
5401;34012788000;33826655555;34326655555
5402;34012813000;33826655555;34326655555
5405;34054169000;33868011111;34368011111
5412;34054451000;33868333333;34368333333
5413;34054475000;33868333333;34368333333
5414;34054477000;33868333333;34368333333
5415;34095965000;33909677777;34409677777
5423;34096113000;33909966666;34409966666
5424;34096137000;33909966666;34409966666
5425;34096138000;33909966666;34409966666
5426;34137634000;33951344444;34451344444
5433;34137886000;33951366666;34451366666
5434;34137893000;33951677777;34451677777
5435;34137916000;33951677777;34451677777
5436;34137918000;33951677777;34451677777
5437;34179305000;33993011111;34493011111
5444;34179558000;33993033333;34493033333
5445;34179565000;33993333333;34493333333
5446;34179578000;33993333333;34493333333
5447;34179590000;33993333333;34493333333
5448;34220975000;34034677777;34534677777
5456;34221122000;34035011111;34535011111
5457;34221146000;34035011111;34535011111
5458;34221148000;34035011111;34535011111
5459;34262641000;34076344444;34576344444
5467;34262803000;34076655555;34576655555
5468;34262827000;34076655555;34576655555
5469;34262829000;34076655555;34576655555
5470;34304312000;34118011111;34618011111
5477;34304563000;34118033333;34618033333
5478;34304570000;34118311111;34618311111
5479;34304593000;34118311111;34618311111
5480;34304595000;34118311111;34618311111
5481;34346074000;34159677777;34659677777
5489;34346244000;34159966666;34659966666
5490;34346269000;34159966666;34659966666
5491;34346270000;34159966666;34659966666
5492;34387677000;34201344444;34701344444
5493;34387682000;34201344444;34701344444
5494;34387684000;34201344444;34701344444
5495;34387685000;34201344444;34701344444
5496;34387702000;34201344444;34701344444
5497;34387704000;34201344444;34701344444
5498;34387706000;34201344444;34701344444
5499;34387948000;34201366666;34701366666
