seqnum;now;rtptime;deadline;packet_len;payload_len
0;3543131000;3452300000;3652300000;10240;10228
1;3543292000;3452300000;3652300000;10240;10228
2;3543300000;3452300000;3652300000;10240;10228
1;3543441000;3452300000;3652300000;10240;10228
2;3543452000;3452300000;3652300000;10240;10228
3;3543462000;3452300000;3652300000;10240;10228
3;3543676000;3452300000;3652300000;10240;10228
4;3583717000;3452300000;3652300000;10240;10228
5;3583837000;3452300000;3652300000;10240;10228
6;3584022000;3452300000;3652300000;10240;10228
7;3584044000;3452300000;3652300000;10240;10228
4;3584347000;3452300000;3652300000;10240;10228
5;3584357000;3452300000;3652300000;10240;10228
6;3584664000;3452300000;3652300000;10240;10228
8;3624196000;3452300000;3652300000;10240;10228
9;3624344000;3452300000;3652300000;10240;10228
10;3624543000;3452300000;3652300000;10240;10228
11;3625356000;3484033333;3684033333;10240;10228
7;3625382000;3452300000;3652300000;10240;10228
8;3625390000;3452300000;3652300000;10240;10228
9;3625620000;3452300000;3652300000;10240;10228
10;3625629000;3452300000;3652300000;10240;10228
12;3664712000;3484033333;3684033333;10240;10228
13;3664845000;3484033333;3684033333;10240;10228
14;3665041000;3484033333;3684033333;10240;10228
15;3665813000;3484033333;3684033333;10240;10228
11;3666383000;3484033333;3684033333;10240;10228
12;3666640000;3484033333;3684033333;10240;10228
13;3666650000;3484033333;3684033333;10240;10228
14;3666655000;3484033333;3684033333;10240;10228
15;3666876000;3484033333;3684033333;10240;10228
16;3705566000;3484033333;3684033333;10240;10228
17;3705723000;3484033333;3684033333;10240;10228
18;3705748000;3484033333;3684033333;10240;10228
19;3706279000;3484033333;3684033333;10240;10228
16;3707337000;3484033333;3684033333;10240;10228
17;3707637000;3484033333;3684033333;10240;10228
18;3707644000;3484033333;3684033333;10240;10228
19;3707885000;3484033333;3684033333;10240;10228
20;3707893000;3484033333;3684033333;10240;10228
21;3708098000;3484033333;3684033333;10240;10228
20;3746065000;3484033333;3684033333;10240;10228
21;3746224000;3484033333;3684033333;10240;10228
22;3746421000;3525822222;3725822222;10240;10228
23;3746726000;3525822222;3725822222;10240;10228
22;3748328000;3525822222;3725822222;10240;10228
23;3748597000;3525822222;3725822222;10240;10228
24;3748617000;3525822222;3725822222;10240;10228
25;3748865000;3525822222;3725822222;10240;10228
26;3749119000;3525822222;3725822222;10240;10228
27;3749134000;3525822222;3725822222;10240;10228
28;3749152000;3525822222;3725822222;10240;10228
24;3786495000;3525822222;3725822222;10240;10228
25;3786693000;3525822222;3725822222;10240;10228
26;3786901000;3525822222;3725822222;10240;10228
27;3786910000;3525822222;3725822222;10240;10228
28;3789007000;3525822222;3725822222;10240;10228
29;3789183000;3525822222;3725822222;10240;10228
29;3789289000;3525822222;3725822222;10240;10228
30;3789621000;3525822222;3725822222;10240;10228
31;3789876000;3525822222;3725822222;10240;10228
32;3789899000;3525822222;3725822222;10240;10228
33;3790123000;3567366666;3767366666;10240;10228
30;3827010000;3525822222;3725822222;10240;10228
31;3827207000;3525822222;3725822222;10240;10228
32;3827227000;3525822222;3725822222;10240;10228
34;3827332000;3567366666;3767366666;10240;10228
35;3827358000;3567366666;3767366666;10240;10228
33;3827431000;3567366666;3767366666;10240;10228
34;3827442000;3567366666;3767366666;10240;10228
35;3827632000;3567366666;3767366666;10240;10228
36;3827838000;3567366666;3767366666;10240;10228
37;3827862000;3567366666;3767366666;10240;10228
38;3828039000;3567366666;3767366666;10240;10228
39;3829633000;3567366666;3767366666;10240;10228
40;3829832000;3567366666;3767366666;10240;10228
41;3829842000;3567366666;3767366666;10240;10228
42;3830057000;3567366666;3767366666;10240;10228
36;3830209000;3567366666;3767366666;10240;10228
37;3830232000;3567366666;3767366666;10240;10228
38;3830828000;3567366666;3767366666;10240;10228
39;3830841000;3567366666;3767366666;10240;10228
40;3831076000;3567366666;3767366666;10240;10228
43;3867429000;3567366666;3767366666;10240;10228
44;3867620000;3609022222;3809022222;10240;10228
41;3867845000;3567366666;3767366666;10240;10228
45;3867855000;3609022222;3809022222;10240;10228
46;3867874000;3609022222;3809022222;10240;10228
47;3868024000;3609022222;3809022222;10240;10228
48;3868049000;3609022222;3809022222;10240;10228
42;3868182000;3567366666;3767366666;10240;10228
43;3868203000;3567366666;3767366666;10240;10228
49;3868207000;3609022222;3809022222;10240;10228
50;3868431000;3609022222;3809022222;10240;10228
51;3868444000;3609022222;3809022222;10240;10228
52;3868627000;3609022222;3809022222;10240;10228
53;3868649000;3609022222;3809022222;10240;10228
54;3868834000;3609022222;3809022222;10240;10228
55;3868856000;3650655555;3850655555;10240;10228
56;3869046000;3650655555;3850655555;10240;10228
57;3869069000;3650655555;3850655555;10240;10228
58;3869239000;3650655555;3850655555;10240;10228
59;3870049000;3650655555;3850655555;10240;10228
60;3870259000;3650655555;3850655555;10240;10228
61;3870426000;3650655555;3850655555;10240;10228
62;3870684000;3650655555;3850655555;10240;10228
44;3871219000;3609022222;3809022222;10240;10228
45;3871228000;3609022222;3809022222;10240;10228
46;3871460000;3609022222;3809022222;10240;10228
47;3871808000;3609022222;3809022222;10240;10228
48;3871819000;3609022222;3809022222;10240;10228
44;3871834000;3609022222;3809022222;10240;10228
45;3871839000;3609022222;3809022222;10240;10228
46;3871854000;3609022222;3809022222;10240;10228
47;3871870000;3609022222;3809022222;10240;10228
48;3871876000;3609022222;3809022222;10240;10228
49;3872103000;3609022222;3809022222;10240;10228
63;3908107000;3650655555;3850655555;10240;10228
64;3908311000;3650655555;3850655555;10240;10228
65;3908320000;3650655555;3850655555;10240;10228
66;3908477000;3692322222;3892322222;10240;10228
50;3908591000;3609022222;3809022222;10240;10228
67;3908724000;3692322222;3892322222;10240;10228
68;3908735000;3692322222;3892322222;10240;10228
69;3908915000;3692322222;3892322222;10240;10228
70;3908934000;3692322222;3892322222;10240;10228
51;3909027000;3609022222;3809022222;10240;10228
52;3909049000;3609022222;3809022222;10240;10228
71;3909151000;3692322222;3892322222;10240;10228
72;3909162000;3692322222;3892322222;10240;10228
73;3909332000;3692322222;3892322222;10240;10228
74;3909499000;3692322222;3892322222;10240;10228
76;3909509000;3692322222;3892322222;10240;10228
77;3909741000;3734011111;3934011111;10240;10228
78;3909760000;3734011111;3934011111;10240;10228
79;3909946000;3734011111;3934011111;10240;10228
80;3909964000;3734011111;3934011111;10240;10228
81;3910462000;3734011111;3934011111;10240;10228
82;3910697000;3734011111;3934011111;10240;10228
83;3910901000;3734011111;3934011111;10240;10228
84;3911130000;3734011111;3934011111;10240;10228
53;3912241000;3609022222;3809022222;10240;10228
54;3912250000;3609022222;3809022222;10240;10228
55;3912494000;3650655555;3850655555;10240;10228
56;3912507000;3650655555;3850655555;10240;10228
57;3912799000;3650655555;3850655555;10240;10228
53;3912811000;3609022222;3809022222;10240;10228
54;3912823000;3609022222;3809022222;10240;10228
55;3912824000;3650655555;3850655555;10240;10228
56;3912826000;3650655555;3850655555;10240;10228
57;3912827000;3650655555;3850655555;10240;10228
58;3912848000;3650655555;3850655555;10240;10228
59;3913104000;3650655555;3850655555;10240;10228
85;3948596000;3734011111;3934011111;10240;10228
86;3948801000;3734011111;3934011111;10240;10228
87;3949010000;3734011111;3934011111;10240;10228
60;3949497000;3650655555;3850655555;10240;10228
61;3949951000;3650655555;3850655555;10240;10228
62;3949970000;3650655555;3850655555;10240;10228
63;3953295000;3650655555;3850655555;10240;10228
64;3953306000;3650655555;3850655555;10240;10228
60;3953324000;3650655555;3850655555;10240;10228
61;3953337000;3650655555;3850655555;10240;10228
62;3953339000;3650655555;3850655555;10240;10228
63;3953340000;3650655555;3850655555;10240;10228
64;3953342000;3650655555;3850655555;10240;10228
65;3953549000;3650655555;3850655555;10240;10228
66;3953560000;3692322222;3892322222;10240;10228
67;3953822000;3692322222;3892322222;10240;10228
68;3953833000;3692322222;3892322222;10240;10228
69;3954093000;3692322222;3892322222;10240;10228
70;3990565000;3692322222;3892322222;10240;10228
72;3991003000;3692322222;3892322222;10240;10228
73;3994346000;3692322222;3892322222;10240;10228
74;3994355000;3692322222;3892322222;10240;10228
75;3994624000;3692322222;3892322222;10240;10228
76;3994642000;3692322222;3892322222;10240;10228
77;3994849000;3734011111;3934011111;10240;10228
78;3994859000;3734011111;3934011111;10240;10228
79;3995097000;3734011111;3934011111;10240;10228
80;3995117000;3734011111;3934011111;10240;10228
81;4031589000;3734011111;3934011111;10240;10228
82;4032069000;3734011111;3934011111;10240;10228
83;4035386000;3734011111;3934011111;10240;10228
84;4035643000;3734011111;3934011111;10240;10228
85;4035893000;3734011111;3934011111;10240;10228
88;4072826000;3775644444;3975644444;10240;10228
89;4073039000;3775644444;3975644444;10240;10228
90;4073053000;3775644444;3975644444;10240;10228
86;4073061000;3734011111;3934011111;10240;10228
87;4073084000;3734011111;3934011111;10240;10228
91;4073279000;3775644444;3975644444;10240;10228
88;4073368000;3775644444;3975644444;10240;10228
92;4073377000;3775644444;3975644444;10240;10228
93;4073382000;3775644444;3975644444;10240;10228
94;4073577000;3775644444;3975644444;10240;10228
95;4073836000;3775644444;3975644444;10240;10228
96;4073855000;3775644444;3975644444;10240;10228
97;4074087000;3775644444;3975644444;10240;10228
98;4074096000;3775644444;3975644444;10240;10228
89;4076416000;3775644444;3975644444;10240;10228
90;4076426000;3775644444;3975644444;10240;10228
91;4076665000;3775644444;3975644444;10240;10228
92;4076918000;3775644444;3975644444;10240;10228
99;4113311000;3817366666;4017366666;10240;10228
100;4113538000;3817366666;4017366666;10240;10228
101;4113727000;3817366666;4017366666;10240;10228
102;4113737000;3817366666;4017366666;10240;10228
103;4113926000;3817366666;4017366666;10240;10228
93;4114012000;3775644444;3975644444;10240;10228
94;4114053000;3775644444;3975644444;10240;10228
104;4114063000;3817366666;4017366666;10240;10228
105;4114067000;3817366666;4017366666;10240;10228
95;4114203000;3775644444;3975644444;10240;10228
106;4114294000;3817366666;4017366666;10240;10228
107;4114304000;3817366666;4017366666;10240;10228
108;4114485000;3817366666;4017366666;10240;10228
109;4114494000;3817366666;4017366666;10240;10228
110;4114714000;3858922222;4058922222;10240;10228
96;4117415000;3775644444;3975644444;10240;10228
97;4117425000;3775644444;3975644444;10240;10228
98;4117662000;3775644444;3975644444;10240;10228
99;4117674000;3817366666;4017366666;10240;10228
100;4117917000;3817366666;4017366666;10240;10228
111;4153756000;3858922222;4058922222;10240;10228
112;4153959000;3858922222;4058922222;10240;10228
113;4154175000;3858922222;4058922222;10240;10228
114;4154361000;3858922222;4058922222;10240;10228
115;4154371000;3858922222;4058922222;10240;10228
116;4154559000;3858922222;4058922222;10240;10228
117;4154781000;3858922222;4058922222;10240;10228
118;4154791000;3858922222;4058922222;10240;10228
101;4154866000;3817366666;4017366666;10240;10228
120;4154945000;3858922222;4058922222;10240;10228
102;4155174000;3817366666;4017366666;10240;10228
103;4155185000;3817366666;4017366666;10240;10228
121;4155190000;3900622222;4100622222;10240;10228
122;4155195000;3900622222;4100622222;10240;10228
104;4158446000;3817366666;4017366666;10240;10228
105;4158456000;3817366666;4017366666;10240;10228
106;4158698000;3817366666;4017366666;10240;10228
107;4158708000;3817366666;4017366666;10240;10228
109;4158945000;3817366666;4017366666;10240;10228
123;4194201000;3900622222;4100622222;10240;10228
124;4194401000;3900622222;4100622222;10240;10228
125;4194609000;3900622222;4100622222;10240;10228
126;4194821000;3900622222;4100622222;10240;10228
127;4195014000;3900622222;4100622222;10240;10228
128;4195712000;3900622222;4100622222;10240;10228
129;4195930000;3900622222;4100622222;10240;10228
130;4195940000;3900622222;4100622222;10240;10228
110;4196047000;3858922222;4058922222;10240;10228
111;4196056000;3858922222;4058922222;10240;10228
131;4196168000;3900622222;4100622222;10240;10228
132;4196178000;3942300000;4142300000;10240;10228
112;4196324000;3858922222;4058922222;10240;10228
133;4196333000;3942300000;4142300000;10240;10228
113;4199472000;3858922222;4058922222;10240;10228
114;4199480000;3858922222;4058922222;10240;10228
115;4199724000;3858922222;4058922222;10240;10228
116;4199734000;3858922222;4058922222;10240;10228
117;4199953000;3858922222;4058922222;10240;10228
113;4199963000;3858922222;4058922222;10240;10228
114;4199975000;3858922222;4058922222;10240;10228
115;4199976000;3858922222;4058922222;10240;10228
116;4199977000;3858922222;4058922222;10240;10228
117;4199977000;3858922222;4058922222;10240;10228
118;4199983000;3858922222;4058922222;10240;10228
134;4236164000;3942300000;4142300000;10240;10228
135;4236324000;3942300000;4142300000;10240;10228
136;4236548000;3942300000;4142300000;10240;10228
137;4236786000;3942300000;4142300000;10240;10228
138;4236797000;3942300000;4142300000;10240;10228
119;4236941000;3858922222;4058922222;10240;10228
120;4236950000;3858922222;4058922222;10240;10228
139;4236965000;3942300000;4142300000;10240;10228
121;4237180000;3900622222;4100622222;10240;10228
122;4237190000;3900622222;4100622222;10240;10228
123;4240499000;3900622222;4100622222;10240;10228
124;4240533000;3900622222;4100622222;10240;10228
125;4240749000;3900622222;4100622222;10240;10228
121;4240760000;3900622222;4100622222;10240;10228
122;4240761000;3900622222;4100622222;10240;10228
123;4240762000;3900622222;4100622222;10240;10228
124;4240763000;3900622222;4100622222;10240;10228
125;4240764000;3900622222;4100622222;10240;10228
126;4240790000;3900622222;4100622222;10240;10228
127;4240989000;3900622222;4100622222;10240;10228
128;4240999000;3900622222;4100622222;10240;10228
140;4276616000;3942300000;4142300000;10240;10228
141;4276812000;3942300000;4142300000;10240;10228
142;4276984000;3942300000;4142300000;10240;10228
143;4277231000;3983944444;4183944444;10240;10228
144;4277434000;3983944444;4183944444;10240;10228
145;4277644000;3983944444;4183944444;10240;10228
129;4277797000;3900622222;4100622222;10240;10228
130;4277805000;3900622222;4100622222;10240;10228
131;4278054000;3900622222;4100622222;10240;10228
132;4278307000;3942300000;4142300000;10240;10228
133;4281581000;3942300000;4142300000;10240;10228
134;4281608000;3942300000;4142300000;10240;10228
135;4281795000;3942300000;4142300000;10240;10228
136;4281801000;3942300000;4142300000;10240;10228
137;4282058000;3942300000;4142300000;10240;10228
138;4282064000;3942300000;4142300000;10240;10228
146;4317103000;3983944444;4183944444;10240;10228
147;4317315000;3983944444;4183944444;10240;10228
148;4317507000;3983944444;4183944444;10240;10228
149;4317733000;3983944444;4183944444;10240;10228
150;4317927000;3983944444;4183944444;10240;10228
151;4318133000;3983944444;4183944444;10240;10228
139;4318846000;3942300000;4142300000;10240;10228
140;4318858000;3942300000;4142300000;10240;10228
141;4319101000;3942300000;4142300000;10240;10228
142;4319121000;3942300000;4142300000;10240;10228
143;4322614000;3983944444;4183944444;10240;10228
144;4322634000;3983944444;4183944444;10240;10228
145;4322844000;3983944444;4183944444;10240;10228
146;4322854000;3983944444;4183944444;10240;10228
147;4323088000;3983944444;4183944444;10240;10228
148;4323097000;3983944444;4183944444;10240;10228
149;4323325000;3983944444;4183944444;10240;10228
152;4357575000;3983944444;4183944444;10240;10228
153;4357784000;3983944444;4183944444;10240;10228
150;4359756000;3983944444;4183944444;10240;10228
151;4359767000;3983944444;4183944444;10240;10228
154;4359883000;4025677777;4225677777;10240;10228
155;4360087000;4025677777;4225677777;10240;10228
156;4360107000;4025677777;4225677777;10240;10228
152;4360285000;3983944444;4183944444;10240;10228
153;4360296000;3983944444;4183944444;10240;10228
157;4360300000;4025677777;4225677777;10240;10228
154;4363649000;4025677777;4225677777;10240;10228
155;4363658000;4025677777;4225677777;10240;10228
156;4363900000;4025677777;4225677777;10240;10228
157;4363909000;4025677777;4225677777;10240;10228
158;4364150000;4025677777;4225677777;10240;10228
159;4364159000;4025677777;4225677777;10240;10228
160;4364384000;4025677777;4225677777;10240;10228
158;4398046000;4025677777;4225677777;10240;10228
159;4398247000;4025677777;4225677777;10240;10228
161;4398378000;4025677777;4225677777;10240;10228
160;4398489000;4025677777;4225677777;10240;10228
161;4400387000;4025677777;4225677777;10240;10228
162;4400578000;4025677777;4225677777;10240;10228
162;4400749000;4025677777;4225677777;10240;10228
163;4400767000;4025677777;4225677777;10240;10228
163;4400785000;4025677777;4225677777;10240;10228
164;4400806000;4025677777;4225677777;10240;10228
164;4400995000;4025677777;4225677777;10240;10228
165;4401263000;4067311111;4267311111;10240;10228
166;4404604000;4067311111;4267311111;10240;10228
167;4404876000;4067311111;4267311111;10240;10228
168;4404887000;4067311111;4267311111;10240;10228
169;4404891000;4067311111;4267311111;10240;10228
170;4405121000;4067311111;4267311111;10240;10228
171;4405141000;4067311111;4267311111;10240;10228
172;4405363000;4067311111;4267311111;10240;10228
173;4405374000;4067311111;4267311111;10240;10228
165;4438486000;4067311111;4267311111;10240;10228
166;4438712000;4067311111;4267311111;10240;10228
167;4438920000;4067311111;4267311111;10240;10228
174;4439220000;4067311111;4267311111;10240;10228
168;4441034000;4067311111;4267311111;10240;10228
169;4441239000;4067311111;4267311111;10240;10228
170;4441258000;4067311111;4267311111;10240;10228
175;4441435000;4067311111;4267311111;10240;10228
171;4441462000;4067311111;4267311111;10240;10228
172;4441668000;4067311111;4267311111;10240;10228
176;4441679000;4108966666;4308966666;10240;10228
177;4441684000;4108966666;4308966666;10240;10228
178;4445612000;4108966666;4308966666;10240;10228
179;4445870000;4108966666;4308966666;10240;10228
180;4445880000;4108966666;4308966666;10240;10228
181;4445884000;4108966666;4308966666;10240;10228
182;4446124000;4108966666;4308966666;10240;10228
183;4446143000;4108966666;4308966666;10240;10228
184;4446357000;4108966666;4308966666;10240;10228
185;4446367000;4108966666;4308966666;10240;10228
186;4446639000;4108966666;4308966666;10240;10228
187;4446650000;4150622222;4350622222;10240;10228
173;4478921000;4067311111;4267311111;10240;10228
174;4479126000;4067311111;4267311111;10240;10228
175;4479327000;4067311111;4267311111;10240;10228
188;4480239000;4150622222;4350622222;10240;10228
176;4481508000;4108966666;4308966666;10240;10228
177;4481722000;4108966666;4308966666;10240;10228
178;4481920000;4108966666;4308966666;10240;10228
179;4481942000;4108966666;4308966666;10240;10228
180;4482123000;4108966666;4308966666;10240;10228
181;4482142000;4108966666;4308966666;10240;10228
182;4482318000;4108966666;4308966666;10240;10228
189;4482465000;4150622222;4350622222;10240;10228
190;4482476000;4150622222;4350622222;10240;10228
191;4486636000;4150622222;4350622222;10240;10228
192;4486886000;4150622222;4350622222;10240;10228
193;4486896000;4150622222;4350622222;10240;10228
194;4487126000;4150622222;4350622222;10240;10228
195;4487144000;4150622222;4350622222;10240;10228
196;4487379000;4150622222;4350622222;10240;10228
197;4487388000;4150622222;4350622222;10240;10228
198;4487637000;4192277777;4392277777;10240;10228
199;4487648000;4192277777;4392277777;10240;10228
200;4487888000;4192277777;4392277777;10240;10228
183;4519751000;4108966666;4308966666;10240;10228
201;4521276000;4192277777;4392277777;10240;10228
185;4521990000;4108966666;4308966666;10240;10228
186;4522202000;4108966666;4308966666;10240;10228
187;4522391000;4150622222;4350622222;10240;10228
188;4522400000;4150622222;4350622222;10240;10228
189;4522626000;4150622222;4350622222;10240;10228
190;4522638000;4150622222;4350622222;10240;10228
191;4522816000;4150622222;4350622222;10240;10228
192;4522825000;4150622222;4350622222;10240;10228
193;4523019000;4150622222;4350622222;10240;10228
202;4523494000;4192277777;4392277777;10240;10228
203;4523505000;4192277777;4392277777;10240;10228
204;4527665000;4192277777;4392277777;10240;10228
205;4527675000;4192277777;4392277777;10240;10228
206;4527919000;4192277777;4392277777;10240;10228
207;4527928000;4192277777;4392277777;10240;10228
208;4528160000;4192277777;4392277777;10240;10228
209;4528186000;4233944444;4433944444;10240;10228
210;4528402000;4233944444;4433944444;10240;10228
211;4528661000;4233944444;4433944444;10240;10228
212;4528673000;4233944444;4433944444;10240;10228
213;4528915000;4233944444;4433944444;10240;10228
194;4560201000;4150622222;4350622222;10240;10228
214;4562328000;4233944444;4433944444;10240;10228
195;4562498000;4150622222;4350622222;10240;10228
196;4563291000;4150622222;4350622222;10240;10228
197;4563469000;4150622222;4350622222;10240;10228
198;4563481000;4192277777;4392277777;10240;10228
199;4563685000;4192277777;4392277777;10240;10228
195;4563700000;4150622222;4350622222;10240;10228
196;4563703000;4150622222;4350622222;10240;10228
197;4563704000;4150622222;4350622222;10240;10228
198;4563705000;4192277777;4392277777;10240;10228
199;4563706000;4192277777;4392277777;10240;10228
215;4564571000;4233944444;4433944444;10240;10228
216;4564590000;4233944444;4433944444;10240;10228
217;4568712000;4233944444;4433944444;10240;10228
218;4568722000;4233944444;4433944444;10240;10228
219;4568969000;4233944444;4433944444;10240;10228
220;4568978000;4275655555;4475655555;10240;10228
221;4569204000;4275655555;4475655555;10240;10228
222;4569224000;4275655555;4475655555;10240;10228
223;4569452000;4275655555;4475655555;10240;10228
224;4569711000;4275655555;4475655555;10240;10228
225;4569721000;4275655555;4475655555;10240;10228
226;4569965000;4275655555;4475655555;10240;10228
200;4600706000;4192277777;4392277777;10240;10228
201;4603011000;4192277777;4392277777;10240;10228
227;4603357000;4275655555;4475655555;10240;10228
202;4603757000;4192277777;4392277777;10240;10228
203;4603966000;4192277777;4392277777;10240;10228
204;4603987000;4192277777;4392277777;10240;10228
205;4604172000;4192277777;4392277777;10240;10228
228;4605612000;4275655555;4475655555;10240;10228
229;4605623000;4275655555;4475655555;10240;10228
230;4609590000;4275655555;4475655555;10240;10228
231;4609863000;4317344444;4517344444;10240;10228
206;4641250000;4192277777;4392277777;10240;10228
232;4641612000;4317344444;4517344444;10240;10228
233;4641633000;4317344444;4517344444;10240;10228
234;4641836000;4317344444;4517344444;10240;10228
235;4641844000;4317344444;4517344444;10240;10228
236;4642075000;4317344444;4517344444;10240;10228
237;4642093000;4317344444;4517344444;10240;10228
238;4642320000;4317344444;4517344444;10240;10228
239;4642329000;4317344444;4517344444;10240;10228
207;4643540000;4192277777;4392277777;10240;10228
208;4644146000;4192277777;4392277777;10240;10228
209;4644352000;4233944444;4433944444;10240;10228
240;4644364000;4317344444;4517344444;10240;10228
210;4644535000;4233944444;4433944444;10240;10228
212;4644555000;4233944444;4433944444;10240;10228
213;4644765000;4233944444;4433944444;10240;10228
241;4646619000;4317344444;4517344444;10240;10228
242;4646827000;4358944444;4558944444;10240;10228
243;4646838000;4358944444;4558944444;10240;10228
244;4650888000;4358944444;4558944444;10240;10228
214;4681771000;4233944444;4433944444;10240;10228
245;4682665000;4358944444;4558944444;10240;10228
246;4682675000;4358944444;4558944444;10240;10228
247;4682914000;4358944444;4558944444;10240;10228
248;4682925000;4358944444;4558944444;10240;10228
249;4683159000;4358944444;4558944444;10240;10228
250;4683178000;4358944444;4558944444;10240;10228
251;4683411000;4358944444;4558944444;10240;10228
252;4683420000;4358944444;4558944444;10240;10228
253;4683668000;4400755555;4600755555;10240;10228
215;4684042000;4233944444;4433944444;10240;10228
216;4684857000;4233944444;4433944444;10240;10228
217;4685059000;4233944444;4433944444;10240;10228
218;4685262000;4233944444;4433944444;10240;10228
221;4685281000;4275655555;4475655555;10240;10228
254;4685376000;4400755555;4600755555;10240;10228
255;4687686000;4400755555;4600755555;10240;10228
256;4687697000;4400755555;4600755555;10240;10228
257;4691947000;4400755555;4600755555;10240;10228
258;4723761000;4400755555;4600755555;10240;10228
259;4723773000;4400755555;4600755555;10240;10228
260;4724011000;4400755555;4600755555;10240;10228
261;4724022000;4400755555;4600755555;10240;10228
262;4724255000;4400755555;4600755555;10240;10228
263;4724283000;4400755555;4600755555;10240;10228
264;4724524000;4442255555;4642255555;10240;10228
265;4724535000;4442255555;4642255555;10240;10228
266;4724719000;4442255555;4642255555;10240;10228
222;4725606000;4275655555;4475655555;10240;10228
223;4725820000;4275655555;4475655555;10240;10228
224;4726022000;4275655555;4475655555;10240;10228
267;4726403000;4442255555;4642255555;10240;10228
268;4728770000;4442255555;4642255555;10240;10228
269;4728781000;4442255555;4642255555;10240;10228
270;4733016000;4442255555;4642255555;10240;10228
271;4764842000;4442255555;4642255555;10240;10228
272;4764852000;4442255555;4642255555;10240;10228
273;4765105000;4442255555;4642255555;10240;10228
274;4765115000;4442255555;4642255555;10240;10228
275;4765330000;4484011111;4684011111;10240;10228
276;4765339000;4484011111;4684011111;10240;10228
277;4765582000;4484011111;4684011111;10240;10228
278;4765600000;4484011111;4684011111;10240;10228
279;4765843000;4484011111;4684011111;10240;10228
225;4766350000;4275655555;4475655555;10240;10228
226;4766570000;4275655555;4475655555;10240;10228
227;4766579000;4275655555;4475655555;10240;10228
228;4766756000;4275655555;4475655555;10240;10228
229;4766963000;4275655555;4475655555;10240;10228
225;4766980000;4275655555;4475655555;10240;10228
226;4766984000;4275655555;4475655555;10240;10228
227;4766985000;4275655555;4475655555;10240;10228
228;4766985000;4275655555;4475655555;10240;10228
229;4766986000;4275655555;4475655555;10240;10228
280;4767458000;4484011111;4684011111;10240;10228
281;4769824000;4484011111;4684011111;10240;10228
282;4769833000;4484011111;4684011111;10240;10228
283;4774104000;4484011111;4684011111;10240;10228
284;4805917000;4484011111;4684011111;10240;10228
280;4805928000;4484011111;4684011111;10240;10228
281;4805940000;4484011111;4684011111;10240;10228
282;4805941000;4484011111;4684011111;10240;10228
283;4805942000;4484011111;4684011111;10240;10228
284;4805943000;4484011111;4684011111;10240;10228
285;4805963000;4484011111;4684011111;10240;10228
286;4806184000;4525711111;4725711111;10240;10228
287;4806221000;4525711111;4725711111;10240;10228
288;4806413000;4525711111;4725711111;10240;10228
289;4806424000;4525711111;4725711111;10240;10228
290;4806667000;4525711111;4725711111;10240;10228
291;4806678000;4525711111;4725711111;10240;10228
292;4806913000;4525711111;4725711111;10240;10228
231;4807042000;4317344444;4517344444;10240;10228
232;4807278000;4317344444;4517344444;10240;10228
233;4807296000;4317344444;4517344444;10240;10228
234;4807481000;4317344444;4517344444;10240;10228
235;4807692000;4317344444;4517344444;10240;10228
231;4807711000;4317344444;4517344444;10240;10228
232;4807713000;4317344444;4517344444;10240;10228
233;4807714000;4317344444;4517344444;10240;10228
234;4807715000;4317344444;4517344444;10240;10228
235;4807715000;4317344444;4517344444;10240;10228
293;4808575000;4525711111;4725711111;10240;10228
294;4810904000;4525711111;4725711111;10240;10228
295;4810912000;4525711111;4725711111;10240;10228
296;4815063000;4525711111;4725711111;10240;10228
297;4815317000;4567277777;4767277777;10240;10228
293;4815327000;4525711111;4725711111;10240;10228
294;4815338000;4525711111;4725711111;10240;10228
295;4815339000;4525711111;4725711111;10240;10228
296;4815340000;4525711111;4725711111;10240;10228
297;4815341000;4567277777;4767277777;10240;10228
298;4847006000;4567277777;4767277777;10240;10228
299;4847016000;4567277777;4767277777;10240;10228
300;4847258000;4567277777;4767277777;10240;10228
301;4847267000;4567277777;4767277777;10240;10228
302;4847520000;4567277777;4767277777;10240;10228
236;4847555000;4317344444;4517344444;10240;10228
303;4847780000;4567277777;4767277777;10240;10228
304;4847790000;4567277777;4767277777;10240;10228
237;4847795000;4317344444;4517344444;10240;10228
305;4848008000;4567277777;4767277777;10240;10228
238;4848112000;4317344444;4517344444;10240;10228
306;4849619000;4567277777;4767277777;10240;10228
308;4851993000;4608933333;4808933333;10240;10228
239;4888156000;4317344444;4517344444;10240;10228
240;4888359000;4317344444;4517344444;10240;10228
309;4888492000;4608933333;4808933333;10240;10228
310;4888519000;4608933333;4808933333;10240;10228
241;4888570000;4317344444;4517344444;10240;10228
311;4888799000;4608933333;4808933333;10240;10228
312;4888811000;4608933333;4808933333;10240;10228
242;4888814000;4358944444;4558944444;10240;10228
313;4889029000;4608933333;4808933333;10240;10228
314;4889038000;4608933333;4808933333;10240;10228
315;4889237000;4608933333;4808933333;10240;10228
316;4889256000;4608933333;4808933333;10240;10228
317;4889537000;4608933333;4808933333;10240;10228
319;4889556000;4650655555;4850655555;10240;10228
320;4890675000;4650655555;4850655555;10240;10228
321;4893043000;4650655555;4850655555;10240;10228
243;4928670000;4358944444;4558944444;10240;10228
244;4928894000;4358944444;4558944444;10240;10228
245;4929098000;4358944444;4558944444;10240;10228
246;4929311000;4358944444;4558944444;10240;10228
322;4929421000;4650655555;4850655555;10240;10228
323;4929433000;4650655555;4850655555;10240;10228
247;4929504000;4358944444;4558944444;10240;10228
324;4930129000;4650655555;4850655555;10240;10228
325;4930608000;4650655555;4850655555;10240;10228
326;4930628000;4650655555;4850655555;10240;10228
327;4931769000;4650655555;4850655555;10240;10228
328;4934153000;4650655555;4850655555;10240;10228
248;4969209000;4358944444;4558944444;10240;10228
249;4969400000;4358944444;4558944444;10240;10228
250;4969615000;4358944444;4558944444;10240;10228
251;4969821000;4358944444;4558944444;10240;10228
252;4970036000;4358944444;4558944444;10240;10228
248;4970047000;4358944444;4558944444;10240;10228
249;4970059000;4358944444;4558944444;10240;10228
250;4970060000;4358944444;4558944444;10240;10228
251;4970061000;4358944444;4558944444;10240;10228
252;4970061000;4358944444;4558944444;10240;10228
329;4970241000;4650655555;4850655555;10240;10228
330;4970491000;4692288888;4892288888;10240;10228
331;4970500000;4692288888;4892288888;10240;10228
332;4970743000;4692288888;4892288888;10240;10228
333;4970753000;4692288888;4892288888;10240;10228
329;4970771000;4650655555;4850655555;10240;10228
330;4970773000;4692288888;4892288888;10240;10228
331;4970774000;4692288888;4892288888;10240;10228
332;4970785000;4692288888;4892288888;10240;10228
333;4970786000;4692288888;4892288888;10240;10228
334;4971191000;4692288888;4892288888;10240;10228
335;4971634000;4692288888;4892288888;10240;10228
336;4971644000;4692288888;4892288888;10240;10228
337;4972893000;4692288888;4892288888;10240;10228
338;4975200000;4692288888;4892288888;10240;10228
253;5009729000;4400755555;4600755555;10240;10228
254;5009945000;4400755555;4600755555;10240;10228
255;5010148000;4400755555;4600755555;10240;10228
256;5010154000;4400755555;4600755555;10240;10228
257;5010345000;4400755555;4600755555;10240;10228
253;5010354000;4400755555;4600755555;10240;10228
254;5010356000;4400755555;4600755555;10240;10228
255;5010367000;4400755555;4600755555;10240;10228
256;5010368000;4400755555;4600755555;10240;10228
257;5010369000;4400755555;4600755555;10240;10228
258;5010522000;4400755555;4600755555;10240;10228
339;5011411000;4692288888;4892288888;10240;10228
340;5011421000;4692288888;4892288888;10240;10228
341;5011745000;4733977777;4933977777;10240;10228
342;5011764000;4733977777;4933977777;10240;10228
343;5012005000;4733977777;4933977777;10240;10228
339;5012015000;4692288888;4892288888;10240;10228
340;5012027000;4692288888;4892288888;10240;10228
341;5012028000;4733977777;4933977777;10240;10228
342;5012029000;4733977777;4933977777;10240;10228
343;5012030000;4733977777;4933977777;10240;10228
344;5012319000;4733977777;4933977777;10240;10228
345;5012751000;4733977777;4933977777;10240;10228
346;5012771000;4733977777;4933977777;10240;10228
347;5014053000;4733977777;4933977777;10240;10228
348;5016359000;4733977777;4933977777;10240;10228
259;5050305000;4400755555;4600755555;10240;10228
260;5050473000;4400755555;4600755555;10240;10228
261;5050677000;4400755555;4600755555;10240;10228
262;5050880000;4400755555;4600755555;10240;10228
263;5050891000;4400755555;4600755555;10240;10228
259;5050919000;4400755555;4600755555;10240;10228
260;5050935000;4400755555;4600755555;10240;10228
261;5050972000;4400755555;4600755555;10240;10228
262;5050973000;4400755555;4600755555;10240;10228
263;5050973000;4400755555;4600755555;10240;10228
264;5051117000;4442255555;4642255555;10240;10228
265;5051127000;4442255555;4642255555;10240;10228
349;5052510000;4733977777;4933977777;10240;10228
350;5052839000;4733977777;4933977777;10240;10228
351;5052858000;4733977777;4933977777;10240;10228
352;5053072000;4775633333;4975633333;10240;10228
353;5053084000;4775633333;4975633333;10240;10228
349;5053096000;4733977777;4933977777;10240;10228
350;5053108000;4733977777;4933977777;10240;10228
351;5053109000;4733977777;4933977777;10240;10228
352;5053110000;4775633333;4975633333;10240;10228
353;5053111000;4775633333;4975633333;10240;10228
354;5053359000;4775633333;4975633333;10240;10228
355;5053859000;4775633333;4975633333;10240;10228
356;5053880000;4775633333;4975633333;10240;10228
357;5055194000;4775633333;4975633333;10240;10228
358;5057487000;4775633333;4975633333;10240;10228
266;5090886000;4442255555;4642255555;10240;10228
268;5091224000;4442255555;4642255555;10240;10228
269;5091428000;4442255555;4642255555;10240;10228
270;5091438000;4442255555;4642255555;10240;10228
271;5091640000;4442255555;4642255555;10240;10228
272;5091846000;4442255555;4642255555;10240;10228
273;5091857000;4442255555;4642255555;10240;10228
269;5091881000;4442255555;4642255555;10240;10228
270;5091894000;4442255555;4642255555;10240;10228
271;5091895000;4442255555;4642255555;10240;10228
272;5091896000;4442255555;4642255555;10240;10228
273;5091896000;4442255555;4642255555;10240;10228
359;5093674000;4775633333;4975633333;10240;10228
360;5093946000;4775633333;4975633333;10240;10228
361;5093965000;4775633333;4975633333;10240;10228
362;5094167000;4775633333;4975633333;10240;10228
363;5094186000;4817288888;5017288888;10240;10228
359;5094195000;4775633333;4975633333;10240;10228
360;5094207000;4775633333;4975633333;10240;10228
361;5094208000;4775633333;4975633333;10240;10228
362;5094208000;4775633333;4975633333;10240;10228
363;5094209000;4817288888;5017288888;10240;10228
364;5094449000;4817288888;5017288888;10240;10228
365;5094986000;4817288888;5017288888;10240;10228
366;5095006000;4817288888;5017288888;10240;10228
367;5096322000;4817288888;5017288888;10240;10228
368;5098575000;4817288888;5017288888;10240;10228
274;5131417000;4442255555;4642255555;10240;10228
275;5131552000;4484011111;4684011111;10240;10228
276;5131783000;4484011111;4684011111;10240;10228
277;5131974000;4484011111;4684011111;10240;10228
278;5132380000;4484011111;4684011111;10240;10228
274;5132408000;4442255555;4642255555;10240;10228
275;5132411000;4484011111;4684011111;10240;10228
276;5132412000;4484011111;4684011111;10240;10228
277;5132413000;4484011111;4684011111;10240;10228
278;5132414000;4484011111;4684011111;10240;10228
369;5134801000;4817288888;5017288888;10240;10228
370;5135035000;4817288888;5017288888;10240;10228
371;5135048000;4817288888;5017288888;10240;10228
372;5135273000;4817288888;5017288888;10240;10228
373;5135284000;4817288888;5017288888;10240;10228
369;5135297000;4817288888;5017288888;10240;10228
370;5135312000;4817288888;5017288888;10240;10228
371;5135313000;4817288888;5017288888;10240;10228
372;5135314000;4817288888;5017288888;10240;10228
373;5135315000;4817288888;5017288888;10240;10228
374;5135573000;4858922222;5058922222;10240;10228
279;5172265000;4484011111;4684011111;10240;10228
280;5172430000;4484011111;4684011111;10240;10228
377;5172566000;4858922222;5058922222;10240;10228
281;5172653000;4484011111;4684011111;10240;10228
378;5172800000;4858922222;5058922222;10240;10228
282;5172902000;4484011111;4684011111;10240;10228
283;5173110000;4484011111;4684011111;10240;10228
379;5175906000;4858922222;5058922222;10240;10228
380;5176150000;4858922222;5058922222;10240;10228
381;5176160000;4858922222;5058922222;10240;10228
382;5176390000;4858922222;5058922222;10240;10228
383;5176658000;4858922222;5058922222;10240;10228
284;5212860000;4484011111;4684011111;10240;10228
285;5213025000;4484011111;4684011111;10240;10228
286;5213226000;4525711111;4725711111;10240;10228
287;5213248000;4525711111;4725711111;10240;10228
384;5213437000;4858922222;5058922222;10240;10228
288;5213461000;4525711111;4725711111;10240;10228
289;5213655000;4525711111;4725711111;10240;10228
385;5213666000;4900633333;5100633333;10240;10228
386;5213673000;4900633333;5100633333;10240;10228
290;5213857000;4525711111;4725711111;10240;10228
387;5217543000;4900633333;5100633333;10240;10228
388;5217739000;4900633333;5100633333;10240;10228
291;5253429000;4525711111;4725711111;10240;10228
292;5253800000;4525711111;4725711111;10240;10228
293;5254008000;4525711111;4725711111;10240;10228
294;5254029000;4525711111;4725711111;10240;10228
295;5254220000;4525711111;4725711111;10240;10228
291;5254229000;4525711111;4725711111;10240;10228
292;5254244000;4525711111;4725711111;10240;10228
293;5254245000;4525711111;4725711111;10240;10228
294;5254247000;4525711111;4725711111;10240;10228
295;5254249000;4525711111;4725711111;10240;10228
389;5254279000;4900633333;5100633333;10240;10228
390;5254804000;4900633333;5100633333;10240;10228
391;5254817000;4900633333;5100633333;10240;10228
296;5258300000;4525711111;4725711111;10240;10228
297;5258438000;4567277777;4767277777;10240;10228
392;5258657000;4900633333;5100633333;10240;10228
393;5258668000;4900633333;5100633333;10240;10228
394;5258903000;4900633333;5100633333;10240;10228
298;5293968000;4567277777;4767277777;10240;10228
299;5294304000;4567277777;4767277777;10240;10228
300;5294473000;4567277777;4767277777;10240;10228
301;5294717000;4567277777;4767277777;10240;10228
302;5294745000;4567277777;4767277777;10240;10228
395;5295181000;4900633333;5100633333;10240;10228
396;5295944000;4942288888;5142288888;10240;10228
397;5295957000;4942288888;5142288888;10240;10228
304;5299032000;4567277777;4767277777;10240;10228
398;5299773000;4942288888;5142288888;10240;10228
399;5299787000;4942288888;5142288888;10240;10228
400;5300035000;4942288888;5142288888;10240;10228
305;5334537000;4567277777;4767277777;10240;10228
306;5334803000;4567277777;4767277777;10240;10228
307;5335015000;4567277777;4767277777;10240;10228
308;5335215000;4608933333;4808933333;10240;10228
309;5335224000;4608933333;4808933333;10240;10228
310;5335418000;4608933333;4808933333;10240;10228
401;5336324000;4942288888;5142288888;10240;10228
402;5337078000;4942288888;5142288888;10240;10228
403;5337091000;4942288888;5142288888;10240;10228
311;5339609000;4608933333;4808933333;10240;10228
312;5375313000;4608933333;4808933333;10240;10228
313;5375574000;4608933333;4808933333;10240;10228
314;5375919000;4608933333;4808933333;10240;10228
407;5377489000;4983944444;5183944444;10240;10228
408;5378214000;4983944444;5183944444;10240;10228
409;5378228000;4983944444;5183944444;10240;10228
315;5380087000;4608933333;4808933333;10240;10228
316;5415883000;4608933333;4808933333;10240;10228
317;5416058000;4608933333;4808933333;10240;10228
318;5416350000;4608933333;4808933333;10240;10228
319;5416587000;4650655555;4850655555;10240;10228
410;5418631000;4983944444;5183944444;10240;10228
411;5419354000;4983944444;5183944444;10240;10228
412;5419368000;4983944444;5183944444;10240;10228
320;5420628000;4650655555;4850655555;10240;10228
321;5456412000;4650655555;4850655555;10240;10228
322;5456622000;4650655555;4850655555;10240;10228
323;5456827000;4650655555;4850655555;10240;10228
324;5457056000;4650655555;4850655555;10240;10228
413;5459782000;4983944444;5183944444;10240;10228
414;5460499000;4983944444;5183944444;10240;10228
415;5460533000;4983944444;5183944444;10240;10228
325;5461167000;4650655555;4850655555;10240;10228
326;5496957000;4650655555;4850655555;10240;10228
327;5497169000;4650655555;4850655555;10240;10228
329;5497456000;4650655555;4850655555;10240;10228
416;5500919000;4983944444;5183944444;10240;10228
417;5501542000;4983944444;5183944444;10240;10228
330;5501724000;4692288888;4892288888;10240;10228
419;5501770000;5025644444;5225644444;10240;10228
331;5537489000;4692288888;4892288888;10240;10228
332;5537698000;4692288888;4892288888;10240;10228
333;5537723000;4692288888;4892288888;10240;10228
334;5537960000;4692288888;4892288888;10240;10228
420;5542077000;5025644444;5225644444;10240;10228
335;5542227000;4692288888;4892288888;10240;10228
421;5542622000;5025644444;5225644444;10240;10228
336;5578210000;4692288888;4892288888;10240;10228
337;5578473000;4692288888;4892288888;10240;10228
338;5582765000;4692288888;4892288888;10240;10228
422;5583086000;5025644444;5225644444;10240;10228
423;5583735000;5025644444;5225644444;10240;10228
424;5583749000;5025644444;5225644444;10240;10228
339;5618757000;4692288888;4892288888;10240;10228
340;5618959000;4692288888;4892288888;10240;10228
341;5618982000;4733977777;4933977777;10240;10228
342;5619172000;4733977777;4933977777;10240;10228
343;5623293000;4733977777;4933977777;10240;10228
425;5624193000;5025644444;5225644444;10240;10228
426;5624812000;5025644444;5225644444;10240;10228
427;5624825000;5025644444;5225644444;10240;10228
344;5659292000;4733977777;4933977777;10240;10228
345;5659510000;4733977777;4933977777;10240;10228
346;5659729000;4733977777;4933977777;10240;10228
347;5659753000;4733977777;4933977777;10240;10228
348;5663814000;4733977777;4933977777;10240;10228
428;5665184000;5025644444;5225644444;10240;10228
429;5665427000;5067300000;5267300000;10240;10228
430;5665879000;5067300000;5267300000;10240;10228
431;5665893000;5067300000;5267300000;10240;10228
349;5699824000;4733977777;4933977777;10240;10228
350;5700029000;4733977777;4933977777;10240;10228
351;5700231000;4733977777;4933977777;10240;10228
352;5700251000;4775633333;4975633333;10240;10228
353;5700431000;4775633333;4975633333;10240;10228
354;5700452000;4775633333;4975633333;10240;10228
355;5704338000;4775633333;4975633333;10240;10228
432;5706539000;5067300000;5267300000;10240;10228
433;5706942000;5067300000;5267300000;10240;10228
434;5706957000;5067300000;5267300000;10240;10228
356;5740355000;4775633333;4975633333;10240;10228
357;5740586000;4775633333;4975633333;10240;10228
358;5740754000;4775633333;4975633333;10240;10228
359;5740969000;4775633333;4975633333;10240;10228
360;5740991000;4775633333;4975633333;10240;10228
361;5741178000;4775633333;4975633333;10240;10228
362;5744791000;4775633333;4975633333;10240;10228
363;5745002000;4817288888;5017288888;10240;10228
435;5747630000;5067300000;5267300000;10240;10228
436;5747980000;5067300000;5267300000;10240;10228
437;5747996000;5067300000;5267300000;10240;10228
364;5780881000;4817288888;5017288888;10240;10228
365;5781094000;4817288888;5017288888;10240;10228
366;5781297000;4817288888;5017288888;10240;10228
367;5781495000;4817288888;5017288888;10240;10228
368;5781705000;4817288888;5017288888;10240;10228
369;5781728000;4817288888;5017288888;10240;10228
370;5781933000;4817288888;5017288888;10240;10228
371;5785310000;4817288888;5017288888;10240;10228
372;5785517000;4817288888;5017288888;10240;10228
438;5788722000;5067300000;5267300000;10240;10228
439;5788966000;5067300000;5267300000;10240;10228
440;5789209000;5108966666;5308966666;10240;10228
441;5789220000;5108966666;5308966666;10240;10228
373;5821334000;4817288888;5017288888;10240;10228
374;5821613000;4858922222;5058922222;10240;10228
375;5821783000;4858922222;5058922222;10240;10228
376;5821989000;4858922222;5058922222;10240;10228
377;5822191000;4858922222;5058922222;10240;10228
378;5822213000;4858922222;5058922222;10240;10228
379;5822387000;4858922222;5058922222;10240;10228
380;5822626000;4858922222;5058922222;10240;10228
381;5825823000;4858922222;5058922222;10240;10228
382;5826039000;4858922222;5058922222;10240;10228
444;5830303000;5108966666;5308966666;10240;10228
383;5861856000;4858922222;5058922222;10240;10228
384;5862054000;4858922222;5058922222;10240;10228
385;5862261000;4900633333;5100633333;10240;10228
386;5862494000;4900633333;5100633333;10240;10228
387;5862700000;4900633333;5100633333;10240;10228
388;5862905000;4900633333;5100633333;10240;10228
389;5862925000;4900633333;5100633333;10240;10228
390;5863116000;4900633333;5100633333;10240;10228
391;5866332000;4900633333;5100633333;10240;10228
392;5866503000;4900633333;5100633333;10240;10228
445;5871354000;5108966666;5308966666;10240;10228
393;5902311000;4900633333;5100633333;10240;10228
394;5902500000;4900633333;5100633333;10240;10228
395;5902709000;4900633333;5100633333;10240;10228
396;5902913000;4942288888;5142288888;10240;10228
397;5903113000;4942288888;5142288888;10240;10228
398;5903131000;4942288888;5142288888;10240;10228
399;5903315000;4942288888;5142288888;10240;10228
400;5903506000;4942288888;5142288888;10240;10228
401;5903734000;4942288888;5142288888;10240;10228
402;5906796000;4942288888;5142288888;10240;10228
403;5906992000;4942288888;5142288888;10240;10228
446;5912358000;5108966666;5308966666;10240;10228
404;5942829000;4942288888;5142288888;10240;10228
405;5943040000;4942288888;5142288888;10240;10228
406;5943243000;4942288888;5142288888;10240;10228
407;5943432000;4983944444;5183944444;10240;10228
408;5943652000;4983944444;5183944444;10240;10228
409;5943843000;4983944444;5183944444;10240;10228
410;5943865000;4983944444;5183944444;10240;10228
411;5944053000;4983944444;5183944444;10240;10228
412;5944075000;4983944444;5183944444;10240;10228
413;5944267000;4983944444;5183944444;10240;10228
414;5947297000;4983944444;5183944444;10240;10228
415;5947477000;4983944444;5183944444;10240;10228
447;5953418000;5108966666;5308966666;10240;10228
448;5953430000;5108966666;5308966666;10240;10228
449;5953663000;5108966666;5308966666;10240;10228
416;5983316000;4983944444;5183944444;10240;10228
417;5983493000;4983944444;5183944444;10240;10228
418;5983716000;5025644444;5225644444;10240;10228
419;5983913000;5025644444;5225644444;10240;10228
420;5984137000;5025644444;5225644444;10240;10228
421;5984308000;5025644444;5225644444;10240;10228
422;5984481000;5025644444;5225644444;10240;10228
423;5984741000;5025644444;5225644444;10240;10228
424;5984763000;5025644444;5225644444;10240;10228
425;5984947000;5025644444;5225644444;10240;10228
426;5987767000;5025644444;5225644444;10240;10228
427;5987968000;5025644444;5225644444;10240;10228
450;5994328000;5108966666;5308966666;10240;10228
451;5994560000;5150633333;5350633333;10240;10228
428;6023799000;5025644444;5225644444;10240;10228
429;6024025000;5067300000;5267300000;10240;10228
430;6024212000;5067300000;5267300000;10240;10228
452;6024223000;5150633333;5350633333;10240;10228
431;6024420000;5067300000;5267300000;10240;10228
432;6024636000;5067300000;5267300000;10240;10228
433;6024843000;5067300000;5267300000;10240;10228
434;6025047000;5067300000;5267300000;10240;10228
435;6025237000;5067300000;5267300000;10240;10228
431;6025252000;5067300000;5267300000;10240;10228
432;6025255000;5067300000;5267300000;10240;10228
433;6025256000;5067300000;5267300000;10240;10228
434;6025257000;5067300000;5267300000;10240;10228
435;6025257000;5067300000;5267300000;10240;10228
436;6025413000;5067300000;5267300000;10240;10228
437;6025435000;5067300000;5267300000;10240;10228
438;6028206000;5067300000;5267300000;10240;10228
439;6028391000;5067300000;5267300000;10240;10228
453;6035353000;5150633333;5350633333;10240;10228
454;6035393000;5150633333;5350633333;10240;10228
440;6064258000;5108966666;5308966666;10240;10228
441;6064522000;5108966666;5308966666;10240;10228
444;6065067000;5108966666;5308966666;10240;10228
455;6065253000;5150633333;5350633333;10240;10228
456;6065266000;5150633333;5350633333;10240;10228
445;6065275000;5108966666;5308966666;10240;10228
446;6065463000;5108966666;5308966666;10240;10228
447;6065469000;5108966666;5308966666;10240;10228
448;6065678000;5108966666;5308966666;10240;10228
449;6065888000;5108966666;5308966666;10240;10228
450;6066097000;5108966666;5308966666;10240;10228
451;6068681000;5150633333;5350633333;10240;10228
452;6068854000;5150633333;5350633333;10240;10228
457;6076357000;5150633333;5350633333;10240;10228
458;6076372000;5150633333;5350633333;10240;10228
453;6104724000;5150633333;5350633333;10240;10228
454;6104984000;5150633333;5350633333;10240;10228
455;6105502000;5150633333;5350633333;10240;10228
456;6105726000;5150633333;5350633333;10240;10228
459;6106039000;5150633333;5350633333;10240;10228
460;6106056000;5150633333;5350633333;10240;10228
457;6106556000;5150633333;5350633333;10240;10228
458;6109113000;5150633333;5350633333;10240;10228
459;6109323000;5150633333;5350633333;10240;10228
461;6117296000;5150633333;5350633333;10240;10228
462;6117560000;5192277777;5392277777;10240;10228
460;6145158000;5150633333;5350633333;10240;10228
461;6145346000;5150633333;5350633333;10240;10228
462;6145960000;5192277777;5392277777;10240;10228
463;6146173000;5192277777;5392277777;10240;10228
464;6147007000;5192277777;5392277777;10240;10228
463;6147031000;5192277777;5392277777;10240;10228
465;6147205000;5192277777;5392277777;10240;10228
464;6147286000;5192277777;5392277777;10240;10228
466;6149616000;5192277777;5392277777;10240;10228
467;6149775000;5192277777;5392277777;10240;10228
465;6158299000;5192277777;5392277777;10240;10228
466;6158564000;5192277777;5392277777;10240;10228
468;6185610000;5192277777;5392277777;10240;10228
469;6185845000;5192277777;5392277777;10240;10228
470;6186633000;5192277777;5392277777;10240;10228
471;6186825000;5192277777;5392277777;10240;10228
472;6187405000;5192277777;5392277777;10240;10228
473;6187678000;5234044444;5434044444;10240;10228
467;6187993000;5192277777;5392277777;10240;10228
468;6188285000;5192277777;5392277777;10240;10228
474;6190035000;5234044444;5434044444;10240;10228
475;6190246000;5234044444;5434044444;10240;10228
469;6199297000;5192277777;5392277777;10240;10228
470;6199611000;5192277777;5392277777;10240;10228
471;6199621000;5192277777;5392277777;10240;10228
476;6226096000;5234044444;5434044444;10240;10228
477;6226305000;5234044444;5434044444;10240;10228
478;6227081000;5234044444;5434044444;10240;10228
479;6227292000;5234044444;5434044444;10240;10228
480;6227856000;5234044444;5434044444;10240;10228
481;6228121000;5234044444;5434044444;10240;10228
472;6228921000;5192277777;5392277777;10240;10228
473;6229255000;5234044444;5434044444;10240;10228
482;6230522000;5234044444;5434044444;10240;10228
483;6230721000;5234044444;5434044444;10240;10228
474;6240332000;5234044444;5434044444;10240;10228
475;6240622000;5234044444;5434044444;10240;10228
476;6240641000;5234044444;5434044444;10240;10228
484;6266546000;5275644444;5475644444;10240;10228
485;6266737000;5275644444;5475644444;10240;10228
486;6267503000;5275644444;5475644444;10240;10228
487;6267714000;5275644444;5475644444;10240;10228
488;6268252000;5275644444;5475644444;10240;10228
489;6268520000;5275644444;5475644444;10240;10228
478;6269965000;5234044444;5434044444;10240;10228
479;6270243000;5234044444;5434044444;10240;10228
490;6270990000;5275644444;5475644444;10240;10228
491;6271202000;5275644444;5475644444;10240;10228
480;6281361000;5234044444;5434044444;10240;10228
481;6281603000;5234044444;5434044444;10240;10228
482;6281613000;5234044444;5434044444;10240;10228
483;6281867000;5234044444;5434044444;10240;10228
492;6307027000;5275644444;5475644444;10240;10228
493;6307242000;5275644444;5475644444;10240;10228
494;6307923000;5275644444;5475644444;10240;10228
495;6308217000;5317300000;5517300000;10240;10228
496;6308714000;5317300000;5517300000;10240;10228
497;6308970000;5317300000;5517300000;10240;10228
484;6310922000;5275644444;5475644444;10240;10228
485;6311211000;5275644444;5475644444;10240;10228
498;6311494000;5317300000;5517300000;10240;10228
499;6311711000;5317300000;5517300000;10240;10228
486;6322407000;5275644444;5475644444;10240;10228
487;6322893000;5275644444;5475644444;10240;10228
500;6347505000;5317300000;5517300000;10240;10228
501;6347713000;5317300000;5517300000;10240;10228
502;6348380000;5317300000;5517300000;10240;10228
503;6348590000;5317300000;5517300000;10240;10228
504;6349173000;5317300000;5517300000;10240;10228
505;6349366000;5317300000;5517300000;10240;10228
488;6351976000;5275644444;5475644444;10240;10228
506;6351988000;5358933333;5558933333;10240;10228
507;6352172000;5358933333;5558933333;10240;10228
489;6352196000;5275644444;5475644444;10240;10228
490;6363424000;5275644444;5475644444;10240;10228
491;6363438000;5275644444;5475644444;10240;10228
492;6363897000;5275644444;5475644444;10240;10228
508;6387990000;5358933333;5558933333;10240;10228
509;6388199000;5358933333;5558933333;10240;10228
510;6388870000;5358933333;5558933333;10240;10228
511;6389079000;5358933333;5558933333;10240;10228
512;6389634000;5358933333;5558933333;10240;10228
513;6389839000;5358933333;5558933333;10240;10228
514;6392497000;5358933333;5558933333;10240;10228
515;6392700000;5358933333;5558933333;10240;10228
516;6392723000;5358933333;5558933333;10240;10228
493;6392785000;5275644444;5475644444;10240;10228
494;6392810000;5275644444;5475644444;10240;10228
495;6404494000;5317300000;5517300000;10240;10228
497;6404509000;5317300000;5517300000;10240;10228
498;6404898000;5317300000;5517300000;10240;10228
517;6428465000;5400666666;5600666666;10240;10228
518;6428675000;5400666666;5600666666;10240;10228
519;6429339000;5400666666;5600666666;10240;10228
520;6429509000;5400666666;5600666666;10240;10228
521;6430091000;5400666666;5600666666;10240;10228
522;6430307000;5400666666;5600666666;10240;10228
523;6432982000;5400666666;5600666666;10240;10228
524;6433194000;5400666666;5600666666;10240;10228
525;6433381000;5400666666;5600666666;10240;10228
499;6433862000;5317300000;5517300000;10240;10228
500;6433876000;5317300000;5517300000;10240;10228
502;6445535000;5317300000;5517300000;10240;10228
503;6445874000;5317300000;5517300000;10240;10228
526;6468958000;5400666666;5600666666;10240;10228
527;6469170000;5400666666;5600666666;10240;10228
528;6469812000;5442333333;5642333333;10240;10228
529;6470029000;5442333333;5642333333;10240;10228
530;6470556000;5442333333;5642333333;10240;10228
531;6470767000;5442333333;5642333333;10240;10228
532;6473483000;5442333333;5642333333;10240;10228
533;6473695000;5442333333;5642333333;10240;10228
534;6473900000;5442333333;5642333333;10240;10228
504;6486562000;5317300000;5517300000;10240;10228
535;6509466000;5442333333;5642333333;10240;10228
536;6509673000;5442333333;5642333333;10240;10228
537;6510291000;5442333333;5642333333;10240;10228
538;6510493000;5442333333;5642333333;10240;10228
539;6511029000;5483977777;5683977777;10240;10228
540;6511238000;5483977777;5683977777;10240;10228
541;6514006000;5483977777;5683977777;10240;10228
542;6514190000;5483977777;5683977777;10240;10228
543;6514379000;5483977777;5683977777;10240;10228
544;6549961000;5483977777;5683977777;10240;10228
545;6550175000;5483977777;5683977777;10240;10228
546;6550774000;5483977777;5683977777;10240;10228
547;6550988000;5483977777;5683977777;10240;10228
548;6551469000;5483977777;5683977777;10240;10228
549;6551685000;5483977777;5683977777;10240;10228
550;6554475000;5525677777;5725677777;10240;10228
551;6554705000;5525677777;5725677777;10240;10228
552;6554894000;5525677777;5725677777;10240;10228
553;6590465000;5525677777;5725677777;10240;10228
554;6590677000;5525677777;5725677777;10240;10228
555;6591257000;5525677777;5725677777;10240;10228
556;6591458000;5525677777;5725677777;10240;10228
557;6591930000;5525677777;5725677777;10240;10228
558;6592143000;5525677777;5725677777;10240;10228
559;6594976000;5525677777;5725677777;10240;10228
560;6595189000;5525677777;5725677777;10240;10228
561;6595405000;5567311111;5767311111;10240;10228
562;6630992000;5567311111;5767311111;10240;10228
563;6631191000;5567311111;5767311111;10240;10228
564;6631742000;5567311111;5767311111;10240;10228
565;6631955000;5567311111;5767311111;10240;10228
566;6632393000;5567311111;5767311111;10240;10228
567;6632606000;5567311111;5767311111;10240;10228
568;6635494000;5567311111;5767311111;10240;10228
569;6635708000;5567311111;5767311111;10240;10228
570;6635909000;5567311111;5767311111;10240;10228
571;6671438000;5567311111;5767311111;10240;10228
572;6672257000;5608955555;5808955555;10240;10228
573;6672458000;5608955555;5808955555;10240;10228
574;6672481000;5608955555;5808955555;10240;10228
575;6672880000;5608955555;5808955555;10240;10228
576;6673095000;5608955555;5808955555;10240;10228
577;6676013000;5608955555;5808955555;10240;10228
578;6676230000;5608955555;5808955555;10240;10228
579;6676421000;5608955555;5808955555;10240;10228
580;6711963000;5608955555;5808955555;10240;10228
581;6712769000;5608955555;5808955555;10240;10228
582;6712980000;5608955555;5808955555;10240;10228
583;6713182000;5650644444;5850644444;10240;10228
584;6713374000;5650644444;5850644444;10240;10228
585;6713562000;5650644444;5850644444;10240;10228
586;6716506000;5650644444;5850644444;10240;10228
587;6716715000;5650644444;5850644444;10240;10228
588;6716915000;5650644444;5850644444;10240;10228
589;6752469000;5650644444;5850644444;10240;10228
590;6753265000;5650644444;5850644444;10240;10228
591;6753470000;5650644444;5850644444;10240;10228
592;6753678000;5650644444;5850644444;10240;10228
593;6753886000;5650644444;5850644444;10240;10228
594;6754086000;5692344444;5892344444;10240;10228
595;6757008000;5692344444;5892344444;10240;10228
596;6757213000;5692344444;5892344444;10240;10228
597;6757406000;5692344444;5892344444;10240;10228
598;6792960000;5692344444;5892344444;10240;10228
599;6793796000;5692344444;5892344444;10240;10228
600;6794007000;5692344444;5892344444;10240;10228
601;6794207000;5692344444;5892344444;10240;10228
602;6794399000;5692344444;5892344444;10240;10228
603;6794606000;5692344444;5892344444;10240;10228
604;6797470000;5692344444;5892344444;10240;10228
605;6797746000;5733977777;5933977777;10240;10228
606;6797931000;5733977777;5933977777;10240;10228
607;6833499000;5733977777;5933977777;10240;10228
608;6834362000;5733977777;5933977777;10240;10228
609;6834505000;5733977777;5933977777;10240;10228
610;6834753000;5733977777;5933977777;10240;10228
611;6834959000;5733977777;5933977777;10240;10228
612;6835163000;5733977777;5933977777;10240;10228
613;6838014000;5733977777;5933977777;10240;10228
614;6838238000;5733977777;5933977777;10240;10228
615;6838440000;5733977777;5933977777;10240;10228
616;6874051000;5775644444;5975644444;10240;10228
617;6874913000;5775644444;5975644444;10240;10228
618;6875124000;5775644444;5975644444;10240;10228
619;6875319000;5775644444;5975644444;10240;10228
620;6875487000;5775644444;5975644444;10240;10228
621;6875735000;5775644444;5975644444;10240;10228
622;6878557000;5775644444;5975644444;10240;10228
623;6878760000;5775644444;5975644444;10240;10228
624;6878972000;5775644444;5975644444;10240;10228
625;6914608000;5775644444;5975644444;10240;10228
626;6915411000;5775644444;5975644444;10240;10228
627;6915663000;5817300000;6017300000;10240;10228
628;6915846000;5817300000;6017300000;10240;10228
629;6916054000;5817300000;6017300000;10240;10228
630;6916258000;5817300000;6017300000;10240;10228
639;6956787000;5858933333;6058933333;10240;10228
640;6997357000;5858933333;6058933333;10240;10228
641;7037922000;5858933333;6058933333;10240;10228
642;7078496000;5858933333;6058933333;10240;10228
643;7078706000;5858933333;6058933333;10240;10228
644;7078732000;5858933333;6058933333;10240;10228
645;7078910000;5858933333;6058933333;10240;10228
646;7079109000;5858933333;6058933333;10240;10228
647;7079132000;5858933333;6058933333;10240;10228
648;7079313000;5858933333;6058933333;10240;10228
649;7079335000;5900644444;6100644444;10240;10228
650;7079515000;5900644444;6100644444;10240;10228
651;7119095000;5900644444;6100644444;10240;10228
652;7119283000;5900644444;6100644444;10240;10228
653;7119471000;5900644444;6100644444;10240;10228
654;7119491000;5900644444;6100644444;10240;10228
655;7119688000;5900644444;6100644444;10240;10228
656;7119884000;5900644444;6100644444;10240;10228
657;7119905000;5900644444;6100644444;10240;10228
658;7120087000;5900644444;6100644444;10240;10228
659;7120109000;5900644444;6100644444;10240;10228
660;7159682000;5942322222;6142322222;10240;10228
661;7159888000;5942322222;6142322222;10240;10228
662;7160097000;5942322222;6142322222;10240;10228
663;7160289000;5942322222;6142322222;10240;10228
664;7160312000;5942322222;6142322222;10240;10228
665;7160459000;5942322222;6142322222;10240;10228
666;7160710000;5942322222;6142322222;10240;10228
667;7160731000;5942322222;6142322222;10240;10228
668;7160913000;5942322222;6142322222;10240;10228
669;7200246000;5942322222;6142322222;10240;10228
670;7200473000;5942322222;6142322222;10240;10228
