seqnum;now;rtptime;deadline
11;4575346000;4365344444;4565344444
12;4575350000;4365344444;4565344444
13;4575352000;4365344444;4565344444
14;4575353000;4365344444;4565344444
22;4618253000;4407055555;4607055555
23;4618260000;4407055555;4607055555
24;4618261000;4407055555;4607055555
25;4618262000;4407055555;4607055555
26;4618267000;4407055555;4607055555
27;4618268000;4407055555;4607055555
28;4618270000;4407055555;4607055555
44;4700174000;4490333333;4690333333
45;4700177000;4490333333;4690333333
46;4700178000;4490333333;4690333333
47;4700179000;4490333333;4690333333
48;4700180000;4490333333;4690333333
49;4700181000;4490333333;4690333333
50;4700182000;4490333333;4690333333
51;4700183000;4490333333;4690333333
52;4700195000;4490333333;4690333333
53;4700196000;4490333333;4690333333
54;4700210000;4490333333;4690333333
66;4783239000;4573600000;4773600000
67;4783241000;4573600000;4773600000
68;4783242000;4573600000;4773600000
69;4783243000;4573600000;4773600000
70;4783244000;4573600000;4773600000
71;4783245000;4573600000;4773600000
72;4783246000;4573600000;4773600000
73;4783246000;4573600000;4773600000
74;4783247000;4573600000;4773600000
75;4783248000;4573600000;4773600000
76;4783365000;4573600000;4773600000
77;4783371000;4615322222;4815322222
78;4783373000;4615322222;4815322222
79;4783374000;4615322222;4815322222
80;4783375000;4615322222;4815322222
88;4866805000;4657000000;4857000000
89;4866809000;4657000000;4857000000
90;4866810000;4657000000;4857000000
91;4866811000;4657000000;4857000000
92;4866812000;4657000000;4857000000
93;4866813000;4657000000;4857000000
94;4866814000;4657000000;4857000000
95;4866815000;4657000000;4857000000
96;4866816000;4657000000;4857000000
97;4866817000;4657000000;4857000000
98;4866839000;4657000000;4857000000
99;4866851000;4698600000;4898600000
100;4866852000;4698600000;4898600000
101;4866853000;4698600000;4898600000
102;4866854000;4698600000;4898600000
103;4866855000;4698600000;4898600000
104;4866856000;4698600000;4898600000
105;4866857000;4698600000;4898600000
106;4866858000;4698600000;4898600000
107;4866859000;4698600000;4898600000
110;4950105000;4740266666;4940266666
111;4950109000;4740266666;4940266666
112;4950109000;4740266666;4940266666
113;4950110000;4740266666;4940266666
114;4950111000;4740266666;4940266666
115;4950112000;4740266666;4940266666
116;4950113000;4740266666;4940266666
117;4950114000;4740266666;4940266666
118;4950115000;4740266666;4940266666
119;4950116000;4740266666;4940266666
120;4950126000;4740266666;4940266666
121;4950127000;4781944444;4981944444
122;4950138000;4781944444;4981944444
123;4950139000;4781944444;4981944444
124;4950140000;4781944444;4981944444
125;4950141000;4781944444;4981944444
126;4950142000;4781944444;4981944444
127;4950143000;4781944444;4981944444
128;4950144000;4781944444;4981944444
129;4950145000;4781944444;4981944444
130;4950146000;4781944444;4981944444
131;4991811000;4781944444;4981944444
132;4991816000;4823600000;5023600000
133;5010720000;4823600000;5023600000
134;5010970000;4823600000;5023600000
135;5010973000;4823600000;5023600000
136;5011039000;4823600000;5023600000
137;5011217000;4823600000;5023600000
138;5011438000;4823600000;5023600000
139;5011440000;4823600000;5023600000
140;5011714000;4823600000;5023600000
141;5011716000;4823600000;5023600000
142;5033387000;4823600000;5023600000
143;5033398000;4865266666;5065266666
144;5033400000;4865266666;5065266666
145;5033401000;4865266666;5065266666
146;5033402000;4865266666;5065266666
147;5033404000;4865266666;5065266666
148;5033405000;4865266666;5065266666
149;5033406000;4865266666;5065266666
150;5033407000;4865266666;5065266666
151;5033408000;4865266666;5065266666
152;5033409000;4865266666;5065266666
153;5075137000;4865266666;5065266666
154;5075143000;4906966666;5106966666
155;5075144000;4906966666;5106966666
156;5075145000;4906966666;5106966666
157;5091885000;4906966666;5106966666
158;5091887000;4906966666;5106966666
159;5092121000;4906966666;5106966666
160;5092123000;4906966666;5106966666
161;5092372000;4906966666;5106966666
162;5092374000;4906966666;5106966666
163;5092630000;4906966666;5106966666
164;5116748000;4906966666;5106966666
174;5116771000;4948611111;5148611111
175;5158478000;4948611111;5148611111
176;5158483000;4990277777;5190277777
177;5158484000;4990277777;5190277777
178;5158485000;4990277777;5190277777
179;5158486000;4990277777;5190277777
180;5158487000;4990277777;5190277777
181;5158488000;4990277777;5190277777
182;5158489000;4990277777;5190277777
183;5158490000;4990277777;5190277777
184;5158491000;4990277777;5190277777
185;5158492000;4990277777;5190277777
186;5200145000;4990277777;5190277777
197;5241805000;5031944444;5231944444
208;5283613000;5073677777;5273677777
219;5325138000;5115255555;5315255555
230;5366912000;5157033333;5357033333
241;5408583000;5198677777;5398677777
252;5450236000;5240355555;5440355555
263;5491887000;5282022222;5482022222
274;5533499000;5323633333;5523633333
285;5575221000;5365355555;5565355555
296;5616891000;5407022222;5607022222
307;5658527000;5448655555;5648655555
318;5700211000;5490344444;5690344444
329;5741871000;5532011111;5732011111
340;5783550000;5573666666;5773666666
351;5825259000;5615366666;5815366666
362;5866878000;5657011111;5857011111
373;5908546000;5698655555;5898655555
384;5950178000;5740311111;5940311111
395;5991859000;5781977777;5981977777
406;6034709000;5823666666;6023666666
417;6075260000;5865377777;6065377777
428;6116913000;5907022222;6107022222
439;6158623000;5948700000;6148700000
450;6200283000;5990388888;6190388888
461;6241892000;6032000000;6232000000
472;6283490000;6073622222;6273622222
483;6325224000;6115355555;6315355555
494;6366873000;6157011111;6357011111
505;6408543000;6198666666;6398666666
516;6450211000;6240344444;6440344444
527;6491935000;6282044444;6482044444
538;6533548000;6323677777;6523677777
549;6575253000;6365388888;6565388888
560;6616879000;6407022222;6607022222
571;6658552000;6448666666;6648666666
582;6700222000;6490355555;6690355555
593;6741889000;6532022222;6732022222
604;6783592000;6573688888;6773688888
615;6825259000;6615377777;6815377777
626;6866862000;6657000000;6857000000
637;6908607000;6698666666;6898666666
648;6950200000;6740333333;6940333333
659;6991892000;6782033333;6982033333
670;7033599000;6823677777;7023677777
681;7075202000;6865333333;7065333333
692;7116922000;6907022222;7107022222
703;7158549000;6948655555;7148655555
714;7200256000;6990388888;7190388888
725;7241893000;7032011111;7232011111
736;7283545000;7073677777;7273677777
747;7325233000;7115366666;7315366666
758;7366899000;7157033333;7357033333
769;7408543000;7198666666;7398666666
780;7450245000;7240355555;7440355555
791;7491870000;7282000000;7482000000
802;7533549000;7323677777;7523677777
813;7575237000;7365366666;7565366666
824;7616897000;7407033333;7607033333
835;7658546000;7448644444;7648644444
846;7700211000;7490344444;7690344444
857;7741894000;7532033333;7732033333
868;7783509000;7573644444;7773644444
879;7825254000;7615377777;7815377777
890;7866917000;7657055555;7857055555
901;7908517000;7698644444;7898644444
912;7950212000;7740322222;7940322222
923;7991887000;7782022222;7982022222
934;8033544000;7823644444;8023644444
945;8075209000;7865344444;8065344444
956;8116914000;7907033333;8107033333
967;8158552000;7948666666;8148666666
978;8200304000;7990388888;8190388888
989;8241880000;8031988888;8231988888
1000;8283554000;8073666666;8273666666
1011;8325226000;8115344444;8315344444
1022;8366908000;8157044444;8357044444
1033;8408542000;8198655555;8398655555
1044;8450237000;8240355555;8440355555
1055;8491945000;8282055555;8482055555
1066;8533552000;8323666666;8523666666
1077;8575185000;8365322222;8565322222
1088;8616881000;8407044444;8607044444
1099;8658573000;8448655555;8648655555
1110;8700210000;8490344444;8690344444
1121;8741878000;8532011111;8732011111
1132;8783549000;8573666666;8773666666
1143;8825268000;8615366666;8815366666
1154;8866896000;8657033333;8857033333
1165;8908501000;8698633333;8898633333
1176;8950200000;8740333333;8940333333
1187;8991843000;8781977777;8981977777
1198;9033551000;8823666666;9023666666
1209;9075213000;8865333333;9065333333
1220;9116893000;8907011111;9107011111
1231;9158595000;8948677777;9148677777
1242;9200247000;8990366666;9190366666
1253;9241900000;9032033333;9232033333
1264;9283526000;9073655555;9273655555
1275;9325268000;9115377777;9315377777
1286;9366918000;9157055555;9357055555
1297;9408547000;9198677777;9398677777
1308;9450210000;9240322222;9440322222
1319;9491926000;9282044444;9482044444
1330;9533614000;9323700000;9523700000
1341;9575230000;9365366666;9565366666
1352;9616882000;9407000000;9607000000
1363;9658550000;9448666666;9648666666
1374;9700234000;9490366666;9690366666
1385;9741922000;9532055555;9732055555
1396;9783544000;9573644444;9773644444
1407;9826245000;9615344444;9815344444
1418;9866884000;9657022222;9857022222
1429;9908519000;9698644444;9898644444
1440;9950223000;9740355555;9940355555
1451;9991865000;9782000000;9982000000
1462;10033522000;9823633333;10023633333
1473;10075233000;9865355555;10065355555
1484;10116901000;9907022222;10107022222
1495;10158545000;9948677777;10148677777
1506;10200282000;9990400000;10190400000
1517;10241859000;10031977777;10231977777
1528;10283526000;10073655555;10273655555
1539;10325245000;10115366666;10315366666
1550;10366912000;10157033333;10357033333
1561;10408548000;10198677777;10398677777
1572;10450237000;10240355555;10440355555
1583;10491859000;10282000000;10482000000
1594;10533604000;10323688888;10523688888
1605;10575230000;10365366666;10565366666
1616;10616911000;10407044444;10607044444
1627;10658601000;10448677777;10648677777
1638;10700271000;10490388888;10690388888
1649;10741916000;10532033333;10732033333
1660;10783557000;10573688888;10773688888
1671;10825268000;10615400000;10815400000
1682;10866907000;10657044444;10857044444
1693;10908605000;10698688888;10898688888
1704;10950226000;10740355555;10940355555
1715;10991887000;10782022222;10982022222
1726;11033620000;10823700000;11023700000
1737;11075246000;10865366666;11065366666
1748;11116911000;10907044444;11107044444
1759;11158606000;10948688888;11148688888
1770;11200269000;10990388888;11190388888
1781;11241918000;11032033333;11232033333
1792;11283589000;11073677777;11273677777
1803;11325212000;11115344444;11315344444
1814;11366907000;11157044444;11357044444
1825;11408612000;11198700000;11398700000
1836;11450248000;11240366666;11440366666
1847;11491892000;11282033333;11482033333
1858;11533522000;11323655555;11523655555
1869;11575219000;11365355555;11565355555
1880;11616912000;11407033333;11607033333
1891;11658523000;11448644444;11648644444
1902;11700226000;11490344444;11690344444
1913;11741872000;11532011111;11732011111
1924;11783549000;11573666666;11773666666
1935;11827657000;11615366666;11815366666
1946;11866867000;11657011111;11857011111
1957;11908553000;11698666666;11898666666
1968;11950167000;11740300000;11940300000
1979;11991880000;11782000000;11982000000
1990;12033580000;11823688888;12023688888
2001;12075235000;11865355555;12065355555
2012;12116914000;11907044444;12107044444
2023;12158553000;11948666666;12148666666
2034;12200255000;11990388888;12190388888
2045;12241889000;12032000000;12232000000
2056;12283534000;12073644444;12273644444
2067;12325244000;12115377777;12315377777
2078;12366922000;12157044444;12357044444
2089;12408499000;12198633333;12398633333
2100;12450230000;12240311111;12440311111
2111;12491888000;12282022222;12482022222
2122;12533654000;12323700000;12523700000
2133;12575242000;12365377777;12565377777
2144;12616971000;12407088888;12607088888
2155;12658589000;12448700000;12648700000
2166;12700213000;12490344444;12690344444
2177;12741902000;12532044444;12732044444
2188;12783533000;12573677777;12773677777
2199;12825270000;12615388888;12815388888
2210;12866898000;12657044444;12857044444
2221;12908579000;12698688888;12898688888
2232;12950238000;12740355555;12940355555
2243;12991981000;12782100000;12982100000
2254;13033593000;12823688888;13023688888
2265;13075259000;12865377777;13065377777
2276;13116979000;12907088888;13107088888
2287;13158539000;12948666666;13148666666
2298;13200292000;12990411111;13190411111
2309;13241880000;13032022222;13232022222
2320;13283545000;13073677777;13273677777
2331;13325242000;13115377777;13315377777
2342;13366909000;13157055555;13357055555
2353;13408564000;13198688888;13398688888
2364;13450253000;13240344444;13440344444
2375;13491903000;13282044444;13482044444
2386;13533537000;13323677777;13523677777
2397;13575224000;13365355555;13565355555
2408;13616910000;13407044444;13607044444
2419;13658551000;13448666666;13648666666
2430;13700248000;13490366666;13690366666
2441;13741860000;13532000000;13732000000
2452;13783544000;13573677777;13773677777
2463;13825255000;13615388888;13815388888
2474;13866913000;13657033333;13857033333
2485;13908611000;13698677777;13898677777
2496;13950188000;13740322222;13940322222
2507;13991854000;13781988888;13981988888
2518;14033547000;13823677777;14023677777
2529;14075268000;13865388888;14065388888
2540;14116876000;13907011111;14107011111
2551;14158641000;13948722222;14148722222
2562;14200237000;13990355555;14190355555
2573;14241901000;14032011111;14232011111
2584;14283544000;14073655555;14273655555
2595;14325234000;14115366666;14315366666
2606;14366940000;14157077777;14357077777
2617;14408560000;14198666666;14398666666
2628;14450200000;14240333333;14440333333
2639;14491943000;14282077777;14482077777
2650;14533530000;14323655555;14523655555
2661;14575244000;14365355555;14565355555
2672;14616926000;14407044444;14607044444
2683;14658541000;14448622222;14648622222
2694;14700212000;14490344444;14690344444
2705;14741893000;14532011111;14732011111
2716;14783497000;14573633333;14773633333
2727;14825234000;14615366666;14815366666
2738;14866962000;14657100000;14857100000
2749;14908552000;14698666666;14898666666
2760;14950199000;14740333333;14940333333
2771;14991843000;14781977777;14981977777
2782;15033552000;14823666666;15023666666
2793;15075235000;14865355555;15065355555
2804;15116878000;14907011111;15107011111
2815;15158592000;14948688888;15148688888
2826;15200248000;14990366666;15190366666
2837;15241856000;15032000000;15232000000
2848;15283501000;15073622222;15273622222
2859;15325213000;15115355555;15315355555
2870;15366908000;15157044444;15357044444
2881;15408509000;15198644444;15398644444
2892;15450235000;15240344444;15440344444
2903;15491878000;15282022222;15482022222
2914;15533529000;15323655555;15523655555
2925;15575231000;15365366666;15565366666
2936;15616898000;15407033333;15607033333
2947;15658475000;15448611111;15648611111
2958;15700213000;15490333333;15690333333
2969;15741856000;15532000000;15732000000
2980;15783541000;15573655555;15773655555
2991;15825236000;15615355555;15815355555
3002;15866856000;15656966666;15856966666
3013;15908502000;15698622222;15898622222
3024;15950200000;15740322222;15940322222
3035;15991879000;15782000000;15982000000
3046;16033422000;15823655555;16023655555
3057;16075248000;15865366666;16065366666
3068;16116878000;15907011111;16107011111
3079;16158526000;15948688888;16148688888
3090;16200189000;15990322222;16190322222
3101;16241919000;16032011111;16232011111
3112;16283492000;16073611111;16273611111
3123;16325211000;16115344444;16315344444
3134;16366857000;16156977777;16356977777
3145;16408523000;16198633333;16398633333
3156;16450272000;16240377777;16440377777
3167;16491909000;16282011111;16482011111
3178;16533541000;16323666666;16523666666
3189;16575211000;16365344444;16565344444
3200;16616879000;16407022222;16607022222
3211;16658572000;16448655555;16648655555
3222;16700235000;16490344444;16690344444
3233;16741893000;16532011111;16732011111
3244;16783540000;16573666666;16773666666
3255;16825216000;16615333333;16815333333
3266;16866893000;16657011111;16857011111
3277;16908497000;16698633333;16898633333
3288;16950211000;16740333333;16940333333
3299;16991869000;16782011111;16982011111
3310;17033502000;16823666666;17023666666
3321;17075256000;16865355555;17065355555
3332;17116904000;16907022222;17107022222
3343;17158536000;16948677777;17148677777
3354;17200246000;16990366666;17190366666
3365;17241904000;17032022222;17232022222
3376;17283498000;17073633333;17273633333
3387;17325260000;17115377777;17315377777
3398;17366866000;17156988888;17356988888
3409;17408539000;17198666666;17398666666
3420;17450226000;17240344444;17440344444
3431;17491888000;17282022222;17482022222
3442;17533527000;17323655555;17523655555
3453;17575211000;17365333333;17565333333
3464;17616903000;17407022222;17607022222
3475;17658538000;17448666666;17648666666
3486;17700234000;17490355555;17690355555
3497;17741911000;17532044444;17732044444
3508;17783550000;17573677777;17773677777
3519;17825209000;17615344444;17815344444
3530;17866932000;17657044444;17857044444
3541;17908498000;17698633333;17898633333
3552;17950208000;17740344444;17940344444
3563;17991876000;17782011111;17982011111
3574;18033553000;17823666666;18023666666
3585;18075258000;17865377777;18065377777
3596;18116903000;17907022222;18107022222
3607;18158491000;17948677777;18148677777
3618;18200274000;17990411111;18190411111
3629;18243121000;18032011111;18232011111
3640;18283542000;18073666666;18273666666
3651;18325180000;18115366666;18315366666
3662;18366884000;18157011111;18357011111
3673;18408530000;18198700000;18398700000
3684;18450186000;18240322222;18440322222
3695;18491921000;18282055555;18482055555
3706;18533504000;18323622222;18523622222
3717;18575174000;18365322222;18565322222
3728;18616915000;18407033333;18607033333
3739;18658509000;18448644444;18648644444
3750;18700231000;18490366666;18690366666
3761;18741844000;18531977777;18731977777
3772;18783497000;18573633333;18773633333
3783;18825232000;18615366666;18815366666
3794;18866855000;18656977777;18856977777
3805;18908552000;18698677777;18898677777
3816;18950164000;18740300000;18940300000
3827;18991865000;18782000000;18982000000
3838;19033529000;18823655555;19023655555
3849;19075235000;18865344444;19065344444
3860;19116892000;18907011111;19107011111
3871;19158539000;18948666666;19148666666
3882;19200235000;18990355555;19190355555
3893;19241904000;19032022222;19232022222
3904;19283530000;19073655555;19273655555
3915;19325221000;19115355555;19315355555
3926;19366885000;19157022222;19357022222
3937;19408496000;19198633333;19398633333
3948;19450234000;19240344444;19440344444
3959;19491893000;19282011111;19482011111
3970;19533499000;19323633333;19523633333
3981;19575219000;19365355555;19565355555
3992;19616886000;19407022222;19607022222
4003;19658534000;19448655555;19648655555
4014;19700280000;19490366666;19690366666
4025;19741877000;19532011111;19732011111
4036;19783497000;19573633333;19773633333
4047;19825248000;19615366666;19815366666
4058;19866862000;19657000000;19857000000
4069;19908535000;19698677777;19898677777
4080;19950213000;19740333333;19940333333
4091;19991859000;19781977777;19981977777
4102;20033540000;19823666666;20023666666
4113;20075220000;19865355555;20065355555
4124;20116891000;19907011111;20107011111
4135;20158510000;19948644444;20148644444
4146;20200196000;19990333333;20190333333
4157;20241800000;20032000000;20232000000
4168;20283547000;20073655555;20273655555
4179;20325175000;20115355555;20315355555
4190;20366935000;20157055555;20357055555
4201;20408484000;20198666666;20398666666
4212;20450174000;20240344444;20440344444
4223;20491833000;20282033333;20482033333
4234;20533493000;20323677777;20523677777
4245;20575241000;20365366666;20565366666
4256;20616819000;20407022222;20607022222
4267;20658572000;20448688888;20648688888
4278;20700234000;20490355555;20690355555
4289;20741890000;20532022222;20732022222
4300;20783610000;20573700000;20773700000
4311;20825256000;20615377777;20815377777
4322;20866819000;20657022222;20857022222
4333;20908550000;20698677777;20898677777
4344;20950220000;20740344444;20940344444
4355;20991885000;20782011111;20982011111
4366;21033534000;20823677777;21023677777
4377;21075245000;20865366666;21065366666
4388;21116934000;20907055555;21107055555
4399;21158537000;20948655555;21148655555
4410;21200241000;20990366666;21190366666
4421;21241865000;21032011111;21232011111
4432;21283510000;21073633333;21273633333
4443;21325246000;21115366666;21315366666
4454;21366922000;21157044444;21357044444
4465;21408397000;21198677777;21398677777
4476;21451162000;21240355555;21440355555
4487;21491876000;21282000000;21482000000
4498;21533538000;21323655555;21523655555
4509;21575226000;21365344444;21565344444
4520;21616892000;21407011111;21607011111
4531;21658507000;21448644444;21648644444
4542;21700172000;21490311111;21690311111
4553;21741882000;21532000000;21732000000
4564;21783554000;21573655555;21773655555
4575;21825238000;21615355555;21815355555
4586;21866676000;21656988888;21856988888
4597;21908498000;21698655555;21898655555
4608;21950199000;21740344444;21940344444
4619;21991660000;21782000000;21982000000
4630;22033617000;21823655555;22023655555
4641;22075255000;21865388888;22065388888
4652;22116912000;21907033333;22107033333
4663;22158592000;21948688888;22148688888
4674;22200243000;21990377777;22190377777
4685;22241832000;22031966666;22231966666
4696;22283549000;22073666666;22273666666
4707;22325214000;22115344444;22315344444
4718;22366655000;22156977777;22356977777
4729;22408493000;22198666666;22398666666
4740;22450188000;22240333333;22440333333
4751;22491655000;22282011111;22482011111
4762;22533582000;22323700000;22523700000
4773;22575204000;22365344444;22565344444
4784;22616893000;22407044444;22607044444
4795;22658506000;22448644444;22648644444
4806;22700190000;22490333333;22690333333
4817;22741917000;22532044444;22732044444
4828;22783522000;22573677777;22773677777
4839;22825241000;22615377777;22815377777
4850;22866904000;22657022222;22857022222
4861;22908614000;22698711111;22898711111
4872;22950186000;22740322222;22940322222
4883;22991899000;22782022222;22982022222
4894;23033546000;22823677777;23023677777
4905;23075264000;22865366666;23065366666
4916;23116889000;22907022222;23107022222
4927;23158555000;22948688888;23148688888
4938;23200220000;22990355555;23190355555
4949;23241893000;23032011111;23232011111
4960;23283552000;23073677777;23273677777
4971;23325207000;23115344444;23315344444
4982;23366911000;23157044444;23357044444
4993;23408547000;23198677777;23398677777
5004;23450219000;23240355555;23440355555
5015;23491936000;23282044444;23482044444
5026;23533550000;23323666666;23523666666
5037;23575222000;23365355555;23565355555
5048;23616933000;23407055555;23607055555
5059;23658542000;23448644444;23648644444
5070;23700237000;23490355555;23690355555
5081;23741900000;23532022222;23732022222
5092;23783545000;23573677777;23773677777
5103;23825256000;23615388888;23815388888
5114;23866909000;23657022222;23857022222
5125;23908543000;23698666666;23898666666
5136;23950194000;23740333333;23940333333
5147;23991910000;23782044444;23982044444
5158;24033592000;23823677777;24023677777
5169;24075246000;23865366666;24065366666
5180;24116922000;23907022222;24107022222
5191;24158607000;23948711111;24148711111
5202;24200240000;23990377777;24190377777
5213;24241851000;24031988888;24231988888
5224;24283589000;24073666666;24273666666
5235;24325255000;24115388888;24315388888
5246;24366939000;24157066666;24357066666
5257;24408540000;24198644444;24398644444
5268;24450219000;24240355555;24440355555
5279;24491922000;24282044444;24482044444
5290;24533539000;24323644444;24523644444
5301;24575250000;24365366666;24565366666
5312;24616907000;24407044444;24607044444
5323;24658458000;24448633333;24648633333
5334;24700239000;24490377777;24690377777
5345;24741877000;24532022222;24732022222
5356;24783415000;24573677777;24773677777
5367;24825192000;24615366666;24815366666
5378;24866836000;24657022222;24857022222
5389;24908505000;24698688888;24898688888
5400;24950140000;24740322222;24940322222
5411;24991829000;24782011111;24982011111
5422;25033495000;24823677777;25023677777
5433;25075234000;24865366666;25065366666
5444;25116898000;24907022222;25107022222
5455;25158547000;24948655555;25148655555
5466;25200253000;24990377777;25190377777
5477;25241878000;25032011111;25232011111
5478;25241884000;25073666666;25273666666
5479;25241885000;25073666666;25273666666
5480;25241886000;25073666666;25273666666
5481;25241887000;25073666666;25273666666
5482;25241888000;25073666666;25273666666
5483;25241889000;25073666666;25273666666
5484;25241890000;25073666666;25273666666
5485;25241891000;25073666666;25273666666
5486;25241892000;25073666666;25273666666
5487;25241893000;25073666666;25273666666
5488;25283538000;25073666666;25273666666
5489;25283544000;25115377777;25315377777
5490;25283545000;25115377777;25315377777
5491;25283546000;25115377777;25315377777
5492;25283547000;25115377777;25315377777
5493;25283548000;25115377777;25315377777
5494;25283558000;25115377777;25315377777
5495;25283568000;25115377777;25315377777
5496;25283569000;25115377777;25315377777
5497;25283570000;25115377777;25315377777
5498;25283571000;25115377777;25315377777
5499;25325244000;25115377777;25315377777
