seqnum;now;rtptime;deadline
1;6196096000;5803044444;6303044444
3;6276086000;5834466666;6334466666
22;6317590000;5876544444;6376544444
23;6317594000;5876544444;6376544444
24;6317595000;5876544444;6376544444
25;6357973000;5917788888;6417788888
47;6432840000;6001111111;6501111111
77;6477212000;6084811111;6584811111
78;6477216000;6084811111;6584811111
79;6477217000;6084811111;6584811111
80;6512109000;6126111111;6626111111
81;6512117000;6126111111;6626111111
82;6512118000;6126111111;6626111111
83;6512120000;6126111111;6626111111
84;6512121000;6126111111;6626111111
85;6512123000;6126111111;6626111111
86;6512124000;6126111111;6626111111
87;6512323000;6126133333;6626133333
88;6512339000;6126444444;6626444444
89;6512340000;6126444444;6626444444
90;6512341000;6126444444;6626444444
91;6544151000;6167788888;6667788888
143;6819836000;6334733333;6834733333
186;7072595000;6501133333;7001133333
273;7072610000;6834455555;7334455555
274;7467530000;6834477777;7334477777
350;7467545000;7126122222;7626122222
351;7810429000;7126133333;7626133333
358;7810436000;7167766666;7667766666
483;8361191000;7626133333;8126133333
614;8361208000;8126088888;8626088888
615;8907381000;8126100000;8626100000
735;8907396000;8584455555;9084455555
736;9418703000;8584466666;9084466666
902;9418720000;9209744444;9709744444
903;9418721000;9209744444;9709744444
904;9418722000;9209744444;9709744444
905;10139826000;9251111111;9751111111
1074;10826217000;9876122222;10376122222
1248;11503926000;10542788888;11042788888
1406;12150503000;11126122222;11626122222
1558;12150619000;11709433333;12209433333
1559;12150623000;11709433333;12209433333
1560;12150624000;11709433333;12209433333
1561;12150748000;11709455555;12209455555
1562;12150763000;11709755555;12209755555
1563;12150764000;11709755555;12209755555
1564;12150765000;11709755555;12209755555
1565;12150776000;11751088888;12251088888
1566;12150787000;11751088888;12251088888
1567;12150788000;11751088888;12251088888
1568;12150789000;11751088888;12251088888
1569;12150790000;11751088888;12251088888
1570;12150791000;11751088888;12251088888
1571;12150792000;11751088888;12251088888
1572;12150894000;11751100000;12251100000
1573;12150910000;11751488888;12251488888
1574;12150911000;11751488888;12251488888
1575;12150912000;11751488888;12251488888
1576;12150922000;11792788888;12292788888
1577;12150924000;11792788888;12292788888
1578;12150935000;11792788888;12292788888
1579;12150936000;11792788888;12292788888
1580;12150937000;11792788888;12292788888
1581;12150938000;11792788888;12292788888
1582;12150939000;11792788888;12292788888
1583;12151042000;11792800000;12292800000
1584;12151057000;11793100000;12293100000
1585;12151059000;11793100000;12293100000
1587;12151070000;11834422222;12334422222
1588;12151071000;11834422222;12334422222
1589;12151082000;11834422222;12334422222
1590;12151083000;11834422222;12334422222
1591;12151084000;11834422222;12334422222
1592;12151085000;11834422222;12334422222
1593;12151086000;11834422222;12334422222
1594;12151195000;11834444444;12334444444
1595;12151210000;11834722222;12334722222
1596;12151211000;11834722222;12334722222
1597;12151212000;11834722222;12334722222
1598;12151223000;11876111111;12376111111
1599;12151224000;11876111111;12376111111
1600;12151236000;11876111111;12376111111
1601;12151237000;11876111111;12376111111
1602;12151237000;11876111111;12376111111
1603;12151238000;11876111111;12376111111
1604;12151240000;11876111111;12376111111
1605;12151324000;11876122222;12376122222
1606;12151358000;11876455555;12376455555
1607;12152034000;11876455555;12376455555
1608;12152249000;11876455555;12376455555
1609;12202901000;11917788888;12417788888
1627;12205271000;11959466666;12459466666
1629;12205439000;11959766666;12459766666
1630;12205442000;11959766666;12459766666
1631;12247177000;12001111111;12501111111
1632;12247181000;12001111111;12501111111
1633;12247182000;12001111111;12501111111
1634;12247183000;12001111111;12501111111
1635;12247184000;12001111111;12501111111
1636;12247185000;12001111111;12501111111
1637;12247186000;12001111111;12501111111
1638;12247293000;12001133333;12501133333
1639;12247296000;12001444444;12501444444
1640;12247318000;12001444444;12501444444
1641;12247319000;12001444444;12501444444
1642;12248103000;12042788888;12542788888
1643;12248106000;12042788888;12542788888
1644;12248107000;12042788888;12542788888
1645;12248109000;12042788888;12542788888
1646;12248110000;12042788888;12542788888
1647;12248111000;12042788888;12542788888
1648;12248112000;12042788888;12542788888
1649;12248242000;12042800000;12542800000
1650;12312793000;12043133333;12543133333
1651;12313084000;12043133333;12543133333
1652;12313673000;12043133333;12543133333
1653;12405465000;12084455555;12584455555
1671;12405632000;12126133333;12626133333
1672;12405636000;12126444444;12626444444
1673;12405638000;12126444444;12626444444
1674;12405639000;12126444444;12626444444
1675;12408476000;12167777777;12667777777
1676;12408488000;12167777777;12667777777
1677;12408490000;12167777777;12667777777
1678;12408491000;12167777777;12667777777
1679;12408493000;12167777777;12667777777
1680;12408495000;12167777777;12667777777
1681;12408496000;12167777777;12667777777
1682;12408564000;12167788888;12667788888
1683;12408567000;12168100000;12668100000
1684;12408569000;12168100000;12668100000
1685;12408571000;12168100000;12668100000
1686;12408588000;12209444444;12709444444
1687;12408590000;12209444444;12709444444
1688;12408591000;12209444444;12709444444
1689;12408593000;12209444444;12709444444
1690;12408594000;12209444444;12709444444
1691;12408606000;12209444444;12709444444
1692;12408608000;12209444444;12709444444
1693;12408662000;12209466666;12709466666
1694;12474199000;12209755555;12709755555
1695;12474405000;12209755555;12709755555
1696;12474412000;12209755555;12709755555
1697;12525410000;12251122222;12751122222
1715;12527752000;12292800000;12792800000
1716;12527756000;12293100000;12793100000
1717;12527758000;12293100000;12793100000
1718;12527759000;12293100000;12793100000
1719;12569317000;12334422222;12834422222
1720;12569330000;12334422222;12834422222
1721;12569332000;12334422222;12834422222
1722;12569334000;12334422222;12834422222
1723;12569335000;12334422222;12834422222
1724;12569337000;12334422222;12834422222
1725;12569338000;12334422222;12834422222
1726;12569500000;12334433333;12834433333
1727;12569504000;12334711111;12834711111
1728;12569506000;12334711111;12834711111
1729;12569508000;12334711111;12834711111
1730;12569527000;12376122222;12876122222
1731;12569529000;12376122222;12876122222
1732;12569531000;12376122222;12876122222
1733;12569532000;12376122222;12876122222
1734;12569534000;12376122222;12876122222
1735;12569545000;12376122222;12876122222
1736;12569547000;12376122222;12876122222
1737;12569604000;12376133333;12876133333
1738;12635766000;12376466666;12876466666
1739;12636027000;12376466666;12876466666
1740;12636043000;12376466666;12876466666
1741;12686659000;12417777777;12917777777
1759;12689095000;12459466666;12959466666
1760;12689101000;12459788888;12959788888
1761;12689102000;12459788888;12959788888
1762;12689103000;12459788888;12959788888
1763;12731541000;12501100000;13001100000
1764;12731545000;12501100000;13001100000
1765;12731547000;12501100000;13001100000
1766;12731549000;12501100000;13001100000
1767;12731550000;12501100000;13001100000
1768;12731552000;12501100000;13001100000
1769;12731554000;12501100000;13001100000
1770;12731683000;12501122222;13001122222
1771;12731687000;12501422222;13001422222
1772;12731688000;12501422222;13001422222
1773;12731690000;12501422222;13001422222
1774;12731710000;12542777777;13042777777
1775;12731712000;12542777777;13042777777
1776;12731723000;12542777777;13042777777
1777;12731724000;12542777777;13042777777
1778;12731726000;12542777777;13042777777
1779;12731727000;12542777777;13042777777
1780;12731729000;12542777777;13042777777
1781;12731815000;12542800000;13042800000
1782;12796430000;12543100000;13043100000
1783;12797134000;12543100000;13043100000
1784;12797136000;12543100000;13043100000
1785;12888616000;12584455555;13084455555
1803;12888823000;12626133333;13126133333
1804;12888829000;12626455555;13126455555
1805;12888831000;12626455555;13126455555
1806;12888832000;12626455555;13126455555
1807;12888844000;12667788888;13167788888
1808;12888854000;12667788888;13167788888
1809;12888855000;12667788888;13167788888
1810;12888856000;12667788888;13167788888
1811;12888857000;12667788888;13167788888
1812;12888858000;12667788888;13167788888
1813;12888859000;12667788888;13167788888
1814;12888939000;12667800000;13167800000
1815;12888946000;12668111111;13168111111
1816;12888947000;12668111111;13168111111
1817;12888948000;12668111111;13168111111
1818;12893242000;12709455555;13209455555
1819;12893246000;12709455555;13209455555
1820;12893247000;12709455555;13209455555
1821;12893248000;12709455555;13209455555
1822;12893249000;12709455555;13209455555
1823;12893250000;12709455555;13209455555
1824;12893251000;12709455555;13209455555
1825;12893355000;12709466666;13209466666
1826;12957802000;12709777777;13209777777
1827;12958443000;12709777777;13209777777
1828;12958451000;12709777777;13209777777
1829;13009078000;12751144444;13251144444
1847;13011526000;12792800000;13292800000
1848;13011541000;12793066666;13293066666
1849;13011542000;12793066666;13293066666
1850;13011543000;12793066666;13293066666
1851;13053150000;12834444444;13334444444
1852;13053153000;12834444444;13334444444
1853;13053155000;12834444444;13334444444
1854;13053156000;12834444444;13334444444
1855;13053157000;12834444444;13334444444
1856;13053158000;12834444444;13334444444
1857;13053159000;12834444444;13334444444
1858;13053376000;12834466666;13334466666
1859;13053392000;12834733333;13334733333
1860;13053394000;12834733333;13334733333
1861;13053395000;12834733333;13334733333
1862;13054770000;12876111111;13376111111
1863;13054773000;12876111111;13376111111
1864;13054774000;12876111111;13376111111
1865;13054775000;12876111111;13376111111
1866;13054776000;12876111111;13376111111
1867;13054777000;12876111111;13376111111
1868;13054778000;12876111111;13376111111
1869;13054881000;12876133333;13376133333
1870;13119270000;12876444444;13376444444
1871;13119272000;12876444444;13376444444
1872;13119483000;12876444444;13376444444
1873;13211370000;12917788888;13417788888
1892;13211494000;12959755555;13459755555
1893;13211497000;12959755555;13459755555
1894;13211498000;12959755555;13459755555
1895;13214324000;13001100000;13501100000
1896;13214328000;13001100000;13501100000
1897;13214329000;13001100000;13501100000
1898;13214330000;13001100000;13501100000
1899;13214331000;13001100000;13501100000
1900;13214332000;13001100000;13501100000
1901;13214333000;13001100000;13501100000
1902;13214397000;13001122222;13501122222
1903;13214400000;13001422222;13501422222
1904;13214401000;13001422222;13501422222
1905;13214402000;13001422222;13501422222
1906;13214408000;13042777777;13542777777
1907;13214409000;13042777777;13542777777
1908;13214410000;13042777777;13542777777
1909;13214411000;13042777777;13542777777
1910;13214412000;13042777777;13542777777
1911;13214414000;13042777777;13542777777
1912;13214415000;13042777777;13542777777
1913;13214568000;13042788888;13542788888
1914;13280458000;13043111111;13543111111
1915;13280897000;13043111111;13543111111
1918;13372348000;13084455555;13584455555
1925;13372463000;13084733333;13584733333
1926;13372466000;13084733333;13584733333
1927;13372467000;13084733333;13584733333
1928;13374233000;13126088888;13626088888
1929;13374236000;13126088888;13626088888
1931;13374238000;13126088888;13626088888
1932;13374239000;13126088888;13626088888
1933;13374240000;13126088888;13626088888
1934;13374241000;13126088888;13626088888
1935;13374337000;13126100000;13626100000
1936;13374353000;13126400000;13626400000
1937;13374354000;13126400000;13626400000
1938;13374355000;13126400000;13626400000
1939;13375527000;13167777777;13667777777
1940;13375530000;13167777777;13667777777
1941;13375532000;13167777777;13667777777
1942;13375533000;13167777777;13667777777
1943;13375534000;13167777777;13667777777
1944;13375535000;13167777777;13667777777
1945;13375536000;13167777777;13667777777
1946;13375632000;13167788888;13667788888
1947;13441259000;13168077777;13668077777
1950;13534213000;13209444444;13709444444
1968;13534415000;13251133333;13751133333
1969;13534430000;13251422222;13751422222
1970;13534431000;13251422222;13751422222
1971;13534439000;13251422222;13751422222
1972;13536805000;13292766666;13792766666
1974;13536808000;13292766666;13792766666
1975;13536809000;13292766666;13792766666
1976;13536810000;13292766666;13792766666
1977;13536811000;13292766666;13792766666
1978;13536812000;13292766666;13792766666
1979;13536906000;13292788888;13792788888
1980;13536921000;13293077777;13793077777
1981;13536922000;13293077777;13793077777
1982;13536923000;13293077777;13793077777
1983;13537946000;13334444444;13834444444
1984;13537950000;13334444444;13834444444
1985;13537951000;13334444444;13834444444
1986;13537952000;13334444444;13834444444
1987;13537953000;13334444444;13834444444
1988;13537954000;13334444444;13834444444
1989;13537955000;13334444444;13834444444
1990;13538018000;13334455555;13834455555
1991;13602763000;13334722222;13834722222
1992;13603262000;13334722222;13834722222
1993;13603779000;13334722222;13834722222
1994;13695720000;13376122222;13876122222
2012;13695918000;13417800000;13917800000
2013;13695924000;13418088888;13918088888
2014;13695925000;13418088888;13918088888
2015;13695927000;13418088888;13918088888
2016;13695938000;13459433333;13959433333
2017;13695939000;13459433333;13959433333
2018;13695950000;13459433333;13959433333
2019;13695951000;13459433333;13959433333
2020;13695952000;13459433333;13959433333
2021;13695953000;13459433333;13959433333
2022;13695954000;13459433333;13959433333
2023;13696078000;13459455555;13959455555
2024;13696094000;13459755555;13959755555
2025;13696095000;13459755555;13959755555
2026;13696096000;13459755555;13959755555
2027;13696107000;13501111111;14001111111
2028;13696109000;13501111111;14001111111
2029;13696120000;13501111111;14001111111
2030;13696121000;13501111111;14001111111
2031;13696122000;13501111111;14001111111
2032;13696123000;13501111111;14001111111
2033;13696124000;13501111111;14001111111
2034;13696206000;13501133333;14001133333
2035;13764682000;13501411111;14001411111
2036;13764684000;13501411111;14001411111
2039;13815528000;13542788888;14042788888
2052;13816900000;13584455555;14084455555
2053;13816904000;13584455555;14084455555
2054;13816905000;13584455555;14084455555
2055;13816906000;13584455555;14084455555
2056;13817722000;13584466666;14084466666
2057;13817738000;13584722222;14084722222
2058;13817739000;13584722222;14084722222
2059;13817740000;13584722222;14084722222
2060;13818154000;13626088888;14126088888
2061;13818157000;13626088888;14126088888
2062;13818158000;13626088888;14126088888
2064;13818350000;13626088888;14126088888
2065;13818352000;13626088888;14126088888
2066;13818353000;13626088888;14126088888
2070;13819369000;13626422222;14126422222
2071;13860902000;13667788888;14167788888
2072;13860906000;13667788888;14167788888
2073;13860907000;13667788888;14167788888
2074;13860908000;13667788888;14167788888
2075;13860909000;13667788888;14167788888
2077;13860910000;13667788888;14167788888
2078;13861115000;13667800000;14167800000
2079;13925340000;13668100000;14168100000
2080;13925849000;13668100000;14168100000
2081;13925852000;13668100000;14168100000
2082;14017730000;13709455555;14209455555
2100;14017937000;13751133333;14251133333
2101;14017952000;13751422222;14251422222
2102;14017953000;13751422222;14251422222
2103;14017954000;13751422222;14251422222
2104;14017966000;13792777777;14292777777
2105;14017967000;13792777777;14292777777
2106;14017968000;13792777777;14292777777
2107;14017969000;13792777777;14292777777
2108;14017970000;13792777777;14292777777
2109;14017971000;13792777777;14292777777
2110;14017972000;13792777777;14292777777
2111;14018067000;13792800000;14292800000
2112;14018083000;13793122222;14293122222
2113;14018084000;13793122222;14293122222
2114;14018085000;13793122222;14293122222
2115;14018097000;13834433333;14334433333
2116;14018098000;13834433333;14334433333
2117;14018099000;13834433333;14334433333
2118;14018100000;13834433333;14334433333
2119;14018101000;13834433333;14334433333
2120;14018102000;13834433333;14334433333
2121;14018103000;13834433333;14334433333
2122;14018199000;13834455555;14334455555
2123;14086656000;13834755555;14334755555
2124;14086917000;13834755555;14334755555
2130;14138177000;13876122222;14376122222
2144;14140090000;13917800000;14417800000
2145;14140105000;13918100000;14418100000
2146;14140106000;13918100000;14418100000
2147;14140107000;13918100000;14418100000
2148;14181700000;13959444444;14459444444
2149;14181704000;13959444444;14459444444
2150;14181705000;13959444444;14459444444
2151;14181706000;13959444444;14459444444
2152;14181707000;13959444444;14459444444
2153;14181707000;13959444444;14459444444
2154;14181709000;13959444444;14459444444
2155;14181912000;13959466666;14459466666
2156;14181928000;13959766666;14459766666
2157;14181929000;13959766666;14459766666
2158;14181930000;13959766666;14459766666
2159;14181942000;14001122222;14501122222
2160;14181944000;14001122222;14501122222
2161;14181945000;14001122222;14501122222
2162;14181946000;14001122222;14501122222
2163;14181947000;14001122222;14501122222
2164;14181948000;14001122222;14501122222
2165;14181949000;14001122222;14501122222
2166;14182044000;14001155555;14501155555
2167;14247437000;14001488888;14501488888
2168;14248110000;14001488888;14501488888
2169;14248492000;14001488888;14501488888
2170;14299122000;14042788888;14542788888
2181;14301043000;14084455555;14584455555
2182;14301046000;14084455555;14584455555
2183;14301047000;14084455555;14584455555
2184;14301048000;14084455555;14584455555
2185;14301049000;14084455555;14584455555
2186;14301050000;14084455555;14584455555
2188;14302696000;14084466666;14584466666
2189;14302712000;14084766666;14584766666
2190;14302713000;14084766666;14584766666
2191;14302714000;14084766666;14584766666
2192;14344795000;14126100000;14626100000
2193;14344798000;14126100000;14626100000
2194;14344800000;14126100000;14626100000
2195;14344801000;14126100000;14626100000
2196;14344802000;14126100000;14626100000
2197;14344803000;14126100000;14626100000
2198;14344804000;14126100000;14626100000
2199;14345002000;14126122222;14626122222
2200;14345017000;14126455555;14626455555
2201;14345019000;14126455555;14626455555
2202;14345020000;14126455555;14626455555
2203;14345030000;14167844444;14667844444
2204;14408894000;14167844444;14667844444
2205;14409267000;14167844444;14667844444
2206;14409467000;14167844444;14667844444
2207;14409777000;14167844444;14667844444
2208;14409780000;14167844444;14667844444
2209;14410099000;14167844444;14667844444
2210;14460613000;14167888888;14667888888
2215;14460628000;14209466666;14709466666
2216;14460630000;14209466666;14709466666
2217;14460631000;14209466666;14709466666
2218;14460632000;14209466666;14709466666
2219;14460632000;14209466666;14709466666
2220;14460633000;14209466666;14709466666
2221;14463008000;14209488888;14709488888
2222;14463022000;14209777777;14709777777
2223;14463024000;14209777777;14709777777
2224;14463025000;14209777777;14709777777
2225;14505551000;14251088888;14751088888
2226;14505554000;14251088888;14751088888
2227;14505555000;14251088888;14751088888
2228;14505556000;14251088888;14751088888
2229;14505557000;14251088888;14751088888
2230;14505558000;14251088888;14751088888
2231;14505559000;14251088888;14751088888
2232;14505735000;14251100000;14751100000
2233;14505740000;14251455555;14751455555
2234;14505741000;14251455555;14751455555
2235;14505742000;14251455555;14751455555
2236;14507121000;14292777777;14792777777
2237;14507125000;14292777777;14792777777
2238;14569670000;14292777777;14792777777
2239;14569973000;14292777777;14792777777
2240;14570214000;14292777777;14792777777
2241;14570419000;14292777777;14792777777
2242;14570676000;14292777777;14792777777
2243;14621159000;14292800000;14792800000
2249;14621174000;14334500000;14834500000
2250;14621175000;14334500000;14834500000
2251;14621176000;14334500000;14834500000
2252;14621177000;14334500000;14834500000
2253;14621178000;14334500000;14834500000
2254;14623677000;14334522222;14834522222
2255;14623691000;14334855555;14834855555
2256;14623693000;14334855555;14834855555
2257;14623694000;14334855555;14834855555
2258;14625238000;14376111111;14876111111
2259;14625242000;14376111111;14876111111
2260;14625243000;14376111111;14876111111
2261;14625244000;14376111111;14876111111
2262;14625245000;14376111111;14876111111
2263;14625253000;14376111111;14876111111
2264;14625254000;14376111111;14876111111
2265;14626401000;14376133333;14876133333
2266;14626416000;14376455555;14876455555
2267;14626417000;14376455555;14876455555
2268;14626418000;14376455555;14876455555
2269;14668218000;14417766666;14917766666
2270;14668221000;14417766666;14917766666
2271;14668222000;14417766666;14917766666
2272;14730338000;14417766666;14917766666
2273;14730730000;14417766666;14917766666
2274;14730944000;14417766666;14917766666
2275;14730947000;14417766666;14917766666
2276;14781646000;14417788888;14917788888
2284;14781661000;14459444444;14959444444
2285;14781662000;14459444444;14959444444
2286;14781663000;14459444444;14959444444
2287;14784395000;14459466666;14959466666
2288;14784410000;14459811111;14959811111
2289;14784411000;14459811111;14959811111
2290;14784412000;14459811111;14959811111
2291;14785423000;14501122222;15001122222
2292;14785426000;14501122222;15001122222
2293;14785427000;14501122222;15001122222
2294;14785428000;14501122222;15001122222
2295;14785429000;14501122222;15001122222
2296;14785430000;14501122222;15001122222
2297;14785431000;14501122222;15001122222
2298;14786797000;14501133333;15001133333
2299;14786812000;14501444444;15001444444
2300;14786813000;14501444444;15001444444
2301;14786814000;14501444444;15001444444
2302;14787505000;14542788888;15042788888
2303;14787518000;14542788888;15042788888
2304;14787519000;14542788888;15042788888
2305;14787520000;14542788888;15042788888
2306;14787520000;14542788888;15042788888
2307;14891125000;14542788888;15042788888
2308;14891611000;14542788888;15042788888
2309;14942103000;14542800000;15042800000
2316;14942118000;14584444444;15084444444
2317;14942120000;14584444444;15084444444
2318;14942121000;14584444444;15084444444
2319;14942122000;14584444444;15084444444
2320;14945092000;14584466666;15084466666
2321;14945108000;14584755555;15084755555
2322;14945109000;14584755555;15084755555
2323;14945110000;14584755555;15084755555
2324;14987626000;14626111111;15126111111
2325;14987630000;14626111111;15126111111
2326;14987630000;14626111111;15126111111
2327;14987631000;14626111111;15126111111
2328;14987632000;14626111111;15126111111
2329;14987633000;14626111111;15126111111
2330;14987634000;14626111111;15126111111
2331;14987832000;14626122222;15126122222
2332;14987847000;14626500000;15126500000
2333;14987848000;14626500000;15126500000
2334;14987849000;14626500000;15126500000
2335;14989715000;14667788888;15167788888
2336;14989718000;14667788888;15167788888
2337;14989719000;14667788888;15167788888
2338;15052351000;14667788888;15167788888
2339;15052609000;14667788888;15167788888
2340;15052865000;14667788888;15167788888
2341;15053095000;14667788888;15167788888
2342;15103580000;14667811111;15167811111
2346;15103596000;14709444444;15209444444
2347;15103597000;14709444444;15209444444
2348;15103598000;14709444444;15209444444
2349;15103599000;14709444444;15209444444
2350;15103600000;14709444444;15209444444
2351;15103600000;14709444444;15209444444
2352;15103602000;14709444444;15209444444
2353;15107870000;14709466666;15209466666
2354;15107875000;14709777777;15209777777
2356;15108240000;14709777777;15209777777
2357;15108453000;14751111111;15251111111
2358;15108456000;14751111111;15251111111
2360;15108547000;14751111111;15251111111
2361;15108549000;14751111111;15251111111
2362;15108550000;14751111111;15251111111
2363;15108551000;14751111111;15251111111
2364;15109349000;14751122222;15251122222
2365;15213096000;14751466666;15251466666
2366;15213707000;14751466666;15251466666
2367;15213995000;14751466666;15251466666
2368;15305845000;14792766666;15292766666
2369;15305848000;14792766666;15292766666
2370;15305849000;14792766666;15292766666
2371;15305850000;14792766666;15292766666
2372;15305851000;14792766666;15292766666
2373;15305852000;14792766666;15292766666
2374;15305853000;14792766666;15292766666
2375;15306067000;14792788888;15292788888
2376;15306082000;14793111111;15293111111
2377;15306083000;14793111111;15293111111
2378;15306085000;14793111111;15293111111
2379;15306095000;14834466666;15334466666
2380;15306097000;14834466666;15334466666
2381;15306115000;14834466666;15334466666
2382;15306116000;14834466666;15334466666
2383;15306117000;14834466666;15334466666
2384;15306118000;14834466666;15334466666
2385;15306119000;14834466666;15334466666
2386;15306245000;14834488888;15334488888
2388;15306260000;14834766666;15334766666
2389;15306262000;14834766666;15334766666
2390;15424109000;14876122222;15376122222
2391;15424112000;14876122222;15376122222
2392;15424113000;14876122222;15376122222
2393;15424114000;14876122222;15376122222
2394;15424115000;14876122222;15376122222
2395;15424116000;14876122222;15376122222
2396;15424117000;14876122222;15376122222
2397;15426161000;14876133333;15376133333
2398;15426176000;14876455555;15376455555
2399;15426177000;14876455555;15376455555
2400;15426178000;14876455555;15376455555
2401;15428003000;14917777777;15417777777
2402;15428006000;14917777777;15417777777
2403;15428007000;14917777777;15417777777
2404;15428008000;14917777777;15417777777
2405;15428009000;14917777777;15417777777
2406;15428010000;14917777777;15417777777
2407;15428011000;14917777777;15417777777
2408;15430340000;14917788888;15417788888
2409;15430355000;14918122222;15418122222
2410;15430356000;14918122222;15418122222
2411;15430357000;14918122222;15418122222
2412;15585864000;14959444444;15459444444
2414;15586036000;14959444444;15459444444
2415;15586039000;14959444444;15459444444
2416;15586051000;14959444444;15459444444
2417;15586052000;14959444444;15459444444
2418;15586053000;14959444444;15459444444
2419;15588708000;14959466666;15459466666
2420;15588723000;14959777777;15459777777
2421;15588724000;14959777777;15459777777
2422;15588725000;14959777777;15459777777
2423;15590082000;15001122222;15501122222
2424;15590085000;15001122222;15501122222
2425;15590086000;15001122222;15501122222
2426;15590087000;15001122222;15501122222
2427;15590088000;15001122222;15501122222
2428;15590089000;15001122222;15501122222
2429;15590090000;15001122222;15501122222
2430;15591405000;15001133333;15501133333
2431;15591421000;15001444444;15501444444
2432;15591422000;15001444444;15501444444
2433;15696186000;15001444444;15501444444
2434;15746840000;15042788888;15542788888
2435;15746844000;15042788888;15542788888
2436;15746845000;15042788888;15542788888
2437;15746846000;15042788888;15542788888
2438;15746847000;15042788888;15542788888
2439;15746847000;15042788888;15542788888
2440;15746848000;15042788888;15542788888
2441;15748870000;15042800000;15542800000
2442;15748885000;15043144444;15543144444
2443;15748886000;15043144444;15543144444
2444;15748887000;15043144444;15543144444
2445;15751696000;15084444444;15584444444
2446;15751699000;15084444444;15584444444
2447;15751700000;15084444444;15584444444
2448;15751701000;15084444444;15584444444
2449;15751702000;15084444444;15584444444
2450;15751703000;15084444444;15584444444
2451;15856901000;15084444444;15584444444
2453;15907462000;15084766666;15584766666
2454;15907465000;15084766666;15584766666
2455;15907466000;15084766666;15584766666
2456;15908102000;15126111111;15626111111
2457;15908105000;15126111111;15626111111
2458;15908106000;15126111111;15626111111
2459;15908107000;15126111111;15626111111
2460;15908108000;15126111111;15626111111
2461;15908109000;15126111111;15626111111
2462;15908110000;15126111111;15626111111
2463;15912671000;15126122222;15626122222
2464;15912686000;15126455555;15626455555
2465;15912688000;15126455555;15626455555
2467;15954389000;15167788888;15667788888
2468;16017624000;15167788888;15667788888
2469;16017932000;15167788888;15667788888
2470;16018173000;15167788888;15667788888
2471;16018409000;15167788888;15667788888
2472;16018414000;15167788888;15667788888
2473;16018739000;15167788888;15667788888
2475;16072386000;15168100000;15668100000
2476;16072389000;15168100000;15668100000
2477;16072390000;15168100000;15668100000
2478;16073149000;15209444444;15709444444
2479;16073153000;15209444444;15709444444
2480;16073154000;15209444444;15709444444
2481;16073154000;15209444444;15709444444
2482;16073155000;15209444444;15709444444
2483;16073156000;15209444444;15709444444
2484;16073157000;15209444444;15709444444
2485;16074095000;15209466666;15709466666
2486;16178880000;15209755555;15709755555
2487;16178883000;15209755555;15709755555
2488;16179128000;15209755555;15709755555
2489;16271045000;15251122222;15751122222
2490;16271048000;15251122222;15751122222
2491;16271050000;15251122222;15751122222
2492;16271051000;15251122222;15751122222
2493;16271052000;15251122222;15751122222
2494;16271053000;15251122222;15751122222
2496;16271252000;15251133333;15751133333
2497;16271267000;15251477777;15751477777
2498;16271268000;15251477777;15751477777
2499;16271269000;15251477777;15751477777
2500;16275803000;15292777777;15792777777
2501;16275807000;15292777777;15792777777
2502;16339653000;15292777777;15792777777
2503;16339899000;15292777777;15792777777
2504;16340162000;15292777777;15792777777
2505;16340528000;15292777777;15792777777
2506;16341468000;15292777777;15792777777
2507;16394032000;15292800000;15792800000
2508;16394037000;15293144444;15793144444
2509;16394038000;15293144444;15793144444
2510;16394040000;15293144444;15793144444
2511;16395394000;15334455555;15834455555
2512;16395398000;15334455555;15834455555
2513;16395399000;15334455555;15834455555
2514;16395400000;15334455555;15834455555
2515;16501336000;15334455555;15834455555
2516;16501571000;15334455555;15834455555
2517;16501573000;15334455555;15834455555
2518;16554701000;15334477777;15834477777
2520;16555895000;15334755555;15834755555
2521;16555908000;15334755555;15834755555
2522;16598276000;15376122222;15876122222
2523;16598280000;15376122222;15876122222
2524;16665772000;15376122222;15876122222
2525;16666311000;15376122222;15876122222
2526;16667397000;15376122222;15876122222
2527;16667669000;15376122222;15876122222
2528;16667672000;15376122222;15876122222
2529;16718118000;15376133333;15876133333
2530;16826402000;15376477777;15876477777
2531;16826954000;15376477777;15876477777
2532;16828150000;15376477777;15876477777
2533;16878741000;15417777777;15917777777
2534;16878745000;15417777777;15917777777
2535;16987173000;15417777777;15917777777
2536;16987691000;15417777777;15917777777
2537;16988871000;15417777777;15917777777
2538;16989113000;15417777777;15917777777
2539;16989116000;15417777777;15917777777
2540;17198267000;15417788888;15917788888
2541;17198283000;15418122222;15918122222
2542;17198284000;15418122222;15918122222
2543;17198285000;15418122222;15918122222
2544;17241441000;15459477777;15959477777
2545;17241444000;15459477777;15959477777
2546;17308702000;15459477777;15959477777
2547;17309146000;15459477777;15959477777
2549;17360065000;15459477777;15959477777
2550;17360068000;15459477777;15959477777
2551;17360661000;15459500000;15959500000
2552;17469378000;15459922222;15959922222
2553;17469881000;15459922222;15959922222
2554;17471014000;15459922222;15959922222
2555;17521623000;15501111111;16001111111
2556;17521626000;15501111111;16001111111
2557;17630149000;15501111111;16001111111
2558;17630670000;15501111111;16001111111
2559;17631762000;15501111111;16001111111
2560;17631986000;15501111111;16001111111
2561;17631988000;15501111111;16001111111
2562;17841240000;15501133333;16001133333
2563;17841255000;15501444444;16001444444
2564;17841256000;15501444444;16001444444
2565;17841257000;15501444444;16001444444
2566;17884346000;15542777777;16042777777
2567;17951667000;15542777777;16042777777
2568;17952109000;15542777777;16042777777
2569;17953182000;15542777777;16042777777
2570;17953411000;15542777777;16042777777
2571;17953672000;15542777777;16042777777
2572;18112430000;15542777777;16042777777
2573;18164147000;15542788888;16042788888
2574;18164162000;15543100000;16043100000
2575;18164163000;15543100000;16043100000
2576;18273610000;15543100000;16043100000
2577;18323992000;15584444444;16084444444
2625;18488481000;15751111111;16251111111
2701;18684725000;16042788888;16542788888
2779;18732020000;16334455555;16834455555
2780;18732023000;16334455555;16834455555
2782;18732223000;16334466666;16834466666
2783;18732238000;16334733333;16834733333
2784;18732240000;16334733333;16834733333
2785;18732240000;16334733333;16834733333
2787;18737497000;16376122222;16876122222
2788;18737500000;16376122222;16876122222
2789;18737509000;16376122222;16876122222
2790;18737510000;16376122222;16876122222
2791;18737511000;16376122222;16876122222
2792;18737512000;16376122222;16876122222
2793;18737633000;16376133333;16876133333
2794;18737649000;16376455555;16876455555
2795;18737650000;16376455555;16876455555
2796;18737651000;16376455555;16876455555
2797;18737953000;16417788888;16917788888
2798;18737957000;16417788888;16917788888
2799;18737958000;16417788888;16917788888
2800;18737959000;16417788888;16917788888
2801;18737960000;16417788888;16917788888
2802;18737960000;16417788888;16917788888
2803;18737961000;16417788888;16917788888
2804;18805393000;16417800000;16917800000
2860;18805398000;16626455555;17126455555
2861;18805399000;16626455555;17126455555
2862;18805400000;16626455555;17126455555
2863;19042292000;16667777777;17167777777
2939;19167728000;16918088888;17418088888
3016;19204127000;17209733333;17709733333
3017;19210547000;17251111111;17751111111
3018;19210551000;17251111111;17751111111
3019;19210552000;17251111111;17751111111
3020;19210553000;17251111111;17751111111
3021;19210554000;17251111111;17751111111
3022;19210555000;17251111111;17751111111
3023;19210556000;17251111111;17751111111
3024;19210711000;17251133333;17751133333
3025;19210717000;17251422222;17751422222
3027;19210921000;17251422222;17751422222
3028;19211754000;17292777777;17792777777
3029;19211758000;17292777777;17792777777
3030;19211759000;17292777777;17792777777
3031;19211760000;17292777777;17792777777
3032;19211760000;17292777777;17792777777
3033;19211762000;17292777777;17792777777
3034;19211763000;17292777777;17792777777
3035;19211838000;17292800000;17792800000
3036;19211841000;17293077777;17793077777
3037;19211842000;17293077777;17793077777
3038;19211843000;17293077777;17793077777
3039;19211852000;17334444444;17834444444
3040;19237696000;17334444444;17834444444
3041;19238369000;17334444444;17834444444
3042;19238372000;17334444444;17834444444
3043;19238594000;17334444444;17834444444
3044;19239226000;17334444444;17834444444
3045;19239228000;17334444444;17834444444
3046;19289876000;17334455555;17834455555
3094;19289891000;17542788888;18042788888
3095;19289892000;17542788888;18042788888
3096;19289893000;17542788888;18042788888
3097;19289894000;17542788888;18042788888
3098;19289895000;17542788888;18042788888
3099;19289896000;17542788888;18042788888
3100;19289897000;17542788888;18042788888
3101;19492201000;17542800000;18042800000
3171;19492216000;17834455555;18334455555
3172;19492218000;17834455555;18334455555
3173;19492219000;17834455555;18334455555
3174;19492220000;17834455555;18334455555
3175;19492221000;17834455555;18334455555
3176;19492222000;17834455555;18334455555
3177;19492223000;17834455555;18334455555
3178;19651330000;17834466666;18334466666
3249;19651345000;18126111111;18626111111
3250;19651347000;18126111111;18626111111
3251;19651348000;18126111111;18626111111
3252;19651349000;18126111111;18626111111
3253;19651350000;18126111111;18626111111
3254;19651351000;18126111111;18626111111
3255;19688418000;18126122222;18626122222
3256;19688434000;18126433333;18626433333
3257;19688435000;18126433333;18626433333
3258;19688436000;18126433333;18626433333
3259;19694858000;18167777777;18667777777
3260;19694872000;18167777777;18667777777
3261;19694873000;18167777777;18667777777
3263;19694889000;18167777777;18667777777
3264;19694890000;18167777777;18667777777
3265;19694891000;18167777777;18667777777
3266;19695116000;18167788888;18667788888
3267;19695131000;18168100000;18668100000
3268;19695132000;18168100000;18668100000
3269;19695133000;18168100000;18668100000
3270;19696113000;18209533333;18709533333
3271;19696117000;18209533333;18709533333
3272;19696118000;18209533333;18709533333
3273;19719390000;18209533333;18709533333
3274;19720054000;18209533333;18709533333
3275;19720480000;18209533333;18709533333
3276;19720500000;18209533333;18709533333
3277;19771448000;18209555555;18709555555
3326;19771463000;18417788888;18917788888
3327;19771464000;18417788888;18917788888
3328;19771465000;18417788888;18917788888
3333;19973099000;18418100000;18918100000
3407;20134414000;18709455555;19209455555
3484;20171210000;19001166666;19501166666
3485;20171214000;19001166666;19501166666
3486;20171413000;19001288888;19501288888
3487;20171428000;19001622222;19501622222
3488;20171429000;19001622222;19501622222
3489;20171430000;19001622222;19501622222
3490;20177604000;19042788888;19542788888
3491;20177607000;19042788888;19542788888
3492;20177618000;19042788888;19542788888
3493;20177619000;19042788888;19542788888
3496;20177684000;19042788888;19542788888
3497;20177836000;19042822222;19542822222
3498;20177838000;19043122222;19543122222
3499;20177839000;19043122222;19543122222
3500;20177840000;19043122222;19543122222
3501;20178812000;19084477777;19584477777
3502;20178814000;19084477777;19584477777
3503;20178815000;19084477777;19584477777
3504;20178816000;19084477777;19584477777
3505;20178817000;19084477777;19584477777
3506;20178818000;19084477777;19584477777
3507;20178819000;19084477777;19584477777
3508;20178959000;19084500000;19584500000
3509;20202228000;19084822222;19584822222
3510;20202614000;19084822222;19584822222
3511;20203748000;19084822222;19584822222
3512;20294060000;19126111111;19626111111
3565;20454482000;19293100000;19793100000
3643;20615943000;19584744444;20084744444
3721;20660459000;19917800000;20417800000
3722;20660462000;19917800000;20417800000
3723;20660463000;19917800000;20417800000
3724;20660464000;19917800000;20417800000
3725;20660465000;19917800000;20417800000
3726;20660466000;19917800000;20417800000
3727;20660467000;19917800000;20417800000
3728;20660674000;19917811111;20417811111
3729;20660689000;19918100000;20418100000
3730;20660690000;19918100000;20418100000
3731;20660691000;19918100000;20418100000
3732;20661459000;19959444444;20459444444
3733;20661462000;19959444444;20459444444
3734;20661463000;19959444444;20459444444
3735;20661464000;19959444444;20459444444
3736;20661465000;19959444444;20459444444
3737;20661466000;19959444444;20459444444
3738;20661467000;19959444444;20459444444
3739;20661672000;19959466666;20459466666
3740;20661687000;19959744444;20459744444
3741;20661688000;19959744444;20459744444
3742;20661689000;19959744444;20459744444
3743;20661701000;20001133333;20501133333
3745;20684995000;20001133333;20501133333
3746;20685635000;20001133333;20501133333
3747;20685658000;20001133333;20501133333
3748;20686362000;20001133333;20501133333
3749;20687236000;20001133333;20501133333
3750;20737689000;20001144444;20501144444
3800;20737696000;20209444444;20709444444
3801;20737697000;20209444444;20709444444
3802;20737698000;20209444444;20709444444
3803;20737699000;20209444444;20709444444
3804;20737699000;20209444444;20709444444
3805;20940468000;20209466666;20709466666
3878;20940491000;20501122222;21001122222
3879;20940493000;20501122222;21001122222
3880;20940494000;20501122222;21001122222
3883;21107080000;20501411111;21001411111
3955;21138412000;20792788888;21292788888
3956;21138416000;20792788888;21292788888
3957;21138427000;20792788888;21292788888
3960;21138593000;20793088888;21293088888
3961;21138596000;20793088888;21293088888
3962;21138597000;20793088888;21293088888
3963;21152312000;20834455555;21334455555
3964;21152315000;20834455555;21334455555
3965;21152316000;20834455555;21334455555
3966;21152317000;20834455555;21334455555
3967;21152318000;20834455555;21334455555
3968;21152319000;20834455555;21334455555
3970;21152525000;20834466666;21334466666
3971;21152540000;20834733333;21334733333
3972;21152541000;20834733333;21334733333
3973;21152542000;20834733333;21334733333
3974;21152554000;20876122222;21376122222
3975;21152566000;20876122222;21376122222
3976;21152567000;20876122222;21376122222
3977;21152568000;20876122222;21376122222
3978;21152569000;20876122222;21376122222
3979;21152570000;20876122222;21376122222
3980;21152571000;20876122222;21376122222
3981;21218800000;20876133333;21376133333
4014;21343213000;21001133333;21501133333
4056;21343220000;21167788888;21667788888
4057;21343221000;21167788888;21667788888
4058;21488890000;21167800000;21667800000
4059;21488896000;21168100000;21668100000
4060;21488898000;21168100000;21668100000
4061;21488899000;21168100000;21668100000
4062;21518707000;21209455555;21709455555
4068;21518720000;21209455555;21709455555
4104;21651682000;21334766666;21834766666
4105;21651685000;21334766666;21834766666
4106;21651707000;21376122222;21876122222
4107;21651708000;21376122222;21876122222
4108;21651710000;21376122222;21876122222
4109;21651711000;21376122222;21876122222
4110;21651712000;21376122222;21876122222
4111;21651713000;21376122222;21876122222
4112;21651714000;21376122222;21876122222
4113;21825337000;21376144444;21876144444
4142;21825343000;21501144444;22001144444
4179;22098350000;21626144444;22126144444
4184;22098366000;21667788888;22167788888
4225;22253095000;21793122222;22293122222
4267;22449849000;21959466666;22459466666
4309;22449856000;22126122222;22626122222
4310;22449857000;22126122222;22626122222
4311;22647452000;22126133333;22626133333
4326;22647467000;22209455555;22709455555
4399;23022254000;22459500000;22959500000
4405;23022269000;22501122222;23001122222
4474;23319057000;22751122222;23251122222
4563;23700828000;23084455555;23584455555
4642;24029932000;23376422222;23876422222
4725;24401887000;23709455555;24209455555
4730;24486990000;23709744444;24209744444
4852;24976588000;24168122222;24668122222
4982;25518779000;24667800000;25167800000
5117;25518795000;25168088888;25668088888
5118;26057092000;25209444444;25709444444
5267;26589964000;25751133333;26251133333
5388;27124247000;26209444444;26709444444
5450;27427469000;26459455555;26959455555
5481;27568245000;26584455555;27084455555
5482;27568248000;26584455555;27084455555
5483;27568249000;26584455555;27084455555
5484;27568250000;26584455555;27084455555
5485;27568251000;26584455555;27084455555
5486;27568254000;26584455555;27084455555
5487;27568255000;26584455555;27084455555
5488;27586709000;26584477777;27084477777
5489;27586724000;26584744444;27084744444
5490;27586725000;26584744444;27084744444
5491;27586726000;26584744444;27084744444
5492;27587432000;26626122222;27126122222
5493;27587436000;26626122222;27126122222
5494;27587437000;26626122222;27126122222
5495;27587438000;26626122222;27126122222
5496;27587439000;26626122222;27126122222
5497;27587440000;26626122222;27126122222
5498;27587441000;26626122222;27126122222
5499;27588954000;26626133333;27126133333
