seqnum;now;rtptime;deadline
0;27799707000;23957611111;24457611111
1;27799711000;23957611111;24457611111
2;28049995000;23957611111;24457611111
3;28100713000;23988755555;24488755555
4;28100732000;23988755555;24488755555
5;28100733000;23988755555;24488755555
6;28350447000;23988755555;24488755555
7;28350664000;23988755555;24488755555
8;28351052000;23988755555;24488755555
9;28351274000;23988755555;24488755555
10;28401747000;23988777777;24488777777
11;28401762000;23989122222;24489122222
12;28401763000;23989122222;24489122222
13;28401764000;23989122222;24489122222
14;28701499000;24030411111;24530411111
15;28701503000;24030411111;24530411111
16;28701504000;24030411111;24530411111
17;28701505000;24030411111;24530411111
18;28701506000;24030411111;24530411111
19;28701507000;24030411111;24530411111
20;28701508000;24030411111;24530411111
21;28701705000;24030433333;24530433333
22;28701720000;24030811111;24530811111
23;28701721000;24030811111;24530811111
24;28701722000;24030811111;24530811111
25;28743117000;24072077777;24572077777
26;28951828000;24072077777;24572077777
27;28952261000;24072077777;24572077777
28;28952482000;24072077777;24572077777
29;28952662000;24072077777;24572077777
30;28953012000;24072077777;24572077777
31;28953014000;24072077777;24572077777
32;29003715000;24072100000;24572100000
33;29003731000;24072433333;24572433333
34;29003732000;24072433333;24572433333
35;29003733000;24072433333;24572433333
36;29047033000;24113744444;24613744444
37;29047078000;24113744444;24613744444
38;29252164000;24113744444;24613744444
39;29252713000;24113744444;24613744444
40;29252896000;24113744444;24613744444
41;29253095000;24113744444;24613744444
42;29253354000;24113744444;24613744444
43;29304037000;24113766666;24613766666
44;29304061000;24114111111;24614111111
45;29304063000;24114111111;24614111111
46;29304064000;24114111111;24614111111
47;29345484000;24155411111;24655411111
48;29345487000;24155411111;24655411111
49;29345489000;24155411111;24655411111
50;29345490000;24155411111;24655411111
51;29345491000;24155411111;24655411111
52;29553194000;24155411111;24655411111
53;29553391000;24155411111;24655411111
54;29604039000;24155433333;24655433333
55;29604061000;24155744444;24655744444
56;29604063000;24155744444;24655744444
57;29604064000;24155744444;24655744444
58;29645531000;24197077777;24697077777
59;29645535000;24197077777;24697077777
60;29645536000;24197077777;24697077777
61;29645537000;24197077777;24697077777
62;29645538000;24197077777;24697077777
63;29645539000;24197077777;24697077777
64;29645540000;24197077777;24697077777
65;29645740000;24197100000;24697100000
66;29853140000;24197411111;24697411111
67;29853637000;24197411111;24697411111
68;29853845000;24197411111;24697411111
69;29945000000;24238744444;24738744444
70;29945003000;24238744444;24738744444
71;29945004000;24238744444;24738744444
72;29945005000;24238744444;24738744444
73;29945006000;24238744444;24738744444
74;29945007000;24238744444;24738744444
75;29945008000;24238744444;24738744444
76;29945214000;24238766666;24738766666
77;29945229000;24239111111;24739111111
78;29945230000;24239111111;24739111111
79;29945231000;24239111111;24739111111
80;29986259000;24280411111;24780411111
81;29986262000;24280411111;24780411111
83;29986622000;24280411111;24780411111
84;29986625000;24280411111;24780411111
85;29986637000;24280411111;24780411111
86;29986638000;24280411111;24780411111
87;29986843000;24280433333;24780433333
88;29986846000;24280744444;24780744444
89;29986847000;24280744444;24780744444
90;30153605000;24280744444;24780744444
91;30204429000;24322077777;24822077777
94;30204432000;24322077777;24822077777
95;30204433000;24322077777;24822077777
96;30204435000;24322077777;24822077777
97;30204435000;24322077777;24822077777
98;30204635000;24322100000;24822100000
99;30204650000;24322400000;24822400000
100;30204651000;24322400000;24822400000
101;30204653000;24322400000;24822400000
102;30246031000;24363744444;24863744444
103;30246035000;24363744444;24863744444
104;30246036000;24363744444;24863744444
105;30246037000;24363744444;24863744444
106;30246038000;24363744444;24863744444
107;30246039000;24363744444;24863744444
108;30246058000;24363744444;24863744444
109;30246272000;24363766666;24863766666
110;30246275000;24364022222;24864022222
111;30246276000;24364022222;24864022222
112;30246277000;24364022222;24864022222
113;30287563000;24405433333;24905433333
114;30287567000;24405433333;24905433333
115;30454299000;24405433333;24905433333
116;30454486000;24405433333;24905433333
117;30454901000;24405433333;24905433333
118;30455336000;24405433333;24905433333
119;30455542000;24405433333;24905433333
120;30506277000;24405444444;24905444444
124;30506297000;24447077777;24947077777
125;30506299000;24447077777;24947077777
126;30506300000;24447077777;24947077777
127;30506301000;24447077777;24947077777
128;30506303000;24447077777;24947077777
129;30506305000;24447077777;24947077777
130;30506306000;24447077777;24947077777
131;30547764000;24447100000;24947100000
132;30547780000;24447400000;24947400000
133;30547781000;24447400000;24947400000
134;30547782000;24447400000;24947400000
135;30589189000;24488744444;24988744444
136;30589193000;24488744444;24988744444
137;30589194000;24488744444;24988744444
139;30589552000;24488744444;24988744444
140;30589556000;24488744444;24988744444
141;30754614000;24488744444;24988744444
142;30805448000;24488766666;24988766666
148;30805452000;24530411111;25030411111
149;30805454000;24530411111;25030411111
150;30805455000;24530411111;25030411111
151;30805456000;24530411111;25030411111
152;30805457000;24530411111;25030411111
153;30847059000;24530433333;25030433333
154;30847065000;24530744444;25030744444
155;30847066000;24530744444;25030744444
156;30847067000;24530744444;25030744444
157;30888442000;24572077777;25072077777
158;30888445000;24572077777;25072077777
159;30888446000;24572077777;25072077777
160;30888447000;24572077777;25072077777
161;30888448000;24572077777;25072077777
162;30888449000;24572077777;25072077777
163;30888450000;24572077777;25072077777
164;30888649000;24572100000;25072100000
165;30888664000;24572411111;25072411111
166;30888666000;24572411111;25072411111
167;30888666000;24572411111;25072411111
168;30929424000;24613744444;25113744444
169;30929428000;24613744444;25113744444
170;31055307000;24613744444;25113744444
171;31055696000;24613744444;25113744444
172;31055894000;24613744444;25113744444
173;31056330000;24613744444;25113744444
174;31056532000;24613744444;25113744444
177;31107292000;24614066666;25114066666
179;31148575000;24655411111;25155411111
180;31148579000;24655411111;25155411111
181;31148580000;24655411111;25155411111
182;31148581000;24655411111;25155411111
183;31148582000;24655411111;25155411111
184;31148583000;24655411111;25155411111
185;31148584000;24655411111;25155411111
186;31148804000;24655433333;25155433333
187;31148819000;24655733333;25155733333
188;31148820000;24655733333;25155733333
189;31148821000;24655733333;25155733333
190;31190069000;24697077777;25197077777
191;31190073000;24697077777;25197077777
192;31190074000;24697077777;25197077777
193;31190075000;24697077777;25197077777
194;31190076000;24697077777;25197077777
195;31190077000;24697077777;25197077777
196;31190078000;24697077777;25197077777
197;31190276000;24697100000;25197100000
198;31190291000;24697388888;25197388888
199;31190292000;24697388888;25197388888
200;31355782000;24697388888;25197388888
201;31406553000;24738744444;25238744444
212;31448160000;24780411111;25280411111
213;31448163000;24780411111;25280411111
214;31448165000;24780411111;25280411111
215;31448165000;24780411111;25280411111
216;31448166000;24780411111;25280411111
217;31448167000;24780411111;25280411111
218;31448168000;24780411111;25280411111
219;31448368000;24780433333;25280433333
220;31448374000;24780755555;25280755555
221;31448385000;24780755555;25280755555
222;31448386000;24780755555;25280755555
223;31489672000;24822088888;25322088888
224;31489675000;24822088888;25322088888
225;31489676000;24822088888;25322088888
226;31489677000;24822088888;25322088888
227;31489678000;24822088888;25322088888
228;31489679000;24822088888;25322088888
229;31489680000;24822088888;25322088888
230;31490040000;24822100000;25322100000
231;31656197000;24822433333;25322433333
232;31656421000;24822433333;25322433333
233;31656810000;24822433333;25322433333
234;31748040000;24863744444;25363744444
245;31789298000;24905411111;25405411111
246;31789301000;24905411111;25405411111
247;31789302000;24905411111;25405411111
248;31789303000;24905411111;25405411111
249;31789304000;24905411111;25405411111
250;31789305000;24905411111;25405411111
251;31789306000;24905411111;25405411111
252;31789504000;24905433333;25405433333
253;31789519000;24905755555;25405755555
254;31789520000;24905755555;25405755555
255;31789521000;24905755555;25405755555
256;31830287000;24947077777;25447077777
257;31830291000;24947077777;25447077777
258;31830292000;24947077777;25447077777
259;31830293000;24947077777;25447077777
260;31830294000;24947077777;25447077777
261;31830295000;24947077777;25447077777
262;31830295000;24947077777;25447077777
263;31830495000;24947100000;25447100000
264;31830510000;24947400000;25447400000
265;31830511000;24947400000;25447400000
266;31956699000;24947400000;25447400000
267;32007447000;24988755555;25488755555
282;32049038000;25030422222;25530422222
283;32049041000;25030422222;25530422222
284;32049050000;25030422222;25530422222
285;32049263000;25030444444;25530444444
286;32049278000;25030811111;25530811111
287;32049279000;25030811111;25530811111
288;32049280000;25030811111;25530811111
289;32090521000;25072077777;25572077777
290;32090524000;25072077777;25572077777
291;32090525000;25072077777;25572077777
292;32090526000;25072077777;25572077777
293;32090527000;25072077777;25572077777
294;32090528000;25072077777;25572077777
295;32090529000;25072077777;25572077777
296;32090727000;25072100000;25572100000
297;32090742000;25072400000;25572400000
298;32090743000;25072400000;25572400000
299;32090744000;25072400000;25572400000
300;32131531000;25113744444;25613744444
301;32131535000;25113744444;25613744444
302;32131535000;25113744444;25613744444
303;32256965000;25113744444;25613744444
305;32257799000;25113744444;25613744444
306;32257997000;25113744444;25613744444
307;32308667000;25113766666;25613766666
322;32308682000;25197077777;25697077777
325;32392030000;25197077777;25697077777
326;32392033000;25197077777;25697077777
327;32392053000;25197077777;25697077777
328;32392054000;25197077777;25697077777
329;32392255000;25197100000;25697100000
330;32392271000;25197411111;25697411111
331;32392272000;25197411111;25697411111
332;32392273000;25197411111;25697411111
333;32432610000;25238744444;25738744444
334;32432614000;25238744444;25738744444
335;32432615000;25238744444;25738744444
336;32432616000;25238744444;25738744444
337;32432617000;25238744444;25738744444
338;32432618000;25238744444;25738744444
339;32432619000;25238744444;25738744444
340;32432739000;25238766666;25738766666
341;32432745000;25239055555;25739055555
342;32557609000;25239055555;25739055555
343;32558456000;25239055555;25739055555
344;32608958000;25280411111;25780411111
359;32650863000;25322077777;25822077777
360;32650866000;25322077777;25822077777
361;32650867000;25322077777;25822077777
362;32650949000;25322100000;25822100000
363;32650954000;25322388888;25822388888
364;32650955000;25322388888;25822388888
365;32650956000;25322388888;25822388888
366;32692097000;25363744444;25863744444
367;32692100000;25363744444;25863744444
368;32692101000;25363744444;25863744444
369;32692102000;25363744444;25863744444
370;32692103000;25363744444;25863744444
371;32692104000;25363744444;25863744444
372;32692105000;25363744444;25863744444
373;32692229000;25363766666;25863766666
374;32692234000;25364000000;25864000000
375;32692235000;25364000000;25864000000
376;32692236000;25364000000;25864000000
377;32733057000;25405411111;25905411111
378;32733061000;25405411111;25905411111
380;32733216000;25405411111;25905411111
381;32857906000;25405411111;25905411111
383;32859032000;25405411111;25905411111
384;32909612000;25405433333;25905433333
399;32909618000;25488744444;25988744444
400;32909620000;25488744444;25988744444
401;32909621000;25488744444;25988744444
402;32909622000;25488744444;25988744444
403;32909623000;25488744444;25988744444
404;32909624000;25488744444;25988744444
405;32909625000;25488744444;25988744444
406;32992921000;25488766666;25988766666
407;32992927000;25489044444;25989044444
408;32992928000;25489044444;25989044444
409;32992929000;25489044444;25989044444
410;33033615000;25530411111;26030411111
411;33033619000;25530411111;26030411111
412;33033620000;25530411111;26030411111
413;33033621000;25530411111;26030411111
414;33033622000;25530411111;26030411111
415;33033623000;25530411111;26030411111
416;33033623000;25530411111;26030411111
417;33033744000;25530433333;26030433333
418;33033749000;25530744444;26030744444
419;33033751000;25530744444;26030744444
420;33158403000;25530744444;26030744444
421;33208942000;25572088888;26072088888
441;33250821000;25614077777;26114077777
442;33250825000;25614077777;26114077777
443;33292026000;25655411111;26155411111
444;33292030000;25655411111;26155411111
445;33292031000;25655411111;26155411111
446;33292032000;25655411111;26155411111
447;33292033000;25655411111;26155411111
448;33292034000;25655411111;26155411111
449;33292034000;25655411111;26155411111
450;33292164000;25655433333;26155433333
451;33292169000;25655722222;26155722222
452;33292170000;25655722222;26155722222
453;33292171000;25655722222;26155722222
454;33333018000;25697077777;26197077777
455;33333022000;25697077777;26197077777
456;33333023000;25697077777;26197077777
457;33333024000;25697077777;26197077777
458;33333025000;25697077777;26197077777
459;33333026000;25697077777;26197077777
460;33459094000;25697077777;26197077777
461;33510115000;25697100000;26197100000
476;33510121000;25780411111;26280411111
477;33510122000;25780411111;26280411111
478;33510123000;25780411111;26280411111
480;33593572000;25780411111;26280411111
481;33593575000;25780411111;26280411111
482;33593586000;25780411111;26280411111
483;33593718000;25780433333;26280433333
484;33593724000;25780755555;26280755555
485;33593725000;25780755555;26280755555
486;33593726000;25780755555;26280755555
487;33634099000;25822077777;26322077777
488;33634102000;25822077777;26322077777
489;33634103000;25822077777;26322077777
490;33634104000;25822077777;26322077777
491;33634105000;25822077777;26322077777
492;33634106000;25822077777;26322077777
493;33634107000;25822077777;26322077777
494;33634225000;25822100000;26322100000
495;33634230000;25822400000;26322400000
496;33634232000;25822400000;26322400000
497;33634233000;25822400000;26322400000
498;33673949000;25863744444;26363744444
499;33759568000;25863744444;26363744444
500;33759785000;25863744444;26363744444
501;33760402000;25863744444;26363744444
502;33760774000;25863744444;26363744444
504;33761653000;25863744444;26363744444
507;33812334000;25864033333;26364033333
520;33895395000;25947077777;26447077777
523;33895399000;25947077777;26447077777
524;33895400000;25947077777;26447077777
525;33895401000;25947077777;26447077777
526;33895402000;25947077777;26447077777
527;33895523000;25947100000;26447100000
528;33895528000;25947400000;26447400000
529;33895530000;25947400000;26447400000
530;33895531000;25947400000;26447400000
531;33936147000;25988755555;26488755555
532;33936150000;25988755555;26488755555
533;33936151000;25988755555;26488755555
534;33936152000;25988755555;26488755555
535;33936153000;25988755555;26488755555
536;33936154000;25988755555;26488755555
537;33936155000;25988755555;26488755555
538;34110167000;25988777777;26488777777
557;34110173000;26072077777;26572077777
558;34110174000;26072077777;26572077777
559;34110175000;26072077777;26572077777
560;34193451000;26072100000;26572100000
561;34193457000;26072388888;26572388888
562;34193458000;26072388888;26572388888
563;34193459000;26072388888;26572388888
564;34234183000;26113744444;26613744444
565;34234186000;26113744444;26613744444
566;34234188000;26113744444;26613744444
567;34234189000;26113744444;26613744444
568;34234190000;26113744444;26613744444
569;34234191000;26113744444;26613744444
570;34234192000;26113744444;26613744444
571;34234302000;26113766666;26613766666
572;34234308000;26114044444;26614044444
573;34234309000;26114044444;26614044444
574;34234310000;26114044444;26614044444
575;34274013000;26155411111;26655411111
576;34274017000;26155411111;26655411111
577;34274025000;26155411111;26655411111
578;34360497000;26155411111;26655411111
579;34360869000;26155411111;26655411111
580;34361518000;26155411111;26655411111
581;34361734000;26155411111;26655411111
582;34412480000;26155433333;26655433333
597;34412487000;26238744444;26738744444
598;34412488000;26238744444;26738744444
599;34412489000;26238744444;26738744444
600;34412490000;26238744444;26738744444
601;34412491000;26238744444;26738744444
602;34412501000;26238744444;26738744444
603;34412502000;26238744444;26738744444
604;34495782000;26238766666;26738766666
605;34495788000;26239066666;26739066666
606;34495789000;26239066666;26739066666
607;34495790000;26239066666;26739066666
608;34536478000;26280411111;26780411111
609;34536482000;26280411111;26780411111
610;34536483000;26280411111;26780411111
611;34536484000;26280411111;26780411111
612;34536485000;26280411111;26780411111
613;34536485000;26280411111;26780411111
614;34536486000;26280411111;26780411111
615;34536607000;26280433333;26780433333
616;34536612000;26280744444;26780744444
617;34660926000;26280744444;26780744444
618;34661329000;26280744444;26780744444
619;34712089000;26322077777;26822077777
638;34753926000;26364022222;26864022222
639;34753929000;26364022222;26864022222
640;34753930000;26364022222;26864022222
641;34795187000;26405411111;26905411111
642;34795190000;26405411111;26905411111
643;34795191000;26405411111;26905411111
644;34795192000;26405411111;26905411111
645;34795193000;26405411111;26905411111
646;34795194000;26405411111;26905411111
647;34795195000;26405411111;26905411111
648;34795316000;26405433333;26905433333
649;34795321000;26405744444;26905744444
650;34795322000;26405744444;26905744444
651;34795323000;26405744444;26905744444
652;34836158000;26447077777;26947077777
653;34836161000;26447077777;26947077777
654;34836162000;26447077777;26947077777
655;34836163000;26447077777;26947077777
656;34836165000;26447077777;26947077777
657;34961634000;26447077777;26947077777
660;35012935000;26447411111;26947411111
674;35095946000;26530411111;27030411111
675;35095950000;26530411111;27030411111
676;35095951000;26530411111;27030411111
677;35095952000;26530411111;27030411111
678;35095953000;26530411111;27030411111
679;35095954000;26530411111;27030411111
680;35095955000;26530411111;27030411111
681;35096073000;26530433333;27030433333
682;35096078000;26530755555;27030755555
683;35096080000;26530755555;27030755555
684;35096080000;26530755555;27030755555
685;35136719000;26572077777;27072077777
686;35136723000;26572077777;27072077777
687;35136724000;26572077777;27072077777
688;35136725000;26572077777;27072077777
689;35136726000;26572077777;27072077777
690;35136727000;26572077777;27072077777
691;35136728000;26572077777;27072077777
692;35136846000;26572100000;27072100000
693;35136851000;26572411111;27072411111
694;35136852000;26572411111;27072411111
695;35136853000;26572411111;27072411111
696;35312221000;26613744444;27113744444
718;35395547000;26697077777;27197077777
719;35395551000;26697077777;27197077777
720;35395552000;26697077777;27197077777
721;35395553000;26697077777;27197077777
722;35395554000;26697077777;27197077777
723;35395555000;26697077777;27197077777
724;35395555000;26697077777;27197077777
725;35395676000;26697100000;27197100000
726;35395681000;26697411111;27197411111
727;35395683000;26697411111;27197411111
728;35395684000;26697411111;27197411111
729;35436313000;26738744444;27238744444
730;35436317000;26738744444;27238744444
731;35436318000;26738744444;27238744444
732;35436319000;26738744444;27238744444
733;35436320000;26738744444;27238744444
734;35436321000;26738744444;27238744444
735;35562411000;26738744444;27238744444
736;35612968000;26738766666;27238766666
753;35612974000;26822088888;27322088888
754;35612976000;26822088888;27322088888
755;35612977000;26822088888;27322088888
756;35612978000;26822088888;27322088888
757;35612979000;26822088888;27322088888
759;35696718000;26822422222;27322422222
760;35696721000;26822422222;27322422222
761;35696722000;26822422222;27322422222
762;35737095000;26863744444;27363744444
763;35737099000;26863744444;27363744444
764;35737107000;26863744444;27363744444
765;35737108000;26863744444;27363744444
766;35737109000;26863744444;27363744444
767;35737110000;26863744444;27363744444
768;35737111000;26863744444;27363744444
769;35737214000;26863766666;27363766666
770;35737219000;26864044444;27364044444
771;35737221000;26864044444;27364044444
772;35737221000;26864044444;27364044444
773;35776962000;26905411111;27405411111
774;35776966000;26905411111;27405411111
775;35863165000;26905411111;27405411111
776;35863319000;26905411111;27405411111
777;35863867000;26905411111;27405411111
778;35864299000;26905411111;27405411111
779;35864975000;26905411111;27405411111
780;35915601000;26905433333;27405433333
795;35915607000;26988744444;27488744444
796;35915609000;26988744444;27488744444
797;35915610000;26988744444;27488744444
798;35915611000;26988744444;27488744444
799;35915621000;26988744444;27488744444
800;35915622000;26988744444;27488744444
801;35915623000;26988744444;27488744444
802;35998893000;26988766666;27488766666
803;35998898000;26989066666;27489066666
804;35998900000;26989066666;27489066666
805;35998901000;26989066666;27489066666
806;36039595000;27030411111;27530411111
807;36039599000;27030411111;27530411111
808;36039600000;27030411111;27530411111
809;36039601000;27030411111;27530411111
810;36039602000;27030411111;27530411111
811;36039603000;27030411111;27530411111
812;36039604000;27030411111;27530411111
813;36039724000;27030433333;27530433333
814;36163407000;27030766666;27530766666
817;36255206000;27072077777;27572077777
834;36296459000;27113744444;27613744444
835;36296565000;27113766666;27613766666
836;36296570000;27114055555;27614055555
837;36296572000;27114055555;27614055555
838;36296573000;27114055555;27614055555
839;36337444000;27155411111;27655411111
840;36337447000;27155411111;27655411111
841;36337448000;27155411111;27655411111
842;36337449000;27155411111;27655411111
843;36337451000;27155411111;27655411111
844;36337451000;27155411111;27655411111
845;36337452000;27155411111;27655411111
846;36337571000;27155433333;27655433333
847;36337576000;27155755555;27655755555
848;36337578000;27155755555;27655755555
849;36337579000;27155755555;27655755555
850;36377295000;27197077777;27697077777
851;36377299000;27197077777;27697077777
852;36377299000;27197077777;27697077777
853;36377301000;27197077777;27697077777
854;36464016000;27197077777;27697077777
855;36464997000;27197077777;27697077777
856;36465231000;27197077777;27697077777
857;36516214000;27197100000;27697100000
2860;36531381000;34780811111;35280811111
2861;36531383000;34780811111;35280811111
2862;36531384000;34780811111;35280811111
2863;36563752000;34822088888;35322088888
2864;36563755000;34822088888;35322088888
2865;36563756000;34822088888;35322088888
2866;36563757000;34822088888;35322088888
2867;36563758000;34822088888;35322088888
2868;36563759000;34822088888;35322088888
2869;36563760000;34822088888;35322088888
2870;36563872000;34822100000;35322100000
2871;36563877000;34822411111;35322411111
2873;36764324000;34822411111;35322411111
2874;36815587000;34863744444;35363744444
2892;36857256000;34905433333;35405433333
2893;36857263000;34905722222;35405722222
2894;36857264000;34905722222;35405722222
2895;36857265000;34905722222;35405722222
2896;36898708000;34947077777;35447077777
2897;36898712000;34947077777;35447077777
2898;36898713000;34947077777;35447077777
2899;36898714000;34947077777;35447077777
2900;36898715000;34947077777;35447077777
2901;36898716000;34947077777;35447077777
2902;36898717000;34947077777;35447077777
2903;36898839000;34947100000;35447100000
2904;36898844000;34947366666;35447366666
2905;36898846000;34947366666;35447366666
2906;36898847000;34947366666;35447366666
2907;36939689000;34988733333;35488733333
2908;36939693000;34988733333;35488733333
2909;36939694000;34988733333;35488733333
2910;36939695000;34988733333;35488733333
2911;37064782000;34988733333;35488733333
2912;37064997000;34988733333;35488733333
2913;37065772000;34988733333;35488733333
2914;37116331000;34988755555;35488755555
2929;37116337000;35072077777;35572077777
2930;37116338000;35072077777;35572077777
2931;37116339000;35072077777;35572077777
2932;37116358000;35072077777;35572077777
2933;37116359000;35072077777;35572077777
2934;37116360000;35072077777;35572077777
2935;37116361000;35072077777;35572077777
2936;37199643000;35072100000;35572100000
2937;37199649000;35072355555;35572355555
2938;37199650000;35072355555;35572355555
2939;37199651000;35072355555;35572355555
2940;37240364000;35113744444;35613744444
2941;37240368000;35113744444;35613744444
2942;37240369000;35113744444;35613744444
2943;37240370000;35113744444;35613744444
2944;37240371000;35113744444;35613744444
2945;37240372000;35113744444;35613744444
2946;37240373000;35113744444;35613744444
2947;37240492000;35113766666;35613766666
2948;37240497000;35114011111;35614011111
2949;37240499000;35114011111;35614011111
2950;37240500000;35114011111;35614011111
2951;37415806000;35155411111;35655411111
2973;37499149000;35238755555;35738755555
2974;37499152000;35238755555;35738755555
2975;37499153000;35238755555;35738755555
2976;37499154000;35238755555;35738755555
2977;37499155000;35238755555;35738755555
2978;37499156000;35238755555;35738755555
2979;37499157000;35238755555;35738755555
2980;37499279000;35238766666;35738766666
2981;37499284000;35239044444;35739044444
2982;37499285000;35239044444;35739044444
2983;37499286000;35239044444;35739044444
2984;37539893000;35280400000;35780400000
2985;37539896000;35280400000;35780400000
2986;37539897000;35280400000;35780400000
2987;37539898000;35280400000;35780400000
2988;37539900000;35280400000;35780400000
2989;37539901000;35280400000;35780400000
2990;37665808000;35280400000;35780400000
2991;37716567000;35280422222;35780422222
3008;37716573000;35363744444;35863744444
3009;37716575000;35363744444;35863744444
3010;37716576000;35363744444;35863744444
3011;37716577000;35363744444;35863744444
3012;37716578000;35363744444;35863744444
3013;37799881000;35363766666;35863766666
3014;37799887000;35364000000;35864000000
3015;37799888000;35364000000;35864000000
3016;37799890000;35364000000;35864000000
3017;37840605000;35405411111;35905411111
3018;37840608000;35405411111;35905411111
3019;37840609000;35405411111;35905411111
3020;37840610000;35405411111;35905411111
3021;37840611000;35405411111;35905411111
3022;37840612000;35405411111;35905411111
3023;37840613000;35405411111;35905411111
3024;37840735000;35405433333;35905433333
3025;37840740000;35405700000;35905700000
3026;37840742000;35405700000;35905700000
3027;37840743000;35405700000;35905700000
3028;37880456000;35447077777;35947077777
3029;37880460000;35447077777;35947077777
3030;37966510000;35447077777;35947077777
3031;37967170000;35447077777;35947077777
3032;37967551000;35447077777;35947077777
3033;37967761000;35447077777;35947077777
3034;37968257000;35447077777;35947077777
3037;38019210000;35447377777;35947377777
3050;38102236000;35530411111;36030411111
3051;38102239000;35530411111;36030411111
3052;38102240000;35530411111;36030411111
3053;38102241000;35530411111;36030411111
3054;38102242000;35530411111;36030411111
3055;38102243000;35530411111;36030411111
3056;38102244000;35530411111;36030411111
3057;38102347000;35530433333;36030433333
3058;38102352000;35530711111;36030711111
3059;38102353000;35530711111;36030711111
3060;38102354000;35530711111;36030711111
3061;38142997000;35572066666;36072066666
3062;38143000000;35572066666;36072066666
3063;38143001000;35572066666;36072066666
3064;38143002000;35572066666;36072066666
3065;38143003000;35572066666;36072066666
3066;38143004000;35572066666;36072066666
3067;38143005000;35572066666;36072066666
3068;38143098000;35572088888;36072088888
3069;38266799000;35572377777;36072377777
3070;38267196000;35572377777;36072377777
3071;38267750000;35572377777;36072377777
3072;38358657000;35613755555;36113755555
3088;38399911000;35655411111;36155411111
3089;38399915000;35655411111;36155411111
3090;38400053000;35655433333;36155433333
3091;38400058000;35655700000;36155700000
3092;38400059000;35655700000;36155700000
3093;38400061000;35655700000;36155700000
3094;38440879000;35697077777;36197077777
3095;38440882000;35697077777;36197077777
3096;38440883000;35697077777;36197077777
3097;38440884000;35697077777;36197077777
3098;38440894000;35697077777;36197077777
3099;38440896000;35697077777;36197077777
3100;38440897000;35697077777;36197077777
3101;38441016000;35697100000;36197100000
3102;38441021000;35697355555;36197355555
3103;38441022000;35697355555;36197355555
3104;38441023000;35697355555;36197355555
3105;38480754000;35738744444;36238744444
3106;38480757000;35738744444;36238744444
3107;38480758000;35738744444;36238744444
3108;38567298000;35738744444;36238744444
3109;38567455000;35738744444;36238744444
3110;38567995000;35738744444;36238744444
3111;38568398000;35738744444;36238744444
3112;38619201000;35738766666;36238766666
3127;38619207000;35822077777;36322077777
3128;38619208000;35822077777;36322077777
3129;38619209000;35822077777;36322077777
3130;38619210000;35822077777;36322077777
3131;38619220000;35822077777;36322077777
3132;38619221000;35822077777;36322077777
3133;38619222000;35822077777;36322077777
3134;38702503000;35822100000;36322100000
3135;38702510000;35822377777;36322377777
3136;38702511000;35822377777;36322377777
3137;38702512000;35822377777;36322377777
3138;38743217000;35863755555;36363755555
3139;38743220000;35863755555;36363755555
3140;38743221000;35863755555;36363755555
3142;38743443000;35863755555;36363755555
3143;38743447000;35863755555;36363755555
3144;38743458000;35863755555;36363755555
3145;38743569000;35863777777;36363777777
3146;38743574000;35864055555;36364055555
3147;38743576000;35864055555;36364055555
3148;38867885000;35864055555;36364055555
3149;38918775000;35905400000;36405400000
3168;38960693000;35947400000;36447400000
3169;38960696000;35947400000;36447400000
3170;38960697000;35947400000;36447400000
3171;39001914000;35988744444;36488744444
3172;39001917000;35988744444;36488744444
3173;39001918000;35988744444;36488744444
3174;39001919000;35988744444;36488744444
3175;39001920000;35988744444;36488744444
3176;39001921000;35988744444;36488744444
3177;39001922000;35988744444;36488744444
3178;39002130000;35988766666;36488766666
3179;39002145000;35989033333;36489033333
3180;39002146000;35989033333;36489033333
3181;39002147000;35989033333;36489033333
3182;39042873000;36030411111;36530411111
3183;39042877000;36030411111;36530411111
3184;39042878000;36030411111;36530411111
3185;39042879000;36030411111;36530411111
3186;39042880000;36030411111;36530411111
3187;39168213000;36030411111;36530411111
3188;39168618000;36030411111;36530411111
3189;39219508000;36030433333;36530433333
3204;39219523000;36113755555;36613755555
3205;39219524000;36113755555;36613755555
3206;39219525000;36113755555;36613755555
3207;39219526000;36113755555;36613755555
3208;39219527000;36113755555;36613755555
3209;39219528000;36113755555;36613755555
3210;39219529000;36113755555;36613755555
3211;39302836000;36113777777;36613777777
3212;39302851000;36114066666;36614066666
3213;39302852000;36114066666;36614066666
3214;39302853000;36114066666;36614066666
3215;39343536000;36155422222;36655422222
3216;39343540000;36155422222;36655422222
3217;39343541000;36155422222;36655422222
3218;39343542000;36155422222;36655422222
3219;39343542000;36155422222;36655422222
3220;39343543000;36155422222;36655422222
3221;39343544000;36155422222;36655422222
3222;39343742000;36155433333;36655433333
3223;39343757000;36155744444;36655744444
3224;39343758000;36155744444;36655744444
3226;39384219000;36197066666;36697066666
3227;39468900000;36197066666;36697066666
3228;39469315000;36197066666;36697066666
3229;39469711000;36197066666;36697066666
3230;39470093000;36197066666;36697066666
3231;39470905000;36197066666;36697066666
3232;39471480000;36197066666;36697066666
3233;39522283000;36197088888;36697088888
3251;39522289000;36280400000;36780400000
3252;39522291000;36280400000;36780400000
3253;39522292000;36280400000;36780400000
3254;39522293000;36280400000;36780400000
3255;39605584000;36280422222;36780422222
3653;39605615000;37780844444;38280844444
3654;39605616000;37780844444;38280844444
3655;39605676000;37822077777;38322077777
3656;39605679000;37822077777;38322077777
3657;39605689000;37822077777;38322077777
3658;39605690000;37822077777;38322077777
3659;39605691000;37822077777;38322077777
3660;39605701000;37822077777;38322077777
3661;39605702000;37822077777;38322077777
3662;39819469000;37822100000;38322100000
3681;39819475000;37905411111;38405411111
3682;39819477000;37905411111;38405411111
3683;39819478000;37905411111;38405411111
3684;39902773000;37905433333;38405433333
3685;39902779000;37905733333;38405733333
3686;39902780000;37905733333;38405733333
3687;39902781000;37905733333;38405733333
3688;39943481000;37947077777;38447077777
3689;39943484000;37947077777;38447077777
3690;39943485000;37947077777;38447077777
3691;39943486000;37947077777;38447077777
3692;39943487000;37947077777;38447077777
3693;39943488000;37947077777;38447077777
3694;39943489000;37947077777;38447077777
3695;39943599000;37947100000;38447100000
3696;39943604000;37947377777;38447377777
3697;39943606000;37947377777;38447377777
3698;39943607000;37947377777;38447377777
3699;39983350000;37988733333;38488733333
3700;39983354000;37988733333;38488733333
3701;39983355000;37988733333;38488733333
3702;40069807000;37988733333;38488733333
3703;40070409000;37988733333;38488733333
3704;40070605000;37988733333;38488733333
3705;40070964000;37988733333;38488733333
3706;40122116000;37988755555;38488755555
3721;40122122000;38072077777;38572077777
3722;40122123000;38072077777;38572077777
3723;40122124000;38072077777;38572077777
3724;40122125000;38072077777;38572077777
3725;40122126000;38072077777;38572077777
3726;40122136000;38072077777;38572077777
3727;40122137000;38072077777;38572077777
3728;40205428000;38072100000;38572100000
3729;40205434000;38072366666;38572366666
3730;40205435000;38072366666;38572366666
3731;40205436000;38072366666;38572366666
3732;40246151000;38113744444;38613744444
3733;40246155000;38113744444;38613744444
3734;40246156000;38113744444;38613744444
3735;40246156000;38113744444;38613744444
3736;40246157000;38113744444;38613744444
3737;40246159000;38113744444;38613744444
3738;40246159000;38113744444;38613744444
3739;40246258000;38113766666;38613766666
3742;40375762000;38114022222;38614022222
3743;40462148000;38155422222;38655422222
3759;40503419000;38197077777;38697077777
3760;40503423000;38197077777;38697077777
3761;40503534000;38197100000;38697100000
3762;40503540000;38197377777;38697377777
3763;40503541000;38197377777;38697377777
3764;40503542000;38197377777;38697377777
3765;40544408000;38238744444;38738744444
3766;40544411000;38238744444;38738744444
3767;40544412000;38238744444;38738744444
3768;40544413000;38238744444;38738744444
3769;40544414000;38238744444;38738744444
3770;40544415000;38238744444;38738744444
3771;40544416000;38238744444;38738744444
3772;40544516000;38238766666;38738766666
3773;40544522000;38239044444;38739044444
3774;40544523000;38239044444;38739044444
3775;40544524000;38239044444;38739044444
3776;40584254000;38280400000;38780400000
3777;40584258000;38280400000;38780400000
3778;40584259000;38280400000;38780400000
3779;40670782000;38280400000;38780400000
3780;40670951000;38280400000;38780400000
3781;40671353000;38280400000;38780400000
3782;40671543000;38280400000;38780400000
3783;40722253000;38280422222;38780422222
3798;40722260000;38363744444;38863744444
3799;40722261000;38363744444;38863744444
3800;40722262000;38363744444;38863744444
3801;40722263000;38363744444;38863744444
3802;40722264000;38363744444;38863744444
3803;40722265000;38363744444;38863744444
3804;40722266000;38363744444;38863744444
3805;40805551000;38363766666;38863766666
3806;40805566000;38364000000;38864000000
3807;40805568000;38364000000;38864000000
3808;40805569000;38364000000;38864000000
3809;40846267000;38405411111;38905411111
3810;40846270000;38405411111;38905411111
3811;40846271000;38405411111;38905411111
3812;40846272000;38405411111;38905411111
3813;40846274000;38405411111;38905411111
3814;40846275000;38405411111;38905411111
3815;40846275000;38405411111;38905411111
3816;40846445000;38405433333;38905433333
3817;40846449000;38405711111;38905711111
3818;40846451000;38405711111;38905711111
3819;40971429000;38405711111;38905711111
3820;41022033000;38447077777;38947077777
3839;41063874000;38489022222;38989022222
3840;41063877000;38489022222;38989022222
3841;41063887000;38489022222;38989022222
3842;41105161000;38530411111;39030411111
3843;41105164000;38530411111;39030411111
3844;41105165000;38530411111;39030411111
3845;41105166000;38530411111;39030411111
3846;41105167000;38530411111;39030411111
3847;41105168000;38530411111;39030411111
3848;41105169000;38530411111;39030411111
3849;41105383000;38530433333;39030433333
3850;41105398000;38530722222;39030722222
3851;41105400000;38530722222;39030722222
3852;41105401000;38530722222;39030722222
3853;41146165000;38572077777;39072077777
3854;41146169000;38572077777;39072077777
3855;41146170000;38572077777;39072077777
3856;41146171000;38572077777;39072077777
3857;41146171000;38572077777;39072077777
3858;41271772000;38572077777;39072077777
3859;41272185000;38572077777;39072077777
3860;41322837000;38572100000;39072100000
3875;41322853000;38655400000;39155400000
3876;41322854000;38655400000;39155400000
3877;41322855000;38655400000;39155400000
3878;41322856000;38655400000;39155400000
3879;41322857000;38655400000;39155400000
3880;41322858000;38655400000;39155400000
3881;41322859000;38655400000;39155400000
3882;41406113000;38655422222;39155422222
3883;41406128000;38655700000;39155700000
3884;41406129000;38655700000;39155700000
3885;41406130000;38655700000;39155700000
3886;41446830000;38697066666;39197066666
3887;41446833000;38697066666;39197066666
3888;41446834000;38697066666;39197066666
3889;41446835000;38697066666;39197066666
3890;41446836000;38697066666;39197066666
3891;41446837000;38697066666;39197066666
3892;41446838000;38697066666;39197066666
3893;41447037000;38697088888;39197088888
3894;41447060000;38697366666;39197366666
3895;41447062000;38697366666;39197366666
3896;41447063000;38697366666;39197366666
3897;41622609000;38738744444;39238744444
3918;41664499000;38780722222;39280722222
3919;41705725000;38822088888;39322088888
3920;41705729000;38822088888;39322088888
3921;41705730000;38822088888;39322088888
3922;41705731000;38822088888;39322088888
3923;41705732000;38822088888;39322088888
3924;41705733000;38822088888;39322088888
3925;41705734000;38822088888;39322088888
3926;41705932000;38822100000;39322100000
3927;41705948000;38822400000;39322400000
3928;41705949000;38822400000;39322400000
3929;41705950000;38822400000;39322400000
3930;41746725000;38863744444;39363744444
3931;41746728000;38863744444;39363744444
3932;41746729000;38863744444;39363744444
3933;41746730000;38863744444;39363744444
3934;41746731000;38863744444;39363744444
3935;41746732000;38863744444;39363744444
3936;41746733000;38863744444;39363744444
3937;41923298000;38863766666;39363766666
3955;41923313000;38947077777;39447077777
3956;41923314000;38947077777;39447077777
3957;41923315000;38947077777;39447077777
3958;41923316000;38947077777;39447077777
3959;42006595000;38947100000;39447100000
3960;42006611000;38947377777;39447377777
3961;42006612000;38947377777;39447377777
3962;42006613000;38947377777;39447377777
3963;42047298000;38988744444;39488744444
3964;42047301000;38988744444;39488744444
3965;42047302000;38988744444;39488744444
3966;42047303000;38988744444;39488744444
3967;42047304000;38988744444;39488744444
3968;42047305000;38988744444;39488744444
3969;42047306000;38988744444;39488744444
3970;42047505000;38988766666;39488766666
3971;42047520000;38989033333;39489033333
3972;42047521000;38989033333;39489033333
3973;42047522000;38989033333;39489033333
3974;42087167000;39030411111;39530411111
3975;42087171000;39030411111;39530411111
3976;42173347000;39030411111;39530411111
3977;42173588000;39030411111;39530411111
3978;42173959000;39030411111;39530411111
3979;42174233000;39030411111;39530411111
3980;42174462000;39030411111;39530411111
3984;42225820000;39030733333;39530733333
3995;42267401000;39072366666;39572366666
3996;42308517000;39113744444;39613744444
3997;42308520000;39113744444;39613744444
3998;42308521000;39113744444;39613744444
3999;42308522000;39113744444;39613744444
4000;42308523000;39113744444;39613744444
4001;42308524000;39113744444;39613744444
4002;42308525000;39113744444;39613744444
4003;42308724000;39113766666;39613766666
4004;42308739000;39114022222;39614022222
4005;42308748000;39114022222;39614022222
4006;42308749000;39114022222;39614022222
4007;42349602000;39155411111;39655411111
4008;42349605000;39155411111;39655411111
4009;42349606000;39155411111;39655411111
4010;42349607000;39155411111;39655411111
4011;42349608000;39155411111;39655411111
4012;42349609000;39155411111;39655411111
4013;42349610000;39155411111;39655411111
4014;42349809000;39155433333;39655433333
4017;42479103000;39155722222;39655722222
4018;42565826000;39197066666;39697066666
4034;42607132000;39238755555;39738755555
4035;42607136000;39238755555;39738755555
4036;42607247000;39238766666;39738766666
4037;42607252000;39239055555;39739055555
4038;42607253000;39239055555;39739055555
4039;42607254000;39239055555;39739055555
4040;42648096000;39280411111;39780411111
4041;42648100000;39280411111;39780411111
4042;42648101000;39280411111;39780411111
4043;42648102000;39280411111;39780411111
4044;42648102000;39280411111;39780411111
4045;42648103000;39280411111;39780411111
4046;42648104000;39280411111;39780411111
4047;42648226000;39280433333;39780433333
4048;42648231000;39280722222;39780722222
4049;42648232000;39280722222;39780722222
4050;42648233000;39280722222;39780722222
4051;42687958000;39322066666;39822066666
4052;42687961000;39322066666;39822066666
4053;42687963000;39322066666;39822066666
4054;42774482000;39322066666;39822066666
4055;42774684000;39322066666;39822066666
4056;42775039000;39322066666;39822066666
4057;42775292000;39322066666;39822066666
4058;42826275000;39322088888;39822088888
4469;42826314000;40905411111;41405411111
4470;42826315000;40905411111;41405411111
4471;42826316000;40905411111;41405411111
4472;42826317000;40905411111;41405411111
4473;42826318000;40905411111;41405411111
4474;42826319000;40905411111;41405411111
4475;42826320000;40905411111;41405411111
4476;42909031000;40905433333;41405433333
4477;42909052000;40905744444;41405744444
4478;42909054000;40905744444;41405744444
4479;42909055000;40905744444;41405744444
4480;42949688000;40947077777;41447077777
4481;42949691000;40947077777;41447077777
4482;42949692000;40947077777;41447077777
4483;42949693000;40947077777;41447077777
4484;42949694000;40947077777;41447077777
4485;42949695000;40947077777;41447077777
4486;42949696000;40947077777;41447077777
4487;42949850000;40947100000;41447100000
4488;42949857000;40947366666;41447366666
4490;43075166000;40947366666;41447366666
4491;43125865000;40988733333;41488733333
4509;43167531000;41030422222;41530422222
4510;43167546000;41030711111;41530711111
4511;43167547000;41030711111;41530711111
4512;43167548000;41030711111;41530711111
4513;43209013000;41072077777;41572077777
4514;43209016000;41072077777;41572077777
4515;43209017000;41072077777;41572077777
4516;43209018000;41072077777;41572077777
4517;43209019000;41072077777;41572077777
4518;43209020000;41072077777;41572077777
4519;43209021000;41072077777;41572077777
4520;43209220000;41072100000;41572100000
4521;43209235000;41072377777;41572377777
4522;43209236000;41072377777;41572377777
4523;43209237000;41072377777;41572377777
4524;43249974000;41113744444;41613744444
4525;43249977000;41113744444;41613744444
4526;43249978000;41113744444;41613744444
4527;43249979000;41113744444;41613744444
4528;43249980000;41113744444;41613744444
4529;43375840000;41113744444;41613744444
4530;43376037000;41113744444;41613744444
4531;43426751000;41113766666;41613766666
4546;43426766000;41197077777;41697077777
4547;43426767000;41197077777;41697077777
4548;43426768000;41197077777;41697077777
4550;43510033000;41197077777;41697077777
4551;43510035000;41197077777;41697077777
4552;43510036000;41197077777;41697077777
4553;43510249000;41197100000;41697100000
4554;43510264000;41197377777;41697377777
4555;43510265000;41197377777;41697377777
4556;43510267000;41197377777;41697377777
4557;43550672000;41238755555;41738755555
4558;43550675000;41238755555;41738755555
4559;43550676000;41238755555;41738755555
4560;43550677000;41238755555;41738755555
4561;43550678000;41238755555;41738755555
4562;43550679000;41238755555;41738755555
4563;43550680000;41238755555;41738755555
4564;43550853000;41238777777;41738777777
4565;43550861000;41239055555;41739055555
4566;43550863000;41239055555;41739055555
4567;43550865000;41239055555;41739055555
4568;43726473000;41280400000;41780400000
4590;43809793000;41363744444;41863744444
4591;43809797000;41363744444;41863744444
4592;43809798000;41363744444;41863744444
4593;43809799000;41363744444;41863744444
4594;43809799000;41363744444;41863744444
4595;43809801000;41363744444;41863744444
4596;43809801000;41363744444;41863744444
4597;43809922000;41363766666;41863766666
4598;43809927000;41364000000;41864000000
4600;43809929000;41364000000;41864000000
4601;43850556000;41405411111;41905411111
4602;43850559000;41405411111;41905411111
4603;43850560000;41405411111;41905411111
4604;43850562000;41405411111;41905411111
4605;43850563000;41405411111;41905411111
4606;43850564000;41405411111;41905411111
4607;43850564000;41405411111;41905411111
4608;44027167000;41405433333;41905433333
4625;44027173000;41488744444;41988744444
4626;44027174000;41488744444;41988744444
4627;44027175000;41488744444;41988744444
4628;44027176000;41488744444;41988744444
4630;44110755000;41488766666;41988766666
4631;44110761000;41489022222;41989022222
4632;44110762000;41489022222;41989022222
4633;44110763000;41489022222;41989022222
4634;44151179000;41530411111;42030411111
4635;44151182000;41530411111;42030411111
4636;44151183000;41530411111;42030411111
4637;44151185000;41530411111;42030411111
4638;44151186000;41530411111;42030411111
4639;44151187000;41530411111;42030411111
4640;44151187000;41530411111;42030411111
4641;44151306000;41530433333;42030433333
4642;44151311000;41530711111;42030711111
4643;44151313000;41530711111;42030711111
4644;44151314000;41530711111;42030711111
4645;44191088000;41572100000;42072100000
4646;44191092000;41572100000;42072100000
4647;44277299000;41572100000;42072100000
4648;44277512000;41572100000;42072100000
4649;44277898000;41572100000;42072100000
4650;44278343000;41572100000;42072100000
4651;44278542000;41572100000;42072100000
4652;44329093000;41572122222;42072122222
4667;44329099000;41655400000;42155400000
4668;44329101000;41655400000;42155400000
4669;44329102000;41655400000;42155400000
4670;44329103000;41655400000;42155400000
4671;44329104000;41655400000;42155400000
4672;44329105000;41655400000;42155400000
4673;44329115000;41655400000;42155400000
4674;44412345000;41655422222;42155422222
4675;44412351000;41655711111;42155711111
4676;44412352000;41655711111;42155711111
4677;44412353000;41655711111;42155711111
4678;44453067000;41697066666;42197066666
4679;44453070000;41697066666;42197066666
4680;44453071000;41697066666;42197066666
4681;44453072000;41697066666;42197066666
4682;44453073000;41697066666;42197066666
4683;44453074000;41697066666;42197066666
4684;44453075000;41697066666;42197066666
4685;44453198000;41697088888;42197088888
4686;44577569000;41697377777;42197377777
4689;44669404000;41738755555;42238755555
4705;44710674000;41780411111;42280411111
4706;44710677000;41780411111;42280411111
4707;44710799000;41780433333;42280433333
4708;44710804000;41780722222;42280722222
4709;44710805000;41780722222;42280722222
4710;44710806000;41780722222;42280722222
4711;44751643000;41822077777;42322077777
4712;44751646000;41822077777;42322077777
4713;44751647000;41822077777;42322077777
4714;44751648000;41822077777;42322077777
4715;44751649000;41822077777;42322077777
4716;44751650000;41822077777;42322077777
4717;44751651000;41822077777;42322077777
4718;44751769000;41822100000;42322100000
4719;44751774000;41822377777;42322377777
4720;44751776000;41822377777;42322377777
4721;44751777000;41822377777;42322377777
4722;44791488000;41863744444;42363744444
4723;44791500000;41863744444;42363744444
4724;44791501000;41863744444;42363744444
4725;44791502000;41863744444;42363744444
4726;44878269000;41863744444;42363744444
4727;44878854000;41863744444;42363744444
4728;44878992000;41863744444;42363744444
4729;44929629000;41863766666;42363766666
4744;44929635000;41947077777;42447077777
4745;44929636000;41947077777;42447077777
4746;44929637000;41947077777;42447077777
4747;44929638000;41947077777;42447077777
4748;44929656000;41947077777;42447077777
4749;44929657000;41947077777;42447077777
4750;44929657000;41947077777;42447077777
4751;45012930000;41947100000;42447100000
4752;45012936000;41947388888;42447388888
4753;45012938000;41947388888;42447388888
4754;45012939000;41947388888;42447388888
4755;45053635000;41988744444;42488744444
4756;45053639000;41988744444;42488744444
4757;45053640000;41988744444;42488744444
4758;45053641000;41988744444;42488744444
4759;45053642000;41988744444;42488744444
4760;45053643000;41988744444;42488744444
4761;45053644000;41988744444;42488744444
4762;45053764000;41988766666;42488766666
4763;45053769000;41989055555;42489055555
4764;45053771000;41989055555;42489055555
4765;45178539000;41989055555;42489055555
4766;45229431000;42030411111;42530411111
4788;45312577000;42113744444;42613744444
4789;45312580000;42113744444;42613744444
4790;45312581000;42113744444;42613744444
4791;45312582000;42113744444;42613744444
4792;45312583000;42113744444;42613744444
4793;45312584000;42113744444;42613744444
4794;45312585000;42113744444;42613744444
4795;45312681000;42113766666;42613766666
4796;45312697000;42114044444;42614044444
4797;45312698000;42114044444;42614044444
4798;45312699000;42114044444;42614044444
4799;45353578000;42155411111;42655411111
4800;45353581000;42155411111;42655411111
4801;45353582000;42155411111;42655411111
4802;45353583000;42155411111;42655411111
4803;45353584000;42155411111;42655411111
4804;45353585000;42155411111;42655411111
4805;45479259000;42155411111;42655411111
4806;45530169000;42155433333;42655433333
4822;45530185000;42238733333;42738733333
4823;45530186000;42238733333;42738733333
4824;45530187000;42238733333;42738733333
4825;45530188000;42238733333;42738733333
4826;45530189000;42238733333;42738733333
4827;45530189000;42238733333;42738733333
4828;45613460000;42238755555;42738755555
4829;45613475000;42239055555;42739055555
4830;45613476000;42239055555;42739055555
4831;45613477000;42239055555;42739055555
4832;45654136000;42280411111;42780411111
4833;45654140000;42280411111;42780411111
4834;45654141000;42280411111;42780411111
4835;45654142000;42280411111;42780411111
4836;45654143000;42280411111;42780411111
4837;45654144000;42280411111;42780411111
4838;45654145000;42280411111;42780411111
4839;45654299000;42280433333;42780433333
4840;45654305000;42280733333;42780733333
4841;45654306000;42280733333;42780733333
4842;45654307000;42280733333;42780733333
4843;45694030000;42322077777;42822077777
4844;45779534000;42322077777;42822077777
4845;45779962000;42322077777;42822077777
4846;45780595000;42322077777;42822077777
4847;45780804000;42322077777;42822077777
4848;45781230000;42322077777;42822077777
4849;45781442000;42322077777;42822077777
4850;45832259000;42322100000;42822100000
4865;45832274000;42405411111;42905411111
4866;45832276000;42405411111;42905411111
4867;45832276000;42405411111;42905411111
4868;45832277000;42405411111;42905411111
4869;45832278000;42405411111;42905411111
4870;45832279000;42405411111;42905411111
4871;45832280000;42405411111;42905411111
4872;45915557000;42405433333;42905433333
4873;45915573000;42405722222;42905722222
4874;45915574000;42405722222;42905722222
4875;45915575000;42405722222;42905722222
4876;45956263000;42447088888;42947088888
4877;45956266000;42447088888;42947088888
4878;45956267000;42447088888;42947088888
4879;45956268000;42447088888;42947088888
4880;45956269000;42447088888;42947088888
4881;45956270000;42447088888;42947088888
4882;45956271000;42447088888;42947088888
4883;46130366000;42447100000;42947100000
4901;46130381000;42530400000;43030400000
4902;46130382000;42530400000;43030400000
4903;46130383000;42530400000;43030400000
4904;46130384000;42530400000;43030400000
4905;46213656000;42530422222;43030422222
4906;46213672000;42530733333;43030733333
4907;46213673000;42530733333;43030733333
4908;46213674000;42530733333;43030733333
4909;46254322000;42572066666;43072066666
4910;46254325000;42572066666;43072066666
4911;46254327000;42572066666;43072066666
4912;46254328000;42572066666;43072066666
4913;46254329000;42572066666;43072066666
4914;46254329000;42572066666;43072066666
4915;46254339000;42572066666;43072066666
4916;46254494000;42572088888;43072088888
4917;46254500000;42572400000;43072400000
4918;46254501000;42572400000;43072400000
4919;46254502000;42572400000;43072400000
4920;46294204000;42613733333;43113733333
4921;46294208000;42613733333;43113733333
4922;46294209000;42613733333;43113733333
4923;46380625000;42613733333;43113733333
4924;46381184000;42613733333;43113733333
4925;46381548000;42613733333;43113733333
4926;46382107000;42613733333;43113733333
4927;46432781000;42613755555;43113755555
5415;46433237000;44488744444;44988744444
5416;46433276000;44488744444;44988744444
5417;46433278000;44488744444;44988744444
5418;46433279000;44488744444;44988744444
5419;46433280000;44488744444;44988744444
5420;46433280000;44488744444;44988744444
5421;46433281000;44488744444;44988744444
5422;46515890000;44488766666;44988766666
5423;46515905000;44489044444;44989044444
5424;46515906000;44489044444;44989044444
5425;46515907000;44489044444;44989044444
5426;46556559000;44530411111;45030411111
5427;46556562000;44530411111;45030411111
5428;46556564000;44530411111;45030411111
5429;46556565000;44530411111;45030411111
5430;46556566000;44530411111;45030411111
5431;46556567000;44530411111;45030411111
5432;46556568000;44530411111;45030411111
5433;46556721000;44530433333;45030433333
5434;46556727000;44530733333;45030733333
5435;46680880000;44530733333;45030733333
5436;46681292000;44530733333;45030733333
5437;46732206000;44572077777;45072077777
5456;46774072000;44614055555;45114055555
5457;46774084000;44614055555;45114055555
5458;46774085000;44614055555;45114055555
5460;46815799000;44655411111;45155411111
5461;46815803000;44655411111;45155411111
5462;46815804000;44655411111;45155411111
5463;46815805000;44655411111;45155411111
5464;46815806000;44655411111;45155411111
5465;46815807000;44655411111;45155411111
5466;46815901000;44655433333;45155433333
5467;46815916000;44655722222;45155722222
5468;46815917000;44655722222;45155722222
5469;46815918000;44655722222;45155722222
5470;46856289000;44697077777;45197077777
5471;46856292000;44697077777;45197077777
5472;46856293000;44697077777;45197077777
5473;46856294000;44697077777;45197077777
5474;46856295000;44697077777;45197077777
5475;46981601000;44697077777;45197077777
5476;46982293000;44697077777;45197077777
5477;47032976000;44697100000;45197100000
5481;47032991000;44738811111;45238811111
5482;47032993000;44738811111;45238811111
5483;47032994000;44738811111;45238811111
5484;47032995000;44738811111;45238811111
5485;47032995000;44738811111;45238811111
5487;47074656000;44738811111;45238811111
5488;47074875000;44738833333;45238833333
5489;47074890000;44739122222;45239122222
5490;47074892000;44739122222;45239122222
5491;47074892000;44739122222;45239122222
5492;47115922000;44780411111;45280411111
5493;47115926000;44780411111;45280411111
5494;47115927000;44780411111;45280411111
5495;47115928000;44780411111;45280411111
5496;47115929000;44780411111;45280411111
5497;47115930000;44780411111;45280411111
5498;47115931000;44780411111;45280411111
5499;47116155000;44780433333;45280433333
