seqnum;now;rtptime;deadline
0;31650541000;30860544444;31360544444
1;31650546000;30860544444;31360544444
2;31650547000;30860544444;31360544444
3;31681605000;30891811111;31391811111
4;31681621000;30891811111;31391811111
5;31681622000;30891811111;31391811111
6;31681625000;30891811111;31391811111
7;31681626000;30891811111;31391811111
8;31900466000;30891811111;31391811111
9;31900570000;30891811111;31391811111
10;31951009000;30891822222;31391822222
11;31951024000;30892177777;31392177777
12;31951026000;30892177777;31392177777
13;31951026000;30892177777;31392177777
14;31992066000;30933477777;31433477777
15;31992070000;30933477777;31433477777
16;31992070000;30933477777;31433477777
17;31992071000;30933477777;31433477777
18;31992072000;30933477777;31433477777
19;31992073000;30933477777;31433477777
24;32251126000;30933922222;31433922222
25;32292290000;30975133333;31475133333
26;32292294000;30975133333;31475133333
27;32292295000;30975133333;31475133333
28;32292296000;30975133333;31475133333
29;32292296000;30975133333;31475133333
30;32292297000;30975133333;31475133333
31;32292298000;30975133333;31475133333
32;32292495000;30975144444;31475144444
33;32292510000;30975477777;31475477777
34;32292511000;30975477777;31475477777
35;32292512000;30975477777;31475477777
36;32333794000;31016800000;31516800000
37;32333798000;31016800000;31516800000
38;32333799000;31016800000;31516800000
39;32333800000;31016800000;31516800000
41;32501092000;31016800000;31516800000
42;32501106000;31016800000;31516800000
45;32551475000;31017133333;31517133333
48;32593068000;31058466666;31558466666
49;32593072000;31058466666;31558466666
50;32593073000;31058466666;31558466666
51;32593073000;31058466666;31558466666
52;32593074000;31058466666;31558466666
53;32593076000;31058466666;31558466666
54;32593195000;31058477777;31558477777
55;32593210000;31058788888;31558788888
56;32593211000;31058788888;31558788888
57;32593212000;31058788888;31558788888
58;32634709000;31100122222;31600122222
59;32634713000;31100122222;31600122222
61;32801440000;31100122222;31600122222
62;32801454000;31100122222;31600122222
63;32801459000;31100122222;31600122222
64;32801474000;31100122222;31600122222
65;32852013000;31100144444;31600144444
66;32852032000;31100433333;31600433333
67;32852034000;31100433333;31600433333
68;32852035000;31100433333;31600433333
69;32893222000;31141800000;31641800000
71;32893360000;31141800000;31641800000
72;32893363000;31141800000;31641800000
73;32893382000;31141800000;31641800000
74;32893383000;31141800000;31641800000
75;32893385000;31141800000;31641800000
76;32893673000;31141811111;31641811111
77;32893696000;31142144444;31642144444
78;32893698000;31142144444;31642144444
79;32893699000;31142144444;31642144444
80;32938113000;31183466666;31683466666
81;33101879000;31183466666;31683466666
83;33101957000;31183466666;31683466666
84;33101960000;31183466666;31683466666
85;33101962000;31183466666;31683466666
86;33101979000;31183466666;31683466666
87;33152492000;31183477777;31683477777
88;33152508000;31183788888;31683788888
89;33152509000;31183788888;31683788888
90;33152510000;31183788888;31683788888
91;33193641000;31225133333;31725133333
92;33193644000;31225133333;31725133333
93;33193645000;31225133333;31725133333
94;33193647000;31225133333;31725133333
95;33193648000;31225133333;31725133333
96;33193649000;31225133333;31725133333
97;33193650000;31225133333;31725133333
98;33193941000;31225155555;31725155555
99;33193957000;31225433333;31725433333
100;33193958000;31225433333;31725433333
102;33236014000;31266800000;31766800000
103;33402192000;31266800000;31766800000
104;33402205000;31266800000;31766800000
106;33402221000;31266800000;31766800000
113;33494231000;31308466666;31808466666
121;33494368000;31308777777;31808777777
122;33494372000;31308777777;31808777777
123;33494373000;31308777777;31808777777
124;33535758000;31350133333;31850133333
125;33535763000;31350133333;31850133333
126;33535764000;31350133333;31850133333
127;33535765000;31350133333;31850133333
129;33535898000;31350133333;31850133333
130;33535909000;31350133333;31850133333
131;33536112000;31350155555;31850155555
132;33536128000;31350444444;31850444444
133;33536150000;31350444444;31850444444
134;33536151000;31350444444;31850444444
135;33576724000;31391800000;31891800000
136;33576728000;31391800000;31891800000
138;33576729000;31391800000;31891800000
139;33576731000;31391800000;31891800000
140;33576732000;31391800000;31891800000
141;33576733000;31391800000;31891800000
142;33576939000;31391811111;31891811111
143;33702548000;31392088888;31892088888
144;33702553000;31392088888;31892088888
145;33702558000;31392088888;31892088888
146;33794463000;31433466666;31933466666
163;33835686000;31475122222;31975122222
164;33835887000;31475144444;31975144444
165;33835902000;31475455555;31975455555
166;33835903000;31475455555;31975455555
167;33835904000;31475455555;31975455555
168;33876644000;31516800000;32016800000
169;33876647000;31516800000;32016800000
170;33876648000;31516800000;32016800000
171;33876649000;31516800000;32016800000
172;33876650000;31516800000;32016800000
173;33876652000;31516800000;32016800000
174;33876653000;31516800000;32016800000
175;33876859000;31516811111;32016811111
176;33876874000;31517111111;32017111111
177;33876875000;31517111111;32017111111
178;33876876000;31517111111;32017111111
179;33916367000;31558466666;32058466666
180;33916371000;31558466666;32058466666
181;33916372000;31558466666;32058466666
182;33916373000;31558466666;32058466666
184;33916374000;31558466666;32058466666
185;33916375000;31558466666;32058466666
186;34053258000;31558477777;32058477777
213;34053273000;31683466666;32183466666
214;34053274000;31683466666;32183466666
215;34053275000;31683466666;32183466666
216;34053276000;31683466666;32183466666
222;34177197000;31683800000;32183800000
223;34217335000;31725133333;32225133333
224;34217339000;31725133333;32225133333
225;34217340000;31725133333;32225133333
226;34217341000;31725133333;32225133333
227;34217342000;31725133333;32225133333
228;34217343000;31725133333;32225133333
229;34217344000;31725133333;32225133333
230;34217550000;31725155555;32225155555
231;34217566000;31725566666;32225566666
232;34217567000;31725566666;32225566666
233;34217568000;31725566666;32225566666
234;34253583000;31766800000;32266800000
235;34253587000;31766800000;32266800000
236;34303125000;31766800000;32266800000
237;34303127000;31766800000;32266800000
238;34303128000;31766800000;32266800000
239;34303129000;31766800000;32266800000
240;34303130000;31766800000;32266800000
241;34353576000;31766811111;32266811111
261;34353592000;31850122222;32350122222
262;34353593000;31850122222;32350122222
263;34436911000;31850166666;32350166666
264;34436926000;31850455555;32350455555
265;34436927000;31850455555;32350455555
266;34436928000;31850455555;32350455555
267;34477568000;31891800000;32391800000
268;34477571000;31891800000;32391800000
269;34477572000;31891800000;32391800000
270;34477573000;31891800000;32391800000
271;34477574000;31891800000;32391800000
273;34477576000;31891800000;32391800000
274;34477782000;31891811111;32391811111
275;34477797000;31892088888;32392088888
276;34477798000;31892088888;32392088888
277;34477799000;31892088888;32392088888
278;34516784000;31933455555;32433455555
279;34516788000;31933455555;32433455555
280;34516789000;31933455555;32433455555
281;34516790000;31933455555;32433455555
282;34516791000;31933455555;32433455555
284;34516793000;31933455555;32433455555
288;34653757000;31933777777;32433777777
317;34777850000;32058466666;32558466666
318;34778058000;32058477777;32558477777
319;34778064000;32058777777;32558777777
320;34778065000;32058777777;32558777777
321;34778066000;32058777777;32558777777
324;34817421000;32100122222;32600122222
325;34817425000;32100122222;32600122222
326;34817426000;32100122222;32600122222
327;34817427000;32100122222;32600122222
328;34817428000;32100122222;32600122222
329;34817524000;32100144444;32600144444
330;34817540000;32100433333;32600433333
331;34817541000;32100433333;32600433333
332;34817542000;32100433333;32600433333
333;34853430000;32141800000;32641800000
334;34853433000;32141800000;32641800000
335;34853434000;32141800000;32641800000
336;34853435000;32141800000;32641800000
337;34853437000;32141800000;32641800000
338;34853447000;32141800000;32641800000
339;34853448000;32141800000;32641800000
340;34954222000;32141811111;32641811111
378;35117549000;32308455555;32808455555
379;35117551000;32308455555;32808455555
380;35117552000;32308455555;32808455555
381;35117553000;32308455555;32808455555
382;35117554000;32308455555;32808455555
383;35117555000;32308455555;32808455555
384;35117755000;32308466666;32808466666
386;35117771000;32308777777;32808777777
387;35117772000;32308777777;32808777777
388;35154010000;32350111111;32850111111
389;35154014000;32350111111;32850111111
390;35154015000;32350111111;32850111111
391;35154015000;32350111111;32850111111
392;35154016000;32350111111;32850111111
393;35154018000;32350111111;32850111111
394;35154018000;32350111111;32850111111
395;35154217000;32350133333;32850133333
396;35154233000;32350433333;32850433333
398;35154234000;32350433333;32850433333
399;35254435000;32391800000;32891800000
446;35416709000;32558455555;33058455555
448;35416713000;32558455555;33058455555
449;35416714000;32558455555;33058455555
450;35416920000;32558466666;33058466666
453;35416935000;32558755555;33058755555
454;35453707000;32600122222;33100122222
455;35453711000;32600122222;33100122222
456;35453712000;32600122222;33100122222
457;35453712000;32600122222;33100122222
458;35453713000;32600122222;33100122222
459;35453714000;32600122222;33100122222
460;35453715000;32600122222;33100122222
461;35453921000;32600133333;33100133333
462;35453937000;32600422222;33100422222
463;35453938000;32600422222;33100422222
464;35453939000;32600422222;33100422222
465;35487992000;32641800000;33141800000
466;35487996000;32641800000;33141800000
467;35487997000;32641800000;33141800000
468;35487998000;32641800000;33141800000
471;35504658000;32641800000;33141800000
472;35555102000;32641811111;33141811111
522;35555108000;32850111111;33350111111
523;35555109000;32850111111;33350111111
524;35555110000;32850111111;33350111111
525;35555111000;32850111111;33350111111
526;35555112000;32850111111;33350111111
527;35758151000;32850133333;33350133333
528;35758166000;32850444444;33350444444
529;35758167000;32850444444;33350444444
530;35758168000;32850444444;33350444444
531;35788766000;32891800000;33391800000
532;35788770000;32891800000;33391800000
533;35788771000;32891800000;33391800000
534;35788772000;32891800000;33391800000
535;35788772000;32891800000;33391800000
536;35788774000;32891800000;33391800000
537;35788774000;32891800000;33391800000
538;35788973000;32891811111;33391811111
539;35788988000;32892088888;33392088888
540;35788989000;32892088888;33392088888
541;35788990000;32892088888;33392088888
542;35818479000;32933466666;33433466666
598;36057944000;33141788888;33641788888
599;36057948000;33141788888;33641788888
600;36057949000;33141788888;33641788888
601;36057950000;33141788888;33641788888
602;36057951000;33141788888;33641788888
603;36057952000;33141788888;33641788888
604;36058165000;33141800000;33641800000
605;36058181000;33142100000;33642100000
609;36091383000;33183455555;33683455555
610;36091386000;33183455555;33683455555
611;36091388000;33183455555;33683455555
612;36091389000;33183455555;33683455555
614;36091390000;33183455555;33683455555
615;36091487000;33183466666;33683466666
616;36091502000;33183788888;33683788888
617;36091503000;33183788888;33683788888
618;36091504000;33183788888;33683788888
622;36120737000;33225122222;33725122222
681;36356668000;33433466666;33933466666
682;36356683000;33433800000;33933800000
683;36356685000;33433800000;33933800000
684;36356686000;33433800000;33933800000
685;36390629000;33475122222;33975122222
686;36390632000;33475122222;33975122222
687;36390633000;33475122222;33975122222
688;36390634000;33475122222;33975122222
689;36390635000;33475122222;33975122222
690;36390636000;33475122222;33975122222
691;36390637000;33475122222;33975122222
692;36390836000;33475133333;33975133333
693;36390851000;33475455555;33975455555
695;36390852000;33475455555;33975455555
696;36415628000;33516777777;34016777777
758;36581409000;33725155555;34225155555
760;36706066000;33725455555;34225455555
762;36706196000;33766800000;34266800000
772;36706218000;33767088888;34267088888
774;36706223000;33808466666;34308466666
777;36706224000;33808466666;34308466666
778;36706225000;33808466666;34308466666
779;36706226000;33808466666;34308466666
780;36706333000;33808477777;34308477777
787;36706349000;33850133333;34350133333
789;36706351000;33850133333;34350133333
790;36706352000;33850133333;34350133333
791;36756496000;33850155555;34350155555
839;36756512000;34058455555;34558455555
840;36756513000;34058455555;34558455555
841;36756514000;34058455555;34558455555
842;36756515000;34058455555;34558455555
843;36756516000;34058455555;34558455555
844;36756517000;34058455555;34558455555
845;36756518000;34058455555;34558455555
846;36986257000;34058466666;34558466666
847;36986273000;34058788888;34558788888
848;36986274000;34058788888;34558788888
849;36986275000;34058788888;34558788888
850;37015041000;34100111111;34600111111
916;37259488000;34350122222;34850122222
919;37306595000;34350122222;34850122222
920;37306599000;34350122222;34850122222
921;37306600000;34350122222;34850122222
922;37306601000;34350122222;34850122222
923;37306848000;34350133333;34850133333
940;37306866000;34433455555;34933455555
942;37306868000;34433455555;34933455555
943;37306869000;34433455555;34933455555
944;37306870000;34433455555;34933455555
946;37321243000;34433800000;34933800000
992;37521352000;34600433333;35100433333
996;37607013000;34641788888;35141788888
1003;37607033000;34642100000;35142100000
1006;37607038000;34683466666;35183466666
1008;37607039000;34683466666;35183466666
1009;37607040000;34683466666;35183466666
1010;37607041000;34683466666;35183466666
1011;37607184000;34683477777;35183477777
1029;37607201000;34766800000;35266800000
1032;37607204000;34766800000;35266800000
1033;37648104000;34766811111;35266811111
1074;37648120000;34933477777;35433477777
1075;37648122000;34933477777;35433477777
1076;37648123000;34933477777;35433477777
1077;37857722000;34933488888;35433488888
1080;37857737000;34933800000;35433800000
1081;37891041000;34975144444;35475144444
1082;37891054000;34975144444;35475144444
1083;37891055000;34975144444;35475144444
1084;37891056000;34975144444;35475144444
1085;37891057000;34975144444;35475144444
1086;37891058000;34975144444;35475144444
1087;37891059000;34975144444;35475144444
1088;37891267000;34975166666;35475166666
1089;37891282000;34975444444;35475444444
1091;37891283000;34975444444;35475444444
1092;37916164000;35016800000;35516800000
1156;38122921000;35225422222;35725422222
1158;38207510000;35266800000;35766800000
1161;38207513000;35266800000;35766800000
1162;38207514000;35266800000;35766800000
1163;38207515000;35266800000;35766800000
1164;38207516000;35266800000;35766800000
1165;38207640000;35266811111;35766811111
1168;38207646000;35267055555;35767055555
1169;38207677000;35308466666;35808466666
1171;38207679000;35308466666;35808466666
1172;38207681000;35308466666;35808466666
1173;38207682000;35308466666;35808466666
1174;38207683000;35308466666;35808466666
1175;38207694000;35308466666;35808466666
1176;38207843000;35308477777;35808477777
1185;38207850000;35350133333;35850133333
1186;38207854000;35350133333;35850133333
1187;38219014000;35350155555;35850155555
1464;38219030000;36392077777;36892077777
1465;38219031000;36392077777;36892077777
1466;38423516000;36433455555;36933455555
1469;38507559000;36433455555;36933455555
1470;38507561000;36433455555;36933455555
1471;38507562000;36433455555;36933455555
1472;38507563000;36433455555;36933455555
1473;38507866000;36433466666;36933466666
1477;38507885000;36475111111;36975111111
1478;38507886000;36475111111;36975111111
1479;38507887000;36475111111;36975111111
1480;38507889000;36475111111;36975111111
1481;38507897000;36475111111;36975111111
1483;38507909000;36475111111;36975111111
1485;38507930000;36475433333;36975433333
1487;38507931000;36475433333;36975433333
1488;38507935000;36516788888;37016788888
1489;38507946000;36516788888;37016788888
1490;38507947000;36516788888;37016788888
1491;38507948000;36516788888;37016788888
1492;38507956000;36516788888;37016788888
1493;38507958000;36516788888;37016788888
1494;38507959000;36516788888;37016788888
1495;38558085000;36516800000;37016800000
1543;38558100000;36725122222;37225122222
1544;38558101000;36725122222;37225122222
1545;38558102000;36725122222;37225122222
1546;38558103000;36725122222;37225122222
1547;38558104000;36725122222;37225122222
1548;38558105000;36725122222;37225122222
1549;38558106000;36725122222;37225122222
1550;38760312000;36725155555;37225155555
1553;38807934000;36725444444;37225444444
1554;38808066000;36766800000;37266800000
1555;38808070000;36766800000;37266800000
1556;38808081000;36766800000;37266800000
1557;38808082000;36766800000;37266800000
1558;38808083000;36766800000;37266800000
1559;38808084000;36766800000;37266800000
1560;38808085000;36766800000;37266800000
1561;38808221000;36766811111;37266811111
1568;38808387000;36808455555;37308455555
1569;38808389000;36808455555;37308455555
1570;38808390000;36808455555;37308455555
1571;38808391000;36808455555;37308455555
1572;38819408000;36808477777;37308477777
1622;38918758000;37016788888;37516788888
1623;38918771000;37016788888;37516788888
1624;38918772000;37016788888;37516788888
1625;38918773000;37016788888;37516788888
1626;38918773000;37016788888;37516788888
1627;39058832000;37016800000;37516800000
1629;39058848000;37017088888;37517088888
1630;39058849000;37017088888;37517088888
1633;39092718000;37058444444;37558444444
1634;39092721000;37058444444;37558444444
1635;39092722000;37058444444;37558444444
1636;39092723000;37058444444;37558444444
1637;39092724000;37058444444;37558444444
1638;39092848000;37058466666;37558466666
1640;39092864000;37058777777;37558777777
1641;39092865000;37058777777;37558777777
1642;39122207000;37100122222;37600122222
1701;39321927000;37308455555;37808455555
1709;39408648000;37350111111;37850111111
1716;39408680000;37350444444;37850444444
1718;39408693000;37350444444;37850444444
1719;39408698000;37391800000;37891800000
1720;39408699000;37391800000;37891800000
1721;39408700000;37391800000;37891800000
1722;39408711000;37391800000;37891800000
1723;39408713000;37391800000;37891800000
1724;39408714000;37391800000;37891800000
1725;39408715000;37391800000;37891800000
1726;39408837000;37391811111;37891811111
1730;39408843000;37433466666;37933466666
1731;39408845000;37433466666;37933466666
1732;39408848000;37433466666;37933466666
1733;39408849000;37433466666;37933466666
1734;39408855000;37433466666;37933466666
1735;39408856000;37433466666;37933466666
1736;39408908000;37433466666;37933466666
1737;39421439000;37433477777;37933477777
1778;39421455000;37600122222;38100122222
1779;39421456000;37600122222;38100122222
1780;39421457000;37600122222;38100122222
1781;39622511000;37600144444;38100144444
1785;39622526000;37641788888;38141788888
1786;39622527000;37641788888;38141788888
1787;39622528000;37641788888;38141788888
1788;39622529000;37641788888;38141788888
1789;39622530000;37641788888;38141788888
1790;39622531000;37641788888;38141788888
1791;39622532000;37641788888;38141788888
1792;39659277000;37641800000;38141800000
1793;39659292000;37642088888;38142088888
1794;39659294000;37642088888;38142088888
1795;39659294000;37642088888;38142088888
1796;39693451000;37683455555;38183455555
1797;39693455000;37683455555;38183455555
1798;39693456000;37683455555;38183455555
1799;39693457000;37683455555;38183455555
1800;39693458000;37683455555;38183455555
1801;39693459000;37683455555;38183455555
1802;39693460000;37683455555;38183455555
1803;39693659000;37683477777;38183477777
1804;39693674000;37683811111;38183811111
1805;39693676000;37683811111;38183811111
1806;39693677000;37683811111;38183811111
1807;39723884000;37725122222;38225122222
1855;39911930000;37891800000;38391800000
1861;40009368000;37892077777;38392077777
1864;40009385000;37933455555;38433455555
1867;40009398000;37933455555;38433455555
1868;40009399000;37933455555;38433455555
1870;40009404000;37933766666;38433766666
1871;40009406000;37933766666;38433766666
1873;40009411000;37975122222;38475122222
1874;40009412000;37975122222;38475122222
1875;40009419000;37975122222;38475122222
1877;40009422000;37975122222;38475122222
1878;40009424000;37975122222;38475122222
1879;40009426000;37975122222;38475122222
1881;40009458000;37975411111;38475411111
1883;40009459000;37975411111;38475411111
1884;40025331000;38016788888;38516788888
1934;40223024000;38183466666;38683466666
1939;40309755000;38225122222;38725122222
1945;40309760000;38225122222;38725122222
1947;40309770000;38225422222;38725422222
1950;40309786000;38266788888;38766788888
1951;40309787000;38266788888;38766788888
1953;40309789000;38266788888;38766788888
1954;40309790000;38266788888;38766788888
1955;40309791000;38266788888;38766788888
1956;40309792000;38266788888;38766788888
1959;40309806000;38267044444;38767044444
1961;40327506000;38308466666;38808466666
2016;40560659000;38516788888;39016788888
2020;40609888000;38516788888;39016788888
2022;40609891000;38516788888;39016788888
2023;40610107000;38516800000;39016800000
2034;40610138000;38558466666;39058466666
2040;40610153000;38600122222;39100122222
2044;40610202000;38600122222;39100122222
2046;40622666000;38600411111;39100411111
2088;40824228000;38766788888;39266788888
2094;40910166000;38808455555;39308455555
2100;40910294000;38808466666;39308466666
2111;40910321000;38850133333;39350133333
2113;40910323000;38850444444;39350444444
2114;40910334000;38850444444;39350444444
2115;40922921000;38891800000;39391800000
2171;41162545000;39100122222;39600122222
2179;41162631000;39100444444;39600444444
2180;41162635000;39100444444;39600444444
2181;41192814000;39141788888;39641788888
2182;41192818000;39141788888;39641788888
2183;41192819000;39141788888;39641788888
2184;41192820000;39141788888;39641788888
2185;41192821000;39141788888;39641788888
2186;41192822000;39141788888;39641788888
2187;41192823000;39141788888;39641788888
2188;41192976000;39141811111;39641811111
2189;41192982000;39142111111;39642111111
2190;41192983000;39142111111;39642111111
2191;41192984000;39142111111;39642111111
2192;41220415000;39183466666;39683466666
2250;41385206000;39391800000;39891800000
2256;41385318000;39392100000;39892100000
2257;41385321000;39392100000;39892100000
2258;41424351000;39433466666;39933466666
2259;41424355000;39433466666;39933466666
2260;41424356000;39433466666;39933466666
2261;41424357000;39433466666;39933466666
2262;41424358000;39433466666;39933466666
2263;41424359000;39433466666;39933466666
2264;41424360000;39433466666;39933466666
2265;41424558000;39433477777;39933477777
2266;41424573000;39433788888;39933788888
2267;41424574000;39433788888;39933788888
2268;41424575000;39433788888;39933788888
2269;41461905000;39475133333;39975133333
2272;41462247000;39475133333;39975133333
2273;41462250000;39475133333;39975133333
2274;41462262000;39475133333;39975133333
2275;41462263000;39475133333;39975133333
2276;41462465000;39475155555;39975155555
2277;41462480000;39475455555;39975455555
2278;41462481000;39475455555;39975455555
2279;41462482000;39475455555;39975455555
2280;41494026000;39516800000;40016800000
2281;41510603000;39516800000;40016800000
2282;41510608000;39516800000;40016800000
2284;41510624000;39516800000;40016800000
2285;41510626000;39516800000;40016800000
2286;41510627000;39516800000;40016800000
2291;41602514000;39558455555;40058455555
2328;41723345000;39683466666;40183466666
2333;41723458000;39683788888;40183788888
2334;41723461000;39683788888;40183788888
2335;41761535000;39725122222;40225122222
2337;41761860000;39725122222;40225122222
2338;41761871000;39725122222;40225122222
2339;41761872000;39725122222;40225122222
2340;41761873000;39725122222;40225122222
2341;41761874000;39725122222;40225122222
2342;41762104000;39725155555;40225155555
2344;41762111000;39725455555;40225455555
2345;41762112000;39725455555;40225455555
2346;41795800000;39766788888;40266788888
2347;41795804000;39766788888;40266788888
2348;41795804000;39766788888;40266788888
2350;41795806000;39766788888;40266788888
2351;41795806000;39766788888;40266788888
2352;41795808000;39766788888;40266788888
2353;41796008000;39766811111;40266811111
2354;41796023000;39767088888;40267088888
2355;41796024000;39767088888;40267088888
2356;41796025000;39767088888;40267088888
2357;41820244000;39808455555;40308455555
2408;42025857000;39975155555;40475155555
2415;42025873000;40016800000;40516800000
2416;42025883000;40016800000;40516800000
2417;42025884000;40016800000;40516800000
2418;42025885000;40016800000;40516800000
2419;42062581000;40016811111;40516811111
2420;42062597000;40017088888;40517088888
2421;42062602000;40017088888;40517088888
2422;42062603000;40017088888;40517088888
2423;42095462000;40058455555;40558455555
2424;42095465000;40058455555;40558455555
2425;42095466000;40058455555;40558455555
2426;42095467000;40058455555;40558455555
2427;42095468000;40058455555;40558455555
2428;42095469000;40058455555;40558455555
2429;42095470000;40058455555;40558455555
2430;42095668000;40058477777;40558477777
2431;42095684000;40058777777;40558777777
2432;42095685000;40058777777;40558777777
2435;42125928000;40100122222;40600122222
2479;42325805000;40266788888;40766788888
2484;42325809000;40266788888;40766788888
2485;42326008000;40266811111;40766811111
2486;42326023000;40267066666;40767066666
2487;42326024000;40267066666;40767066666
2488;42326025000;40267066666;40767066666
2489;42349901000;40308466666;40808466666
2490;42349904000;40308466666;40808466666
2491;42349905000;40308466666;40808466666
2492;42349906000;40308466666;40808466666
2494;42362923000;40308466666;40808466666
2501;42400805000;40350122222;40850122222
2502;42400809000;40350122222;40850122222
2503;42400810000;40350122222;40850122222
2504;42400811000;40350122222;40850122222
2505;42400812000;40350122222;40850122222
2506;42400813000;40350122222;40850122222
2507;42400931000;40350144444;40850144444
2508;42400946000;40350444444;40850444444
2509;42400948000;40350444444;40850444444
2510;42400948000;40350444444;40850444444
2511;42425523000;40391800000;40891800000
2565;42482559000;40558777777;41058777777
2566;42517406000;40600155555;41100155555
2567;42517410000;40600155555;41100155555
2568;42517411000;40600155555;41100155555
2569;42517412000;40600155555;41100155555
2570;42517413000;40600155555;41100155555
2571;42517414000;40600155555;41100155555
2572;42517415000;40600155555;41100155555
2573;42517621000;40600166666;41100166666
2574;42517636000;40600455555;41100455555
2575;42517637000;40600455555;41100455555
2576;42517638000;40600455555;41100455555
2577;42545294000;40641800000;41141800000
2580;42545298000;40641800000;41141800000
2581;42545299000;40641800000;41141800000
2582;42545300000;40641800000;41141800000
2583;42545301000;40641800000;41141800000
2584;42545537000;40641811111;41141811111
2585;42545552000;40642088888;41142088888
2586;42545553000;40642088888;41142088888
2587;42545554000;40642088888;41142088888
2588;42559367000;40683455555;41183455555
2589;42559370000;40683455555;41183455555
2590;42559371000;40683455555;41183455555
2591;42559372000;40683455555;41183455555
2592;42559373000;40683455555;41183455555
2593;42559374000;40683455555;41183455555
2594;42563647000;40683455555;41183455555
2595;42614101000;40683477777;41183477777
2596;42711782000;40683788888;41183788888
2599;42803642000;40725122222;41225122222
2641;42924164000;40850422222;41350422222
2650;42961493000;40891811111;41391811111
2651;42961508000;40892077777;41392077777
2652;42961509000;40892077777;41392077777
2655;42994975000;40933455555;41433455555
2656;42994979000;40933455555;41433455555
2658;42994980000;40933455555;41433455555
2659;42994981000;40933455555;41433455555
2660;42994982000;40933455555;41433455555
2661;42995090000;40933477777;41433477777
2662;42995105000;40933766666;41433766666
2663;42995106000;40933766666;41433766666
2664;42995107000;40933766666;41433766666
2665;43024747000;40975133333;41475133333
2723;43263710000;41183466666;41683466666
2729;43263823000;41183766666;41683766666
2730;43263826000;41183766666;41683766666
2731;43293485000;41225133333;41725133333
2732;43293489000;41225133333;41725133333
2733;43293490000;41225133333;41725133333
2734;43293491000;41225133333;41725133333
2735;43293492000;41225133333;41725133333
2736;43293492000;41225133333;41725133333
2738;43293823000;41225144444;41725144444
2739;43293838000;41225422222;41725422222
2740;43293839000;41225422222;41725422222
2741;43293840000;41225422222;41725422222
2742;43321139000;41266788888;41766788888
2805;43511981000;41475477777;41975477777
2807;43612846000;41475477777;41975477777
2808;43612934000;41516788888;42016788888
2817;43612968000;41517088888;42017088888
2819;43612980000;41558466666;42058466666
2821;43612982000;41558466666;42058466666
2822;43612984000;41558466666;42058466666
2823;43612986000;41558466666;42058466666
2824;43612988000;41558466666;42058466666
2825;43612989000;41558466666;42058466666
2826;43613063000;41558477777;42058477777
2827;43613065000;41558755555;42058755555
2828;43613066000;41558755555;42058755555
2829;43613067000;41558755555;42058755555
2833;43622645000;41600133333;42100133333
2881;43826762000;41766811111;42266811111
2886;43826778000;41808466666;42308466666
2887;43826780000;41808466666;42308466666
2888;43826780000;41808466666;42308466666
2889;43826782000;41808466666;42308466666
2890;43826783000;41808466666;42308466666
2891;43826783000;41808466666;42308466666
2893;43861502000;41808766666;42308766666
2895;43861506000;41808766666;42308766666
2897;43899432000;41850122222;42350122222
2898;43899436000;41850122222;42350122222
2899;43899437000;41850122222;42350122222
2900;43899438000;41850122222;42350122222
2901;43899439000;41850122222;42350122222
2902;43899440000;41850122222;42350122222
2903;43899542000;41850155555;42350155555
2904;43899557000;41850433333;42350433333
2905;43899558000;41850433333;42350433333
2906;43899560000;41850433333;42350433333
2907;43922102000;41891800000;42391800000
2962;44165068000;42100122222;42600122222
2964;44165071000;42100122222;42600122222
2965;44165072000;42100122222;42600122222
2966;44165073000;42100122222;42600122222
2967;44165074000;42100122222;42600122222
2968;44165075000;42100122222;42600122222
2969;44165225000;42100144444;42600144444
2970;44165228000;42100411111;42600411111
2971;44165229000;42100411111;42600411111
2972;44165230000;42100411111;42600411111
2973;44198297000;42141811111;42641811111
2974;44198299000;42141811111;42641811111
2975;44198300000;42141811111;42641811111
2978;44198441000;42141811111;42641811111
2979;44198442000;42141811111;42641811111
2980;44198581000;42141833333;42641833333
2981;44198584000;42142111111;42642111111
2982;44198585000;42142111111;42642111111
2986;44224337000;42183466666;42683466666
3039;44466844000;42391800000;42891800000
3042;44466848000;42391800000;42891800000
3043;44466849000;42391800000;42891800000
3044;44466850000;42391800000;42891800000
3045;44466851000;42391800000;42891800000
3046;44467056000;42391811111;42891811111
3047;44467063000;42392066666;42892066666
3048;44467064000;42392066666;42892066666
3049;44467065000;42392066666;42892066666
3050;44497712000;42433455555;42933455555
3051;44497715000;42433455555;42933455555
3052;44497717000;42433455555;42933455555
3053;44497718000;42433455555;42933455555
3054;44497719000;42433455555;42933455555
3055;44497720000;42433455555;42933455555
3056;44497721000;42433455555;42933455555
3057;44497881000;42433477777;42933477777
3058;44497888000;42433755555;42933755555
3059;44497889000;42433755555;42933755555
3060;44497891000;42433755555;42933755555
3067;44518938000;42475133333;42975133333
3114;44728161000;42642088888;43142088888
3121;44765369000;42683455555;43183455555
3122;44765372000;42683455555;43183455555
3123;44765572000;42683477777;43183477777
3124;44765587000;42683788888;43183788888
3125;44765588000;42683788888;43183788888
3126;44765589000;42683788888;43183788888
3127;44798874000;42725122222;43225122222
3128;44798877000;42725122222;43225122222
3129;44798878000;42725122222;43225122222
3131;44798880000;42725122222;43225122222
3132;44798881000;42725122222;43225122222
3136;44798991000;42725422222;43225422222
3140;44822189000;42766800000;43266800000
3195;44921315000;42975133333;43475133333
3196;44921318000;42975133333;43475133333
3197;44921320000;42975133333;43475133333
3198;44921321000;42975133333;43475133333
3199;44921322000;42975133333;43475133333
3200;44921445000;42975166666;43475166666
3201;44921461000;42975444444;43475444444
3202;44921462000;42975444444;43475444444
3204;44935424000;43016800000;43516800000
3208;44935427000;43016800000;43516800000
3209;44935428000;43016800000;43516800000
3210;44935429000;43016800000;43516800000
3211;44935656000;43016811111;43516811111
3212;44935671000;43017066666;43517066666
3213;44935673000;43017066666;43517066666
3214;44935674000;43017066666;43517066666
3215;44951423000;43058466666;43558466666
3216;44951427000;43058466666;43558466666
3217;44951428000;43058466666;43558466666
3218;44951429000;43058466666;43558466666
3219;44951430000;43058466666;43558466666
3220;44951431000;43058466666;43558466666
3221;44951432000;43058466666;43558466666
3222;44951622000;43058477777;43558477777
3223;44951625000;43058766666;43558766666
3224;44951627000;43058766666;43558766666
3225;45114180000;43058766666;43558766666
3226;45164528000;43100122222;43600122222
3276;45328634000;43266800000;43766800000
3281;45365789000;43308455555;43808455555
3282;45365792000;43308455555;43808455555
3284;45365793000;43308455555;43808455555
3285;45365795000;43308455555;43808455555
3286;45365795000;43308455555;43808455555
3287;45365797000;43308455555;43808455555
3288;45365951000;43308477777;43808477777
3289;45365957000;43308755555;43808755555
3290;45365959000;43308755555;43808755555
3291;45365960000;43308755555;43808755555
3292;45397697000;43350144444;43850144444
3293;45397701000;43350144444;43850144444
3295;45397702000;43350144444;43850144444
3296;45397703000;43350144444;43850144444
3297;45397704000;43350144444;43850144444
3298;45397705000;43350144444;43850144444
3299;45397858000;43350155555;43850155555
3300;45397865000;43350433333;43850433333
3302;45397866000;43350433333;43850433333
3303;45422177000;43391800000;43891800000
3353;45627955000;43558455555;44058455555
3358;45664706000;43600122222;44100122222
3360;45664806000;43600122222;44100122222
3362;45664808000;43600122222;44100122222
3363;45664809000;43600122222;44100122222
3364;45664810000;43600122222;44100122222
3365;45665018000;43600144444;44100144444
3366;45665034000;43600411111;44100411111
3367;45665035000;43600411111;44100411111
3368;45665036000;43600411111;44100411111
3369;45699032000;43641788888;44141788888
3370;45699035000;43641788888;44141788888
3371;45699036000;43641788888;44141788888
3372;45699037000;43641788888;44141788888
3373;45699038000;43641788888;44141788888
3375;45699039000;43641788888;44141788888
3376;45699246000;43641800000;44141800000
3377;45699261000;43642100000;44142100000
3378;45699263000;43642100000;44142100000
3379;45699264000;43642100000;44142100000
3380;45724131000;43683466666;44183466666
3433;45928168000;43850422222;44350422222
3439;45965943000;43891800000;44391800000
3440;45965946000;43891800000;44391800000
3441;45965947000;43891800000;44391800000
3442;45966163000;43891811111;44391811111
3444;45966179000;43892088888;44392088888
3445;45966180000;43892088888;44392088888
3446;46002133000;43933455555;44433455555
3447;46002136000;43933455555;44433455555
3448;46002137000;43933455555;44433455555
3449;46002139000;43933455555;44433455555
3450;46002140000;43933455555;44433455555
3451;46002141000;43933455555;44433455555
3453;46002264000;43933466666;44433466666
3454;46002269000;43933777777;44433777777
3455;46002270000;43933777777;44433777777
3456;46002272000;43933777777;44433777777
3457;46022973000;43975122222;44475122222
3514;46266441000;44183466666;44683466666
3517;46266445000;44183466666;44683466666
3518;46266446000;44183466666;44683466666
3519;46266652000;44183477777;44683477777
3520;46266668000;44183777777;44683777777
3521;46266669000;44183777777;44683777777
3522;46266670000;44183777777;44683777777
3523;46299671000;44225122222;44725122222
3524;46299674000;44225122222;44725122222
3525;46299675000;44225122222;44725122222
3526;46299677000;44225122222;44725122222
3527;46299678000;44225122222;44725122222
3528;46299679000;44225122222;44725122222
3529;46299679000;44225122222;44725122222
3530;46299885000;44225133333;44725133333
3531;46299900000;44225422222;44725422222
3532;46299902000;44225422222;44725422222
3533;46299903000;44225422222;44725422222
3534;46329346000;44266777777;44766777777
3593;46566303000;44475122222;44975122222
3597;46566416000;44475455555;44975455555
3598;46566419000;44475455555;44975455555
3599;46566421000;44475455555;44975455555
3600;46599577000;44516788888;45016788888
3601;46599590000;44516788888;45016788888
3602;46599591000;44516788888;45016788888
3603;46599591000;44516788888;45016788888
3604;46599592000;44516788888;45016788888
3605;46599593000;44516788888;45016788888
3606;46599594000;44516788888;45016788888
3607;46599793000;44516800000;45016800000
3608;46599808000;44517100000;45017100000
3609;46599809000;44517100000;45017100000
3610;46599810000;44517100000;45017100000
3611;46625156000;44558455555;45058455555
3669;46867851000;44766800000;45266800000
3672;46915968000;44766800000;45266800000
3673;46916237000;44766811111;45266811111
3682;46916254000;44808455555;45308455555
3684;46916391000;44808477777;45308477777
3690;46916407000;44850111111;45350111111
3691;46916408000;44850111111;45350111111
3694;46916409000;44850111111;45350111111
3695;46916567000;44850133333;45350133333
3700;46916640000;44891777777;45391777777
3701;46916643000;44891777777;45391777777
3702;46916644000;44891777777;45391777777
3703;46916645000;44891777777;45391777777
3704;46916646000;44891777777;45391777777
3706;47007944000;44891800000;45391800000
3747;47007960000;45058466666;45558466666
3748;47007961000;45058466666;45558466666
3752;47163408000;45058766666;45558766666
3755;47197361000;45100122222;45600122222
3757;47197365000;45100122222;45600122222
3758;47197366000;45100122222;45600122222
3759;47197367000;45100122222;45600122222
3760;47197368000;45100122222;45600122222
3761;47197486000;45100144444;45600144444
3762;47197502000;45100422222;45600422222
3763;47197503000;45100422222;45600422222
3764;47197504000;45100422222;45600422222
3765;47222602000;45141788888;45641788888
3828;47468409000;45350444444;45850444444
3829;47468413000;45350444444;45850444444
3830;47468414000;45350444444;45850444444
3831;47502142000;45391800000;45891800000
3832;47502146000;45391800000;45891800000
3833;47502147000;45391800000;45891800000
3834;47502148000;45391800000;45891800000
3836;47502149000;45391800000;45891800000
3837;47502150000;45391800000;45891800000
3838;47502335000;45391811111;45891811111
3839;47502342000;45392077777;45892077777
3840;47502343000;45392077777;45892077777
3841;47502344000;45392077777;45892077777
3844;47527064000;45433455555;45933455555
3905;47731105000;45642077777;46142077777
3908;47767832000;45683466666;46183466666
3909;47767835000;45683466666;46183466666
3910;47767836000;45683466666;46183466666
3911;47767837000;45683466666;46183466666
3912;47767838000;45683466666;46183466666
3913;47767839000;45683466666;46183466666
3914;47767840000;45683466666;46183466666
3915;47768039000;45683477777;46183477777
3916;47768061000;45683766666;46183766666
3917;47768062000;45683766666;46183766666
3918;47768063000;45683766666;46183766666
3919;47801067000;45725122222;46225122222
3920;47801070000;45725122222;46225122222
3923;47801175000;45725122222;46225122222
3924;47801178000;45725122222;46225122222
3925;47801179000;45725122222;46225122222
3926;47801377000;45725155555;46225155555
3927;47801392000;45725433333;46225433333
3928;47801393000;45725433333;46225433333
3929;47801394000;45725433333;46225433333
3930;47831540000;45766800000;46266800000
3982;48030869000;45933766666;46433766666
3984;48030873000;45933766666;46433766666
3985;48067640000;45975122222;46475122222
3986;48067644000;45975122222;46475122222
3987;48067645000;45975122222;46475122222
3988;48067646000;45975122222;46475122222
3989;48067647000;45975122222;46475122222
3990;48067648000;45975122222;46475122222
3992;48068616000;45975144444;46475144444
3993;48068633000;45975411111;46475411111
3994;48068634000;45975411111;46475411111
3995;48068635000;45975411111;46475411111
3997;48100676000;46016788888;46516788888
3999;48100680000;46016788888;46516788888
4000;48100681000;46016788888;46516788888
4001;48100682000;46016788888;46516788888
4002;48100683000;46016788888;46516788888
4003;48100790000;46016800000;46516800000
4004;48100807000;46017066666;46517066666
4006;48100808000;46017066666;46517066666
4007;48129741000;46058444444;46558444444
4063;48368198000;46266788888;46766788888
4065;48417565000;46266788888;46766788888
4066;48417567000;46266788888;46766788888
4067;48417569000;46266788888;46766788888
4068;48417580000;46266788888;46766788888
4069;48417847000;46266811111;46766811111
4081;48417853000;46308755555;46808755555
4082;48417860000;46308755555;46808755555
4084;48425116000;46350111111;46850111111
4142;48668312000;46558466666;47058466666
4145;48668316000;46558466666;47058466666
4146;48668533000;46558477777;47058477777
4147;48668549000;46558766666;47058766666
4148;48668550000;46558766666;47058766666
4149;48668551000;46558766666;47058766666
4150;48698440000;46600122222;47100122222
4151;48698444000;46600122222;47100122222
4152;48698444000;46600122222;47100122222
4153;48698446000;46600122222;47100122222
4156;48698447000;46600122222;47100122222
4157;48698646000;46600144444;47100144444
4158;48698661000;46600422222;47100422222
4159;48698662000;46600422222;47100422222
4160;48698663000;46600422222;47100422222
4161;48728228000;46641788888;47141788888
4224;48968539000;46850433333;47350433333
4227;49001829000;46891800000;47391800000
4228;49001832000;46891800000;47391800000
4229;49001834000;46891800000;47391800000
4230;49001834000;46891800000;47391800000
4231;49001835000;46891800000;47391800000
4232;49001837000;46891800000;47391800000
4233;49001837000;46891800000;47391800000
4234;49002036000;46891811111;47391811111
4235;49002060000;46892088888;47392088888
4236;49002062000;46892088888;47392088888
4239;49026087000;46933455555;47433455555
4300;49231081000;47141811111;47641811111
4303;49231097000;47142111111;47642111111
4304;49268254000;47183466666;47683466666
4305;49268258000;47183466666;47683466666
4306;49268259000;47183466666;47683466666
4307;49268260000;47183466666;47683466666
4308;49268261000;47183466666;47683466666
4309;49268262000;47183466666;47683466666
4310;49268263000;47183466666;47683466666
4311;49268442000;47183477777;47683477777
4312;49268449000;47183766666;47683766666
4313;49268451000;47183766666;47683766666
4316;49302460000;47225122222;47725122222
4317;49302463000;47225122222;47725122222
4318;49302465000;47225122222;47725122222
4320;49302466000;47225122222;47725122222
4321;49302467000;47225122222;47725122222
4322;49302561000;47225133333;47725133333
4323;49302564000;47225444444;47725444444
4324;49302565000;47225444444;47725444444
4328;49328431000;47266788888;47766788888
4380;49531133000;47433777777;47933777777
4383;49564659000;47475111111;47975111111
4384;49564663000;47475111111;47975111111
4385;49564664000;47475111111;47975111111
4386;49564665000;47475111111;47975111111
4387;49564666000;47475111111;47975111111
4388;49564861000;47475133333;47975133333
4389;49564867000;47475433333;47975433333
4390;49564868000;47475433333;47975433333
4392;49599326000;47516788888;48016788888
4393;49599330000;47516788888;48016788888
4394;49599331000;47516788888;48016788888
4396;49599332000;47516788888;48016788888
4397;49599333000;47516788888;48016788888
4398;49599334000;47516788888;48016788888
4399;49599458000;47516800000;48016800000
4400;49599473000;47517122222;48017122222
4401;49599474000;47517122222;48017122222
4402;49599475000;47517122222;48017122222
4403;49625274000;47558444444;48058444444
4458;49736825000;47766800000;48266800000
4460;49736829000;47766800000;48266800000
4461;49736830000;47766800000;48266800000
4462;49736831000;47766800000;48266800000
4463;49736831000;47766800000;48266800000
4464;49736832000;47766800000;48266800000
4465;49737032000;47766811111;48266811111
4466;49737054000;47767088888;48267088888
4467;49737055000;47767088888;48267088888
4468;49737056000;47767088888;48267088888
4469;49744280000;47808466666;48308466666
4470;49744284000;47808466666;48308466666
4471;49744285000;47808466666;48308466666
4472;49744286000;47808466666;48308466666
4473;49744287000;47808466666;48308466666
4474;49744288000;47808466666;48308466666
4475;49744288000;47808466666;48308466666
4476;49744409000;47808477777;48308477777
4477;49744424000;47808777777;48308777777
4478;49744425000;47808777777;48308777777
4479;49744426000;47808777777;48308777777
4481;49765271000;47850111111;48350111111
4482;49765274000;47850111111;48350111111
4483;49765275000;47850111111;48350111111
4484;49765276000;47850111111;48350111111
4485;49881781000;47850111111;48350111111
4486;49919079000;47850111111;48350111111
4487;49969600000;47850133333;48350133333
4537;50030101000;48058477777;48558477777
4539;50030104000;48058477777;48558477777
4540;50030106000;48058477777;48558477777
4541;50030107000;48058477777;48558477777
4545;50168410000;48058777777;48558777777
4546;50204179000;48100144444;48600144444
4547;50204183000;48100144444;48600144444
4549;50204185000;48100144444;48600144444
4550;50204186000;48100144444;48600144444
4551;50204187000;48100144444;48600144444
4552;50204188000;48100144444;48600144444
4553;50204404000;48100155555;48600155555
4555;50204421000;48100433333;48600433333
4556;50204422000;48100433333;48600433333
4557;50227008000;48141788888;48641788888
4618;50471055000;48350122222;48850122222
4622;50471102000;48350411111;48850411111
4623;50503562000;48391800000;48891800000
4624;50503566000;48391800000;48891800000
4625;50503567000;48391800000;48891800000
4626;50503568000;48391800000;48891800000
4627;50503569000;48391800000;48891800000
4628;50503570000;48391800000;48891800000
4629;50503571000;48391800000;48891800000
4630;50503732000;48391811111;48891811111
4631;50503739000;48392066666;48892066666
4632;50503740000;48392066666;48892066666
4633;50503741000;48392066666;48892066666
4637;50524778000;48433455555;48933455555
4692;50773457000;48641788888;49141788888
4697;50773569000;48642066666;49142066666
4698;50773572000;48642066666;49142066666
4699;50773574000;48642066666;49142066666
4701;50805217000;48683466666;49183466666
4702;50805220000;48683466666;49183466666
4703;50805221000;48683466666;49183466666
4704;50805222000;48683466666;49183466666
4705;50805223000;48683466666;49183466666
4708;50805237000;48683766666;49183766666
4709;50805238000;48683766666;49183766666
4710;50805239000;48683766666;49183766666
4711;50832077000;48725122222;49225122222
4776;50933830000;48933800000;49433800000
4777;50947516000;48975133333;49475133333
4778;50947519000;48975133333;49475133333
4779;50947521000;48975133333;49475133333
4780;50947522000;48975133333;49475133333
4781;50947523000;48975133333;49475133333
4782;50947524000;48975133333;49475133333
4783;50947525000;48975133333;49475133333
4784;50947644000;48975155555;49475155555
4785;50947660000;48975433333;49475433333
4786;50947661000;48975433333;49475433333
4787;50947662000;48975433333;49475433333
4788;50950435000;49016800000;49516800000
4789;50950438000;49016800000;49516800000
4790;50950440000;49016800000;49516800000
4791;50950440000;49016800000;49516800000
4794;50950442000;49016800000;49516800000
4795;50950560000;49016811111;49516811111
4796;50950576000;49017088888;49517088888
4797;50950577000;49017088888;49517088888
4799;51022516000;49058455555;49558455555
4801;51120234000;49058455555;49558455555
4802;51120246000;49058455555;49558455555
4803;51120247000;49058455555;49558455555
4804;51120248000;49058455555;49558455555
4805;51120249000;49058455555;49558455555
4810;51212232000;49100111111;49600111111
4854;51373133000;49266800000;49766800000
4856;51373137000;49266800000;49766800000
4857;51373138000;49266800000;49766800000
4858;51373139000;49266800000;49766800000
4859;51373139000;49266800000;49766800000
4860;51373141000;49266800000;49766800000
4862;51373251000;49267066666;49767066666
4863;51373255000;49267066666;49767066666
4864;51373255000;49267066666;49767066666
4865;51406006000;49308466666;49808466666
4866;51406009000;49308466666;49808466666
4867;51406010000;49308466666;49808466666
4868;51406011000;49308466666;49808466666
4869;51406012000;49308466666;49808466666
4870;51406013000;49308466666;49808466666
4871;51406014000;49308466666;49808466666
4872;51406215000;49308477777;49808477777
4873;51406230000;49308766666;49808766666
4877;51425927000;49350122222;49850122222
4930;51504268000;49517122222;50017122222
4931;51532822000;49558466666;50058466666
4935;51532825000;49558466666;50058466666
4936;51532826000;49558466666;50058466666
4937;51532828000;49558466666;50058466666
4938;51533034000;49558477777;50058477777
4939;51533057000;49558766666;50058766666
4940;51533059000;49558766666;50058766666
4941;51533060000;49558766666;50058766666
4942;51554726000;49600122222;50100122222
4943;51554730000;49600122222;50100122222
4944;51554731000;49600122222;50100122222
4945;51554732000;49600122222;50100122222
4946;51554732000;49600122222;50100122222
4947;51554733000;49600122222;50100122222
4948;51554734000;49600122222;50100122222
4949;51554845000;49600144444;50100144444
4950;51554851000;49600433333;50100433333
4952;51554852000;49600433333;50100433333
4953;51570470000;49641788888;50141788888
4954;51570473000;49641788888;50141788888
4955;51570474000;49641788888;50141788888
4956;51570476000;49641788888;50141788888
4957;51647817000;49641788888;50141788888
4958;51647820000;49641788888;50141788888
4959;51720742000;49641788888;50141788888
4960;51771175000;49641800000;50141800000
5011;51771191000;49850122222;50350122222
5012;51771192000;49850122222;50350122222
5013;51771193000;49850122222;50350122222
5014;51771194000;49850122222;50350122222
5015;51973805000;49850144444;50350144444
5019;51973821000;49891800000;50391800000
5020;51973822000;49891800000;50391800000
5021;51973823000;49891800000;50391800000
5022;51973824000;49891800000;50391800000
5023;51973825000;49891800000;50391800000
5024;51973825000;49891800000;50391800000
5026;52006567000;49891811111;50391811111
5027;52006582000;49892088888;50392088888
5028;52006583000;49892088888;50392088888
5029;52006584000;49892088888;50392088888
5030;52035490000;49933455555;50433455555
5084;52085815000;50100433333;50600433333
5085;52085931000;50141788888;50641788888
5086;52085934000;50141788888;50641788888
5087;52085936000;50141788888;50641788888
5089;52118465000;50141788888;50641788888
5090;52118476000;50141788888;50641788888
5091;52118477000;50141788888;50641788888
5093;52118592000;50142111111;50642111111
5094;52118595000;50142111111;50642111111
5095;52118597000;50142111111;50642111111
5096;52129690000;50183466666;50683466666
5097;52129693000;50183466666;50683466666
5098;52129694000;50183466666;50683466666
5099;52129695000;50183466666;50683466666
5100;52129696000;50183466666;50683466666
5101;52129697000;50183466666;50683466666
5103;52129851000;50183477777;50683477777
5104;52129857000;50183777777;50683777777
5105;52129859000;50183777777;50683777777
5106;52129860000;50183777777;50683777777
5107;52148467000;50225122222;50725122222
5110;52148471000;50225122222;50725122222
5111;52148472000;50225122222;50725122222
5112;52148473000;50225122222;50725122222
5114;52148642000;50225133333;50725133333
5115;52248304000;50225433333;50725433333
5116;52248319000;50225433333;50725433333
5117;52321408000;50225433333;50725433333
5118;52339903000;50266777777;50766777777
5166;52503486000;50433466666;50933466666
5170;52503603000;50433777777;50933777777
5171;52503606000;50433777777;50933777777
5172;52503607000;50433777777;50933777777
5173;52540772000;50475122222;50975122222
5174;52540776000;50475122222;50975122222
5175;52540777000;50475122222;50975122222
5176;52540778000;50475122222;50975122222
5178;52540779000;50475122222;50975122222
5179;52540780000;50475122222;50975122222
5180;52540989000;50475144444;50975144444
5181;52541004000;50475433333;50975433333
5182;52541005000;50475433333;50975433333
5184;52572034000;50516800000;51016800000
5185;52572038000;50516800000;51016800000
5186;52572039000;50516800000;51016800000
5187;52572040000;50516800000;51016800000
5188;52572041000;50516800000;51016800000
5189;52572047000;50516800000;51016800000
5190;52572049000;50516800000;51016800000
5191;52572169000;50516811111;51016811111
5192;52572184000;50517100000;51017100000
5193;52572185000;50517100000;51017100000
5195;52588409000;50558455555;51058455555
5196;52621948000;50558455555;51058455555
5197;52621951000;50558455555;51058455555
5198;52621952000;50558455555;51058455555
5199;52621953000;50558455555;51058455555
5200;52621958000;50558455555;51058455555
5201;52621988000;50558455555;51058455555
5202;52672435000;50558466666;51058466666
5247;52672451000;50725455555;51225455555
5248;52672452000;50725455555;51225455555
5249;52672453000;50725455555;51225455555
5250;52852437000;50766800000;51266800000
5252;52852440000;50766800000;51266800000
5253;52852441000;50766800000;51266800000
5254;52852451000;50766800000;51266800000
5255;52852452000;50766800000;51266800000
5256;52852453000;50766800000;51266800000
5257;52874100000;50766811111;51266811111
5258;52874115000;50767077777;51267077777
5259;52874116000;50767077777;51267077777
5260;52874117000;50767077777;51267077777
5261;52905139000;50808466666;51308466666
5262;52905143000;50808466666;51308466666
5264;52905144000;50808466666;51308466666
5265;52905145000;50808466666;51308466666
5266;52905146000;50808466666;51308466666
5267;52905147000;50808466666;51308466666
5268;52905361000;50808477777;51308477777
5269;52905377000;50808777777;51308777777
5270;52905378000;50808777777;51308777777
5271;52905379000;50808777777;51308777777
5272;52924420000;50850122222;51350122222
5328;53149399000;51058466666;51558466666
5330;53149403000;51058466666;51558466666
5331;53149404000;51058466666;51558466666
5332;53149405000;51058466666;51558466666
5333;53149406000;51058466666;51558466666
5334;53149517000;51058477777;51558477777
5335;53149523000;51058766666;51558766666
5336;53149524000;51058766666;51558766666
5337;53149525000;51058766666;51558766666
5338;53149537000;51100122222;51600122222
5339;53149538000;51100122222;51600122222
5340;53149549000;51100122222;51600122222
5341;53149550000;51100122222;51600122222
5342;53149551000;51100122222;51600122222
5343;53149552000;51100122222;51600122222
5344;53149554000;51100122222;51600122222
5345;53149643000;51100144444;51600144444
5346;53149649000;51100433333;51600433333
5347;53149650000;51100433333;51600433333
5348;53149651000;51100433333;51600433333
5349;53149662000;51141788888;51641788888
5351;53149664000;51141788888;51641788888
5352;53149675000;51141788888;51641788888
5353;53222600000;51141788888;51641788888
5354;53222609000;51141788888;51641788888
5355;53222620000;51141788888;51641788888
5361;53272970000;51183455555;51683455555
5404;53437320000;51350122222;51850122222
5406;53437324000;51350122222;51850122222
5407;53437325000;51350122222;51850122222
5408;53437326000;51350122222;51850122222
5409;53437327000;51350122222;51850122222
5410;53437337000;51350122222;51850122222
5411;53437473000;51350144444;51850144444
5412;53437476000;51350444444;51850444444
5413;53437477000;51350444444;51850444444
5414;53437478000;51350444444;51850444444
5415;53474330000;51391800000;51891800000
5416;53474334000;51391800000;51891800000
5417;53474335000;51391800000;51891800000
5418;53474336000;51391800000;51891800000
5419;53474337000;51391800000;51891800000
5421;53474338000;51391800000;51891800000
5422;53474538000;51391811111;51891811111
5423;53474553000;51392100000;51892100000
5424;53474555000;51392100000;51892100000
5425;53474556000;51392100000;51892100000
5426;53505929000;51433455555;51933455555
5427;53505932000;51433455555;51933455555
5428;53505933000;51433455555;51933455555
5429;53505934000;51433455555;51933455555
5430;53505935000;51433455555;51933455555
5431;53505946000;51433455555;51933455555
5432;53522923000;51433455555;51933455555
5433;53573383000;51433466666;51933466666
5479;53573398000;51600433333;52100433333
5480;53573399000;51600433333;52100433333
5481;53774842000;51641800000;52141800000
5482;53774846000;51641800000;52141800000
5483;53774847000;51641800000;52141800000
5484;53774848000;51641800000;52141800000
5485;53774849000;51641800000;52141800000
5486;53774850000;51641800000;52141800000
5487;53774851000;51641800000;52141800000
5488;53775058000;51641811111;52141811111
5489;53775065000;51642088888;52142088888
5490;53775066000;51642088888;52142088888
5491;53775067000;51642088888;52142088888
5493;53808711000;51683455555;52183455555
5494;53808714000;51683455555;52183455555
5495;53808715000;51683455555;52183455555
5496;53808716000;51683455555;52183455555
5497;53808717000;51683455555;52183455555
5498;53808718000;51683455555;52183455555
5499;53808839000;51683477777;52183477777
