seqnum;now;rtptime;deadline
3;14820816000;14561711111;15061711111
5;14820821000;14561711111;15061711111
6;14820823000;14561711111;15061711111
7;14820824000;14561711111;15061711111
8;14820826000;14561711111;15061711111
9;14820827000;14561711111;15061711111
10;14902060000;14561733333;15061733333
14;14902071000;14603377777;15103377777
15;14902083000;14603377777;15103377777
16;14902085000;14603377777;15103377777
17;14902086000;14603377777;15103377777
18;14902087000;14603377777;15103377777
19;14902089000;14603377777;15103377777
20;14902090000;14603377777;15103377777
21;14943445000;14603400000;15103400000
36;14943480000;14686711111;15186711111
37;14943483000;14686711111;15186711111
38;14943485000;14686711111;15186711111
39;14943487000;14686711111;15186711111
40;14943489000;14686711111;15186711111
41;14943490000;14686711111;15186711111
42;14943492000;14686711111;15186711111
43;15146670000;14686733333;15186733333
58;15146692000;14770044444;15270044444
59;15146693000;14770044444;15270044444
60;15146695000;14770044444;15270044444
61;15146696000;14770044444;15270044444
62;15146698000;14770044444;15270044444
63;15146699000;14770044444;15270044444
64;15146701000;14770044444;15270044444
65;15191939000;14770066666;15270066666
91;15191955000;14895044444;15395044444
92;15191956000;14895044444;15395044444
93;15191958000;14895044444;15395044444
94;15191959000;14895044444;15395044444
95;15191959000;14895044444;15395044444
96;15191960000;14895044444;15395044444
97;15191961000;14895044444;15395044444
98;15396452000;14895066666;15395066666
113;15396459000;14978366666;15478366666
114;15396460000;14978366666;15478366666
115;15396461000;14978366666;15478366666
116;15396462000;14978366666;15478366666
117;15396463000;14978366666;15478366666
118;15396464000;14978366666;15478366666
119;15396465000;14978366666;15478366666
120;15517643000;14978388888;15478388888
135;15517649000;15061688888;15561688888
136;15517651000;15061688888;15561688888
137;15517652000;15061688888;15561688888
138;15517653000;15061688888;15561688888
139;15517654000;15061688888;15561688888
140;15517655000;15061688888;15561688888
141;15517656000;15061688888;15561688888
142;15571451000;15061700000;15561700000
168;15571466000;15186700000;15686700000
169;15571467000;15186700000;15686700000
170;15571469000;15186700000;15686700000
171;15571470000;15186700000;15686700000
172;15571470000;15186700000;15686700000
173;15571471000;15186700000;15686700000
174;15571472000;15186700000;15686700000
175;15710112000;15186711111;15686711111
190;15710127000;15270044444;15770044444
191;15710128000;15270044444;15770044444
192;15710129000;15270044444;15770044444
193;15710130000;15270044444;15770044444
194;15710131000;15270044444;15770044444
195;15710132000;15270044444;15770044444
196;15710133000;15270044444;15770044444
198;15757600000;15270344444;15770344444
199;15757604000;15270344444;15770344444
200;15757605000;15270344444;15770344444
201;15784526000;15311677777;15811677777
214;15865845000;15353377777;15853377777
223;15917341000;15395044444;15895044444
245;15979826000;15478366666;15978366666
246;15979830000;15478366666;15978366666
247;15979831000;15478366666;15978366666
248;15979832000;15478366666;15978366666
249;15979833000;15478366666;15978366666
250;15979834000;15478366666;15978366666
251;15979835000;15478366666;15978366666
252;15979991000;15478388888;15978388888
253;15979997000;15478722222;15978722222
254;15979998000;15478722222;15978722222
255;15979999000;15478722222;15978722222
256;16013364000;15520044444;16020044444
257;16013368000;15520044444;16020044444
258;16013369000;15520044444;16020044444
259;16013370000;15520044444;16020044444
260;16013371000;15520044444;16020044444
261;16013372000;15520044444;16020044444
262;16013373000;15520044444;16020044444
263;16077717000;15520066666;16020066666
278;16077733000;15603433333;16103433333
279;16077734000;15603433333;16103433333
280;16077735000;15603433333;16103433333
281;16077736000;15603433333;16103433333
282;16077737000;15603433333;16103433333
283;16077738000;15603433333;16103433333
284;16077739000;15603433333;16103433333
285;16154455000;15603644444;16103644444
300;16154482000;15686688888;16186688888
301;16154483000;15686688888;16186688888
302;16154484000;15686688888;16186688888
303;16154485000;15686688888;16186688888
304;16154486000;15686688888;16186688888
305;16154487000;15686688888;16186688888
306;16154488000;15686688888;16186688888
307;16221027000;15686700000;16186700000
308;16221034000;15686966666;16186966666
309;16221035000;15686966666;16186966666
310;16221036000;15686966666;16186966666
311;16254401000;15728344444;16228344444
312;16254404000;15728344444;16228344444
313;16254406000;15728344444;16228344444
314;16254407000;15728344444;16228344444
315;16254408000;15728344444;16228344444
316;16254409000;15728344444;16228344444
317;16254410000;15728344444;16228344444
318;16254572000;15728366666;16228366666
319;16264559000;15728655555;16228655555
320;16264567000;15728655555;16228655555
321;16264581000;15728655555;16228655555
322;16360634000;15770044444;16270044444
333;16401083000;15811688888;16311688888
355;16479907000;15895044444;16395044444
356;16479917000;15895044444;16395044444
357;16479920000;15895044444;16395044444
358;16479921000;15895044444;16395044444
359;16479923000;15895044444;16395044444
360;16479925000;15895044444;16395044444
361;16479927000;15895044444;16395044444
362;16480151000;15895066666;16395066666
363;16480161000;15895344444;16395344444
364;16480163000;15895344444;16395344444
365;16480164000;15895344444;16395344444
366;16520765000;15936700000;16436700000
388;16582987000;16020044444;16520044444
389;16582993000;16020044444;16520044444
390;16582995000;16020044444;16520044444
391;16582996000;16020044444;16520044444
392;16582997000;16020044444;16520044444
393;16582999000;16020044444;16520044444
394;16583000000;16020044444;16520044444
395;16638541000;16020055555;16520055555
410;16638558000;16103377777;16603377777
411;16638559000;16103377777;16603377777
412;16638560000;16103377777;16603377777
413;16638561000;16103377777;16603377777
414;16638562000;16103377777;16603377777
415;16638562000;16103377777;16603377777
416;16638563000;16103377777;16603377777
417;16719107000;16103400000;16603400000
418;16719123000;16103688888;16603688888
419;16719124000;16103688888;16603688888
420;16719125000;16103688888;16603688888
421;16757151000;16145033333;16645033333
443;16878949000;16228377777;16728377777
476;16996063000;16353377777;16853377777
498;17119832000;16436700000;16936700000
531;17238010000;16561788888;17061788888
554;17348173000;16645022222;17145022222
563;17348203000;16645444444;17145444444
564;17348225000;16686755555;17186755555
567;17348228000;16686755555;17186755555
568;17348230000;16686755555;17186755555
569;17348231000;16686755555;17186755555
570;17348238000;16686755555;17186755555
572;17348268000;16687077777;17187077777
574;17348271000;16687077777;17187077777
575;17439897000;16728377777;17228377777
586;17481070000;16770022222;17270022222
619;17598536000;16895022222;17395022222
641;17663130000;16978377777;17478377777
642;17663134000;16978377777;17478377777
643;17663136000;16978377777;17478377777
644;17663137000;16978377777;17478377777
645;17663138000;16978377777;17478377777
646;17663139000;16978377777;17478377777
647;17663139000;16978377777;17478377777
648;17663297000;16978400000;17478400000
649;17663304000;16978688888;17478688888
650;17663305000;16978688888;17478688888
651;17663306000;16978688888;17478688888
652;17680205000;17020011111;17520011111
653;17680209000;17020011111;17520011111
654;17680210000;17020011111;17520011111
655;17680211000;17020011111;17520011111
656;17680212000;17020011111;17520011111
657;17680213000;17020011111;17520011111
658;17680214000;17020011111;17520011111
659;17694288000;17020033333;17520033333
660;17694294000;17020377777;17520377777
661;17694296000;17020377777;17520377777
662;17709614000;17020377777;17520377777
663;17801784000;17061711111;17561711111
674;17842936000;17103377777;17603377777
707;17960963000;17228355555;17728355555
740;18055347000;17353344444;17853344444
741;18055351000;17353344444;17853344444
742;18055352000;17353344444;17853344444
743;18055353000;17353344444;17853344444
744;18055354000;17353344444;17853344444
745;18055355000;17353344444;17853344444
746;18055364000;17353344444;17853344444
747;18055520000;17353366666;17853366666
748;18055527000;17353688888;17853688888
749;18055528000;17353688888;17853688888
750;18055529000;17353688888;17853688888
751;18088010000;17395022222;17895022222
762;18105803000;17436711111;17936711111
763;18105806000;17436711111;17936711111
764;18105807000;17436711111;17936711111
765;18105808000;17436711111;17936711111
766;18105809000;17436711111;17936711111
767;18105810000;17436711111;17936711111
768;18105811000;17436711111;17936711111
769;18203993000;17436733333;17936733333
795;18204008000;17561711111;18061711111
796;18204010000;17561711111;18061711111
797;18204011000;17561711111;18061711111
798;18204011000;17561711111;18061711111
799;18204012000;17561711111;18061711111
800;18204013000;17561711111;18061711111
801;18204014000;17561711111;18061711111
802;18311788000;17561733333;18061733333
823;18311792000;17645011111;18145011111
824;18387516000;17645033333;18145033333
828;18387522000;17686711111;18186711111
829;18387524000;17686711111;18186711111
830;18387525000;17686711111;18186711111
831;18387525000;17686711111;18186711111
834;18418547000;17686711111;18186711111
835;18418705000;17686733333;18186733333
836;18418711000;17687011111;18187011111
837;18418713000;17687011111;18187011111
838;18418714000;17687011111;18187011111
839;18452324000;17728377777;18228377777
861;18565027000;17811677777;18311677777
894;18682173000;17936677777;18436677777
927;18846631000;18061711111;18561711111
960;18955823000;18186711111;18686711111
983;19033279000;18270055555;18770055555
993;19035732000;18311688888;18811688888
1015;19165766000;18395044444;18895044444
1048;19262978000;18520044444;19020044444
1049;19262982000;18520044444;19020044444
1050;19262983000;18520044444;19020044444
1051;19262984000;18520044444;19020044444
1052;19262985000;18520044444;19020044444
1053;19262986000;18520044444;19020044444
1054;19262987000;18520044444;19020044444
1055;19263143000;18520066666;19020066666
1056;19263149000;18520344444;19020344444
1057;19263150000;18520344444;19020344444
1058;19263151000;18520344444;19020344444
1059;19291626000;18561688888;19061688888
1081;19407226000;18645044444;19145044444
1114;19524039000;18770044444;19270044444
1147;19625128000;18895044444;19395044444
1148;19625130000;18895044444;19395044444
1149;19625132000;18895044444;19395044444
1150;19625133000;18895044444;19395044444
1151;19625133000;18895044444;19395044444
1152;19625134000;18895044444;19395044444
1153;19625135000;18895044444;19395044444
1154;19625214000;18895055555;19395055555
1155;19625217000;18895344444;19395344444
1157;19625218000;18895344444;19395344444
1158;19632535000;18936688888;19436688888
1159;19632537000;18936688888;19436688888
1166;19685071000;18937055555;19437055555
1180;19767692000;19020044444;19520044444
1213;19886548000;19145044444;19645044444
1246;19984684000;19270044444;19770044444
1247;19984687000;19270044444;19770044444
1248;19984689000;19270044444;19770044444
1249;19984689000;19270044444;19770044444
1250;19984690000;19270044444;19770044444
1251;19984691000;19270044444;19770044444
1252;19984692000;19270044444;19770044444
1253;19984885000;19270055555;19770055555
1254;19984891000;19270333333;19770333333
1255;19984892000;19270333333;19770333333
1256;19984893000;19270333333;19770333333
1257;20014566000;19311688888;19811688888
1279;20128584000;19395022222;19895022222
1312;20247627000;19520022222;20020022222
1345;20345638000;19645011111;20145011111
1346;20345651000;19645011111;20145011111
1347;20345652000;19645011111;20145011111
1348;20345654000;19645011111;20145011111
1349;20345655000;19645011111;20145011111
1350;20345657000;19645011111;20145011111
1351;20345658000;19645011111;20145011111
1352;20345813000;19645033333;20145033333
1353;20345817000;19645322222;20145322222
1354;20345819000;19645322222;20145322222
1355;20345820000;19645322222;20145322222
1356;20375549000;19686700000;20186700000
1378;20489513000;19770022222;20270022222
1422;20644931000;19936711111;20436711111
1455;20731795000;20061711111;20561711111
1488;20883521000;20186711111;20686711111
1521;20962424000;20311711111;20811711111
1554;21091262000;20436711111;20936711111
1587;21208920000;20561711111;21061711111
1631;21340887000;20728355555;21228355555
1664;21473829000;20853377777;21353377777
1697;21574053000;20978355555;21478355555
1741;21773709000;21145044444;21645044444
1774;21871268000;21270044444;21770044444
1807;21932582000;21395044444;21895044444
1840;22091986000;21520044444;22020044444
1862;22144827000;21603344444;22103344444
1863;22144840000;21603344444;22103344444
1864;22144841000;21603344444;22103344444
1865;22144843000;21603344444;22103344444
1866;22144844000;21603344444;22103344444
1867;22144846000;21603344444;22103344444
1868;22144847000;21603344444;22103344444
1869;22144996000;21603377777;22103377777
1870;22145000000;21603755555;22103755555
1871;22145001000;21603755555;22103755555
1872;22145003000;21603755555;22103755555
1873;22173853000;21645044444;22145044444
1895;22285197000;21728377777;22228377777
1917;22359523000;21811688888;22311688888
1918;22359527000;21811688888;22311688888
1919;22359537000;21811688888;22311688888
1920;22359539000;21811688888;22311688888
1921;22359540000;21811688888;22311688888
1922;22359540000;21811688888;22311688888
1923;22359541000;21811688888;22311688888
1924;22359679000;21811711111;22311711111
1925;22359682000;21812088888;22312088888
1926;22359684000;21812088888;22312088888
1927;22359685000;21812088888;22312088888
1928;22390850000;21853355555;22353355555
1929;22390852000;21853355555;22353355555
1930;22390853000;21853355555;22353355555
1931;22390854000;21853355555;22353355555
1932;22390855000;21853355555;22353355555
1933;22390856000;21853355555;22353355555
1934;22390857000;21853355555;22353355555
1935;22391001000;21853377777;22353377777
1936;22391003000;21853766666;22353766666
1938;22401154000;21853766666;22353766666
1939;22407168000;21895044444;22395044444
1950;22441703000;21936688888;22436688888
1951;22441707000;21936688888;22436688888
1952;22441708000;21936688888;22436688888
1953;22441709000;21936688888;22436688888
1954;22441709000;21936688888;22436688888
1955;22441711000;21936688888;22436688888
1956;22441711000;21936688888;22436688888
1957;22534362000;21936711111;22436711111
1972;22534378000;22020044444;22520044444
1973;22534379000;22020044444;22520044444
1974;22534380000;22020044444;22520044444
1975;22534381000;22020044444;22520044444
1976;22534382000;22020044444;22520044444
1977;22534383000;22020044444;22520044444
1978;22534384000;22020044444;22520044444
1979;22613218000;22020066666;22520066666
1980;22613223000;22020344444;22520344444
1981;22613224000;22020344444;22520344444
1982;22613225000;22020344444;22520344444
1983;22651813000;22061688888;22561688888
2005;22773571000;22145044444;22645044444
2038;22892858000;22270033333;22770033333
2060;22958720000;22353377777;22853377777
2061;22958733000;22353377777;22853377777
2062;22958735000;22353377777;22853377777
2063;22958737000;22353377777;22853377777
2064;22958738000;22353377777;22853377777
2065;22958739000;22353377777;22853377777
2066;22958741000;22353377777;22853377777
2067;22958890000;22353400000;22853400000
2068;22958894000;22353711111;22853711111
2069;22958895000;22353711111;22853711111
2070;22958897000;22353711111;22853711111
2071;23057062000;22395044444;22895044444
2093;23134668000;22478377777;22978377777
2115;23200175000;22561688888;23061688888
2116;23200178000;22561688888;23061688888
2117;23200179000;22561688888;23061688888
2118;23200180000;22561688888;23061688888
2119;23200181000;22561688888;23061688888
2120;23200182000;22561688888;23061688888
2121;23200183000;22561688888;23061688888
2122;23200277000;22561711111;23061711111
2123;23200282000;22562122222;23062122222
2124;23200283000;22562122222;23062122222
2125;23200284000;22562122222;23062122222
2127;23229030000;22603377777;23103377777
2128;23229032000;22603377777;23103377777
2129;23229033000;22603377777;23103377777
2130;23229034000;22603377777;23103377777
2131;23229035000;22603377777;23103377777
2132;23229036000;22603377777;23103377777
2133;23229123000;22603400000;23103400000
2134;23229136000;22603711111;23103711111
2135;23229137000;22603711111;23103711111
2136;23243805000;22603711111;23103711111
2137;23248733000;22645022222;23145022222
2148;23376582000;22686677777;23186677777
2181;23494144000;22811677777;23311677777
2214;23592297000;22936677777;23436677777
2215;23592300000;22936677777;23436677777
2216;23592301000;22936677777;23436677777
2217;23592302000;22936677777;23436677777
2218;23592303000;22936677777;23436677777
2219;23592304000;22936677777;23436677777
2220;23592305000;22936677777;23436677777
2221;23592418000;22936700000;23436700000
2222;23592423000;22937055555;23437055555
2223;23592425000;22937055555;23437055555
2224;23592426000;22937055555;23437055555
2225;23622409000;22978388888;23478388888
2236;23640127000;23020022222;23520022222
2237;23640131000;23020022222;23520022222
2238;23640132000;23020022222;23520022222
2239;23640133000;23020022222;23520022222
2240;23640134000;23020022222;23520022222
2241;23640135000;23020022222;23520022222
2242;23640136000;23020022222;23520022222
2243;23640248000;23020044444;23520044444
2244;23640253000;23020455555;23520455555
2245;23640255000;23020455555;23520455555
2246;23640256000;23020455555;23520455555
2247;23674099000;23061688888;23561688888
2248;23674102000;23061688888;23561688888
2249;23674103000;23061688888;23561688888
2250;23674104000;23061688888;23561688888
2251;23674105000;23061688888;23561688888
2252;23674106000;23061688888;23561688888
2253;23674107000;23061688888;23561688888
2254;23780284000;23061711111;23561711111
2269;23780290000;23145022222;23645022222
2270;23780292000;23145022222;23645022222
2271;23780293000;23145022222;23645022222
2272;23780293000;23145022222;23645022222
2273;23780294000;23145022222;23645022222
2274;23780295000;23145022222;23645022222
2275;23780296000;23145022222;23645022222
2276;23856659000;23145044444;23645044444
2302;23856665000;23270022222;23770022222
2303;23856666000;23270022222;23770022222
2304;23856667000;23270022222;23770022222
2305;23856668000;23270022222;23770022222
2306;23856669000;23270022222;23770022222
2307;23856670000;23270022222;23770022222
2308;23856671000;23270022222;23770022222
2309;23950528000;23270044444;23770044444
2310;23950535000;23270455555;23770455555
2311;23950537000;23270455555;23770455555
2312;23950538000;23270455555;23770455555
2313;23986592000;23311688888;23811688888
2335;24100228000;23395011111;23895011111
2357;24181050000;23478377777;23978377777
2358;24181053000;23478377777;23978377777
2359;24181055000;23478377777;23978377777
2360;24181056000;23478377777;23978377777
2361;24181057000;23478377777;23978377777
2362;24181057000;23478377777;23978377777
2363;24181058000;23478377777;23978377777
2364;24181266000;23478400000;23978400000
2365;24181282000;23478711111;23978711111
2366;24181283000;23478711111;23978711111
2367;24181284000;23478711111;23978711111
2368;24218608000;23520022222;24020022222
2390;24286810000;23603377777;24103377777
2391;24286813000;23603377777;24103377777
2392;24286814000;23603377777;24103377777
2393;24286815000;23603377777;24103377777
2394;24286816000;23603377777;24103377777
2395;24286817000;23603377777;24103377777
2396;24286818000;23603377777;24103377777
2397;24286937000;23603400000;24103400000
2398;24286942000;23603711111;24103711111
2399;24286943000;23603711111;24103711111
2400;24286944000;23603711111;24103711111
2401;24382757000;23645022222;24145022222
2423;24459125000;23728355555;24228355555
2456;24560182000;23853355555;24353355555
2457;24560186000;23853355555;24353355555
2458;24560187000;23853355555;24353355555
2459;24560188000;23853355555;24353355555
2460;24560189000;23853355555;24353355555
2461;24560190000;23853355555;24353355555
2462;24560191000;23853355555;24353355555
2463;24560397000;23853377777;24353377777
2464;24560413000;23853700000;24353700000
2465;24560414000;23853700000;24353700000
2466;24560415000;23853700000;24353700000
2467;24592099000;23895022222;24395022222
2489;24644739000;23978355555;24478355555
2490;24644743000;23978355555;24478355555
2491;24644744000;23978355555;24478355555
2492;24644745000;23978355555;24478355555
2493;24644746000;23978355555;24478355555
2494;24644747000;23978355555;24478355555
2495;24644747000;23978355555;24478355555
2496;24703011000;23978377777;24478377777
2522;24703027000;24103355555;24603355555
2523;24703028000;24103355555;24603355555
2524;24703029000;24103355555;24603355555
2525;24703030000;24103355555;24603355555
2526;24703031000;24103355555;24603355555
2527;24703032000;24103355555;24603355555
2528;24703033000;24103355555;24603355555
2529;24820165000;24103377777;24603377777
2555;24820180000;24228355555;24728355555
2556;24820181000;24228355555;24728355555
2557;24820182000;24228355555;24728355555
2558;24820184000;24228355555;24728355555
2559;24820184000;24228355555;24728355555
2560;24820185000;24228355555;24728355555
2561;24820186000;24228355555;24728355555
2562;24984166000;24228388888;24728388888
2588;24984171000;24353355555;24853355555
2589;24984172000;24353355555;24853355555
2590;24984173000;24353355555;24853355555
2591;24984174000;24353355555;24853355555
2592;24984175000;24353355555;24853355555
2593;24984176000;24353355555;24853355555
2594;24984186000;24353355555;24853355555
2595;25092859000;24353377777;24853377777
2621;25092874000;24478344444;24978344444
2622;25092875000;24478344444;24978344444
2623;25092876000;24478344444;24978344444
2624;25092877000;24478344444;24978344444
2625;25092878000;24478344444;24978344444
2626;25092879000;24478344444;24978344444
2627;25092880000;24478344444;24978344444
2628;25222224000;24478377777;24978377777
2654;25222241000;24603355555;25103355555
2655;25222242000;24603355555;25103355555
2656;25222243000;24603355555;25103355555
2657;25222245000;24603355555;25103355555
2658;25222246000;24603355555;25103355555
2659;25222247000;24603355555;25103355555
2660;25222248000;24603355555;25103355555
2661;25346233000;24603377777;25103377777
2687;25346238000;24728377777;25228377777
2688;25346239000;24728377777;25228377777
2689;25346240000;24728377777;25228377777
2690;25346241000;24728377777;25228377777
2691;25346242000;24728377777;25228377777
2692;25346243000;24728377777;25228377777
2693;25346244000;24728377777;25228377777
2694;25457005000;24728388888;25228388888
2720;25457020000;24853344444;25353344444
2721;25457021000;24853344444;25353344444
2722;25457022000;24853344444;25353344444
2723;25457023000;24853344444;25353344444
2724;25457024000;24853344444;25353344444
2725;25457025000;24853344444;25353344444
2726;25457026000;24853344444;25353344444
2727;25537613000;24853366666;25353366666
2753;25537619000;24978344444;25478344444
2754;25537620000;24978344444;25478344444
2755;25537621000;24978344444;25478344444
2756;25537622000;24978344444;25478344444
2757;25537623000;24978344444;25478344444
2758;25537624000;24978344444;25478344444
2759;25537625000;24978344444;25478344444
2760;25707717000;24978377777;25478377777
2786;25707733000;25103344444;25603344444
2787;25707734000;25103344444;25603344444
2788;25707735000;25103344444;25603344444
2789;25707736000;25103344444;25603344444
2793;25819182000;25103377777;25603377777
2819;25819186000;25228344444;25728344444
2820;25819187000;25228344444;25728344444
2821;25819188000;25228344444;25728344444
2822;25819189000;25228344444;25728344444
2823;25819190000;25228344444;25728344444
2824;25819191000;25228344444;25728344444
2825;25819192000;25228344444;25728344444
2826;25897656000;25228366666;25728366666
2852;25897660000;25353388888;25853388888
2853;25897661000;25353388888;25853388888
2854;25897662000;25353388888;25853388888
2855;25897663000;25353388888;25853388888
2856;25897664000;25353388888;25853388888
2857;25897665000;25353388888;25853388888
2858;25897676000;25353388888;25853388888
2859;26069895000;25353433333;25853433333
2885;26069899000;25478366666;25978366666
2886;26069900000;25478366666;25978366666
2887;26069901000;25478366666;25978366666
2888;26069901000;25478366666;25978366666
2889;26069903000;25478366666;25978366666
2890;26069904000;25478366666;25978366666
2891;26069904000;25478366666;25978366666
2892;26176906000;25478388888;25978388888
2918;26176921000;25603366666;26103366666
2919;26176922000;25603366666;26103366666
2920;26176923000;25603366666;26103366666
2921;26176924000;25603366666;26103366666
2922;26176925000;25603366666;26103366666
2923;26176926000;25603366666;26103366666
2924;26176934000;25603366666;26103366666
2925;26254701000;25603388888;26103388888
2926;26254707000;25603677777;26103677777
2927;26254708000;25603677777;26103677777
2928;26254709000;25603677777;26103677777
2929;26285124000;25645033333;26145033333
2959;26385576000;25728677777;26228677777
2995;26540784000;25895033333;26395033333
3028;26623499000;26020022222;26520022222
3061;26790695000;26145022222;26645022222
3105;26932554000;26311677777;26811677777
3138;26997310000;26436777777;26936777777
3171;27151929000;26561711111;27061711111
3204;27264336000;26686711111;27186711111
3226;27316756000;26770044444;27270044444
3227;27316760000;26770044444;27270044444
3228;27316761000;26770044444;27270044444
3229;27316762000;26770044444;27270044444
3230;27316763000;26770044444;27270044444
3231;27316764000;26770044444;27270044444
3232;27316765000;26770044444;27270044444
3233;27316964000;26770066666;27270066666
3234;27316979000;26770344444;27270344444
3235;27316980000;26770344444;27270344444
3236;27316981000;26770344444;27270344444
3237;27341733000;26811711111;27311711111
3259;27470654000;26895022222;27395022222
3281;27535885000;26978355555;27478355555
3282;27535888000;26978355555;27478355555
3283;27535889000;26978355555;27478355555
3284;27535890000;26978355555;27478355555
3285;27535891000;26978355555;27478355555
3286;27535892000;26978355555;27478355555
3287;27535893000;26978355555;27478355555
3288;27536107000;26978377777;27478377777
3289;27536123000;26978766666;27478766666
3290;27536124000;26978766666;27478766666
3291;27536125000;26978766666;27478766666
3292;27567408000;27020011111;27520011111
3293;27567411000;27020011111;27520011111
3294;27567412000;27020011111;27520011111
3295;27567413000;27020011111;27520011111
3296;27567414000;27020011111;27520011111
3297;27567415000;27020011111;27520011111
3298;27567416000;27020011111;27520011111
3299;27567621000;27020044444;27520044444
3300;27567637000;27020422222;27520422222
3301;27567638000;27020422222;27520422222
3302;27567639000;27020422222;27520422222
3303;27585802000;27061711111;27561711111
3314;27622478000;27103355555;27603355555
3315;27622482000;27103355555;27603355555
3316;27622483000;27103355555;27603355555
3317;27622484000;27103355555;27603355555
3318;27622485000;27103355555;27603355555
3319;27622485000;27103355555;27603355555
3320;27622486000;27103355555;27603355555
3321;27622685000;27103377777;27603377777
3322;27622700000;27103766666;27603766666
3323;27622701000;27103766666;27603766666
3324;27622702000;27103766666;27603766666
3325;27713060000;27145011111;27645011111
3347;27794378000;27228355555;27728355555
3348;27794381000;27228355555;27728355555
3349;27794382000;27228355555;27728355555
3350;27794383000;27228355555;27728355555
3351;27794384000;27228355555;27728355555
3352;27794385000;27228355555;27728355555
3353;27794386000;27228355555;27728355555
3354;27794592000;27228377777;27728377777
3355;27794608000;27228755555;27728755555
3356;27794609000;27228755555;27728755555
3357;27794610000;27228755555;27728755555
3358;27833569000;27270011111;27770011111
3369;27869301000;27311711111;27811711111
3370;27869304000;27311711111;27811711111
3371;27869305000;27311711111;27811711111
3372;27869306000;27311711111;27811711111
3373;27869307000;27311711111;27811711111
3376;27869507000;27311733333;27811733333
3377;27869522000;27312000000;27812000000
3378;27869523000;27312000000;27812000000
3379;27869524000;27312000000;27812000000
3380;27954274000;27353344444;27853344444
3402;28035900000;27436722222;27936722222
3403;28035903000;27436722222;27936722222
3404;28035905000;27436722222;27936722222
3405;28035906000;27436722222;27936722222
3406;28035907000;27436722222;27936722222
3407;28035907000;27436722222;27936722222
3408;28035908000;27436722222;27936722222
3409;28036063000;27436733333;27936733333
3410;28036069000;27437000000;27937000000
3411;28036070000;27437000000;27937000000
3412;28036071000;27437000000;27937000000
3413;28074759000;27478366666;27978366666
3435;28147055000;27561711111;28061711111
3436;28147059000;27561711111;28061711111
3437;28147060000;27561711111;28061711111
3438;28147061000;27561711111;28061711111
3439;28147070000;27561711111;28061711111
3440;28147071000;27561711111;28061711111
3441;28147072000;27561711111;28061711111
3442;28195311000;27561733333;28061733333
3457;28195327000;27645044444;28145044444
3458;28195328000;27645044444;28145044444
3459;28195329000;27645044444;28145044444
3460;28195330000;27645044444;28145044444
3461;28195330000;27645044444;28145044444
3462;28195331000;27645044444;28145044444
3463;28195332000;27645044444;28145044444
3464;28276752000;27645066666;28145066666
3465;28276767000;27645333333;28145333333
3466;28276769000;27645333333;28145333333
3467;28276770000;27645333333;28145333333
3468;28316169000;27686700000;28186700000
3490;28387552000;27770044444;28270044444
3491;28387555000;27770044444;28270044444
3492;28387556000;27770044444;28270044444
3493;28387557000;27770044444;28270044444
3494;28387558000;27770044444;28270044444
3495;28387559000;27770044444;28270044444
3496;28387560000;27770044444;28270044444
3497;28387766000;27770066666;28270066666
3498;28387782000;27770355555;28270355555
3499;28387783000;27770355555;28270355555
3500;28387784000;27770355555;28270355555
3501;28422426000;27811711111;28311711111
3502;28422429000;27811711111;28311711111
3503;28422430000;27811711111;28311711111
3504;28422431000;27811711111;28311711111
3505;28422432000;27811711111;28311711111
3506;28422433000;27811711111;28311711111
3507;28422434000;27811711111;28311711111
3508;28422633000;27811722222;28311722222
3509;28423037000;27812011111;28312011111
3510;28423120000;27812011111;28312011111
3511;28423135000;27812011111;28312011111
3512;28516803000;27853355555;28353355555
3523;28555410000;27895044444;28395044444
3556;28651948000;28020044444;28520044444
3557;28651951000;28020044444;28520044444
3558;28651952000;28020044444;28520044444
3559;28651953000;28020044444;28520044444
3560;28651954000;28020044444;28520044444
3561;28651955000;28020044444;28520044444
3562;28651956000;28020044444;28520044444
3563;28652074000;28020066666;28520066666
3564;28652080000;28020355555;28520355555
3565;28652081000;28020355555;28520355555
3566;28652082000;28020355555;28520355555
3567;28681908000;28061688888;28561688888
3578;28701618000;28103344444;28603344444
3579;28701622000;28103344444;28603344444
3580;28701623000;28103344444;28603344444
3581;28701624000;28103344444;28603344444
3582;28701625000;28103344444;28603344444
3583;28701626000;28103344444;28603344444
3584;28701627000;28103344444;28603344444
3585;28701716000;28103377777;28603377777
3586;28701721000;28103777777;28603777777
3587;28701723000;28103777777;28603777777
3588;28701724000;28103777777;28603777777
3589;28735237000;28145022222;28645022222
3590;28735241000;28145022222;28645022222
3591;28735242000;28145022222;28645022222
3592;28735242000;28145022222;28645022222
3593;28735243000;28145022222;28645022222
3594;28735244000;28145022222;28645022222
3595;28735245000;28145022222;28645022222
3596;28797540000;28145044444;28645044444
3611;28797546000;28228344444;28728344444
3612;28797548000;28228344444;28728344444
3613;28797548000;28228344444;28728344444
3614;28797549000;28228344444;28728344444
3615;28797550000;28228344444;28728344444
3616;28797551000;28228344444;28728344444
3617;28797552000;28228344444;28728344444
3618;28878342000;28228366666;28728366666
3619;28878348000;28228744444;28728744444
3620;28878349000;28228744444;28728744444
3621;28878350000;28228744444;28728744444
3622;28917799000;28270044444;28770044444
3644;28990932000;28353344444;28853344444
3645;28990936000;28353344444;28853344444
3646;28990937000;28353344444;28853344444
3647;28990938000;28353344444;28853344444
3648;28990939000;28353344444;28853344444
3649;28990940000;28353344444;28853344444
3650;28990941000;28353344444;28853344444
3651;28991079000;28353366666;28853366666
3652;28991084000;28353766666;28853766666
3653;28991086000;28353766666;28853766666
3654;28991087000;28353766666;28853766666
3655;29025629000;28395044444;28895044444
3659;29025634000;28395044444;28895044444
3668;29123964000;28436688888;28936688888
3677;29157526000;28478344444;28978344444
3701;29278422000;28561677777;29061677777
3732;29397039000;28686688888;29186688888
3765;29492915000;28811677777;29311677777
3766;29492919000;28811677777;29311677777
3767;29492920000;28811677777;29311677777
3768;29492921000;28811677777;29311677777
3769;29492921000;28811677777;29311677777
3770;29492923000;28811677777;29311677777
3771;29492924000;28811677777;29311677777
3772;29493039000;28811700000;29311700000
3773;29493050000;28811988888;29311988888
3774;29493052000;28811988888;29311988888
3775;29493053000;28811988888;29311988888
3776;29525362000;28853377777;29353377777
3798;29639670000;28936688888;29436688888
3820;29719890000;29020044444;29520044444
3821;29719903000;29020044444;29520044444
3822;29719905000;29020044444;29520044444
3823;29719906000;29020044444;29520044444
3824;29719908000;29020044444;29520044444
3825;29719909000;29020044444;29520044444
3826;29719910000;29020044444;29520044444
3827;29720073000;29020066666;29520066666
3828;29720077000;29020344444;29520344444
3829;29720079000;29020344444;29520344444
3830;29720080000;29020344444;29520344444
3831;29752525000;29061688888;29561688888
3853;29880202000;29145044444;29645044444
3886;29998403000;29270022222;29770022222
3919;30099067000;29395022222;29895022222
3920;30099071000;29395022222;29895022222
3921;30099081000;29395022222;29895022222
3922;30099082000;29395022222;29895022222
3923;30099083000;29395022222;29895022222
3924;30099084000;29395022222;29895022222
3925;30099085000;29395022222;29895022222
3926;30099313000;29395044444;29895044444
3927;30099329000;29395433333;29895433333
3928;30099330000;29395433333;29895433333
3929;30099331000;29395433333;29895433333
3930;30127392000;29436677777;29936677777
3952;30181114000;29520022222;30020022222
3953;30181127000;29520022222;30020022222
3954;30181129000;29520022222;30020022222
3955;30181130000;29520022222;30020022222
3956;30181131000;29520022222;30020022222
3957;30181133000;29520022222;30020022222
3958;30181134000;29520022222;30020022222
3959;30241243000;29520055555;30020055555
3985;30241259000;29645022222;30145022222
3986;30241260000;29645022222;30145022222
3987;30241261000;29645022222;30145022222
3988;30241262000;29645022222;30145022222
3989;30241263000;29645022222;30145022222
3990;30241264000;29645022222;30145022222
3991;30241265000;29645022222;30145022222
3992;30358336000;29645044444;30145044444
4018;30358351000;29770022222;30270022222
4019;30358353000;29770022222;30270022222
4020;30358354000;29770022222;30270022222
4021;30358355000;29770022222;30270022222
4022;30358356000;29770022222;30270022222
4023;30358356000;29770022222;30270022222
4024;30358357000;29770022222;30270022222
4025;30455290000;29770044444;30270044444
4026;30455295000;29770422222;30270422222
4027;30455297000;29770422222;30270422222
4028;30455299000;29770422222;30270422222
4029;30485433000;29811711111;30311711111
4051;30639646000;29895022222;30395022222
4084;30752921000;30020022222;30520022222
4117;30833750000;30145022222;30645022222
4150;30973564000;30270022222;30770022222
4183;31069661000;30395011111;30895011111
4184;31069664000;30395011111;30895011111
4185;31069675000;30395011111;30895011111
4186;31069676000;30395011111;30895011111
4187;31069677000;30395011111;30895011111
4188;31069678000;30395011111;30895011111
4189;31069679000;30395011111;30895011111
4190;31069817000;30395033333;30895033333
4191;31069820000;30395422222;30895422222
4192;31069821000;30395422222;30895422222
4193;31069822000;30395422222;30895422222
4194;31165709000;30436711111;30936711111
4216;31233061000;30520033333;31020033333
4249;31313867000;30645033333;31145033333
4282;31475367000;30770055555;31270055555
4315;31561761000;30895044444;31395044444
4348;31685306000;31020044444;31520044444
4392;31839492000;31186711111;31686711111
4425;31922446000;31311688888;31811688888
4458;32087681000;31436688888;31936688888
4491;32198538000;31561688888;32061688888
4535;32311025000;31728377777;32228377777
4568;32448998000;31853411111;32353411111
4601;32559382000;31978377777;32478377777
4634;32640675000;32103377777;32603377777
4667;32806066000;32228377777;32728377777
4689;32835039000;32311688888;32811688888
4690;32835051000;32311688888;32811688888
4691;32835052000;32311688888;32811688888
4692;32835064000;32311688888;32811688888
4693;32835066000;32311688888;32811688888
4694;32835067000;32311688888;32811688888
4695;32835068000;32311688888;32811688888
4696;32853628000;32311711111;32811711111
4697;32853632000;32312055555;32812055555
4698;32853633000;32312055555;32812055555
4702;32888074000;32353377777;32853377777
4711;32967323000;32395022222;32895022222
4712;32967336000;32395022222;32895022222
4713;32967338000;32395022222;32895022222
4714;32967339000;32395022222;32895022222
4715;32967341000;32395022222;32895022222
4716;32967343000;32395022222;32895022222
4717;32967344000;32395022222;32895022222
4718;32967494000;32395044444;32895044444
4720;32967938000;32395433333;32895433333
4721;32967939000;32395433333;32895433333
4722;33008834000;32436688888;32936688888
4744;33085861000;32520044444;33020044444
4745;33085865000;32520044444;33020044444
4746;33085867000;32520044444;33020044444
4747;33085868000;32520044444;33020044444
4748;33085869000;32520044444;33020044444
4749;33085871000;32520044444;33020044444
4750;33085872000;32520044444;33020044444
4751;33089613000;32520055555;33020055555
4752;33089617000;32520388888;33020388888
4753;33089619000;32520388888;33020388888
4754;33089620000;32520388888;33020388888
4755;33125963000;32561711111;33061711111
4777;33201360000;32645022222;33145022222
4778;33201373000;32645022222;33145022222
4779;33201375000;32645022222;33145022222
4780;33201376000;32645022222;33145022222
4781;33201377000;32645022222;33145022222
4782;33201379000;32645022222;33145022222
4783;33201380000;32645022222;33145022222
4784;33201529000;32645055555;33145055555
4785;33201533000;32645455555;33145455555
4786;33201534000;32645455555;33145455555
4787;33201536000;32645455555;33145455555
4788;33291059000;32686688888;33186688888
4799;33329751000;32728377777;33228377777
4800;33329765000;32728377777;33228377777
4801;33329766000;32728377777;33228377777
4802;33329768000;32728377777;33228377777
4803;33329769000;32728377777;33228377777
4804;33329771000;32728377777;33228377777
4805;33329772000;32728377777;33228377777
4806;33329922000;32728388888;33228388888
4807;33329926000;32728700000;33228700000
4808;33329928000;32728700000;33228700000
4809;33329929000;32728700000;33228700000
4810;33367380000;32770022222;33270022222
4832;33489914000;32853377777;33353377777
4854;33569934000;32936711111;33436711111
4855;33569947000;32936711111;33436711111
4856;33569948000;32936711111;33436711111
4857;33569950000;32936711111;33436711111
4858;33569951000;32936711111;33436711111
4859;33569953000;32936711111;33436711111
4860;33569954000;32936711111;33436711111
4861;33570113000;32936733333;33436733333
4862;33570117000;32937000000;33437000000
4863;33570119000;32937000000;33437000000
4864;33570120000;32937000000;33437000000
4865;33608151000;32978377777;33478377777
4887;33677354000;33061711111;33561711111
4888;33677367000;33061711111;33561711111
4889;33677369000;33061711111;33561711111
4890;33677370000;33061711111;33561711111
4891;33677372000;33061711111;33561711111
4892;33677373000;33061711111;33561711111
4893;33677375000;33061711111;33561711111
4894;33677524000;33061733333;33561733333
4895;33677527000;33062011111;33562011111
4896;33677529000;33062011111;33562011111
4897;33677530000;33062011111;33562011111
4898;33771632000;33103377777;33603377777
4909;33810274000;33145022222;33645022222
4910;33810288000;33145022222;33645022222
4911;33810289000;33145022222;33645022222
4912;33810291000;33145022222;33645022222
4913;33810292000;33145022222;33645022222
4914;33810294000;33145022222;33645022222
4915;33810295000;33145022222;33645022222
4916;33810444000;33145044444;33645044444
4917;33810448000;33145455555;33645455555
4918;33810450000;33145455555;33645455555
4919;33810451000;33145455555;33645455555
4920;33848645000;33186711111;33686711111
4942;33969920000;33270022222;33770022222
4975;34080560000;33395022222;33895022222
4997;34155111000;33478366666;33978366666
4998;34155125000;33478366666;33978366666
4999;34155126000;33478366666;33978366666
5000;34155128000;33478366666;33978366666
5001;34155129000;33478366666;33978366666
5002;34155131000;33478366666;33978366666
5003;34155142000;33478366666;33978366666
5004;34155294000;33478388888;33978388888
5005;34155298000;33478833333;33978833333
5006;34155299000;33478833333;33978833333
5007;34155301000;33478833333;33978833333
5008;34188478000;33520011111;34020011111
5009;34188482000;33520011111;34020011111
5010;34188492000;33520011111;34020011111
5011;34188494000;33520011111;34020011111
5012;34188495000;33520011111;34020011111
5013;34188496000;33520011111;34020011111
5014;34188498000;33520011111;34020011111
5015;34188646000;33520044444;34020044444
5016;34188650000;33520455555;34020455555
5017;34198299000;33520455555;34020455555
5018;34198306000;33520455555;34020455555
5019;34290060000;33561711111;34061711111
5030;34331703000;33603355555;34103355555
5063;34451066000;33728355555;34228355555
5085;34516230000;33811711111;34311711111
5086;34516243000;33811711111;34311711111
5087;34516245000;33811711111;34311711111
5088;34516246000;33811711111;34311711111
5089;34516248000;33811711111;34311711111
5090;34516249000;33811711111;34311711111
5091;34516251000;33811711111;34311711111
5092;34516399000;33811733333;34311733333
5093;34516403000;33812022222;34312022222
5094;34516405000;33812022222;34312022222
5095;34516406000;33812022222;34312022222
5096;34549611000;33853355555;34353355555
5097;34549613000;33853355555;34353355555
5098;34549615000;33853355555;34353355555
5099;34549616000;33853355555;34353355555
5100;34549618000;33853355555;34353355555
5101;34549619000;33853355555;34353355555
5102;34549630000;33853355555;34353355555
5103;34549773000;33853388888;34353388888
5104;34549777000;33853811111;34353811111
5105;34549778000;33853811111;34353811111
5106;34559084000;33853811111;34353811111
5107;34650775000;33895011111;34395011111
5118;34692571000;33936711111;34436711111
5151;34811263000;34061711111;34561711111
5184;34909367000;34186711111;34686711111
5185;34909371000;34186711111;34686711111
5186;34909381000;34186711111;34686711111
5187;34909382000;34186711111;34686711111
5188;34909383000;34186711111;34686711111
5189;34909384000;34186711111;34686711111
5190;34909385000;34186711111;34686711111
5191;34909555000;34186733333;34686733333
5192;34909558000;34187022222;34687022222
5193;34909559000;34187022222;34687022222
5198;34927717000;34228355555;34728355555
5206;35051773000;34270044444;34770044444
5239;35171557000;34395044444;34895044444
5272;35271422000;34520044444;35020044444
5273;35271436000;34520044444;35020044444
5274;35271437000;34520044444;35020044444
5275;35271439000;34520044444;35020044444
5276;35271440000;34520044444;35020044444
5277;35271441000;34520044444;35020044444
5278;35271443000;34520044444;35020044444
5279;35271592000;34520066666;35020066666
5280;35271596000;34520366666;35020366666
5281;35271598000;34520366666;35020366666
5282;35271599000;34520366666;35020366666
5283;35304722000;34561688888;35061688888
5294;35317539000;34603344444;35103344444
5295;35317542000;34603344444;35103344444
5296;35317543000;34603344444;35103344444
5297;35317544000;34603344444;35103344444
5298;35317545000;34603344444;35103344444
5299;35317546000;34603344444;35103344444
5300;35317547000;34603344444;35103344444
5301;35317746000;34603377777;35103377777
5302;35317762000;34603777777;35103777777
5303;35317763000;34603777777;35103777777
5304;35317764000;34603777777;35103777777
5305;35351323000;34645044444;35145044444
5306;35351327000;34645044444;35145044444
5307;35351329000;34645044444;35145044444
5308;35351330000;34645044444;35145044444
5309;35351332000;34645044444;35145044444
5310;35351333000;34645044444;35145044444
5311;35351335000;34645044444;35145044444
5312;35414511000;34645066666;35145066666
5327;35414527000;34728388888;35228388888
5328;35414528000;34728388888;35228388888
5329;35414529000;34728388888;35228388888
5330;35414530000;34728388888;35228388888
5331;35414530000;34728388888;35228388888
5332;35414532000;34728388888;35228388888
5333;35414532000;34728388888;35228388888
5334;35495521000;34728400000;35228400000
5335;35495527000;34728711111;35228711111
5336;35495528000;34728711111;35228711111
5337;35495530000;34728711111;35228711111
5338;35534986000;34770044444;35270044444
5360;35607180000;34853377777;35353377777
5361;35607197000;34853377777;35353377777
5362;35607198000;34853377777;35353377777
5363;35607200000;34853377777;35353377777
5364;35607201000;34853377777;35353377777
5365;35607203000;34853377777;35353377777
5366;35607213000;34853377777;35353377777
5368;35607290000;34853700000;35353700000
5369;35607293000;34853700000;35353700000
5370;35607294000;34853700000;35353700000
5371;35645240000;34895055555;35395055555
5383;35762094000;34936688888;35436688888
5392;35762153000;34937066666;35437066666
5393;35776590000;34978344444;35478344444
5415;35849564000;35061688888;35561688888
5416;35849568000;35061688888;35561688888
5417;35849570000;35061688888;35561688888
5418;35849571000;35061688888;35561688888
5419;35849573000;35061688888;35561688888
5420;35849574000;35061688888;35561688888
5421;35849576000;35061688888;35561688888
5422;35849666000;35061722222;35561722222
5423;35849669000;35062111111;35562111111
5424;35849671000;35062111111;35562111111
5425;35849672000;35062111111;35562111111
5428;35885546000;35103377777;35603377777
5451;36015254000;35186688888;35686688888
5481;36089431000;35311688888;35811688888
5482;36089444000;35311688888;35811688888
5483;36089446000;35311688888;35811688888
5484;36089447000;35311688888;35811688888
5485;36089448000;35311688888;35811688888
5486;36089450000;35311688888;35811688888
5487;36089451000;35311688888;35811688888
5488;36112207000;35311711111;35811711111
5489;36112211000;35312088888;35812088888
5490;36112213000;35312088888;35812088888
5491;36122980000;35312088888;35812088888
5492;36145947000;35353377777;35853377777
5493;36145951000;35353377777;35853377777
5495;36145952000;35353377777;35853377777
5496;36145953000;35353377777;35853377777
5497;36145954000;35353377777;35853377777
5498;36145955000;35353377777;35853377777
5499;36146162000;35353400000;35853400000
