seqnum;now;rtptime;deadline
1;8053505000;7918044444;8118044444
2;8053508000;7918044444;8118044444
3;8053509000;7918044444;8118044444
4;8053525000;7918044444;8118044444
5;8053527000;7918044444;8118044444
6;8053529000;7918044444;8118044444
7;8053530000;7918044444;8118044444
8;8053532000;7918044444;8118044444
9;8053533000;7918044444;8118044444
10;8100216000;7918044444;8118044444
21;8131899000;7949722222;8149722222
22;8131932000;7991400000;8191400000
23;8131933000;7991400000;8191400000
24;8131935000;7991400000;8191400000
25;8131936000;7991400000;8191400000
26;8131938000;7991400000;8191400000
27;8131939000;7991400000;8191400000
28;8131941000;7991400000;8191400000
29;8131942000;7991400000;8191400000
30;8131943000;7991400000;8191400000
31;8131945000;7991400000;8191400000
32;8173647000;7991400000;8191400000
33;8173673000;8033066666;8233066666
34;8173675000;8033066666;8233066666
35;8173677000;8033066666;8233066666
36;8173678000;8033066666;8233066666
37;8173680000;8033066666;8233066666
38;8173681000;8033066666;8233066666
39;8173683000;8033066666;8233066666
40;8173684000;8033066666;8233066666
41;8173686000;8033066666;8233066666
42;8173687000;8033066666;8233066666
43;8215275000;8033066666;8233066666
44;8215295000;8074766666;8274766666
45;8215296000;8074766666;8274766666
46;8215298000;8074766666;8274766666
47;8215299000;8074766666;8274766666
48;8215301000;8074766666;8274766666
49;8215302000;8074766666;8274766666
50;8215304000;8074766666;8274766666
51;8215305000;8074766666;8274766666
52;8215307000;8074766666;8274766666
53;8215308000;8074766666;8274766666
54;8256961000;8074766666;8274766666
55;8256978000;8116400000;8316400000
56;8256980000;8116400000;8316400000
57;8256982000;8116400000;8316400000
58;8256983000;8116400000;8316400000
59;8256984000;8116400000;8316400000
60;8256986000;8116400000;8316400000
61;8256987000;8116400000;8316400000
62;8256989000;8116400000;8316400000
63;8256991000;8116400000;8316400000
64;8256992000;8116400000;8316400000
65;8298579000;8116400000;8316400000
66;8298585000;8158122222;8358122222
67;8298587000;8158122222;8358122222
68;8298588000;8158122222;8358122222
69;8298589000;8158122222;8358122222
70;8298590000;8158122222;8358122222
71;8298592000;8158122222;8358122222
72;8298593000;8158122222;8358122222
73;8298594000;8158122222;8358122222
74;8298596000;8158122222;8358122222
75;8298597000;8158122222;8358122222
76;8340303000;8158122222;8358122222
77;8340309000;8199744444;8399744444
78;8340310000;8199744444;8399744444
79;8340311000;8199744444;8399744444
80;8340312000;8199744444;8399744444
81;8340313000;8199744444;8399744444
82;8340314000;8199744444;8399744444
83;8340315000;8199744444;8399744444
84;8340316000;8199744444;8399744444
85;8340317000;8199744444;8399744444
86;8340318000;8199744444;8399744444
87;8381967000;8199744444;8399744444
88;8381993000;8241477777;8441477777
89;8381995000;8241477777;8441477777
90;8381996000;8241477777;8441477777
91;8381998000;8241477777;8441477777
92;8382000000;8241477777;8441477777
93;8382001000;8241477777;8441477777
94;8382003000;8241477777;8441477777
95;8382004000;8241477777;8441477777
96;8382005000;8241477777;8441477777
97;8382007000;8241477777;8441477777
98;8423660000;8241477777;8441477777
99;8423666000;8283000000;8483000000
100;8423668000;8283000000;8483000000
101;8423669000;8283000000;8483000000
102;8423671000;8283000000;8483000000
103;8423672000;8283000000;8483000000
104;8423673000;8283000000;8483000000
105;8423674000;8283000000;8483000000
106;8423676000;8283000000;8483000000
107;8423677000;8283000000;8483000000
108;8423678000;8283000000;8483000000
109;8465166000;8283000000;8483000000
110;8465172000;8324722222;8524722222
111;8465174000;8324722222;8524722222
112;8465175000;8324722222;8524722222
113;8465175000;8324722222;8524722222
114;8465176000;8324722222;8524722222
115;8465177000;8324722222;8524722222
116;8465178000;8324722222;8524722222
117;8465179000;8324722222;8524722222
118;8465180000;8324722222;8524722222
119;8465181000;8324722222;8524722222
120;8506890000;8324722222;8524722222
121;8506895000;8366400000;8566400000
122;8506897000;8366400000;8566400000
123;8506897000;8366400000;8566400000
124;8506909000;8366400000;8566400000
125;8506910000;8366400000;8566400000
126;8506911000;8366400000;8566400000
127;8506912000;8366400000;8566400000
128;8506913000;8366400000;8566400000
129;8506914000;8366400000;8566400000
130;8506915000;8366400000;8566400000
131;8548605000;8366400000;8566400000
132;8548622000;8408111111;8608111111
133;8548624000;8408111111;8608111111
134;8548635000;8408111111;8608111111
135;8548637000;8408111111;8608111111
136;8548638000;8408111111;8608111111
137;8548640000;8408111111;8608111111
138;8548641000;8408111111;8608111111
139;8548642000;8408111111;8608111111
140;8548644000;8408111111;8608111111
141;8548645000;8408111111;8608111111
142;8590289000;8408111111;8608111111
143;8590295000;8449755555;8649755555
144;8590296000;8449755555;8649755555
145;8590298000;8449755555;8649755555
146;8590299000;8449755555;8649755555
147;8590300000;8449755555;8649755555
148;8590302000;8449755555;8649755555
149;8590303000;8449755555;8649755555
150;8590304000;8449755555;8649755555
151;8590305000;8449755555;8649755555
152;8590307000;8449755555;8649755555
153;8631938000;8449755555;8649755555
154;8631944000;8491400000;8691400000
155;8631945000;8491400000;8691400000
156;8631946000;8491400000;8691400000
157;8631947000;8491400000;8691400000
158;8631949000;8491400000;8691400000
159;8631949000;8491400000;8691400000
160;8631950000;8491400000;8691400000
161;8631951000;8491400000;8691400000
162;8631952000;8491400000;8691400000
163;8631953000;8491400000;8691400000
164;8673586000;8491400000;8691400000
165;8673592000;8533133333;8733133333
166;8673593000;8533133333;8733133333
167;8673594000;8533133333;8733133333
168;8673595000;8533133333;8733133333
169;8673596000;8533133333;8733133333
170;8673597000;8533133333;8733133333
171;8673598000;8533133333;8733133333
172;8673599000;8533133333;8733133333
173;8673600000;8533133333;8733133333
174;8673601000;8533133333;8733133333
175;8715303000;8533133333;8733133333
176;8715310000;8574711111;8774711111
177;8715311000;8574711111;8774711111
178;8715312000;8574711111;8774711111
179;8715313000;8574711111;8774711111
180;8715314000;8574711111;8774711111
181;8715315000;8574711111;8774711111
182;8715316000;8574711111;8774711111
183;8715317000;8574711111;8774711111
184;8715318000;8574711111;8774711111
185;8715319000;8574711111;8774711111
186;8756876000;8574711111;8774711111
187;8756881000;8616388888;8816388888
188;8756883000;8616388888;8816388888
189;8756884000;8616388888;8816388888
190;8756885000;8616388888;8816388888
191;8756886000;8616388888;8816388888
192;8756887000;8616388888;8816388888
193;8756887000;8616388888;8816388888
194;8756888000;8616388888;8816388888
195;8756889000;8616388888;8816388888
196;8756890000;8616388888;8816388888
197;8798566000;8616388888;8816388888
198;8798572000;8658100000;8858100000
199;8798573000;8658100000;8858100000
200;8798574000;8658100000;8858100000
201;8798575000;8658100000;8858100000
202;8798576000;8658100000;8858100000
203;8798577000;8658100000;8858100000
204;8798578000;8658100000;8858100000
205;8798579000;8658100000;8858100000
206;8798580000;8658100000;8858100000
207;8798581000;8658100000;8858100000
208;8840281000;8658100000;8858100000
209;8840286000;8699655555;8899655555
210;8840287000;8699655555;8899655555
211;8840288000;8699655555;8899655555
212;8840289000;8699655555;8899655555
213;8840290000;8699655555;8899655555
214;8840291000;8699655555;8899655555
215;8840292000;8699655555;8899655555
216;8840293000;8699655555;8899655555
217;8840294000;8699655555;8899655555
218;8840295000;8699655555;8899655555
219;8881837000;8699655555;8899655555
220;8881843000;8741477777;8941477777
221;8881844000;8741477777;8941477777
222;8881845000;8741477777;8941477777
223;8881846000;8741477777;8941477777
224;8881847000;8741477777;8941477777
225;8881848000;8741477777;8941477777
226;8881849000;8741477777;8941477777
227;8881850000;8741477777;8941477777
228;8881851000;8741477777;8941477777
229;8881852000;8741477777;8941477777
230;8923670000;8741477777;8941477777
231;8923682000;8783122222;8983122222
232;8923684000;8783122222;8983122222
233;8923685000;8783122222;8983122222
234;8923687000;8783122222;8983122222
235;8923699000;8783122222;8983122222
236;8923701000;8783122222;8983122222
237;8923702000;8783122222;8983122222
238;8923704000;8783122222;8983122222
239;8923705000;8783122222;8983122222
240;8923706000;8783122222;8983122222
241;8965291000;8783122222;8983122222
242;8965307000;8824666666;9024666666
243;8965309000;8824666666;9024666666
244;8965310000;8824666666;9024666666
245;8965311000;8824666666;9024666666
246;8965313000;8824666666;9024666666
247;8965314000;8824666666;9024666666
248;8965315000;8824666666;9024666666
249;8965316000;8824666666;9024666666
250;8965317000;8824666666;9024666666
251;8965318000;8824666666;9024666666
252;9006845000;8824666666;9024666666
253;9006851000;8866433333;9066433333
254;9006852000;8866433333;9066433333
255;9006853000;8866433333;9066433333
256;9006854000;8866433333;9066433333
257;9006855000;8866433333;9066433333
258;9006856000;8866433333;9066433333
259;9006857000;8866433333;9066433333
260;9006858000;8866433333;9066433333
261;9006859000;8866433333;9066433333
262;9006860000;8866433333;9066433333
263;9048613000;8866433333;9066433333
264;9048619000;8908000000;9108000000
265;9048620000;8908000000;9108000000
266;9048622000;8908000000;9108000000
267;9048623000;8908000000;9108000000
268;9048624000;8908000000;9108000000
269;9048625000;8908000000;9108000000
270;9048626000;8908000000;9108000000
271;9048627000;8908000000;9108000000
272;9048628000;8908000000;9108000000
273;9048629000;8908000000;9108000000
274;9090172000;8908000000;9108000000
275;9090188000;8949666666;9149666666
276;9090189000;8949666666;9149666666
277;9090191000;8949666666;9149666666
278;9090192000;8949666666;9149666666
279;9090193000;8949666666;9149666666
280;9090194000;8949666666;9149666666
281;9090195000;8949666666;9149666666
282;9090196000;8949666666;9149666666
283;9090197000;8949666666;9149666666
284;9090198000;8949666666;9149666666
285;9131677000;8949666666;9149666666
286;9131683000;8991388888;9191388888
287;9131684000;8991388888;9191388888
288;9131685000;8991388888;9191388888
289;9131686000;8991388888;9191388888
290;9131687000;8991388888;9191388888
291;9131688000;8991388888;9191388888
292;9131689000;8991388888;9191388888
293;9131690000;8991388888;9191388888
294;9131691000;8991388888;9191388888
295;9131692000;8991388888;9191388888
296;9173565000;8991388888;9191388888
297;9173571000;9033088888;9233088888
298;9173572000;9033088888;9233088888
299;9173573000;9033088888;9233088888
300;9173574000;9033088888;9233088888
301;9173575000;9033088888;9233088888
302;9173575000;9033088888;9233088888
303;9173576000;9033088888;9233088888
304;9173577000;9033088888;9233088888
305;9173578000;9033088888;9233088888
306;9173579000;9033088888;9233088888
307;9215276000;9033088888;9233088888
308;9215282000;9074633333;9274633333
309;9215283000;9074633333;9274633333
310;9215284000;9074633333;9274633333
311;9215285000;9074633333;9274633333
312;9215286000;9074633333;9274633333
313;9215287000;9074633333;9274633333
314;9215288000;9074633333;9274633333
315;9215289000;9074633333;9274633333
316;9215289000;9074633333;9274633333
317;9215290000;9074633333;9274633333
318;9256800000;9074633333;9274633333
319;9256806000;9116422222;9316422222
320;9256807000;9116422222;9316422222
321;9256808000;9116422222;9316422222
322;9256809000;9116422222;9316422222
323;9256810000;9116422222;9316422222
324;9256810000;9116422222;9316422222
325;9256811000;9116422222;9316422222
326;9256812000;9116422222;9316422222
327;9256813000;9116422222;9316422222
328;9256814000;9116422222;9316422222
329;9298590000;9116422222;9316422222
330;9298596000;9158111111;9358111111
331;9298597000;9158111111;9358111111
332;9298598000;9158111111;9358111111
333;9298599000;9158111111;9358111111
334;9298600000;9158111111;9358111111
335;9298601000;9158111111;9358111111
336;9298602000;9158111111;9358111111
337;9298603000;9158111111;9358111111
338;9298604000;9158111111;9358111111
339;9298605000;9158111111;9358111111
340;9340347000;9158111111;9358111111
341;9340374000;9199755555;9399755555
342;9340376000;9199755555;9399755555
343;9340378000;9199755555;9399755555
344;9340380000;9199755555;9399755555
345;9340381000;9199755555;9399755555
346;9340401000;9199755555;9399755555
347;9340403000;9199755555;9399755555
348;9340404000;9199755555;9399755555
349;9340406000;9199755555;9399755555
350;9340407000;9199755555;9399755555
351;9381922000;9199755555;9399755555
352;9381937000;9241400000;9441400000
353;9381938000;9241400000;9441400000
354;9381939000;9241400000;9441400000
355;9381941000;9241400000;9441400000
356;9381942000;9241400000;9441400000
357;9381943000;9241400000;9441400000
358;9381945000;9241400000;9441400000
359;9381946000;9241400000;9441400000
360;9381947000;9241400000;9441400000
361;9381949000;9241400000;9441400000
362;9423588000;9241400000;9441400000
363;9423594000;9283100000;9483100000
364;9423595000;9283100000;9483100000
365;9423596000;9283100000;9483100000
366;9423597000;9283100000;9483100000
367;9423597000;9283100000;9483100000
368;9423599000;9283100000;9483100000
369;9423599000;9283100000;9483100000
370;9423600000;9283100000;9483100000
371;9423601000;9283100000;9483100000
372;9423602000;9283100000;9483100000
373;9465282000;9283100000;9483100000
374;9465287000;9324622222;9524622222
375;9465289000;9324622222;9524622222
376;9465289000;9324622222;9524622222
377;9465290000;9324622222;9524622222
378;9465291000;9324622222;9524622222
379;9465292000;9324622222;9524622222
380;9465293000;9324622222;9524622222
381;9465294000;9324622222;9524622222
382;9465295000;9324622222;9524622222
383;9465296000;9324622222;9524622222
384;9506804000;9324622222;9524622222
385;9506810000;9366433333;9566433333
386;9506811000;9366433333;9566433333
387;9506812000;9366433333;9566433333
388;9506813000;9366433333;9566433333
389;9506814000;9366433333;9566433333
390;9506815000;9366433333;9566433333
391;9506816000;9366433333;9566433333
392;9506817000;9366433333;9566433333
393;9506817000;9366433333;9566433333
394;9506818000;9366433333;9566433333
395;9548594000;9366433333;9566433333
396;9548600000;9408111111;9608111111
397;9548602000;9408111111;9608111111
398;9548603000;9408111111;9608111111
399;9548604000;9408111111;9608111111
400;9548605000;9408111111;9608111111
401;9548606000;9408111111;9608111111
402;9548607000;9408111111;9608111111
403;9548608000;9408111111;9608111111
404;9548609000;9408111111;9608111111
405;9548610000;9408111111;9608111111
406;9590345000;9408111111;9608111111
407;9590372000;9449644444;9649644444
408;9590373000;9449644444;9649644444
409;9590375000;9449644444;9649644444
410;9590377000;9449644444;9649644444
411;9590378000;9449644444;9649644444
412;9590379000;9449644444;9649644444
413;9590381000;9449644444;9649644444
414;9590382000;9449644444;9649644444
415;9590383000;9449644444;9649644444
416;9590385000;9449644444;9649644444
417;9631709000;9449644444;9649644444
418;9631728000;9491466666;9691466666
419;9631729000;9491466666;9691466666
420;9631731000;9491466666;9691466666
421;9631732000;9491466666;9691466666
422;9631734000;9491466666;9691466666
423;9631736000;9491466666;9691466666
424;9631737000;9491466666;9691466666
425;9631739000;9491466666;9691466666
426;9631740000;9491466666;9691466666
427;9631742000;9491466666;9691466666
428;9673701000;9491466666;9691466666
429;9673728000;9533066666;9733066666
430;9673730000;9533066666;9733066666
431;9673731000;9533066666;9733066666
432;9673733000;9533066666;9733066666
433;9673734000;9533066666;9733066666
434;9673736000;9533066666;9733066666
435;9673738000;9533066666;9733066666
436;9673739000;9533066666;9733066666
437;9673740000;9533066666;9733066666
438;9673742000;9533066666;9733066666
439;9715268000;9533066666;9733066666
440;9715286000;9574733333;9774733333
441;9715287000;9574733333;9774733333
442;9715289000;9574733333;9774733333
443;9715290000;9574733333;9774733333
444;9715292000;9574733333;9774733333
445;9715293000;9574733333;9774733333
446;9715295000;9574733333;9774733333
447;9715296000;9574733333;9774733333
448;9715298000;9574733333;9774733333
449;9715299000;9574733333;9774733333
450;9756968000;9574733333;9774733333
451;9756994000;9616377777;9816377777
452;9756997000;9616377777;9816377777
453;9756998000;9616377777;9816377777
454;9756999000;9616377777;9816377777
455;9757001000;9616377777;9816377777
456;9757020000;9616377777;9816377777
457;9757022000;9616377777;9816377777
458;9757023000;9616377777;9816377777
459;9757025000;9616377777;9816377777
460;9757026000;9616377777;9816377777
461;9798535000;9616377777;9816377777
462;9798551000;9658033333;9858033333
463;9798552000;9658033333;9858033333
464;9798554000;9658033333;9858033333
465;9798555000;9658033333;9858033333
466;9798556000;9658033333;9858033333
467;9798557000;9658033333;9858033333
468;9798559000;9658033333;9858033333
469;9798560000;9658033333;9858033333
470;9798561000;9658033333;9858033333
471;9798563000;9658033333;9858033333
472;9840206000;9658033333;9858033333
473;9840212000;9699744444;9899744444
474;9840213000;9699744444;9899744444
475;9840214000;9699744444;9899744444
476;9840215000;9699744444;9899744444
477;9840216000;9699744444;9899744444
478;9840217000;9699744444;9899744444
479;9840218000;9699744444;9899744444
480;9840219000;9699744444;9899744444
481;9840220000;9699744444;9899744444
482;9840221000;9699744444;9899744444
483;9881915000;9699744444;9899744444
484;9881921000;9741466666;9941466666
485;9881922000;9741466666;9941466666
486;9881923000;9741466666;9941466666
487;9881924000;9741466666;9941466666
488;9881925000;9741466666;9941466666
489;9881926000;9741466666;9941466666
490;9881927000;9741466666;9941466666
491;9881928000;9741466666;9941466666
492;9881929000;9741466666;9941466666
493;9881930000;9741466666;9941466666
494;9923653000;9741466666;9941466666
495;9923658000;9783100000;9983100000
496;9923659000;9783100000;9983100000
497;9923660000;9783100000;9983100000
498;9923661000;9783100000;9983100000
499;9923662000;9783100000;9983100000
500;9923663000;9783100000;9983100000
501;9923664000;9783100000;9983100000
502;9923665000;9783100000;9983100000
503;9923666000;9783100000;9983100000
504;9923667000;9783100000;9983100000
505;9965270000;9783100000;9983100000
506;9965275000;9824633333;10024633333
507;9965277000;9824633333;10024633333
508;9965278000;9824633333;10024633333
509;9965278000;9824633333;10024633333
510;9965279000;9824633333;10024633333
511;9965280000;9824633333;10024633333
512;9965281000;9824633333;10024633333
513;9965282000;9824633333;10024633333
514;9965283000;9824633333;10024633333
515;9965284000;9824633333;10024633333
516;10006799000;9824633333;10024633333
517;10006805000;9866400000;10066400000
518;10006806000;9866400000;10066400000
519;10006807000;9866400000;10066400000
520;10006808000;9866400000;10066400000
521;10006809000;9866400000;10066400000
522;10006810000;9866400000;10066400000
523;10006811000;9866400000;10066400000
524;10006812000;9866400000;10066400000
525;10006813000;9866400000;10066400000
526;10006814000;9866400000;10066400000
527;10048540000;9866400000;10066400000
528;10048546000;9908066666;10108066666
529;10048548000;9908066666;10108066666
530;10048558000;9908066666;10108066666
531;10048559000;9908066666;10108066666
532;10048560000;9908066666;10108066666
533;10048561000;9908066666;10108066666
534;10048562000;9908066666;10108066666
535;10048563000;9908066666;10108066666
536;10048563000;9908066666;10108066666
537;10048564000;9908066666;10108066666
538;10090233000;9908066666;10108066666
539;10090239000;9949666666;10149666666
540;10090240000;9949666666;10149666666
541;10090241000;9949666666;10149666666
542;10090242000;9949666666;10149666666
543;10090243000;9949666666;10149666666
544;10090244000;9949666666;10149666666
545;10090245000;9949666666;10149666666
546;10090246000;9949666666;10149666666
547;10090246000;9949666666;10149666666
548;10090247000;9949666666;10149666666
549;10131823000;9949666666;10149666666
550;10131829000;9991433333;10191433333
551;10131830000;9991433333;10191433333
552;10131831000;9991433333;10191433333
553;10131832000;9991433333;10191433333
554;10131833000;9991433333;10191433333
555;10131834000;9991433333;10191433333
556;10131835000;9991433333;10191433333
557;10131836000;9991433333;10191433333
558;10131837000;9991433333;10191433333
559;10131838000;9991433333;10191433333
560;10173601000;9991433333;10191433333
561;10173607000;10033177777;10233177777
562;10173608000;10033177777;10233177777
563;10173609000;10033177777;10233177777
564;10173618000;10033177777;10233177777
565;10173619000;10033177777;10233177777
566;10173620000;10033177777;10233177777
567;10173621000;10033177777;10233177777
568;10173622000;10033177777;10233177777
569;10173623000;10033177777;10233177777
570;10173624000;10033177777;10233177777
571;10215360000;10033177777;10233177777
572;10215365000;10074666666;10274666666
573;10215367000;10074666666;10274666666
574;10215368000;10074666666;10274666666
575;10215368000;10074666666;10274666666
576;10215369000;10074666666;10274666666
577;10215370000;10074666666;10274666666
578;10215371000;10074666666;10274666666
579;10215372000;10074666666;10274666666
580;10215373000;10074666666;10274666666
581;10215374000;10074666666;10274666666
582;10256833000;10074666666;10274666666
583;10256848000;10116433333;10316433333
584;10256850000;10116433333;10316433333
585;10256851000;10116433333;10316433333
586;10256851000;10116433333;10316433333
587;10256852000;10116433333;10316433333
588;10256853000;10116433333;10316433333
589;10256854000;10116433333;10316433333
590;10256855000;10116433333;10316433333
591;10256856000;10116433333;10316433333
592;10256857000;10116433333;10316433333
593;10298591000;10116433333;10316433333
594;10298597000;10158011111;10358011111
595;10298598000;10158011111;10358011111
596;10298600000;10158011111;10358011111
597;10298601000;10158011111;10358011111
598;10298602000;10158011111;10358011111
599;10298602000;10158011111;10358011111
600;10298604000;10158011111;10358011111
601;10298604000;10158011111;10358011111
602;10298605000;10158011111;10358011111
603;10298606000;10158011111;10358011111
604;10340177000;10158011111;10358011111
605;10340183000;10199688888;10399688888
606;10340184000;10199688888;10399688888
607;10340185000;10199688888;10399688888
608;10340186000;10199688888;10399688888
609;10340187000;10199688888;10399688888
610;10340188000;10199688888;10399688888
611;10340189000;10199688888;10399688888
612;10340190000;10199688888;10399688888
613;10340191000;10199688888;10399688888
614;10340192000;10199688888;10399688888
615;10381870000;10199688888;10399688888
616;10381876000;10241400000;10441400000
617;10381877000;10241400000;10441400000
618;10381878000;10241400000;10441400000
619;10381879000;10241400000;10441400000
620;10381880000;10241400000;10441400000
621;10381881000;10241400000;10441400000
622;10381882000;10241400000;10441400000
623;10381883000;10241400000;10441400000
624;10381884000;10241400000;10441400000
625;10381884000;10241400000;10441400000
626;10423588000;10241400000;10441400000
627;10423594000;10283155555;10483155555
628;10423595000;10283155555;10483155555
629;10423596000;10283155555;10483155555
630;10423597000;10283155555;10483155555
631;10423598000;10283155555;10483155555
632;10423599000;10283155555;10483155555
633;10423600000;10283155555;10483155555
634;10423601000;10283155555;10483155555
635;10423602000;10283155555;10483155555
636;10423603000;10283155555;10483155555
637;10465282000;10283155555;10483155555
638;10465288000;10324622222;10524622222
639;10465289000;10324622222;10524622222
640;10465299000;10324622222;10524622222
641;10465300000;10324622222;10524622222
642;10465301000;10324622222;10524622222
643;10465301000;10324622222;10524622222
644;10465302000;10324622222;10524622222
645;10465303000;10324622222;10524622222
646;10465304000;10324622222;10524622222
647;10465305000;10324622222;10524622222
648;10506787000;10324622222;10524622222
649;10506793000;10366466666;10566466666
650;10506794000;10366466666;10566466666
651;10506795000;10366466666;10566466666
652;10506796000;10366466666;10566466666
653;10506796000;10366466666;10566466666
654;10506797000;10366466666;10566466666
655;10506798000;10366466666;10566466666
656;10506799000;10366466666;10566466666
657;10506800000;10366466666;10566466666
658;10506801000;10366466666;10566466666
659;10548700000;10366466666;10566466666
660;10548718000;10408133333;10608133333
661;10548729000;10408133333;10608133333
662;10548731000;10408133333;10608133333
663;10548733000;10408133333;10608133333
664;10548734000;10408133333;10608133333
665;10548736000;10408133333;10608133333
666;10548755000;10408133333;10608133333
667;10548756000;10408133333;10608133333
668;10548758000;10408133333;10608133333
669;10548759000;10408133333;10608133333
670;10590301000;10408133333;10608133333
671;10590307000;10449666666;10649666666
672;10590308000;10449666666;10649666666
673;10590310000;10449666666;10649666666
674;10590311000;10449666666;10649666666
675;10590312000;10449666666;10649666666
676;10590314000;10449666666;10649666666
677;10590315000;10449666666;10649666666
678;10590316000;10449666666;10649666666
679;10590317000;10449666666;10649666666
680;10590318000;10449666666;10649666666
681;10631832000;10449666666;10649666666
682;10631838000;10491477777;10691477777
683;10631839000;10491477777;10691477777
684;10631840000;10491477777;10691477777
685;10631841000;10491477777;10691477777
686;10631842000;10491477777;10691477777
687;10631843000;10491477777;10691477777
688;10631844000;10491477777;10691477777
689;10631845000;10491477777;10691477777
690;10631846000;10491477777;10691477777
691;10631847000;10491477777;10691477777
692;10673647000;10491477777;10691477777
693;10673662000;10533022222;10733022222
694;10673663000;10533022222;10733022222
695;10673664000;10533022222;10733022222
696;10673665000;10533022222;10733022222
697;10673666000;10533022222;10733022222
698;10673667000;10533022222;10733022222
699;10673668000;10533022222;10733022222
700;10673669000;10533022222;10733022222
701;10673670000;10533022222;10733022222
702;10673671000;10533022222;10733022222
703;10715187000;10533022222;10733022222
704;10715193000;10574788888;10774788888
705;10715194000;10574788888;10774788888
706;10715195000;10574788888;10774788888
707;10715196000;10574788888;10774788888
708;10715197000;10574788888;10774788888
709;10715198000;10574788888;10774788888
710;10715199000;10574788888;10774788888
711;10715200000;10574788888;10774788888
712;10715201000;10574788888;10774788888
713;10715202000;10574788888;10774788888
714;10756955000;10574788888;10774788888
715;10756961000;10616366666;10816366666
716;10756962000;10616366666;10816366666
717;10756963000;10616366666;10816366666
718;10756964000;10616366666;10816366666
719;10756965000;10616366666;10816366666
720;10756966000;10616366666;10816366666
721;10756967000;10616366666;10816366666
722;10756968000;10616366666;10816366666
723;10756969000;10616366666;10816366666
724;10756970000;10616366666;10816366666
725;10798539000;10616366666;10816366666
726;10798553000;10658011111;10858011111
727;10798555000;10658011111;10858011111
728;10798556000;10658011111;10858011111
729;10798557000;10658011111;10858011111
730;10798557000;10658011111;10858011111
731;10798558000;10658011111;10858011111
732;10798559000;10658011111;10858011111
733;10798560000;10658011111;10858011111
734;10798561000;10658011111;10858011111
735;10798562000;10658011111;10858011111
736;10840192000;10658011111;10858011111
737;10840198000;10699755555;10899755555
738;10840199000;10699755555;10899755555
739;10840200000;10699755555;10899755555
740;10840201000;10699755555;10899755555
741;10840202000;10699755555;10899755555
742;10840203000;10699755555;10899755555
743;10840204000;10699755555;10899755555
744;10840205000;10699755555;10899755555
745;10840206000;10699755555;10899755555
746;10840207000;10699755555;10899755555
747;10881925000;10699755555;10899755555
748;10881940000;10741422222;10941422222
749;10881941000;10741422222;10941422222
750;10881942000;10741422222;10941422222
751;10881943000;10741422222;10941422222
752;10881944000;10741422222;10941422222
753;10881945000;10741422222;10941422222
754;10881946000;10741422222;10941422222
755;10881947000;10741422222;10941422222
756;10881948000;10741422222;10941422222
757;10881949000;10741422222;10941422222
758;10923605000;10741422222;10941422222
759;10923610000;10783122222;10983122222
760;10923612000;10783122222;10983122222
761;10923612000;10783122222;10983122222
762;10923613000;10783122222;10983122222
763;10923614000;10783122222;10983122222
764;10923615000;10783122222;10983122222
765;10923616000;10783122222;10983122222
766;10923617000;10783122222;10983122222
767;10923618000;10783122222;10983122222
768;10923619000;10783122222;10983122222
769;10965346000;10783122222;10983122222
770;10965372000;10824644444;11024644444
771;10965373000;10824644444;11024644444
772;10965375000;10824644444;11024644444
773;10965377000;10824644444;11024644444
774;10965378000;10824644444;11024644444
775;10965380000;10824644444;11024644444
776;10965381000;10824644444;11024644444
777;10965382000;10824644444;11024644444
778;10965384000;10824644444;11024644444
779;10965385000;10824644444;11024644444
780;11006825000;10824644444;11024644444
781;11006831000;10866488888;11066488888
782;11006833000;10866488888;11066488888
783;11006834000;10866488888;11066488888
784;11006835000;10866488888;11066488888
785;11006837000;10866488888;11066488888
786;11006838000;10866488888;11066488888
787;11006839000;10866488888;11066488888
788;11006841000;10866488888;11066488888
789;11006842000;10866488888;11066488888
790;11006843000;10866488888;11066488888
791;11048656000;10866488888;11066488888
792;11048662000;10908022222;11108022222
793;11048663000;10908022222;11108022222
794;11048664000;10908022222;11108022222
795;11048665000;10908022222;11108022222
796;11048666000;10908022222;11108022222
797;11048667000;10908022222;11108022222
798;11048668000;10908022222;11108022222
799;11048669000;10908022222;11108022222
800;11048670000;10908022222;11108022222
801;11048671000;10908022222;11108022222
802;11090979000;10908022222;11108022222
803;11091006000;10949922222;11149922222
804;11091008000;10949922222;11149922222
805;11091009000;10949922222;11149922222
806;11091011000;10949922222;11149922222
807;11091012000;10949922222;11149922222
808;11091014000;10949922222;11149922222
809;11091015000;10949922222;11149922222
810;11091017000;10949922222;11149922222
811;11091018000;10949922222;11149922222
812;11091020000;10949922222;11149922222
813;11132105000;10949922222;11149922222
814;11132111000;10991422222;11191422222
815;11132112000;10991422222;11191422222
816;11132113000;10991422222;11191422222
817;11132115000;10991422222;11191422222
818;11132116000;10991422222;11191422222
819;11132117000;10991422222;11191422222
820;11132118000;10991422222;11191422222
821;11132120000;10991422222;11191422222
822;11132121000;10991422222;11191422222
823;11132122000;10991422222;11191422222
824;11173604000;10991422222;11191422222
825;11173609000;11033066666;11233066666
826;11173610000;11033066666;11233066666
827;11173611000;11033066666;11233066666
828;11173612000;11033066666;11233066666
829;11173613000;11033066666;11233066666
830;11173614000;11033066666;11233066666
831;11173615000;11033066666;11233066666
832;11173616000;11033066666;11233066666
833;11173617000;11033066666;11233066666
834;11173618000;11033066666;11233066666
835;11215248000;11033066666;11233066666
836;11215254000;11074711111;11274711111
837;11215255000;11074711111;11274711111
838;11215256000;11074711111;11274711111
839;11215257000;11074711111;11274711111
840;11215258000;11074711111;11274711111
841;11215259000;11074711111;11274711111
842;11215260000;11074711111;11274711111
843;11215261000;11074711111;11274711111
844;11215262000;11074711111;11274711111
845;11215263000;11074711111;11274711111
846;11256894000;11074711111;11274711111
847;11256900000;11116411111;11316411111
848;11256901000;11116411111;11316411111
849;11256902000;11116411111;11316411111
850;11256903000;11116411111;11316411111
851;11256904000;11116411111;11316411111
852;11256905000;11116411111;11316411111
853;11256906000;11116411111;11316411111
854;11256907000;11116411111;11316411111
855;11256908000;11116411111;11316411111
856;11256909000;11116411111;11316411111
857;11298589000;11116411111;11316411111
858;11298604000;11158133333;11358133333
859;11298605000;11158133333;11358133333
860;11298606000;11158133333;11358133333
861;11298607000;11158133333;11358133333
862;11298608000;11158133333;11358133333
863;11298609000;11158133333;11358133333
864;11298610000;11158133333;11358133333
865;11298610000;11158133333;11358133333
866;11298611000;11158133333;11358133333
867;11298612000;11158133333;11358133333
868;11340315000;11158133333;11358133333
869;11340321000;11199733333;11399733333
870;11340322000;11199733333;11399733333
871;11340331000;11199733333;11399733333
872;11340332000;11199733333;11399733333
873;11340333000;11199733333;11399733333
874;11340334000;11199733333;11399733333
875;11340335000;11199733333;11399733333
876;11340336000;11199733333;11399733333
877;11340337000;11199733333;11399733333
878;11340338000;11199733333;11399733333
879;11381914000;11199733333;11399733333
880;11381920000;11241422222;11441422222
881;11381921000;11241422222;11441422222
882;11381922000;11241422222;11441422222
883;11381923000;11241422222;11441422222
884;11381924000;11241422222;11441422222
885;11381925000;11241422222;11441422222
886;11381926000;11241422222;11441422222
887;11381927000;11241422222;11441422222
888;11381928000;11241422222;11441422222
889;11381929000;11241422222;11441422222
890;11423605000;11241422222;11441422222
891;11423611000;11283144444;11483144444
892;11423612000;11283144444;11483144444
893;11423613000;11283144444;11483144444
894;11423613000;11283144444;11483144444
895;11423614000;11283144444;11483144444
896;11423615000;11283144444;11483144444
897;11423616000;11283144444;11483144444
898;11423617000;11283144444;11483144444
899;11423618000;11283144444;11483144444
900;11423619000;11283144444;11483144444
901;11465311000;11283144444;11483144444
902;11465317000;11324633333;11524633333
903;11465318000;11324633333;11524633333
904;11465319000;11324633333;11524633333
905;11465320000;11324633333;11524633333
906;11465321000;11324633333;11524633333
907;11465322000;11324633333;11524633333
908;11465323000;11324633333;11524633333
909;11465324000;11324633333;11524633333
910;11465325000;11324633333;11524633333
911;11465325000;11324633333;11524633333
912;11506801000;11324633333;11524633333
913;11506815000;11366477777;11566477777
914;11506817000;11366477777;11566477777
915;11506818000;11366477777;11566477777
916;11506819000;11366477777;11566477777
917;11506819000;11366477777;11566477777
918;11506820000;11366477777;11566477777
919;11506821000;11366477777;11566477777
920;11506822000;11366477777;11566477777
921;11506823000;11366477777;11566477777
922;11506824000;11366477777;11566477777
923;11548650000;11366477777;11566477777
924;11548656000;11408144444;11608144444
925;11548657000;11408144444;11608144444
926;11548658000;11408144444;11608144444
927;11548659000;11408144444;11608144444
928;11548660000;11408144444;11608144444
929;11548661000;11408144444;11608144444
930;11548662000;11408144444;11608144444
931;11548663000;11408144444;11608144444
932;11548664000;11408144444;11608144444
933;11548664000;11408144444;11608144444
934;11590328000;11408144444;11608144444
935;11590334000;11449788888;11649788888
936;11590335000;11449788888;11649788888
937;11590336000;11449788888;11649788888
938;11590337000;11449788888;11649788888
939;11590338000;11449788888;11649788888
940;11590339000;11449788888;11649788888
941;11590339000;11449788888;11649788888
942;11590340000;11449788888;11649788888
943;11590341000;11449788888;11649788888
944;11590342000;11449788888;11649788888
945;11631971000;11449788888;11649788888
946;11631977000;11491433333;11691433333
947;11631978000;11491433333;11691433333
948;11631979000;11491433333;11691433333
949;11631980000;11491433333;11691433333
950;11631981000;11491433333;11691433333
951;11631982000;11491433333;11691433333
952;11631983000;11491433333;11691433333
953;11631984000;11491433333;11691433333
954;11631985000;11491433333;11691433333
955;11631986000;11491433333;11691433333
956;11673622000;11491433333;11691433333
957;11673627000;11533066666;11733066666
958;11673629000;11533066666;11733066666
959;11673630000;11533066666;11733066666
960;11673631000;11533066666;11733066666
961;11673632000;11533066666;11733066666
962;11673633000;11533066666;11733066666
963;11673634000;11533066666;11733066666
964;11673634000;11533066666;11733066666
965;11673635000;11533066666;11733066666
966;11673636000;11533066666;11733066666
967;11715225000;11533066666;11733066666
968;11715231000;11574777777;11774777777
969;11715232000;11574777777;11774777777
970;11715233000;11574777777;11774777777
971;11715243000;11574777777;11774777777
972;11715244000;11574777777;11774777777
973;11715245000;11574777777;11774777777
974;11715254000;11574777777;11774777777
975;11715255000;11574777777;11774777777
976;11715256000;11574777777;11774777777
977;11715256000;11574777777;11774777777
978;11757012000;11574777777;11774777777
979;11757029000;11616400000;11816400000
980;11757041000;11616400000;11816400000
981;11757042000;11616400000;11816400000
982;11757043000;11616400000;11816400000
983;11757045000;11616400000;11816400000
984;11757046000;11616400000;11816400000
985;11757048000;11616400000;11816400000
986;11757049000;11616400000;11816400000
987;11757050000;11616400000;11816400000
988;11757052000;11616400000;11816400000
989;11798574000;11616400000;11816400000
990;11798580000;11658166666;11858166666
991;11798582000;11658166666;11858166666
992;11798583000;11658166666;11858166666
993;11798584000;11658166666;11858166666
994;11798586000;11658166666;11858166666
995;11798587000;11658166666;11858166666
996;11798588000;11658166666;11858166666
997;11798589000;11658166666;11858166666
998;11798591000;11658166666;11858166666
999;11798592000;11658166666;11858166666
1000;11840354000;11658166666;11858166666
1001;11840359000;11699677777;11899677777
1002;11840360000;11699677777;11899677777
1003;11840361000;11699677777;11899677777
1004;11840362000;11699677777;11899677777
1005;11840363000;11699677777;11899677777
1006;11840364000;11699677777;11899677777
1007;11840365000;11699677777;11899677777
1008;11840366000;11699677777;11899677777
1009;11840367000;11699677777;11899677777
1010;11840368000;11699677777;11899677777
1011;11881844000;11699677777;11899677777
1012;11881850000;11741477777;11941477777
1013;11881851000;11741477777;11941477777
1014;11881852000;11741477777;11941477777
1015;11881853000;11741477777;11941477777
1016;11881854000;11741477777;11941477777
1017;11881855000;11741477777;11941477777
1018;11881856000;11741477777;11941477777
1019;11881857000;11741477777;11941477777
1020;11881858000;11741477777;11941477777
1021;11881859000;11741477777;11941477777
1022;11923649000;11741477777;11941477777
1023;11923655000;11783055555;11983055555
1024;11923656000;11783055555;11983055555
1025;11923657000;11783055555;11983055555
1026;11923657000;11783055555;11983055555
1027;11923658000;11783055555;11983055555
1028;11923659000;11783055555;11983055555
1029;11923660000;11783055555;11983055555
1030;11923661000;11783055555;11983055555
1031;11923662000;11783055555;11983055555
1032;11923663000;11783055555;11983055555
1033;11965240000;11783055555;11983055555
1034;11965245000;11824744444;12024744444
1035;11965247000;11824744444;12024744444
1036;11965248000;11824744444;12024744444
1037;11965249000;11824744444;12024744444
1038;11965250000;11824744444;12024744444
1039;11965250000;11824744444;12024744444
1040;11965252000;11824744444;12024744444
1041;11965252000;11824744444;12024744444
1042;11965253000;11824744444;12024744444
1043;11965254000;11824744444;12024744444
1044;12006930000;11824744444;12024744444
1045;12006935000;11866466666;12066466666
1046;12006937000;11866466666;12066466666
1047;12006937000;11866466666;12066466666
1048;12006938000;11866466666;12066466666
1049;12006939000;11866466666;12066466666
1050;12006940000;11866466666;12066466666
1051;12006941000;11866466666;12066466666
1052;12006942000;11866466666;12066466666
1053;12006943000;11866466666;12066466666
1054;12006944000;11866466666;12066466666
1055;12048653000;11866466666;12066466666
1056;12048659000;11908055555;12108055555
1057;12048660000;11908055555;12108055555
1058;12048661000;11908055555;12108055555
1059;12048662000;11908055555;12108055555
1060;12048663000;11908055555;12108055555
1061;12048664000;11908055555;12108055555
1062;12048665000;11908055555;12108055555
1063;12048666000;11908055555;12108055555
1064;12048667000;11908055555;12108055555
1065;12048668000;11908055555;12108055555
1066;12090239000;11908055555;12108055555
1067;12090245000;11949733333;12149733333
1068;12090246000;11949733333;12149733333
1069;12090247000;11949733333;12149733333
1070;12090248000;11949733333;12149733333
1071;12090249000;11949733333;12149733333
1072;12090250000;11949733333;12149733333
1073;12090251000;11949733333;12149733333
1074;12090259000;11949733333;12149733333
1075;12090260000;11949733333;12149733333
1076;12090261000;11949733333;12149733333
1077;12131925000;11949733333;12149733333
1078;12131931000;11991377777;12191377777
1079;12131932000;11991377777;12191377777
1080;12131933000;11991377777;12191377777
1081;12131934000;11991377777;12191377777
1082;12131935000;11991377777;12191377777
1083;12131936000;11991377777;12191377777
1084;12131937000;11991377777;12191377777
1085;12131938000;11991377777;12191377777
1086;12131939000;11991377777;12191377777
1087;12131940000;11991377777;12191377777
1088;12173614000;11991377777;12191377777
1089;12173629000;12033111111;12233111111
1090;12173631000;12033111111;12233111111
1091;12173633000;12033111111;12233111111
1092;12173634000;12033111111;12233111111
1093;12173635000;12033111111;12233111111
1094;12173637000;12033111111;12233111111
1095;12173648000;12033111111;12233111111
1096;12173649000;12033111111;12233111111
1097;12173650000;12033111111;12233111111
1098;12173651000;12033111111;12233111111
1099;12215298000;12033111111;12233111111
1100;12215304000;12074711111;12274711111
1101;12215305000;12074711111;12274711111
1102;12215306000;12074711111;12274711111
1103;12215308000;12074711111;12274711111
1104;12215309000;12074711111;12274711111
1105;12215310000;12074711111;12274711111
1106;12215311000;12074711111;12274711111
1107;12215312000;12074711111;12274711111
1108;12215313000;12074711111;12274711111
1109;12215314000;12074711111;12274711111
1110;12256883000;12074711111;12274711111
1111;12256889000;12116444444;12316444444
1112;12256890000;12116444444;12316444444
1113;12256891000;12116444444;12316444444
1114;12256892000;12116444444;12316444444
1115;12256892000;12116444444;12316444444
1116;12256893000;12116444444;12316444444
1117;12256894000;12116444444;12316444444
1118;12256895000;12116444444;12316444444
1119;12256896000;12116444444;12316444444
1120;12256897000;12116444444;12316444444
1121;12298615000;12116444444;12316444444
1122;12298621000;12158122222;12358122222
1123;12298622000;12158122222;12358122222
1124;12298623000;12158122222;12358122222
1125;12298624000;12158122222;12358122222
1126;12298625000;12158122222;12358122222
1127;12298626000;12158122222;12358122222
1128;12298627000;12158122222;12358122222
1129;12298628000;12158122222;12358122222
1130;12298629000;12158122222;12358122222
1131;12298630000;12158122222;12358122222
1132;12340292000;12158122222;12358122222
1133;12340298000;12199655555;12399655555
1134;12340299000;12199655555;12399655555
1135;12340300000;12199655555;12399655555
1136;12340301000;12199655555;12399655555
1137;12340302000;12199655555;12399655555
1138;12340303000;12199655555;12399655555
1139;12340304000;12199655555;12399655555
1140;12340305000;12199655555;12399655555
1141;12340305000;12199655555;12399655555
1142;12340306000;12199655555;12399655555
1143;12381873000;12199655555;12399655555
1144;12381879000;12241400000;12441400000
1145;12381880000;12241400000;12441400000
1146;12381881000;12241400000;12441400000
1147;12381882000;12241400000;12441400000
1148;12381883000;12241400000;12441400000
1149;12381884000;12241400000;12441400000
1150;12381885000;12241400000;12441400000
1151;12381886000;12241400000;12441400000
1152;12381887000;12241400000;12441400000
1153;12381888000;12241400000;12441400000
1154;12423577000;12241400000;12441400000
1155;12423582000;12283122222;12483122222
1156;12423583000;12283122222;12483122222
1157;12423584000;12283122222;12483122222
1158;12423585000;12283122222;12483122222
1159;12423586000;12283122222;12483122222
1160;12423587000;12283122222;12483122222
1161;12423588000;12283122222;12483122222
1162;12423589000;12283122222;12483122222
1163;12423590000;12283122222;12483122222
1164;12423591000;12283122222;12483122222
1165;12465305000;12283122222;12483122222
1166;12465311000;12324622222;12524622222
1167;12465313000;12324622222;12524622222
1168;12465313000;12324622222;12524622222
1169;12465314000;12324622222;12524622222
1170;12465315000;12324622222;12524622222
1171;12465316000;12324622222;12524622222
1172;12465317000;12324622222;12524622222
1173;12465318000;12324622222;12524622222
1174;12465327000;12324622222;12524622222
1175;12465328000;12324622222;12524622222
1176;12506790000;12324622222;12524622222
1177;12506795000;12366411111;12566411111
1178;12506797000;12366411111;12566411111
1179;12506797000;12366411111;12566411111
1180;12506798000;12366411111;12566411111
1181;12506799000;12366411111;12566411111
1182;12506800000;12366411111;12566411111
1183;12506801000;12366411111;12566411111
1184;12506802000;12366411111;12566411111
1185;12506803000;12366411111;12566411111
1186;12506804000;12366411111;12566411111
1187;12548586000;12366411111;12566411111
1188;12548592000;12408122222;12608122222
1189;12548593000;12408122222;12608122222
1190;12548594000;12408122222;12608122222
1191;12548595000;12408122222;12608122222
1192;12548596000;12408122222;12608122222
1193;12548597000;12408122222;12608122222
1194;12548598000;12408122222;12608122222
1195;12548599000;12408122222;12608122222
1196;12548599000;12408122222;12608122222
1197;12548600000;12408122222;12608122222
1198;12590288000;12408122222;12608122222
1199;12590293000;12449644444;12649644444
1200;12590295000;12449644444;12649644444
1201;12590295000;12449644444;12649644444
1202;12590297000;12449644444;12649644444
1203;12590297000;12449644444;12649644444
1204;12590298000;12449644444;12649644444
1205;12590299000;12449644444;12649644444
1206;12590300000;12449644444;12649644444
1207;12590301000;12449644444;12649644444
1208;12590302000;12449644444;12649644444
1209;12631798000;12449644444;12649644444
1210;12631803000;12491433333;12691433333
1211;12631805000;12491433333;12691433333
1212;12631806000;12491433333;12691433333
1213;12631806000;12491433333;12691433333
1214;12631808000;12491433333;12691433333
1215;12631808000;12491433333;12691433333
1216;12631809000;12491433333;12691433333
1217;12631810000;12491433333;12691433333
1218;12631811000;12491433333;12691433333
1219;12631812000;12491433333;12691433333
1220;12673623000;12491433333;12691433333
1221;12673629000;12533122222;12733122222
1222;12673630000;12533122222;12733122222
1223;12673631000;12533122222;12733122222
1224;12673632000;12533122222;12733122222
1225;12673633000;12533122222;12733122222
1226;12673634000;12533122222;12733122222
1227;12673635000;12533122222;12733122222
1228;12673636000;12533122222;12733122222
1229;12673637000;12533122222;12733122222
1230;12673638000;12533122222;12733122222
1231;12715307000;12533122222;12733122222
1232;12715313000;12574766666;12774766666
1233;12715314000;12574766666;12774766666
1234;12715315000;12574766666;12774766666
1235;12715316000;12574766666;12774766666
1236;12715317000;12574766666;12774766666
1237;12715318000;12574766666;12774766666
1238;12715319000;12574766666;12774766666
1239;12715320000;12574766666;12774766666
1240;12715321000;12574766666;12774766666
1241;12715322000;12574766666;12774766666
1242;12756949000;12574766666;12774766666
1243;12756955000;12616388888;12816388888
1244;12756956000;12616388888;12816388888
1245;12756957000;12616388888;12816388888
1246;12756958000;12616388888;12816388888
1247;12756959000;12616388888;12816388888
1248;12756960000;12616388888;12816388888
1249;12756961000;12616388888;12816388888
1250;12756962000;12616388888;12816388888
1251;12756963000;12616388888;12816388888
1252;12756963000;12616388888;12816388888
1253;12798593000;12616388888;12816388888
1254;12798599000;12658100000;12858100000
1255;12798600000;12658100000;12858100000
1256;12798601000;12658100000;12858100000
1257;12798602000;12658100000;12858100000
1258;12798603000;12658100000;12858100000
1259;12798604000;12658100000;12858100000
1260;12798605000;12658100000;12858100000
1261;12798606000;12658100000;12858100000
1262;12798607000;12658100000;12858100000
1263;12798608000;12658100000;12858100000
1264;12840282000;12658100000;12858100000
1265;12840288000;12699655555;12899655555
1266;12840289000;12699655555;12899655555
1267;12840290000;12699655555;12899655555
1268;12840291000;12699655555;12899655555
1269;12840292000;12699655555;12899655555
1270;12840293000;12699655555;12899655555
1271;12840294000;12699655555;12899655555
1272;12840295000;12699655555;12899655555
1273;12840295000;12699655555;12899655555
1274;12840305000;12699655555;12899655555
1275;12881836000;12699655555;12899655555
1276;12881842000;12741433333;12941433333
1277;12881843000;12741433333;12941433333
1278;12881844000;12741433333;12941433333
1279;12881845000;12741433333;12941433333
1280;12881846000;12741433333;12941433333
1281;12881847000;12741433333;12941433333
1282;12881848000;12741433333;12941433333
1283;12881849000;12741433333;12941433333
1284;12881850000;12741433333;12941433333
1285;12881851000;12741433333;12941433333
1286;12923601000;12741433333;12941433333
1287;12923606000;12783011111;12983011111
1288;12923608000;12783011111;12983011111
1289;12923608000;12783011111;12983011111
1290;12923609000;12783011111;12983011111
1291;12923610000;12783011111;12983011111
1292;12923611000;12783011111;12983011111
1293;12923612000;12783011111;12983011111
1294;12923613000;12783011111;12983011111
1295;12923614000;12783011111;12983011111
1296;12923615000;12783011111;12983011111
1297;12965245000;12783011111;12983011111
1298;12965271000;12824744444;13024744444
1299;12965273000;12824744444;13024744444
1300;12965274000;12824744444;13024744444
1301;12965276000;12824744444;13024744444
1302;12965277000;12824744444;13024744444
1303;12965278000;12824744444;13024744444
1304;12965280000;12824744444;13024744444
1305;12965281000;12824744444;13024744444
1306;12965283000;12824744444;13024744444
1307;12965284000;12824744444;13024744444
1308;13006876000;12824744444;13024744444
1309;13006882000;12866400000;13066400000
1310;13006893000;12866400000;13066400000
1311;13006894000;12866400000;13066400000
1312;13006898000;12866400000;13066400000
1313;13006899000;12866400000;13066400000
1314;13006900000;12866400000;13066400000
1315;13006901000;12866400000;13066400000
1316;13006913000;12866400000;13066400000
1317;13006914000;12866400000;13066400000
1318;13006916000;12866400000;13066400000
1319;13048573000;12866400000;13066400000
1320;13048579000;12908177777;13108177777
1321;13048580000;12908177777;13108177777
1322;13048581000;12908177777;13108177777
1323;13048582000;12908177777;13108177777
1324;13048583000;12908177777;13108177777
1325;13048584000;12908177777;13108177777
1326;13048584000;12908177777;13108177777
1327;13048585000;12908177777;13108177777
1328;13048586000;12908177777;13108177777
1329;13048587000;12908177777;13108177777
1330;13090362000;12908177777;13108177777
1331;13090368000;12949688888;13149688888
1332;13090369000;12949688888;13149688888
1333;13090370000;12949688888;13149688888
1334;13090371000;12949688888;13149688888
1335;13090372000;12949688888;13149688888
1336;13090373000;12949688888;13149688888
1337;13090374000;12949688888;13149688888
1338;13090375000;12949688888;13149688888
1339;13090375000;12949688888;13149688888
1340;13090376000;12949688888;13149688888
1341;13131690000;12949688888;13149688888
1342;13131695000;12991477777;13191477777
1343;13131696000;12991477777;13191477777
1344;13131697000;12991477777;13191477777
1345;13131698000;12991477777;13191477777
1346;13131699000;12991477777;13191477777
1347;13131700000;12991477777;13191477777
1348;13131701000;12991477777;13191477777
1349;13131702000;12991477777;13191477777
1350;13131703000;12991477777;13191477777
1351;13131704000;12991477777;13191477777
1352;13173648000;12991477777;13191477777
1353;13173654000;13033100000;13233100000
1354;13173655000;13033100000;13233100000
1355;13173656000;13033100000;13233100000
1356;13173657000;13033100000;13233100000
1357;13173658000;13033100000;13233100000
1358;13173659000;13033100000;13233100000
1359;13173660000;13033100000;13233100000
1360;13173661000;13033100000;13233100000
1361;13173662000;13033100000;13233100000
1362;13173663000;13033100000;13233100000
1363;13215270000;13033100000;13233100000
1364;13215276000;13074677777;13274677777
1365;13215277000;13074677777;13274677777
1366;13215278000;13074677777;13274677777
1367;13215279000;13074677777;13274677777
1368;13215280000;13074677777;13274677777
1369;13215281000;13074677777;13274677777
1370;13215282000;13074677777;13274677777
1371;13215283000;13074677777;13274677777
1372;13215284000;13074677777;13274677777
1373;13215285000;13074677777;13274677777
1374;13256862000;13074677777;13274677777
1375;13256868000;13116455555;13316455555
1376;13256869000;13116455555;13316455555
1377;13256870000;13116455555;13316455555
1378;13256871000;13116455555;13316455555
1379;13256872000;13116455555;13316455555
1380;13256872000;13116455555;13316455555
1381;13256873000;13116455555;13316455555
1382;13256874000;13116455555;13316455555
1383;13256875000;13116455555;13316455555
1384;13256876000;13116455555;13316455555
1385;13298640000;13116455555;13316455555
1386;13298645000;13158133333;13358133333
1387;13298647000;13158133333;13358133333
1388;13298648000;13158133333;13358133333
1389;13298649000;13158133333;13358133333
1390;13298649000;13158133333;13358133333
1391;13298650000;13158133333;13358133333
1392;13298651000;13158133333;13358133333
1393;13298652000;13158133333;13358133333
1394;13298653000;13158133333;13358133333
1395;13298654000;13158133333;13358133333
1396;13342155000;13158133333;13358133333
1397;13342182000;13199700000;13399700000
1398;13342183000;13199700000;13399700000
1399;13342185000;13199700000;13399700000
1400;13342187000;13199700000;13399700000
1401;13342188000;13199700000;13399700000
1402;13342190000;13199700000;13399700000
1403;13342191000;13199700000;13399700000
1404;13342192000;13199700000;13399700000
1405;13342194000;13199700000;13399700000
1406;13342195000;13199700000;13399700000
1407;13381866000;13199700000;13399700000
1408;13381872000;13241433333;13441433333
1409;13381874000;13241433333;13441433333
1410;13381875000;13241433333;13441433333
1411;13381877000;13241433333;13441433333
1412;13381878000;13241433333;13441433333
1413;13381879000;13241433333;13441433333
1414;13381881000;13241433333;13441433333
1415;13381882000;13241433333;13441433333
1416;13381883000;13241433333;13441433333
1417;13381884000;13241433333;13441433333
1418;13423609000;13241433333;13441433333
1419;13423614000;13282988888;13482988888
1420;13423615000;13282988888;13482988888
1421;13423616000;13282988888;13482988888
1422;13423617000;13282988888;13482988888
1423;13423618000;13282988888;13482988888
1424;13423619000;13282988888;13482988888
1425;13423620000;13282988888;13482988888
1426;13423621000;13282988888;13482988888
1427;13423622000;13282988888;13482988888
1428;13423623000;13282988888;13482988888
1429;13465154000;13282988888;13482988888
1430;13465160000;13324655555;13524655555
1431;13465161000;13324655555;13524655555
1432;13465162000;13324655555;13524655555
1433;13465163000;13324655555;13524655555
1434;13465164000;13324655555;13524655555
1435;13465165000;13324655555;13524655555
1436;13465166000;13324655555;13524655555
1437;13465166000;13324655555;13524655555
1438;13465167000;13324655555;13524655555
1439;13465168000;13324655555;13524655555
1440;13506840000;13324655555;13524655555
1441;13506845000;13366433333;13566433333
1442;13506847000;13366433333;13566433333
1443;13506848000;13366433333;13566433333
1444;13506849000;13366433333;13566433333
1445;13506850000;13366433333;13566433333
1446;13506851000;13366433333;13566433333
1447;13506852000;13366433333;13566433333
1448;13506853000;13366433333;13566433333
1449;13506853000;13366433333;13566433333
1450;13506854000;13366433333;13566433333
1451;13548617000;13366433333;13566433333
1452;13548623000;13408155555;13608155555
1453;13548624000;13408155555;13608155555
1454;13548625000;13408155555;13608155555
1455;13548626000;13408155555;13608155555
1456;13548627000;13408155555;13608155555
1457;13548628000;13408155555;13608155555
1458;13548629000;13408155555;13608155555
1459;13548630000;13408155555;13608155555
1460;13548631000;13408155555;13608155555
1461;13548632000;13408155555;13608155555
1462;13590323000;13408155555;13608155555
1463;13590328000;13449644444;13649644444
1464;13590330000;13449644444;13649644444
1465;13590331000;13449644444;13649644444
1466;13590332000;13449644444;13649644444
1467;13590333000;13449644444;13649644444
1468;13590333000;13449644444;13649644444
1469;13590334000;13449644444;13649644444
1470;13590335000;13449644444;13649644444
1471;13590336000;13449644444;13649644444
1472;13590337000;13449644444;13649644444
1473;13631826000;13449644444;13649644444
1474;13631839000;13491455555;13691455555
1475;13631841000;13491455555;13691455555
1476;13631841000;13491455555;13691455555
1477;13631842000;13491455555;13691455555
1478;13631843000;13491455555;13691455555
1479;13631844000;13491455555;13691455555
1480;13631845000;13491455555;13691455555
1481;13631846000;13491455555;13691455555
1482;13631847000;13491455555;13691455555
1483;13631848000;13491455555;13691455555
1484;13673640000;13491455555;13691455555
1485;13673646000;13533000000;13733000000
1486;13673647000;13533000000;13733000000
1487;13673648000;13533000000;13733000000
1488;13673649000;13533000000;13733000000
1489;13673650000;13533000000;13733000000
1490;13673651000;13533000000;13733000000
1491;13673652000;13533000000;13733000000
1492;13673653000;13533000000;13733000000
1493;13673654000;13533000000;13733000000
1494;13673654000;13533000000;13733000000
1495;13715167000;13533000000;13733000000
1496;13715173000;13574744444;13774744444
1497;13715174000;13574744444;13774744444
1498;13715175000;13574744444;13774744444
1499;13715176000;13574744444;13774744444
1500;13715177000;13574744444;13774744444
1501;13715178000;13574744444;13774744444
1502;13715179000;13574744444;13774744444
1503;13715180000;13574744444;13774744444
1504;13715181000;13574744444;13774744444
1505;13715182000;13574744444;13774744444
1506;13756930000;13574744444;13774744444
1507;13756936000;13616388888;13816388888
1508;13756937000;13616388888;13816388888
1509;13756938000;13616388888;13816388888
1510;13756939000;13616388888;13816388888
1511;13756940000;13616388888;13816388888
1512;13756941000;13616388888;13816388888
1513;13756942000;13616388888;13816388888
1514;13756943000;13616388888;13816388888
1515;13756944000;13616388888;13816388888
1516;13756945000;13616388888;13816388888
1517;13798578000;13616388888;13816388888
1518;13798584000;13657977777;13857977777
1519;13798585000;13657977777;13857977777
1520;13798586000;13657977777;13857977777
1521;13798587000;13657977777;13857977777
1522;13798588000;13657977777;13857977777
1523;13798589000;13657977777;13857977777
1524;13798590000;13657977777;13857977777
1525;13798591000;13657977777;13857977777
1526;13798592000;13657977777;13857977777
1527;13798592000;13657977777;13857977777
1528;13840162000;13657977777;13857977777
1529;13840168000;13699677777;13899677777
1530;13840169000;13699677777;13899677777
1531;13840170000;13699677777;13899677777
1532;13840171000;13699677777;13899677777
1533;13840172000;13699677777;13899677777
1534;13840173000;13699677777;13899677777
1535;13840174000;13699677777;13899677777
1536;13840175000;13699677777;13899677777
1537;13840176000;13699677777;13899677777
1538;13840177000;13699677777;13899677777
1539;13881874000;13699677777;13899677777
1540;13881880000;13741466666;13941466666
1541;13881881000;13741466666;13941466666
1542;13881882000;13741466666;13941466666
1543;13881883000;13741466666;13941466666
1544;13881884000;13741466666;13941466666
1545;13881885000;13741466666;13941466666
1546;13881886000;13741466666;13941466666
1547;13881887000;13741466666;13941466666
1548;13881887000;13741466666;13941466666
1549;13881888000;13741466666;13941466666
1550;13923638000;13741466666;13941466666
1551;13923644000;13783077777;13983077777
1552;13923645000;13783077777;13983077777
1553;13923646000;13783077777;13983077777
1554;13923647000;13783077777;13983077777
1555;13923648000;13783077777;13983077777
1556;13923649000;13783077777;13983077777
1557;13923650000;13783077777;13983077777
1558;13923650000;13783077777;13983077777
1559;13923651000;13783077777;13983077777
1560;13923652000;13783077777;13983077777
1561;13965266000;13783077777;13983077777
1562;13965272000;13824644444;14024644444
1563;13965273000;13824644444;14024644444
1564;13965274000;13824644444;14024644444
1565;13965275000;13824644444;14024644444
1566;13965276000;13824644444;14024644444
1567;13965277000;13824644444;14024644444
1568;13965278000;13824644444;14024644444
1569;13965279000;13824644444;14024644444
1570;13965280000;13824644444;14024644444
1571;13965280000;13824644444;14024644444
1572;14006828000;13824644444;14024644444
1573;14006833000;13866466666;14066466666
1574;14006842000;13866466666;14066466666
1575;14006843000;13866466666;14066466666
1576;14006844000;13866466666;14066466666
1577;14006845000;13866466666;14066466666
1578;14006846000;13866466666;14066466666
1579;14006847000;13866466666;14066466666
1580;14006848000;13866466666;14066466666
1581;14006849000;13866466666;14066466666
1582;14006849000;13866466666;14066466666
1583;14048637000;13866466666;14066466666
1584;14048643000;13908100000;14108100000
1585;14048644000;13908100000;14108100000
1586;14048646000;13908100000;14108100000
1587;14048647000;13908100000;14108100000
1588;14048647000;13908100000;14108100000
1589;14048648000;13908100000;14108100000
1590;14048649000;13908100000;14108100000
1591;14048650000;13908100000;14108100000
1592;14048651000;13908100000;14108100000
1593;14048652000;13908100000;14108100000
1594;14090267000;13908100000;14108100000
1595;14090273000;13949744444;14149744444
1596;14090284000;13949744444;14149744444
1597;14090285000;13949744444;14149744444
1598;14090286000;13949744444;14149744444
1599;14090287000;13949744444;14149744444
1600;14090288000;13949744444;14149744444
1601;14090289000;13949744444;14149744444
1602;14090290000;13949744444;14149744444
1603;14090291000;13949744444;14149744444
1604;14090292000;13949744444;14149744444
1605;14131913000;13949744444;14149744444
1606;14131918000;13991422222;14191422222
1607;14131919000;13991422222;14191422222
1608;14131920000;13991422222;14191422222
1609;14131921000;13991422222;14191422222
1610;14131922000;13991422222;14191422222
1611;14131923000;13991422222;14191422222
1612;14131924000;13991422222;14191422222
1613;14131925000;13991422222;14191422222
1614;14131926000;13991422222;14191422222
1615;14131927000;13991422222;14191422222
1616;14173673000;13991422222;14191422222
1617;14173700000;14033122222;14233122222
1618;14173701000;14033122222;14233122222
1619;14173703000;14033122222;14233122222
1620;14173704000;14033122222;14233122222
1621;14173706000;14033122222;14233122222
1622;14173707000;14033122222;14233122222
1623;14173709000;14033122222;14233122222
1624;14173710000;14033122222;14233122222
1625;14173712000;14033122222;14233122222
1626;14173713000;14033122222;14233122222
1627;14215292000;14033122222;14233122222
1628;14215299000;14074733333;14274733333
1629;14215300000;14074733333;14274733333
1630;14215302000;14074733333;14274733333
1631;14215303000;14074733333;14274733333
1632;14215304000;14074733333;14274733333
1633;14215305000;14074733333;14274733333
1634;14215307000;14074733333;14274733333
1635;14215308000;14074733333;14274733333
1636;14215310000;14074733333;14274733333
1637;14215311000;14074733333;14274733333
1638;14256905000;14074733333;14274733333
1639;14256912000;14116411111;14316411111
1640;14256913000;14116411111;14316411111
1641;14256914000;14116411111;14316411111
1642;14256915000;14116411111;14316411111
1643;14256916000;14116411111;14316411111
1644;14256917000;14116411111;14316411111
1645;14256918000;14116411111;14316411111
1646;14256919000;14116411111;14316411111
1647;14256920000;14116411111;14316411111
1648;14256921000;14116411111;14316411111
1649;14298587000;14116411111;14316411111
1650;14298593000;14158044444;14358044444
1651;14298594000;14158044444;14358044444
1652;14298595000;14158044444;14358044444
1653;14298596000;14158044444;14358044444
1654;14298597000;14158044444;14358044444
1655;14298598000;14158044444;14358044444
1656;14298599000;14158044444;14358044444
1657;14298600000;14158044444;14358044444
1658;14298602000;14158044444;14358044444
1659;14298603000;14158044444;14358044444
1660;14340205000;14158044444;14358044444
