seqnum;now;rtptime;deadline
1;6514080000;3425833333;3925833333
2;6514087000;3425833333;3925833333
3;6573718000;3457211111;3957211111
161;6877298000;4040544444;4540544444
869;7590654000;6707644444;7207644444
1049;7970057000;7415566666;7915566666
1153;8227902000;7790533333;8290533333
1222;8421897000;8040888888;8540888888
1277;8584093000;8249222222;8749222222
1315;8723076000;8415566666;8915566666
1354;8826564000;8540866666;9040866666
1383;8935578000;8665533333;9165533333
1413;9040658000;8790555555;9290555555
1436;9113406000;8873900000;9373900000
1461;9185420000;8957233333;9457233333
1480;9259313000;9040544444;9540544444
1500;9332297000;9123900000;9623900000
1520;9366806000;9165855555;9665855555
1527;9405078000;9207222222;9707222222
1540;9441049000;9249266666;9749266666
1548;9479269000;9290544444;9790544444
1558;9511793000;9332222222;9832222222
1565;9551634000;9373877777;9873877777
1580;9588455000;9415544444;9915544444
1591;9623672000;9457211111;9957211111
1603;9660977000;9498877777;9998877777
1613;9696102000;9540544444;10040544444
1627;9737085000;9582233333;10082233333
1638;9774752000;9623900000;10123900000
1648;9774758000;9665544444;10165544444
1649;9814241000;9665555555;10165555555
1658;9814247000;9707233333;10207233333
1659;9814248000;9707233333;10207233333
1660;9853699000;9707255555;10207255555
1671;9893144000;9748933333;10248933333
1681;9893150000;9790566666;10290566666
1682;9931972000;9790588888;10290588888
1691;9931978000;9832233333;10332233333
1692;9931979000;9832233333;10332233333
1693;9971760000;9832255555;10332255555
1698;9971775000;9873866666;10373866666
1699;9971776000;9873866666;10373866666
1700;9971777000;9873866666;10373866666
1701;9971778000;9873866666;10373866666
1702;9971779000;9873866666;10373866666
1703;9971780000;9873866666;10373866666
1704;10011376000;9873900000;10373900000
1708;10011392000;9915533333;10415533333
1709;10011393000;9915533333;10415533333
1710;10011394000;9915533333;10415533333
1711;10011395000;9915533333;10415533333
1712;10011396000;9915533333;10415533333
1713;10011397000;9915533333;10415533333
1714;10011398000;9915533333;10415533333
1715;10049853000;9915566666;10415566666
1716;10049868000;9915855555;10415855555
1717;10049869000;9915855555;10415855555
1718;10049871000;9915855555;10415855555
1719;10089589000;9957233333;10457233333
1720;10089592000;9957233333;10457233333
1721;10089593000;9957233333;10457233333
1722;10089594000;9957233333;10457233333
1723;10089595000;9957233333;10457233333
1724;10089596000;9957233333;10457233333
1725;10089597000;9957233333;10457233333
1726;10089797000;9957255555;10457255555
1728;10089812000;9957544444;10457544444
1729;10089813000;9957544444;10457544444
1736;20650967000;9998900000;10498900000
1737;20651066000;9998922222;10498922222
1738;20651073000;9999277777;10499277777
1739;20651074000;9999277777;10499277777
1740;20651075000;9999277777;10499277777
1741;20692454000;10040544444;10540544444
1756;20734058000;10082211111;10582211111
1799;20893803000;10248877777;10748877777
2044;21028964000;11165544444;11665544444
2333;21268639000;12249233333;12749233333
2936;21564014000;14540555555;15040555555
3806;21571677000;17832455555;18332455555
3807;21571680000;17832455555;18332455555
3808;21571681000;17832455555;18332455555
3809;21893363000;17873877777;18373877777
4518;22581572000;20540544444;21040544444
4796;22581594000;21582577777;22082577777
4797;22581605000;21582577777;22082577777
4798;22581606000;21582577777;22082577777
4799;22581610000;21623877777;22123877777
4800;22581611000;21623877777;22123877777
4801;22581613000;21623877777;22123877777
4802;22581614000;21623877777;22123877777
4803;22581615000;21623877777;22123877777
4804;22581616000;21623877777;22123877777
4805;22581617000;21623877777;22123877777
4806;22581742000;21623888888;22123888888
4807;22581758000;21624222222;22124222222
4808;22581759000;21624222222;22124222222
4809;22581760000;21624222222;22124222222
4810;22581771000;21665555555;22165555555
4811;22581782000;21665555555;22165555555
4812;22581783000;21665555555;22165555555
4813;22581784000;21665555555;22165555555
4814;22581786000;21665555555;22165555555
4815;22581787000;21665555555;22165555555
4816;22581799000;21665555555;22165555555
4817;22581861000;21665566666;22165566666
4818;22581865000;21665877777;22165877777
4819;22581866000;21665877777;22165877777
4820;22581867000;21665877777;22165877777
4821;22581999000;21707233333;22207233333
4822;22582002000;21707233333;22207233333
4823;22582004000;21707233333;22207233333
4824;22582004000;21707233333;22207233333
4825;22582005000;21707233333;22207233333
4826;22582006000;21707233333;22207233333
4827;22582007000;21707233333;22207233333
4828;22582104000;21707244444;22207244444
4829;22582119000;21707555555;22207555555
4830;22582120000;21707555555;22207555555
4831;22582121000;21707555555;22207555555
4832;22582132000;21748888888;22248888888
4833;22582133000;21748888888;22248888888
4834;22582144000;21748888888;22248888888
4835;22582145000;21748888888;22248888888
4836;22582146000;21748888888;22248888888
4837;22582147000;21748888888;22248888888
4838;22582148000;21748888888;22248888888
4839;22582229000;21748900000;22248900000
4840;22582244000;21749222222;22249222222
4841;22582245000;21749222222;22249222222
4842;22582246000;21749222222;22249222222
4843;22582257000;21790577777;22290577777
4844;22582269000;21790577777;22290577777
4845;22582270000;21790577777;22290577777
4846;22582271000;21790577777;22290577777
4847;22582272000;21790577777;22290577777
4848;22582273000;21790577777;22290577777
4849;22582274000;21790577777;22290577777
4850;22582324000;21790622222;22290622222
4851;22582327000;21790911111;22290911111
4852;22582328000;21790911111;22290911111
4853;22582329000;21790911111;22290911111
4854;22582335000;21832233333;22332233333
4855;22582336000;21832233333;22332233333
4856;22582337000;21832233333;22332233333
4857;22582338000;21832233333;22332233333
4858;22582339000;21832233333;22332233333
4859;22582340000;21832233333;22332233333
4860;22582341000;21832233333;22332233333
4861;22582400000;21832277777;22332277777
4862;22582402000;21832811111;22332811111
4863;22582403000;21832811111;22332811111
4864;22582404000;21832811111;22332811111
4865;22582410000;21873900000;22373900000
4866;22582411000;21873900000;22373900000
4867;22582412000;21873900000;22373900000
4868;22582413000;21873900000;22373900000
4869;22582424000;21873900000;22373900000
4870;22582426000;21873900000;22373900000
4871;22582427000;21873900000;22373900000
4872;22582470000;21873944444;22373944444
4873;22582472000;21874277777;22374277777
4874;22582473000;21874277777;22374277777
4875;22582474000;21874277777;22374277777
4876;22582480000;21915533333;22415533333
4877;22582481000;21915533333;22415533333
4878;22582482000;21915533333;22415533333
4879;22582483000;21915533333;22415533333
4880;22582484000;21915533333;22415533333
4881;22582495000;21915533333;22415533333
4882;22582496000;21915533333;22415533333
4883;22582539000;21915577777;22415577777
4884;22582541000;21915866666;22415866666
4885;22582542000;21915866666;22415866666
4886;22582543000;21915866666;22415866666
4887;22582549000;21957233333;22457233333
4888;22582550000;21957233333;22457233333
4889;22582551000;21957233333;22457233333
4890;22582552000;21957233333;22457233333
4891;22582563000;21957233333;22457233333
4892;22582564000;21957233333;22457233333
4893;22582565000;21957233333;22457233333
4894;22582608000;21957277777;22457277777
4895;22582610000;21957566666;22457566666
4896;22582611000;21957566666;22457566666
4897;22582612000;21957566666;22457566666
4898;22582617000;21998900000;22498900000
4899;22582618000;21998900000;22498900000
4900;22582620000;21998900000;22498900000
4901;22582621000;21998900000;22498900000
4902;22582622000;21998900000;22498900000
4903;22582623000;21998900000;22498900000
4904;22582624000;21998900000;22498900000
4905;22582656000;21998933333;22498933333
4906;22582658000;21999288888;22499288888
4907;22582659000;21999288888;22499288888
4908;22582660000;21999288888;22499288888
4909;22582665000;22040533333;22540533333
4910;22582666000;22040533333;22540533333
4911;22582667000;22040533333;22540533333
4912;22582679000;22040533333;22540533333
4913;22582680000;22040533333;22540533333
4914;22582681000;22040533333;22540533333
4915;22582693000;22040533333;22540533333
4916;22582736000;22040577777;22540577777
4917;22582739000;22040877777;22540877777
4918;22582740000;22040877777;22540877777
4919;22582741000;22040877777;22540877777
4920;22582746000;22082233333;22582233333
4921;22582747000;22082233333;22582233333
4922;22582748000;22082233333;22582233333
4923;22582749000;22082233333;22582233333
4924;22582760000;22082233333;22582233333
4925;22582762000;22082233333;22582233333
4926;22582762000;22082233333;22582233333
4927;22582804000;22082255555;22582255555
4928;22582806000;22082555555;22582555555
4929;22582807000;22082555555;22582555555
4930;22582808000;22082555555;22582555555
4931;22582814000;22123900000;22623900000
4932;22582815000;22123900000;22623900000
4933;22582816000;22123900000;22623900000
4934;22582827000;22123900000;22623900000
4935;22582828000;22123900000;22623900000
4936;22582829000;22123900000;22623900000
4937;22582830000;22123900000;22623900000
4938;22582864000;22123922222;22623922222
4939;22582866000;22124244444;22624244444
4940;22582867000;22124244444;22624244444
4941;22582868000;22124244444;22624244444
4942;22582874000;22165577777;22665577777
4943;22582875000;22165577777;22665577777
4944;22582876000;22165577777;22665577777
4945;22582877000;22165577777;22665577777
4946;22582878000;22165577777;22665577777
4947;22582879000;22165577777;22665577777
4948;22582880000;22165577777;22665577777
4949;22582914000;22165600000;22665600000
4950;22582916000;22165877777;22665877777
4951;22582917000;22165877777;22665877777
4952;22582918000;22165877777;22665877777
4953;22582924000;22207233333;22707233333
4954;22582925000;22207233333;22707233333
4955;22582926000;22207233333;22707233333
4956;22582927000;22207233333;22707233333
4957;22582928000;22207233333;22707233333
4958;22582929000;22207233333;22707233333
4959;22582930000;22207233333;22707233333
4960;22582964000;22207244444;22707244444
4961;22582966000;22207522222;22707522222
4962;22582967000;22207522222;22707522222
4963;22582968000;22207522222;22707522222
4964;22582974000;22248900000;22748900000
4965;22582975000;22248900000;22748900000
4966;22582976000;22248900000;22748900000
4967;22582977000;22248900000;22748900000
4968;22582978000;22248900000;22748900000
4969;22582979000;22248900000;22748900000
4970;22582981000;22248900000;22748900000
4971;22583014000;22248911111;22748911111
4972;22583017000;22249255555;22749255555
4973;22583018000;22249255555;22749255555
4974;22583019000;22249255555;22749255555
4975;22583025000;22290566666;22790566666
4976;22583026000;22290566666;22790566666
4977;22583027000;22290566666;22790566666
4978;22583028000;22290566666;22790566666
4979;22583029000;22290566666;22790566666
4980;22583030000;22290566666;22790566666
4981;22583031000;22290566666;22790566666
4982;22583073000;22290577777;22790577777
4983;22583075000;22290866666;22790866666
4984;22583076000;22290866666;22790866666
4985;22583077000;22290866666;22790866666
4986;22583084000;22332233333;22832233333
4987;22583085000;22332233333;22832233333
4988;22583086000;22332233333;22832233333
4989;22583087000;22332233333;22832233333
4990;22583088000;22332233333;22832233333
4991;22583089000;22332233333;22832233333
4992;22583090000;22332233333;22832233333
4993;22583125000;22332255555;22832255555
4994;22583127000;22332533333;22832533333
4995;22583128000;22332533333;22832533333
4996;22583129000;22332533333;22832533333
4997;22583135000;22373900000;22873900000
4998;22583136000;22373900000;22873900000
4999;22583137000;22373900000;22873900000
5000;22583138000;22373900000;22873900000
5001;22583139000;22373900000;22873900000
5002;22583140000;22373900000;22873900000
5003;22583141000;22373900000;22873900000
5004;22583175000;22373922222;22873922222
5005;22583177000;22374277777;22874277777
5006;22583178000;22374277777;22874277777
5007;22583179000;22374277777;22874277777
5008;22583185000;22415566666;22915566666
5009;22583186000;22415566666;22915566666
5010;22583187000;22415566666;22915566666
5011;22583188000;22415566666;22915566666
5012;22583189000;22415566666;22915566666
5014;22583190000;22415566666;22915566666
5015;22583224000;22415588888;22915588888
5016;22583232000;22415877777;22915877777
5017;22583233000;22415877777;22915877777
5018;22583234000;22415877777;22915877777
5019;22583241000;22457233333;22957233333
5020;22583242000;22457233333;22957233333
5021;22583243000;22457233333;22957233333
5022;22583244000;22457233333;22957233333
5023;22583245000;22457233333;22957233333
5024;22583246000;22457233333;22957233333
5025;22583247000;22457233333;22957233333
5026;22583282000;22457255555;22957255555
5027;22583284000;22457533333;22957533333
5028;22583286000;22457533333;22957533333
5029;22583287000;22457533333;22957533333
5030;22606466000;22498866666;22998866666
5038;22606555000;22499211111;22999211111
5039;22606559000;22499211111;22999211111
5040;22606560000;22499211111;22999211111
5041;22647929000;22540566666;23040566666
5049;22648035000;22540866666;23040866666
5050;22648038000;22540866666;23040866666
5051;22648039000;22540866666;23040866666
5052;22688919000;22582233333;23082233333
5059;22689112000;22582266666;23082266666
5060;22689118000;22582555555;23082555555
5061;22689119000;22582555555;23082555555
5062;22689120000;22582555555;23082555555
5063;22729389000;22623866666;23123866666
5069;22729392000;22623866666;23123866666
5070;22729593000;22623900000;23123900000
5071;22729608000;22624222222;23124222222
5072;22729609000;22624222222;23124222222
5073;22729610000;22624222222;23124222222
5074;22769385000;22665533333;23165533333
5079;22769388000;22665533333;23165533333
5080;22769389000;22665533333;23165533333
5081;22769589000;22665566666;23165566666
5082;22769605000;22665855555;23165855555
5083;22769606000;22665855555;23165855555
5084;22769607000;22665855555;23165855555
5085;22808141000;22707233333;23207233333
5093;22808250000;22707544444;23207544444
5094;22808253000;22707544444;23207544444
5095;22808263000;22707544444;23207544444
5096;22846951000;22748900000;23248900000
5099;22846955000;22748900000;23248900000
5100;22846956000;22748900000;23248900000
5101;22846957000;22748900000;23248900000
5102;22846958000;22748900000;23248900000
5103;22847122000;22748922222;23248922222
5104;22847135000;22749255555;23249255555
5105;22847136000;22749255555;23249255555
5106;22847137000;22749255555;23249255555
5107;22883510000;22790600000;23290600000
5111;22883513000;22790600000;23290600000
5112;22883514000;22790600000;23290600000
5113;22883515000;22790600000;23290600000
5114;22883715000;22790644444;23290644444
5115;22883730000;22790922222;23290922222
5116;22883731000;22790922222;23290922222
5117;22883733000;22790922222;23290922222
5118;22921428000;22832233333;23332233333
5119;22921431000;22832233333;23332233333
5120;22921433000;22832233333;23332233333
5121;22921443000;22832233333;23332233333
5122;22921445000;22832233333;23332233333
5123;22921446000;22832233333;23332233333
5124;22921447000;22832233333;23332233333
5125;22921623000;22832255555;23332255555
5128;22921627000;22832511111;23332511111
5129;22958879000;22873866666;23373866666
5130;22958882000;22873866666;23373866666
5131;22958883000;22873866666;23373866666
5132;22958884000;22873866666;23373866666
5133;22958885000;22873866666;23373866666
5134;22958886000;22873866666;23373866666
5135;22958887000;22873866666;23373866666
5136;22959079000;22873900000;23373900000
5137;22959086000;22874222222;23374222222
5138;22959087000;22874222222;23374222222
5139;22959088000;22874222222;23374222222
5140;22996346000;22915533333;23415533333
5141;22996349000;22915533333;23415533333
5142;22996350000;22915533333;23415533333
5143;22996351000;22915533333;23415533333
5144;22996352000;22915533333;23415533333
5145;22996353000;22915533333;23415533333
5146;22996354000;22915533333;23415533333
5147;22996554000;22915566666;23415566666
5148;22996560000;22915844444;23415844444
5149;22996562000;22915844444;23415844444
5150;22996563000;22915844444;23415844444
5151;23033447000;22957233333;23457233333
5152;23033450000;22957233333;23457233333
5153;23033451000;22957233333;23457233333
5154;23033452000;22957233333;23457233333
5155;23033453000;22957233333;23457233333
5156;23033454000;22957233333;23457233333
5157;23033455000;22957233333;23457233333
5158;23033655000;22957266666;23457266666
5159;23033668000;22957544444;23457544444
5160;23033670000;22957544444;23457544444
5161;23033671000;22957544444;23457544444
5162;23070657000;22998866666;23498866666
5163;23070669000;22998866666;23498866666
5164;23070670000;22998866666;23498866666
5165;23070671000;22998866666;23498866666
5166;23070672000;22998866666;23498866666
5167;23070673000;22998866666;23498866666
5168;23070674000;22998866666;23498866666
5169;23070846000;22998900000;23498900000
5170;23070849000;22999233333;23499233333
5171;23070850000;22999233333;23499233333
5172;23070851000;22999233333;23499233333
5173;23108587000;23040533333;23540533333
5174;23108589000;23040533333;23540533333
5175;23108590000;23040533333;23540533333
5176;23108591000;23040533333;23540533333
5177;23108602000;23040533333;23540533333
5178;23108603000;23040533333;23540533333
5179;23108604000;23040533333;23540533333
5180;23108769000;23040566666;23540566666
5181;23108772000;23040855555;23540855555
5182;23108773000;23040855555;23540855555
5183;23108774000;23040855555;23540855555
5184;23145426000;23082233333;23582233333
5185;23145428000;23082233333;23582233333
5186;23145429000;23082233333;23582233333
5187;23145430000;23082233333;23582233333
5188;23145431000;23082233333;23582233333
5189;23145432000;23082233333;23582233333
5190;23145433000;23082233333;23582233333
5191;23145551000;23082255555;23582255555
5192;23145553000;23082544444;23582544444
5193;23145554000;23082544444;23582544444
5194;23145555000;23082544444;23582544444
5195;23184863000;23123866666;23623866666
5196;23184865000;23123866666;23623866666
5197;23184866000;23123866666;23623866666
5198;23184867000;23123866666;23623866666
5199;23184868000;23123866666;23623866666
5200;23184869000;23123866666;23623866666
5201;23184870000;23123866666;23623866666
5202;23185012000;23123900000;23623900000
5203;23185014000;23124211111;23624211111
5204;23185015000;23124211111;23624211111
5205;23185016000;23124211111;23624211111
5206;23224821000;23165533333;23665533333
5207;23224823000;23165533333;23665533333
5208;23224824000;23165533333;23665533333
5209;23224834000;23165533333;23665533333
5210;23224835000;23165533333;23665533333
5211;23224836000;23165533333;23665533333
5212;23224837000;23165533333;23665533333
5213;23225008000;23165566666;23665566666
5214;23225010000;23165844444;23665844444
5215;23225011000;23165844444;23665844444
5216;23225012000;23165844444;23665844444
5217;23265004000;23207233333;23707233333
5218;23265007000;23207233333;23707233333
5219;23265008000;23207233333;23707233333
5220;23265009000;23207233333;23707233333
5221;23265010000;23207233333;23707233333
5222;23265011000;23207233333;23707233333
5223;23265012000;23207233333;23707233333
5224;23265178000;23207255555;23707255555
5226;23265181000;23207533333;23707533333
5227;23265182000;23207533333;23707533333
5228;23305835000;23248900000;23748900000
5229;23305838000;23248900000;23748900000
5230;23305839000;23248900000;23748900000
5231;23305840000;23248900000;23748900000
5232;23305841000;23248900000;23748900000
5233;23305842000;23248900000;23748900000
5234;23305843000;23248900000;23748900000
5235;23366836000;23248911111;23748911111
5239;23366843000;23290544444;23790544444
5240;23366844000;23290544444;23790544444
5241;23366845000;23290544444;23790544444
5242;23366846000;23290544444;23790544444
5243;23366856000;23290544444;23790544444
5244;23366858000;23290544444;23790544444
5245;23366858000;23290544444;23790544444
5246;23408264000;23290555555;23790555555
5250;23408270000;23332233333;23832233333
5251;23408271000;23332233333;23832233333
5252;23408272000;23332233333;23832233333
5253;23408273000;23332233333;23832233333
5254;23408283000;23332233333;23832233333
5255;23408284000;23332233333;23832233333
5256;23408285000;23332233333;23832233333
5257;23449504000;23332266666;23832266666
5261;23449511000;23373866666;23873866666
5262;23449512000;23373866666;23873866666
5263;23449513000;23373866666;23873866666
5264;23449514000;23373866666;23873866666
5265;23449524000;23373866666;23873866666
5266;23449525000;23373866666;23873866666
5267;23449526000;23373866666;23873866666
5268;23490105000;23373888888;23873888888
5272;23490128000;23415577777;23915577777
5273;23490129000;23415577777;23915577777
5274;23490130000;23415577777;23915577777
5275;23490131000;23415577777;23915577777
5276;23490132000;23415577777;23915577777
5277;23490133000;23415577777;23915577777
5278;23490134000;23415577777;23915577777
5279;23530447000;23415600000;23915600000
5283;23530453000;23457233333;23957233333
5284;23530454000;23457233333;23957233333
5285;23530456000;23457233333;23957233333
5286;23530457000;23457233333;23957233333
5287;23530467000;23457233333;23957233333
5288;23530468000;23457233333;23957233333
5289;23530469000;23457233333;23957233333
5290;23569952000;23457266666;23957266666
5294;23569958000;23498866666;23998866666
5295;23569960000;23498866666;23998866666
5296;23569961000;23498866666;23998866666
5297;23569962000;23498866666;23998866666
5298;23569972000;23498866666;23998866666
5299;23569973000;23498866666;23998866666
5300;23569974000;23498866666;23998866666
5301;23609023000;23498900000;23998900000
5305;23609029000;23540566666;24040566666
5306;23609031000;23540566666;24040566666
5307;23609032000;23540566666;24040566666
5308;23609033000;23540566666;24040566666
5309;23609049000;23540566666;24040566666
5310;23609050000;23540566666;24040566666
5311;23609051000;23540566666;24040566666
5312;23644040000;23540577777;24040577777
5316;23644064000;23582222222;24082222222
5317;23644066000;23582222222;24082222222
5318;23644068000;23582222222;24082222222
5319;23644069000;23582222222;24082222222
5320;23644070000;23582222222;24082222222
5321;23644071000;23582222222;24082222222
5322;23644072000;23582222222;24082222222
5323;23677433000;23582233333;24082233333
5324;23677439000;23582511111;24082511111
5325;23677441000;23582511111;24082511111
5326;23677442000;23582511111;24082511111
5327;23720432000;23623911111;24123911111
5328;23720435000;23623911111;24123911111
5329;23720436000;23623911111;24123911111
5330;23720438000;23623911111;24123911111
5331;23720438000;23623911111;24123911111
5332;23720439000;23623911111;24123911111
5333;23720440000;23623911111;24123911111
5334;23720553000;23623944444;24123944444
5335;23720558000;23624266666;24124266666
5336;23720560000;23624266666;24124266666
5337;23720561000;23624266666;24124266666
5338;23753394000;23665566666;24165566666
5339;23753397000;23665566666;24165566666
5340;23753398000;23665566666;24165566666
5341;23753399000;23665566666;24165566666
5342;23753400000;23665566666;24165566666
5343;23753401000;23665566666;24165566666
5344;23753402000;23665566666;24165566666
5345;23753494000;23665588888;24165588888
5346;23753499000;23665866666;24165866666
5347;23753500000;23665866666;24165866666
5348;23753501000;23665866666;24165866666
5349;23790467000;23707233333;24207233333
5350;23790470000;23707233333;24207233333
5351;23790471000;23707233333;24207233333
5352;23790472000;23707233333;24207233333
5353;23790473000;23707233333;24207233333
5354;23790474000;23707233333;24207233333
5355;23790475000;23707233333;24207233333
5356;23790577000;23707255555;24207255555
5357;23790582000;23707544444;24207544444
5358;23790583000;23707544444;24207544444
5359;23790584000;23707544444;24207544444
5360;23827101000;23748900000;24248900000
5361;23827104000;23748900000;24248900000
5362;23827105000;23748900000;24248900000
5363;23827106000;23748900000;24248900000
5364;23827107000;23748900000;24248900000
5365;23827108000;23748900000;24248900000
5366;23827109000;23748900000;24248900000
5367;23827218000;23748911111;24248911111
5368;23827223000;23749233333;24249233333
5369;23827224000;23749233333;24249233333
5370;23827225000;23749233333;24249233333
5371;23864108000;23790566666;24290566666
5372;23864120000;23790566666;24290566666
5373;23864121000;23790566666;24290566666
5374;23864122000;23790566666;24290566666
5375;23864123000;23790566666;24290566666
5376;23864124000;23790566666;24290566666
5377;23864125000;23790566666;24290566666
5378;23864222000;23790588888;24290588888
5379;23864226000;23790866666;24290866666
5380;23889844000;23790866666;24290866666
5381;23889846000;23790866666;24290866666
5382;23899336000;23832233333;24332233333
5383;23899339000;23832233333;24332233333
5384;23899347000;23832233333;24332233333
5385;23899348000;23832233333;24332233333
5386;23899349000;23832233333;24332233333
5387;23899350000;23832233333;24332233333
5388;23899351000;23832233333;24332233333
5389;23950400000;23832255555;24332255555
5393;23950416000;23873877777;24373877777
5394;23950417000;23873877777;24373877777
5395;23950418000;23873877777;24373877777
5396;23950419000;23873877777;24373877777
5397;23950420000;23873877777;24373877777
5398;23950420000;23873877777;24373877777
5399;23950422000;23873877777;24373877777
5400;23992115000;23873888888;24373888888
5404;23992131000;23915544444;24415544444
5405;23992132000;23915544444;24415544444
5406;23992133000;23915544444;24415544444
5407;23992134000;23915544444;24415544444
5408;23992135000;23915544444;24415544444
5409;23992136000;23915544444;24415544444
5410;23992137000;23915544444;24415544444
5411;24033413000;23915555555;24415555555
5415;24033428000;23957233333;24457233333
5416;24033430000;23957233333;24457233333
5417;24033431000;23957233333;24457233333
5418;24033432000;23957233333;24457233333
5419;24033433000;23957233333;24457233333
5420;24033434000;23957233333;24457233333
5421;24033435000;23957233333;24457233333
5422;24073986000;23957255555;24457255555
5426;24074001000;23998900000;24498900000
5427;24074002000;23998900000;24498900000
5428;24074003000;23998900000;24498900000
5429;24074005000;23998900000;24498900000
5430;24074006000;23998900000;24498900000
5431;24074007000;23998900000;24498900000
5432;24074008000;23998900000;24498900000
5433;24112429000;23998922222;24498922222
5437;24112444000;24040544444;24540544444
5438;24112445000;24040544444;24540544444
5439;24112446000;24040544444;24540544444
5440;24112447000;24040544444;24540544444
5441;24112448000;24040544444;24540544444
5442;24112449000;24040544444;24540544444
5443;24112450000;24040544444;24540544444
5444;24152663000;24040555555;24540555555
5448;24152679000;24082222222;24582222222
5449;24152680000;24082222222;24582222222
5450;24152681000;24082222222;24582222222
5451;24152682000;24082222222;24582222222
5452;24152683000;24082222222;24582222222
5453;24152684000;24082222222;24582222222
5454;24152685000;24082222222;24582222222
5455;24191728000;24082233333;24582233333
5459;24191735000;24123900000;24623900000
5460;24191736000;24123900000;24623900000
5461;24191737000;24123900000;24623900000
5462;24191738000;24123900000;24623900000
5463;24191739000;24123900000;24623900000
5464;24191740000;24123900000;24623900000
5465;24191741000;24123900000;24623900000
5466;24229970000;24123933333;24623933333
5470;24229974000;24165533333;24665533333
5471;24229975000;24165533333;24665533333
5472;24229976000;24165533333;24665533333
5473;24229977000;24165533333;24665533333
5474;24229979000;24165533333;24665533333
5475;24229979000;24165533333;24665533333
5476;24229990000;24165533333;24665533333
5477;24267528000;24165566666;24665566666
5481;24267532000;24207233333;24707233333
5482;24267534000;24207233333;24707233333
5483;24267535000;24207233333;24707233333
5484;24267536000;24207233333;24707233333
5485;24267537000;24207233333;24707233333
5486;24267538000;24207233333;24707233333
5487;24267539000;24207233333;24707233333
5488;24304568000;24207266666;24707266666
5489;24304583000;24207544444;24707544444
5490;24304584000;24207544444;24707544444
5491;24304585000;24207544444;24707544444
5492;24341026000;24248866666;24748866666
5493;24341030000;24248866666;24748866666
5494;24341030000;24248866666;24748866666
5495;24341032000;24248866666;24748866666
5496;24341033000;24248866666;24748866666
5497;24341034000;24248866666;24748866666
5498;24341035000;24248866666;24748866666
5499;24341242000;24248900000;24748900000
