seqnum;now;rtptime;deadline
56;5829007000;5525533333;5725533333
57;5829011000;5525533333;5725533333
58;5829012000;5525533333;5725533333
59;5829014000;5525533333;5725533333
60;5829015000;5525533333;5725533333
61;5829017000;5525533333;5725533333
62;5829018000;5525533333;5725533333
118;6036905000;5733811111;5933811111
121;6078280000;5775522222;5975522222
144;6161651000;5858833333;6058833333
154;6203290000;5900544444;6100544444
156;6247828000;5900544444;6100544444
158;6247831000;5900544444;6100544444
159;6247832000;5900544444;6100544444
160;6247833000;5900544444;6100544444
161;6247834000;5900544444;6100544444
162;6247834000;5900544444;6100544444
163;6247835000;5900544444;6100544444
164;6247953000;5900544444;6100544444
165;6247959000;5942255555;6142255555
166;6247960000;5942255555;6142255555
167;6247961000;5942255555;6142255555
168;6247972000;5942255555;6142255555
169;6247973000;5942255555;6142255555
170;6247974000;5942255555;6142255555
171;6247975000;5942255555;6142255555
172;6247976000;5942255555;6142255555
173;6247977000;5942255555;6142255555
174;6247978000;5942255555;6142255555
175;6247988000;5942255555;6142255555
176;6247989000;5983844444;6183844444
177;6248001000;5983844444;6183844444
178;6248002000;5983844444;6183844444
179;6248003000;5983844444;6183844444
180;6248004000;5983844444;6183844444
181;6248005000;5983844444;6183844444
182;6248006000;5983844444;6183844444
183;6248007000;5983844444;6183844444
184;6248008000;5983844444;6183844444
185;6248009000;5983844444;6183844444
186;6286583000;5983844444;6183844444
187;6286589000;6025566666;6225566666
188;6286590000;6025566666;6225566666
189;6286591000;6025566666;6225566666
190;6286592000;6025566666;6225566666
191;6286593000;6025566666;6225566666
192;6286594000;6025566666;6225566666
193;6286595000;6025566666;6225566666
194;6286596000;6025566666;6225566666
195;6286597000;6025566666;6225566666
196;6286598000;6025566666;6225566666
197;6328278000;6025566666;6225566666
198;6328284000;6067188888;6267188888
199;6328285000;6067188888;6267188888
200;6328295000;6067188888;6267188888
201;6328296000;6067188888;6267188888
202;6328297000;6067188888;6267188888
203;6328298000;6067188888;6267188888
204;6328299000;6067188888;6267188888
205;6328300000;6067188888;6267188888
206;6328300000;6067188888;6267188888
207;6328301000;6067188888;6267188888
208;6369934000;6067188888;6267188888
211;6369940000;6108866666;6308866666
212;6369941000;6108866666;6308866666
213;6369942000;6108866666;6308866666
214;6369943000;6108866666;6308866666
215;6369944000;6108866666;6308866666
216;6369945000;6108866666;6308866666
217;6369946000;6108866666;6308866666
218;6369947000;6108866666;6308866666
219;6411640000;6108866666;6308866666
226;6411646000;6150544444;6350544444
227;6411647000;6150544444;6350544444
228;6411648000;6150544444;6350544444
229;6411649000;6150544444;6350544444
230;6453288000;6150544444;6350544444
237;6453294000;6192188888;6392188888
238;6453295000;6192188888;6392188888
239;6453296000;6192188888;6392188888
240;6453297000;6192188888;6392188888
241;6494934000;6192188888;6392188888
244;6494939000;6233822222;6433822222
245;6494940000;6233822222;6433822222
246;6494941000;6233822222;6433822222
247;6494942000;6233822222;6433822222
248;6494943000;6233822222;6433822222
249;6494944000;6233822222;6433822222
250;6494945000;6233822222;6433822222
251;6494946000;6233822222;6433822222
252;6536432000;6233822222;6433822222
263;6578315000;6275566666;6475566666
274;6620004000;6317255555;6517255555
285;6661583000;6358900000;6558900000
296;6703322000;6400577777;6600577777
307;6745025000;6442277777;6642277777
318;6786486000;6483933333;6683933333
329;6828369000;6525622222;6725622222
340;6870014000;6567266666;6767266666
351;6911669000;6608944444;6808944444
362;6953374000;6650611111;6850611111
373;6994869000;6692266666;6892266666
384;7036648000;6733900000;6933900000
394;7036654000;6775600000;6975600000
395;7078345000;6775600000;6975600000
406;7120122000;6817266666;7017266666
417;7161667000;6858888888;7058888888
429;7161684000;6942288888;7142288888
430;7161686000;6942288888;7142288888
431;7161687000;6942288888;7142288888
432;7161690000;6942288888;7142288888
433;7161714000;6942288888;7142288888
434;7161715000;6942288888;7142288888
435;7161717000;6942288888;7142288888
436;7161718000;6942288888;7142288888
437;7161720000;6942288888;7142288888
438;7161721000;6942288888;7142288888
439;7245311000;6942288888;7142288888
450;7286776000;6983933333;7183933333
461;7328439000;7025600000;7225600000
473;7328451000;7108922222;7308922222
474;7328468000;7108922222;7308922222
475;7328471000;7108922222;7308922222
476;7328473000;7108922222;7308922222
477;7328475000;7108922222;7308922222
478;7328477000;7108922222;7308922222
479;7328480000;7108922222;7308922222
480;7328481000;7108922222;7308922222
481;7328482000;7108922222;7308922222
482;7328483000;7108922222;7308922222
483;7411875000;7108922222;7308922222
494;7453331000;7150588888;7350588888
504;7453337000;7192300000;7392300000
505;7495048000;7192300000;7392300000
516;7536658000;7233911111;7433911111
527;7578346000;7275600000;7475600000
539;7578352000;7358933333;7558933333
540;7578353000;7358933333;7558933333
541;7578354000;7358933333;7558933333
542;7578355000;7358933333;7558933333
543;7578356000;7358933333;7558933333
544;7578357000;7358933333;7558933333
545;7578357000;7358933333;7558933333
546;7578358000;7358933333;7558933333
547;7578360000;7358933333;7558933333
548;7578360000;7358933333;7558933333
549;7661887000;7358933333;7558933333
560;7703321000;7400577777;7600577777
571;7744959000;7442288888;7642288888
582;7786715000;7483933333;7683933333
593;7828215000;7525611111;7725611111
604;7870046000;7567300000;7767300000
615;7911528000;7608933333;7808933333
626;7953367000;7650622222;7850622222
637;7995059000;7692311111;7892311111
648;8036657000;7733911111;7933911111
659;8078215000;7775611111;7975611111
670;8120099000;7817300000;8017300000
681;8161679000;7858933333;8058933333
692;8203376000;7900633333;8100633333
703;8245036000;7942288888;8142288888
714;8286682000;7983933333;8183933333
725;8328325000;8025611111;8225611111
735;8328330000;8067277777;8267277777
736;8370041000;8067277777;8267277777
747;8411706000;8108944444;8308944444
758;8453389000;8150644444;8350644444
770;8453395000;8233922222;8433922222
771;8453396000;8233922222;8433922222
772;8453397000;8233922222;8433922222
773;8453398000;8233922222;8433922222
774;8453399000;8233922222;8433922222
775;8453400000;8233922222;8433922222
776;8453401000;8233922222;8433922222
777;8453402000;8233922222;8433922222
778;8453403000;8233922222;8433922222
779;8453404000;8233922222;8433922222
780;8536878000;8233922222;8433922222
791;8578402000;8275655555;8475655555
802;8620035000;8317288888;8517288888
814;8620040000;8400633333;8600633333
815;8620041000;8400633333;8600633333
816;8620042000;8400633333;8600633333
817;8620043000;8400633333;8600633333
818;8620044000;8400633333;8600633333
819;8620045000;8400633333;8600633333
820;8620046000;8400633333;8600633333
821;8620047000;8400633333;8600633333
822;8620048000;8400633333;8600633333
823;8620049000;8400633333;8600633333
824;8703236000;8400633333;8600633333
835;8745018000;8442266666;8642266666
845;8745032000;8483933333;8683933333
846;8786697000;8483933333;8683933333
857;8828385000;8525622222;8725622222
868;8869977000;8567277777;8767277777
880;8869983000;8650622222;8850622222
881;8869993000;8650622222;8850622222
882;8869994000;8650622222;8850622222
883;8869995000;8650622222;8850622222
884;8869996000;8650622222;8850622222
885;8869997000;8650622222;8850622222
886;8869998000;8650622222;8850622222
887;8869999000;8650622222;8850622222
888;8869999000;8650622222;8850622222
889;8870000000;8650622222;8850622222
890;8953583000;8650622222;8850622222
901;8994894000;8692288888;8892288888
912;9036637000;8733888888;8933888888
923;9078288000;8775588888;8975588888
934;9120080000;8817333333;9017333333
945;9161678000;8858933333;9058933333
956;9203378000;8900633333;9100633333
967;9245015000;8942266666;9142266666
978;9286667000;8983933333;9183933333
987;9286673000;9025611111;9225611111
988;9286674000;9025611111;9225611111
989;9328357000;9025611111;9225611111
998;9328363000;9067277777;9267277777
999;9328364000;9067277777;9267277777
1000;9370024000;9067277777;9267277777
1011;9411689000;9108944444;9308944444
1027;9439181000;9192300000;9392300000
1028;9439184000;9192300000;9392300000
1029;9439185000;9192300000;9392300000
1030;9439186000;9192300000;9392300000
1031;9439187000;9192300000;9392300000
1032;9439197000;9192300000;9392300000
1033;9495119000;9192300000;9392300000
1044;9536680000;9233933333;9433933333
1052;9536686000;9275633333;9475633333
1053;9536687000;9275633333;9475633333
1054;9536688000;9275633333;9475633333
1055;9578380000;9275633333;9475633333
1067;9578386000;9358888888;9558888888
1068;9578387000;9358888888;9558888888
1069;9578388000;9358888888;9558888888
1070;9578389000;9358888888;9558888888
1071;9578390000;9358888888;9558888888
1072;9578391000;9358888888;9558888888
1073;9578392000;9358888888;9558888888
1074;9578393000;9358888888;9558888888
1075;9578394000;9358888888;9558888888
1076;9578394000;9358888888;9558888888
1077;9661850000;9358888888;9558888888
1087;9661857000;9400622222;9600622222
1088;9703326000;9400622222;9600622222
1099;9745011000;9442300000;9642300000
1110;9786480000;9483911111;9683911111
1121;9828321000;9525611111;9725611111
1132;9869945000;9567255555;9767255555
1143;9911587000;9608911111;9808911111
1154;9953367000;9650611111;9850611111
1165;9994989000;9692244444;9892244444
1176;10036554000;9733866666;9933866666
1187;10078261000;9775577777;9975577777
1198;10119990000;9817244444;10017244444
1209;10161678000;9858933333;10058933333
1220;10203302000;9900588888;10100588888
1231;10245016000;9942266666;10142266666
1242;10286551000;9983944444;10183944444
1253;10328328000;10025566666;10225566666
1264;10369990000;10067244444;10267244444
1275;10411667000;10108922222;10308922222
1286;10453373000;10150622222;10350622222
1297;10494991000;10192244444;10392244444
1308;10536654000;10233888888;10433888888
1319;10578275000;10275588888;10475588888
1330;10620012000;10317266666;10517266666
1341;10661678000;10358933333;10558933333
1351;10661683000;10400588888;10600588888
1352;10703337000;10400588888;10600588888
1363;10745028000;10442277777;10642277777
1373;10745043000;10483900000;10683900000
1374;10786647000;10483900000;10683900000
1386;10786653000;10567300000;10767300000
1387;10786654000;10567300000;10767300000
1388;10786655000;10567300000;10767300000
1389;10786656000;10567300000;10767300000
1390;10786657000;10567300000;10767300000
1391;10786658000;10567300000;10767300000
1392;10786659000;10567300000;10767300000
1393;10786659000;10567300000;10767300000
1394;10786660000;10567300000;10767300000
1395;10786661000;10567300000;10767300000
1396;10870191000;10567300000;10767300000
1408;10870206000;10650622222;10850622222
1409;10870208000;10650622222;10850622222
1410;10870210000;10650622222;10850622222
1411;10870211000;10650622222;10850622222
1412;10870213000;10650622222;10850622222
1413;10870214000;10650622222;10850622222
1414;10870215000;10650622222;10850622222
1415;10870217000;10650622222;10850622222
1416;10870218000;10650622222;10850622222
1417;10870220000;10650622222;10850622222
1418;10953529000;10650622222;10850622222
1430;10953534000;10733877777;10933877777
1431;10953536000;10733877777;10933877777
1432;10953537000;10733877777;10933877777
1433;10953538000;10733877777;10933877777
1434;10953540000;10733877777;10933877777
1435;10953541000;10733877777;10933877777
1436;10953542000;10733877777;10933877777
1437;10953544000;10733877777;10933877777
1438;10953545000;10733877777;10933877777
1439;10953547000;10733877777;10933877777
1440;11036746000;10733877777;10933877777
1449;11036751000;10775577777;10975577777
1450;11036752000;10775577777;10975577777
1451;11078263000;10775577777;10975577777
1462;11119953000;10817277777;11017277777
1473;11161611000;10858900000;11058900000
1485;11161617000;10942311111;11142311111
1486;11161619000;10942311111;11142311111
1487;11161620000;10942311111;11142311111
1488;11161621000;10942311111;11142311111
1489;11161622000;10942311111;11142311111
1490;11161622000;10942311111;11142311111
1491;11161624000;10942311111;11142311111
1492;11161625000;10942311111;11142311111
1493;11161625000;10942311111;11142311111
1494;11161626000;10942311111;11142311111
1495;11244880000;10942311111;11142311111
1505;11244894000;10983944444;11183944444
1506;11286655000;10983944444;11183944444
1517;11328320000;11025611111;11225611111
1528;11369942000;11067233333;11267233333
1539;11411643000;11108933333;11308933333
1550;11453168000;11150622222;11350622222
1561;11494977000;11192266666;11392266666
1572;11536636000;11233888888;11433888888
1583;11578397000;11275633333;11475633333
1594;11620046000;11317300000;11517300000
1605;11661689000;11358944444;11558944444
1616;11703383000;11400633333;11600633333
1627;11745025000;11442277777;11642277777
1638;11786707000;11483944444;11683944444
1649;11828213000;11525611111;11725611111
1660;11870045000;11567300000;11767300000
1671;11911699000;11608955555;11808955555
1682;11953403000;11650655555;11850655555
1693;11995067000;11692300000;11892300000
1704;12036646000;11733900000;11933900000
1715;12078391000;11775644444;11975644444
1726;12120011000;11817266666;12017266666
1737;12161654000;11858911111;12058911111
1748;12203373000;11900633333;12100633333
1759;12245013000;11942266666;12142266666
1770;12286674000;11983911111;12183911111
1781;12328357000;12025611111;12225611111
1792;12370067000;12067277777;12267277777
1803;12411654000;12108911111;12308911111
1814;12453381000;12150633333;12350633333
1825;12495015000;12192266666;12392266666
1836;12536696000;12233933333;12433933333
1847;12578430000;12275633333;12475633333
1858;12620000000;12317255555;12517255555
1869;12661688000;12358944444;12558944444
1880;12703381000;12400633333;12600633333
1889;12703387000;12442266666;12642266666
1890;12703388000;12442266666;12642266666
1891;12745016000;12442266666;12642266666
1902;12786657000;12483911111;12683911111
1913;12828357000;12525611111;12725611111
1925;12828362000;12608933333;12808933333
1926;12828364000;12608933333;12808933333
1927;12828365000;12608933333;12808933333
1928;12828366000;12608933333;12808933333
1929;12828367000;12608933333;12808933333
1930;12828368000;12608933333;12808933333
1931;12828369000;12608933333;12808933333
1932;12828369000;12608933333;12808933333
1933;12828370000;12608933333;12808933333
1934;12828371000;12608933333;12808933333
1935;12911885000;12608933333;12808933333
1945;12911891000;12650566666;12850566666
1946;12953313000;12650566666;12850566666
1955;12953319000;12692266666;12892266666
1956;12953320000;12692266666;12892266666
1957;12995005000;12692266666;12892266666
1968;13036617000;12733877777;12933877777
1979;13078338000;12775600000;12975600000
1991;13078343000;12858888888;13058888888
1992;13078345000;12858888888;13058888888
1993;13078345000;12858888888;13058888888
1994;13078347000;12858888888;13058888888
1995;13078347000;12858888888;13058888888
1996;13078348000;12858888888;13058888888
1997;13078349000;12858888888;13058888888
1998;13078350000;12858888888;13058888888
1999;13078351000;12858888888;13058888888
2000;13078352000;12858888888;13058888888
2001;13161841000;12858888888;13058888888
2011;13161846000;12900588888;13100588888
2012;13203335000;12900588888;13100588888
2023;13245040000;12942300000;13142300000
2034;13286638000;12983900000;13183900000
2045;13328327000;13025588888;13225588888
2056;13370015000;13067277777;13267277777
2067;13411658000;13108900000;13308900000
2078;13453464000;13150722222;13350722222
2089;13495033000;13192300000;13392300000
2099;13495048000;13233911111;13433911111
2100;13536657000;13233911111;13433911111
2111;13578241000;13275577777;13475577777
2122;13620078000;13317288888;13517288888
2133;13661688000;13358944444;13558944444
2144;13703381000;13400633333;13600633333
2155;13745004000;13442255555;13642255555
2166;13786705000;13483966666;13683966666
2177;13828416000;13525655555;13725655555
2188;13870049000;13567311111;13767311111
2199;13911759000;13609022222;13809022222
2210;13953358000;13650633333;13850633333
2221;13995040000;13692300000;13892300000
2232;14036640000;13733900000;13933900000
2243;14078272000;13775588888;13975588888
2254;14119955000;13817277777;14017277777
2265;14161646000;13858911111;14058911111
2276;14203348000;13900600000;14100600000
2286;14203354000;13942311111;14142311111
2287;14245058000;13942311111;14142311111
2298;14286660000;13983922222;14183922222
2309;14328326000;14025588888;14225588888
2321;14328332000;14108955555;14308955555
2322;14328333000;14108955555;14308955555
2323;14328334000;14108955555;14308955555
2324;14328335000;14108955555;14308955555
2325;14328336000;14108955555;14308955555
2326;14328337000;14108955555;14308955555
2327;14328338000;14108955555;14308955555
2328;14328339000;14108955555;14308955555
2329;14328340000;14108955555;14308955555
2330;14328341000;14108955555;14308955555
2331;14411908000;14108955555;14308955555
2342;14453434000;14150688888;14350688888
2353;14495047000;14192300000;14392300000
2364;14536657000;14233911111;14433911111
2375;14578296000;14275611111;14475611111
2386;14620013000;14317266666;14517266666
2397;14661688000;14358944444;14558944444
2408;14703381000;14400633333;14600633333
2419;14744942000;14442255555;14642255555
2430;14786627000;14483944444;14683944444
2441;14828390000;14525644444;14725644444
2452;14870033000;14567288888;14767288888
2463;14911699000;14608944444;14808944444
2474;14953481000;14650733333;14850733333
2485;14995058000;14692311111;14892311111
2496;15036657000;14733911111;14933911111
2507;15078334000;14775588888;14975588888
2518;15120056000;14817311111;15017311111
2529;15161656000;14858933333;15058933333
2540;15203382000;14900633333;15100633333
2551;15244973000;14942288888;15142288888
2562;15286715000;14983966666;15183966666
2573;15328359000;15025611111;15225611111
2584;15370025000;15067277777;15267277777
2595;15411681000;15108933333;15308933333
2606;15453390000;15150644444;15350644444
2617;15495007000;15192277777;15392277777
2628;15536649000;15233955555;15433955555
2639;15578392000;15275655555;15475655555
2650;15620068000;15317322222;15517322222
2661;15661745000;15359000000;15559000000
2672;15703293000;15400611111;15600611111
2682;15703298000;15442233333;15642233333
2683;15744977000;15442233333;15642233333
2694;15786624000;15483877777;15683877777
2705;15828349000;15525588888;15725588888
2716;15870022000;15567277777;15767277777
2727;15911669000;15608933333;15808933333
2738;15953344000;15650600000;15850600000
2749;15995025000;15692277777;15892277777
2760;16036656000;15733911111;15933911111
2771;16078312000;15775566666;15975566666
2782;16120038000;15817277777;16017277777
2793;16161652000;15858888888;16058888888
2804;16203358000;15900611111;16100611111
2815;16245027000;15942266666;16142266666
2826;16286661000;15983900000;16183900000
2837;16328313000;16025566666;16225566666
2848;16370004000;16067266666;16267266666
2859;16411671000;16108933333;16308933333
2870;16453365000;16150622222;16350622222
2881;16495030000;16192288888;16392288888
2892;16536680000;16233933333;16433933333
2903;16578372000;16275611111;16475611111
2914;16620033000;16317288888;16517288888
2925;16661659000;16358911111;16558911111
2936;16703348000;16400600000;16600600000
2947;16744990000;16442255555;16642255555
2958;16786661000;16483900000;16683900000
2969;16828390000;16525644444;16725644444
2980;16870026000;16567266666;16767266666
2991;16911635000;16608888888;16808888888
3002;16953424000;16650677777;16850677777
3013;16995016000;16692255555;16892255555
3024;17036628000;16733888888;16933888888
3035;17078315000;16775555555;16975555555
3046;17120003000;16817266666;17017266666
3057;17161629000;16858888888;17058888888
3068;17203318000;16900577777;17100577777
3079;17244985000;16942244444;17142244444
3090;17286628000;16983888888;17183888888
3101;17328317000;17025555555;17225555555
3112;17369977000;17067255555;17267255555
3123;17411645000;17108900000;17308900000
3134;17453325000;17150577777;17350577777
3143;17453331000;17192266666;17392266666
3144;17453332000;17192266666;17392266666
3145;17495013000;17192266666;17392266666
3156;17536646000;17233900000;17433900000
3167;17578318000;17275577777;17475577777
3179;17578324000;17358922222;17558922222
3180;17578325000;17358922222;17558922222
3181;17578326000;17358922222;17558922222
3182;17578327000;17358922222;17558922222
3183;17578328000;17358922222;17558922222
3184;17578329000;17358922222;17558922222
3185;17578330000;17358922222;17558922222
3186;17578331000;17358922222;17558922222
3187;17578332000;17358922222;17558922222
3188;17578342000;17358922222;17558922222
3189;17661872000;17358922222;17558922222
3199;17661878000;17400577777;17600577777
3200;17703318000;17400577777;17600577777
3211;17744980000;17442233333;17642233333
3222;17786656000;17483911111;17683911111
3233;17828349000;17525611111;17725611111
3244;17870026000;17567288888;17767288888
3255;17911652000;17608911111;17808911111
3266;17953352000;17650611111;17850611111
3277;17995106000;17692366666;17892366666
3288;18036650000;17733911111;17933911111
3298;18036656000;17775611111;17975611111
3299;18078372000;17775611111;17975611111
3310;18120022000;17817277777;18017277777
3321;18161632000;17858888888;18058888888
3334;18189354000;17942288888;18142288888
3335;18189356000;17942288888;18142288888
3336;18189357000;17942288888;18142288888
3337;18189358000;17942288888;18142288888
3338;18189359000;17942288888;18142288888
3339;18189360000;17942288888;18142288888
3340;18189361000;17942288888;18142288888
3341;18189362000;17942288888;18142288888
3342;18189363000;17942288888;18142288888
3343;18245098000;17942288888;18142288888
3354;18286690000;17983944444;18183944444
3365;18328337000;18025600000;18225600000
3376;18370011000;18067266666;18267266666
3387;18411659000;18108922222;18308922222
3398;18453355000;18150611111;18350611111
3409;18495048000;18192300000;18392300000
3420;18536682000;18233944444;18433944444
3431;18578347000;18275611111;18475611111
3442;18620048000;18317311111;18517311111
3453;18661674000;18358933333;18558933333
3464;18703369000;18400622222;18600622222
3475;18745018000;18442277777;18642277777
3486;18786640000;18483922222;18683922222
3497;18828356000;18525611111;18725611111
3508;18870022000;18567277777;18767277777
3519;18911706000;18608944444;18808944444
3530;18953356000;18650611111;18850611111
3541;18995025000;18692288888;18892288888
3552;19036637000;18733900000;18933900000
3563;19078316000;18775577777;18975577777
3574;19120047000;18817311111;19017311111
3585;19161659000;18858922222;19058922222
3596;19203349000;18900611111;19100611111
3607;19245039000;18942300000;19142300000
3618;19286651000;18983911111;19183911111
3629;19328337000;19025577777;19225577777
3640;19369990000;19067266666;19267266666
3651;19411693000;19108933333;19308933333
3662;19453350000;19150588888;19350588888
3673;19495050000;19192288888;19392288888
3684;19536683000;19233922222;19433922222
3695;19578360000;19275600000;19475600000
3706;19619992000;19317255555;19517255555
3717;19661692000;19358944444;19558944444
3728;19703323000;19400577777;19600577777
3738;19703328000;19442233333;19642233333
3739;19744996000;19442233333;19642233333
3750;19786587000;19483911111;19683911111
3761;19828367000;19525622222;19725622222
3772;19869824000;19567233333;19767233333
3783;19911650000;19608900000;19808900000
3794;19953316000;19650577777;19850577777
3805;19995030000;19692288888;19892288888
3816;20036641000;19733900000;19933900000
3827;20078340000;19775600000;19975600000
3838;20119988000;19817255555;20017255555
3849;20161608000;19858877777;20058877777
3860;20203256000;19900588888;20100588888
3871;20244992000;19942255555;20142255555
3882;20286648000;19983900000;20183900000
3893;20328349000;20025600000;20225600000
3904;20370003000;20067255555;20267255555
3915;20411615000;20108922222;20308922222
3926;20453299000;20150622222;20350622222
3934;20453304000;20192277777;20392277777
3935;20453306000;20192277777;20392277777
3936;20453316000;20192277777;20392277777
3937;20494954000;20192277777;20392277777
3948;20536660000;20233911111;20433911111
3959;20578374000;20275611111;20475611111
3971;20578380000;20358922222;20558922222
3972;20578382000;20358922222;20558922222
3973;20578383000;20358922222;20558922222
3974;20578384000;20358922222;20558922222
3975;20578385000;20358922222;20558922222
3976;20578386000;20358922222;20558922222
3977;20578387000;20358922222;20558922222
3978;20578388000;20358922222;20558922222
3979;20578389000;20358922222;20558922222
3980;20578390000;20358922222;20558922222
3981;20661893000;20358922222;20558922222
3990;20661898000;20400611111;20600611111
3991;20661899000;20400611111;20600611111
3992;20703359000;20400611111;20600611111
4003;20745011000;20442266666;20642266666
4014;20786637000;20483888888;20683888888
4025;20828466000;20525700000;20725700000
4036;20869983000;20567300000;20767300000
4047;20911579000;20608900000;20808900000
4058;20953287000;20650611111;20850611111
4069;20995004000;20692266666;20892266666
4080;21036645000;20733900000;20933900000
4091;21078339000;20775577777;20975577777
4102;21120004000;20817255555;21017255555
4113;21161651000;20858888888;21058888888
4124;21203340000;20900588888;21100588888
4135;21245000000;20942255555;21142255555
4146;21286652000;20983911111;21183911111
4157;21328363000;21025600000;21225600000
4168;21370027000;21067266666;21267266666
4178;21370033000;21108888888;21308888888
4179;21411637000;21108888888;21308888888
4190;21453271000;21150588888;21350588888
4201;21495054000;21192277777;21392277777
4213;21495060000;21275577777;21475577777
4214;21495061000;21275577777;21475577777
4215;21495062000;21275577777;21475577777
4216;21495063000;21275577777;21475577777
4217;21495064000;21275577777;21475577777
4218;21495065000;21275577777;21475577777
4219;21495066000;21275577777;21475577777
4220;21495067000;21275577777;21475577777
4221;21495068000;21275577777;21475577777
4222;21495069000;21275577777;21475577777
4223;21578541000;21275577777;21475577777
4234;21620002000;21317311111;21517311111
4245;21661579000;21358900000;21558900000
4257;21661584000;21442266666;21642266666
4258;21661586000;21442266666;21642266666
4259;21661596000;21442266666;21642266666
4260;21661597000;21442266666;21642266666
4261;21661599000;21442266666;21642266666
4262;21661600000;21442266666;21642266666
4263;21661602000;21442266666;21642266666
4264;21661603000;21442266666;21642266666
4265;21661604000;21442266666;21642266666
4266;21661606000;21442266666;21642266666
4267;21745235000;21442266666;21642266666
4278;21786667000;21483922222;21683922222
4288;21786672000;21525588888;21725588888
4289;21828354000;21525588888;21725588888
4300;21870017000;21567255555;21767255555
4311;21911685000;21608911111;21808911111
4323;21911701000;21692277777;21892277777
4324;21911702000;21692277777;21892277777
4325;21911703000;21692277777;21892277777
4326;21911704000;21692277777;21892277777
4327;21911705000;21692277777;21892277777
4328;21911706000;21692277777;21892277777
4329;21911707000;21692277777;21892277777
4330;21911708000;21692277777;21892277777
4331;21911709000;21692277777;21892277777
4332;21911710000;21692277777;21892277777
4333;21995235000;21692277777;21892277777
4344;22036625000;21733877777;21933877777
4355;22078339000;21775577777;21975577777
4366;22119987000;21817300000;22017300000
4377;22161612000;21858933333;22058933333
4388;22203368000;21900622222;22100622222
4398;22203374000;21942300000;22142300000
4399;22245045000;21942300000;22142300000
4410;22286697000;21983933333;22183933333
4418;22286702000;22025577777;22225577777
4419;22286704000;22025577777;22225577777
4420;22286705000;22025577777;22225577777
4421;22328327000;22025577777;22225577777
4433;22328333000;22108944444;22308944444
4434;22328334000;22108944444;22308944444
4435;22328335000;22108944444;22308944444
4436;22328336000;22108944444;22308944444
4437;22328337000;22108944444;22308944444
4438;22328338000;22108944444;22308944444
4439;22328339000;22108944444;22308944444
4440;22328339000;22108944444;22308944444
4441;22328340000;22108944444;22308944444
4442;22328341000;22108944444;22308944444
4443;22411916000;22108944444;22308944444
4455;22411922000;22192300000;22392300000
4456;22411923000;22192300000;22392300000
4457;22411924000;22192300000;22392300000
4458;22411925000;22192300000;22392300000
4459;22411926000;22192300000;22392300000
4460;22411927000;22192300000;22392300000
4461;22411928000;22192300000;22392300000
4462;22411929000;22192300000;22392300000
4463;22411930000;22192300000;22392300000
4464;22411931000;22192300000;22392300000
4465;22495290000;22192300000;22392300000
4474;22495296000;22233888888;22433888888
4475;22495297000;22233888888;22433888888
4476;22536637000;22233888888;22433888888
4487;22578362000;22275588888;22475588888
4498;22620005000;22317255555;22517255555
4509;22661675000;22358911111;22558911111
4520;22703327000;22400577777;22600577777
4531;22745016000;22442255555;22642255555
4542;22786614000;22483866666;22683866666
4553;22828351000;22525600000;22725600000
4564;22869995000;22567233333;22767233333
4575;22911626000;22608888888;22808888888
4586;22953313000;22650566666;22850566666
4597;22994936000;22692222222;22892222222
4608;23036661000;22733911111;22933911111
4619;23078290000;22775588888;22975588888
4630;23120020000;22817255555;23017255555
4641;23161625000;22858877777;23058877777
4652;23203326000;22900577777;23100577777
4663;23245025000;22942277777;23142277777
4674;23286674000;22983922222;23183922222
4685;23328337000;23025588888;23225588888
4696;23370003000;23067255555;23267255555
4707;23411622000;23108877777;23308877777
4718;23453324000;23150577777;23350577777
4729;23495017000;23192300000;23392300000
4740;23536683000;23233933333;23433933333
4751;23578313000;23275577777;23475577777
4762;23620059000;23317311111;23517311111
4773;23661655000;23358944444;23558944444
4784;23703384000;23400622222;23600622222
4794;23703389000;23442244444;23642244444
4795;23745005000;23442244444;23642244444
4806;23786681000;23483933333;23683933333
4817;23828360000;23525611111;23725611111
4829;23828366000;23608955555;23808955555
4830;23828367000;23608955555;23808955555
4831;23828368000;23608955555;23808955555
4832;23828369000;23608955555;23808955555
4833;23828369000;23608955555;23808955555
4834;23828370000;23608955555;23808955555
4835;23828371000;23608955555;23808955555
4836;23828372000;23608955555;23808955555
4837;23828373000;23608955555;23808955555
4838;23828374000;23608955555;23808955555
4839;23911913000;23608955555;23808955555
4850;23953383000;23650622222;23850622222
4860;23953389000;23692255555;23892255555
4861;23995019000;23692255555;23892255555
4872;24036648000;23733922222;23933922222
4883;24078386000;23775622222;23975622222
4895;24078392000;23858933333;24058933333
4896;24078393000;23858933333;24058933333
4897;24078394000;23858933333;24058933333
4898;24078395000;23858933333;24058933333
4899;24078396000;23858933333;24058933333
4900;24078397000;23858933333;24058933333
4901;24078398000;23858933333;24058933333
4902;24078399000;23858933333;24058933333
4903;24078400000;23858933333;24058933333
4904;24078400000;23858933333;24058933333
4905;24161861000;23858933333;24058933333
4916;24203397000;23900633333;24100633333
4927;24245044000;23942300000;24142300000
4938;24286613000;23983944444;24183944444
4949;24328370000;24025611111;24225611111
4960;24370034000;24067300000;24267300000
4971;24411690000;24108944444;24308944444
4981;24411696000;24150633333;24350633333
4982;24453380000;24150633333;24350633333
4993;24494958000;24192255555;24392255555
5004;24536649000;24233900000;24433900000
5016;24536655000;24317311111;24517311111
5017;24536656000;24317311111;24517311111
5018;24536657000;24317311111;24517311111
5019;24536658000;24317311111;24517311111
5020;24536659000;24317311111;24517311111
5021;24536660000;24317311111;24517311111
5022;24536661000;24317311111;24517311111
5023;24536662000;24317311111;24517311111
5024;24536663000;24317311111;24517311111
5025;24536664000;24317311111;24517311111
5026;24620261000;24317311111;24517311111
5037;24661672000;24358933333;24558933333
5048;24703339000;24400588888;24600588888
5059;24744990000;24442244444;24642244444
5070;24786663000;24483900000;24683900000
5081;24828372000;24525622222;24725622222
5092;24870028000;24567288888;24767288888
5103;24911660000;24608911111;24808911111
5114;24953372000;24650611111;24850611111
5124;24953378000;24692288888;24892288888
5125;24995001000;24692288888;24892288888
5136;25036612000;24733911111;24933911111
5147;25078345000;24775611111;24975611111
5159;25078351000;24858900000;25058900000
5160;25078352000;24858900000;25058900000
5161;25078353000;24858900000;25058900000
5162;25078354000;24858900000;25058900000
5163;25078355000;24858900000;25058900000
5164;25078356000;24858900000;25058900000
5165;25078357000;24858900000;25058900000
5166;25078358000;24858900000;25058900000
5167;25078359000;24858900000;25058900000
5168;25078360000;24858900000;25058900000
5169;25161855000;24858900000;25058900000
5180;25203359000;24900611111;25100611111
5191;25245046000;24942300000;25142300000
5202;25286583000;24983911111;25183911111
5213;25328360000;25025611111;25225611111
5224;25370036000;25067288888;25267288888
5235;25411633000;25108900000;25308900000
5246;25453334000;25150588888;25350588888
5257;25494924000;25192255555;25392255555
5268;25536667000;25233922222;25433922222
5279;25578345000;25275588888;25475588888
5290;25620033000;25317266666;25517266666
5301;25661666000;25358955555;25558955555
5312;25703386000;25400622222;25600622222
5323;25744977000;25442244444;25642244444
5334;25786669000;25483922222;25683922222
5345;25828348000;25525600000;25725600000
5356;25870025000;25567277777;25767277777
5367;25911708000;25608944444;25808944444
5378;25953335000;25650588888;25850588888
5389;25994957000;25692244444;25892244444
5400;26036638000;25733888888;25933888888
5411;26078386000;25775622222;25975622222
5422;26119985000;25817300000;26017300000
5433;26161646000;25858955555;26058955555
5444;26203387000;25900622222;26100622222
5455;26245068000;25942322222;26142322222
5466;26286656000;25983944444;26183944444
5467;26286662000;26025600000;26225600000
5468;26286663000;26025600000;26225600000
5469;26286664000;26025600000;26225600000
5470;26286665000;26025600000;26225600000
5471;26286666000;26025600000;26225600000
5472;26286667000;26025600000;26225600000
5473;26286668000;26025600000;26225600000
5474;26286669000;26025600000;26225600000
5475;26286670000;26025600000;26225600000
5476;26286671000;26025600000;26225600000
5477;26328376000;26025600000;26225600000
5478;26328381000;26067244444;26267244444
5479;26328383000;26067244444;26267244444
5480;26328383000;26067244444;26267244444
5481;26328384000;26067244444;26267244444
5482;26328386000;26067244444;26267244444
5483;26328386000;26067244444;26267244444
5484;26328387000;26067244444;26267244444
5485;26328388000;26067244444;26267244444
5486;26328389000;26067244444;26267244444
5487;26328390000;26067244444;26267244444
5488;26369992000;26067244444;26267244444
5489;26369998000;26108944444;26308944444
5490;26369999000;26108944444;26308944444
5491;26370000000;26108944444;26308944444
5492;26370000000;26108944444;26308944444
5493;26370001000;26108944444;26308944444
5494;26370002000;26108944444;26308944444
5495;26370003000;26108944444;26308944444
5496;26370004000;26108944444;26308944444
5497;26370005000;26108944444;26308944444
5498;26370006000;26108944444;26308944444
5499;26411694000;26108944444;26308944444
