seqnum;now;rtptime;deadline
0;14065596000;13526311111;14026311111
1;14065601000;13526311111;14026311111
2;14065602000;13526311111;14026311111
3;14096645000;13557577777;14057577777
4;14096661000;13557577777;14057577777
5;14096663000;13557577777;14057577777
6;14096665000;13557577777;14057577777
7;14096666000;13557577777;14057577777
8;14215508000;13557577777;14057577777
9;14215623000;13557577777;14057577777
10;14266150000;13557600000;14057600000
11;14266166000;13557944444;14057944444
12;14266167000;13557944444;14057944444
13;14266168000;13557944444;14057944444
14;14307071000;13599222222;14099222222
15;14307075000;13599222222;14099222222
16;14307076000;13599222222;14099222222
17;14307077000;13599222222;14099222222
18;14307078000;13599222222;14099222222
19;14307079000;13599222222;14099222222
20;14415975000;13599222222;14099222222
21;14466453000;13599233333;14099233333
22;14466468000;13599600000;14099600000
23;14466469000;13599600000;14099600000
24;14466470000;13599600000;14099600000
25;14507951000;13640900000;14140900000
26;14507954000;13640900000;14140900000
27;14507956000;13640900000;14140900000
28;14507957000;13640900000;14140900000
29;14507957000;13640900000;14140900000
30;14507958000;13640900000;14140900000
31;14507959000;13640900000;14140900000
32;14508167000;13640911111;14140911111
33;14508182000;13641244444;14141244444
34;14508183000;13641244444;14141244444
35;14616321000;13641244444;14141244444
36;14707982000;13682566666;14182566666
37;14707986000;13682566666;14182566666
38;14707987000;13682566666;14182566666
39;14707988000;13682566666;14182566666
40;14707989000;13682566666;14182566666
41;14707990000;13682566666;14182566666
42;14707990000;13682566666;14182566666
43;14708214000;13682577777;14182577777
44;14708229000;13682911111;14182911111
45;14708230000;13682911111;14182911111
46;14708231000;13682911111;14182911111
47;14749436000;13724233333;14224233333
48;14749439000;13724233333;14224233333
49;14749440000;13724233333;14224233333
50;14749441000;13724233333;14224233333
51;14749442000;13724233333;14224233333
52;14749443000;13724233333;14224233333
53;14816863000;13724233333;14224233333
55;14867347000;13724555555;14224555555
60;15017625000;13765900000;14265900000
70;15017640000;13807566666;14307566666
71;15017641000;13807566666;14307566666
72;15017653000;13807566666;14307566666
73;15017654000;13807566666;14307566666
74;15017655000;13807566666;14307566666
75;15017656000;13807566666;14307566666
76;15067841000;13807577777;14307577777
97;15217905000;13890900000;14390900000
98;15218004000;13890911111;14390911111
102;15218007000;13932566666;14432566666
103;15218009000;13932566666;14432566666
104;15218010000;13932566666;14432566666
105;15218011000;13932566666;14432566666
106;15218016000;13932566666;14432566666
107;15218018000;13932566666;14432566666
108;15218019000;13932566666;14432566666
109;15218100000;13932588888;14432588888
112;15218103000;13932833333;14432833333
113;15230949000;13974233333;14474233333
139;15418712000;14057566666;14557566666
146;15418752000;14099266666;14599266666
150;15418755000;14099266666;14599266666
151;15418757000;14099266666;14599266666
152;15418763000;14099266666;14599266666
154;15418773000;14099588888;14599588888
156;15418775000;14099588888;14599588888
157;15437618000;14140900000;14640900000
206;15633089000;14307566666;14807566666
277;15776782000;14557855555;15057855555
279;15800398000;14599266666;15099266666
280;15800401000;14599266666;15099266666
281;15800403000;14599266666;15099266666
282;15800404000;14599266666;15099266666
283;15800405000;14599266666;15099266666
284;15800406000;14599266666;15099266666
285;15800511000;14599277777;15099277777
286;15800526000;14599588888;15099588888
287;15800528000;14599588888;15099588888
288;15800529000;14599588888;15099588888
289;15808203000;14640888888;15140888888
290;15808207000;14640888888;15140888888
291;15808208000;14640888888;15140888888
292;15808209000;14640888888;15140888888
293;15808210000;14640888888;15140888888
294;15808211000;14640888888;15140888888
295;15808212000;14640888888;15140888888
296;15808421000;14640900000;15140900000
297;15808437000;14641188888;15141188888
298;15808451000;14641188888;15141188888
299;15808452000;14641188888;15141188888
300;15819748000;14682555555;15182555555
301;15819751000;14682555555;15182555555
302;15819753000;14682555555;15182555555
303;15819754000;14682555555;15182555555
304;15819755000;14682555555;15182555555
305;15819756000;14682555555;15182555555
306;15819757000;14682555555;15182555555
309;15819873000;14682844444;15182844444
310;15819877000;14682844444;15182844444
311;15845228000;14724244444;15224244444
356;16071958000;14890900000;15390900000
437;16220131000;15182566666;15682566666
445;16220156000;15224244444;15724244444
448;16220168000;15224244444;15724244444
449;16220170000;15224244444;15724244444
450;16220305000;15224255555;15724255555
454;16220345000;15265900000;15765900000
456;16220348000;15265900000;15765900000
457;16220349000;15265900000;15765900000
458;16220350000;15265900000;15765900000
459;16220351000;15265900000;15765900000
460;16220358000;15265900000;15765900000
461;16270388000;15265911111;15765911111
515;16270394000;15474211111;15974211111
516;16467604000;15474222222;15974222222
590;16620483000;15765900000;16265900000
592;16620486000;15765900000;16265900000
593;16620770000;15765911111;16265911111
608;16620789000;15849211111;16349211111
609;16620804000;15849211111;16349211111
611;16620808000;15849211111;16349211111
616;16620834000;15849622222;16349622222
619;16670890000;15890877777;16390877777
674;16870779000;16099211111;16599211111
752;17036520000;16390900000;16890900000
828;17272508000;16682566666;17182566666
907;17412766000;16974233333;17474233333
908;17412770000;16974233333;17474233333
909;17412771000;16974233333;17474233333
910;17412772000;16974233333;17474233333
911;17412773000;16974233333;17474233333
912;17412980000;16974244444;17474244444
913;17412995000;16974544444;17474544444
914;17412997000;16974544444;17474544444
915;17412998000;16974544444;17474544444
916;17426104000;17015900000;17515900000
978;17635367000;17224233333;17724233333
1027;17649177000;17432544444;17932544444
1028;17649179000;17432544444;17932544444
1029;17649180000;17432544444;17932544444
1030;17649181000;17432544444;17932544444
1031;17649182000;17432544444;17932544444
1032;17649183000;17432544444;17932544444
1033;17786066000;17432566666;17932566666
1037;17786073000;17474222222;17974222222
1038;17786074000;17474222222;17974222222
1039;17786075000;17474222222;17974222222
1040;17786077000;17474222222;17974222222
1041;17786078000;17474222222;17974222222
1042;17786088000;17474222222;17974222222
1043;17786089000;17474222222;17974222222
1044;17793615000;17474233333;17974233333
1045;17793630000;17474555555;17974555555
1046;17793632000;17474555555;17974555555
1047;17793633000;17474555555;17974555555
1048;17808445000;17515900000;18015900000
1049;17808449000;17515900000;18015900000
1050;17808450000;17515900000;18015900000
1051;17808451000;17515900000;18015900000
1052;17808452000;17515900000;18015900000
1053;17808453000;17515900000;18015900000
1054;17808454000;17515900000;18015900000
1055;17808631000;17515911111;18015911111
1056;17808636000;17516200000;18016200000
1057;17808637000;17516200000;18016200000
1059;17829158000;17557566666;18057566666
1068;17829270000;17557855555;18057855555
1069;17829273000;17557855555;18057855555
1070;17848336000;17599222222;18099222222
1071;17848339000;17599222222;18099222222
1072;17848340000;17599222222;18099222222
1073;17848341000;17599222222;18099222222
1074;17848342000;17599222222;18099222222
1075;17848343000;17599222222;18099222222
1076;17848344000;17599222222;18099222222
1077;17956680000;17599244444;18099244444
1082;17956687000;17640877777;18140877777
1083;17956688000;17640877777;18140877777
1084;17956689000;17640877777;18140877777
1085;17956690000;17640877777;18140877777
1086;17956692000;17640877777;18140877777
1087;17956694000;17640877777;18140877777
1088;18116022000;17640900000;18140900000
1148;18116037000;17890877777;18390877777
1149;18116038000;17890877777;18390877777
1150;18116039000;17890877777;18390877777
1151;18116040000;17890877777;18390877777
1152;18116041000;17890877777;18390877777
1153;18116049000;17890877777;18390877777
1154;18344417000;17890888888;18390888888
1170;18344433000;17974233333;18474233333
1199;18423783000;18057933333;18557933333
1205;18428248000;18099222222;18599222222
1213;18437876000;18140922222;18640922222
1214;18437879000;18140922222;18640922222
1215;18437880000;18140922222;18640922222
1216;18437881000;18140922222;18640922222
1217;18437882000;18140922222;18640922222
1218;18437883000;18140922222;18640922222
1219;18437884000;18140922222;18640922222
1220;18591017000;18140955555;18640955555
1226;18591033000;18182566666;18682566666
1227;18591034000;18182566666;18682566666
1228;18591035000;18182566666;18682566666
1229;18591036000;18182566666;18682566666
1230;18591038000;18182566666;18682566666
1231;18625769000;18182588888;18682588888
1242;18654187000;18224255555;18724255555
1254;18654193000;18266277777;18766277777
1255;18654194000;18266277777;18766277777
1256;18654195000;18266277777;18766277777
1257;18702449000;18307555555;18807555555
1258;18702453000;18307555555;18807555555
1259;18702454000;18307555555;18807555555
1260;18702455000;18307555555;18807555555
1261;18702456000;18307555555;18807555555
1262;18702457000;18307555555;18807555555
1263;18702458000;18307555555;18807555555
1264;18702657000;18307577777;18807577777
1265;18702672000;18307922222;18807922222
1266;18702673000;18307922222;18807922222
1267;18702674000;18307922222;18807922222
1268;18724073000;18349233333;18849233333
1269;18724077000;18349233333;18849233333
1270;18724078000;18349233333;18849233333
1271;18724079000;18349233333;18849233333
1272;18724080000;18349233333;18849233333
1273;18724081000;18349233333;18849233333
1274;18724082000;18349233333;18849233333
1275;18724288000;18349255555;18849255555
1276;18724303000;18349566666;18849566666
1277;18724304000;18349566666;18849566666
1278;18724305000;18349566666;18849566666
1279;18744935000;18390900000;18890900000
1280;18824230000;18390900000;18890900000
1281;18824232000;18390900000;18890900000
1282;18824241000;18390900000;18890900000
1283;18824255000;18390900000;18890900000
1284;18824270000;18390900000;18890900000
1285;18824271000;18390900000;18890900000
1286;18874748000;18390911111;18890911111
1294;18916382000;18432544444;18932544444
1295;18916384000;18432544444;18932544444
1296;18916385000;18432544444;18932544444
1297;18916523000;18432566666;18932566666
1298;18916526000;18432911111;18932911111
1299;18916527000;18432911111;18932911111
1300;18916528000;18432911111;18932911111
1301;18957762000;18474211111;18974211111
1302;18957775000;18474211111;18974211111
1303;18957776000;18474211111;18974211111
1304;18957777000;18474211111;18974211111
1305;18957778000;18474211111;18974211111
1306;18957779000;18474211111;18974211111
1307;18957780000;18474211111;18974211111
1308;18957987000;18474222222;18974222222
1309;18958002000;18474622222;18974622222
1310;18958003000;18474622222;18974622222
1311;18958004000;18474622222;18974622222
1312;18999125000;18515900000;19015900000
1313;19024478000;18515900000;19015900000
1314;19024480000;18515900000;19015900000
1315;19024534000;18515900000;19015900000
1316;19024536000;18515900000;19015900000
1318;19024596000;18515900000;19015900000
1319;19075038000;18515911111;19015911111
1323;19075060000;18557566666;19057566666
1324;19075061000;18557566666;19057566666
1325;19075062000;18557566666;19057566666
1326;19075063000;18557566666;19057566666
1327;19075064000;18557566666;19057566666
1328;19075065000;18557566666;19057566666
1329;19075066000;18557566666;19057566666
1330;19116633000;18557577777;19057577777
1332;19116648000;18557855555;19057855555
1333;19116649000;18557855555;19057855555
1334;19158123000;18599266666;19099266666
1335;19158127000;18599266666;19099266666
1336;19158128000;18599266666;19099266666
1337;19158129000;18599266666;19099266666
1338;19158130000;18599266666;19099266666
1339;19158131000;18599266666;19099266666
1340;19158132000;18599266666;19099266666
1341;19158339000;18599277777;19099277777
1342;19158355000;18599577777;19099577777
1343;19158356000;18599577777;19099577777
1344;19158357000;18599577777;19099577777
1345;19199298000;18640877777;19140877777
1346;19199302000;18640877777;19140877777
1347;19199310000;18640877777;19140877777
1348;19224731000;18640877777;19140877777
1349;19224733000;18640877777;19140877777
1350;19224786000;18640877777;19140877777
1351;19224788000;18640877777;19140877777
1352;19275268000;18640900000;19140900000
1357;19275283000;18682555555;19182555555
1358;19275284000;18682555555;19182555555
1359;19275285000;18682555555;19182555555
1360;19275286000;18682555555;19182555555
1361;19275287000;18682555555;19182555555
1362;19275288000;18682555555;19182555555
1363;19316870000;18682577777;19182577777
1367;19316885000;18724200000;19224200000
1368;19316887000;18724200000;19224200000
1369;19316888000;18724200000;19224200000
1370;19316889000;18724200000;19224200000
1371;19316890000;18724200000;19224200000
1372;19316890000;18724200000;19224200000
1373;19316891000;18724200000;19224200000
1374;19358368000;18724222222;19224222222
1375;19358384000;18724522222;19224522222
1376;19358385000;18724522222;19224522222
1377;19358386000;18724522222;19224522222
1378;19399452000;18765900000;19265900000
1379;19399456000;18765900000;19265900000
1380;19399457000;18765900000;19265900000
1381;19399458000;18765900000;19265900000
1382;19399459000;18765900000;19265900000
1383;19399460000;18765900000;19265900000
1384;19424987000;18765900000;19265900000
1385;19475458000;18765911111;19265911111
1394;19475473000;18807577777;19307577777
1395;19475474000;18807577777;19307577777
1396;19517064000;18807588888;19307588888
1400;19517070000;18849211111;19349211111
1401;19517071000;18849211111;19349211111
1402;19517072000;18849211111;19349211111
1403;19517074000;18849211111;19349211111
1404;19517075000;18849211111;19349211111
1405;19517076000;18849211111;19349211111
1406;19517085000;18849211111;19349211111
1407;19558528000;18849233333;19349233333
1408;19558543000;18849622222;19349622222
1409;19558545000;18849622222;19349622222
1410;19558546000;18849622222;19349622222
1411;19599499000;18890877777;19390877777
1412;19599503000;18890877777;19390877777
1413;19599504000;18890877777;19390877777
1414;19599505000;18890877777;19390877777
1415;19599507000;18890877777;19390877777
1416;19599507000;18890877777;19390877777
1417;19599508000;18890877777;19390877777
1418;19599715000;18890888888;19390888888
1419;19599730000;18891266666;19391266666
1420;19599731000;18891266666;19391266666
1421;19625333000;18891266666;19391266666
1422;19639793000;18932555555;19432555555
1423;19639796000;18932555555;19432555555
1424;19639797000;18932555555;19432555555
1425;19639798000;18932555555;19432555555
1426;19639799000;18932555555;19432555555
1427;19639800000;18932555555;19432555555
1428;19639801000;18932555555;19432555555
1429;19639999000;18932577777;19432577777
1430;19640015000;18932833333;19432833333
1431;19640016000;18932833333;19432833333
1432;19640017000;18932833333;19432833333
1433;19679519000;18974233333;19474233333
1435;19679532000;18974233333;19474233333
1436;19679533000;18974233333;19474233333
1437;19679534000;18974233333;19474233333
1438;19679535000;18974233333;19474233333
1439;19679536000;18974233333;19474233333
1440;19679751000;18974255555;19474255555
1441;19679754000;18974544444;19474544444
1442;19679755000;18974544444;19474544444
1443;19679756000;18974544444;19474544444
1444;19718131000;19015900000;19515900000
1445;19718134000;19015900000;19515900000
1446;19718135000;19015900000;19515900000
1447;19718136000;19015900000;19515900000
1448;19718137000;19015900000;19515900000
1449;19718138000;19015900000;19515900000
1450;19718139000;19015900000;19515900000
1451;19718338000;19015911111;19515911111
1452;19718354000;19016211111;19516211111
1453;19718355000;19016211111;19516211111
1454;19718356000;19016211111;19516211111
1455;19755637000;19057544444;19557544444
1456;19755640000;19057544444;19557544444
1457;19755642000;19057544444;19557544444
1458;19755643000;19057544444;19557544444
1459;19794049000;19057544444;19557544444
1460;19825647000;19057544444;19557544444
1461;19825649000;19057544444;19557544444
1462;19876153000;19057566666;19557566666
1474;19876168000;19099566666;19599566666
1475;19876169000;19099566666;19599566666
1476;19876170000;19099566666;19599566666
1477;19959337000;19140900000;19640900000
1478;19959341000;19140900000;19640900000
1479;19959342000;19140900000;19640900000
1480;19959353000;19140900000;19640900000
1481;19959354000;19140900000;19640900000
1482;19959355000;19140900000;19640900000
1483;19959356000;19140900000;19640900000
1484;19959518000;19140911111;19640911111
1485;19959524000;19141211111;19641211111
1486;19959525000;19141211111;19641211111
1487;19959526000;19141211111;19641211111
1488;20000203000;19182566666;19682566666
1489;20000207000;19182566666;19682566666
1490;20000208000;19182566666;19682566666
1492;20000631000;19182566666;19682566666
1493;20000634000;19182566666;19682566666
1494;20000635000;19182566666;19682566666
1495;20000843000;19182577777;19682577777
1496;20000858000;19182866666;19682866666
1497;20000860000;19182866666;19682866666
1498;20000861000;19182866666;19682866666
1499;20040651000;19224233333;19724233333
1500;20040654000;19224233333;19724233333
1501;20040655000;19224233333;19724233333
1502;20040656000;19224233333;19724233333
1503;20040657000;19224233333;19724233333
1504;20040658000;19224233333;19724233333
1505;20040659000;19224233333;19724233333
1506;20040859000;19224255555;19724255555
1507;20040874000;19224555555;19724555555
1508;20040875000;19224555555;19724555555
1509;20040876000;19224555555;19724555555
1510;20080216000;19265900000;19765900000
1517;20080417000;19265911111;19765911111
1518;20080432000;19266200000;19766200000
1519;20080434000;19266200000;19766200000
1520;20080435000;19266200000;19766200000
1521;20118838000;19307566666;19807566666
1522;20118841000;19307566666;19807566666
1523;20118842000;19307566666;19807566666
1524;20118843000;19307566666;19807566666
1525;20118844000;19307566666;19807566666
1526;20118845000;19307566666;19807566666
1527;20118846000;19307566666;19807566666
1528;20119053000;19307577777;19807577777
1529;20119059000;19307866666;19807866666
1530;20119060000;19307866666;19807866666
1531;20119061000;19307866666;19807866666
1532;20156425000;19349266666;19849266666
1533;20156428000;19349266666;19849266666
1535;20156641000;19349266666;19849266666
1536;20156643000;19349266666;19849266666
1537;20156644000;19349266666;19849266666
1538;20156645000;19349266666;19849266666
1539;20156818000;19349277777;19849277777
1540;20156822000;19349588888;19849588888
1541;20156823000;19349588888;19849588888
1542;20223124000;19349588888;19849588888
1543;20276701000;19390900000;19890900000
1562;20318531000;19432822222;19932822222
1565;20359808000;19474200000;19974200000
1566;20359812000;19474200000;19974200000
1567;20359813000;19474200000;19974200000
1568;20359814000;19474200000;19974200000
1569;20359815000;19474200000;19974200000
1570;20359816000;19474200000;19974200000
1571;20359817000;19474200000;19974200000
1572;20360023000;19474211111;19974211111
1573;20360039000;19474522222;19974522222
1574;20360040000;19474522222;19974522222
1575;20360041000;19474522222;19974522222
1576;20400995000;19515900000;20015900000
1577;20400999000;19515900000;20015900000
1578;20401000000;19515900000;20015900000
1579;20401001000;19515900000;20015900000
1580;20401002000;19515900000;20015900000
1581;20401003000;19515900000;20015900000
1582;20401004000;19515900000;20015900000
1583;20401217000;19515911111;20015911111
1584;20401233000;19516222222;20016222222
1585;20401234000;19516222222;20016222222
1586;20401235000;19516222222;20016222222
1587;20441309000;19557566666;20057566666
1589;20441312000;19557566666;20057566666
1590;20441313000;19557566666;20057566666
1591;20441314000;19557566666;20057566666
1592;20441315000;19557566666;20057566666
1593;20441316000;19557566666;20057566666
1594;20441516000;19557577777;20057577777
1595;20441531000;19557911111;20057911111
1596;20441532000;19557911111;20057911111
1597;20441533000;19557911111;20057911111
1598;20481048000;19599244444;20099244444
1608;20481161000;19599566666;20099566666
1609;20519673000;19640877777;20140877777
1611;20519677000;19640877777;20140877777
1612;20519678000;19640877777;20140877777
1613;20519679000;19640877777;20140877777
1614;20519680000;19640877777;20140877777
1615;20519681000;19640877777;20140877777
1616;20519827000;19640900000;20140900000
1617;20519830000;19641288888;20141288888
1618;20519831000;19641288888;20141288888
1619;20519832000;19641288888;20141288888
1620;20557231000;19682544444;20182544444
1621;20557234000;19682544444;20182544444
1622;20557236000;19682544444;20182544444
1623;20557237000;19682544444;20182544444
1624;20557238000;19682544444;20182544444
1625;20557239000;19682544444;20182544444
1626;20557239000;19682544444;20182544444
1627;20557446000;19682555555;20182555555
1628;20557462000;19682933333;20182933333
1629;20557463000;19682933333;20182933333
1630;20557464000;19682933333;20182933333
1631;20593744000;19724233333;20224233333
1632;20593747000;19724233333;20224233333
1634;20626928000;19724233333;20224233333
1635;20626931000;19724233333;20224233333
1636;20626938000;19724233333;20224233333
1637;20626953000;19724233333;20224233333
1638;20677426000;19724244444;20224244444
1655;20677441000;19807566666;20307566666
1656;20677442000;19807566666;20307566666
1657;20677443000;19807566666;20307566666
1658;20677444000;19807566666;20307566666
1659;20677445000;19807566666;20307566666
1660;20760824000;19807588888;20307588888
1664;20760831000;19849211111;20349211111
1665;20760832000;19849211111;20349211111
1666;20760834000;19849211111;20349211111
1667;20760835000;19849211111;20349211111
1668;20760836000;19849211111;20349211111
1669;20760837000;19849211111;20349211111
1670;20760847000;19849211111;20349211111
1671;20801696000;19849233333;20349233333
1672;20801712000;19849644444;20349644444
1673;20801713000;19849644444;20349644444
1674;20801714000;19849644444;20349644444
1675;20841630000;19890877777;20390877777
1684;20854129000;19891288888;20391288888
1686;20880418000;19932566666;20432566666
1704;20915335000;19974244444;20474244444
1708;20915350000;20015911111;20515911111
1710;20952732000;20015911111;20515911111
1711;20952734000;20015911111;20515911111
1712;20952735000;20015911111;20515911111
1713;20952736000;20015911111;20515911111
1714;20952737000;20015911111;20515911111
1715;20952946000;20015922222;20515922222
1716;20952961000;20016255555;20516255555
1717;20952962000;20016255555;20516255555
1718;20952963000;20016255555;20516255555
1719;20987050000;20057544444;20557544444
1720;20987054000;20057544444;20557544444
1721;20987055000;20057544444;20557544444
1722;20987056000;20057544444;20557544444
1723;20987057000;20057544444;20557544444
1724;20987058000;20057544444;20557544444
1725;20987059000;20057544444;20557544444
1726;20987266000;20057566666;20557566666
1727;20987281000;20058000000;20558000000
1728;20987283000;20058000000;20558000000
1729;21027803000;20058000000;20558000000
1730;21077850000;20099222222;20599222222
1752;21202449000;20182566666;20682566666
1755;21202453000;20182566666;20682566666
1756;21202454000;20182566666;20682566666
1757;21202455000;20182566666;20682566666
1758;21202456000;20182566666;20682566666
1759;21202663000;20182577777;20682577777
1760;21202678000;20182877777;20682877777
1761;21202680000;20182877777;20682877777
1762;21202681000;20182877777;20682877777
1763;21241823000;20224233333;20724233333
1782;21280161000;20266288888;20766288888
1801;21345724000;20349233333;20849233333
1804;21345840000;20349566666;20849566666
1805;21345844000;20349566666;20849566666
1806;21345845000;20349566666;20849566666
1807;21377735000;20390911111;20890911111
1808;21377738000;20390911111;20890911111
1809;21377739000;20390911111;20890911111
1810;21377740000;20390911111;20890911111
1811;21377741000;20390911111;20890911111
1812;21377742000;20390911111;20890911111
1813;21377743000;20390911111;20890911111
1814;21377941000;20391011111;20891011111
1815;21377956000;20391344444;20891344444
1816;21377957000;20391344444;20891344444
1817;21377958000;20391344444;20891344444
1818;21407965000;20432566666;20932566666
1819;21407969000;20432566666;20932566666
1820;21407970000;20432566666;20932566666
1821;21407971000;20432566666;20932566666
1822;21407971000;20432566666;20932566666
1823;21407972000;20432566666;20932566666
1824;21407973000;20432566666;20932566666
1825;21408172000;20432577777;20932577777
1826;21408188000;20432866666;20932866666
1828;21428121000;20432866666;20932866666
1829;21436464000;20474222222;20974222222
1830;21436468000;20474222222;20974222222
1831;21436469000;20474222222;20974222222
1832;21436470000;20474222222;20974222222
1833;21436471000;20474222222;20974222222
1834;21436472000;20474222222;20974222222
1835;21436473000;20474222222;20974222222
1836;21436680000;20474244444;20974244444
1837;21436695000;20474577777;20974577777
1838;21436697000;20474577777;20974577777
1839;21436697000;20474577777;20974577777
1840;21463972000;20515900000;21015900000
1850;21562187000;20516188888;21016188888
1854;21602927000;20557566666;21057566666
1855;21602930000;20557566666;21057566666
1856;21602931000;20557566666;21057566666
1857;21602932000;20557566666;21057566666
1858;21603147000;20557577777;21057577777
1859;21603163000;20557844444;21057844444
1860;21603164000;20557844444;21057844444
1861;21603165000;20557844444;21057844444
1862;21643071000;20599266666;21099266666
1879;21681309000;20640877777;21140877777
1901;21747610000;20724233333;21224233333
1906;21779522000;20765900000;21265900000
1907;21779526000;20765900000;21265900000
1908;21779527000;20765900000;21265900000
1909;21779528000;20765900000;21265900000
1910;21779529000;20765900000;21265900000
1911;21779530000;20765900000;21265900000
1912;21779531000;20765900000;21265900000
1913;21779692000;20765922222;21265922222
1914;21779699000;20766222222;21266222222
1915;21779700000;20766222222;21266222222
1916;21779701000;20766222222;21266222222
1917;21809722000;20807566666;21307566666
1918;21809725000;20807566666;21307566666
1919;21809726000;20807566666;21307566666
1920;21809727000;20807566666;21307566666
1921;21809729000;20807566666;21307566666
1922;21809730000;20807566666;21307566666
1923;21809731000;20807566666;21307566666
1924;21809908000;20807588888;21307588888
1925;21809913000;20807855555;21307855555
1926;21809914000;20807855555;21307855555
1927;21809915000;20807855555;21307855555
1928;21879359000;20849211111;21349211111
1951;21962729000;20932566666;21432566666
1956;21962733000;20932566666;21432566666
1957;21962952000;20932577777;21432577777
1958;21962958000;20932822222;21432822222
1959;21962969000;20932822222;21432822222
1960;21962970000;20932822222;21432822222
1962;22004123000;20974233333;21474233333
1963;22004127000;20974233333;21474233333
1964;22004128000;20974233333;21474233333
1965;22004129000;20974233333;21474233333
1966;22004130000;20974233333;21474233333
1967;22004131000;20974233333;21474233333
1968;22004230000;20974244444;21474244444
1969;22004245000;20974533333;21474533333
1970;22004247000;20974533333;21474533333
1971;22004248000;20974533333;21474533333
1972;22043641000;21015900000;21515900000
1982;22043757000;21016211111;21516211111
1983;22083319000;21057566666;21557566666
2002;22118589000;21099611111;21599611111
2007;22154500000;21140900000;21640900000
2008;22154503000;21140900000;21640900000
2009;22154504000;21140900000;21640900000
2010;22154505000;21140900000;21640900000
2011;22154506000;21140900000;21640900000
2012;22154713000;21140911111;21640911111
2013;22154729000;21141200000;21641200000
2014;22154730000;21141200000;21641200000
2015;22154731000;21141200000;21641200000
2016;22188813000;21182566666;21682566666
2017;22188816000;21182566666;21682566666
2020;22189202000;21182566666;21682566666
2021;22189204000;21182566666;21682566666
2022;22189205000;21182566666;21682566666
2023;22189368000;21182577777;21682577777
2024;22189374000;21182855555;21682855555
2025;22189376000;21182855555;21682855555
2026;22189377000;21182855555;21682855555
2027;22221669000;21224233333;21724233333
2028;22221682000;21224233333;21724233333
2029;22221683000;21224233333;21724233333
2030;22221684000;21224233333;21724233333
2031;22229260000;21224233333;21724233333
2033;22229267000;21224233333;21724233333
2034;22279752000;21224255555;21724255555
2057;22279767000;21307900000;21807900000
2058;22279768000;21307900000;21807900000
2059;22279769000;21307900000;21807900000
2060;22404411000;21349233333;21849233333
2062;22404415000;21349233333;21849233333
2063;22404416000;21349233333;21849233333
2064;22404417000;21349233333;21849233333
2065;22404427000;21349233333;21849233333
2066;22404428000;21349233333;21849233333
2067;22404634000;21349244444;21849244444
2068;22404650000;21349555555;21849555555
2069;22404651000;21349555555;21849555555
2070;22404652000;21349555555;21849555555
2071;22444022000;21390900000;21890900000
2087;22482852000;21432544444;21932544444
2111;22553462000;21515911111;22015911111
2115;22553478000;21557566666;22057566666
2116;22553479000;21557566666;22057566666
2117;22553480000;21557566666;22057566666
2118;22553481000;21557566666;22057566666
2119;22553482000;21557566666;22057566666
2120;22553483000;21557566666;22057566666
2121;22553484000;21557566666;22057566666
2122;22587728000;21557588888;22057588888
2123;22587734000;21557877777;22057877777
2124;22587735000;21557877777;22057877777
2125;22587736000;21557877777;22057877777
2126;22620354000;21599222222;22099222222
2127;22620357000;21599222222;22099222222
2128;22620358000;21599222222;22099222222
2129;22620359000;21599222222;22099222222
2130;22620360000;21599222222;22099222222
2131;22620361000;21599222222;22099222222
2132;22620362000;21599222222;22099222222
2133;22620562000;21599255555;22099255555
2134;22620578000;21599577777;22099577777
2135;22620579000;21599577777;22099577777
2136;22620580000;21599577777;22099577777
2137;22651310000;21640877777;22140877777
2143;22651323000;21640877777;22140877777
2144;22651522000;21640900000;22140900000
2145;22651537000;21641300000;22141300000
2146;22651538000;21641300000;22141300000
2147;22651539000;21641300000;22141300000
2148;22681328000;21682544444;22182544444
2166;22704340000;21724244444;22224244444
2169;22704345000;21724566666;22224566666
2170;22734070000;21765900000;22265900000
2171;22734083000;21765900000;22265900000
2172;22734084000;21765900000;22265900000
2173;22734086000;21765900000;22265900000
2174;22734086000;21765900000;22265900000
2175;22734088000;21765900000;22265900000
2176;22734089000;21765900000;22265900000
2177;22734295000;21765911111;22265911111
2178;22734310000;21766244444;22266244444
2179;22734311000;21766244444;22266244444
2180;22734312000;21766244444;22266244444
2181;22763913000;21807566666;22307566666
2182;22763917000;21807566666;22307566666
2183;22763918000;21807566666;22307566666
2184;22763919000;21807566666;22307566666
2185;22763920000;21807566666;22307566666
2186;22763921000;21807566666;22307566666
2187;22763922000;21807566666;22307566666
2188;22764136000;21807577777;22307577777
2189;22764152000;21807888888;22307888888
2190;22764153000;21807888888;22307888888
2191;22764154000;21807888888;22307888888
2192;22880446000;21849211111;22349211111
2215;22963792000;21932566666;22432566666
2221;22964001000;21932577777;22432577777
2222;22964017000;21932855555;22432855555
2223;22964018000;21932855555;22432855555
2224;22964019000;21932855555;22432855555
2225;23004622000;21974233333;22474233333
2226;23004626000;21974233333;22474233333
2227;23004627000;21974233333;22474233333
2228;23004628000;21974233333;22474233333
2229;23004629000;21974233333;22474233333
2230;23004630000;21974233333;22474233333
2231;23004631000;21974233333;22474233333
2232;23004850000;21974244444;22474244444
2233;23004866000;21974544444;22474544444
2238;23044660000;22015900000;22515900000
2249;23083540000;22057544444;22557544444
2269;23155827000;22140900000;22640900000
2274;23155831000;22140900000;22640900000
2276;23156038000;22140911111;22640911111
2277;23156061000;22141233333;22641233333
2278;23156063000;22141233333;22641233333
2279;23156064000;22141233333;22641233333
2280;23190036000;22182566666;22682566666
2281;23190039000;22182566666;22682566666
2282;23190040000;22182566666;22682566666
2283;23190041000;22182566666;22682566666
2284;23190050000;22182566666;22682566666
2285;23190051000;22182566666;22682566666
2286;23190052000;22182566666;22682566666
2287;23190258000;22182588888;22682588888
2288;23190274000;22182888888;22682888888
2289;23190275000;22182888888;22682888888
2290;23190276000;22182888888;22682888888
2291;23222701000;22224233333;22724233333
2292;23222713000;22224233333;22724233333
2293;23222714000;22224233333;22724233333
2294;23222715000;22224233333;22724233333
2295;23222723000;22224233333;22724233333
2296;23222724000;22224233333;22724233333
2297;23222725000;22224233333;22724233333
2298;23222890000;22224255555;22724255555
2301;23230816000;22224566666;22724566666
2302;23322217000;22265877777;22765877777
2330;23404930000;22349233333;22849233333
2331;23405140000;22349255555;22849255555
2332;23405155000;22349577777;22849577777
2333;23405156000;22349577777;22849577777
2334;23405157000;22349577777;22849577777
2335;23444514000;22390900000;22890900000
2361;23519204000;22474211111;22974211111
2384;23575505000;22557566666;23057566666
2385;23575508000;22557566666;23057566666
2386;23575690000;22557588888;23057588888
2387;23575705000;22557866666;23057866666
2388;23575707000;22557866666;23057866666
2389;23575708000;22557866666;23057866666
2390;23606280000;22599255555;23099255555
2392;23606655000;22599255555;23099255555
2393;23606657000;22599255555;23099255555
2394;23606658000;22599255555;23099255555
2395;23606659000;22599255555;23099255555
2396;23606660000;22599255555;23099255555
2397;23606862000;22599266666;23099266666
2398;23606877000;22599566666;23099566666
2399;23606878000;22599566666;23099566666
2400;23606879000;22599566666;23099566666
2401;23635175000;22640877777;23140877777
2416;23662489000;22682555555;23182555555
2420;23662601000;22682933333;23182933333
2421;23662604000;22682933333;23182933333
2422;23662605000;22682933333;23182933333
2423;23689121000;22724233333;23224233333
2436;23805888000;22765944444;23265944444
2441;23806105000;22765966666;23265966666
2442;23806121000;22766311111;23266311111
2443;23806122000;22766311111;23266311111
2444;23806123000;22766311111;23266311111
2445;23844966000;22807577777;23307577777
2468;23919476000;22890877777;23390877777
2496;23979542000;22974255555;23474255555
2497;23979549000;22974555555;23474555555
2498;23979559000;22974555555;23474555555
2499;23979560000;22974555555;23474555555
2500;24009929000;23015900000;23515900000
2501;24009934000;23015900000;23515900000
2502;24009936000;23015900000;23515900000
2503;24009938000;23015900000;23515900000
2504;24009939000;23015900000;23515900000
2505;24009941000;23015900000;23515900000
2506;24009942000;23015900000;23515900000
2507;24010158000;23015911111;23515911111
2508;24010173000;23016222222;23516222222
2509;24010174000;23016222222;23516222222
2510;24010175000;23016222222;23516222222
2511;24038558000;23057555555;23557555555
2524;24065585000;23099200000;23599200000
2533;24091915000;23140900000;23640900000
2547;24206443000;23182577777;23682577777
2552;24206560000;23182877777;23682877777
2553;24206563000;23182877777;23682877777
2554;24206564000;23182877777;23682877777
2555;24246004000;23224233333;23724233333
2578;24320562000;23307555555;23807555555
2608;24377199000;23391222222;23891222222
2609;24377203000;23391222222;23891222222
2610;24407937000;23432544444;23932544444
2611;24407941000;23432544444;23932544444
2612;24407942000;23432544444;23932544444
2613;24407943000;23432544444;23932544444
2614;24407944000;23432544444;23932544444
2615;24407945000;23432544444;23932544444
2616;24407946000;23432544444;23932544444
2617;24408162000;23432566666;23932566666
2618;24408178000;23432922222;23932922222
2619;24408179000;23432922222;23932922222
2620;24408180000;23432922222;23932922222
2621;24436844000;23474211111;23974211111
2637;24464172000;23515900000;24015900000
2642;24464288000;23516211111;24016211111
2643;24495247000;23557566666;24057566666
2661;24566521000;23599255555;24099255555
2665;24566537000;23640877777;24140877777
2666;24566538000;23640877777;24140877777
2667;24566539000;23640877777;24140877777
2668;24566540000;23640877777;24140877777
2669;24566541000;23640877777;24140877777
2670;24566542000;23640877777;24140877777
2671;24566543000;23640877777;24140877777
2672;24607485000;23640888888;24140888888
2673;24607501000;23641166666;24141166666
2674;24607502000;23641166666;24141166666
2675;24607503000;23641166666;24141166666
2676;24647448000;23682544444;24182544444
2696;24668477000;23724611111;24224611111
2705;24723962000;23765911111;24265911111
2723;24723977000;23849211111;24349211111
2724;24723978000;23849211111;24349211111
2725;24723986000;23849211111;24349211111
2726;24723987000;23849211111;24349211111
2727;24788582000;23849233333;24349233333
2728;24788598000;23849611111;24349611111
2729;24788599000;23849611111;24349611111
2730;24788600000;23849611111;24349611111
2731;24821446000;23890877777;24390877777
2732;24821449000;23890877777;24390877777
2733;24821450000;23890877777;24390877777
2734;24821451000;23890877777;24390877777
2735;24821452000;23890877777;24390877777
2736;24821453000;23890877777;24390877777
2737;24821454000;23890877777;24390877777
2738;24821617000;23890888888;24390888888
2739;24821621000;23891255555;24391255555
2740;24821622000;23891255555;24391255555
2741;24821623000;23891255555;24391255555
2742;24852309000;23932600000;24432600000
2754;24881281000;23974200000;24474200000
2777;25007265000;24057544444;24557544444
2782;25007467000;24057566666;24557566666
2783;25007482000;24057922222;24557922222
2784;25007483000;24057922222;24557922222
2785;25007484000;24057922222;24557922222
2786;25046672000;24099222222;24599222222
2814;25097613000;24182566666;24682566666
2838;25177599000;24266277777;24766277777
2842;25208386000;24307544444;24807544444
2843;25208395000;24307544444;24807544444
2844;25208398000;24307544444;24807544444
2845;25208400000;24307544444;24807544444
2846;25208401000;24307544444;24807544444
2847;25208402000;24307544444;24807544444
2848;25208610000;24307555555;24807555555
2849;25208625000;24307900000;24807900000
2851;25208626000;24307900000;24807900000
2852;25237469000;24349233333;24849233333
2875;25324636000;24432566666;24932566666
2900;25407597000;24515866666;25015866666
2901;25407601000;24515866666;25015866666
2902;25407602000;24515866666;25015866666
2903;25407808000;24515877777;25015877777
2904;25407824000;24516133333;25016133333
2905;25407826000;24516133333;25016133333
2906;25407827000;24516133333;25016133333
2907;25447384000;24557566666;25057566666
2934;25506607000;24640877777;25140877777
2960;25571697000;24724511111;25224511111
2962;25606128000;24765911111;25265911111
2963;25606131000;24765911111;25265911111
2964;25606132000;24765911111;25265911111
2965;25606133000;24765911111;25265911111
2966;25606134000;24765911111;25265911111
2967;25606135000;24765911111;25265911111
2968;25606137000;24765911111;25265911111
2969;25606345000;24765922222;25265922222
2970;25606360000;24766233333;25266233333
2971;25606361000;24766233333;25266233333
2972;25606362000;24766233333;25266233333
2973;25635545000;24807566666;25307566666
2994;25663352000;24849600000;25349600000
2995;25671175000;24890877777;25390877777
3004;25690470000;24891266666;25391266666
3017;25734268000;24974244444;25474244444
3022;25734272000;24974244444;25474244444
3023;25734273000;24974244444;25474244444
3024;25734510000;24974255555;25474255555
3025;25734526000;24974522222;25474522222
3026;25734527000;24974522222;25474522222
3027;25734528000;24974522222;25474522222
3028;25764148000;25015900000;25515900000
3029;25764152000;25015900000;25515900000
3030;25764153000;25015900000;25515900000
3031;25764154000;25015900000;25515900000
3032;25764155000;25015900000;25515900000
3033;25764156000;25015900000;25515900000
3034;25764157000;25015900000;25515900000
3035;25764335000;25015911111;25515911111
3036;25764340000;25016177777;25516177777
3037;25764341000;25016177777;25516177777
3038;25764342000;25016177777;25516177777
3040;25790418000;25057544444;25557544444
3041;25790420000;25057544444;25557544444
3042;25790421000;25057544444;25557544444
3043;25790423000;25057544444;25557544444
3044;25790424000;25057544444;25557544444
3045;25834275000;25057544444;25557544444
3046;25884757000;25057566666;25557566666
3080;25884773000;25182855555;25682855555
3081;25884774000;25182855555;25682855555
3082;25884775000;25182855555;25682855555
3083;26048396000;25224244444;25724244444
3114;26123197000;25307911111;25807911111
3142;26206982000;25432566666;25932566666
3143;26206985000;25432566666;25932566666
3144;26206986000;25432566666;25932566666
3145;26207108000;25432577777;25932577777
3146;26207124000;25432833333;25932833333
3147;26207125000;25432833333;25932833333
3148;26207134000;25432833333;25932833333
3149;26236137000;25474211111;25974211111
3180;26282980000;25557855555;26057855555
3202;26296276000;25641255555;26141255555
3203;26296280000;25641255555;26141255555
3204;26333236000;25682544444;26182544444
3209;26333239000;25682544444;26182544444
3210;26333240000;25682544444;26182544444
3211;26333439000;25682555555;26182555555
3212;26333454000;25682900000;26182900000
3213;26333455000;25682900000;26182900000
3214;26333456000;25682900000;26182900000
3215;26362479000;25724211111;26224211111
3216;26362482000;25724211111;26224211111
3217;26362484000;25724211111;26224211111
3218;26362485000;25724211111;26224211111
3219;26362486000;25724211111;26224211111
3220;26362487000;25724211111;26224211111
3221;26362488000;25724211111;26224211111
3222;26362665000;25724222222;26224222222
3223;26362669000;25724622222;26224622222
3224;26362671000;25724622222;26224622222
3225;26362672000;25724622222;26224622222
3226;26387495000;25765900000;26265900000
3227;26387497000;25765900000;26265900000
3228;26387498000;25765900000;26265900000
3229;26387499000;25765900000;26265900000
3230;26387501000;25765900000;26265900000
3231;26435154000;25765900000;26265900000
3232;26435173000;25765900000;26265900000
3233;26485644000;25765911111;26265911111
3267;26485659000;25891255555;26391255555
3268;26485660000;25891255555;26391255555
3269;26485661000;25891255555;26391255555
3270;26649511000;25932555555;26432555555
3306;26757921000;26057544444;26557544444
3336;26839706000;26182566666;26682566666
3372;26906308000;26307544444;26807544444
3398;26935424000;26390922222;26890922222
3403;26935440000;26432577777;26932577777
3404;26935441000;26432577777;26932577777
3405;26935442000;26432577777;26932577777
3406;26935443000;26432577777;26932577777
3407;26935444000;26432577777;26932577777
3408;26935444000;26432577777;26932577777
3409;26963117000;26432588888;26932588888
3410;26963133000;26432855555;26932855555
3411;26963134000;26432855555;26932855555
3412;26963135000;26432855555;26932855555
3413;26987595000;26474211111;26974211111
3416;26987599000;26474211111;26974211111
3417;26987600000;26474211111;26974211111
3418;26987601000;26474211111;26974211111
3419;26987602000;26474211111;26974211111
3420;26987780000;26474233333;26974233333
3421;26987784000;26474666666;26974666666
3422;26987786000;26474666666;26974666666
3423;26987787000;26474666666;26974666666
3424;27008499000;26515866666;27015866666
3425;27008502000;26515866666;27015866666
3426;27035966000;26515866666;27015866666
3427;27036022000;26515866666;27015866666
3428;27036024000;26515866666;27015866666
3429;27036026000;26515866666;27015866666
3430;27036039000;26515866666;27015866666
3431;27086498000;26515877777;27015877777
3464;27210359000;26640900000;27140900000
3469;27210365000;26682544444;27182544444
3470;27210366000;26682544444;27182544444
3471;27210367000;26682544444;27182544444
3472;27210368000;26682544444;27182544444
3473;27210369000;26682544444;27182544444
3474;27210370000;26682544444;27182544444
3475;27249887000;26682555555;27182555555
3504;27249902000;26807566666;27307566666
3505;27249904000;26807566666;27307566666
3506;27249905000;26807566666;27307566666
3507;27249906000;26807566666;27307566666
3508;27349697000;26807577777;27307577777
3535;27349713000;26932544444;27432544444
3536;27349715000;26932544444;27432544444
3537;27349716000;26932544444;27432544444
3538;27349717000;26932544444;27432544444
3539;27349718000;26932544444;27432544444
3540;27349719000;26932544444;27432544444
3541;27439891000;26932566666;27432566666
3571;27439897000;27057544444;27557544444
3572;27439899000;27057544444;27557544444
3573;27439900000;27057544444;27557544444
3574;27506271000;27057555555;27557555555
3601;27526278000;27182566666;27682566666
3602;27526280000;27182566666;27682566666
3603;27526290000;27182566666;27682566666
3604;27526292000;27182566666;27682566666
3605;27526293000;27182566666;27682566666
3606;27526293000;27182566666;27682566666
3607;27565022000;27182588888;27682588888
3609;27565038000;27182866666;27682866666
3610;27565039000;27182866666;27682866666
3611;27589273000;27224244444;27724244444
3612;27589284000;27224244444;27724244444
3613;27589285000;27224244444;27724244444
3614;27589286000;27224244444;27724244444
3615;27589287000;27224244444;27724244444
3616;27589288000;27224244444;27724244444
3617;27589289000;27224244444;27724244444
3618;27589489000;27224255555;27724255555
3619;27589504000;27224544444;27724544444
3620;27589505000;27224544444;27724544444
3621;27589506000;27224544444;27724544444
3622;27610038000;27265877777;27765877777
3623;27610041000;27265877777;27765877777
3624;27610049000;27265877777;27765877777
3625;27636821000;27265877777;27765877777
3626;27636824000;27265877777;27765877777
3627;27636832000;27265877777;27765877777
3628;27636885000;27265877777;27765877777
3629;27687216000;27265900000;27765900000
3651;27770565000;27349255555;27849255555
3656;27770571000;27390900000;27890900000
3657;27770572000;27390900000;27890900000
3658;27770574000;27390900000;27890900000
3659;27770575000;27390900000;27890900000
3660;27770576000;27390900000;27890900000
3661;27770577000;27390900000;27890900000
3662;27810279000;27390911111;27890911111
3663;27810294000;27391211111;27891211111
3664;27810295000;27391211111;27891211111
3665;27810296000;27391211111;27891211111
3666;27850451000;27432566666;27932566666
3692;28051462000;27515866666;28015866666
3747;28110662000;27724200000;28224200000
3761;28128582000;27765922222;28265922222
3768;28149289000;27807566666;28307566666
3769;28149291000;27807566666;28307566666
3770;28149292000;27807566666;28307566666
3771;28149293000;27807566666;28307566666
3772;28149457000;27807577777;28307577777
3773;28149463000;27807855555;28307855555
3774;28149464000;27807855555;28307855555
3775;28149465000;27807855555;28307855555
3776;28166916000;27849211111;28349211111
3777;28166919000;27849211111;28349211111
3779;28166921000;27849211111;28349211111
3780;28166922000;27849211111;28349211111
3781;28166923000;27849211111;28349211111
3782;28166924000;27849211111;28349211111
3783;28167053000;27849233333;28349233333
3784;28167058000;27849611111;28349611111
3785;28167059000;27849611111;28349611111
3786;28167060000;27849611111;28349611111
3787;28194389000;27890877777;28390877777
3788;28194392000;27890877777;28390877777
3789;28194393000;27890877777;28390877777
3790;28194394000;27890877777;28390877777
3791;28237714000;27890877777;28390877777
3792;28237770000;27890877777;28390877777
3793;28237773000;27890877777;28390877777
3794;28288235000;27890888888;28390888888
3812;28288250000;27974244444;28474244444
3813;28288251000;27974244444;28474244444
3814;28288252000;27974244444;28474244444
3815;28288253000;27974244444;28474244444
3816;28371569000;27974255555;28474255555
3818;28371584000;27974533333;28474533333
3819;28371585000;27974533333;28474533333
3820;28412210000;28015900000;28515900000
3821;28412213000;28015900000;28515900000
3822;28412214000;28015900000;28515900000
3823;28412215000;28015900000;28515900000
3824;28412216000;28015900000;28515900000
3825;28412217000;28015900000;28515900000
3826;28412218000;28015900000;28515900000
3827;28412390000;28015911111;28515911111
3829;28412600000;28016200000;28516200000
3830;28412601000;28016200000;28516200000
3831;28569832000;28057544444;28557544444
3842;28595767000;28099222222;28599222222
3843;28595770000;28099222222;28599222222
3844;28595772000;28099222222;28599222222
3845;28595773000;28099222222;28599222222
3846;28595774000;28099222222;28599222222
3847;28595775000;28099222222;28599222222
3848;28595776000;28099222222;28599222222
3849;28595931000;28099244444;28599244444
3850;28595937000;28099633333;28599633333
3851;28595938000;28099633333;28599633333
3852;28595939000;28099633333;28599633333
3853;28622909000;28140900000;28640900000
3854;28622913000;28140900000;28640900000
3855;28622914000;28140900000;28640900000
3858;28623490000;28140900000;28640900000
3859;28623493000;28140900000;28640900000
3860;28623650000;28140911111;28640911111
3861;28623656000;28141222222;28641222222
3862;28623658000;28141222222;28641222222
3863;28623659000;28141222222;28641222222
3864;28640138000;28182566666;28682566666
3865;28640141000;28182566666;28682566666
3866;28640142000;28182566666;28682566666
3867;28640150000;28182566666;28682566666
3868;28640151000;28182566666;28682566666
3869;28640152000;28182566666;28682566666
3870;28640153000;28182566666;28682566666
3871;28640354000;28182588888;28682588888
3872;28640369000;28182855555;28682855555
3873;28640370000;28182855555;28682855555
3874;28640371000;28182855555;28682855555
3875;28662554000;28224233333;28724233333
3876;28662557000;28224233333;28724233333
3877;28662558000;28224233333;28724233333
3878;28662559000;28224233333;28724233333
3879;28662560000;28224233333;28724233333
3880;28662561000;28224233333;28724233333
3881;28662562000;28224233333;28724233333
3882;28662745000;28224244444;28724244444
3883;28662752000;28224522222;28724522222
3884;28673694000;28224522222;28724522222
3885;28673918000;28224522222;28724522222
3886;28683151000;28265877777;28765877777
3887;28683154000;28265877777;28765877777
3888;28683155000;28265877777;28765877777
3889;28683156000;28265877777;28765877777
3890;28683157000;28265877777;28765877777
3891;28683158000;28265877777;28765877777
3892;28683159000;28265877777;28765877777
3893;28683359000;28265900000;28765900000
3894;28729538000;28266255555;28766255555
3895;28838788000;28266255555;28766255555
3896;28838790000;28266255555;28766255555
3897;28889186000;28307544444;28807544444
3903;28889189000;28307544444;28807544444
3904;28889389000;28307555555;28807555555
3905;28889404000;28307900000;28807900000
3906;28889405000;28307900000;28807900000
3907;28889406000;28307900000;28807900000
3908;28930814000;28349244444;28849244444
3909;28930818000;28349244444;28849244444
3910;28930819000;28349244444;28849244444
3911;28930820000;28349244444;28849244444
3912;28930821000;28349244444;28849244444
3913;28930822000;28349244444;28849244444
3914;28930822000;28349244444;28849244444
3915;28930994000;28349255555;28849255555
3916;28930998000;28349544444;28849544444
3917;28930999000;28349544444;28849544444
3918;28931000000;28349544444;28849544444
3919;28972282000;28390900000;28890900000
3920;28972284000;28390900000;28890900000
3921;28972285000;28390900000;28890900000
3922;28972286000;28390900000;28890900000
3923;28972287000;28390900000;28890900000
3924;28972288000;28390900000;28890900000
3925;28972289000;28390900000;28890900000
3926;29089505000;28390911111;28890911111
3936;29089511000;28432566666;28932566666
3937;29131138000;28432588888;28932588888
3938;29131153000;28432844444;28932844444
3939;29131154000;28432844444;28932844444
3940;29131155000;28432844444;28932844444
3943;29172511000;28474211111;28974211111
3944;29172514000;28474211111;28974211111
3945;29172515000;28474211111;28974211111
3946;29172516000;28474211111;28974211111
3947;29172517000;28474211111;28974211111
3948;29172567000;28474233333;28974233333
3949;29172570000;28474655555;28974655555
3950;29172571000;28474655555;28974655555
3951;29172572000;28474655555;28974655555
3952;29213443000;28515900000;29015900000
3953;29213446000;28515900000;29015900000
3954;29213447000;28515900000;29015900000
3955;29213448000;28515900000;29015900000
3956;29213449000;28515900000;29015900000
3957;29213450000;28515900000;29015900000
3959;29213562000;28515911111;29015911111
3960;29239348000;28516200000;29016200000
3961;29239350000;28516200000;29016200000
3962;29239404000;28516200000;29016200000
3963;29331239000;28557566666;29057566666
3967;29331242000;28557566666;29057566666
3968;29331243000;28557566666;29057566666
3969;29331244000;28557566666;29057566666
3970;29331444000;28557588888;29057588888
3971;29331460000;28557855555;29057855555
3972;29331461000;28557855555;29057855555
3974;29373036000;28599255555;29099255555
3975;29373039000;28599255555;29099255555
3976;29373040000;28599255555;29099255555
3978;29373041000;28599255555;29099255555
3979;29373048000;28599255555;29099255555
3980;29373049000;28599255555;29099255555
3982;29373059000;28599566666;29099566666
3983;29373060000;28599566666;29099566666
3984;29373072000;28599566666;29099566666
3985;29413690000;28640877777;29140877777
3986;29413694000;28640877777;29140877777
3989;29413695000;28640877777;29140877777
3990;29413696000;28640877777;29140877777
3991;29413697000;28640877777;29140877777
3992;29413860000;28640900000;29140900000
3993;29439630000;28641255555;29141255555
3994;29439633000;28641255555;29141255555
3995;29439649000;28641255555;29141255555
3996;29531477000;28682544444;29182544444
4002;29531480000;28682544444;29182544444
4003;29531681000;28682555555;29182555555
4004;29531696000;28682900000;29182900000
4005;29531697000;28682900000;29182900000
4006;29531698000;28682900000;29182900000
4007;29572731000;28724233333;29224233333
4008;29572734000;28724233333;29224233333
4009;29572735000;28724233333;29224233333
4010;29572736000;28724233333;29224233333
4011;29572737000;28724233333;29224233333
4012;29572738000;28724233333;29224233333
4013;29572739000;28724233333;29224233333
4014;29572911000;28724244444;29224244444
4015;29572915000;28724544444;29224544444
4016;29572916000;28724544444;29224544444
4017;29572917000;28724544444;29224544444
4018;29613466000;28765900000;29265900000
4019;29613468000;28765900000;29265900000
4020;29613469000;28765900000;29265900000
4021;29613470000;28765900000;29265900000
4022;29613471000;28765900000;29265900000
4023;29613472000;28765900000;29265900000
4024;29613473000;28765900000;29265900000
4027;29690303000;28766200000;29266200000
4034;29731594000;28807577777;29307577777
4035;29731597000;28807577777;29307577777
4036;29731813000;28807588888;29307588888
4038;29731843000;28807922222;29307922222
4039;29731845000;28807922222;29307922222
4040;29773051000;28849211111;29349211111
4041;29773055000;28849211111;29349211111
4042;29773056000;28849211111;29349211111
4043;29773057000;28849211111;29349211111
4045;29773058000;28849211111;29349211111
4046;29773059000;28849211111;29349211111
4047;29773173000;28849233333;29349233333
4048;29773179000;28849622222;29349622222
4049;29773181000;28849622222;29349622222
4050;29773182000;28849622222;29349622222
4051;29813806000;28890888888;29390888888
4052;29813809000;28890888888;29390888888
4053;29813809000;28890888888;29390888888
4054;29813810000;28890888888;29390888888
4055;29813811000;28890888888;29390888888
4056;29813812000;28890888888;29390888888
4057;29813813000;28890888888;29390888888
4058;29890657000;28890911111;29390911111
4067;29890672000;28932555555;29432555555
4068;29890673000;28932555555;29432555555
4069;29932264000;28932566666;29432566666
4070;29932279000;28932800000;29432800000
4071;29932280000;28932800000;29432800000
4072;29932281000;28932800000;29432800000
4073;29973660000;28974233333;29474233333
4074;29973663000;28974233333;29474233333
4075;29973664000;28974233333;29474233333
4076;29973665000;28974233333;29474233333
4077;29973666000;28974233333;29474233333
4078;29973667000;28974233333;29474233333
4079;29973668000;28974233333;29474233333
4080;29973839000;28974244444;29474244444
4081;29973844000;28974533333;29474533333
4082;29973845000;28974533333;29474533333
4083;29973846000;28974533333;29474533333
4084;30014334000;29015900000;29515900000
4085;30014338000;29015900000;29515900000
4086;30014339000;29015900000;29515900000
4087;30014340000;29015900000;29515900000
4088;30014341000;29015900000;29515900000
4089;30014342000;29015900000;29515900000
4090;30014343000;29015900000;29515900000
4091;30090988000;29015911111;29515911111
4101;30090994000;29057544444;29557544444
4102;30132567000;29057566666;29557566666
4104;30132582000;29057922222;29557922222
4105;30132583000;29057922222;29557922222
4106;30173938000;29099211111;29599211111
4107;30173941000;29099211111;29599211111
4108;30173942000;29099211111;29599211111
4109;30173943000;29099211111;29599211111
4110;30173944000;29099211111;29599211111
4111;30173945000;29099211111;29599211111
4112;30173946000;29099211111;29599211111
4113;30174073000;29099222222;29599222222
4114;30174078000;29099611111;29599611111
4115;30174079000;29099611111;29599611111
4116;30174080000;29099611111;29599611111
4117;30214573000;29140866666;29640866666
4118;30214577000;29140866666;29640866666
4119;30214578000;29140866666;29640866666
4120;30214579000;29140866666;29640866666
4121;30214580000;29140866666;29640866666
4122;30214581000;29140866666;29640866666
4123;30214582000;29140866666;29640866666
4124;30214653000;29140888888;29640888888
4125;30214664000;29141166666;29641166666
4126;30240780000;29141166666;29641166666
4127;30240792000;29141166666;29641166666
4128;30252502000;29182566666;29682566666
4129;30252505000;29182566666;29682566666
4130;30252506000;29182566666;29682566666
4131;30252507000;29182566666;29682566666
4132;30252508000;29182566666;29682566666
4133;30252509000;29182566666;29682566666
4134;30252510000;29182566666;29682566666
4135;30255101000;29182577777;29682577777
4136;30255116000;29182877777;29682877777
4137;30255117000;29182877777;29682877777
4138;30255118000;29182877777;29682877777
4139;30294868000;29224233333;29724233333
4140;30294871000;29224233333;29724233333
4141;30294872000;29224233333;29724233333
4142;30294873000;29224233333;29724233333
4143;30294874000;29224233333;29724233333
4144;30294875000;29224233333;29724233333
4145;30294876000;29224233333;29724233333
4146;30295084000;29224255555;29724255555
4147;30295099000;29224533333;29724533333
4148;30295100000;29224533333;29724533333
4149;30295101000;29224533333;29724533333
4150;30333123000;29265877777;29765877777
4151;30333127000;29265877777;29765877777
4152;30333128000;29265877777;29765877777
4153;30333129000;29265877777;29765877777
4154;30333130000;29265877777;29765877777
4155;30333131000;29265877777;29765877777
4156;30333132000;29265877777;29765877777
4157;30333304000;29265900000;29765900000
4158;30333309000;29266255555;29766255555
4159;30333310000;29266255555;29766255555
4160;30333311000;29266255555;29766255555
4161;30442064000;29307555555;29807555555
4163;30442067000;29307555555;29807555555
4164;30442068000;29307555555;29807555555
4165;30442069000;29307555555;29807555555
4166;30442070000;29307555555;29807555555
4167;30442071000;29307555555;29807555555
4168;30442190000;29307577777;29807577777
4169;30442195000;29307933333;29807933333
4170;30442196000;29307933333;29807933333
4171;30442197000;29307933333;29807933333
4172;30483746000;29349233333;29849233333
4173;30483750000;29349233333;29849233333
4174;30483751000;29349233333;29849233333
4175;30483752000;29349233333;29849233333
4176;30483752000;29349233333;29849233333
4177;30483753000;29349233333;29849233333
4178;30483754000;29349233333;29849233333
4179;30483956000;29349244444;29849244444
4180;30483971000;29349555555;29849555555
4181;30483972000;29349555555;29849555555
4182;30483973000;29349555555;29849555555
4183;30525361000;29390900000;29890900000
4184;30525364000;29390900000;29890900000
4185;30525365000;29390900000;29890900000
4186;30525366000;29390900000;29890900000
4187;30525367000;29390900000;29890900000
4188;30525368000;29390900000;29890900000
4189;30525369000;29390900000;29890900000
4190;30525570000;29390911111;29890911111
4191;30525585000;29391222222;29891222222
4192;30525586000;29391222222;29891222222
4193;30525587000;29391222222;29891222222
4194;30566638000;29432566666;29932566666
4195;30566640000;29432566666;29932566666
4196;30566641000;29432566666;29932566666
4197;30566642000;29432566666;29932566666
4198;30566643000;29432566666;29932566666
4199;30592409000;29432566666;29932566666
4200;30592598000;29432566666;29932566666
4201;30692133000;29432577777;29932577777
4215;30692149000;29474555555;29974555555
4216;30775284000;29515877777;30015877777
4217;30775287000;29515877777;30015877777
4218;30775289000;29515877777;30015877777
4219;30775290000;29515877777;30015877777
4220;30775291000;29515877777;30015877777
4221;30775292000;29515877777;30015877777
4222;30775293000;29515877777;30015877777
4223;30775448000;29515888888;30015888888
4224;30775454000;29516188888;30016188888
4225;30775456000;29516188888;30016188888
4226;30775457000;29516188888;30016188888
4227;30816172000;29557566666;30057566666
4228;30816176000;29557566666;30057566666
4229;30816177000;29557566666;30057566666
4230;30816178000;29557566666;30057566666
4232;30816179000;29557566666;30057566666
4233;30816180000;29557566666;30057566666
4234;30816335000;29557577777;30057577777
4235;30816341000;29557855555;30057855555
4236;30816342000;29557855555;30057855555
4237;30816343000;29557855555;30057855555
4238;30856009000;29599222222;30099222222
4242;30856012000;29599222222;30099222222
4243;30856021000;29599222222;30099222222
4244;30856023000;29599222222;30099222222
4245;30856133000;29599233333;30099233333
4246;30856140000;29599533333;30099533333
4247;30856141000;29599533333;30099533333
4248;30856142000;29599533333;30099533333
4249;30895864000;29640877777;30140877777
4258;30895977000;29641177777;30141177777
4259;30895981000;29641177777;30141177777
4260;30934130000;29682566666;30182566666
4261;30934133000;29682566666;30182566666
4262;30934134000;29682566666;30182566666
4263;30934135000;29682566666;30182566666
4264;30934136000;29682566666;30182566666
4265;30934137000;29682566666;30182566666
4266;30934139000;29682566666;30182566666
4267;30934339000;29682577777;30182577777
4268;30934354000;29682855555;30182855555
4269;30934355000;29682855555;30182855555
4270;30934356000;29682855555;30182855555
4271;30969678000;29724233333;30224233333
4272;30969681000;29724233333;30224233333
4273;30969682000;29724233333;30224233333
4274;30969683000;29724233333;30224233333
4275;30969684000;29724233333;30224233333
4276;30969685000;29724233333;30224233333
4277;30969686000;29724233333;30224233333
4278;30969825000;29724244444;30224244444
4279;30969828000;29724566666;30224566666
4280;30969829000;29724566666;30224566666
4281;30993483000;29724566666;30224566666
4282;31006449000;29765900000;30265900000
4283;31042233000;29765900000;30265900000
4284;31042235000;29765900000;30265900000
4285;31042267000;29765900000;30265900000
4287;31042282000;29765900000;30265900000
4288;31042283000;29765900000;30265900000
4289;31092759000;29765911111;30265911111
4297;31092774000;29807566666;30307566666
4298;31092776000;29807566666;30307566666
4299;31092776000;29807566666;30307566666
4300;31134358000;29807588888;30307588888
4302;31134373000;29807877777;30307877777
4303;31134375000;29807877777;30307877777
4304;31175916000;29849211111;30349211111
4305;31175920000;29849211111;30349211111
4306;31175921000;29849211111;30349211111
4307;31175922000;29849211111;30349211111
4308;31175923000;29849211111;30349211111
4309;31175924000;29849211111;30349211111
4310;31175925000;29849211111;30349211111
4311;31176052000;29849233333;30349233333
4312;31176057000;29849655555;30349655555
4313;31176058000;29849655555;30349655555
4314;31176059000;29849655555;30349655555
4316;31217373000;29890877777;30390877777
4317;31217377000;29890877777;30390877777
4318;31217378000;29890877777;30390877777
4319;31217379000;29890877777;30390877777
4320;31217380000;29890877777;30390877777
4321;31217381000;29890877777;30390877777
4322;31217462000;29890888888;30390888888
4323;31217468000;29891266666;30391266666
4324;31224555000;29891266666;30391266666
4325;31224718000;29891266666;30391266666
4326;31257364000;29932566666;30432566666
4328;31257367000;29932566666;30432566666
4329;31257369000;29932566666;30432566666
4330;31257369000;29932566666;30432566666
4331;31257370000;29932566666;30432566666
4332;31257371000;29932566666;30432566666
4333;31257572000;29932577777;30432577777
4334;31257578000;29932844444;30432844444
4335;31257579000;29932844444;30432844444
4336;31257580000;29932844444;30432844444
4337;31297314000;29974233333;30474233333
4342;31297317000;29974233333;30474233333
4343;31297318000;29974233333;30474233333
4344;31297519000;29974244444;30474244444
4345;31297535000;29974544444;30474544444
4346;31297536000;29974544444;30474544444
4347;31297537000;29974544444;30474544444
4348;31335778000;30015900000;30515900000
4349;31335782000;30015900000;30515900000
4350;31335783000;30015900000;30515900000
4351;31335784000;30015900000;30515900000
4352;31335785000;30015900000;30515900000
4353;31335786000;30015900000;30515900000
4354;31335787000;30015900000;30515900000
4355;31335987000;30015922222;30515922222
4356;31336002000;30016255555;30516255555
4357;31336003000;30016255555;30516255555
4358;31336004000;30016255555;30516255555
4359;31372682000;30057544444;30557544444
4361;31372874000;30057544444;30557544444
4362;31372875000;30057544444;30557544444
4363;31372876000;30057544444;30557544444
4364;31372877000;30057544444;30557544444
4365;31372878000;30057544444;30557544444
4366;31373130000;30057566666;30557566666
4367;31394413000;30057966666;30557966666
4368;31425009000;30057966666;30557966666
4369;31425244000;30057966666;30557966666
4370;31486010000;30099233333;30599233333
4381;31527623000;30140888888;30640888888
4389;31527736000;30141222222;30641222222
4390;31527739000;30141222222;30641222222
4391;31527740000;30141222222;30641222222
4392;31568865000;30182566666;30682566666
4393;31568868000;30182566666;30682566666
4394;31568870000;30182566666;30682566666
4395;31568871000;30182566666;30682566666
4396;31568872000;30182566666;30682566666
4397;31568872000;30182566666;30682566666
4398;31568873000;30182566666;30682566666
4399;31569029000;30182588888;30682588888
4400;31569035000;30182866666;30682866666
4401;31569036000;30182866666;30682866666
4402;31569037000;30182866666;30682866666
4403;31608695000;30224233333;30724233333
4404;31608698000;30224233333;30724233333
4405;31608699000;30224233333;30724233333
4406;31608700000;30224233333;30724233333
4407;31608701000;30224233333;30724233333
4408;31608702000;30224233333;30724233333
4409;31608703000;30224233333;30724233333
4411;31608961000;30224533333;30724533333
4412;31608964000;30224533333;30724533333
4413;31625545000;30224533333;30724533333
4414;31648960000;30265877777;30765877777
4419;31648963000;30265877777;30765877777
4420;31648964000;30265877777;30765877777
4421;31649164000;30265900000;30765900000
4422;31649179000;30266288888;30766288888
4423;31649181000;30266288888;30766288888
4424;31649182000;30266288888;30766288888
4427;31687186000;30307544444;30807544444
4428;31687189000;30307544444;30807544444
4429;31687190000;30307544444;30807544444
4430;31687192000;30307544444;30807544444
4431;31687193000;30307544444;30807544444
4432;31687436000;30307555555;30807555555
4433;31687452000;30307922222;30807922222
4434;31687453000;30307922222;30807922222
4435;31687454000;30307922222;30807922222
4436;31725552000;30349233333;30849233333
4437;31725555000;30349233333;30849233333
4438;31725556000;30349233333;30849233333
4439;31725557000;30349233333;30849233333
4440;31725558000;30349233333;30849233333
4441;31725559000;30349233333;30849233333
4442;31725560000;30349233333;30849233333
4443;31725781000;30349244444;30849244444
4444;31725800000;30349555555;30849555555
4446;31725802000;30349555555;30849555555
4447;31762698000;30390900000;30890900000
4448;31762701000;30390900000;30890900000
4450;31762702000;30390900000;30890900000
4451;31762703000;30390900000;30890900000
4452;31762704000;30390900000;30890900000
4453;31762705000;30390900000;30890900000
4454;31762860000;30390911111;30890911111
4455;31762866000;30391233333;30891233333
4456;31762867000;30391233333;30891233333
4457;31762868000;30391233333;30891233333
4458;31798885000;30432566666;30932566666
4459;31826017000;30432566666;30932566666
4460;31826247000;30432566666;30932566666
4461;31843507000;30432566666;30932566666
4462;31843509000;30432566666;30932566666
4463;31843525000;30432566666;30932566666
4464;31843582000;30432566666;30932566666
4465;31893965000;30432588888;30932588888
4477;31893970000;30474666666;30974666666
4478;31893971000;30474666666;30974666666
4479;31893972000;30474666666;30974666666
4480;31977172000;30515900000;31015900000
4482;31977176000;30515900000;31015900000
4483;31977177000;30515900000;31015900000
4484;31977178000;30515900000;31015900000
4485;31977179000;30515900000;31015900000
4486;31977180000;30515900000;31015900000
4487;31977334000;30515911111;31015911111
4488;31977340000;30516188888;31016188888
4489;31977341000;30516188888;31016188888
4490;31977342000;30516188888;31016188888
4492;32018650000;30557566666;31057566666
4495;32018653000;30557566666;31057566666
4496;32018654000;30557566666;31057566666
4497;32018655000;30557566666;31057566666
4498;32018775000;30557577777;31057577777
4499;32018791000;30557833333;31057833333
4500;32018792000;30557833333;31057833333
4501;32018793000;30557833333;31057833333
4502;32058399000;30599266666;31099266666
4516;32097284000;30640900000;31140900000
4528;32134400000;30682544444;31182544444
4530;32196237000;30682544444;31182544444
4531;32196448000;30682566666;31182566666
4532;32196463000;30682922222;31182922222
4533;32196472000;30682922222;31182922222
4534;32196473000;30682922222;31182922222
4535;32196483000;30724233333;31224233333
4536;32196495000;30724233333;31224233333
4537;32196496000;30724233333;31224233333
4538;32196497000;30724233333;31224233333
4539;32196498000;30724233333;31224233333
4540;32196499000;30724233333;31224233333
4541;32196500000;30724233333;31224233333
4542;32196602000;30724244444;31224244444
4543;32196617000;30724533333;31224533333
4544;32196618000;30724533333;31224533333
4545;32196619000;30724533333;31224533333
4546;32201925000;30765900000;31265900000
4547;32201929000;30765900000;31265900000
4548;32201930000;30765900000;31265900000
4549;32201931000;30765900000;31265900000
4550;32201932000;30765900000;31265900000
4551;32201933000;30765900000;31265900000
4552;32201934000;30765900000;31265900000
4553;32277368000;30765911111;31265911111
4559;32277383000;30807566666;31307566666
4560;32277384000;30807566666;31307566666
4561;32277386000;30807566666;31307566666
4562;32277387000;30807566666;31307566666
4563;32277388000;30807566666;31307566666
4564;32318985000;30807588888;31307588888
4577;32319000000;30849611111;31349611111
4579;32401923000;30890877777;31390877777
4580;32401926000;30890877777;31390877777
4581;32401927000;30890877777;31390877777
4582;32401928000;30890877777;31390877777
4583;32401929000;30890877777;31390877777
4584;32401939000;30890877777;31390877777
4585;32401940000;30890877777;31390877777
4586;32402026000;30890888888;31390888888
4587;32402029000;30891255555;31391255555
4588;32402030000;30891255555;31391255555
4589;32402031000;30891255555;31391255555
4590;32441485000;30932533333;31432533333
4591;32441487000;30932533333;31432533333
4592;32441488000;30932533333;31432533333
4593;32441489000;30932533333;31432533333
4594;32441490000;30932533333;31432533333
4595;32441491000;30932533333;31432533333
4596;32441492000;30932533333;31432533333
4597;32441609000;30932544444;31432544444
4598;32441611000;30932766666;31432766666
4599;32441613000;30932766666;31432766666
4600;32441613000;30932766666;31432766666
4601;32479793000;30974233333;31474233333
4612;32518050000;31015900000;31515900000
4622;32518145000;31016188888;31516188888
4623;32552715000;31057544444;31557544444
4625;32552718000;31057544444;31557544444
4626;32552719000;31057544444;31557544444
4627;32552720000;31057544444;31557544444
4628;32552721000;31057544444;31557544444
4629;32552722000;31057544444;31557544444
4630;32552929000;31057555555;31557555555
4631;32552944000;31057811111;31557811111
4632;32552945000;31057811111;31557811111
4633;32552946000;31057811111;31557811111
4634;32588641000;31099255555;31599255555
4635;32588644000;31099255555;31599255555
4636;32588645000;31099255555;31599255555
4637;32588646000;31099255555;31599255555
4638;32588647000;31099255555;31599255555
4639;32588648000;31099255555;31599255555
4640;32588649000;31099255555;31599255555
4641;32588846000;31099300000;31599300000
4642;32588853000;31099611111;31599611111
4645;32623811000;31140900000;31640900000
4646;32623815000;31140900000;31640900000
4647;32623816000;31140900000;31640900000
4648;32627890000;31140900000;31640900000
4649;32628112000;31140900000;31640900000
4650;32644709000;31140900000;31640900000
4651;32644711000;31140900000;31640900000
4652;32695200000;31140911111;31640911111
4672;32695216000;31224233333;31724233333
4673;32695217000;31224233333;31724233333
4674;32778343000;31224255555;31724255555
4676;32778360000;31224522222;31724522222
4677;32778361000;31224522222;31724522222
4678;32819127000;31265877777;31765877777
4679;32819130000;31265877777;31765877777
4680;32819131000;31265877777;31765877777
4681;32819132000;31265877777;31765877777
4682;32819133000;31265877777;31765877777
4683;32819134000;31265877777;31765877777
4684;32819135000;31265877777;31765877777
4685;32819334000;31265900000;31765900000
4686;32819349000;31266244444;31766244444
4687;32819350000;31266244444;31766244444
4688;32819352000;31266244444;31766244444
4689;32858759000;31307544444;31807544444
4705;32897817000;31349233333;31849233333
4722;32969690000;31432566666;31932566666
4724;32969694000;31432566666;31932566666
4725;32969703000;31432566666;31932566666
4726;32969705000;31432566666;31932566666
4727;32969706000;31432566666;31932566666
4728;32969707000;31432566666;31932566666
4729;32969904000;31432577777;31932577777
4730;32969910000;31432833333;31932833333
4731;32969911000;31432833333;31932833333
4732;32969912000;31432833333;31932833333
4733;33000452000;31474244444;31974244444
4734;33000455000;31474244444;31974244444
4735;33000456000;31474244444;31974244444
4736;33000457000;31474244444;31974244444
4737;33000458000;31474244444;31974244444
4738;33000459000;31474244444;31974244444
4739;33000460000;31474244444;31974244444
4740;33000612000;31474255555;31974255555
4741;33000616000;31474555555;31974555555
4742;33000617000;31474555555;31974555555
4743;33000618000;31474555555;31974555555
4744;33034661000;31515900000;32015900000
4745;33034664000;31515900000;32015900000
4746;33034665000;31515900000;32015900000
4747;33034666000;31515900000;32015900000
4748;33045243000;31515900000;32015900000
4749;33045304000;31515900000;32015900000
4750;33045307000;31515900000;32015900000
4751;33095758000;31515911111;32015911111
4771;33095773000;31599222222;32099222222
4772;33095774000;31599222222;32099222222
4773;33179065000;31599233333;32099233333
4776;33179071000;31599544444;32099544444
4777;33219799000;31640900000;32140900000
4778;33219803000;31640900000;32140900000
4779;33219804000;31640900000;32140900000
4780;33219805000;31640900000;32140900000
4781;33219806000;31640900000;32140900000
4782;33219807000;31640900000;32140900000
4783;33219808000;31640900000;32140900000
4784;33219986000;31640911111;32140911111
4785;33219990000;31641200000;32141200000
4786;33219992000;31641200000;32141200000
4787;33219993000;31641200000;32141200000
4788;33259422000;31682566666;32182566666
4806;33298491000;31724244444;32224244444
4820;33298507000;31766211111;32266211111
4821;33370423000;31807566666;32307566666
4823;33370427000;31807566666;32307566666
4824;33370428000;31807566666;32307566666
4825;33370429000;31807566666;32307566666
4826;33370430000;31807566666;32307566666
4827;33370431000;31807566666;32307566666
4828;33370637000;31807588888;32307588888
4829;33370653000;31807877777;32307877777
4830;33370654000;31807877777;32307877777
4831;33370655000;31807877777;32307877777
4832;33405433000;31849211111;32349211111
4833;33405436000;31849211111;32349211111
4834;33405437000;31849211111;32349211111
4835;33405438000;31849211111;32349211111
4836;33405439000;31849211111;32349211111
4837;33405440000;31849211111;32349211111
4840;33405837000;31849633333;32349633333
4841;33405840000;31849633333;32349633333
4842;33405841000;31849633333;32349633333
4843;33441485000;31890888888;32390888888
4844;33441488000;31890888888;32390888888
4845;33441490000;31890888888;32390888888
4846;33441491000;31890888888;32390888888
4847;33441492000;31890888888;32390888888
4848;33445878000;31890888888;32390888888
4849;33445880000;31890888888;32390888888
4850;33496163000;31890900000;32390900000
4873;33496168000;31974544444;32474544444
4874;33496169000;31974544444;32474544444
4875;33496170000;31974544444;32474544444
4876;33620588000;32015911111;32515911111
4877;33620591000;32015911111;32515911111
4878;33620592000;32015911111;32515911111
4879;33620593000;32015911111;32515911111
4880;33620595000;32015911111;32515911111
4881;33620595000;32015911111;32515911111
4882;33620596000;32015911111;32515911111
4883;33620772000;32015922222;32515922222
4884;33620787000;32016233333;32516233333
4885;33620788000;32016233333;32516233333
4886;33620790000;32016233333;32516233333
4887;33659698000;32057544444;32557544444
4906;33698647000;32099588888;32599588888
4923;33772638000;32182566666;32682566666
4926;33772641000;32182566666;32682566666
4927;33772822000;32182588888;32682588888
4928;33772829000;32182877777;32682877777
4929;33772830000;32182877777;32682877777
4930;33772831000;32182877777;32682877777
4931;33807186000;32224233333;32724233333
4932;33807190000;32224233333;32724233333
4933;33807190000;32224233333;32724233333
4934;33807192000;32224233333;32724233333
4935;33807192000;32224233333;32724233333
4936;33807193000;32224233333;32724233333
4937;33807203000;32224233333;32724233333
4938;33807374000;32224255555;32724255555
4939;33807378000;32224544444;32724544444
4940;33807380000;32224544444;32724544444
4941;33807381000;32224544444;32724544444
4942;33840430000;32265877777;32765877777
4943;33840432000;32265877777;32765877777
4944;33840433000;32265877777;32765877777
4945;33840434000;32265877777;32765877777
4946;33840435000;32265877777;32765877777
4947;33840436000;32265877777;32765877777
4948;33840437000;32265877777;32765877777
4949;33897068000;32265900000;32765900000
4976;33897089000;32390900000;32890900000
4977;33897090000;32390900000;32890900000
4978;33897092000;32390900000;32890900000
4979;33897093000;32390900000;32890900000
4980;33897094000;32390900000;32890900000
4981;33897104000;32390900000;32890900000
4982;34020968000;32390911111;32890911111
4986;34020984000;32432577777;32932577777
4987;34020985000;32432577777;32932577777
4988;34020986000;32432577777;32932577777
4989;34020987000;32432577777;32932577777
4990;34020988000;32432577777;32932577777
4991;34020989000;32432577777;32932577777
4992;34020990000;32432577777;32932577777
4993;34060538000;32432588888;32932588888
5014;34060553000;32515900000;33015900000
5015;34137329000;32515911111;33015911111
5030;34137344000;32599255555;33099255555
5031;34137345000;32599255555;33099255555
5032;34137346000;32599255555;33099255555
5033;34137347000;32599255555;33099255555
5034;34137348000;32599255555;33099255555
5035;34137349000;32599255555;33099255555
5036;34137350000;32599255555;33099255555
5037;34191806000;32599266666;33099266666
5041;34191821000;32640900000;33140900000
5042;34191823000;32640900000;33140900000
5043;34191824000;32640900000;33140900000
5044;34191825000;32640900000;33140900000
5045;34191825000;32640900000;33140900000
5046;34191826000;32640900000;33140900000
5047;34191827000;32640900000;33140900000
5048;34223610000;32640911111;33140911111
5049;34223625000;32641200000;33141200000
5050;34223626000;32641200000;33141200000
5051;34223627000;32641200000;33141200000
5052;34253647000;32682555555;33182555555
5066;34286310000;32724233333;33224233333
5071;34286422000;32724566666;33224566666
5072;34286426000;32724566666;33224566666
5073;34286426000;32724566666;33224566666
5074;34381063000;32765900000;33265900000
5087;34421719000;32807566666;33307566666
5088;34421723000;32807566666;33307566666
5089;34421724000;32807566666;33307566666
5090;34421725000;32807566666;33307566666
5091;34421726000;32807566666;33307566666
5092;34421933000;32807588888;33307588888
5093;34421948000;32807866666;33307866666
5094;34421949000;32807866666;33307866666
5095;34421951000;32807866666;33307866666
5096;34461508000;32849211111;33349211111
5120;34539584000;32932566666;33432566666
5140;34606024000;33015900000;33515900000
5143;34606027000;33015900000;33515900000
5144;34606029000;33015900000;33515900000
5145;34606030000;33015900000;33515900000
5146;34606031000;33015900000;33515900000
5147;34606229000;33015922222;33515922222
5148;34606235000;33016211111;33516211111
5149;34606236000;33016211111;33516211111
5150;34606237000;33016211111;33516211111
5151;34634824000;33057544444;33557544444
5152;34634827000;33057544444;33557544444
5153;34634829000;33057544444;33557544444
5154;34634830000;33057544444;33557544444
5155;34634830000;33057544444;33557544444
5156;34634831000;33057544444;33557544444
5157;34634832000;33057544444;33557544444
5158;34635038000;33057566666;33557566666
5159;34635061000;33057933333;33557933333
5160;34635062000;33057933333;33557933333
5161;34635063000;33057933333;33557933333
5162;34666843000;33099211111;33599211111
5180;34698130000;33140911111;33640911111
5194;34698145000;33182888888;33682888888
5195;34822911000;33224244444;33724244444
5200;34822915000;33224244444;33724244444
5201;34822916000;33224244444;33724244444
5202;34823115000;33224255555;33724255555
5207;34848164000;33265888888;33765888888
5208;34848166000;33265888888;33765888888
5209;34848167000;33265888888;33765888888
5210;34848168000;33265888888;33765888888
5211;34848169000;33265888888;33765888888
5212;34848170000;33265888888;33765888888
5213;34862282000;33265911111;33765911111
5236;34862298000;33349544444;33849544444
5237;34862299000;33349544444;33849544444
5238;34862300000;33349544444;33849544444
5239;34972441000;33390900000;33890900000
5252;35048556000;33432566666;33932566666
5259;35048580000;33432844444;33932844444
5261;35048595000;33474222222;33974222222
5262;35048596000;33474222222;33974222222
5263;35048597000;33474222222;33974222222
5264;35048598000;33474222222;33974222222
5265;35048599000;33474222222;33974222222
5266;35048600000;33474222222;33974222222
5267;35048601000;33474222222;33974222222
5268;35048743000;33474233333;33974233333
5269;35048754000;33474544444;33974544444
5271;35048756000;33474544444;33974544444
5272;35060634000;33515888888;34015888888
5295;35141053000;33599233333;34099233333
5308;35141166000;33640900000;34140900000
5309;35141169000;33640900000;34140900000
5310;35141170000;33640900000;34140900000
5311;35141171000;33640900000;34140900000
5312;35141292000;33640911111;34140911111
5313;35141307000;33641211111;34141211111
5314;35141308000;33641211111;34141211111
5315;35141309000;33641211111;34141211111
5316;35224159000;33682555555;34182555555
5317;35224163000;33682555555;34182555555
5318;35224164000;33682555555;34182555555
5319;35224165000;33682555555;34182555555
5320;35224166000;33682555555;34182555555
5321;35224167000;33682555555;34182555555
5322;35224168000;33682555555;34182555555
5323;35224376000;33682566666;34182566666
5324;35224391000;33682844444;34182844444
5325;35224393000;33682844444;34182844444
5326;35224394000;33682844444;34182844444
5327;35264284000;33724233333;34224233333
5350;35339081000;33807566666;34307566666
5364;35372591000;33849211111;34349211111
5369;35372694000;33849511111;34349511111
5370;35372697000;33849511111;34349511111
5371;35404004000;33890877777;34390877777
5372;35404007000;33890877777;34390877777
5373;35404008000;33890877777;34390877777
5374;35404009000;33890877777;34390877777
5375;35404010000;33890877777;34390877777
5376;35404012000;33890877777;34390877777
5377;35404012000;33890877777;34390877777
5378;35404223000;33890888888;34390888888
5379;35404238000;33891266666;34391266666
5380;35404239000;33891266666;34391266666
5381;35404240000;33891266666;34391266666
5382;35438263000;33932566666;34432566666
5383;35438266000;33932566666;34432566666
5384;35438267000;33932566666;34432566666
5385;35438268000;33932566666;34432566666
5386;35438269000;33932566666;34432566666
5387;35438270000;33932566666;34432566666
5388;35438271000;33932566666;34432566666
5389;35438409000;33932577777;34432577777
5390;35438411000;33932833333;34432833333
5391;35448968000;33932833333;34432833333
5392;35448983000;33932833333;34432833333
5393;35470835000;33974233333;34474233333
5404;35499941000;34015900000;34515900000
5418;35526694000;34057544444;34557544444
5421;35526697000;34057544444;34557544444
5422;35583179000;34057566666;34557566666
5426;35583195000;34099222222;34599222222
5427;35583196000;34099222222;34599222222
5428;35583197000;34099222222;34599222222
5429;35583198000;34099222222;34599222222
5430;35583199000;34099222222;34599222222
5431;35583200000;34099222222;34599222222
5432;35583201000;34099222222;34599222222
5433;35624143000;34099244444;34599244444
5434;35624158000;34099633333;34599633333
5435;35624159000;34099633333;34599633333
5436;35624160000;34099633333;34599633333
5437;35664319000;34140888888;34640888888
5460;35742531000;34224233333;34724233333
5477;35774271000;34265911111;34765911111
5478;35774287000;34266200000;34766200000
5479;35774288000;34266200000;34766200000
5480;35774289000;34266200000;34766200000
5481;35808162000;34307544444;34807544444
5482;35808166000;34307544444;34807544444
5484;35808167000;34307544444;34807544444
5485;35808168000;34307544444;34807544444
5486;35808169000;34307544444;34807544444
5487;35808170000;34307544444;34807544444
5488;35808377000;34307566666;34807566666
5489;35808393000;34307933333;34807933333
5490;35808394000;34307933333;34807933333
5491;35808395000;34307933333;34807933333
5492;35837116000;34349222222;34849222222
5493;35837119000;34349222222;34849222222
5494;35837120000;34349222222;34849222222
5495;35837129000;34349222222;34849222222
5496;35837130000;34349222222;34849222222
5497;35837132000;34349222222;34849222222
5498;35837133000;34349222222;34849222222
5499;35837277000;34349233333;34849233333
