seqnum;now;rtptime;deadline
8;6907471000;6448277777;6948277777
32;7072163000;6531622222;7031622222
37;7107540000;6573277777;7073277777
40;7107551000;6573277777;7073277777
41;7107553000;6573277777;7073277777
42;7107554000;6573277777;7073277777
43;7111833000;6573288888;7073288888
91;7278540000;6781622222;7281622222
92;7278543000;6781622222;7281622222
93;7278554000;6781622222;7281622222
94;7278555000;6781622222;7281622222
95;7278557000;6781622222;7281622222
96;7278558000;6781622222;7281622222
97;7278560000;6781622222;7281622222
98;7278720000;6781644444;7281644444
99;7278724000;6782011111;7282011111
100;7278725000;6782011111;7282011111
101;7278727000;6782011111;7282011111
102;7304093000;6823277777;7323277777
103;7304096000;6823277777;7323277777
104;7304097000;6823277777;7323277777
105;7304099000;6823277777;7323277777
106;7304100000;6823277777;7323277777
107;7304111000;6823277777;7323277777
108;7304112000;6823277777;7323277777
109;7304210000;6823288888;7323288888
110;7304214000;6823577777;7323577777
111;7304215000;6823577777;7323577777
112;7304217000;6823577777;7323577777
113;7358141000;6864944444;7364944444
152;7481712000;6989944444;7489944444
153;7481812000;6989955555;7489955555
154;7481815000;6990277777;7490277777
155;7481816000;6990277777;7490277777
156;7481817000;6990277777;7490277777
157;7521767000;7031611111;7531611111
217;7639503000;7239944444;7739944444
218;7639516000;7239944444;7739944444
219;7673968000;7239955555;7739955555
220;7673972000;7240277777;7740277777
221;7673974000;7240277777;7740277777
222;7673975000;7240277777;7740277777
223;7704699000;7281611111;7781611111
224;7704702000;7281611111;7781611111
225;7704703000;7281611111;7781611111
226;7704704000;7281611111;7781611111
227;7704705000;7281611111;7781611111
228;7704706000;7281611111;7781611111
229;7704707000;7281611111;7781611111
230;7704851000;7281622222;7781622222
231;7704854000;7281911111;7781911111
232;7704855000;7281911111;7781911111
233;7704856000;7281911111;7781911111
234;7844010000;7323266666;7823266666
289;7923698000;7531600000;8031600000
333;8042487000;7698277777;8198277777
334;8042500000;7698277777;8198277777
335;8042502000;7698277777;8198277777
336;8042504000;7698277777;8198277777
337;8042505000;7698277777;8198277777
338;8042507000;7698277777;8198277777
339;8042508000;7698277777;8198277777
340;8042655000;7698288888;8198288888
341;8042659000;7698566666;8198566666
342;8042661000;7698566666;8198566666
343;8042662000;7698566666;8198566666
344;8083062000;7739944444;8239944444
351;8270837000;7739955555;8239955555
394;8270842000;7906622222;8406622222
395;8407219000;7906633333;8406633333
433;8407247000;8073277777;8573277777
434;8407249000;8073277777;8573277777
435;8407250000;8073277777;8573277777
436;8407252000;8073277777;8573277777
437;8407253000;8073277777;8573277777
440;8625571000;8073588888;8573588888
494;8768388000;8281622222;8781622222
544;8910209000;8489944444;8989944444
546;8910213000;8489944444;8989944444
548;8910215000;8489944444;8989944444
549;9000373000;8489955555;8989955555
601;9000389000;8698277777;9198277777
602;9000391000;8698277777;9198277777
603;9000392000;8698277777;9198277777
604;9062473000;8698288888;9198288888
605;9062478000;8698566666;9198566666
606;9062480000;8698566666;9198566666
607;9062482000;8698566666;9198566666
608;9078604000;8739933333;9239933333
609;9078608000;8739933333;9239933333
610;9078609000;8739933333;9239933333
611;9078611000;8739933333;9239933333
612;9078622000;8739933333;9239933333
613;9078623000;8739933333;9239933333
614;9078625000;8739933333;9239933333
615;9078775000;8739944444;9239944444
616;9078778000;8740255555;9240255555
617;9078780000;8740255555;9240255555
618;9078781000;8740255555;9240255555
619;9080170000;8781600000;9281600000
620;9080173000;8781600000;9281600000
621;9080174000;8781600000;9281600000
623;9080176000;8781600000;9281600000
624;9080178000;8781600000;9281600000
627;9161171000;8781900000;9281900000
654;9406194000;8906622222;9406622222
693;9476264000;9031933333;9531933333
694;9476275000;9031933333;9531933333
695;9476277000;9031933333;9531933333
696;9485611000;9073277777;9573277777
697;9485622000;9073277777;9573277777
698;9485652000;9073277777;9573277777
701;9511127000;9073277777;9573277777
702;9511131000;9073277777;9573277777
703;9647887000;9073288888;9573288888
749;9647892000;9240300000;9740300000
750;9647895000;9240300000;9740300000
751;9798751000;9281611111;9781611111
799;9870765000;9448277777;9948277777
800;9870779000;9448277777;9948277777
801;9870780000;9448277777;9948277777
802;9870928000;9448288888;9948288888
803;9870932000;9448588888;9948588888
804;9870933000;9448588888;9948588888
805;9870935000;9448588888;9948588888
806;9890145000;9489944444;9989944444
807;9890147000;9489944444;9989944444
808;9890149000;9489944444;9989944444
809;9890150000;9489944444;9989944444
810;9890152000;9489944444;9989944444
811;9890153000;9489944444;9989944444
812;9890164000;9489944444;9989944444
813;9890307000;9489955555;9989955555
814;9890310000;9490277777;9990277777
815;9890312000;9490277777;9990277777
816;9890314000;9490277777;9990277777
817;9908336000;9531600000;10031600000
821;9908408000;9531600000;10031600000
823;9908410000;9531600000;10031600000
824;9908557000;9531611111;10031611111
825;9908561000;9531900000;10031900000
828;9923921000;9573266666;10073266666
849;10045625000;9615322222;10115322222
850;10086077000;9656611111;10156611111
851;10086080000;9656611111;10156611111
852;10086082000;9656611111;10156611111
853;10086084000;9656611111;10156611111
854;10086085000;9656611111;10156611111
855;10086087000;9656611111;10156611111
856;10086088000;9656611111;10156611111
857;10086233000;9656622222;10156622222
858;10086237000;9656911111;10156911111
859;10086239000;9656911111;10156911111
860;10086240000;9656911111;10156911111
861;10206248000;9698277777;10198277777
903;10241391000;9823544444;10323544444
904;10241404000;9823544444;10323544444
905;10269615000;9864966666;10364966666
906;10269618000;9864966666;10364966666
907;10269619000;9864966666;10364966666
908;10269621000;9864966666;10364966666
909;10269622000;9864966666;10364966666
910;10269633000;9864966666;10364966666
911;10269634000;9864966666;10364966666
912;10269778000;9864988888;10364988888
913;10269781000;9865288888;10365288888
915;10269783000;9865288888;10365288888
916;10374422000;9906611111;10406611111
955;10456575000;10031611111;10531611111
957;10456684000;10031922222;10531922222
958;10456687000;10031922222;10531922222
959;10456688000;10031922222;10531922222
960;10488653000;10073277777;10573277777
961;10488655000;10073277777;10573277777
962;10488666000;10073277777;10573277777
963;10488667000;10073277777;10573277777
964;10488668000;10073277777;10573277777
965;10488669000;10073277777;10573277777
966;10488669000;10073277777;10573277777
967;10488874000;10073288888;10573288888
968;10488877000;10073600000;10573600000
969;10488878000;10073600000;10573600000
970;10488879000;10073600000;10573600000
971;10514371000;10114933333;10614933333
993;10566915000;10198266666;10698266666
1007;10686760000;10239944444;10739944444
1008;10686764000;10239944444;10739944444
1009;10686765000;10239944444;10739944444
1010;10686766000;10239944444;10739944444
1011;10686963000;10239955555;10739955555
1012;10686978000;10240277777;10740277777
1013;10686979000;10240277777;10740277777
1014;10686980000;10240277777;10740277777
1015;10725502000;10281611111;10781611111
1058;10971370000;10406911111;10906911111
1109;11060899000;10614944444;11114944444
1110;11061007000;10614955555;11114955555
1111;11061012000;10615311111;11115311111
1112;11061014000;10615311111;11115311111
1113;11061015000;10615311111;11115311111
1114;11077058000;10656611111;11156611111
1115;11077061000;10656611111;11156611111
1116;11077062000;10656611111;11156611111
1117;11077063000;10656611111;11156611111
1119;11077064000;10656611111;11156611111
1120;11077065000;10656611111;11156611111
1121;11077172000;10656622222;11156622222
1122;11077177000;10656922222;11156922222
1123;11077178000;10656922222;11156922222
1124;11077179000;10656922222;11156922222
1125;11088050000;10698277777;11198277777
1126;11088053000;10698277777;11198277777
1127;11088054000;10698277777;11198277777
1128;11088055000;10698277777;11198277777
1129;11088056000;10698277777;11198277777
1130;11088065000;10698277777;11198277777
1131;11088066000;10698277777;11198277777
1132;11164113000;10698288888;11198288888
1161;11164129000;10823277777;11323277777
1162;11164130000;10823277777;11323277777
1163;11164131000;10823277777;11323277777
1164;11164132000;10823277777;11323277777
1165;11287221000;10823288888;11323288888
1166;11287237000;10823566666;11323566666
1167;11287238000;10823566666;11323566666
1168;11287239000;10823566666;11323566666
1169;11326718000;10864944444;11364944444
1216;11477328000;11031611111;11531611111
1217;11477332000;11031611111;11531611111
1218;11477333000;11031611111;11531611111
1219;11477334000;11031611111;11531611111
1220;11477437000;11031622222;11531622222
1221;11477442000;11031911111;11531911111
1222;11477444000;11031911111;11531911111
1223;11477445000;11031911111;11531911111
1224;11491273000;11073277777;11573277777
1225;11491277000;11073277777;11573277777
1226;11491278000;11073277777;11573277777
1227;11491279000;11073277777;11573277777
1228;11491280000;11073277777;11573277777
1229;11491281000;11073277777;11573277777
1230;11491282000;11073277777;11573277777
1231;11491403000;11073288888;11573288888
1232;11491408000;11073588888;11573588888
1233;11491409000;11073588888;11573588888
1234;11491410000;11073588888;11573588888
1235;11513701000;11114933333;11614933333
1236;11513704000;11114933333;11614933333
1237;11514121000;11114933333;11614933333
1240;11514175000;11114933333;11614933333
1241;11514535000;11114933333;11614933333
1245;11564847000;11115244444;11615244444
1267;11647707000;11198555555;11698555555
1268;11688401000;11239944444;11739944444
1269;11688404000;11239944444;11739944444
1270;11688405000;11239944444;11739944444
1271;11688406000;11239944444;11739944444
1272;11688407000;11239944444;11739944444
1273;11688408000;11239944444;11739944444
1274;11688410000;11239944444;11739944444
1275;11764350000;11239955555;11739955555
1319;11870864000;11406611111;11906611111
1320;11870870000;11406911111;11906911111
1321;11870871000;11406911111;11906911111
1322;11870872000;11406911111;11906911111
1323;11875305000;11448277777;11948277777
1325;11875308000;11448277777;11948277777
1326;11875310000;11448277777;11948277777
1327;11875311000;11448277777;11948277777
1328;11875311000;11448277777;11948277777
1329;11875312000;11448277777;11948277777
1330;11875439000;11448288888;11948288888
1331;11875455000;11448555555;11948555555
1332;11875456000;11448555555;11948555555
1333;11875457000;11448555555;11948555555
1334;11891983000;11489944444;11989944444
1335;11891986000;11489944444;11989944444
1336;11891988000;11489944444;11989944444
1337;11891989000;11489944444;11989944444
1338;11891989000;11489944444;11989944444
1339;11891990000;11489944444;11989944444
1340;11891991000;11489944444;11989944444
1341;11892203000;11489955555;11989955555
1342;11914770000;11490266666;11990266666
1343;11914776000;11490266666;11990266666
1346;12006199000;11531600000;12031600000
1369;12088927000;11615033333;12115033333
1371;12088930000;11615033333;12115033333
1372;12088931000;11615033333;12115033333
1373;12088932000;11615033333;12115033333
1374;12089092000;11615288888;12115288888
1375;12089098000;11615711111;12115711111
1376;12089099000;11615711111;12115711111
1377;12089100000;11615711111;12115711111
1378;12126276000;11656611111;12156611111
1419;12188557000;11781900000;12281900000
1420;12188560000;11781900000;12281900000
1421;12188561000;11781900000;12281900000
1422;12257275000;11823288888;12323288888
1424;12257279000;11823288888;12323288888
1425;12257280000;11823288888;12323288888
1426;12257281000;11823288888;12323288888
1427;12257282000;11823288888;12323288888
1428;12257283000;11823288888;12323288888
1429;12257437000;11823300000;12323300000
1430;12257444000;11823577777;12323577777
1431;12257445000;11823577777;12323577777
1432;12257446000;11823577777;12323577777
1433;12259223000;11864966666;12364966666
1434;12259227000;11864966666;12364966666
1435;12259228000;11864966666;12364966666
1436;12259229000;11864966666;12364966666
1437;12259230000;11864966666;12364966666
1438;12259231000;11864966666;12364966666
1439;12259232000;11864966666;12364966666
1440;12377690000;11864977777;12364977777
1469;12377705000;11989933333;12489933333
1470;12377706000;11989933333;12489933333
1471;12377707000;11989933333;12489933333
1472;12377708000;11989933333;12489933333
1473;12460196000;11989944444;12489944444
1474;12460203000;11990288888;12490288888
1475;12460204000;11990288888;12490288888
1476;12460205000;11990288888;12490288888
1477;12570036000;12031611111;12531611111
1518;12646202000;12156900000;12656900000
1519;12646206000;12156900000;12656900000
1520;12646207000;12156900000;12656900000
1522;12681250000;12198277777;12698277777
1523;12681254000;12198277777;12698277777
1524;12681255000;12198277777;12698277777
1525;12681256000;12198277777;12698277777
1526;12681257000;12198277777;12698277777
1527;12681258000;12198277777;12698277777
1529;12681268000;12198566666;12698566666
1530;12681269000;12198566666;12698566666
1531;12681280000;12198566666;12698566666
1532;12681392000;12239944444;12739944444
1533;12681395000;12239944444;12739944444
1534;12681396000;12239944444;12739944444
1539;12780700000;12239955555;12739955555
1574;12857721000;12365300000;12865300000
1575;12857723000;12365300000;12865300000
1576;12881642000;12406600000;12906600000
1577;12881646000;12406600000;12906600000
1579;12881648000;12406600000;12906600000
1581;12881649000;12406600000;12906600000
1582;12881650000;12406600000;12906600000
1583;12881810000;12406611111;12906611111
1584;12881817000;12406922222;12906922222
1585;12881818000;12406922222;12906922222
1586;12881820000;12406922222;12906922222
1587;12888748000;12448277777;12948277777
1588;12888752000;12448277777;12948277777
1589;12888753000;12448277777;12948277777
1590;12888754000;12448277777;12948277777
1591;12888755000;12448277777;12948277777
1592;12888756000;12448277777;12948277777
1593;12916521000;12448277777;12948277777
1594;12974939000;12448288888;12948288888
1620;12974954000;12573266666;13073266666
1621;12974956000;12573266666;13073266666
1622;12974957000;12573266666;13073266666
1623;12974958000;12573266666;13073266666
1624;12974959000;12573266666;13073266666
1625;12974960000;12573266666;13073266666
1626;12974960000;12573266666;13073266666
1627;13044216000;12573277777;13073277777
1628;13044232000;12573588888;13073588888
1629;13044233000;12573588888;13073588888
1630;13044234000;12573588888;13073588888
1631;13077444000;12614933333;13114933333
1632;13077447000;12614933333;13114933333
1633;13077448000;12614933333;13114933333
1634;13077449000;12614933333;13114933333
1635;13077450000;12614933333;13114933333
1636;13077451000;12614933333;13114933333
1637;13077452000;12614933333;13114933333
1638;13077665000;12614944444;13114944444
1639;13077668000;12615277777;13115277777
1640;13077670000;12615277777;13115277777
1641;13077670000;12615277777;13115277777
1642;13105154000;12656611111;13156611111
1643;13116835000;12656611111;13156611111
1645;13116901000;12656611111;13156611111
1646;13117321000;12656611111;13156611111
1647;13117323000;12656611111;13156611111
1650;13167526000;12656922222;13156922222
1671;13249444000;12739944444;13239944444
1672;13249459000;12740277777;13240277777
1673;13249461000;12740277777;13240277777
1674;13249462000;12740277777;13240277777
1675;13291238000;12781600000;13281600000
1676;13291241000;12781600000;13281600000
1677;13291242000;12781600000;13281600000
1678;13291243000;12781600000;13281600000
1679;13291244000;12781600000;13281600000
1680;13291245000;12781600000;13281600000
1681;13291246000;12781600000;13281600000
1682;13291382000;12781622222;13281622222
1683;13291385000;12782033333;13282033333
1684;13291386000;12782033333;13282033333
1685;13291387000;12782033333;13282033333
1686;13329954000;12823277777;13323277777
1719;13420628000;12948266666;13448266666
1720;13420631000;12948266666;13448266666
1721;13420633000;12948266666;13448266666
1722;13420633000;12948266666;13448266666
1723;13420635000;12948266666;13448266666
1724;13420636000;12948266666;13448266666
1725;13420637000;12948266666;13448266666
1726;13431263000;12948277777;13448277777
1727;13431269000;12948555555;13448555555
1728;13431270000;12948555555;13448555555
1729;13431272000;12948555555;13448555555
1730;13456656000;12989933333;13489933333
1731;13456660000;12989933333;13489933333
1732;13456661000;12989933333;13489933333
1733;13456662000;12989933333;13489933333
1734;13456663000;12989933333;13489933333
1737;13456908000;12989944444;13489944444
1738;13456914000;12990288888;13490288888
1739;13456915000;12990288888;13490288888
1740;13456916000;12990288888;13490288888
1741;13488922000;13031611111;13531611111
1742;13488925000;13031611111;13531611111
1743;13488927000;13031611111;13531611111
1744;13517494000;13031611111;13531611111
1745;13517497000;13031611111;13531611111
1747;13517575000;13031611111;13531611111
1748;13568232000;13031622222;13531622222
1774;13568248000;13156600000;13656600000
1775;13568249000;13156600000;13656600000
1776;13568250000;13156600000;13656600000
1777;13568251000;13156600000;13656600000
1778;13568252000;13156600000;13656600000
1780;13690818000;13156600000;13656600000
1781;13690979000;13156611111;13656611111
1782;13690986000;13156900000;13656900000
1785;13730356000;13198266666;13698266666
1829;13864743000;13364933333;13864933333
1830;13864747000;13364933333;13864933333
1831;13864749000;13364933333;13864933333
1832;13864750000;13364933333;13864933333
1833;13864751000;13364933333;13864933333
1834;13864752000;13364933333;13864933333
1835;13864753000;13364933333;13864933333
1836;13864828000;13364944444;13864944444
1837;13864831000;13365288888;13865288888
1838;13864832000;13365288888;13865288888
1839;13864833000;13365288888;13865288888
1840;13880443000;13406600000;13906600000
1841;13880447000;13406600000;13906600000
1842;13880448000;13406600000;13906600000
1843;13880449000;13406600000;13906600000
1844;13880450000;13406600000;13906600000
1845;13880451000;13406600000;13906600000
1846;13880452000;13406600000;13906600000
1847;13880528000;13406611111;13906611111
1848;13880530000;13406888888;13906888888
1849;13880531000;13406888888;13906888888
1850;13880532000;13406888888;13906888888
1851;13905121000;13448277777;13948277777
1852;13918102000;13448277777;13948277777
1853;13918156000;13448277777;13948277777
1855;13918219000;13448277777;13948277777
1857;13918314000;13448277777;13948277777
1858;13969057000;13448288888;13948288888
1884;14079111000;13573266666;14073266666
1885;14079113000;13573266666;14073266666
1886;14079114000;13573266666;14073266666
1889;14091992000;13573266666;14073266666
1890;14091996000;13573266666;14073266666
1891;14092209000;13573277777;14073277777
1892;14092225000;13573566666;14073566666
1893;14092226000;13573566666;14073566666
1894;14092227000;13573566666;14073566666
1895;14130287000;13614933333;14114933333
1935;14214166000;13739944444;14239944444
1939;14214182000;13781600000;14281600000
1940;14214183000;13781600000;14281600000
1941;14214184000;13781600000;14281600000
1942;14214185000;13781600000;14281600000
1943;14214186000;13781600000;14281600000
1944;14214187000;13781600000;14281600000
1945;14214188000;13781600000;14281600000
1946;14246434000;13781611111;14281611111
1947;14246439000;13781888888;14281888888
1948;14246440000;13781888888;14281888888
1949;14246441000;13781888888;14281888888
1950;14270677000;13823255555;14323255555
1951;14270680000;13823255555;14323255555
1952;14270681000;13823255555;14323255555
1953;14270682000;13823255555;14323255555
1954;14270683000;13823255555;14323255555
1955;14270684000;13823255555;14323255555
1956;14270685000;13823255555;14323255555
1957;14270876000;13823277777;14323277777
1959;14271010000;13823533333;14323533333
1960;14271023000;13823533333;14323533333
1961;14300165000;13864944444;14364944444
1962;14318637000;13864944444;14364944444
1963;14318640000;13864944444;14364944444
1964;14318653000;13864944444;14364944444
1965;14318655000;13864944444;14364944444
1966;14318882000;13864944444;14364944444
1967;14319020000;13864944444;14364944444
1968;14369280000;13864955555;14364955555
1994;14369296000;13989911111;14489911111
1995;14369297000;13989911111;14489911111
1996;14369298000;13989911111;14489911111
1997;14369299000;13989911111;14489911111
1998;14369300000;13989911111;14489911111
1999;14369301000;13989911111;14489911111
2001;14492371000;13989922222;14489922222
2002;14492394000;13990233333;14490233333
2003;14492395000;13990233333;14490233333
2004;14492396000;13990233333;14490233333
2005;14532040000;14031611111;14531611111
2045;14667283000;14156611111;14656611111
2049;14667289000;14198266666;14698266666
2050;14667291000;14198266666;14698266666
2051;14667292000;14198266666;14698266666
2052;14667293000;14198266666;14698266666
2054;14684919000;14198266666;14698266666
2056;14685078000;14198277777;14698277777
2057;14685094000;14198544444;14698544444
2058;14685095000;14198544444;14698544444
2059;14685096000;14198544444;14698544444
2060;14708928000;14239944444;14739944444
2061;14708932000;14239944444;14739944444
2062;14708933000;14239944444;14739944444
2063;14708933000;14239944444;14739944444
2064;14708934000;14239944444;14739944444
2065;14708935000;14239944444;14739944444
2066;14708936000;14239944444;14739944444
2067;14709115000;14239955555;14739955555
2068;14709118000;14240288888;14740288888
2069;14709119000;14240288888;14740288888
2072;14726416000;14281611111;14781611111
2088;14811581000;14323244444;14823244444
2102;14852103000;14365266666;14865266666
2103;14852106000;14365266666;14865266666
2104;14892991000;14406600000;14906600000
2105;14892994000;14406600000;14906600000
2106;14892995000;14406600000;14906600000
2107;14892996000;14406600000;14906600000
2108;14892997000;14406600000;14906600000
2110;14893538000;14406600000;14906600000
2111;14893754000;14406611111;14906611111
2112;14893769000;14406944444;14906944444
2113;14893770000;14406944444;14906944444
2114;14893771000;14406944444;14906944444
2115;14932655000;14448277777;14948277777
2156;15039860000;14573588888;15073588888
2159;15075123000;14614933333;15114933333
2160;15075126000;14614933333;15114933333
2161;15075127000;14614933333;15114933333
2162;15075128000;14614933333;15114933333
2163;15075129000;14614933333;15114933333
2164;15075130000;14614933333;15114933333
2165;15075131000;14614933333;15114933333
2166;15075352000;14614944444;15114944444
2167;15075368000;14615288888;15115288888
2168;15075369000;14615288888;15115288888
2169;15075370000;14615288888;15115288888
2170;15091563000;14656611111;15156611111
2171;15091566000;14656611111;15156611111
2172;15091567000;14656611111;15156611111
2173;15091568000;14656611111;15156611111
2178;15091679000;14656922222;15156922222
2179;15091682000;14656922222;15156922222
2180;15091683000;14656922222;15156922222
2184;15170281000;14698277777;15198277777
2214;15294687000;14823277777;15323277777
2215;15294691000;14823277777;15323277777
2216;15294692000;14823277777;15323277777
2217;15294693000;14823277777;15323277777
2218;15294694000;14823277777;15323277777
2219;15294695000;14823277777;15323277777
2220;15294696000;14823277777;15323277777
2221;15294903000;14823288888;15323288888
2222;15294918000;14823577777;15323577777
2223;15294920000;14823577777;15323577777
2224;15294921000;14823577777;15323577777
2225;15332315000;14864944444;15364944444
2261;15449961000;14989933333;15489933333
2269;15485494000;15031611111;15531611111
2270;15485498000;15031611111;15531611111
2271;15485499000;15031611111;15531611111
2272;15485500000;15031611111;15531611111
2273;15485501000;15031611111;15531611111
2274;15485502000;15031611111;15531611111
2275;15485503000;15031611111;15531611111
2277;15485617000;15031988888;15531988888
2278;15485621000;15031988888;15531988888
2279;15485622000;15031988888;15531988888
2280;15514954000;15073277777;15573277777
2281;15514957000;15073277777;15573277777
2282;15514958000;15073277777;15573277777
2283;15514959000;15073277777;15573277777
2284;15514960000;15073277777;15573277777
2285;15514961000;15073277777;15573277777
2286;15514962000;15073277777;15573277777
2287;15515169000;15073288888;15573288888
2288;15515185000;15073611111;15573611111
2289;15515186000;15073611111;15573611111
2290;15515187000;15073611111;15573611111
2291;15531071000;15114944444;15614944444
2316;15654466000;15198266666;15698266666
2326;15694115000;15239944444;15739944444
2327;15694118000;15239944444;15739944444
2328;15694119000;15239944444;15739944444
2329;15694120000;15239944444;15739944444
2330;15694121000;15239944444;15739944444
2331;15694327000;15239955555;15739955555
2332;15694342000;15240288888;15740288888
2334;15694344000;15240288888;15740288888
2335;15733735000;15281611111;15781611111
2368;15976925000;15406600000;15906600000
2427;16051520000;15614933333;16114933333
2429;16072645000;15614933333;16114933333
2431;16072771000;15615300000;16115300000
2432;16072774000;15615300000;16115300000
2433;16072775000;15615300000;16115300000
2434;16077536000;15656611111;16156611111
2435;16077549000;15656611111;16156611111
2436;16077550000;15656611111;16156611111
2437;16077551000;15656611111;16156611111
2438;16077552000;15656611111;16156611111
2439;16077553000;15656611111;16156611111
2443;16187866000;15656911111;16156911111
2485;16273080000;15823322222;16323322222
2486;16273096000;15823600000;16323600000
2487;16273097000;15823600000;16323600000
2488;16273098000;15823600000;16323600000
2489;16298297000;15864944444;16364944444
2490;16298301000;15864944444;16364944444
2491;16298302000;15864944444;16364944444
2492;16298303000;15864944444;16364944444
2493;16298304000;15864944444;16364944444
2494;16298305000;15864944444;16364944444
2495;16298306000;15864944444;16364944444
2496;16298542000;15864955555;16364955555
2497;16298558000;15865266666;16365266666
2498;16298559000;15865266666;16365266666
2499;16298560000;15865266666;16365266666
2500;16434626000;15906611111;16406611111
2538;16580213000;16031655555;16531655555
2586;16664213000;16198566666;16698566666
2587;16664217000;16198566666;16698566666
2588;16675547000;16239966666;16739966666
2589;16675550000;16239966666;16739966666
2590;16675551000;16239966666;16739966666
2591;16675552000;16239966666;16739966666
2592;16675553000;16239966666;16739966666
2596;16820364000;16240333333;16740333333
2643;16894436000;16448277777;16948277777
2644;16894440000;16448277777;16948277777
2645;16894441000;16448277777;16948277777
2646;16894442000;16448277777;16948277777
2647;16894443000;16448277777;16948277777
2648;16894444000;16448277777;16948277777
2649;16894445000;16448277777;16948277777
2650;16894644000;16448288888;16948288888
2651;16894659000;16448566666;16948566666
2652;16894660000;16448566666;16948566666
2653;16894661000;16448566666;16948566666
2654;17026827000;16489944444;16989944444
2697;17067293000;16615255555;17115255555
2698;17089658000;16656611111;17156611111
2699;17089661000;16656611111;17156611111
2700;17089663000;16656611111;17156611111
2701;17089664000;16656611111;17156611111
2702;17089665000;16656611111;17156611111
2703;17089666000;16656611111;17156611111
2704;17089667000;16656611111;17156611111
2705;17089874000;16656622222;17156622222
2706;17089890000;16656911111;17156911111
2707;17089891000;16656911111;17156911111
2708;17089892000;16656911111;17156911111
2709;17110223000;16698277777;17198277777
2710;17110227000;16698277777;17198277777
2712;17110301000;16698277777;17198277777
2713;17110303000;16698277777;17198277777
2714;17110304000;16698277777;17198277777
2715;17110305000;16698277777;17198277777
2716;17199694000;16698288888;17198288888
2749;17274552000;16823300000;17323300000
2750;17274558000;16823566666;17323566666
2751;17274559000;16823566666;17323566666
2752;17274560000;16823566666;17323566666
2753;17303288000;16864944444;17364944444
2754;17303292000;16864944444;17364944444
2755;17303293000;16864944444;17364944444
2756;17303294000;16864944444;17364944444
2757;17303295000;16864944444;17364944444
2758;17303296000;16864944444;17364944444
2759;17303297000;16864944444;17364944444
2760;17429288000;16864955555;17364955555
2801;17429294000;17031611111;17531611111
2802;17429296000;17031611111;17531611111
2803;17429297000;17031611111;17531611111
2804;17490305000;17031622222;17531622222
2805;17490312000;17031933333;17531933333
2806;17490313000;17031933333;17531933333
2807;17490314000;17031933333;17531933333
2808;17510336000;17073277777;17573277777
2809;17510340000;17073277777;17573277777
2810;17510341000;17073277777;17573277777
2811;17510342000;17073277777;17573277777
2812;17510343000;17073277777;17573277777
2813;17510344000;17073277777;17573277777
2817;17510544000;17073588888;17573588888
2818;17510547000;17073588888;17573588888
2819;17535829000;17114944444;17614944444
2843;17657069000;17198266666;17698266666
2857;17723694000;17239944444;17739944444
2861;17723719000;17240266666;17740266666
2863;17736372000;17281611111;17781611111
2892;17827788000;17364944444;17864944444
2906;17861257000;17406888888;17906888888
2907;18021263000;17448277777;17948277777
2958;18036292000;17614955555;18114955555
2959;18036298000;17615266666;18115266666
2960;18036299000;17615266666;18115266666
2961;18036301000;17615266666;18115266666
2962;18227709000;17656611111;18156611111
3013;18266964000;17823288888;18323288888
3014;18266980000;17823544444;18323544444
3015;18266981000;17823544444;18323544444
3016;18266982000;17823544444;18323544444
3017;18290439000;17864944444;18364944444
3018;18290443000;17864944444;18364944444
3019;18290444000;17864944444;18364944444
3020;18290445000;17864944444;18364944444
3021;18290446000;17864944444;18364944444
3022;18290447000;17864944444;18364944444
3023;18290448000;17864944444;18364944444
3024;18290648000;17864955555;18364955555
3025;18290663000;17865244444;18365244444
3026;18290665000;17865244444;18365244444
3027;18290666000;17865244444;18365244444
3028;18312832000;17906611111;18406611111
3029;18312836000;17906611111;18406611111
3030;18312837000;17906611111;18406611111
3031;18312838000;17906611111;18406611111
3032;18312839000;17906611111;18406611111
3033;18312839000;17906611111;18406611111
3034;18312840000;17906611111;18406611111
3035;18312978000;17906622222;18406622222
3042;18324937000;17948266666;18448266666
3043;18324939000;17948266666;18448266666
3044;18324940000;17948266666;18448266666
3045;18324941000;17948266666;18448266666
3046;18416372000;17948277777;18448277777
3067;18416387000;18031611111;18531611111
3068;18498049000;18031622222;18531622222
3069;18498055000;18031900000;18531900000
3070;18498057000;18031900000;18531900000
3071;18498058000;18031900000;18531900000
3072;18536618000;18073277777;18573277777
3111;18620430000;18198266666;18698266666
3125;18641735000;18240277777;18740277777
3126;18641738000;18240277777;18740277777
3127;18686183000;18281611111;18781611111
3128;18686187000;18281611111;18781611111
3129;18686188000;18281611111;18781611111
3130;18686189000;18281611111;18781611111
3131;18686190000;18281611111;18781611111
3132;18686191000;18281611111;18781611111
3133;18686192000;18281611111;18781611111
3134;18686391000;18281622222;18781622222
3136;18686407000;18281900000;18781900000
3137;18686408000;18281900000;18781900000
3138;18708743000;18323277777;18823277777
3139;18708746000;18323277777;18823277777
3140;18708747000;18323277777;18823277777
3141;18708748000;18323277777;18823277777
3142;18708749000;18323277777;18823277777
3143;18708750000;18323277777;18823277777
3144;18708751000;18323277777;18823277777
3147;18804104000;18323555555;18823555555
3182;18915598000;18489944444;18989944444
3183;18915601000;18489944444;18989944444
3184;18915602000;18489944444;18989944444
3185;18915603000;18489944444;18989944444
3186;18915604000;18489944444;18989944444
3187;18915605000;18489944444;18989944444
3188;18915606000;18489944444;18989944444
3189;18915761000;18489955555;18989955555
3190;18915767000;18490266666;18990266666
3191;18915769000;18490266666;18990266666
3192;18915770000;18490266666;18990266666
3193;18941188000;18531600000;19031600000
3223;18964187000;18615266666;19115266666
3240;19100599000;18698277777;19198277777
3241;19100603000;18698277777;19198277777
3242;19100604000;18698277777;19198277777
3243;19100605000;18698277777;19198277777
3244;19100776000;18698288888;19198288888
3246;19100778000;18698566666;19198566666
3247;19100779000;18698566666;19198566666
3248;19139951000;18739933333;19239933333
3278;19208826000;18823566666;19323566666
3292;19269255000;18906611111;19406611111
3293;19269259000;18906611111;19406611111
3294;19269260000;18906611111;19406611111
3295;19269271000;18906611111;19406611111
3296;19269272000;18906611111;19406611111
3297;19269274000;18906611111;19406611111
3298;19269275000;18906611111;19406611111
3299;19269421000;18906622222;19406622222
3300;19269425000;18906900000;19406900000
3301;19269426000;18906900000;19406900000
3302;19269447000;18906900000;19406900000
3303;19442686000;18948266666;19448266666
3343;19578802000;19073288888;19573288888
3395;19578818000;19281611111;19781611111
3396;19578819000;19281611111;19781611111
3397;19578820000;19281611111;19781611111
3398;19810791000;19281622222;19781622222
3449;19810806000;19489944444;19989944444
3450;19810808000;19489944444;19989944444
3451;19810809000;19489944444;19989944444
3452;19810809000;19489944444;19989944444
3453;20022225000;19489955555;19989955555
3503;20022241000;19698277777;20198277777
3504;20022242000;19698277777;20198277777
3505;20022243000;19698277777;20198277777
3506;20022244000;19698277777;20198277777
3507;20022245000;19698277777;20198277777
3508;20215440000;19698288888;20198288888
3557;20215455000;19906611111;20406611111
3558;20215456000;19906611111;20406611111
3559;20215457000;19906611111;20406611111
3560;20215458000;19906611111;20406611111
3561;20215459000;19906611111;20406611111
3562;20215460000;19906611111;20406611111
3563;20314675000;19906622222;20406622222
3564;20314691000;19906922222;20406922222
3565;20314692000;19906922222;20406922222
3568;20328198000;19948266666;20448266666
3586;20445797000;19990266666;20490266666
3610;20624752000;20073588888;20573588888
3657;20823333000;20281611111;20781611111
3706;20985054000;20448288888;20948288888
3757;20985061000;20656611111;21156611111
3758;20985062000;20656611111;21156611111
3759;20985063000;20656611111;21156611111
3760;20985064000;20656611111;21156611111
3761;21090169000;20656622222;21156622222
3762;21090185000;20656911111;21156911111
3763;21090186000;20656911111;21156911111
3764;21090187000;20656911111;21156911111
3765;21106416000;20698277777;21198277777
3766;21106420000;20698277777;21198277777
3767;21106421000;20698277777;21198277777
3768;21106422000;20698277777;21198277777
3769;21106423000;20698277777;21198277777
3770;21106424000;20698277777;21198277777
3771;21106425000;20698277777;21198277777
3772;21234198000;20698288888;21198288888
3814;21328837000;20864944444;21364944444
3816;21329064000;20864955555;21364955555
3827;21331744000;20906622222;21406622222
3843;21337613000;20989933333;21489933333
3847;21337618000;20989933333;21489933333
3848;21337629000;20989933333;21489933333
3851;21446033000;20990255555;21490255555
3866;21504137000;21073277777;21573277777
3867;21504141000;21073277777;21573277777
3868;21504142000;21073277777;21573277777
3870;21504143000;21073277777;21573277777
3871;21504298000;21073288888;21573288888
3872;21504305000;21073577777;21573577777
3873;21504306000;21073577777;21573577777
3874;21504307000;21073577777;21573577777
3875;21531531000;21114944444;21614944444
3897;21675547000;21198266666;21698266666
3913;21782376000;21239944444;21739944444
3967;21890415000;21448277777;21948277777
3968;21890418000;21448277777;21948277777
3969;21890419000;21448277777;21948277777
3970;21890619000;21448288888;21948288888
3971;21890635000;21448544444;21948544444
3972;21890636000;21448544444;21948544444
3973;21890637000;21448544444;21948544444
3974;21911646000;21489944444;21989944444
3975;21911649000;21489944444;21989944444
3976;21911650000;21489944444;21989944444
3977;21911651000;21489944444;21989944444
3978;21911652000;21489944444;21989944444
3979;21911653000;21489944444;21989944444
3980;21911654000;21489944444;21989944444
3981;21911855000;21489955555;21989955555
3982;21911870000;21490266666;21990266666
3983;21911871000;21490266666;21990266666
3984;21911872000;21490266666;21990266666
3985;21931987000;21531600000;22031600000
3996;22020463000;21573266666;22073266666
4021;22099308000;21656611111;22156611111
4022;22099312000;21656611111;22156611111
4023;22099313000;21656611111;22156611111
4024;22099314000;21656611111;22156611111
4025;22099469000;21656622222;22156622222
4026;22099475000;21656900000;22156900000
4027;22099476000;21656900000;22156900000
4028;22099477000;21656900000;22156900000
4029;22127053000;21698277777;22198277777
4030;22127057000;21698277777;22198277777
4031;22127058000;21698277777;22198277777
4032;22127059000;21698277777;22198277777
4033;22127060000;21698277777;22198277777
4034;22127061000;21698277777;22198277777
4035;22127071000;21698277777;22198277777
4036;22127226000;21698288888;22198288888
4037;22127232000;21698566666;22198566666
4038;22127234000;21698566666;22198566666
4039;22127235000;21698566666;22198566666
4040;22152798000;21739933333;22239933333
4062;22264139000;21823277777;22323277777
4073;22304577000;21864944444;22364944444
4074;22304581000;21864944444;22364944444
4075;22304582000;21864944444;22364944444
4076;22304583000;21864944444;22364944444
4077;22304584000;21864944444;22364944444
4078;22304585000;21864944444;22364944444
4079;22304586000;21864944444;22364944444
4080;22429508000;21864955555;22364955555
4125;22429523000;22031911111;22531911111
4126;22429524000;22031911111;22531911111
4129;22515467000;22073277777;22573277777
4130;22515470000;22073277777;22573277777
4131;22515471000;22073277777;22573277777
4132;22515472000;22073277777;22573277777
4133;22515474000;22073277777;22573277777
4134;22515474000;22073277777;22573277777
4135;22515600000;22073288888;22573288888
4136;22515606000;22073588888;22573588888
4137;22515607000;22073588888;22573588888
4138;22515608000;22073588888;22573588888
4139;22535351000;22114944444;22614944444
4161;22662981000;22198266666;22698266666
4179;22827331000;22239955555;22739955555
4229;22827347000;22448277777;22948277777
4234;22996439000;22448288888;22948288888
4282;22996454000;22656611111;23156611111
4283;22996456000;22656611111;23156611111
4284;22996456000;22656611111;23156611111
4285;22996457000;22656611111;23156611111
4286;22996458000;22656611111;23156611111
4287;22996459000;22656611111;23156611111
4288;22996460000;22656611111;23156611111
4289;23199113000;22656622222;23156622222
4334;23199128000;22823566666;23323566666
4335;23199129000;22823566666;23323566666
4336;23199130000;22823566666;23323566666
4337;23298758000;22864944444;23364944444
4338;23298762000;22864944444;23364944444
4339;23298763000;22864944444;23364944444
4340;23298764000;22864944444;23364944444
4341;23298765000;22864944444;23364944444
4342;23298766000;22864944444;23364944444
4343;23298767000;22864944444;23364944444
4344;23298966000;22864955555;23364955555
4345;23298981000;22865266666;23365266666
4346;23298983000;22865266666;23365266666
4347;23298983000;22865266666;23365266666
4348;23319816000;22906611111;23406611111
4349;23319819000;22906611111;23406611111
4350;23319820000;22906611111;23406611111
4351;23319821000;22906611111;23406611111
4352;23319822000;22906611111;23406611111
4353;23319823000;22906611111;23406611111
4354;23319824000;22906611111;23406611111
4355;23320022000;22906622222;23406622222
4356;23320038000;22906911111;23406911111
4361;23382823000;22948277777;23448277777
4388;23466278000;23032066666;23532066666
4389;23466284000;23032522222;23532522222
4390;23466285000;23032522222;23532522222
4391;23466287000;23032522222;23532522222
4392;23506663000;23073255555;23573255555
4393;23506666000;23073255555;23573255555
4394;23506668000;23073255555;23573255555
4396;23506669000;23073255555;23573255555
4397;23506680000;23073255555;23573255555
4398;23506681000;23073255555;23573255555
4399;23506825000;23073277777;23573277777
4400;23506828000;23073566666;23573566666
4401;23506830000;23073566666;23573566666
4402;23506831000;23073566666;23573566666
4403;23546483000;23114922222;23614922222
4430;23606001000;23198244444;23698244444
4440;23645315000;23239944444;23739944444
4441;23645319000;23239944444;23739944444
4442;23645320000;23239944444;23739944444
4443;23645518000;23239955555;23739955555
4446;23645533000;23240300000;23740300000
4448;23679748000;23281611111;23781611111
4449;23679751000;23281611111;23781611111
4450;23679752000;23281611111;23781611111
4451;23679753000;23281611111;23781611111
4452;23679754000;23281611111;23781611111
4453;23679755000;23281611111;23781611111
4454;23801451000;23281622222;23781622222
4491;23801466000;23448277777;23948277777
4492;23801468000;23448277777;23948277777
4493;23801469000;23448277777;23948277777
4494;23801470000;23448277777;23948277777
4495;23801471000;23448277777;23948277777
4496;23801472000;23448277777;23948277777
4498;23885456000;23448288888;23948288888
4499;23885463000;23448533333;23948533333
4500;23885472000;23448533333;23948533333
4501;23885472000;23448533333;23948533333
4502;24004425000;23489944444;23989944444
4545;24074410000;23615222222;24115222222
4548;24101467000;23656588888;24156588888
4549;24101471000;23656588888;24156588888
4550;24101472000;23656588888;24156588888
4551;24101473000;23656588888;24156588888
4552;24101474000;23656588888;24156588888
4553;24101590000;23656611111;24156611111
4554;24101606000;23656877777;24156877777
4555;24101607000;23656877777;24156877777
4556;24101608000;23656877777;24156877777
4557;24128927000;23698277777;24198277777
4558;24128931000;23698277777;24198277777
4559;24128932000;23698277777;24198277777
4560;24128933000;23698277777;24198277777
4561;24128934000;23698277777;24198277777
4562;24128935000;23698277777;24198277777
4563;24128936000;23698277777;24198277777
4564;24129149000;23698288888;24198288888
4565;24129165000;23698555555;24198555555
4566;24129166000;23698555555;24198555555
4567;24129167000;23698555555;24198555555
4568;24153160000;23739933333;24239933333
4590;24267605000;23823266666;24323266666
4601;24307973000;23864944444;24364944444
4602;24307976000;23864944444;24364944444
4603;24307977000;23864944444;24364944444
4604;24307979000;23864944444;24364944444
4605;24307980000;23864944444;24364944444
4606;24307981000;23864944444;24364944444
4607;24307982000;23864944444;24364944444
4608;24397191000;23864955555;24364955555
4655;24397207000;24031900000;24531900000
4656;24498790000;24073277777;24573277777
4657;24498794000;24073277777;24573277777
4659;24498967000;24073277777;24573277777
4660;24498969000;24073277777;24573277777
4661;24498970000;24073277777;24573277777
4662;24498971000;24073277777;24573277777
4663;24499180000;24073288888;24573288888
4664;24499196000;24073577777;24573577777
4665;24499197000;24073577777;24573577777
4666;24499198000;24073577777;24573577777
4667;24523974000;24114944444;24614944444
4668;24523977000;24114944444;24614944444
4669;24523978000;24114944444;24614944444
4670;24523979000;24114944444;24614944444
4671;24523980000;24114944444;24614944444
4672;24523981000;24114944444;24614944444
4673;24523982000;24114944444;24614944444
4674;24524196000;24114955555;24614955555
4675;24524212000;24115233333;24615233333
4676;24524213000;24115233333;24615233333
4677;24524214000;24115233333;24615233333
4678;24544954000;24156600000;24656600000
4694;24626376000;24198266666;24698266666
4709;24667682000;24240288888;24740288888
4710;24667686000;24240288888;24740288888
4711;24708325000;24281611111;24781611111
4712;24708328000;24281611111;24781611111
4713;24708329000;24281611111;24781611111
4714;24708330000;24281611111;24781611111
4715;24708331000;24281611111;24781611111
4716;24708332000;24281611111;24781611111
4717;24708333000;24281611111;24781611111
4718;24798522000;24281622222;24781622222
4758;24798537000;24448277777;24948277777
4759;24798538000;24448277777;24948277777
4760;24798539000;24448277777;24948277777
4761;24798540000;24448277777;24948277777
4762;25033393000;24448288888;24948288888
4810;25033408000;24656611111;25156611111
4811;25033409000;24656611111;25156611111
4812;25033410000;24656611111;25156611111
4813;25033411000;24656611111;25156611111
4814;25033412000;24656611111;25156611111
4815;25033413000;24656611111;25156611111
4816;25033414000;24656611111;25156611111
4817;25083887000;24656622222;25156622222
4818;25083902000;24656911111;25156911111
4819;25083903000;24656911111;25156911111
4820;25083904000;24656911111;25156911111
4821;25103906000;24698277777;25198277777
4822;25103909000;24698277777;25198277777
4823;25103910000;24698277777;25198277777
4824;25103911000;24698277777;25198277777
4825;25103912000;24698277777;25198277777
4826;25103913000;24698277777;25198277777
4827;25103914000;24698277777;25198277777
4828;25104114000;24698288888;25198288888
4829;25104129000;24698577777;25198577777
4830;25104130000;24698577777;25198577777
4833;25116213000;24739933333;25239933333
4834;25116217000;24739933333;25239933333
4836;25134898000;24739933333;25239933333
4838;25134901000;24739933333;25239933333
4839;25185384000;24739944444;25239944444
4866;25309223000;24864944444;25364944444
4867;25309243000;24864944444;25364944444
4868;25309245000;24864944444;25364944444
4869;25309245000;24864944444;25364944444
4870;25309246000;24864944444;25364944444
4871;25309247000;24864944444;25364944444
4872;25309448000;24864955555;25364955555
4873;25309462000;24865288888;25365288888
4874;25309464000;24865288888;25365288888
4875;25309465000;24865288888;25365288888
4876;25349002000;24906633333;25406633333
4906;25407457000;24990277777;25490277777
4915;25452118000;25031600000;25531600000
4916;25452328000;25031611111;25531611111
4917;25452344000;25031933333;25531933333
4918;25452345000;25031933333;25531933333
4919;25452346000;25031933333;25531933333
4920;25481169000;25073277777;25573277777
4921;25481173000;25073277777;25573277777
4922;25481174000;25073277777;25573277777
4923;25481175000;25073277777;25573277777
4924;25481176000;25073277777;25573277777
4925;25481177000;25073277777;25573277777
4926;25481178000;25073277777;25573277777
4927;25481384000;25073288888;25573288888
4928;25481399000;25073611111;25573611111
4929;25481401000;25073611111;25573611111
4930;25481402000;25073611111;25573611111
4933;25655555000;25114944444;25614944444
4971;25736214000;25239955555;25739955555
4978;25736233000;25281633333;25781633333
4980;25736235000;25281633333;25781633333
4981;25736236000;25281633333;25781633333
4982;25736344000;25281655555;25781655555
4988;25736360000;25323277777;25823277777
4989;25736362000;25323277777;25823277777
4990;25736363000;25323277777;25823277777
4991;25736364000;25323277777;25823277777
4992;25736366000;25323277777;25823277777
4994;25821645000;25323588888;25823588888
5017;25866334000;25406900000;25906900000
5018;25866338000;25406900000;25906900000
5019;25900488000;25448311111;25948311111
5020;25900492000;25448311111;25948311111
5021;25900493000;25448311111;25948311111
5022;25900494000;25448311111;25948311111
5023;25900495000;25448311111;25948311111
5024;25900496000;25448311111;25948311111
5025;25900497000;25448311111;25948311111
5026;26033819000;25448322222;25948322222
5074;26033826000;25656611111;26156611111
5075;26033827000;25656611111;26156611111
5076;26033828000;25656611111;26156611111
5077;26033829000;25656611111;26156611111
5078;26033830000;25656611111;26156611111
5079;26033831000;25656611111;26156611111
5080;26033832000;25656611111;26156611111
5081;26101965000;25656622222;26156622222
5083;26101982000;25656933333;26156933333
5084;26101983000;25656933333;26156933333
5085;26119729000;25698277777;26198277777
5086;26119732000;25698277777;26198277777
5087;26119733000;25698277777;26198277777
5088;26119734000;25698277777;26198277777
5089;26119735000;25698277777;26198277777
5090;26119736000;25698277777;26198277777
5091;26119737000;25698277777;26198277777
5092;26119867000;25698288888;26198288888
5093;26119872000;25698566666;26198566666
5094;26119873000;25698566666;26198566666
5095;26136414000;25698566666;26198566666
5096;26137117000;25739933333;26239933333
5103;26137274000;25739944444;26239944444
5107;26137280000;25781600000;26281600000
5110;26141338000;25781600000;26281600000
5111;26141341000;25781600000;26281600000
5112;26141352000;25781600000;26281600000
5113;26141353000;25781600000;26281600000
5114;26228351000;25781611111;26281611111
5121;26228357000;25823277777;26323277777
5122;26228359000;25823277777;26323277777
5123;26228360000;25823277777;26323277777
5124;26228361000;25823277777;26323277777
5125;26269962000;25823288888;26323288888
5126;26269978000;25823566666;26323566666
5127;26269980000;25823566666;26323566666
5128;26269981000;25823566666;26323566666
5129;26310678000;25864977777;26364977777
5130;26310681000;25864977777;26364977777
5131;26310682000;25864977777;26364977777
5132;26310683000;25864977777;26364977777
5133;26310684000;25864977777;26364977777
5134;26310685000;25864977777;26364977777
5135;26310686000;25864977777;26364977777
5136;26436516000;25864988888;26364988888
5175;26436533000;26031600000;26531600000
5176;26436534000;26031600000;26531600000
5177;26436535000;26031600000;26531600000
5178;26436536000;26031600000;26531600000
5180;26488817000;26031611111;26531611111
5181;26488840000;26031933333;26531933333
5183;26488841000;26031933333;26531933333
5184;26511690000;26073277777;26573277777
5185;26511694000;26073277777;26573277777
5186;26511695000;26073277777;26573277777
5187;26511696000;26073277777;26573277777
5188;26511697000;26073277777;26573277777
5189;26511698000;26073277777;26573277777
5190;26511699000;26073277777;26573277777
5191;26511832000;26073288888;26573288888
5192;26511848000;26073600000;26573600000
5193;26511849000;26073600000;26573600000
5194;26511850000;26073600000;26573600000
5195;26533923000;26114944444;26614944444
5196;26533927000;26114944444;26614944444
5197;26533928000;26114944444;26614944444
5198;26536951000;26114944444;26614944444
5199;26536953000;26114944444;26614944444
5200;26537006000;26114944444;26614944444
5201;26537009000;26114944444;26614944444
5202;26616429000;26114955555;26614955555
5228;26616435000;26239944444;26739944444
5229;26616437000;26239944444;26739944444
5230;26616438000;26239944444;26739944444
5231;26616439000;26239944444;26739944444
5232;26616449000;26239944444;26739944444
5233;26616450000;26239944444;26739944444
5234;26616451000;26239944444;26739944444
5235;26699340000;26239955555;26739955555
5236;26699346000;26240300000;26740300000
5237;26699348000;26240300000;26740300000
5238;26699348000;26240300000;26740300000
5239;26727910000;26281611111;26781611111
5240;26727913000;26281611111;26781611111
5241;26727914000;26281611111;26781611111
5242;26727915000;26281611111;26781611111
5243;26727916000;26281611111;26781611111
5244;26727917000;26281611111;26781611111
5245;26727918000;26281611111;26781611111
5246;26728085000;26281622222;26781622222
5247;26728091000;26281911111;26781911111
5248;26728092000;26281911111;26781911111
5249;26728093000;26281911111;26781911111
5250;26754703000;26323277777;26823277777
5272;26870920000;26406600000;26906600000
5283;26911651000;26448277777;26948277777
5284;26911655000;26448277777;26948277777
5285;26911656000;26448277777;26948277777
5286;26911657000;26448277777;26948277777
5287;26911658000;26448277777;26948277777
5288;26911659000;26448277777;26948277777
5289;26911660000;26448277777;26948277777
5290;26911815000;26448288888;26948288888
5291;26911830000;26448555555;26948555555
5292;26911831000;26448555555;26948555555
5293;26911832000;26448555555;26948555555
5294;26951522000;26489944444;26989944444
5318;27026811000;26573266666;27073266666
5331;27056467000;26614933333;27114933333
5332;27056470000;26614933333;27114933333
5333;27056472000;26614933333;27114933333
5334;27056606000;26614944444;27114944444
5335;27056621000;26615277777;27115277777
5338;27238161000;26656611111;27156611111
5382;27298013000;26823266666;27323266666
5384;27316548000;26823266666;27323266666
5385;27316551000;26823266666;27323266666
5386;27316552000;26823266666;27323266666
5388;27316563000;26823266666;27323266666
5389;27316686000;26823277777;27323277777
5390;27316701000;26823555555;27323555555
5391;27316702000;26823555555;27323555555
5392;27316703000;26823555555;27323555555
5393;27451986000;26864944444;27364944444
5436;27503786000;26990277777;27490277777
5437;27507024000;27031611111;27531611111
5438;27507028000;27031611111;27531611111
5439;27507029000;27031611111;27531611111
5440;27507030000;27031611111;27531611111
5441;27507031000;27031611111;27531611111
5442;27507032000;27031611111;27531611111
5443;27507033000;27031611111;27531611111
5444;27507248000;27031622222;27531622222
5445;27507264000;27031911111;27531911111
5446;27507265000;27031911111;27531911111
5447;27507266000;27031911111;27531911111
5448;27528668000;27073277777;27573277777
5449;27528671000;27073277777;27573277777
5450;27528672000;27073277777;27573277777
5451;27528673000;27073277777;27573277777
5452;27528674000;27073277777;27573277777
5453;27528675000;27073277777;27573277777
5454;27528676000;27073277777;27573277777
5455;27613851000;27073288888;27573288888
5477;27649623000;27156611111;27656611111
5478;27649629000;27156900000;27656900000
5479;27649630000;27156900000;27656900000
5480;27649631000;27156900000;27656900000
5481;27681196000;27198266666;27698266666
5482;27681200000;27198266666;27698266666
5483;27681209000;27198266666;27698266666
5485;27705647000;27198266666;27698266666
5486;27705650000;27198266666;27698266666
5487;27705652000;27198266666;27698266666
5488;27705851000;27198277777;27698277777
5489;27705867000;27198555555;27698555555
5490;27705868000;27198555555;27698555555
5491;27705869000;27198555555;27698555555
5492;27714245000;27239933333;27739933333
5493;27714248000;27239933333;27739933333
5494;27714249000;27239933333;27739933333
5495;27714250000;27239933333;27739933333
5496;27714251000;27239933333;27739933333
5497;27714252000;27239933333;27739933333
5498;27714253000;27239933333;27739933333
5499;27714468000;27239955555;27739955555
