seqnum;now;rtptime;deadline
1;9637516000;8860811111;9360811111
3;9717699000;8892111111;9392111111
23;9759131000;8934200000;9434200000
24;9759135000;8934200000;9434200000
25;9799882000;8975433333;9475433333
26;9799889000;8975433333;9475433333
27;9799891000;8975433333;9475433333
28;9799893000;8975433333;9475433333
30;9799895000;8975433333;9475433333
31;9799897000;8975433333;9475433333
32;9800054000;8975444444;9475444444
33;9800061000;8975788888;9475788888
34;9800062000;8975788888;9475788888
35;9800063000;8975788888;9475788888
36;9838256000;9017100000;9517100000
37;9838260000;9017100000;9517100000
38;9838261000;9017100000;9517100000
39;9838262000;9017100000;9517100000
40;9936572000;9017100000;9517100000
41;9936819000;9017100000;9517100000
42;9936834000;9017100000;9517100000
43;9987297000;9017111111;9517111111
68;9987312000;9100800000;9600800000
69;10110838000;9142100000;9642100000
70;10110842000;9142100000;9642100000
71;10110843000;9142100000;9642100000
73;10110844000;9142100000;9642100000
74;10110845000;9142100000;9642100000
75;10110846000;9142100000;9642100000
76;10111044000;9142122222;9642122222
77;10111060000;9142477777;9642477777
78;10111061000;9142477777;9642477777
79;10111062000;9142477777;9642477777
80;10148232000;9183766666;9683766666
81;10148235000;9183766666;9683766666
84;10148236000;9183766666;9683766666
85;10148237000;9183766666;9683766666
86;10148238000;9183766666;9683766666
87;10148436000;9183788888;9683788888
88;10148452000;9184122222;9684122222
89;10148453000;9184122222;9684122222
90;10148454000;9184122222;9684122222
91;10185892000;9225433333;9725433333
92;10185895000;9225433333;9725433333
93;10237285000;9225433333;9725433333
94;10237288000;9225433333;9725433333
95;10237568000;9225433333;9725433333
96;10237800000;9225433333;9725433333
103;10450669000;9267100000;9767100000
121;10478072000;9309111111;9809111111
122;10478076000;9309111111;9809111111
123;10478077000;9309111111;9809111111
124;10510523000;9350433333;9850433333
125;10510526000;9350433333;9850433333
126;10510537000;9350433333;9850433333
128;10510601000;9350433333;9850433333
130;10510604000;9350433333;9850433333
131;10510814000;9350455555;9850455555
132;10510830000;9350744444;9850744444
133;10510831000;9350744444;9850744444
134;10510832000;9350744444;9850744444
135;10540224000;9392100000;9892100000
145;10540363000;9392411111;9892411111
148;10559406000;9433766666;9933766666
180;10878890000;9558766666;10058766666
236;11330894000;9767111111;10267111111
288;11697271000;9934100000;10434100000
341;12089468000;10142400000;10642400000
442;12792375000;10517411111;11017411111
543;12792500000;10933766666;11433766666
544;12792512000;10933766666;11433766666
545;12792513000;10933766666;11433766666
546;12792514000;10933766666;11433766666
547;12792515000;10933766666;11433766666
548;12792516000;10933766666;11433766666
549;12792614000;10933777777;11433777777
550;12792629000;10934111111;11434111111
551;12792630000;10934111111;11434111111
552;12792631000;10934111111;11434111111
553;12792642000;10975433333;11475433333
554;12792643000;10975433333;11475433333
555;12792655000;10975433333;11475433333
556;12792656000;10975433333;11475433333
557;12792657000;10975433333;11475433333
558;12792658000;10975433333;11475433333
559;12792659000;10975433333;11475433333
561;12792670000;10975722222;11475722222
562;12792671000;10975722222;11475722222
563;12792672000;10975722222;11475722222
564;12792678000;11017100000;11517100000
565;12792679000;11017100000;11517100000
566;12792680000;11017100000;11517100000
567;12792681000;11017100000;11517100000
568;12792682000;11017100000;11517100000
569;12792683000;11017100000;11517100000
570;12792684000;11017100000;11517100000
571;12792783000;11017111111;11517111111
572;12792798000;11017388888;11517388888
573;12792799000;11017388888;11517388888
574;12945223000;11017388888;11517388888
575;13037130000;11058766666;11558766666
603;13037251000;11142122222;11642122222
604;13037347000;11142144444;11642144444
605;13037362000;11142444444;11642444444
606;13037363000;11142444444;11642444444
607;13037364000;11142444444;11642444444
608;13041319000;11183766666;11683766666
609;13041332000;11183766666;11683766666
610;13041333000;11183766666;11683766666
611;13041334000;11183766666;11683766666
612;13041335000;11183766666;11683766666
613;13041336000;11183766666;11683766666
614;13041337000;11183766666;11683766666
615;13041432000;11183788888;11683788888
616;13041448000;11184111111;11684111111
617;13041449000;11184111111;11684111111
618;13041450000;11184111111;11684111111
619;13042843000;11225433333;11725433333
620;13042847000;11225433333;11725433333
621;13042848000;11225433333;11725433333
622;13042849000;11225433333;11725433333
623;13042849000;11225433333;11725433333
624;13042850000;11225433333;11725433333
625;13042851000;11225433333;11725433333
626;13296437000;11225444444;11725444444
654;13296453000;11350433333;11850433333
655;13296454000;11350433333;11850433333
656;13296455000;11350433333;11850433333
657;13296456000;11350433333;11850433333
658;13296457000;11350433333;11850433333
660;13301094000;11350755555;11850755555
661;13301097000;11350755555;11850755555
662;13301098000;11350755555;11850755555
663;13342532000;11392100000;11892100000
664;13342536000;11392100000;11892100000
665;13342537000;11392100000;11892100000
667;13342538000;11392100000;11892100000
669;13342539000;11392100000;11892100000
670;13342737000;11392122222;11892122222
671;13342752000;11392400000;11892400000
672;13342754000;11392400000;11892400000
673;13342755000;11392400000;11892400000
674;13343774000;11433755555;11933755555
676;13343883000;11433755555;11933755555
677;13343885000;11433755555;11933755555
678;13343886000;11433755555;11933755555
679;13343888000;11433755555;11933755555
680;13547081000;11433755555;11933755555
681;13597698000;11433766666;11933766666
707;13597702000;11558777777;12058777777
708;13597703000;11558777777;12058777777
709;13597704000;11558777777;12058777777
710;13597705000;11558777777;12058777777
711;13597706000;11558777777;12058777777
712;13597707000;11558777777;12058777777
713;13597718000;11558777777;12058777777
714;13602629000;11558800000;12058800000
715;13602634000;11559222222;12059222222
716;13602635000;11559222222;12059222222
717;13602637000;11559222222;12059222222
718;13644393000;11600455555;12100455555
719;13644397000;11600455555;12100455555
720;13644398000;11600455555;12100455555
721;13644399000;11600455555;12100455555
722;13644400000;11600455555;12100455555
723;13644401000;11600455555;12100455555
724;13644402000;11600455555;12100455555
725;13644599000;11600466666;12100466666
726;13644614000;11600755555;12100755555
727;13644615000;11600755555;12100755555
728;13644616000;11600755555;12100755555
729;13645131000;11642111111;12142111111
730;13847617000;11642111111;12142111111
731;13848134000;11642111111;12142111111
732;13848154000;11642111111;12142111111
733;13848673000;11642111111;12142111111
734;13848685000;11642111111;12142111111
735;13848945000;11642111111;12142111111
736;13898622000;11642133333;12142133333
759;13902760000;11725822222;12225822222
760;13902762000;11725822222;12225822222
761;13902763000;11725822222;12225822222
763;13903494000;11767088888;12267088888
765;13903507000;11767088888;12267088888
766;13903508000;11767088888;12267088888
767;13903509000;11767088888;12267088888
768;13903510000;11767088888;12267088888
769;13904098000;11767111111;12267111111
770;13904114000;11767422222;12267422222
771;13904115000;11767422222;12267422222
772;13904116000;11767422222;12267422222
773;13945805000;11808755555;12308755555
774;13945808000;11808755555;12308755555
775;13945809000;11808755555;12308755555
776;13945810000;11808755555;12308755555
777;13945811000;11808755555;12308755555
778;13945812000;11808755555;12308755555
781;13946170000;11809144444;12309144444
782;14148820000;11809144444;12309144444
783;14149454000;11809144444;12309144444
784;14240659000;11850444444;12350444444
803;14240773000;11892466666;12392466666
804;14240776000;11892466666;12392466666
805;14240777000;11892466666;12392466666
806;14240787000;11933777777;12433777777
807;14240789000;11933777777;12433777777
808;14240800000;11933777777;12433777777
809;14240801000;11933777777;12433777777
810;14240802000;11933777777;12433777777
811;14240803000;11933777777;12433777777
812;14240812000;11933777777;12433777777
813;14240936000;11933800000;12433800000
814;14240951000;11934133333;12434133333
815;14240952000;11934133333;12434133333
816;14240953000;11934133333;12434133333
817;14245851000;11975433333;12475433333
818;14245854000;11975433333;12475433333
819;14245855000;11975433333;12475433333
821;14245856000;11975433333;12475433333
822;14245858000;11975433333;12475433333
823;14245858000;11975433333;12475433333
824;14245951000;11975455555;12475455555
825;14245966000;11975755555;12475755555
826;14449414000;11975755555;12475755555
827;14450674000;11975755555;12475755555
828;14501258000;12017088888;12517088888
842;14503000000;12058755555;12558755555
843;14503004000;12058755555;12558755555
844;14503005000;12058755555;12558755555
845;14503006000;12058755555;12558755555
846;14503301000;12058766666;12558766666
847;14503316000;12059122222;12559122222
848;14503317000;12059122222;12559122222
849;14503318000;12059122222;12559122222
850;14504905000;12100422222;12600422222
851;14504908000;12100422222;12600422222
852;14504909000;12100422222;12600422222
853;14504910000;12100422222;12600422222
854;14504911000;12100422222;12600422222
855;14504912000;12100422222;12600422222
856;14504913000;12100422222;12600422222
857;14505504000;12100433333;12600433333
859;14506309000;12100755555;12600755555
860;14506311000;12100755555;12600755555
861;14547873000;12142088888;12642088888
862;14547876000;12142088888;12642088888
863;14547877000;12142088888;12642088888
864;14751008000;12142088888;12642088888
865;14751873000;12142088888;12642088888
866;14752089000;12142088888;12642088888
869;14803449000;12142433333;12642433333
873;14803849000;12183800000;12683800000
876;14803853000;12183800000;12683800000
877;14803863000;12183800000;12683800000
878;14803864000;12183800000;12683800000
879;14805242000;12183811111;12683811111
880;14805257000;12184133333;12684133333
881;14805258000;12184133333;12684133333
882;14805259000;12184133333;12684133333
884;14846982000;12225433333;12725433333
885;14846985000;12225433333;12725433333
886;14846986000;12225433333;12725433333
887;14846987000;12225433333;12725433333
888;14846988000;12225433333;12725433333
889;14846989000;12225433333;12725433333
892;15103490000;12225733333;12725733333
893;15103494000;12225733333;12725733333
894;15104015000;12267100000;12767100000
895;15104018000;12267100000;12767100000
898;15104521000;12267100000;12767100000
900;15106313000;12267100000;12767100000
901;15106530000;12267111111;12767111111
902;15106546000;12267400000;12767400000
903;15106547000;12267400000;12767400000
904;15106548000;12267400000;12767400000
905;15149190000;12308766666;12808766666
907;15353798000;12308766666;12808766666
908;15354378000;12308766666;12808766666
909;15354816000;12308766666;12808766666
910;15355082000;12308766666;12808766666
911;15355084000;12308766666;12808766666
913;15405636000;12309111111;12809111111
914;15405639000;12309111111;12809111111
915;15405640000;12309111111;12809111111
916;15449692000;12350433333;12850433333
917;15654459000;12350433333;12850433333
918;15655091000;12350433333;12850433333
919;15655382000;12350433333;12850433333
920;15655671000;12350433333;12850433333
921;15655673000;12350433333;12850433333
924;15708869000;12350755555;12850755555
925;15708873000;12350755555;12850755555
926;15956061000;12350755555;12850755555
927;16006917000;12392100000;12892100000
928;16006920000;12392100000;12892100000
929;16006921000;12392100000;12892100000
931;16009845000;12392100000;12892100000
932;16009849000;12392100000;12892100000
933;16260231000;12392100000;12892100000
934;16311105000;12392111111;12892111111
935;16560931000;12392411111;12892411111
936;16560933000;12392411111;12892411111
937;16561198000;12392411111;12892411111
938;16611949000;12433766666;12933766666
939;16861611000;12433766666;12933766666
941;16912180000;12433766666;12933766666
942;16912194000;12433766666;12933766666
943;16912195000;12433766666;12933766666
944;17162125000;12433766666;12933766666
945;17212582000;12433777777;12933777777
946;17212597000;12434122222;12934122222
947;17212598000;12434122222;12934122222
951;17513197000;12475433333;12975433333
952;17513200000;12475433333;12975433333
953;17513201000;12475433333;12975433333
954;17763465000;12475433333;12975433333
955;17763467000;12475433333;12975433333
956;17814130000;12475455555;12975455555
957;17814146000;12475766666;12975766666
959;18064112000;12475766666;12975766666
960;18155975000;12517100000;13017100000
961;18155979000;12517100000;13017100000
962;18155980000;12517100000;13017100000
963;18155981000;12517100000;13017100000
964;18364738000;12517100000;13017100000
965;18364984000;12517100000;13017100000
966;18665377000;12517100000;13017100000
969;19429810000;12517422222;13017422222
983;19430563000;12600444444;13100444444
984;19430566000;12600444444;13100444444
985;19430567000;12600444444;13100444444
986;19430568000;12600444444;13100444444
987;19430569000;12600444444;13100444444
988;19430570000;12600444444;13100444444
989;19431422000;12600466666;13100466666
990;19431439000;12600755555;13100755555
991;19431440000;12600755555;13100755555
992;19431441000;12600755555;13100755555
993;19431816000;12642100000;13142100000
994;19431819000;12642100000;13142100000
995;19431820000;12642100000;13142100000
996;19431821000;12642100000;13142100000
997;19431822000;12642100000;13142100000
998;19431823000;12642100000;13142100000
1000;19432751000;12642111111;13142111111
1001;19432769000;12642422222;13142422222
1002;19432770000;12642422222;13142422222
1003;19432771000;12642422222;13142422222
1004;19474347000;12683766666;13183766666
1005;19474350000;12683766666;13183766666
1006;19680004000;12683766666;13183766666
1007;19680242000;12683766666;13183766666
1008;19680531000;12683766666;13183766666
1009;19680534000;12683766666;13183766666
1010;19680770000;12683766666;13183766666
1011;19731019000;12683788888;13183788888
1015;19731034000;12725433333;13225433333
1016;19731035000;12725433333;13225433333
1017;19731036000;12725433333;13225433333
1018;19731037000;12725433333;13225433333
1019;19731038000;12725433333;13225433333
1020;19731039000;12725433333;13225433333
1021;19731040000;12725433333;13225433333
1023;19732661000;12725766666;13225766666
1024;19732665000;12725766666;13225766666
1025;19732666000;12725766666;13225766666
1028;19733291000;12767255555;13267255555
1030;19733426000;12767255555;13267255555
1031;19733429000;12767255555;13267255555
1032;19733431000;12767255555;13267255555
1033;19733657000;12767400000;13267400000
1034;19733672000;12767733333;13267733333
1035;19733674000;12767733333;13267733333
1038;20032378000;12808766666;13308766666
1039;20032382000;12808766666;13308766666
1040;20032383000;12808766666;13308766666
1041;20032384000;12808766666;13308766666
1042;20032385000;12808766666;13308766666
1043;20032386000;12808766666;13308766666
1044;20333675000;12808788888;13308788888
1052;22315536000;12850433333;13350433333
1055;22404962000;12850455555;13350455555
1062;22404977000;12892100000;13392100000
1063;22404979000;12892100000;13392100000
1064;22404980000;12892100000;13392100000
1065;22404981000;12892100000;13392100000
1066;22446207000;12892122222;13392122222
1067;22446222000;12892400000;13392400000
1068;22446223000;12892400000;13392400000
1069;22446224000;12892400000;13392400000
1070;22487023000;12933755555;13433755555
1071;22487027000;12933755555;13433755555
1072;22487028000;12933755555;13433755555
1073;22487029000;12933755555;13433755555
1074;22487030000;12933755555;13433755555
1075;22487031000;12933755555;13433755555
1076;22487032000;12933755555;13433755555
1077;22487193000;12933766666;13433766666
1078;22487200000;12934111111;13434111111
1079;22487201000;12934111111;13434111111
1080;22487202000;12934111111;13434111111
1081;22526814000;12975433333;13475433333
1082;22526817000;12975433333;13475433333
1083;22526818000;12975433333;13475433333
1084;22526819000;12975433333;13475433333
1085;22613772000;12975433333;13475433333
1087;22614052000;12975433333;13475433333
1088;22664525000;12975444444;13475444444
1136;22664540000;13183766666;13683766666
1137;22664541000;13183766666;13683766666
1138;22664542000;13183766666;13683766666
1139;22664543000;13183766666;13683766666
1141;22865966000;13183766666;13683766666
1143;22866193000;13183788888;13683788888
1144;22866208000;13184100000;13684100000
1146;22866209000;13184100000;13684100000
1148;22900257000;13225422222;13725422222
1149;22900261000;13225422222;13725422222
1151;22900262000;13225422222;13725422222
1152;22900263000;13225422222;13725422222
1153;22900264000;13225422222;13725422222
1154;22900362000;13225444444;13725444444
1156;22900378000;13225755555;13725755555
1157;22900379000;13225755555;13725755555
1158;22930116000;13267088888;13767088888
1219;23029772000;13475433333;13975433333
1220;23029979000;13475455555;13975455555
1221;23029995000;13475744444;13975744444
1222;23029996000;13475744444;13975744444
1223;23029997000;13475744444;13975744444
1224;23043252000;13517088888;14017088888
1225;23043256000;13517088888;14017088888
1226;23043257000;13517088888;14017088888
1227;23043258000;13517088888;14017088888
1228;23043259000;13517088888;14017088888
1229;23043260000;13517088888;14017088888
1230;23043261000;13517088888;14017088888
1231;23043661000;13517111111;14017111111
1232;23043676000;13517455555;14017455555
1233;23043677000;13517455555;14017455555
1234;23043678000;13517455555;14017455555
1235;23058949000;13558766666;14058766666
1236;23058952000;13558766666;14058766666
1237;23058953000;13558766666;14058766666
1238;23058954000;13558766666;14058766666
1239;23058955000;13558766666;14058766666
1241;23058956000;13558766666;14058766666
1242;23265496000;13558777777;14058777777
1295;23265502000;13767100000;14267100000
1296;23265503000;13767100000;14267100000
1298;23466922000;13767388888;14267388888
1299;23466926000;13767388888;14267388888
1300;23466927000;13767388888;14267388888
1302;23503255000;13808766666;14308766666
1303;23503258000;13808766666;14308766666
1304;23503259000;13808766666;14308766666
1306;23503260000;13808766666;14308766666
1307;23503261000;13808766666;14308766666
1308;23503358000;13808777777;14308777777
1309;23503374000;13809122222;14309122222
1310;23503375000;13809122222;14309122222
1311;23503376000;13809122222;14309122222
1312;23533092000;13850433333;14350433333
1372;23632640000;14058766666;14558766666
1373;23632643000;14058766666;14558766666
1374;23632841000;14058788888;14558788888
1375;23632856000;14059133333;14559133333
1376;23632858000;14059133333;14559133333
1377;23632858000;14059133333;14559133333
1378;23646117000;14100433333;14600433333
1379;23646130000;14100433333;14600433333
1380;23646131000;14100433333;14600433333
1381;23646132000;14100433333;14600433333
1382;23646133000;14100433333;14600433333
1385;23646331000;14100444444;14600444444
1386;23646337000;14100755555;14600755555
1387;23646339000;14100755555;14600755555
1388;23646340000;14100755555;14600755555
1389;23661725000;14142088888;14642088888
1392;23661729000;14142088888;14642088888
1393;23661730000;14142088888;14642088888
1394;23661731000;14142088888;14642088888
1395;23661732000;14142088888;14642088888
1396;23661834000;14142100000;14642100000
1399;23819497000;14142422222;14642422222
1400;23908493000;14183755555;14683755555
1451;24068297000;14350444444;14850444444
1452;24068313000;14350755555;14850755555
1453;24068314000;14350755555;14850755555
1454;24068315000;14350755555;14850755555
1455;24102616000;14392088888;14892088888
1456;24102620000;14392088888;14892088888
1457;24102621000;14392088888;14892088888
1460;24102622000;14392088888;14892088888
1461;24102623000;14392088888;14892088888
1462;24102821000;14392111111;14892111111
1463;24102837000;14392411111;14892411111
1464;24102838000;14392411111;14892411111
1465;24102839000;14392411111;14892411111
1466;24132598000;14433755555;14933755555
1527;24241111000;14642088888;15142088888
1528;24241305000;14642111111;15142111111
1529;24241308000;14642400000;15142400000
1530;24241309000;14642400000;15142400000
1531;24241310000;14642400000;15142400000
1532;24254615000;14683755555;15183755555
1533;24254618000;14683755555;15183755555
1534;24254620000;14683755555;15183755555
1535;24254621000;14683755555;15183755555
1536;24254622000;14683755555;15183755555
1537;24254623000;14683755555;15183755555
1540;24254736000;14684133333;15184133333
1541;24254739000;14684133333;15184133333
1542;24254749000;14684133333;15184133333
1543;24276803000;14725422222;15225422222
1544;24276807000;14725422222;15225422222
1545;24276808000;14725422222;15225422222
1546;24276809000;14725422222;15225422222
1547;24276810000;14725422222;15225422222
1548;24276811000;14725422222;15225422222
1549;24276812000;14725422222;15225422222
1550;24276893000;14725433333;15225433333
1551;24417719000;14725822222;15225822222
1552;24418225000;14725822222;15225822222
1553;24418451000;14725822222;15225822222
1556;24509532000;14767088888;15267088888
1606;24670300000;14934122222;15434122222
1607;24670304000;14934122222;15434122222
1608;24670305000;14934122222;15434122222
1609;24704186000;14975422222;15475422222
1610;24704189000;14975422222;15475422222
1611;24704190000;14975422222;15475422222
1612;24704191000;14975422222;15475422222
1613;24704192000;14975422222;15475422222
1614;24704193000;14975422222;15475422222
1615;24704194000;14975422222;15475422222
1616;24704391000;14975444444;15475444444
1617;24704407000;14975744444;15475744444
1618;24704408000;14975744444;15475744444
1619;24704409000;14975744444;15475744444
1620;24734229000;15017088888;15517088888
1681;24839498000;15225422222;15725422222
1682;24839723000;15225444444;15725444444
1683;24839738000;15225755555;15725755555
1684;24839739000;15225755555;15725755555
1685;24839740000;15225755555;15725755555
1686;24853968000;15267088888;15767088888
1687;24853972000;15267088888;15767088888
1689;24854300000;15267088888;15767088888
1690;24854304000;15267088888;15767088888
1692;24854305000;15267088888;15767088888
1693;24854537000;15267111111;15767111111
1694;24854543000;15267388888;15767388888
1695;24854544000;15267388888;15767388888
1697;24869135000;15308766666;15808766666
1699;24869148000;15308766666;15808766666
1700;24869149000;15308766666;15808766666
1701;24869150000;15308766666;15808766666
1702;24869151000;15308766666;15808766666
1703;24869152000;15308766666;15808766666
1704;24869238000;15308777777;15808777777
1705;24869245000;15309122222;15809122222
1706;24869246000;15309122222;15809122222
1707;24869247000;15309122222;15809122222
1708;25069632000;15350433333;15850433333
1759;25234656000;15517122222;16017122222
1760;25234671000;15517433333;16017433333
1761;25234672000;15517433333;16017433333
1762;25234673000;15517433333;16017433333
1763;25271687000;15558766666;16058766666
1764;25271690000;15558766666;16058766666
1765;25271691000;15558766666;16058766666
1769;25271833000;15558766666;16058766666
1770;25272045000;15558788888;16058788888
1772;25272060000;15559122222;16059122222
1773;25272061000;15559122222;16059122222
1774;25306247000;15600433333;16100433333
1775;25306251000;15600433333;16100433333
1776;25306252000;15600433333;16100433333
1777;25306253000;15600433333;16100433333
1778;25306254000;15600433333;16100433333
1779;25306255000;15600433333;16100433333
1780;25306255000;15600433333;16100433333
1781;25306452000;15600455555;16100455555
1782;25306467000;15600755555;16100755555
1783;25306469000;15600755555;16100755555
1784;25306478000;15600755555;16100755555
1785;25337102000;15642100000;16142100000
1840;25461150000;15850433333;16350433333
1841;25461154000;15850433333;16350433333
1842;25461155000;15850433333;16350433333
1843;25461156000;15850433333;16350433333
1844;25461157000;15850433333;16350433333
1845;25461158000;15850433333;16350433333
1846;25461159000;15850433333;16350433333
1847;25461372000;15850455555;16350455555
1850;25461387000;15850733333;16350733333
1851;25478189000;15892100000;16392100000
1852;25478193000;15892100000;16392100000
1853;25478194000;15892100000;16392100000
1854;25478195000;15892100000;16392100000
1856;25478196000;15892100000;16392100000
1857;25478197000;15892100000;16392100000
1858;25478391000;15892111111;16392111111
1859;25478407000;15892400000;16392400000
1860;25478408000;15892400000;16392400000
1861;25478409000;15892400000;16392400000
1862;25494663000;15933766666;16433766666
1863;25494665000;15933766666;16433766666
1864;25621044000;15933766666;16433766666
1865;25621652000;15933766666;16433766666
1866;25621673000;15933766666;16433766666
1867;25621910000;15933766666;16433766666
1868;25622321000;15933766666;16433766666
1869;25673273000;15933777777;16433777777
1918;25673277000;16142100000;16642100000
1920;25874848000;16142100000;16642100000
1921;25874850000;16142100000;16642100000
1922;25874851000;16142100000;16642100000
1923;25874852000;16142100000;16642100000
1924;25875068000;16142122222;16642122222
1925;25875071000;16142411111;16642411111
1926;25875072000;16142411111;16642411111
1927;25875073000;16142411111;16642411111
1928;25909190000;16183766666;16683766666
1929;25909191000;16183766666;16683766666
1930;25909192000;16183766666;16683766666
1931;25909193000;16183766666;16683766666
1932;25909194000;16183766666;16683766666
1933;25909205000;16183766666;16683766666
1935;25909410000;16183788888;16683788888
1936;25909412000;16184111111;16684111111
1937;25909413000;16184111111;16684111111
1938;25909415000;16184111111;16684111111
1939;25939298000;16225433333;16725433333
1998;26040528000;16433766666;16933766666
1999;26040540000;16433766666;16933766666
2000;26040541000;16433766666;16933766666
2001;26040745000;16433777777;16933777777
2002;26040748000;16434111111;16934111111
2003;26040749000;16434111111;16934111111
2004;26040750000;16434111111;16934111111
2005;26054391000;16475433333;16975433333
2006;26054393000;16475433333;16975433333
2007;26054394000;16475433333;16975433333
2008;26054395000;16475433333;16975433333
2009;26054396000;16475433333;16975433333
2010;26054406000;16475433333;16975433333
2011;26054407000;16475433333;16975433333
2012;26054618000;16475444444;16975444444
2013;26054620000;16475744444;16975744444
2014;26054621000;16475744444;16975744444
2015;26054622000;16475744444;16975744444
2016;26070407000;16517100000;17017100000
2017;26070409000;16517100000;17017100000
2018;26070410000;16517100000;17017100000
2019;26070411000;16517100000;17017100000
2020;26223144000;16517100000;17017100000
2021;26223148000;16517100000;17017100000
2022;26223369000;16517100000;17017100000
2023;26273839000;16517122222;17017122222
2074;26273843000;16725433333;17225433333
2075;26273845000;16725433333;17225433333
2076;26273846000;16725433333;17225433333
2077;26273847000;16725433333;17225433333
2078;26477218000;16725455555;17225455555
2079;26477233000;16725744444;17225744444
2080;26477234000;16725744444;17225744444
2081;26477235000;16725744444;17225744444
2082;26510812000;16767100000;17267100000
2084;26510922000;16767100000;17267100000
2085;26510925000;16767100000;17267100000
2086;26510927000;16767100000;17267100000
2087;26510938000;16767100000;17267100000
2090;26511049000;16767388888;17267388888
2091;26511052000;16767388888;17267388888
2092;26511053000;16767388888;17267388888
2093;26544051000;16808766666;17308766666
2152;26643935000;17017100000;17517100000
2153;26643938000;17017100000;17517100000
2154;26643939000;17017100000;17517100000
2155;26644113000;17017122222;17517122222
2156;26644116000;17017422222;17517422222
2158;26644117000;17017422222;17517422222
2159;26657549000;17058766666;17558766666
2160;26657550000;17058766666;17558766666
2161;26657551000;17058766666;17558766666
2162;26657553000;17058766666;17558766666
2164;26657563000;17058766666;17558766666
2165;26657564000;17058766666;17558766666
2166;26657727000;17058777777;17558777777
2167;26657730000;17059133333;17559133333
2168;26657731000;17059133333;17559133333
2170;26673386000;17100433333;17600433333
2171;26673387000;17100433333;17600433333
2172;26673388000;17100433333;17600433333
2173;26673389000;17100433333;17600433333
2174;26673390000;17100433333;17600433333
2175;26673401000;17100433333;17600433333
2176;26673402000;17100433333;17600433333
2177;26874874000;17100444444;17600444444
2227;26874879000;17308766666;17808766666
2228;26874880000;17308766666;17808766666
2229;26874881000;17308766666;17808766666
2230;26874882000;17308766666;17808766666
2231;26874883000;17308766666;17808766666
2233;27077440000;17309144444;17809144444
2234;27077443000;17309144444;17809144444
2235;27077444000;17309144444;17809144444
2236;27113778000;17350433333;17850433333
2237;27113781000;17350433333;17850433333
2238;27113783000;17350433333;17850433333
2239;27113783000;17350433333;17850433333
2241;27113792000;17350433333;17850433333
2244;27113901000;17350766666;17850766666
2245;27113904000;17350766666;17850766666
2248;27146916000;17392100000;17892100000
2302;27246493000;17600433333;18100433333
2303;27246497000;17600433333;18100433333
2304;27246498000;17600433333;18100433333
2305;27246499000;17600433333;18100433333
2306;27246500000;17600433333;18100433333
2307;27246501000;17600433333;18100433333
2308;27246502000;17600433333;18100433333
2309;27246699000;17600455555;18100455555
2310;27246714000;17600755555;18100755555
2311;27246715000;17600755555;18100755555
2314;27260054000;17642100000;18142100000
2315;27260057000;17642100000;18142100000
2316;27260059000;17642100000;18142100000
2317;27260060000;17642100000;18142100000
2320;27260181000;17642111111;18142111111
2321;27260196000;17642433333;18142433333
2324;27275647000;17683766666;18183766666
2325;27275650000;17683766666;18183766666
2326;27275651000;17683766666;18183766666
2327;27275652000;17683766666;18183766666
2328;27275653000;17683766666;18183766666
2329;27275654000;17683766666;18183766666
2330;27426096000;17683766666;18183766666
2331;27476587000;17683777777;18183777777
2383;27476602000;17892100000;18392100000
2384;27476604000;17892100000;18392100000
2386;27678225000;17892122222;18392122222
2387;27678240000;17892433333;18392433333
2388;27678242000;17892433333;18392433333
2389;27678242000;17892433333;18392433333
2390;27712639000;17933766666;18433766666
2391;27712642000;17933766666;18433766666
2392;27712643000;17933766666;18433766666
2393;27712644000;17933766666;18433766666
2394;27712645000;17933766666;18433766666
2395;27712646000;17933766666;18433766666
2397;27712842000;17933777777;18433777777
2398;27712857000;17934133333;18434133333
2399;27712859000;17934133333;18434133333
2400;27712860000;17934133333;18434133333
2401;27742780000;17975433333;18475433333
2462;27852252000;18183766666;18683766666
2463;27852427000;18183777777;18683777777
2464;27852430000;18184133333;18684133333
2465;27852431000;18184133333;18684133333
2467;27864998000;18225433333;18725433333
2468;27864999000;18225433333;18725433333
2469;27865000000;18225433333;18725433333
2470;27865001000;18225433333;18725433333
2471;27865002000;18225433333;18725433333
2472;27865003000;18225433333;18725433333
2473;27865013000;18225433333;18725433333
2474;27865108000;18225444444;18725444444
2475;27865111000;18225755555;18725755555
2476;27865112000;18225755555;18725755555
2477;27865113000;18225755555;18725755555
2478;27879903000;18267100000;18767100000
2479;27879905000;18267100000;18767100000
2480;27879905000;18267100000;18767100000
2481;27879906000;18267100000;18767100000
2482;27879908000;18267100000;18767100000
2483;27879918000;18267100000;18767100000
2484;27879919000;18267100000;18767100000
2489;28119441000;18308766666;18808766666
2540;28279931000;18475444444;18975444444
2541;28279947000;18475766666;18975766666
2543;28279948000;18475766666;18975766666
2544;28313797000;18517100000;19017100000
2545;28313800000;18517100000;19017100000
2546;28313801000;18517100000;19017100000
2547;28313802000;18517100000;19017100000
2548;28313803000;18517100000;19017100000
2549;28313804000;18517100000;19017100000
2550;28313805000;18517100000;19017100000
2551;28314001000;18517111111;19017111111
2552;28314016000;18517433333;19017433333
2553;28314017000;18517433333;19017433333
2554;28314018000;18517433333;19017433333
2555;28343988000;18558766666;19058766666
2617;28446342000;18767111111;19267111111
2618;28446357000;18767411111;19267411111
2619;28446358000;18767411111;19267411111
2620;28446359000;18767411111;19267411111
2621;28461008000;18808766666;19308766666
2622;28461012000;18808766666;19308766666
2623;28461013000;18808766666;19308766666
2624;28461013000;18808766666;19308766666
2626;28461127000;18808766666;19308766666
2627;28461130000;18808766666;19308766666
2628;28461339000;18808777777;19308777777
2629;28461355000;18809133333;19309133333
2630;28461356000;18809133333;19309133333
2631;28461357000;18809133333;19309133333
2632;28477208000;18850433333;19350433333
2633;28477211000;18850433333;19350433333
2634;28477219000;18850433333;19350433333
2635;28477220000;18850433333;19350433333
2636;28477221000;18850433333;19350433333
2637;28477222000;18850433333;19350433333
2638;28477223000;18850433333;19350433333
2639;28477391000;18850444444;19350444444
2641;28477395000;18850744444;19350744444
2644;28679879000;18892100000;19392100000
2692;28844491000;19058766666;19558766666
2693;28844494000;19058766666;19558766666
2694;28844704000;19058777777;19558777777
2695;28844707000;19059100000;19559100000
2699;28881483000;19100433333;19600433333
2700;28881486000;19100433333;19600433333
2701;28881487000;19100433333;19600433333
2702;28881488000;19100433333;19600433333
2703;28881489000;19100433333;19600433333
2704;28881490000;19100433333;19600433333
2706;28881499000;19100755555;19600755555
2707;28881501000;19100755555;19600755555
2708;28881512000;19100755555;19600755555
2709;28918036000;19142100000;19642100000
2710;28918039000;19142100000;19642100000
2711;28918040000;19142100000;19642100000
2713;28918041000;19142100000;19642100000
2714;28918043000;19142100000;19642100000
2715;28918043000;19142100000;19642100000
2716;28918164000;19142111111;19642111111
2717;28918168000;19142411111;19642411111
2718;28918170000;19142411111;19642411111
2719;28918171000;19142411111;19642411111
2722;28948878000;19183766666;19683766666
2775;29079447000;19392100000;19892100000
2776;29079450000;19392100000;19892100000
2777;29079451000;19392100000;19892100000
2778;29079452000;19392100000;19892100000
2779;29079452000;19392100000;19892100000
2780;29079453000;19392100000;19892100000
2781;29079454000;19392100000;19892100000
2783;29079463000;19392400000;19892400000
2784;29079464000;19392400000;19892400000
2785;29079482000;19392400000;19892400000
2786;29102953000;19433766666;19933766666
2787;29102957000;19433766666;19933766666
2788;29102958000;19433766666;19933766666
2789;29102959000;19433766666;19933766666
2790;29102960000;19433766666;19933766666
2791;29102961000;19433766666;19933766666
2792;29102962000;19433766666;19933766666
2793;29103082000;19433777777;19933777777
2794;29103087000;19434111111;19934111111
2795;29103088000;19434111111;19934111111
2796;29103089000;19434111111;19934111111
2799;29281517000;19475433333;19975433333
2850;29445550000;19642400000;20142400000
2851;29445553000;19642400000;20142400000
2852;29483223000;19683766666;20183766666
2853;29483226000;19683766666;20183766666
2855;29483419000;19683766666;20183766666
2856;29483421000;19683766666;20183766666
2857;29483422000;19683766666;20183766666
2858;29483423000;19683766666;20183766666
2859;29483641000;19683777777;20183777777
2860;29483657000;19684122222;20184122222
2861;29483658000;19684122222;20184122222
2862;29483659000;19684122222;20184122222
2863;29517881000;19725422222;20225422222
2864;29517884000;19725422222;20225422222
2865;29517885000;19725422222;20225422222
2866;29517886000;19725422222;20225422222
2868;29517887000;19725422222;20225422222
2869;29517888000;19725422222;20225422222
2870;29518086000;19725444444;20225444444
2871;29518102000;19725744444;20225744444
2872;29518103000;19725744444;20225744444
2873;29518104000;19725744444;20225744444
2874;29548113000;19767100000;20267100000
2930;29660344000;19975433333;20475433333
2931;29660348000;19975433333;20475433333
2932;29660349000;19975433333;20475433333
2933;29660350000;19975433333;20475433333
2934;29660351000;19975433333;20475433333
2935;29660352000;19975433333;20475433333
2936;29660557000;19975444444;20475444444
2937;29660573000;19975711111;20475711111
2938;29660574000;19975711111;20475711111
2939;29660575000;19975711111;20475711111
2940;29672695000;20017100000;20517100000
2941;29672698000;20017100000;20517100000
2942;29672699000;20017100000;20517100000
2943;29672700000;20017100000;20517100000
2944;29672701000;20017100000;20517100000
2945;29672702000;20017100000;20517100000
2946;29672703000;20017100000;20517100000
2947;29672901000;20017111111;20517111111
2948;29672917000;20017377777;20517377777
2949;29672918000;20017377777;20517377777
2950;29672919000;20017377777;20517377777
2952;29687606000;20058766666;20558766666
2953;29687609000;20058766666;20558766666
2955;29833203000;20058766666;20558766666
2956;29833657000;20058766666;20558766666
2957;29834019000;20058766666;20558766666
2958;29884469000;20058777777;20558777777
3003;29884491000;20225722222;20725722222
3004;29884493000;20225722222;20725722222
3005;29884493000;20225722222;20725722222
3006;30086830000;20267100000;20767100000
3007;30086834000;20267100000;20767100000
3008;30086835000;20267100000;20767100000
3009;30086836000;20267100000;20767100000
3010;30086837000;20267100000;20767100000
3011;30086838000;20267100000;20767100000
3013;30087043000;20267111111;20767111111
3014;30087059000;20267355555;20767355555
3015;30087060000;20267355555;20767355555
3016;30087061000;20267355555;20767355555
3017;30120614000;20308766666;20808766666
3018;30120617000;20308766666;20808766666
3019;30120618000;20308766666;20808766666
3024;30120816000;20308788888;20808788888
3025;30120832000;20309122222;20809122222
3027;30120833000;20309122222;20809122222
3028;30150768000;20350433333;20850433333
3084;30252745000;20558766666;21058766666
3085;30252748000;20558766666;21058766666
3086;30252749000;20558766666;21058766666
3087;30252750000;20558766666;21058766666
3089;30252752000;20558766666;21058766666
3090;30252965000;20558777777;21058777777
3091;30252980000;20559077777;21059077777
3092;30252981000;20559077777;21059077777
3093;30252982000;20559077777;21059077777
3096;30266870000;20600433333;21100433333
3097;30266873000;20600433333;21100433333
3098;30266874000;20600433333;21100433333
3099;30266875000;20600433333;21100433333
3100;30266876000;20600433333;21100433333
3101;30266985000;20600444444;21100444444
3102;30267001000;20600722222;21100722222
3103;30267002000;20600722222;21100722222
3104;30267003000;20600722222;21100722222
3106;30283122000;20642100000;21142100000
3107;30283126000;20642100000;21142100000
3108;30283127000;20642100000;21142100000
3109;30283128000;20642100000;21142100000
3110;30434809000;20642100000;21142100000
3111;30435162000;20642100000;21142100000
3112;30485743000;20642111111;21142111111
3163;30485758000;20850433333;21350433333
3164;30485759000;20850433333;21350433333
3165;30485760000;20850433333;21350433333
3167;30687745000;20850444444;21350444444
3168;30687761000;20850733333;21350733333
3169;30687762000;20850733333;21350733333
3170;30687763000;20850733333;21350733333
3171;30721968000;20892100000;21392100000
3172;30721971000;20892100000;21392100000
3173;30721972000;20892100000;21392100000
3174;30721973000;20892100000;21392100000
3175;30721974000;20892100000;21392100000
3176;30721975000;20892100000;21392100000
3179;30722085000;20892400000;21392400000
3180;30722088000;20892400000;21392400000
3181;30722089000;20892400000;21392400000
3182;30755306000;20933777777;21433777777
3243;30856254000;21142100000;21642100000
3244;30856455000;21142122222;21642122222
3245;30856477000;21142411111;21642411111
3246;30856479000;21142411111;21642411111
3247;30856479000;21142411111;21642411111
3248;30870107000;21183766666;21683766666
3249;30870110000;21183766666;21683766666
3250;30870111000;21183766666;21683766666
3251;30870112000;21183766666;21683766666
3252;30870114000;21183766666;21683766666
3253;30870114000;21183766666;21683766666
3254;30870115000;21183766666;21683766666
3255;30870313000;21183777777;21683777777
3256;30870328000;21184122222;21684122222
3257;30870329000;21184122222;21684122222
3258;30870331000;21184122222;21684122222
3259;30886097000;21225433333;21725433333
3260;30886101000;21225433333;21725433333
3261;30886112000;21225433333;21725433333
3262;30886113000;21225433333;21725433333
3263;30886114000;21225433333;21725433333
3264;30886115000;21225433333;21725433333
3265;30886116000;21225433333;21725433333
3266;31086746000;21225444444;21725444444
3322;31086762000;21434111111;21934111111
3323;31086763000;21434111111;21934111111
3324;31086764000;21434111111;21934111111
3325;31324190000;21475433333;21975433333
3326;31324194000;21475433333;21975433333
3327;31324195000;21475433333;21975433333
3328;31324196000;21475433333;21975433333
3329;31324197000;21475433333;21975433333
3330;31324197000;21475433333;21975433333
3331;31324198000;21475433333;21975433333
3332;31324404000;21475444444;21975444444
3333;31324420000;21475744444;21975744444
3334;31324421000;21475744444;21975744444
3335;31324422000;21475744444;21975744444
3336;31354054000;21517100000;22017100000
3400;31456341000;21725744444;22225744444
3401;31456344000;21725744444;22225744444
3403;31470551000;21767100000;22267100000
3404;31470554000;21767100000;22267100000
3405;31470555000;21767100000;22267100000
3406;31470556000;21767100000;22267100000
3407;31470557000;21767100000;22267100000
3408;31470558000;21767100000;22267100000
3409;31470678000;21767111111;22267111111
3410;31470693000;21767388888;22267388888
3411;31470695000;21767388888;22267388888
3412;31470695000;21767388888;22267388888
3413;31486852000;21808766666;22308766666
3414;31486856000;21808766666;22308766666
3415;31486856000;21808766666;22308766666
3416;31486857000;21808766666;22308766666
3417;31486858000;21808766666;22308766666
3418;31486859000;21808766666;22308766666
3419;31486860000;21808766666;22308766666
3420;31487055000;21808777777;22308777777
3421;31487070000;21809111111;22309111111
3422;31487071000;21809111111;22309111111
3423;31638002000;21809111111;22309111111
3424;31688375000;21850433333;22350433333
3474;31852922000;22017100000;22517100000
3475;31853079000;22017111111;22517111111
3477;31853085000;22017400000;22517400000
3478;31853087000;22017400000;22517400000
3479;31890132000;22058766666;22558766666
3480;31890135000;22058766666;22558766666
3481;31890136000;22058766666;22558766666
3482;31890137000;22058766666;22558766666
3483;31890138000;22058766666;22558766666
3484;31890139000;22058766666;22558766666
3485;31890140000;22058766666;22558766666
3489;31890249000;22059111111;22559111111
3490;31926650000;22100433333;22600433333
3492;31926653000;22100433333;22600433333
3493;31926654000;22100433333;22600433333
3494;31926655000;22100433333;22600433333
3495;31926656000;22100433333;22600433333
3497;31926792000;22100444444;22600444444
3498;31926795000;22100755555;22600755555
3499;31926796000;22100755555;22600755555
3500;31926797000;22100755555;22600755555
3501;31956816000;22142100000;22642100000
3551;32042589000;22308766666;22808766666
3552;32042789000;22308788888;22808788888
3553;32042804000;22309122222;22809122222
3554;32042806000;22309122222;22809122222
3555;32042806000;22309122222;22809122222
3556;32058033000;22350433333;22850433333
3557;32058036000;22350433333;22850433333
3559;32058037000;22350433333;22850433333
3560;32058039000;22350433333;22850433333
3562;32058040000;22350433333;22850433333
3563;32058237000;22350444444;22850444444
3566;32058253000;22350755555;22850755555
3568;32072790000;22392100000;22892100000
3569;32072792000;22392100000;22892100000
3570;32072794000;22392100000;22892100000
3573;32072795000;22392100000;22892100000
3574;32072888000;22392111111;22892111111
3575;32072890000;22392411111;22892411111
3576;32072892000;22392411111;22892411111
3577;32072892000;22392411111;22892411111
3578;32089260000;22433766666;22933766666
3579;32089263000;22433766666;22933766666
3580;32239648000;22433766666;22933766666
3581;32240161000;22433766666;22933766666
3582;32241342000;22433766666;22933766666
3583;32241608000;22433766666;22933766666
3584;32242027000;22433766666;22933766666
3585;32292481000;22433777777;22933777777
3631;32292488000;22600722222;23100722222
3632;32292489000;22600722222;23100722222
3633;32494847000;22642088888;23142088888
3634;32494851000;22642088888;23142088888
3635;32494852000;22642088888;23142088888
3636;32494853000;22642088888;23142088888
3637;32494854000;22642088888;23142088888
3638;32494855000;22642088888;23142088888
3641;32494968000;22642400000;23142400000
3642;32494972000;22642400000;23142400000
3644;32530546000;22683766666;23183766666
3646;32530549000;22683766666;23183766666
3647;32530551000;22683766666;23183766666
3648;32530552000;22683766666;23183766666
3649;32530553000;22683766666;23183766666
3650;32530553000;22683766666;23183766666
3651;32530654000;22683777777;23183777777
3652;32530669000;22684144444;23184144444
3653;32530671000;22684144444;23184144444
3654;32530672000;22684144444;23184144444
3655;32560579000;22725422222;23225422222
3709;32656319000;22892400000;23392400000
3710;32670802000;22933755555;23433755555
3711;32670805000;22933755555;23433755555
3712;32670806000;22933755555;23433755555
3714;32670807000;22933755555;23433755555
3715;32670808000;22933755555;23433755555
3716;32670809000;22933755555;23433755555
3718;32670918000;22934088888;23434088888
3719;32670921000;22934088888;23434088888
3720;32670922000;22934088888;23434088888
3721;32692090000;22975433333;23475433333
3722;32692094000;22975433333;23475433333
3723;32692095000;22975433333;23475433333
3724;32692097000;22975433333;23475433333
3725;32692099000;22975433333;23475433333
3726;32692100000;22975433333;23475433333
3727;32692101000;22975433333;23475433333
3728;32692309000;22975444444;23475444444
3729;32692315000;22975722222;23475722222
3730;32692317000;22975722222;23475722222
3731;32692318000;22975722222;23475722222
3732;32890969000;23017100000;23517100000
3781;33055576000;23183766666;23683766666
3782;33055579000;23183766666;23683766666
3783;33055791000;23183788888;23683788888
3785;33055807000;23184077777;23684077777
3786;33055808000;23184077777;23684077777
3787;33092725000;23225422222;23725422222
3789;33092729000;23225422222;23725422222
3790;33092730000;23225422222;23725422222
3791;33092731000;23225422222;23725422222
3792;33092732000;23225422222;23725422222
3793;33092733000;23225422222;23725422222
3794;33092939000;23225444444;23725444444
3795;33092942000;23225722222;23725722222
3796;33092943000;23225722222;23725722222
3798;33127478000;23267100000;23767100000
3803;33127482000;23267100000;23767100000
3804;33127483000;23267100000;23767100000
3805;33127576000;23267111111;23767111111
3806;33127591000;23267355555;23767355555
3807;33127593000;23267355555;23767355555
3808;33127594000;23267355555;23767355555
3809;33157790000;23308766666;23808766666
3852;33226460000;23434088888;23934088888
3860;33244276000;23475455555;23975455555
3864;33268534000;23517088888;24017088888
3865;33268536000;23517088888;24017088888
3868;33268537000;23517088888;24017088888
3870;33268538000;23517088888;24017088888
3871;33268738000;23517111111;24017111111
3872;33268753000;23517411111;24017411111
3873;33268754000;23517411111;24017411111
3874;33268755000;23517411111;24017411111
3875;33281940000;23558755555;24058755555
3876;33281944000;23558755555;24058755555
3877;33281945000;23558755555;24058755555
3878;33281946000;23558755555;24058755555
3879;33281947000;23558755555;24058755555
3880;33281948000;23558755555;24058755555
3881;33281949000;23558755555;24058755555
3882;33282146000;23558777777;24058777777
3883;33282161000;23559122222;24059122222
3884;33282162000;23559122222;24059122222
3885;33282163000;23559122222;24059122222
3887;33297367000;23600422222;24100422222
3888;33441652000;23600422222;24100422222
3889;33442099000;23600422222;24100422222
3890;33442101000;23600422222;24100422222
3891;33442595000;23600422222;24100422222
3892;33443163000;23600422222;24100422222
3893;33493932000;23600433333;24100433333
3940;33493947000;23767400000;24267400000
3941;33696886000;23808755555;24308755555
3942;33696890000;23808755555;24308755555
3943;33696891000;23808755555;24308755555
3944;33696892000;23808755555;24308755555
3945;33696893000;23808755555;24308755555
3946;33696894000;23808755555;24308755555
3947;33696895000;23808755555;24308755555
3948;33697101000;23808777777;24308777777
3949;33697116000;23809100000;24309100000
3950;33697117000;23809100000;24309100000
3951;33697118000;23809100000;24309100000
3952;33730701000;23850433333;24350433333
3953;33730705000;23850433333;24350433333
3954;33730705000;23850433333;24350433333
3955;33730707000;23850433333;24350433333
3956;33730708000;23850433333;24350433333
3957;33730709000;23850433333;24350433333
3961;33730910000;23850744444;24350744444
3962;33730914000;23850744444;24350744444
3963;33764075000;23892100000;24392100000
4019;33870815000;24100422222;24600422222
4021;33870819000;24100422222;24600422222
4022;33870820000;24100422222;24600422222
4023;33870821000;24100422222;24600422222
4024;33870822000;24100422222;24600422222
4025;33871019000;24100444444;24600444444
4026;33871034000;24100722222;24600722222
4027;33871043000;24100722222;24600722222
4028;33871044000;24100722222;24600722222
4029;33883920000;24142088888;24642088888
4030;33883923000;24142088888;24642088888
4031;33883924000;24142088888;24642088888
4033;33883926000;24142088888;24642088888
4034;33883926000;24142088888;24642088888
4035;33883927000;24142088888;24642088888
4036;33884125000;24142111111;24642111111
4037;33884140000;24142400000;24642400000
4038;33884141000;24142400000;24642400000
4039;33884142000;24142400000;24642400000
4040;33899212000;24183755555;24683755555
4041;33899214000;24183755555;24683755555
4042;34043316000;24183755555;24683755555
4044;34043630000;24183755555;24683755555
4045;34043843000;24183755555;24683755555
4046;34044173000;24183755555;24683755555
4047;34094676000;24183777777;24683777777
4096;34094691000;24392144444;24892144444
4097;34094692000;24392144444;24892144444
4098;34094693000;24392144444;24892144444
4099;34094694000;24392144444;24892144444
4100;34094695000;24392144444;24892144444
4101;34094696000;24392144444;24892144444
4102;34297243000;24392188888;24892188888
4103;34297259000;24392511111;24892511111
4104;34297261000;24392511111;24892511111
4105;34297262000;24392511111;24892511111
4106;34330952000;24433755555;24933755555
4107;34330956000;24433755555;24933755555
4108;34330957000;24433755555;24933755555
4109;34330958000;24433755555;24933755555
4110;34330959000;24433755555;24933755555
4111;34330960000;24433755555;24933755555
4112;34330961000;24433755555;24933755555
4113;34331165000;24433777777;24933777777
4114;34331180000;24434100000;24934100000
4115;34331181000;24434100000;24934100000
4116;34331183000;24434100000;24934100000
4117;34361311000;24475422222;24975422222
4167;34448272000;24642100000;25142100000
4172;34464851000;24683766666;25183766666
4173;34464855000;24683766666;25183766666
4174;34464856000;24683766666;25183766666
4175;34464857000;24683766666;25183766666
4176;34464858000;24683766666;25183766666
4177;34464859000;24683766666;25183766666
4178;34464860000;24683766666;25183766666
4179;34465057000;24683788888;25183788888
4180;34465072000;24684122222;25184122222
4181;34465074000;24684122222;25184122222
4182;34465075000;24684122222;25184122222
4183;34479869000;24725422222;25225422222
4185;34479873000;24725422222;25225422222
4186;34479874000;24725422222;25225422222
4187;34479875000;24725422222;25225422222
4190;34480043000;24725444444;25225444444
4191;34480048000;24725744444;25225744444
4192;34480049000;24725744444;25225744444
4193;34480050000;24725744444;25225744444
4194;34496509000;24767100000;25267100000
4195;34496511000;24767100000;25267100000
4196;34496512000;24767100000;25267100000
4197;34496513000;24767100000;25267100000
4198;34644242000;24767100000;25267100000
4199;34644701000;24767100000;25267100000
4200;34645086000;24767100000;25267100000
4201;34695580000;24767122222;25267122222
4252;34695596000;24975433333;25475433333
4253;34695597000;24975433333;25475433333
4254;34695598000;24975433333;25475433333
4255;34695599000;24975433333;25475433333
4257;34897466000;24975733333;25475733333
4258;34897486000;24975733333;25475733333
4259;34897488000;24975733333;25475733333
4261;34933802000;25017111111;25517111111
4262;34933805000;25017111111;25517111111
4263;34933806000;25017111111;25517111111
4264;34933808000;25017111111;25517111111
4265;34933818000;25017111111;25517111111
4266;34933820000;25017111111;25517111111
4267;34933887000;25017122222;25517122222
4268;34933891000;25017422222;25517422222
4269;34933892000;25017422222;25517422222
4270;34933894000;25017422222;25517422222
4271;34964128000;25058766666;25558766666
4317;35050654000;25225433333;25725433333
4328;35067125000;25267100000;25767100000
4329;35067129000;25267100000;25767100000
4331;35067130000;25267100000;25767100000
4332;35067131000;25267100000;25767100000
4333;35067329000;25267122222;25767122222
4334;35067344000;25267377777;25767377777
4336;35067345000;25267377777;25767377777
4337;35081983000;25308766666;25808766666
4338;35081986000;25308766666;25808766666
4340;35081987000;25308766666;25808766666
4341;35081989000;25308766666;25808766666
4342;35081990000;25308766666;25808766666
4345;35082121000;25309100000;25809100000
4346;35082124000;25309100000;25809100000
4347;35082125000;25309100000;25809100000
4348;35105871000;25350433333;25850433333
4349;35105884000;25350433333;25850433333
4350;35105885000;25350433333;25850433333
4351;35105887000;25350433333;25850433333
4353;35105889000;25350433333;25850433333
4354;35246441000;25350433333;25850433333
4355;35296896000;25350455555;25850455555
4408;35296911000;25558766666;26058766666
4409;35296912000;25558766666;26058766666
4410;35499814000;25558788888;26058788888
4411;35499820000;25559088888;26059088888
4412;35499822000;25559088888;26059088888
4413;35499823000;25559088888;26059088888
4414;35533556000;25600422222;26100422222
4415;35533559000;25600422222;26100422222
4416;35533560000;25600422222;26100422222
4418;35533562000;25600422222;26100422222
4419;35533573000;25600422222;26100422222
4420;35533574000;25600422222;26100422222
4421;35533716000;25600444444;26100444444
4422;35533720000;25600755555;26100755555
4423;35533721000;25600755555;26100755555
4424;35533723000;25600755555;26100755555
4427;35563944000;25642088888;26142088888
4466;35644790000;25767400000;26267400000
4488;35676713000;25850722222;26350722222
4489;35676717000;25850722222;26350722222
4490;35676718000;25850722222;26350722222
4491;35690756000;25892100000;26392100000
4492;35690759000;25892100000;26392100000
4493;35690760000;25892100000;26392100000
4495;35690761000;25892100000;26392100000
4496;35690763000;25892100000;26392100000
4497;35690764000;25892100000;26392100000
4498;35690961000;25892122222;26392122222
4499;35690976000;25892388888;26392388888
4500;35690978000;25892388888;26392388888
4501;35690978000;25892388888;26392388888
4502;35705891000;25933755555;26433755555
4503;35705894000;25933755555;26433755555
4504;35705895000;25933755555;26433755555
4505;35705896000;25933755555;26433755555
4506;35705897000;25933755555;26433755555
4507;35705898000;25933755555;26433755555
4508;35705899000;25933755555;26433755555
4509;35898535000;25933777777;26433777777
4560;36100515000;26142100000;26642100000
4561;36100517000;26142100000;26642100000
4562;36100518000;26142100000;26642100000
4563;36100519000;26142100000;26642100000
4565;36100629000;26142388888;26642388888
4566;36100632000;26142388888;26642388888
4567;36100633000;26142388888;26642388888
4568;36136906000;26183766666;26683766666
4569;36136909000;26183766666;26683766666
4572;36136911000;26183766666;26683766666
4574;36136912000;26183766666;26683766666
4575;36137113000;26183788888;26683788888
4576;36137128000;26184077777;26684077777
4578;36137129000;26184077777;26684077777
4581;36167066000;26225422222;26725422222
4622;36235873000;26350722222;26850722222
4637;36270679000;26433766666;26933766666
4639;36270682000;26433766666;26933766666
4640;36270683000;26433766666;26933766666
4641;36270803000;26433788888;26933788888
4642;36270818000;26434088888;26934088888
4643;36270819000;26434088888;26934088888
4644;36270821000;26434088888;26934088888
4647;36285412000;26475433333;26975433333
4648;36285416000;26475433333;26975433333
4649;36285417000;26475433333;26975433333
4650;36285418000;26475433333;26975433333
4651;36285419000;26475433333;26975433333
4652;36285545000;26475455555;26975455555
4654;36285561000;26475733333;26975733333
4655;36285562000;26475733333;26975733333
4656;36301991000;26517088888;27017088888
4658;36301994000;26517088888;27017088888
4659;36301995000;26517088888;27017088888
4660;36301997000;26517088888;27017088888
4661;36301998000;26517088888;27017088888
4663;36302167000;26517111111;27017111111
4664;36302171000;26517411111;27017411111
4665;36302173000;26517411111;27017411111
4666;36302174000;26517411111;27017411111
4667;36500506000;26558777777;27058777777
4717;36664524000;26725433333;27225433333
4718;36664605000;26725455555;27225455555
4719;36664610000;26725722222;27225722222
4720;36664611000;26725722222;27225722222
4721;36664612000;26725722222;27225722222
4722;36702356000;26767100000;27267100000
4723;36702359000;26767100000;27267100000
4724;36702360000;26767100000;27267100000
4725;36702361000;26767100000;27267100000
4727;36702362000;26767100000;27267100000
4729;36702490000;26767111111;27267111111
4730;36702495000;26767366666;27267366666
4731;36702496000;26767366666;27267366666
4732;36702497000;26767366666;27267366666
4733;36737105000;26808755555;27308755555
4735;36737109000;26808755555;27308755555
4736;36737110000;26808755555;27308755555
4737;36737111000;26808755555;27308755555
4738;36737112000;26808755555;27308755555
4740;36737233000;26808777777;27308777777
4741;36737238000;26809100000;27309100000
4742;36737239000;26809100000;27309100000
4743;36737240000;26809100000;27309100000
4744;36768298000;26850422222;27350422222
4780;36850851000;26975444444;27475444444
4796;36871995000;27017400000;27517400000
4797;36871998000;27017400000;27517400000
4798;36871999000;27017400000;27517400000
4800;36892758000;27058766666;27558766666
4801;36892761000;27058766666;27558766666
4802;36892762000;27058766666;27558766666
4803;36892763000;27058766666;27558766666
4805;36892764000;27058766666;27558766666
4806;36892843000;27058777777;27558777777
4807;36892848000;27059100000;27559100000
4808;36892849000;27059100000;27559100000
4810;36911395000;27100433333;27600433333
4811;36911398000;27100433333;27600433333
4812;36911399000;27100433333;27600433333
4813;36911400000;27100433333;27600433333
4814;36911401000;27100433333;27600433333
4815;36911402000;27100433333;27600433333
4817;36911491000;27100455555;27600455555
4818;36911506000;27100800000;27600800000
4819;36911507000;27100800000;27600800000
4820;36911509000;27100800000;27600800000
4821;36929019000;27142088888;27642088888
4822;37051785000;27142088888;27642088888
4823;37052363000;27142088888;27642088888
4824;37052370000;27142088888;27642088888
4825;37052645000;27142088888;27642088888
4826;37052881000;27142088888;27642088888
4827;37053176000;27142088888;27642088888
4828;37103567000;27142111111;27642111111
4869;37103574000;27308766666;27808766666
4872;37267617000;27308777777;27808777777
4873;37267623000;27309100000;27809100000
4874;37267624000;27309100000;27809100000
4875;37267625000;27309100000;27809100000
4876;37305324000;27350433333;27850433333
4877;37305328000;27350433333;27850433333
4878;37305329000;27350433333;27850433333
4879;37305330000;27350433333;27850433333
4880;37305330000;27350433333;27850433333
4881;37305332000;27350433333;27850433333
4882;37305333000;27350433333;27850433333
4886;37305394000;27350733333;27850733333
4887;37341898000;27392100000;27892100000
4888;37341902000;27392100000;27892100000
4889;37341902000;27392100000;27892100000
4890;37341903000;27392100000;27892100000
4891;37341905000;27392100000;27892100000
4893;37341906000;27392100000;27892100000
4894;37342026000;27392122222;27892122222
4895;37342032000;27392411111;27892411111
4900;37372156000;27433766666;27933766666
4936;37441161000;27559000000;28059000000
4943;37458671000;27600444444;28100444444
4944;37458674000;27600444444;28100444444
4946;37458675000;27600444444;28100444444
4947;37458676000;27600444444;28100444444
4948;37458677000;27600444444;28100444444
4949;37458798000;27600455555;28100455555
4950;37458803000;27600744444;28100744444
4952;37458805000;27600744444;28100744444
4954;37475582000;27642100000;28142100000
4955;37475585000;27642100000;28142100000
4957;37475586000;27642100000;28142100000
4958;37475587000;27642100000;28142100000
4959;37475588000;27642100000;28142100000
4960;37475657000;27642122222;28142122222
4961;37475662000;27642411111;28142411111
4962;37475663000;27642411111;28142411111
4963;37475664000;27642411111;28142411111
4965;37490576000;27683766666;28183766666
4966;37490579000;27683766666;28183766666
4967;37490580000;27683766666;28183766666
4970;37490581000;27683766666;28183766666
4971;37490651000;27683788888;28183788888
4972;37490656000;27684122222;28184122222
4973;37490657000;27684122222;28184122222
4974;37490658000;27684122222;28184122222
4975;37507151000;27725422222;28225422222
4976;37653880000;27725422222;28225422222
4977;37653882000;27725422222;28225422222
4978;37654391000;27725422222;28225422222
4979;37654393000;27725422222;28225422222
4981;37654672000;27725422222;28225422222
4982;37705028000;27725444444;28225444444
5030;37705034000;27933766666;28433766666
5031;37705051000;27933766666;28433766666
5032;37705052000;27933766666;28433766666
5034;37907074000;27933766666;28433766666
5035;37907076000;27933766666;28433766666
5036;37907077000;27933766666;28433766666
5037;37907189000;27933777777;28433777777
5038;37907194000;27934100000;28434100000
5039;37907195000;27934100000;28434100000
5040;37907196000;27934100000;28434100000
5041;37941625000;27975422222;28475422222
5042;37941628000;27975422222;28475422222
5043;37941629000;27975422222;28475422222
5044;37941630000;27975422222;28475422222
5045;37941631000;27975422222;28475422222
5046;37941632000;27975422222;28475422222
5047;37941633000;27975422222;28475422222
5049;37941695000;27975711111;28475711111
5050;37941707000;27975711111;28475711111
5051;37941708000;27975711111;28475711111
5052;37975080000;28017088888;28517088888
5103;38061583000;28183788888;28683788888
5111;38061589000;28225433333;28725433333
5112;38061590000;28225433333;28725433333
5113;38061591000;28225433333;28725433333
5114;38078051000;28225455555;28725455555
5115;38078057000;28225733333;28725733333
5116;38078058000;28225733333;28725733333
5117;38078059000;28225733333;28725733333
5118;38092819000;28267100000;28767100000
5119;38092822000;28267100000;28767100000
5120;38092823000;28267100000;28767100000
5121;38092824000;28267100000;28767100000
5122;38092825000;28267100000;28767100000
5123;38092826000;28267100000;28767100000
5124;38092827000;28267100000;28767100000
5125;38092947000;28267111111;28767111111
5126;38092953000;28267377777;28767377777
5127;38092954000;28267377777;28767377777
5129;38109533000;28308755555;28808755555
5130;38109536000;28308755555;28808755555
5131;38109537000;28308755555;28808755555
5132;38254947000;28308755555;28808755555
5133;38255466000;28308755555;28808755555
5134;38255748000;28308755555;28808755555
5135;38255755000;28308755555;28808755555
5136;38306432000;28308777777;28808777777
5180;38470585000;28475455555;28975455555
5181;38470598000;28475755555;28975755555
5182;38470599000;28475755555;28975755555
5183;38470600000;28475755555;28975755555
5184;38508107000;28517100000;29017100000
5185;38508111000;28517100000;29017100000
5186;38508112000;28517100000;29017100000
5187;38508113000;28517100000;29017100000
5188;38508114000;28517100000;29017100000
5189;38508115000;28517100000;29017100000
5190;38508116000;28517100000;29017100000
5191;38508236000;28517122222;29017122222
5192;38508241000;28517411111;29017411111
5193;38508242000;28517411111;29017411111
5194;38508243000;28517411111;29017411111
5199;38543088000;28558766666;29058766666
5200;38543091000;28558766666;29058766666
5201;38543092000;28558766666;29058766666
5202;38543171000;28558777777;29058777777
5203;38543176000;28559088888;29059088888
5209;38573239000;28600433333;29100433333
5243;38642669000;28725433333;29225433333
5261;38677925000;28808766666;29308766666
5262;38677929000;28808766666;29308766666
5263;38677930000;28808766666;29308766666
5264;38677931000;28808766666;29308766666
5265;38677932000;28808766666;29308766666
5267;38677933000;28808766666;29308766666
5268;38678054000;28808788888;29308788888
5269;38678059000;28809122222;29309122222
5270;38678060000;28809122222;29309122222
5271;38678061000;28809122222;29309122222
5272;38693094000;28850433333;29350433333
5273;38693097000;28850433333;29350433333
5274;38693098000;28850433333;29350433333
5275;38693099000;28850433333;29350433333
5276;38693100000;28850433333;29350433333
5277;38693101000;28850433333;29350433333
5278;38693102000;28850433333;29350433333
5279;38693222000;28850444444;29350444444
5280;38693227000;28850733333;29350733333
5281;38693229000;28850733333;29350733333
5282;38693230000;28850733333;29350733333
5283;38710053000;28892100000;29392100000
5284;38710056000;28892100000;29392100000
5287;38856655000;28892100000;29392100000
5288;38856658000;28892100000;29392100000
5289;38857139000;28892100000;29392100000
5290;38907527000;28892122222;29392122222
5336;38907533000;29059133333;29559133333
5337;38907535000;29059133333;29559133333
5339;39109382000;29100444444;29600444444
5340;39109385000;29100444444;29600444444
5341;39109386000;29100444444;29600444444
5342;39109395000;29100444444;29600444444
5343;39109396000;29100444444;29600444444
5344;39109397000;29100444444;29600444444
5346;39109406000;29100744444;29600744444
5347;39109407000;29100744444;29600744444
5348;39109418000;29100744444;29600744444
5349;39145938000;29142100000;29642100000
5350;39145941000;29142100000;29642100000
5351;39145942000;29142100000;29642100000
5353;39145944000;29142100000;29642100000
5355;39145944000;29142100000;29642100000
5358;39146007000;29142400000;29642400000
5359;39146019000;29142400000;29642400000
5360;39179343000;29183766666;29683766666
5411;39265375000;29350444444;29850444444
5414;39265381000;29350755555;29850755555
5415;39281612000;29392111111;29892111111
5416;39281615000;29392111111;29892111111
5417;39281616000;29392111111;29892111111
5420;39281784000;29392111111;29892111111
5421;39281787000;29392111111;29892111111
5422;39281909000;29392133333;29892133333
5423;39281914000;29392411111;29892411111
5424;39281916000;29392411111;29892411111
5425;39281917000;29392411111;29892411111
5426;39296299000;29433766666;29933766666
5429;39296303000;29433766666;29933766666
5430;39296304000;29433766666;29933766666
5431;39296305000;29433766666;29933766666
5432;39296306000;29433766666;29933766666
5433;39296426000;29433788888;29933788888
5434;39296431000;29434100000;29934100000
5435;39296432000;29434100000;29934100000
5436;39296433000;29434100000;29934100000
5439;39312724000;29475433333;29975433333
5440;39312727000;29475433333;29975433333
5441;39312737000;29475433333;29975433333
5442;39457964000;29475433333;29975433333
5443;39457966000;29475433333;29975433333
5444;39508971000;29475444444;29975444444
5477;39633445000;29600455555;30100455555
5478;39633451000;29600744444;30100744444
5479;39633452000;29600744444;30100744444
5480;39633453000;29600744444;30100744444
5481;39672941000;29642100000;30142100000
5482;39672944000;29642100000;30142100000
5483;39672945000;29642100000;30142100000
5484;39672947000;29642100000;30142100000
5485;39672947000;29642100000;30142100000
5486;39672948000;29642100000;30142100000
5487;39672949000;29642100000;30142100000
5488;39673048000;29642122222;30142122222
5489;39673053000;29642411111;30142411111
5490;39673055000;29642411111;30142411111
5491;39673056000;29642411111;30142411111
5492;39710778000;29683777777;30183777777
5493;39710780000;29683777777;30183777777
5494;39710790000;29683777777;30183777777
5495;39710791000;29683777777;30183777777
5496;39710792000;29683777777;30183777777
5497;39710793000;29683777777;30183777777
5498;39710794000;29683777777;30183777777
5499;39710909000;29683800000;30183800000
