seqnum;now;rtptime;deadline
1;3924650000;3871644444;4371644444
2;3924675000;3871644444;4371644444
3;4005317000;3903022222;4403022222
7;4005373000;3903022222;4403022222
8;4005375000;3903022222;4403022222
9;4005377000;3903022222;4403022222
10;4010680000;3903044444;4403044444
11;4010735000;3903388888;4403388888
12;4010743000;3903388888;4403388888
13;4010745000;3903388888;4403388888
14;4046827000;3944700000;4444700000
15;4046843000;3944700000;4444700000
16;4046844000;3944700000;4444700000
17;4046846000;3944700000;4444700000
18;4046848000;3944700000;4444700000
19;4046850000;3944700000;4444700000
20;4046852000;3944700000;4444700000
21;4047061000;3944711111;4444711111
22;4047115000;3945166666;4445166666
23;4047121000;3945166666;4445166666
24;4047129000;3945166666;4445166666
25;4090451000;3986311111;4486311111
33;4090640000;3986655555;4486655555
35;4090679000;3986655555;4486655555
36;4129436000;4027977777;4527977777
42;4129446000;4027977777;4527977777
43;4129674000;4028000000;4528000000
44;4129724000;4028333333;4528333333
45;4129733000;4028333333;4528333333
46;4129734000;4028333333;4528333333
47;4170201000;4069677777;4569677777
48;4170245000;4069677777;4569677777
49;4170248000;4069677777;4569677777
50;4170251000;4069677777;4569677777
51;4170252000;4069677777;4569677777
52;4170254000;4069677777;4569677777
53;4170256000;4069677777;4569677777
54;4170453000;4069700000;4569700000
55;4170468000;4070011111;4570011111
56;4170474000;4070011111;4570011111
57;4170476000;4070011111;4570011111
58;4210099000;4111344444;4611344444
66;4210293000;4111655555;4611655555
67;4210322000;4111655555;4611655555
68;4210324000;4111655555;4611655555
69;4249504000;4152977777;4652977777
74;4249531000;4152977777;4652977777
75;4249533000;4152977777;4652977777
76;4249771000;4153000000;4653000000
77;4249798000;4153344444;4653344444
78;4249815000;4153344444;4653344444
79;4249817000;4153344444;4653344444
80;4287515000;4194644444;4694644444
88;4287620000;4194977777;4694977777
89;4287642000;4194977777;4694977777
90;4287644000;4194977777;4694977777
91;4325991000;4236311111;4736311111
99;4326146000;4236622222;4736622222
100;4326170000;4236622222;4736622222
101;4326172000;4236622222;4736622222
102;4364733000;4277977777;4777977777
110;4364854000;4278244444;4778244444
111;4364858000;4278244444;4778244444
112;4364884000;4278244444;4778244444
113;4402936000;4319677777;4819677777
121;4403060000;4319988888;4819988888
122;4403085000;4319988888;4819988888
123;4403086000;4319988888;4819988888
124;4441334000;4361311111;4861311111
132;4441453000;4361622222;4861622222
133;4441478000;4361622222;4861622222
134;4441479000;4361622222;4861622222
135;4480245000;4403011111;4903011111
143;4480373000;4403322222;4903322222
144;4480384000;4403322222;4903322222
145;4480406000;4403322222;4903322222
146;4519626000;4444644444;4944644444
154;4519729000;4444977777;4944977777
155;4519731000;4444977777;4944977777
156;4519733000;4444977777;4944977777
157;4559667000;4486311111;4986311111
159;4559694000;4486311111;4986311111
160;4559695000;4486311111;4986311111
161;4559697000;4486311111;4986311111
162;4559698000;4486311111;4986311111
163;4559699000;4486311111;4986311111
164;4559888000;4486333333;4986333333
165;4559901000;4486633333;4986633333
166;4559916000;4486633333;4986633333
167;4559917000;4486633333;4986633333
168;4599858000;4527977777;5027977777
176;4600061000;4528300000;5028300000
177;4600090000;4528300000;5028300000
178;4600098000;4528300000;5028300000
179;4641084000;4569677777;5069677777
187;4641227000;4569977777;5069977777
188;4641251000;4569977777;5069977777
189;4641252000;4569977777;5069977777
190;4682344000;4611311111;5111311111
198;4682466000;4611600000;5111600000
199;4682493000;4611600000;5111600000
200;4682494000;4611600000;5111600000
201;4723878000;4653011111;5153011111
209;4723977000;4653311111;5153311111
210;4723995000;4653311111;5153311111
211;4723997000;4653311111;5153311111
212;4765468000;4694677777;5194677777
220;4765567000;4695011111;5195011111
221;4765586000;4695011111;5195011111
222;4765587000;4695011111;5195011111
223;4807151000;4736355555;5236355555
231;4807270000;4736677777;5236677777
232;4807306000;4736677777;5236677777
233;4807308000;4736677777;5236677777
234;4848700000;4777977777;5277977777
242;4848829000;4778277777;5278277777
243;4848848000;4778277777;5278277777
244;4848850000;4778277777;5278277777
245;4890414000;4819677777;5319677777
253;4890512000;4820011111;5320011111
254;4890530000;4820011111;5320011111
255;4890532000;4820011111;5320011111
256;4932031000;4861311111;5361311111
264;4932196000;4861611111;5361611111
265;4932220000;4861611111;5361611111
266;4932222000;4861611111;5361611111
267;4973694000;4902977777;5402977777
275;4973834000;4903255555;5403255555
276;4973858000;4903255555;5403255555
277;4973859000;4903255555;5403255555
278;5015396000;4944677777;5444677777
286;5015515000;4945000000;5445000000
287;5015539000;4945000000;5445000000
288;5015541000;4945000000;5445000000
289;5057055000;4986311111;5486311111
297;5057201000;4986588888;5486588888
298;5057205000;4986588888;5486588888
299;5057230000;4986588888;5486588888
300;5098732000;5028011111;5528011111
308;5098847000;5028300000;5528300000
309;5098871000;5028300000;5528300000
310;5098873000;5028300000;5528300000
311;5140415000;5069677777;5569677777
319;5140534000;5069988888;5569988888
320;5140557000;5069988888;5569988888
321;5140558000;5069988888;5569988888
322;5182073000;5111344444;5611344444
330;5182192000;5111633333;5611633333
331;5182216000;5111633333;5611633333
332;5182218000;5111633333;5611633333
333;5223697000;5152988888;5652988888
341;5223814000;5153322222;5653322222
342;5223839000;5153322222;5653322222
343;5223840000;5153322222;5653322222
344;5265321000;5194644444;5694644444
352;5265504000;5194955555;5694955555
353;5265506000;5194955555;5694955555
354;5265507000;5194955555;5694955555
355;5307015000;5236344444;5736344444
362;5307170000;5236366666;5736366666
363;5307182000;5236633333;5736633333
364;5307184000;5236633333;5736633333
365;5307198000;5236633333;5736633333
366;5348493000;5277977777;5777977777
372;5348511000;5277977777;5777977777
373;5348640000;5278000000;5778000000
374;5348648000;5278255555;5778255555
375;5348656000;5278255555;5778255555
376;5348657000;5278255555;5778255555
377;5390374000;5319677777;5819677777
385;5390489000;5319977777;5819977777
386;5390521000;5319977777;5819977777
387;5390523000;5319977777;5819977777
388;5432062000;5361311111;5861311111
396;5432179000;5361611111;5861611111
397;5432199000;5361611111;5861611111
398;5432209000;5361611111;5861611111
399;5473717000;5403011111;5903011111
407;5473817000;5403311111;5903311111
408;5473820000;5403311111;5903311111
409;5473850000;5403311111;5903311111
410;5515374000;5444644444;5944644444
418;5515504000;5444966666;5944966666
419;5515516000;5444966666;5944966666
420;5515538000;5444966666;5944966666
421;5558614000;5486311111;5986311111
422;5558661000;5486311111;5986311111
423;5558663000;5486311111;5986311111
424;5558665000;5486311111;5986311111
425;5558668000;5486311111;5986311111
426;5558670000;5486311111;5986311111
427;5558672000;5486311111;5986311111
428;5558905000;5486322222;5986322222
429;5558921000;5486611111;5986611111
430;5558923000;5486611111;5986611111
431;5558935000;5486611111;5986611111
432;5598734000;5528011111;6028011111
437;5598772000;5528011111;6028011111
438;5598774000;5528011111;6028011111
439;5599024000;5528033333;6028033333
440;5599082000;5528322222;6028322222
441;5599085000;5528322222;6028322222
442;5599087000;5528322222;6028322222
443;5640186000;5569644444;6069644444
447;5640220000;5569644444;6069644444
448;5640228000;5569644444;6069644444
449;5640230000;5569644444;6069644444
450;5640356000;5569666666;6069666666
451;5640383000;5569944444;6069944444
452;5640395000;5569944444;6069944444
453;5640402000;5569944444;6069944444
454;5682069000;5611344444;6111344444
462;5682226000;5611622222;6111622222
463;5682251000;5611622222;6111622222
464;5682252000;5611622222;6111622222
465;5723672000;5652977777;6152977777
473;5723821000;5653277777;6153277777
474;5723845000;5653277777;6153277777
475;5723850000;5653277777;6153277777
476;5765353000;5694644444;6194644444
484;5765502000;5694977777;6194977777
485;5765526000;5694977777;6194977777
486;5765528000;5694977777;6194977777
487;5807089000;5736344444;6236344444
495;5807269000;5736644444;6236644444
496;5807294000;5736644444;6236644444
497;5807296000;5736644444;6236644444
498;5848674000;5777977777;6277977777
506;5848825000;5778266666;6278266666
507;5848828000;5778266666;6278266666
508;5848829000;5778266666;6278266666
509;5890335000;5819644444;6319644444
511;5890363000;5819644444;6319644444
512;5890365000;5819644444;6319644444
513;5890366000;5819644444;6319644444
514;5890367000;5819644444;6319644444
515;5890368000;5819644444;6319644444
516;5890537000;5819666666;6319666666
517;5890560000;5819966666;6319966666
518;5890565000;5819966666;6319966666
519;5890566000;5819966666;6319966666
520;5932037000;5861344444;6361344444
528;5932202000;5861655555;6361655555
529;5932206000;5861655555;6361655555
530;5932207000;5861655555;6361655555
531;5973671000;5902977777;6402977777
532;5973698000;5902977777;6402977777
533;5973700000;5902977777;6402977777
534;5973701000;5902977777;6402977777
535;5973703000;5902977777;6402977777
536;5973704000;5902977777;6402977777
537;5973705000;5902977777;6402977777
538;5973936000;5903000000;6403000000
539;5973974000;5903288888;6403288888
540;5973979000;5903288888;6403288888
541;5973980000;5903288888;6403288888
542;6015347000;5944655555;6444655555
550;6015506000;5945000000;6445000000
551;6015530000;5945000000;6445000000
552;6015532000;5945000000;6445000000
553;6056999000;5986311111;6486311111
561;6057161000;5986600000;6486600000
562;6057186000;5986600000;6486600000
563;6057188000;5986600000;6486600000
564;6098698000;6028011111;6528011111
572;6098861000;6028311111;6528311111
573;6098885000;6028311111;6528311111
574;6098887000;6028311111;6528311111
575;6140333000;6069644444;6569644444
583;6140494000;6069966666;6569966666
584;6140518000;6069966666;6569966666
585;6140520000;6069966666;6569966666
586;6181863000;6111311111;6611311111
593;6182102000;6111333333;6611333333
594;6182140000;6111622222;6611622222
595;6182141000;6111622222;6611622222
596;6182143000;6111622222;6611622222
597;6223691000;6153000000;6653000000
598;6223719000;6153000000;6653000000
599;6223721000;6153000000;6653000000
600;6223722000;6153000000;6653000000
601;6223723000;6153000000;6653000000
602;6223724000;6153000000;6653000000
603;6223725000;6153000000;6653000000
604;6223950000;6153011111;6653011111
605;6223978000;6153322222;6653322222
606;6223984000;6153322222;6653322222
607;6223985000;6153322222;6653322222
608;6265315000;6194677777;6694677777
616;6265423000;6195000000;6695000000
617;6265425000;6195000000;6695000000
618;6265427000;6195000000;6695000000
619;6307003000;6236311111;6736311111
620;6307030000;6236311111;6736311111
621;6307032000;6236311111;6736311111
622;6307033000;6236311111;6736311111
623;6307034000;6236311111;6736311111
624;6307036000;6236311111;6736311111
625;6307037000;6236311111;6736311111
626;6307194000;6236333333;6736333333
627;6307221000;6236622222;6736622222
628;6307222000;6236622222;6736622222
629;6307239000;6236622222;6736622222
630;6348670000;6277977777;6777977777
638;6348778000;6278266666;6778266666
639;6348780000;6278266666;6778266666
640;6348800000;6278266666;6778266666
641;6390370000;6319677777;6819677777
648;6390580000;6319700000;6819700000
649;6390584000;6319988888;6819988888
650;6390606000;6319988888;6819988888
651;6390607000;6319988888;6819988888
652;6432061000;6361344444;6861344444
660;6432210000;6361666666;6861666666
661;6432235000;6361666666;6861666666
662;6432236000;6361666666;6861666666
663;6473657000;6402977777;6902977777
671;6473807000;6403288888;6903288888
672;6473832000;6403288888;6903288888
673;6473834000;6403288888;6903288888
674;6515377000;6444677777;6944677777
682;6515545000;6445011111;6945011111
683;6515570000;6445011111;6945011111
684;6515571000;6445011111;6945011111
685;6557032000;6486344444;6986344444
693;6557201000;6486666666;6986666666
694;6557225000;6486666666;6986666666
695;6557227000;6486666666;6986666666
696;6598705000;6527977777;7027977777
704;6598886000;6528300000;7028300000
705;6598911000;6528300000;7028300000
706;6598912000;6528300000;7028300000
707;6640368000;6569677777;7069677777
715;6640531000;6569988888;7069988888
716;6640572000;6569988888;7069988888
717;6640574000;6569988888;7069988888
718;6681998000;6611311111;7111311111
726;6682160000;6611611111;7111611111
727;6682184000;6611611111;7111611111
728;6682186000;6611611111;7111611111
729;6723673000;6652977777;7152977777
737;6723821000;6653288888;7153288888
738;6723846000;6653288888;7153288888
739;6723847000;6653288888;7153288888
740;6765375000;6694666666;7194666666
748;6765524000;6695000000;7195000000
749;6765548000;6695000000;7195000000
750;6765550000;6695000000;7195000000
751;6807037000;6736344444;7236344444
759;6807203000;6736655555;7236655555
760;6807228000;6736655555;7236655555
761;6807230000;6736655555;7236655555
762;6848699000;6778011111;7278011111
770;6848861000;6778300000;7278300000
771;6848875000;6778300000;7278300000
772;6848887000;6778300000;7278300000
773;6890365000;6819677777;7319677777
781;6890527000;6820011111;7320011111
782;6890552000;6820011111;7320011111
783;6890553000;6820011111;7320011111
784;6931860000;6861311111;7361311111
792;6932166000;6861633333;7361633333
793;6932177000;6861633333;7361633333
794;6932179000;6861633333;7361633333
795;6973668000;6902977777;7402977777
796;6973696000;6902977777;7402977777
797;6973697000;6902977777;7402977777
798;6973699000;6902977777;7402977777
799;6973700000;6902977777;7402977777
800;6973701000;6902977777;7402977777
801;6973702000;6902977777;7402977777
802;6973927000;6902988888;7402988888
803;6973955000;6903277777;7403277777
804;6973961000;6903277777;7403277777
805;6973962000;6903277777;7403277777
806;7015403000;6944677777;7444677777
814;7015580000;6945022222;7445022222
815;7015604000;6945022222;7445022222
816;7015606000;6945022222;7445022222
817;7057036000;6986344444;7486344444
825;7057212000;6986655555;7486655555
826;7057236000;6986655555;7486655555
827;7057238000;6986655555;7486655555
828;7098709000;7028022222;7528022222
836;7098871000;7028355555;7528355555
837;7098896000;7028355555;7528355555
838;7098897000;7028355555;7528355555
839;7140331000;7069644444;7569644444
847;7140493000;7069977777;7569977777
848;7140518000;7069977777;7569977777
849;7140519000;7069977777;7569977777
850;7181997000;7111311111;7611311111
858;7182159000;7111633333;7611633333
859;7182184000;7111633333;7611633333
860;7182185000;7111633333;7611633333
861;7223682000;7152988888;7652988888
869;7223832000;7153333333;7653333333
870;7223836000;7153333333;7653333333
871;7223837000;7153333333;7653333333
872;7265177000;7194644444;7694644444
873;7265203000;7194644444;7694644444
874;7265205000;7194644444;7694644444
875;7265206000;7194644444;7694644444
876;7265207000;7194644444;7694644444
877;7265208000;7194644444;7694644444
878;7265209000;7194644444;7694644444
879;7265426000;7194666666;7694666666
880;7265460000;7194966666;7694966666
881;7265467000;7194966666;7694966666
882;7265468000;7194966666;7694966666
883;7307030000;7236344444;7736344444
891;7307172000;7236655555;7736655555
892;7307192000;7236655555;7736655555
893;7307193000;7236655555;7736655555
894;7348661000;7277977777;7777977777
902;7348793000;7278277777;7778277777
903;7348812000;7278277777;7778277777
904;7348814000;7278277777;7778277777
905;7390328000;7319644444;7819644444
913;7390461000;7319977777;7819977777
914;7390470000;7319977777;7819977777
915;7390481000;7319977777;7819977777
916;7431994000;7361311111;7861311111
924;7432132000;7361633333;7861633333
925;7432152000;7361633333;7861633333
926;7432154000;7361633333;7861633333
927;7473696000;7403011111;7903011111
935;7473841000;7403333333;7903333333
936;7473861000;7403333333;7903333333
937;7473863000;7403333333;7903333333
938;7515327000;7444644444;7944644444
946;7515459000;7444988888;7944988888
947;7515468000;7444988888;7944988888
948;7515480000;7444988888;7944988888
949;7556987000;7486311111;7986311111
957;7557131000;7486644444;7986644444
958;7557133000;7486644444;7986644444
959;7557143000;7486644444;7986644444
960;7598701000;7528011111;8028011111
968;7598864000;7528366666;8028366666
969;7598892000;7528366666;8028366666
970;7598893000;7528366666;8028366666
971;7640369000;7569677777;8069677777
979;7640525000;7570011111;8070011111
980;7640537000;7570011111;8070011111
981;7640538000;7570011111;8070011111
982;7682002000;7611311111;8111311111
985;7682030000;7611311111;8111311111
986;7682031000;7611311111;8111311111
987;7682032000;7611311111;8111311111
988;7682034000;7611311111;8111311111
989;7682228000;7611333333;8111333333
990;7682245000;7611622222;8111622222
991;7682253000;7611622222;8111622222
992;7682254000;7611622222;8111622222
993;7723672000;7652977777;8152977777
1001;7723820000;7653300000;8153300000
1002;7723844000;7653300000;8153300000
1003;7723846000;7653300000;8153300000
1004;7765216000;7694677777;8194677777
1011;7765454000;7694700000;8194700000
1012;7765492000;7695022222;8195022222
1013;7765494000;7695022222;8195022222
1014;7765495000;7695022222;8195022222
1015;7806918000;7736344444;8236344444
1019;7806950000;7736344444;8236344444
1020;7806962000;7736344444;8236344444
1021;7806964000;7736344444;8236344444
1022;7807193000;7736366666;8236366666
1023;7807230000;7736666666;8236666666
1024;7807232000;7736666666;8236666666
1025;7807248000;7736666666;8236666666
1026;7848705000;7778011111;8278011111
1034;7848853000;7778322222;8278322222
1035;7848878000;7778322222;8278322222
1036;7848879000;7778322222;8278322222
1037;7890371000;7819677777;8319677777
1045;7890521000;7820022222;8320022222
1046;7890545000;7820022222;8320022222
1047;7890547000;7820022222;8320022222
1048;7931881000;7861344444;8361344444
1056;7932191000;7861644444;8361644444
1057;7932195000;7861644444;8361644444
1058;7932217000;7861644444;8361644444
1059;7973686000;7902977777;8402977777
1067;7973834000;7903277777;8403277777
1068;7973859000;7903277777;8403277777
1069;7973860000;7903277777;8403277777
1070;8015387000;7944677777;8444677777
1078;8015537000;7945000000;8445000000
1079;8015561000;7945000000;8445000000
1080;8015563000;7945000000;8445000000
1081;8057020000;7986311111;8486311111
1089;8057173000;7986600000;8486600000
1090;8057197000;7986600000;8486600000
1091;8057199000;7986600000;8486600000
1092;8098670000;8027977777;8527977777
1100;8098820000;8028277777;8528277777
1101;8098844000;8028277777;8528277777
1102;8098846000;8028277777;8528277777
1103;8140368000;8069677777;8569677777
1111;8140531000;8069988888;8569988888
1112;8140555000;8069988888;8569988888
1113;8140557000;8069988888;8569988888
1114;8182032000;8111344444;8611344444
1120;8182065000;8111344444;8611344444
1121;8182250000;8111366666;8611366666
1122;8182255000;8111644444;8611644444
1123;8182276000;8111644444;8611644444
1124;8182277000;8111644444;8611644444
1125;8223731000;8153011111;8653011111
1133;8223910000;8153322222;8653322222
1134;8223935000;8153322222;8653322222
1135;8223936000;8153322222;8653322222
1136;8265332000;8194644444;8694644444
1144;8265484000;8194966666;8694966666
1145;8265503000;8194966666;8694966666
1146;8265505000;8194966666;8694966666
1147;8307027000;8236344444;8736344444
1155;8307186000;8236644444;8736644444
1156;8307206000;8236644444;8736644444
1157;8307208000;8236644444;8736644444
1158;8348692000;8278011111;8778011111
1166;8348825000;8278288888;8778288888
1167;8348834000;8278288888;8778288888
1168;8348846000;8278288888;8778288888
1169;8390352000;8319677777;8819677777
1177;8390495000;8319977777;8819977777
1178;8390497000;8319977777;8819977777
1179;8390508000;8319977777;8819977777
1180;8431998000;8361311111;8861311111
1181;8432024000;8361311111;8861311111
1182;8432026000;8361311111;8861311111
1183;8432027000;8361311111;8861311111
1184;8432028000;8361311111;8861311111
1185;8432029000;8361311111;8861311111
1186;8432030000;8361311111;8861311111
1187;8432249000;8361333333;8861333333
1188;8432269000;8361622222;8861622222
1189;8432285000;8361622222;8861622222
1190;8432286000;8361622222;8861622222
1191;8473525000;8402977777;8902977777
1199;8473778000;8403277777;8903277777
1200;8473790000;8403277777;8903277777
1201;8473799000;8403277777;8903277777
1202;8515364000;8444677777;8944677777
1210;8515496000;8445000000;8945000000
1211;8515505000;8445000000;8945000000
1212;8515517000;8445000000;8945000000
1213;8557027000;8486344444;8986344444
1221;8557182000;8486655555;8986655555
1222;8557185000;8486655555;8986655555
1223;8557212000;8486655555;8986655555
1224;8598507000;8527977777;9027977777
1232;8598808000;8528288888;9028288888
1233;8598833000;8528288888;9028288888
1234;8598834000;8528288888;9028288888
1235;8640367000;8569677777;9069677777
1243;8640530000;8569977777;9069977777
1244;8640555000;8569977777;9069977777
1245;8640557000;8569977777;9069977777
1246;8681996000;8611311111;9111311111
1254;8682158000;8611600000;9111600000
1255;8682183000;8611600000;9111600000
1256;8682184000;8611600000;9111600000
1257;8723696000;8653011111;9153011111
1265;8723858000;8653311111;9153311111
1266;8723883000;8653311111;9153311111
1267;8723885000;8653311111;9153311111
1268;8765365000;8694677777;9194677777
1276;8765526000;8695011111;9195011111
1277;8765551000;8695011111;9195011111
1278;8765552000;8695011111;9195011111
1279;8807026000;8736344444;9236344444
1287;8807165000;8736655555;9236655555
1288;8807185000;8736655555;9236655555
1289;8807187000;8736655555;9236655555
1290;8848696000;8778011111;9278011111
1297;8848919000;8778033333;9278033333
1298;8848936000;8778300000;9278300000
1299;8848957000;8778300000;9278300000
1300;8848958000;8778300000;9278300000
1301;8890348000;8819677777;9319677777
1309;8890455000;8820000000;9320000000
1310;8890458000;8820000000;9320000000
1311;8890459000;8820000000;9320000000
1312;8931880000;8861344444;9361344444
1313;8931909000;8861344444;9361344444
1314;8931910000;8861344444;9361344444
1315;8931911000;8861344444;9361344444
1316;8931912000;8861344444;9361344444
1317;8931914000;8861344444;9361344444
1318;8931915000;8861344444;9361344444
1319;8932153000;8861366666;9361366666
1320;8932194000;8861655555;9361655555
1321;8932196000;8861655555;9361655555
1322;8932197000;8861655555;9361655555
1323;8973700000;8903011111;9403011111
1331;8973863000;8903322222;9403322222
1332;8973887000;8903322222;9403322222
1333;8973889000;8903322222;9403322222
1334;9015364000;8944644444;9444644444
1342;9015544000;8944977777;9444977777
1343;9015569000;8944977777;9444977777
1344;9015571000;8944977777;9444977777
1345;9057055000;8986344444;9486344444
1353;9057218000;8986633333;9486633333
1354;9057243000;8986633333;9486633333
1355;9057245000;8986633333;9486633333
1356;9098696000;9028011111;9528011111
1364;9098859000;9028311111;9528311111
1365;9098884000;9028311111;9528311111
1366;9098886000;9028311111;9528311111
1367;9140362000;9069677777;9569677777
1375;9140524000;9070000000;9570000000
1376;9140548000;9070000000;9570000000
1377;9140550000;9070000000;9570000000
1378;9182020000;9111344444;9611344444
1386;9182203000;9111655555;9611655555
1387;9182207000;9111655555;9611655555
1388;9182208000;9111655555;9611655555
1389;9223700000;9153011111;9653011111
1391;9223728000;9153011111;9653011111
1392;9223730000;9153011111;9653011111
1393;9223731000;9153011111;9653011111
1394;9223732000;9153011111;9653011111
1395;9223734000;9153011111;9653011111
1396;9223918000;9153033333;9653033333
1397;9223945000;9153333333;9653333333
1398;9223947000;9153333333;9653333333
1399;9223964000;9153333333;9653333333
1400;9265379000;9194677777;9694677777
1408;9265515000;9195000000;9695000000
1409;9265534000;9195000000;9695000000
1410;9265535000;9195000000;9695000000
1411;9307029000;9236344444;9736344444
1419;9307169000;9236655555;9736655555
1420;9307179000;9236655555;9736655555
1421;9307190000;9236655555;9736655555
1422;9348685000;9278011111;9778011111
1430;9348828000;9278288888;9778288888
1431;9348831000;9278288888;9778288888
1432;9348832000;9278288888;9778288888
1433;9390347000;9319644444;9819644444
1441;9390483000;9319966666;9819966666
1442;9390502000;9319966666;9819966666
1443;9390514000;9319966666;9819966666
1444;9432057000;9361311111;9861311111
1452;9432207000;9361600000;9861600000
1453;9432226000;9361600000;9861600000
1454;9432237000;9361600000;9861600000
1455;9473703000;9403000000;9903000000
1463;9473835000;9403311111;9903311111
1464;9473854000;9403311111;9903311111
1465;9473855000;9403311111;9903311111
1466;9515347000;9444644444;9944644444
1474;9515478000;9444966666;9944966666
1475;9515497000;9444966666;9944966666
1476;9515499000;9444966666;9944966666
1477;9557013000;9486311111;9986311111
1485;9557180000;9486611111;9986611111
1486;9557199000;9486611111;9986611111
1487;9557211000;9486611111;9986611111
1488;9598702000;9528011111;10028011111
1496;9598852000;9528333333;10028333333
1497;9598856000;9528333333;10028333333
1498;9598881000;9528333333;10028333333
1499;9640239000;9569688888;10069688888
1504;9640267000;9569688888;10069688888
1505;9640269000;9569688888;10069688888
1506;9640492000;9569700000;10069700000
1507;9640533000;9570000000;10070000000
1508;9640534000;9570000000;10070000000
1509;9640548000;9570000000;10070000000
1510;9682033000;9611344444;10111344444
1515;9682066000;9611344444;10111344444
1516;9682067000;9611344444;10111344444
1517;9682299000;9611355555;10111355555
1518;9682315000;9611633333;10111633333
1519;9682339000;9611633333;10111633333
1520;9682340000;9611633333;10111633333
1521;9723716000;9653011111;10153011111
1528;9723954000;9653022222;10153022222
1529;9723970000;9653322222;10153322222
1530;9723993000;9653322222;10153322222
1531;9723995000;9653322222;10153322222
1532;9765355000;9694666666;10194666666
1540;9765504000;9695000000;10195000000
1541;9765529000;9695000000;10195000000
1542;9765530000;9695000000;10195000000
1543;9807029000;9736344444;10236344444
1551;9807168000;9736655555;10236655555
1552;9807188000;9736655555;10236655555
1553;9807190000;9736655555;10236655555
1554;9848658000;9777977777;10277977777
1562;9848808000;9778277777;10278277777
1563;9848818000;9778277777;10278277777
1564;9848829000;9778277777;10278277777
1565;9890334000;9819677777;10319677777
1573;9890424000;9820011111;10320011111
1574;9890442000;9820011111;10320011111
1575;9890444000;9820011111;10320011111
1576;9932034000;9861344444;10361344444
1584;9932191000;9861666666;10361666666
1585;9932195000;9861666666;10361666666
1586;9932197000;9861666666;10361666666
1587;9973715000;9903011111;10403011111
1595;9973863000;9903333333;10403333333
1596;9973887000;9903333333;10403333333
1597;9973889000;9903333333;10403333333
1598;10015361000;9944677777;10444677777
1606;10015498000;9945033333;10445033333
1607;10015518000;9945033333;10445033333
1608;10015519000;9945033333;10445033333
1609;10056990000;9986311111;10486311111
1617;10057131000;9986622222;10486622222
1618;10057151000;9986622222;10486622222
1619;10057152000;9986622222;10486622222
1620;10098692000;10028011111;10528011111
1628;10098837000;10028322222;10528322222
1629;10098857000;10028322222;10528322222
1630;10098858000;10028322222;10528322222
1631;10140348000;10069677777;10569677777
1639;10140490000;10070011111;10570011111
1640;10140493000;10070011111;10570011111
1641;10140494000;10070011111;10570011111
1642;10181988000;10111311111;10611311111
1643;10182021000;10111311111;10611311111
1644;10182022000;10111311111;10611311111
1645;10182024000;10111311111;10611311111
1646;10182025000;10111311111;10611311111
1647;10182026000;10111311111;10611311111
1648;10182027000;10111311111;10611311111
1649;10182198000;10111333333;10611333333
1650;10182225000;10111633333;10611633333
1651;10182226000;10111633333;10611633333
1652;10182242000;10111633333;10611633333
1653;10223535000;10152977777;10652977777
1661;10223798000;10153300000;10653300000
1662;10223800000;10153300000;10653300000
1663;10223818000;10153300000;10653300000
1664;10265175000;10194644444;10694644444
1665;10265198000;10194644444;10694644444
1666;10265199000;10194644444;10694644444
1667;10265200000;10194644444;10694644444
1668;10265202000;10194644444;10694644444
1669;10265203000;10194644444;10694644444
1670;10265204000;10194644444;10694644444
1671;10265405000;10194655555;10694655555
1672;10265426000;10194966666;10694966666
1673;10265437000;10194966666;10694966666
1674;10265442000;10194966666;10694966666
1675;10307009000;10236311111;10736311111
1683;10307177000;10236633333;10736633333
1684;10307197000;10236633333;10736633333
1685;10307198000;10236633333;10736633333
1686;10348622000;10277977777;10777977777
1694;10348721000;10278255555;10778255555
1695;10348739000;10278255555;10778255555
1696;10348741000;10278255555;10778255555
1697;10390364000;10319677777;10819677777
1705;10390527000;10320011111;10820011111
1706;10390552000;10320011111;10820011111
1707;10390562000;10320011111;10820011111
1708;10432024000;10361344444;10861344444
1716;10432174000;10361666666;10861666666
1717;10432199000;10361666666;10861666666
1718;10432201000;10361666666;10861666666
1719;10473689000;10403011111;10903011111
1727;10473826000;10403333333;10903333333
1728;10473846000;10403333333;10903333333
1729;10473848000;10403333333;10903333333
1730;10515353000;10444677777;10944677777
1738;10515490000;10445022222;10945022222
1739;10515499000;10445022222;10945022222
1740;10515511000;10445022222;10945022222
1741;10557024000;10486344444;10986344444
1749;10557164000;10486666666;10986666666
1750;10557174000;10486666666;10986666666
1751;10557186000;10486666666;10986666666
1752;10598726000;10528011111;11028011111
1760;10598928000;10528344444;11028344444
1761;10598957000;10528344444;11028344444
1762;10598960000;10528344444;11028344444
1763;10640394000;10569677777;11069677777
1771;10640572000;10570000000;11070000000
1772;10640597000;10570000000;11070000000
1773;10640599000;10570000000;11070000000
1774;10682030000;10611344444;11111344444
1782;10682214000;10611644444;11111644444
1783;10682217000;10611644444;11111644444
1784;10682219000;10611644444;11111644444
1785;10723695000;10653011111;11153011111
1786;10723723000;10653011111;11153011111
1787;10723725000;10653011111;11153011111
1788;10723726000;10653011111;11153011111
1789;10723727000;10653011111;11153011111
1790;10723728000;10653011111;11153011111
1791;10723730000;10653011111;11153011111
1792;10723962000;10653033333;11153033333
1793;10724000000;10653322222;11153322222
1794;10724006000;10653322222;11153322222
1795;10724007000;10653322222;11153322222
1796;10765323000;10694644444;11194644444
1804;10765467000;10695000000;11195000000
1805;10765491000;10695000000;11195000000
1806;10765492000;10695000000;11195000000
1807;10807039000;10736344444;11236344444
1815;10807146000;10736677777;11236677777
1816;10807165000;10736677777;11236677777
1817;10807176000;10736677777;11236677777
1818;10848671000;10777977777;11277977777
1826;10848769000;10778300000;11278300000
1827;10848788000;10778300000;11278300000
1828;10848789000;10778300000;11278300000
1829;10890354000;10819677777;11319677777
1837;10890478000;10820022222;11320022222
1838;10890497000;10820022222;11320022222
1839;10890499000;10820022222;11320022222
1840;10932036000;10861344444;11361344444
1848;10932144000;10861633333;11361633333
1849;10932164000;10861633333;11361633333
1850;10932175000;10861633333;11361633333
1851;10973674000;10902977777;11402977777
1859;10973819000;10903277777;11403277777
1860;10973823000;10903277777;11403277777
1861;10973824000;10903277777;11403277777
1862;11015339000;10944644444;11444644444
1867;11015367000;10944644444;11444644444
1868;11015369000;10944644444;11444644444
1869;11015572000;10944655555;11444655555
1870;11015610000;10944955555;11444955555
1871;11015615000;10944955555;11444955555
1872;11015617000;10944955555;11444955555
1873;11057012000;10986333333;11486333333
1881;11057138000;10986611111;11486611111
1882;11057162000;10986611111;11486611111
1883;11057164000;10986611111;11486611111
1884;11098826000;11028011111;11528011111
1892;11099002000;11028300000;11528300000
1893;11099037000;11028300000;11528300000
1894;11099058000;11028300000;11528300000
1895;11140391000;11069644444;11569644444
1899;11140438000;11069644444;11569644444
1900;11140440000;11069644444;11569644444
1901;11140442000;11069644444;11569644444
1902;11140682000;11069666666;11569666666
1903;11140721000;11069955555;11569955555
1904;11140726000;11069955555;11569955555
1905;11140729000;11069955555;11569955555
1906;11182067000;11111355555;11611355555
1914;11182185000;11111677777;11611677777
1915;11182210000;11111677777;11611677777
1916;11182212000;11111677777;11611677777
1917;11223701000;11153022222;11653022222
1925;11223819000;11153344444;11653344444
1926;11223844000;11153344444;11653344444
1927;11223845000;11153344444;11653344444
1928;11265318000;11194644444;11694644444
1936;11265442000;11194966666;11694966666
1937;11265461000;11194966666;11694966666
1938;11265463000;11194966666;11694966666
1939;11306845000;11236311111;11736311111
1947;11307101000;11236600000;11736600000
1948;11307133000;11236600000;11736600000
1949;11307134000;11236600000;11736600000
1950;11348666000;11277977777;11777977777
1958;11348765000;11278255555;11778255555
1959;11348784000;11278255555;11778255555
1960;11348795000;11278255555;11778255555
1961;11390179000;11319644444;11819644444
1969;11390417000;11319933333;11819933333
1970;11390436000;11319933333;11819933333
1971;11390448000;11319933333;11819933333
1972;11432067000;11361311111;11861311111
1980;11432194000;11361588888;11861588888
1981;11432213000;11361588888;11861588888
1982;11432224000;11361588888;11861588888
1983;11473686000;11402977777;11902977777
1992;11473799000;11403255555;11903255555
1993;11473817000;11403255555;11903255555
1994;11515178000;11444644444;11944644444
2002;11515470000;11444955555;11944955555
2003;11515488000;11444955555;11944955555
2004;11515490000;11444955555;11944955555
2005;11556981000;11486311111;11986311111
2013;11557117000;11486600000;11986600000
2014;11557135000;11486600000;11986600000
2015;11557137000;11486600000;11986600000
2016;11598686000;11528011111;12028011111
2024;11598829000;11528322222;12028322222
2025;11598853000;11528322222;12028322222
2026;11598855000;11528322222;12028322222
2027;11640336000;11569644444;12069644444
2035;11640455000;11569944444;12069944444
2036;11640479000;11569944444;12069944444
2037;11640480000;11569944444;12069944444
2038;11681988000;11611311111;12111311111
2046;11682114000;11611600000;12111600000
2047;11682142000;11611600000;12111600000
2048;11682144000;11611600000;12111600000
2049;11723654000;11652977777;12152977777
2057;11723773000;11653277777;12153277777
2058;11723797000;11653277777;12153277777
2059;11723798000;11653277777;12153277777
2060;11765320000;11694644444;12194644444
2068;11765463000;11694966666;12194966666
2069;11765487000;11694966666;12194966666
2070;11765489000;11694966666;12194966666
2071;11808508000;11736344444;12236344444
2079;11808710000;11736644444;12236644444
2080;11808714000;11736644444;12236644444
2081;11808716000;11736644444;12236644444
2082;11848645000;11777977777;12277977777
2083;11848673000;11777977777;12277977777
2084;11848675000;11777977777;12277977777
2085;11848687000;11777977777;12277977777
2086;11848689000;11777977777;12277977777
2087;11848691000;11777977777;12277977777
2088;11848693000;11777977777;12277977777
2089;11848928000;11778000000;12278000000
2090;11848956000;11778266666;12278266666
2091;11848973000;11778266666;12278266666
2092;11848975000;11778266666;12278266666
2093;11890319000;11819644444;12319644444
2101;11890440000;11819966666;12319966666
2102;11890444000;11819966666;12319966666
2103;11890445000;11819966666;12319966666
2104;11931987000;11861311111;12361311111
2106;11932015000;11861311111;12361311111
2107;11932017000;11861311111;12361311111
2108;11932018000;11861311111;12361311111
2109;11932019000;11861311111;12361311111
2110;11932020000;11861311111;12361311111
2111;11932175000;11861333333;12361333333
2112;11932187000;11861644444;12361644444
2113;11932189000;11861644444;12361644444
2114;11932203000;11861644444;12361644444
2115;11973651000;11902977777;12402977777
2123;11973767000;11903311111;12403311111
2124;11973791000;11903311111;12403311111
2125;11973793000;11903311111;12403311111
2126;12015328000;11944655555;12444655555
2134;12015402000;11945011111;12445011111
2135;12015421000;11945011111;12445011111
2136;12015423000;11945011111;12445011111
2137;12056831000;11986311111;12486311111
2145;12057139000;11986622222;12486622222
2146;12057177000;11986622222;12486622222
2147;12057179000;11986622222;12486622222
2148;12098685000;12028011111;12528011111
2156;12098829000;12028333333;12528333333
2157;12098852000;12028333333;12528333333
2158;12098854000;12028333333;12528333333
2159;12140352000;12069677777;12569677777
2166;12140560000;12069700000;12569700000
2167;12140567000;12070022222;12570022222
2168;12140590000;12070022222;12570022222
2169;12140592000;12070022222;12570022222
2170;12181982000;12111311111;12611311111
2178;12182130000;12111644444;12611644444
2179;12182154000;12111644444;12611644444
2180;12182156000;12111644444;12611644444
2181;12223652000;12152977777;12652977777
2189;12223771000;12153322222;12653322222
2190;12223795000;12153322222;12653322222
2191;12223796000;12153322222;12653322222
2192;12265348000;12194677777;12694677777
2200;12265473000;12195022222;12695022222
2201;12265492000;12195022222;12695022222
2202;12265493000;12195022222;12695022222
2203;12306968000;12236311111;12736311111
2211;12307082000;12236633333;12736633333
2212;12307102000;12236633333;12736633333
2213;12307114000;12236633333;12736633333
2214;12348670000;12278011111;12778011111
2222;12348775000;12278311111;12778311111
2223;12348796000;12278311111;12778311111
2224;12348808000;12278311111;12778311111
2225;12390305000;12319644444;12819644444
2233;12390409000;12319977777;12819977777
2234;12390412000;12319977777;12819977777
2235;12390413000;12319977777;12819977777
2236;12431994000;12361322222;12861322222
2244;12432126000;12361655555;12861655555
2245;12432145000;12361655555;12861655555
2246;12432147000;12361655555;12861655555
2247;12473667000;12402977777;12902977777
2255;12473765000;12403322222;12903322222
2256;12473784000;12403322222;12903322222
2257;12473785000;12403322222;12903322222
2258;12515212000;12444677777;12944677777
2266;12515536000;12445022222;12945022222
2267;12515539000;12445022222;12945022222
2268;12515557000;12445022222;12945022222
2269;12557016000;12486344444;12986344444
2277;12557148000;12486677777;12986677777
2278;12557168000;12486677777;12986677777
2279;12557169000;12486677777;12986677777
2280;12598683000;12528011111;13028011111
2288;12598806000;12528355555;13028355555
2289;12598830000;12528355555;13028355555
2290;12598832000;12528355555;13028355555
2291;12640399000;12569677777;13069677777
2299;12640541000;12570000000;13070000000
2300;12640545000;12570000000;13070000000
2301;12640570000;12570000000;13070000000
2302;12681882000;12611344444;13111344444
2307;12681910000;12611344444;13111344444
2308;12681912000;12611344444;13111344444
2309;12682100000;12611366666;13111366666
2310;12682142000;12611655555;13111655555
2311;12682144000;12611655555;13111655555
2312;12682164000;12611655555;13111655555
2313;12723653000;12652977777;13152977777
2321;12723771000;12653311111;13153311111
2322;12723795000;12653311111;13153311111
2323;12723797000;12653311111;13153311111
2324;12765321000;12694644444;13194644444
2332;12765440000;12695000000;13195000000
2333;12765463000;12695000000;13195000000
2334;12765465000;12695000000;13195000000
2335;12807031000;12736344444;13236344444
2343;12807140000;12736666666;13236666666
2344;12807159000;12736666666;13236666666
2345;12807170000;12736666666;13236666666
2346;12848683000;12778011111;13278011111
2354;12848811000;12778333333;13278333333
2355;12848830000;12778333333;13278333333
2356;12848832000;12778333333;13278333333
2357;12890366000;12819677777;13319677777
2365;12890464000;12820022222;13320022222
2366;12890484000;12820022222;13320022222
2367;12890495000;12820022222;13320022222
2368;12932038000;12861344444;13361344444
2376;12932165000;12861655555;13361655555
2377;12932189000;12861655555;13361655555
2378;12932191000;12861655555;13361655555
2379;12973529000;12903011111;13403011111
2387;12973857000;12903333333;13403333333
2388;12973884000;12903333333;13403333333
2389;12973886000;12903333333;13403333333
2390;13015582000;12944644444;13444644444
2398;13015810000;12944988888;13444988888
2399;13015838000;12944988888;13444988888
2400;13015840000;12944988888;13444988888
2401;13056983000;12986311111;13486311111
2404;13057011000;12986311111;13486311111
2405;13057012000;12986311111;13486311111
2406;13057014000;12986311111;13486311111
2407;13057015000;12986311111;13486311111
2408;13057248000;12986322222;13486322222
2409;13057277000;12986600000;13486600000
2410;13057283000;12986600000;13486600000
2411;13057285000;12986600000;13486600000
2412;13098685000;13028011111;13528011111
2420;13098828000;13028322222;13528322222
2421;13098853000;13028322222;13528322222
2422;13098854000;13028322222;13528322222
2423;13140353000;13069677777;13569677777
2431;13140448000;13070011111;13570011111
2432;13140467000;13070011111;13570011111
2433;13140469000;13070011111;13570011111
2434;13181986000;13111311111;13611311111
2442;13182106000;13111633333;13611633333
2443;13182125000;13111633333;13611633333
2444;13182127000;13111633333;13611633333
2445;13223687000;13153011111;13653011111
2453;13223833000;13153355555;13653355555
2454;13223860000;13153355555;13653355555
2455;13223862000;13153355555;13653355555
2456;13265313000;13194644444;13694644444
2464;13265411000;13194977777;13694977777
2465;13265431000;13194977777;13694977777
2466;13265442000;13194977777;13694977777
2467;13307031000;13236344444;13736344444
2475;13307175000;13236655555;13736655555
2476;13307195000;13236655555;13736655555
2477;13307206000;13236655555;13736655555
2478;13348698000;13278011111;13778011111
2486;13348797000;13278300000;13778300000
2487;13348815000;13278300000;13778300000
2488;13348816000;13278300000;13778300000
2489;13390302000;13319644444;13819644444
2497;13390408000;13319977777;13819977777
2498;13390410000;13319977777;13819977777
2499;13390429000;13319977777;13819977777
2500;13432015000;13361344444;13861344444
2508;13432145000;13361666666;13861666666
2509;13432165000;13361666666;13861666666
2510;13432167000;13361666666;13861666666
2511;13473698000;13403011111;13903011111
2519;13473796000;13403333333;13903333333
2520;13473816000;13403333333;13903333333
2521;13473827000;13403333333;13903333333
2522;13515365000;13444677777;13944677777
2530;13515464000;13445022222;13945022222
2531;13515483000;13445022222;13945022222
2532;13515494000;13445022222;13945022222
2533;13556990000;13486344444;13986344444
2541;13557103000;13486677777;13986677777
2542;13557123000;13486677777;13986677777
2543;13557135000;13486677777;13986677777
2544;13598684000;13528011111;14028011111
2552;13598802000;13528344444;14028344444
2553;13598826000;13528344444;14028344444
2554;13598828000;13528344444;14028344444
2555;13640352000;13569677777;14069677777
2562;13640520000;13569700000;14069700000
2563;13640524000;13570011111;14070011111
2564;13640545000;13570011111;14070011111
2565;13640547000;13570011111;14070011111
2566;13682016000;13611344444;14111344444
2574;13682100000;13611644444;14111644444
2575;13682119000;13611644444;14111644444
2576;13682121000;13611644444;14111644444
2577;13723651000;13652977777;14152977777
2585;13723769000;13653300000;14153300000
2586;13723793000;13653300000;14153300000
2587;13723794000;13653300000;14153300000
2588;13765181000;13694644444;14194644444
2596;13765517000;13694988888;14194988888
2597;13765521000;13694988888;14194988888
2598;13765522000;13694988888;14194988888
2599;13810386000;13736344444;14236344444
2607;13810556000;13736666666;14236666666
2608;13810582000;13736666666;14236666666
2609;13810584000;13736666666;14236666666
2610;13848678000;13778011111;14278011111
2617;13848885000;13778022222;14278022222
2618;13848924000;13778322222;14278322222
2619;13848926000;13778322222;14278322222
2620;13848927000;13778322222;14278322222
2621;13890352000;13819677777;14319677777
2622;13890379000;13819677777;14319677777
2623;13890380000;13819677777;14319677777
2624;13890381000;13819677777;14319677777
2625;13890383000;13819677777;14319677777
2626;13890384000;13819677777;14319677777
2627;13890385000;13819677777;14319677777
2628;13890605000;13819700000;14319700000
2629;13890646000;13820011111;14320011111
2630;13890668000;13820011111;14320011111
2631;13890669000;13820011111;14320011111
2632;13932015000;13861344444;14361344444
2640;13932168000;13861633333;14361633333
2641;13932192000;13861633333;14361633333
2642;13932194000;13861633333;14361633333
2643;13973701000;13903011111;14403011111
2651;13973822000;13903300000;14403300000
2652;13973849000;13903300000;14403300000
2653;13973850000;13903300000;14403300000
2654;14015367000;13944677777;14444677777
2662;14015485000;13945000000;14445000000
2663;14015509000;13945000000;14445000000
2664;14015511000;13945000000;14445000000
2665;14057034000;13986344444;14486344444
2673;14057160000;13986622222;14486622222
2674;14057184000;13986622222;14486622222
2675;14057185000;13986622222;14486622222
2676;14098530000;14028011111;14528011111
2684;14098822000;14028322222;14528322222
2685;14098834000;14028322222;14528322222
2686;14098856000;14028322222;14528322222
2687;14140351000;14069677777;14569677777
2695;14140466000;14069988888;14569988888
2696;14140490000;14069988888;14569988888
2697;14140491000;14069988888;14569988888
2698;14182018000;14111344444;14611344444
2706;14182135000;14111633333;14611633333
2707;14182150000;14111633333;14611633333
2708;14182152000;14111633333;14611633333
2709;14223597000;14153011111;14653011111
2716;14223841000;14153022222;14653022222
2717;14223857000;14153322222;14653322222
2718;14223859000;14153322222;14653322222
2719;14223861000;14153322222;14653322222
2720;14265213000;14194677777;14694677777
2722;14265238000;14194677777;14694677777
2723;14265240000;14194677777;14694677777
2724;14265241000;14194677777;14694677777
2725;14265243000;14194677777;14694677777
2726;14265260000;14194677777;14694677777
2727;14265490000;14194700000;14694700000
2728;14265531000;14194988888;14694988888
2729;14265533000;14194988888;14694988888
2730;14265549000;14194988888;14694988888
2731;14307035000;14236344444;14736344444
2739;14307258000;14236633333;14736633333
2740;14307283000;14236633333;14736633333
2741;14307285000;14236633333;14736633333
2742;14348684000;14278011111;14778011111
2750;14348782000;14278288888;14778288888
2751;14348801000;14278288888;14778288888
2752;14348803000;14278288888;14778288888
2753;14390318000;14319644444;14819644444
2761;14390478000;14319944444;14819944444
2762;14390502000;14319944444;14819944444
2763;14390504000;14319944444;14819944444
2764;14432013000;14361344444;14861344444
2772;14432181000;14361644444;14861644444
2773;14432206000;14361644444;14861644444
2774;14432207000;14361644444;14861644444
2775;14473646000;14402977777;14902977777
2783;14473808000;14403277777;14903277777
2784;14473833000;14403277777;14903277777
2785;14473834000;14403277777;14903277777
2786;14515318000;14444644444;14944644444
2793;14515572000;14444666666;14944666666
2794;14515579000;14444966666;14944966666
2795;14515603000;14444966666;14944966666
2796;14515604000;14444966666;14944966666
2797;14557000000;14486344444;14986344444
2805;14557164000;14486644444;14986644444
2806;14557189000;14486644444;14986644444
2807;14557191000;14486644444;14986644444
2808;14598682000;14528011111;15028011111
2816;14598844000;14528322222;15028322222
2817;14598868000;14528322222;15028322222
2818;14598869000;14528322222;15028322222
2819;14640355000;14569677777;15069677777
2827;14640505000;14569966666;15069966666
2828;14640509000;14569966666;15069966666
2829;14640534000;14569966666;15069966666
2830;14681864000;14611344444;15111344444
2838;14682133000;14611622222;15111622222
2839;14682137000;14611622222;15111622222
2840;14682159000;14611622222;15111622222
2841;14723706000;14653011111;15153011111
2849;14723856000;14653311111;15153311111
2850;14723880000;14653311111;15153311111
2851;14723881000;14653311111;15153311111
2852;14765358000;14694677777;15194677777
2860;14765507000;14695000000;15195000000
2861;14765531000;14695000000;15195000000
2862;14765532000;14695000000;15195000000
2863;14807023000;14736344444;15236344444
2871;14807191000;14736644444;15236644444
2872;14807216000;14736644444;15236644444
2873;14807218000;14736644444;15236644444
2874;14848686000;14778011111;15278011111
2882;14848848000;14778311111;15278311111
2883;14848872000;14778311111;15278311111
2884;14848874000;14778311111;15278311111
2885;14890220000;14819677777;15319677777
2893;14890542000;14820000000;15320000000
2894;14890545000;14820000000;15320000000
2895;14890547000;14820000000;15320000000
2896;14931991000;14861311111;15361311111
2904;14932156000;14861600000;15361600000
2905;14932181000;14861600000;15361600000
2906;14932182000;14861600000;15361600000
2907;14973656000;14902977777;15402977777
2915;14973818000;14903266666;15403266666
2916;14973842000;14903266666;15403266666
2917;14973844000;14903266666;15403266666
2918;15016390000;14944677777;15444677777
2926;15016597000;14944977777;15444977777
2927;15016626000;14944977777;15444977777
2928;15016628000;14944977777;15444977777
2929;15056991000;14986311111;15486311111
2937;15057153000;14986588888;15486588888
2938;15057198000;14986588888;15486588888
2939;15057200000;14986588888;15486588888
2940;15098501000;15027977777;15527977777
2948;15098741000;15028255555;15528255555
2949;15098765000;15028255555;15528255555
2950;15098767000;15028255555;15528255555
2951;15140324000;15069644444;15569644444
2959;15140486000;15069944444;15569944444
2960;15140511000;15069944444;15569944444
2961;15140512000;15069944444;15569944444
2962;15181989000;15111311111;15611311111
2970;15182152000;15111600000;15611600000
2971;15182176000;15111600000;15611600000
2972;15182178000;15111600000;15611600000
2973;15223688000;15153011111;15653011111
2981;15223820000;15153311111;15653311111
2982;15223839000;15153311111;15653311111
2983;15223841000;15153311111;15653311111
2984;15265360000;15194677777;15694677777
2992;15265491000;15194988888;15694988888
2993;15265500000;15194988888;15694988888
2994;15265512000;15194988888;15694988888
2995;15307022000;15236344444;15736344444
3003;15307181000;15236622222;15736622222
3004;15307201000;15236622222;15736622222
3005;15307202000;15236622222;15736622222
3006;15348694000;15278011111;15778011111
3014;15348825000;15278277777;15778277777
3015;15348844000;15278277777;15778277777
3016;15348846000;15278277777;15778277777
3017;15390179000;15319644444;15819644444
3025;15390473000;15319944444;15819944444
3026;15390493000;15319944444;15819944444
3027;15390494000;15319944444;15819944444
3028;15432080000;15361311111;15861311111
3036;15432244000;15361600000;15861600000
3037;15432274000;15361600000;15861600000
3038;15432275000;15361600000;15861600000
3039;15473662000;15402977777;15902977777
3046;15473858000;15403000000;15903000000
3047;15473879000;15403266666;15903266666
3048;15473887000;15403266666;15903266666
3049;15473898000;15403266666;15903266666
3050;15515347000;15444666666;15944666666
3058;15515478000;15444966666;15944966666
3059;15515498000;15444966666;15944966666
3060;15515499000;15444966666;15944966666
3061;15556812000;15486311111;15986311111
3069;15557078000;15486600000;15986600000
3070;15557097000;15486600000;15986600000
3071;15557098000;15486600000;15986600000
3072;15598684000;15528000000;16028000000
3080;15598847000;15528300000;16028300000
3081;15598871000;15528300000;16028300000
3082;15598873000;15528300000;16028300000
3083;15640362000;15569677777;16069677777
3091;15640525000;15569977777;16069977777
3092;15640549000;15569977777;16069977777
3093;15640550000;15569977777;16069977777
3094;15681995000;15611311111;16111311111
3102;15682158000;15611588888;16111588888
3103;15682183000;15611588888;16111588888
3104;15682184000;15611588888;16111588888
3105;15723704000;15653011111;16153011111
3113;15723853000;15653300000;16153300000
3114;15723877000;15653300000;16153300000
3115;15723879000;15653300000;16153300000
3116;15765338000;15694644444;16194644444
3124;15765488000;15694955555;16194955555
3125;15765512000;15694955555;16194955555
3126;15765513000;15694955555;16194955555
3127;15807032000;15736344444;16236344444
3135;15807216000;15736633333;16236633333
3136;15807241000;15736633333;16236633333
3137;15807243000;15736633333;16236633333
3138;15848667000;15777977777;16277977777
3146;15848829000;15778255555;16278255555
3147;15848853000;15778255555;16278255555
3148;15848854000;15778255555;16278255555
3149;15890335000;15819644444;16319644444
3157;15890497000;15819955555;16319955555
3158;15890521000;15819955555;16319955555
3159;15890523000;15819955555;16319955555
3160;15932002000;15861311111;16361311111
3168;15932109000;15861611111;16361611111
3169;15932129000;15861611111;16361611111
3170;15932131000;15861611111;16361611111
3171;15973670000;15902977777;16402977777
3178;15973913000;15903000000;16403000000
3179;15973920000;15903277777;16403277777
3180;15973944000;15903277777;16403277777
3181;15973946000;15903277777;16403277777
3182;16015342000;15944655555;16444655555
3190;16015697000;15945155555;16445155555
3191;16015717000;15945155555;16445155555
3192;16015718000;15945155555;16445155555
3193;16057034000;15986344444;16486344444
3201;16057180000;15986633333;16486633333
3202;16057199000;15986633333;16486633333
3203;16057201000;15986633333;16486633333
3204;16098519000;16027977777;16527977777
3212;16098819000;16028277777;16528277777
3213;16098839000;16028277777;16528277777
3214;16098841000;16028277777;16528277777
3215;16140375000;16069677777;16569677777
3223;16140513000;16069988888;16569988888
3224;16140532000;16069988888;16569988888
3225;16140533000;16069988888;16569988888
3226;16182004000;16111311111;16611311111
3234;16182142000;16111600000;16611600000
3235;16182162000;16111600000;16611600000
3236;16182164000;16111600000;16611600000
3237;16223749000;16152977777;16652977777
3245;16223905000;16153288888;16653288888
3246;16223936000;16153288888;16653288888
3247;16223938000;16153288888;16653288888
3248;16265190000;16194644444;16694644444
3251;16265218000;16194644444;16694644444
3252;16265220000;16194644444;16694644444
3253;16265221000;16194644444;16694644444
3254;16265222000;16194644444;16694644444
3255;16265427000;16194666666;16694666666
3256;16265462000;16194966666;16694966666
3257;16265467000;16194966666;16694966666
3258;16265468000;16194966666;16694966666
3259;16306835000;16236344444;16736344444
3267;16307152000;16236633333;16736633333
3268;16307171000;16236633333;16736633333
3269;16307173000;16236633333;16736633333
3270;16348696000;16277977777;16777977777
3278;16348834000;16278255555;16778255555
3279;16348846000;16278255555;16778255555
3280;16348847000;16278255555;16778255555
3281;16390383000;16319677777;16819677777
3282;16390411000;16319677777;16819677777
3283;16390412000;16319677777;16819677777
3284;16390414000;16319677777;16819677777
3285;16390415000;16319677777;16819677777
3286;16390416000;16319677777;16819677777
3287;16390432000;16319677777;16819677777
3288;16390655000;16319700000;16819700000
3289;16390684000;16319977777;16819977777
3290;16390689000;16319977777;16819977777
3291;16390691000;16319977777;16819977777
3292;16431892000;16361344444;16861344444
3300;16432183000;16361644444;16861644444
3301;16432208000;16361644444;16861644444
3302;16432209000;16361644444;16861644444
3303;16473714000;16403011111;16903011111
3311;16473876000;16403311111;16903311111
3312;16473901000;16403311111;16903311111
3313;16473902000;16403311111;16903311111
3314;16515379000;16444677777;16944677777
3322;16515542000;16445000000;16945000000
3323;16515566000;16445000000;16945000000
3324;16515568000;16445000000;16945000000
3325;16556859000;16486311111;16986311111
3333;16557150000;16486611111;16986611111
3334;16557174000;16486611111;16986611111
3335;16557176000;16486611111;16986611111
3336;16598563000;16528011111;17028011111
3344;16598879000;16528322222;17028322222
3345;16598882000;16528322222;17028322222
3346;16598905000;16528322222;17028322222
3347;16640459000;16569677777;17069677777
3355;16640638000;16569977777;17069977777
3356;16640642000;16569977777;17069977777
3357;16640669000;16569977777;17069977777
3358;16682065000;16611344444;17111344444
3361;16682093000;16611344444;17111344444
3362;16682095000;16611344444;17111344444
3363;16682096000;16611344444;17111344444
3364;16682097000;16611344444;17111344444
3365;16682305000;16611355555;17111355555
3366;16682337000;16611622222;17111622222
3367;16682345000;16611622222;17111622222
3368;16682347000;16611622222;17111622222
3369;16723734000;16653011111;17153011111
3376;16723976000;16653033333;17153033333
3377;16723980000;16653311111;17153311111
3378;16723998000;16653311111;17153311111
3379;16724000000;16653311111;17153311111
3380;16765399000;16694677777;17194677777
3387;16765647000;16694688888;17194688888
3388;16765653000;16695000000;17195000000
3389;16765674000;16695000000;17195000000
3390;16765685000;16695000000;17195000000
3391;16806993000;16736344444;17236344444
3399;16807097000;16736644444;17236644444
3400;16807099000;16736644444;17236644444
3401;16807100000;16736644444;17236644444
3402;16848549000;16778011111;17278011111
3404;16848581000;16778011111;17278011111
3405;16848583000;16778011111;17278011111
3406;16848584000;16778011111;17278011111
3407;16848585000;16778011111;17278011111
3408;16848586000;16778011111;17278011111
3409;16848800000;16778033333;17278033333
3410;16848820000;16778311111;17278311111
3411;16848825000;16778311111;17278311111
3412;16848847000;16778311111;17278311111
3413;16890198000;16819644444;17319644444
3421;16890519000;16819966666;17319966666
3422;16890541000;16819966666;17319966666
3423;16890543000;16819966666;17319966666
3424;16932024000;16861344444;17361344444
3432;16932125000;16861644444;17361644444
3433;16932144000;16861644444;17361644444
3434;16932145000;16861644444;17361644444
3435;16973528000;16902977777;17402977777
3443;16973849000;16903288888;17403288888
3444;16973874000;16903288888;17403288888
3445;16973876000;16903288888;17403288888
3446;17015352000;16944644444;17444644444
3454;17015501000;16944966666;17444966666
3455;17015504000;16944966666;17444966666
3456;17015506000;16944966666;17444966666
3457;17057019000;16986311111;17486311111
3465;17057164000;16986588888;17486588888
3466;17057184000;16986588888;17486588888
3467;17057185000;16986588888;17486588888
3468;17098682000;17027977777;17527977777
3476;17098828000;17028266666;17528266666
3477;17098848000;17028266666;17528266666
3478;17098850000;17028266666;17528266666
3479;17140381000;17069677777;17569677777
3487;17140528000;17070000000;17570000000
3488;17140547000;17070000000;17570000000
3489;17140549000;17070000000;17570000000
3490;17182056000;17111344444;17611344444
3498;17182188000;17111644444;17611644444
3499;17182198000;17111644444;17611644444
3500;17182209000;17111644444;17611644444
3501;17223719000;17153011111;17653011111
3509;17223876000;17153333333;17653333333
3510;17223900000;17153333333;17653333333
3511;17223902000;17153333333;17653333333
3512;17265385000;17194677777;17694677777
3520;17265546000;17195000000;17695000000
3521;17265571000;17195000000;17695000000
3522;17265572000;17195000000;17695000000
3523;17307051000;17236311111;17736311111
3531;17307189000;17236611111;17736611111
3532;17307209000;17236611111;17736611111
3533;17307210000;17236611111;17736611111
3534;17348716000;17278011111;17778011111
3542;17348847000;17278288888;17778288888
3543;17348857000;17278288888;17778288888
3544;17348868000;17278288888;17778288888
3545;17390382000;17319677777;17819677777
3553;17390528000;17319988888;17819988888
3554;17390547000;17319988888;17819988888
3555;17390549000;17319988888;17819988888
3556;17432095000;17361311111;17861311111
3564;17432261000;17361611111;17861611111
3565;17432291000;17361611111;17861611111
3566;17432293000;17361611111;17861611111
3567;17473690000;17402977777;17902977777
3571;17473717000;17402977777;17902977777
3572;17473719000;17402977777;17902977777
3573;17473720000;17402977777;17902977777
3574;17473923000;17403000000;17903000000
3575;17473944000;17403300000;17903300000
3576;17473959000;17403300000;17903300000
3577;17473960000;17403300000;17903300000
3578;17515384000;17444677777;17944677777
3585;17515620000;17444688888;17944688888
3586;17515634000;17445000000;17945000000
3587;17515643000;17445000000;17945000000
3588;17515655000;17445000000;17945000000
3589;17557063000;17486344444;17986344444
3597;17557211000;17486655555;17986655555
3598;17557221000;17486655555;17986655555
3599;17557232000;17486655555;17986655555
3600;17598694000;17527977777;18027977777
3608;17598844000;17528300000;18028300000
3609;17598848000;17528300000;18028300000
3610;17598849000;17528300000;18028300000
3611;17640395000;17569677777;18069677777
3618;17640634000;17569700000;18069700000
3619;17640675000;17569977777;18069977777
3620;17640677000;17569977777;18069977777
3621;17640695000;17569977777;18069977777
3622;17682082000;17611344444;18111344444
3630;17682244000;17611633333;18111633333
3631;17682268000;17611633333;18111633333
3632;17682270000;17611633333;18111633333
3633;17723756000;17653011111;18153011111
3641;17723912000;17653322222;18153322222
3642;17723940000;17653322222;18153322222
3643;17723942000;17653322222;18153322222
3644;17765226000;17694644444;18194644444
3652;17765547000;17694977777;18194977777
3653;17765551000;17694977777;18194977777
3654;17765552000;17694977777;18194977777
3655;17807067000;17736344444;18236344444
3658;17807095000;17736344444;18236344444
3659;17807096000;17736344444;18236344444
3660;17807098000;17736344444;18236344444
3661;17807099000;17736344444;18236344444
3662;17807312000;17736355555;18236355555
3663;17807340000;17736644444;18236644444
3664;17807346000;17736644444;18236644444
3665;17807347000;17736644444;18236644444
3666;17848765000;17777977777;18277977777
3674;17848941000;17778277777;18278277777
3675;17848967000;17778277777;18278277777
3676;17848970000;17778277777;18278277777
3677;17890393000;17819677777;18319677777
3680;17890422000;17819677777;18319677777
3681;17890423000;17819677777;18319677777
3682;17890424000;17819677777;18319677777
3683;17890426000;17819677777;18319677777
3684;17890635000;17819700000;18319700000
3685;17890664000;17820011111;18320011111
3686;17890669000;17820011111;18320011111
3687;17890671000;17820011111;18320011111
3688;17932068000;17861344444;18361344444
3696;17932231000;17861633333;18361633333
3697;17932255000;17861633333;18361633333
3698;17932257000;17861633333;18361633333
3699;17973724000;17903011111;18403011111
3707;17973882000;17903300000;18403300000
3708;17973907000;17903300000;18403300000
3709;17973908000;17903300000;18403300000
3710;18015354000;17944644444;18444644444
3718;18015517000;17944955555;18444955555
3719;18015542000;17944955555;18444955555
3720;18015543000;17944955555;18444955555
3721;18057065000;17986344444;18486344444
3729;18057226000;17986633333;18486633333
3730;18057251000;17986633333;18486633333
3731;18057253000;17986633333;18486633333
3732;18098688000;18027977777;18527977777
3740;18098850000;18028266666;18528266666
3741;18098874000;18028266666;18528266666
3742;18098875000;18028266666;18528266666
3743;18140388000;18069677777;18569677777
3751;18140551000;18069977777;18569977777
3752;18140576000;18069977777;18569977777
3753;18140577000;18069977777;18569977777
3754;18182021000;18111311111;18611311111
3762;18182187000;18111600000;18611600000
3763;18182191000;18111600000;18611600000
3764;18182213000;18111600000;18611600000
3765;18223689000;18152977777;18652977777
3773;18223837000;18153266666;18653266666
3774;18223857000;18153266666;18653266666
3775;18223858000;18153266666;18653266666
3776;18265387000;18194677777;18694677777
3784;18265538000;18194988888;18694988888
3785;18265558000;18194988888;18694988888
3786;18265559000;18194988888;18694988888
3787;18307059000;18236344444;18736344444
3795;18307191000;18236633333;18736633333
3796;18307210000;18236633333;18736633333
3797;18307212000;18236633333;18736633333
3798;18348719000;18278011111;18778011111
3806;18348851000;18278277777;18778277777
3807;18348860000;18278277777;18778277777
3808;18348872000;18278277777;18778277777
3809;18390386000;18319677777;18819677777
3817;18390533000;18319977777;18819977777
3818;18390542000;18319977777;18819977777
3819;18390554000;18319977777;18819977777
3820;18432073000;18361344444;18861344444
3828;18432206000;18361644444;18861644444
3829;18432225000;18361644444;18861644444
3830;18432227000;18361644444;18861644444
3831;18473686000;18402977777;18902977777
3839;18473823000;18403277777;18903277777
3840;18473832000;18403277777;18903277777
3841;18473844000;18403277777;18903277777
3842;18515385000;18444677777;18944677777
3850;18515517000;18444988888;18944988888
3851;18515536000;18444988888;18944988888
3852;18515538000;18444988888;18944988888
3853;18557020000;18486311111;18986311111
3861;18557162000;18486611111;18986611111
3862;18557182000;18486611111;18986611111
3863;18557183000;18486611111;18986611111
3864;18598688000;18527977777;19027977777
3872;18598850000;18528288888;19028288888
3873;18598875000;18528288888;19028288888
3874;18598876000;18528288888;19028288888
3875;18640465000;18569677777;19069677777
3883;18640640000;18569966666;19069966666
3884;18640666000;18569966666;19069966666
3885;18640668000;18569966666;19069966666
3886;18682072000;18611344444;19111344444
3894;18682238000;18611622222;19111622222
3895;18682266000;18611622222;19111622222
3896;18682268000;18611622222;19111622222
3897;18723695000;18652977777;19152977777
3905;18723846000;18653277777;19153277777
3906;18723870000;18653277777;19153277777
3907;18723872000;18653277777;19153277777
3908;18765396000;18694677777;19194677777
3916;18765546000;18695000000;19195000000
3917;18765572000;18695000000;19195000000
3918;18765583000;18695000000;19195000000
3919;18807071000;18736344444;19236344444
3926;18807311000;18736366666;19236366666
3927;18807348000;18736644444;19236644444
3928;18807350000;18736644444;19236644444
3929;18807351000;18736644444;19236644444
3930;18848728000;18778011111;19278011111
3931;18848756000;18778011111;19278011111
3932;18848757000;18778011111;19278011111
3933;18848759000;18778011111;19278011111
3934;18848760000;18778011111;19278011111
3935;18848761000;18778011111;19278011111
3936;18848763000;18778011111;19278011111
3937;18848994000;18778022222;19278022222
3938;18849032000;18778288888;19278288888
3939;18849038000;18778288888;19278288888
3940;18849039000;18778288888;19278288888
3941;18890239000;18819677777;19319677777
3949;18890560000;18819988888;19319988888
3950;18890585000;18819988888;19319988888
3951;18890586000;18819988888;19319988888
3952;18932068000;18861344444;19361344444
3960;18932226000;18861633333;19361633333
3961;18932254000;18861633333;19361633333
3962;18932256000;18861633333;19361633333
3963;18973710000;18902977777;19402977777
3971;18973817000;18903277777;19403277777
3972;18973827000;18903277777;19403277777
3973;18973828000;18903277777;19403277777
3974;19015167000;18944644444;19444644444
3982;19015467000;18944966666;19444966666
3983;19015492000;18944966666;19444966666
3984;19015494000;18944966666;19444966666
3985;19057029000;18986311111;19486311111
3993;19057157000;18986577777;19486577777
3994;19057182000;18986577777;19486577777
3995;19057183000;18986577777;19486577777
3996;19098682000;19028011111;19528011111
4000;19098708000;19028011111;19528011111
4001;19098710000;19028011111;19528011111
4002;19098712000;19028011111;19528011111
4003;19098817000;19028033333;19528033333
4004;19098845000;19028300000;19528300000
4005;19098846000;19028300000;19528300000
4006;19098855000;19028300000;19528300000
4007;19140349000;19069677777;19569677777
4015;19140435000;19069988888;19569988888
4016;19140457000;19069988888;19569988888
4017;19140458000;19069988888;19569988888
4018;19182014000;19111344444;19611344444
4026;19182119000;19111644444;19611644444
4027;19182150000;19111644444;19611644444
4028;19182151000;19111644444;19611644444
4029;19223680000;19153011111;19653011111
4037;19223767000;19153333333;19653333333
4038;19223769000;19153333333;19653333333
4039;19223779000;19153333333;19653333333
4040;19265365000;19194644444;19694644444
4048;19265514000;19194966666;19694966666
4049;19265538000;19194966666;19694966666
4050;19265540000;19194966666;19694966666
4051;19307075000;19236344444;19736344444
4059;19307238000;19236633333;19736633333
4060;19307263000;19236633333;19736633333
4061;19307264000;19236633333;19736633333
4062;19348690000;19277977777;19777977777
4070;19348852000;19278255555;19778255555
4071;19348877000;19278255555;19778255555
4072;19348878000;19278255555;19778255555
4073;19390389000;19319677777;19819677777
4081;19390551000;19319977777;19819977777
4082;19390576000;19319977777;19819977777
4083;19390577000;19319977777;19819977777
4084;19432071000;19361344444;19861344444
4092;19432233000;19361633333;19861633333
4093;19432258000;19361633333;19861633333
4094;19432259000;19361633333;19861633333
4095;19473725000;19403011111;19903011111
4103;19473888000;19403311111;19903311111
4104;19473912000;19403311111;19903311111
4105;19473914000;19403311111;19903311111
4106;19515361000;19444644444;19944644444
4114;19515525000;19444966666;19944966666
4115;19515549000;19444966666;19944966666
4116;19515551000;19444966666;19944966666
4117;19557025000;19486311111;19986311111
4125;19557194000;19486611111;19986611111
4126;19557219000;19486611111;19986611111
4127;19557220000;19486611111;19986611111
4128;19598731000;19528011111;20028011111
4136;19598880000;19528322222;20028322222
4137;19598884000;19528322222;20028322222
4138;19598885000;19528322222;20028322222
4139;19640396000;19569677777;20069677777
4147;19640562000;19569988888;20069988888
4148;19640586000;19569988888;20069988888
4149;19640588000;19569988888;20069988888
4150;19682066000;19611344444;20111344444
4158;19682229000;19611622222;20111622222
4159;19682253000;19611622222;20111622222
4160;19682264000;19611622222;20111622222
4161;19723697000;19652977777;20152977777
4169;19723845000;19653277777;20153277777
4170;19723870000;19653277777;20153277777
4171;19723871000;19653277777;20153277777
4172;19765413000;19694677777;20194677777
4180;19765563000;19695000000;20195000000
4181;19765567000;19695000000;20195000000
4182;19765589000;19695000000;20195000000
4183;19807069000;19736344444;20236344444
4191;19807233000;19736644444;20236644444
4192;19807258000;19736644444;20236644444
4193;19807260000;19736644444;20236644444
4194;19848801000;19778011111;20278011111
4202;19848978000;19778300000;20278300000
4203;19849004000;19778300000;20278300000
4204;19849005000;19778300000;20278300000
4205;19890364000;19819644444;20319644444
4209;19890392000;19819644444;20319644444
4210;19890393000;19819644444;20319644444
4211;19890395000;19819644444;20319644444
4212;19890607000;19819666666;20319666666
4213;19890649000;19819966666;20319966666
4214;19890654000;19819966666;20319966666
4215;19890661000;19819966666;20319966666
4216;19932076000;19861344444;20361344444
4224;19932169000;19861644444;20361644444
4225;19932189000;19861644444;20361644444
4226;19932190000;19861644444;20361644444
4227;19973570000;19903011111;20403011111
4235;19973871000;19903322222;20403322222
4236;19973895000;19903322222;20403322222
4237;19973896000;19903322222;20403322222
4238;20015400000;19944677777;20444677777
4246;20015550000;19945011111;20445011111
4247;20015554000;19945011111;20445011111
4248;20015555000;19945011111;20445011111
4249;20057071000;19986344444;20486344444
4250;20057099000;19986344444;20486344444
4251;20057101000;19986344444;20486344444
4252;20057102000;19986344444;20486344444
4253;20057103000;19986344444;20486344444
4254;20057104000;19986344444;20486344444
4255;20057106000;19986344444;20486344444
4256;20057321000;19986366666;20486366666
4257;20057360000;19986633333;20486633333
4258;20057365000;19986633333;20486633333
4259;20057367000;19986633333;20486633333
4260;20098724000;20028011111;20528011111
4268;20098886000;20028311111;20528311111
4269;20098911000;20028311111;20528311111
4270;20098912000;20028311111;20528311111
4271;20140390000;20069677777;20569677777
4279;20140552000;20070011111;20570011111
4280;20140577000;20070011111;20570011111
4281;20140578000;20070011111;20570011111
4282;20182034000;20111322222;20611322222
4290;20182205000;20111644444;20611644444
4291;20182229000;20111644444;20611644444
4292;20182231000;20111644444;20611644444
4293;20225080000;20152977777;20652977777
4301;20225262000;20153300000;20653300000
4302;20225290000;20153300000;20653300000
4303;20225292000;20153300000;20653300000
4304;20265405000;20194677777;20694677777
4312;20265544000;20195000000;20695000000
4313;20265563000;20195000000;20695000000
4314;20265575000;20195000000;20695000000
4315;20307053000;20236311111;20736311111
4323;20307191000;20236622222;20736622222
4324;20307203000;20236622222;20736622222
4325;20307225000;20236622222;20736622222
4326;20348691000;20277977777;20777977777
4334;20348828000;20278255555;20778255555
4335;20348848000;20278255555;20778255555
4336;20348849000;20278255555;20778255555
4337;20390375000;20319677777;20819677777
4345;20390538000;20319988888;20819988888
4346;20390562000;20319988888;20819988888
4347;20390564000;20319988888;20819988888
4348;20431924000;20361344444;20861344444
4355;20432170000;20361366666;20861366666
4356;20432208000;20361655555;20861655555
4357;20432210000;20361655555;20861655555
4358;20432211000;20361655555;20861655555
4359;20473730000;20403011111;20903011111
4361;20473757000;20403011111;20903011111
4362;20473759000;20403011111;20903011111
4363;20473760000;20403011111;20903011111
4364;20473761000;20403011111;20903011111
4365;20473763000;20403011111;20903011111
4366;20473988000;20403033333;20903033333
4367;20474017000;20403322222;20903322222
4368;20474022000;20403322222;20903322222
4369;20474024000;20403322222;20903322222
4370;20515388000;20444677777;20944677777
4378;20515549000;20445011111;20945011111
4379;20515574000;20445011111;20945011111
4380;20515575000;20445011111;20945011111
4381;20557069000;20486344444;20986344444
4389;20557243000;20486655555;20986655555
4390;20557247000;20486655555;20986655555
4391;20557248000;20486655555;20986655555
4392;20598695000;20527977777;21027977777
4394;20598723000;20527977777;21027977777
4395;20598724000;20527977777;21027977777
4396;20598726000;20527977777;21027977777
4397;20598727000;20527977777;21027977777
4398;20598728000;20527977777;21027977777
4399;20598951000;20528000000;21028000000
4400;20598980000;20528300000;21028300000
4401;20598985000;20528300000;21028300000
4402;20598987000;20528300000;21028300000
4403;20640383000;20569677777;21069677777
4411;20640702000;20569988888;21069988888
4412;20640727000;20569988888;21069988888
4413;20640729000;20569988888;21069988888
4414;20682066000;20611344444;21111344444
4422;20682228000;20611633333;21111633333
4423;20682253000;20611633333;21111633333
4424;20682254000;20611633333;21111633333
4425;20723743000;20653011111;21153011111
4433;20723873000;20653322222;21153322222
4434;20723892000;20653322222;21153322222
4435;20723893000;20653322222;21153322222
4436;20765375000;20694644444;21194644444
4443;20765612000;20694666666;21194666666
4444;20765634000;20694988888;21194988888
4445;20765635000;20694988888;21194988888
4446;20765637000;20694988888;21194988888
4447;20807075000;20736344444;21236344444
4449;20807102000;20736344444;21236344444
4450;20807103000;20736344444;21236344444
4451;20807104000;20736344444;21236344444
4452;20807106000;20736344444;21236344444
4453;20807110000;20736344444;21236344444
4454;20807342000;20736355555;21236355555
4455;20807363000;20736655555;21236655555
4456;20807365000;20736655555;21236655555
4457;20807366000;20736655555;21236655555
4458;20848568000;20778011111;21278011111
4459;20848595000;20778011111;21278011111
4460;20848596000;20778011111;21278011111
4461;20848598000;20778011111;21278011111
4462;20848599000;20778011111;21278011111
4463;20848600000;20778011111;21278011111
4464;20848601000;20778011111;21278011111
4465;20848772000;20778033333;21278033333
4466;20848792000;20778322222;21278322222
4467;20848797000;20778322222;21278322222
4468;20848798000;20778322222;21278322222
4469;20890374000;20819644444;21319644444
4477;20890511000;20819988888;21319988888
4478;20890513000;20819988888;21319988888
4479;20890524000;20819988888;21319988888
4480;20932026000;20861344444;21361344444
4488;20932150000;20861622222;21361622222
4489;20932169000;20861622222;21361622222
4490;20932170000;20861622222;21361622222
4491;20973725000;20903011111;21403011111
4499;20973889000;20903300000;21403300000
4500;20973914000;20903300000;21403300000
4501;20973915000;20903300000;21403300000
4502;21015352000;20944644444;21444644444
4510;21015513000;20944955555;21444955555
4511;21015537000;20944955555;21444955555
4512;21015539000;20944955555;21444955555
4513;21057097000;20986311111;21486311111
4521;21057276000;20986577777;21486577777
4522;21057301000;20986577777;21486577777
4523;21057303000;20986577777;21486577777
4524;21098728000;21028011111;21528011111
4532;21098878000;21028288888;21528288888
4533;21098907000;21028288888;21528288888
4534;21098908000;21028288888;21528288888
4535;21140403000;21069677777;21569677777
4543;21140553000;21069977777;21569977777
4544;21140578000;21069977777;21569977777
4545;21140580000;21069977777;21569977777
4546;21182082000;21111344444;21611344444
4552;21182107000;21111344444;21611344444
4553;21182328000;21111366666;21611366666
4554;21182335000;21111633333;21611633333
4555;21182359000;21111633333;21611633333
4556;21182360000;21111633333;21611633333
4557;21223704000;21153011111;21653011111
4565;21223846000;21153311111;21653311111
4566;21223856000;21153311111;21653311111
4567;21223867000;21153311111;21653311111
4568;21265394000;21194677777;21694677777
4576;21265536000;21194988888;21694988888
4577;21265546000;21194988888;21694988888
4578;21265558000;21194988888;21694988888
4579;21307077000;21236344444;21736344444
4587;21307213000;21236622222;21736622222
4588;21307215000;21236622222;21736622222
4589;21307226000;21236622222;21736622222
4590;21348702000;21277977777;21777977777
4597;21348928000;21278000000;21778000000
4598;21348940000;21278244444;21778244444
4599;21348951000;21278244444;21778244444
4600;21348960000;21278244444;21778244444
4601;21390368000;21319644444;21819644444
4609;21390479000;21319922222;21819922222
4610;21390482000;21319922222;21819922222
4611;21390502000;21319922222;21819922222
4612;21431960000;21361333333;21861333333
4620;21432127000;21361611111;21861611111
4621;21432160000;21361611111;21861611111
4622;21432163000;21361611111;21861611111
4623;21473715000;21402988888;21902988888
4627;21473743000;21402988888;21902988888
4628;21473745000;21402988888;21902988888
4629;21473747000;21402988888;21902988888
4630;21473959000;21403011111;21903011111
4631;21473981000;21403266666;21903266666
4632;21473986000;21403266666;21903266666
4633;21473987000;21403266666;21903266666
4634;21515367000;21444644444;21944644444
4642;21515503000;21444933333;21944933333
4643;21515506000;21444933333;21944933333
4644;21515537000;21444933333;21944933333
4645;21557033000;21486311111;21986311111
4653;21557187000;21486588888;21986588888
4654;21557199000;21486588888;21986588888
4655;21557200000;21486588888;21986588888
4656;21598703000;21527977777;22027977777
4657;21598732000;21527977777;22027977777
4658;21598733000;21527977777;22027977777
4659;21598735000;21527977777;22027977777
4660;21598736000;21527977777;22027977777
4661;21598737000;21527977777;22027977777
4662;21598739000;21527977777;22027977777
4663;21598965000;21527988888;22027988888
4664;21599008000;21528255555;22028255555
4665;21599010000;21528255555;22028255555
4666;21599024000;21528255555;22028255555
4667;21640402000;21569677777;22069677777
4674;21640584000;21569700000;22069700000
4675;21640608000;21569966666;22069966666
4676;21640610000;21569966666;22069966666
4677;21640627000;21569966666;22069966666
4678;21682025000;21611344444;22111344444
4686;21682144000;21611622222;22111622222
4687;21682147000;21611622222;22111622222
4688;21682148000;21611622222;22111622222
4689;21723704000;21652977777;22152977777
4691;21723731000;21652977777;22152977777
4692;21723733000;21652977777;22152977777
4693;21723734000;21652977777;22152977777
4694;21723735000;21652977777;22152977777
4695;21723737000;21652977777;22152977777
4696;21723949000;21653000000;22153000000
4697;21723990000;21653266666;22153266666
4698;21723999000;21653266666;22153266666
4699;21724000000;21653266666;22153266666
4700;21765384000;21694677777;22194677777
4708;21765548000;21694988888;22194988888
4709;21765572000;21694988888;22194988888
4710;21765573000;21694988888;22194988888
4711;21807055000;21736344444;22236344444
4719;21807217000;21736633333;22236633333
4720;21807241000;21736633333;22236633333
4721;21807243000;21736633333;22236633333
4722;21848678000;21777977777;22277977777
4730;21848841000;21778255555;22278255555
4731;21848865000;21778255555;22278255555
4732;21848867000;21778255555;22278255555
4733;21890378000;21819677777;22319677777
4741;21890540000;21819988888;22319988888
4742;21890565000;21819988888;22319988888
4743;21890566000;21819988888;22319988888
4744;21932012000;21861311111;22361311111
4752;21932182000;21861622222;22361622222
4753;21932206000;21861622222;22361622222
4754;21932208000;21861622222;22361622222
4755;21973711000;21903011111;22403011111
4763;21973873000;21903322222;22403322222
4764;21973897000;21903322222;22403322222
4765;21973898000;21903322222;22403322222
4766;22015383000;21944677777;22444677777
4774;22015547000;21945011111;22445011111
4775;22015571000;21945011111;22445011111
4776;22015573000;21945011111;22445011111
4777;22057040000;21986344444;22486344444
4785;22057195000;21986655555;22486655555
4786;22057214000;21986655555;22486655555
4787;22057216000;21986655555;22486655555
4788;22098673000;22027977777;22527977777
4796;22098810000;22028311111;22528311111
4797;22098829000;22028311111;22528311111
4798;22098831000;22028311111;22528311111
4799;22140373000;22069677777;22569677777
4807;22140519000;22070011111;22570011111
4808;22140538000;22070011111;22570011111
4809;22140539000;22070011111;22570011111
4810;22182006000;22111311111;22611311111
4818;22182159000;22111622222;22611622222
4819;22182179000;22111622222;22611622222
4820;22182181000;22111622222;22611622222
4821;22226923000;22152977777;22652977777
4829;22227131000;22153300000;22653300000
4830;22227160000;22153300000;22653300000
4831;22227163000;22153300000;22653300000
4832;22265338000;22194644444;22694644444
4840;22265503000;22194955555;22694955555
4841;22265528000;22194955555;22694955555
4842;22265530000;22194955555;22694955555
4843;22307072000;22236344444;22736344444
4851;22307210000;22236644444;22736644444
4852;22307242000;22236644444;22736644444
4853;22307243000;22236644444;22736644444
4854;22348709000;22278011111;22778011111
4862;22348841000;22278300000;22778300000
4863;22348861000;22278300000;22778300000
4864;22348863000;22278300000;22778300000
4865;22390371000;22319677777;22819677777
4873;22390502000;22320000000;22820000000
4874;22390512000;22320000000;22820000000
4875;22390523000;22320000000;22820000000
4876;22432041000;22361344444;22861344444
4884;22432215000;22361655555;22861655555
4885;22432240000;22361655555;22861655555
4886;22432241000;22361655555;22861655555
4887;22473705000;22403011111;22903011111
4895;22473867000;22403322222;22903322222
4896;22473892000;22403322222;22903322222
4897;22473894000;22403322222;22903322222
4898;22515192000;22444677777;22944677777
4906;22515544000;22445011111;22945011111
4907;22515553000;22445011111;22945011111
4908;22515565000;22445011111;22945011111
4909;22557036000;22486344444;22986344444
4917;22557183000;22486666666;22986666666
4918;22557193000;22486666666;22986666666
4919;22557204000;22486666666;22986666666
4920;22598524000;22527977777;23027977777
4928;22598867000;22528311111;23028311111
4929;22598891000;22528311111;23028311111
4930;22598893000;22528311111;23028311111
4931;22640451000;22569677777;23069677777
4939;22640627000;22570000000;23070000000
4940;22640653000;22570000000;23070000000
4941;22640655000;22570000000;23070000000
4942;22682069000;22611344444;23111344444
4951;22682231000;22611644444;23111644444
4952;22682259000;22611644444;23111644444
4953;22723714000;22653011111;23153011111
4961;22723877000;22653322222;23153322222
4962;22723903000;22653322222;23153322222
4963;22723904000;22653322222;23153322222
4964;22765374000;22694677777;23194677777
4972;22765537000;22695022222;23195022222
4973;22765562000;22695022222;23195022222
4974;22765563000;22695022222;23195022222
4975;22807040000;22736344444;23236344444
4983;22807211000;22736666666;23236666666
4984;22807214000;22736666666;23236666666
4985;22807226000;22736666666;23236666666
4986;22848711000;22778011111;23278011111
4994;22848874000;22778322222;23278322222
4995;22848899000;22778322222;23278322222
4996;22848901000;22778322222;23278322222
4997;22890376000;22819677777;23319677777
5005;22890540000;22820022222;23320022222
5006;22890565000;22820022222;23320022222
5007;22890566000;22820022222;23320022222
5008;22932040000;22861344444;23361344444
5016;22932211000;22861644444;23361644444
5017;22932236000;22861644444;23361644444
5018;22932237000;22861644444;23361644444
5019;22973710000;22903011111;23403011111
5027;22973873000;22903311111;23403311111
5028;22973898000;22903311111;23403311111
5029;22973899000;22903311111;23403311111
5030;23015347000;22944644444;23444644444
5038;23015496000;22944977777;23444977777
5039;23015521000;22944977777;23444977777
5040;23015522000;22944977777;23444977777
5041;23057012000;22986311111;23486311111
5049;23057170000;22986600000;23486600000
5050;23057195000;22986600000;23486600000
5051;23057196000;22986600000;23486600000
5052;23098710000;23028011111;23528011111
5060;23098870000;23028311111;23528311111
5061;23098895000;23028311111;23528311111
5062;23098896000;23028311111;23528311111
5063;23140378000;23069677777;23569677777
5071;23140527000;23070000000;23570000000
5072;23140552000;23070000000;23570000000
5073;23140554000;23070000000;23570000000
5074;23182009000;23111311111;23611311111
5082;23182176000;23111611111;23611611111
5083;23182200000;23111611111;23611611111
5084;23182202000;23111611111;23611611111
5085;23223706000;23153011111;23653011111
5093;23223859000;23153322222;23653322222
5094;23223879000;23153322222;23653322222
5095;23223880000;23153322222;23653322222
5096;23265373000;23194677777;23694677777
5104;23265531000;23195022222;23695022222
5105;23265540000;23195022222;23695022222
5106;23265552000;23195022222;23695022222
5107;23307024000;23236311111;23736311111
5115;23307180000;23236611111;23736611111
5116;23307192000;23236611111;23736611111
5117;23307193000;23236611111;23736611111
5118;23348723000;23278011111;23778011111
5121;23348749000;23278011111;23778011111
5122;23348751000;23278011111;23778011111
5123;23348752000;23278011111;23778011111
5124;23348753000;23278011111;23778011111
5125;23348971000;23278033333;23778033333
5126;23349011000;23278300000;23778300000
5127;23349018000;23278300000;23778300000
5128;23349019000;23278300000;23778300000
5129;23390337000;23319644444;23819644444
5137;23390468000;23319955555;23819955555
5138;23390487000;23319955555;23819955555
5139;23390489000;23319955555;23819955555
5140;23433104000;23361344444;23861344444
5148;23433266000;23361644444;23861644444
5149;23433288000;23361644444;23861644444
5150;23433291000;23361644444;23861644444
5151;23473720000;23403011111;23903011111
5159;23473858000;23403322222;23903322222
5160;23473878000;23403322222;23903322222
5161;23473889000;23403322222;23903322222
5162;23515355000;23444644444;23944644444
5170;23515493000;23444977777;23944977777
5171;23515523000;23444977777;23944977777
5172;23515525000;23444977777;23944977777
5173;23556849000;23486311111;23986311111
5181;23557162000;23486611111;23986611111
5182;23557182000;23486611111;23986611111
5183;23557184000;23486611111;23986611111
5184;23598695000;23527977777;24027977777
5192;23598846000;23528277777;24028277777
5193;23598849000;23528277777;24028277777
5194;23598851000;23528277777;24028277777
5195;23640342000;23569644444;24069644444
5203;23640506000;23569944444;24069944444
5204;23640531000;23569944444;24069944444
5205;23640533000;23569944444;24069944444
5206;23682041000;23611344444;24111344444
5214;23682215000;23611633333;24111633333
5215;23682219000;23611633333;24111633333
5216;23682241000;23611633333;24111633333
5217;23723677000;23652977777;24152977777
5225;23723827000;23653288888;24153288888
5226;23723852000;23653288888;24153288888
5227;23723853000;23653288888;24153288888
5228;23765375000;23694677777;24194677777
5236;23765538000;23695011111;24195011111
5237;23765563000;23695011111;24195011111
5238;23765565000;23695011111;24195011111
5239;23807040000;23736344444;24236344444
5247;23807195000;23736655555;24236655555
5248;23807219000;23736655555;24236655555
5249;23807221000;23736655555;24236655555
5250;23848781000;23778011111;24278011111
5258;23848958000;23778300000;24278300000
5259;23848985000;23778300000;24278300000
5260;23848987000;23778300000;24278300000
5261;23890379000;23819677777;24319677777
5266;23890408000;23819677777;24319677777
5267;23890410000;23819677777;24319677777
5268;23890622000;23819700000;24319700000
5269;23890664000;23820011111;24320011111
5270;23890669000;23820011111;24320011111
5271;23890681000;23820011111;24320011111
5272;23932055000;23861344444;24361344444
5280;23932219000;23861644444;24361644444
5283;23973551000;23903011111;24403011111
5291;23973858000;23903311111;24403311111
5292;23973882000;23903311111;24403311111
5293;23973884000;23903311111;24403311111
5294;24015372000;23944677777;24444677777
5302;24015533000;23945011111;24445011111
5303;24015558000;23945011111;24445011111
5304;24015559000;23945011111;24445011111
5305;24057039000;23986344444;24486344444
5313;24057210000;23986644444;24486644444
5314;24057235000;23986644444;24486644444
5315;24057236000;23986644444;24486644444
5316;24098677000;24027977777;24527977777
5324;24098840000;24028277777;24528277777
5325;24098864000;24028277777;24528277777
5326;24098865000;24028277777;24528277777
5327;24140378000;24069677777;24569677777
5335;24140527000;24070000000;24570000000
5336;24140552000;24070000000;24570000000
5337;24140553000;24070000000;24570000000
5338;24182011000;24111311111;24611311111
5346;24182181000;24111611111;24611611111
5347;24182205000;24111611111;24611611111
5348;24182206000;24111611111;24611611111
5349;24223712000;24153011111;24653011111
5357;24223862000;24153333333;24653333333
5358;24223874000;24153333333;24653333333
5359;24223875000;24153333333;24653333333
5360;24265323000;24194644444;24694644444
5367;24265524000;24194666666;24694666666
5368;24265528000;24194977777;24694977777
5369;24265536000;24194977777;24694977777
5370;24265547000;24194977777;24694977777
5371;24307016000;24236311111;24736311111
5379;24307171000;24236622222;24736622222
5380;24307183000;24236622222;24736622222
5381;24307184000;24236622222;24736622222
5382;24348691000;24277977777;24777977777
5390;24348829000;24278255555;24778255555
5391;24348859000;24278255555;24778255555
5392;24348861000;24278255555;24778255555
5393;24390378000;24319677777;24819677777
5401;24390542000;24319988888;24819988888
5402;24390566000;24319988888;24819988888
5403;24390568000;24319988888;24819988888
5404;24432040000;24361344444;24861344444
5412;24432211000;24361655555;24861655555
5413;24432235000;24361655555;24861655555
5414;24432237000;24361655555;24861655555
5415;24473673000;24402977777;24902977777
5423;24473834000;24403300000;24903300000
5424;24473859000;24403300000;24903300000
5425;24473860000;24403300000;24903300000
5426;24515340000;24444644444;24944644444
5434;24515501000;24444977777;24944977777
5435;24515526000;24444977777;24944977777
5436;24515527000;24444977777;24944977777
5437;24557005000;24486311111;24986311111
5445;24557176000;24486622222;24986622222
5446;24557200000;24486622222;24986622222
5447;24557202000;24486622222;24986622222
5448;24598672000;24527977777;25027977777
5456;24598833000;24528300000;25028300000
5457;24598858000;24528300000;25028300000
5458;24598859000;24528300000;25028300000
5459;24640449000;24569677777;25069677777
5467;24640628000;24569977777;25069977777
5468;24640654000;24569977777;25069977777
5469;24640655000;24569977777;25069977777
5470;24682054000;24611344444;25111344444
5478;24682220000;24611633333;25111633333
5479;24682245000;24611633333;25111633333
5480;24682247000;24611633333;25111633333
5481;24723566000;24653011111;25153011111
5489;24723834000;24653322222;25153322222
5490;24723854000;24653322222;25153322222
5491;24723855000;24653322222;25153322222
5492;24765380000;24694644444;25194644444
5493;24765387000;24694644444;25194644444
5494;24765389000;24694644444;25194644444
5495;24765390000;24694644444;25194644444
5496;24765391000;24694644444;25194644444
5497;24765393000;24694644444;25194644444
5498;24765394000;24694644444;25194644444
5499;24765612000;24694666666;25194666666
