seqnum;now;rtptime;deadline
1;5699312000;5308911111;5808911111
3;5815754000;5340222222;5840222222
25;6272641000;5423555555;5923555555
112;6272796000;5715488888;6215488888
188;6516789000;6007188888;6507188888
220;6676931000;6132211111;6632211111
249;6745251000;6256888888;6756888888
297;6932276000;6423888888;6923888888
349;7058440000;6631888888;7131888888
394;7359304000;6798544444;7298544444
488;7585428000;7173544444;7673544444
524;7787698000;7298544444;7798544444
546;7889408000;7381877777;7881877777
549;7889618000;7381900000;7881900000
605;7944526000;7590522222;8090522222
607;7944528000;7590522222;8090522222
608;8173586000;7631888888;8131888888
691;8355243000;7923555555;8423555555
734;8519951000;8090222222;8590222222
785;8726771000;8298544444;8798544444
821;8877732000;8423555555;8923555555
858;9026568000;8548855555;9048855555
902;9282550000;8715488888;9215488888
928;9344059000;8840233333;9340233333
929;9344063000;8840233333;9340233333
984;9456647000;9048555555;9548555555
1032;9668577000;9215211111;9715211111
1077;9827455000;9381900000;9881900000
1108;9869142000;9506888888;10006888888
1109;9869147000;9506888888;10006888888
1110;10024102000;9506900000;10006900000
1127;10024117000;9590211111;10090211111
1156;10130944000;9673844444;10173844444
1199;10330918000;9840500000;10340500000
1241;10514080000;10006888888;10506888888
1256;10557493000;10048855555;10548855555
1273;10638320000;10131888888;10631888888
1332;10813179000;10340522222;10840522222
1367;10950654000;10506888888;11006888888
1410;11101236000;10632200000;11132200000
1450;11232144000;10798555555;11298555555
1491;11409547000;10965222222;11465222222
1505;11409666000;11006877777;11506877777
1536;11595983000;11131888888;11631888888
1589;11775802000;11340211111;11840211111
1623;12023318000;11465222222;11965222222
1656;12126031000;11590222222;12090222222
1693;12286036000;11715711111;12215711111
1736;12286058000;11881888888;12381888888
1792;12595390000;12090244444;12590244444
1837;12595406000;12257211111;12757211111
1838;12595408000;12257211111;12757211111
1839;12595409000;12257211111;12757211111
1840;12722715000;12298555555;12798555555
1878;12920828000;12423544444;12923544444
1900;13052329000;12506877777;13006877777
1913;13092831000;12548566666;13048566666
1945;13092837000;12673544444;13173544444
2001;13452776000;12881900000;13381900000
2032;13452791000;13006888888;13506888888
2092;13699830000;13215488888;13715488888
2131;13868666000;13381888888;13881888888
2179;14132560000;13548866666;14048866666
2204;14216795000;13673555555;14173555555
2246;14335245000;13798922222;14298922222
2292;14501742000;14006888888;14506888888
2311;14501882000;14048877777;14548877777
2337;14661451000;14173555555;14673555555
2383;14803154000;14340222222;14840222222
2428;14983542000;14506888888;15006888888
2476;15165874000;14673855555;15173855555
2494;15268466000;14756877777;15256877777
2496;15268695000;14756888888;15256888888
2552;15322498000;14965533333;15465533333
2553;15322506000;14965533333;15465533333
2555;15531964000;15006877777;15506877777
2583;15623544000;15090222222;15590222222
2640;15806696000;15298833333;15798833333
2655;15938757000;15381877777;15881877777
2671;15979281000;15423555555;15923555555
2704;16098902000;15548544444;16048544444
2772;16267271000;15798844444;16298844444
2806;16447918000;15923844444;16423844444
2823;16561761000;16006877777;16506877777
2835;16597695000;16048577777;16548577777
2889;16691750000;16256888888;16756888888
2935;16890917000;16423555555;16923555555
2981;17076057000;16590500000;17090500000
3024;17339619000;16756900000;17256900000
3049;17339635000;16840488888;17340488888
3100;17529464000;17048555555;17548555555
3146;17782428000;17215500000;17715500000
3173;17822302000;17340222222;17840222222
3229;17979150000;17548544444;18048544444
3274;18162622000;17715222222;18215222222
3322;18352871000;17882200000;18382200000
3355;18532843000;18007188888;18507188888
3375;18664211000;18090211111;18590211111
3387;18704711000;18131933333;18631933333
3433;18704726000;18298877777;18798877777
3484;19013370000;18506888888;19006888888
3500;19063177000;18548866666;19048866666
3517;19146204000;18631888888;19131888888
3576;19312027000;18840522222;19340522222
3616;19458076000;19006888888;19506888888
3652;19623406000;19132200000;19632200000
3693;19792080000;19298555555;19798555555
3741;19916562000;19465522222;19965522222
3783;20136346000;19631900000;20131900000
3808;20136454000;19715466666;20215466666
3809;20268456000;19756888888;20256888888
3863;20409367000;19923855555;20423855555
3886;20588807000;20048544444;20548544444
3894;20588935000;20048822222;20548822222
3950;20744596000;20257188888;20757188888
3993;20914928000;20423833333;20923833333
4033;21096794000;20590211111;21090211111
4041;21232687000;20631877777;21131877777
4066;21270396000;20715222222;21215222222
4100;21363621000;20840211111;21340211111
4165;21579359000;21090222222;21590222222
4190;21670331000;21173555555;21673555555
4245;21854961000;21381900000;21881900000
4289;22011361000;21548566666;22048566666
4337;22056385000;21756877777;22256877777
4339;22056388000;21756877777;22256877777
4340;22056389000;21756877777;22256877777
4341;22056390000;21756877777;22256877777
4342;22056391000;21756877777;22256877777
4343;22056392000;21756877777;22256877777
4347;22197107000;21757188888;22257188888
4378;22470101000;21882222222;22382222222
4407;22591917000;22006888888;22506888888
4435;22630852000;22090522222;22590522222
4492;22860364000;22340211111;22840211111
4578;23150141000;22632177777;23132177777
4621;23310391000;22798833333;23298833333
4648;23310509000;22923544444;23423544444
4666;23470612000;22965500000;23465500000
4712;23615738000;23173555555;23673555555
4753;23773673000;23298855555;23798855555
4795;23967039000;23465233333;23965233333
4839;24095519000;23631900000;24131900000
4880;24095537000;23798555555;24298555555
4881;24095539000;23798555555;24298555555
4882;24095540000;23798555555;24298555555
4883;24261191000;23798566666;24298566666
4899;24261211000;23881877777;24381877777
4931;24432838000;24006877777;24506877777
4969;24576882000;24131888888;24631888888
5013;24712998000;24298555555;24798555555
5048;24905033000;24423566666;24923566666
5093;24905064000;24590522222;25090522222
5094;24905067000;24590522222;25090522222
5095;24905068000;24590522222;25090522222
5096;25085503000;24631877777;25131877777
5136;25217923000;24756900000;25256900000
5180;25515919000;24923566666;25423566666
5209;25515926000;25048555555;25548555555
5268;25746166000;25256900000;25756900000
5278;25746219000;25298544444;25798544444
5279;25827711000;25298555555;25798555555
5287;25827727000;25340211111;25840211111
5345;26072365000;25548566666;26048566666
5373;26072373000;25673611111;26173611111
5427;26285459000;25881888888;26381888888
5464;26602539000;26006888888;26506888888
5481;26602685000;26090211111;26590211111
5482;26602688000;26090211111;26590211111
5483;26602690000;26090211111;26590211111
5484;26602692000;26090211111;26590211111
5485;26602693000;26090211111;26590211111
5486;26602695000;26090211111;26590211111
5487;26602696000;26090211111;26590211111
5488;26602807000;26090222222;26590222222
5489;26602823000;26090522222;26590522222
5490;26602825000;26090522222;26590522222
5491;26602826000;26090522222;26590522222
5492;26602838000;26131877777;26631877777
5493;26602840000;26131877777;26631877777
5494;26602842000;26131877777;26631877777
5495;26602844000;26131877777;26631877777
5496;26602846000;26131877777;26631877777
5497;26602849000;26131877777;26631877777
5498;26602851000;26131877777;26631877777
5499;26602968000;26131888888;26631888888
