seqnum;now;rtptime;deadline
2;11932900000;11088444444;11588444444
5;12014408000;11119877777;11619877777
57;12176595000;11286855555;11786855555
135;12353572000;11619866666;12119866666
213;12414897000;11911533333;12411533333
216;12414903000;11911533333;12411533333
217;12414905000;11911533333;12411533333
218;12414906000;11911533333;12411533333
219;12415104000;11911544444;12411544444
220;12415119000;11911900000;12411900000
221;12415120000;11911900000;12411900000
222;12415121000;11911900000;12411900000
223;12435358000;11953211111;12453211111
224;12435362000;11953211111;12453211111
225;12435363000;11953211111;12453211111
226;12435364000;11953211111;12453211111
227;12435365000;11953211111;12453211111
228;12435366000;11953211111;12453211111
229;12435366000;11953211111;12453211111
230;12435585000;11953222222;12453222222
231;12435601000;11953522222;12453522222
232;12435602000;11953522222;12453522222
233;12435603000;11953522222;12453522222
234;12444517000;11994855555;12494855555
235;12444530000;11994855555;12494855555
236;12444531000;11994855555;12494855555
237;12444532000;11994855555;12494855555
238;12533788000;11994855555;12494855555
239;12533794000;11994855555;12494855555
240;12533796000;11994855555;12494855555
241;12584260000;11994866666;12494866666
294;12584275000;12203188888;12703188888
295;12584277000;12203188888;12703188888
296;12786376000;12203200000;12703200000
351;12916377000;12411544444;12911544444
372;12916383000;12494888888;12994888888
373;12948233000;12494933333;12994933333
395;12978012000;12578266666;13078266666
406;12996469000;12619866666;13119866666
407;12996475000;12620155555;13120155555
408;12996476000;12620155555;13120155555
409;12996477000;12620155555;13120155555
410;13018437000;12661522222;13161522222
418;13018560000;12661833333;13161833333
419;13018563000;12661833333;13161833333
420;13018564000;12661833333;13161833333
421;13044148000;12703222222;13203222222
429;13044263000;12703555555;13203555555
430;13044266000;12703555555;13203555555
431;13044267000;12703555555;13203555555
432;13073509000;12744911111;13244911111
433;13073521000;12744911111;13244911111
434;13073522000;12744911111;13244911111
435;13073523000;12744911111;13244911111
436;13073524000;12744911111;13244911111
437;13073525000;12744911111;13244911111
438;13073526000;12744911111;13244911111
439;13073731000;12744977777;13244977777
440;13073746000;12745266666;13245266666
441;13073747000;12745266666;13245266666
442;13073748000;12745266666;13245266666
443;13106160000;12786544444;13286544444
444;13106164000;12786544444;13286544444
445;13106165000;12786544444;13286544444
446;13106166000;12786544444;13286544444
447;13106167000;12786544444;13286544444
448;13106168000;12786544444;13286544444
449;13106168000;12786544444;13286544444
450;13106354000;12786588888;13286588888
451;13106360000;12786877777;13286877777
452;13106361000;12786877777;13286877777
453;13106362000;12786877777;13286877777
454;13141560000;12828211111;13328211111
455;13141562000;12828211111;13328211111
456;13141564000;12828211111;13328211111
457;13141565000;12828211111;13328211111
458;13141566000;12828211111;13328211111
459;13141567000;12828211111;13328211111
460;13141568000;12828211111;13328211111
461;13141687000;12828255555;13328255555
462;13141689000;12828533333;13328533333
463;13141690000;12828533333;13328533333
464;13141691000;12828533333;13328533333
465;13179286000;12869877777;13369877777
466;13179289000;12869877777;13369877777
467;13179290000;12869877777;13369877777
468;13179291000;12869877777;13369877777
469;13179292000;12869877777;13369877777
470;13179293000;12869877777;13369877777
471;13179294000;12869877777;13369877777
472;13179499000;12869922222;13369922222
473;13179506000;12870222222;13370222222
474;13179507000;12870222222;13370222222
475;13179517000;12870222222;13370222222
476;13218503000;12911544444;13411544444
477;13218516000;12911544444;13411544444
478;13218517000;12911544444;13411544444
479;13218518000;12911544444;13411544444
480;13218519000;12911544444;13411544444
481;13218520000;12911544444;13411544444
482;13218521000;12911544444;13411544444
483;13218724000;12911588888;13411588888
484;13218750000;12911900000;13411900000
485;13218751000;12911900000;13411900000
486;13218752000;12911900000;13411900000
487;13258739000;12953211111;13453211111
488;13258744000;12953211111;13453211111
489;13258745000;12953211111;13453211111
490;13258746000;12953211111;13453211111
491;13258747000;12953211111;13453211111
492;13258749000;12953211111;13453211111
493;13258750000;12953211111;13453211111
494;13258922000;12953255555;13453255555
495;13258925000;12953544444;13453544444
496;13258926000;12953544444;13453544444
497;13258927000;12953544444;13453544444
498;13299712000;12994877777;13494877777
499;13299727000;12994877777;13494877777
500;13299729000;12994877777;13494877777
501;13299730000;12994877777;13494877777
502;13299731000;12994877777;13494877777
503;13299732000;12994877777;13494877777
504;13299734000;12994877777;13494877777
505;13299950000;12994922222;13494922222
506;13299966000;12995222222;13495222222
507;13299967000;12995222222;13495222222
508;13299968000;12995222222;13495222222
509;13341016000;13036544444;13536544444
510;13341022000;13036544444;13536544444
511;13341023000;13036544444;13536544444
512;13341025000;13036544444;13536544444
513;13341037000;13036544444;13536544444
514;13341038000;13036544444;13536544444
515;13341040000;13036544444;13536544444
516;13341270000;13036588888;13536588888
517;13341288000;13036900000;13536900000
518;13341289000;13036900000;13536900000
519;13341290000;13036900000;13536900000
520;13382548000;13078211111;13578211111
521;13382553000;13078211111;13578211111
522;13382554000;13078211111;13578211111
523;13382556000;13078211111;13578211111
524;13382557000;13078211111;13578211111
525;13382558000;13078211111;13578211111
526;13382569000;13078211111;13578211111
527;13382777000;13078255555;13578255555
528;13382793000;13078555555;13578555555
529;13382795000;13078555555;13578555555
530;13382796000;13078555555;13578555555
531;13424177000;13119900000;13619900000
532;13424183000;13119900000;13619900000
533;13424185000;13119900000;13619900000
534;13424186000;13119900000;13619900000
535;13424188000;13119900000;13619900000
536;13424189000;13119900000;13619900000
537;13424202000;13119900000;13619900000
538;13424432000;13119966666;13619966666
539;13424450000;13120277777;13620277777
540;13424451000;13120277777;13620277777
541;13424452000;13120277777;13620277777
542;13465787000;13161555555;13661555555
543;13465793000;13161555555;13661555555
544;13465794000;13161555555;13661555555
545;13465795000;13161555555;13661555555
546;13465806000;13161555555;13661555555
547;13465807000;13161555555;13661555555
548;13465809000;13161555555;13661555555
549;13466012000;13161600000;13661600000
550;13466028000;13161911111;13661911111
551;13466029000;13161911111;13661911111
552;13466030000;13161911111;13661911111
553;13507419000;13203211111;13703211111
554;13507423000;13203211111;13703211111
555;13507424000;13203211111;13703211111
556;13507425000;13203211111;13703211111
557;13507427000;13203211111;13703211111
558;13507428000;13203211111;13703211111
559;13507429000;13203211111;13703211111
560;13507634000;13203255555;13703255555
561;13507649000;13203544444;13703544444
562;13507650000;13203544444;13703544444
563;13507651000;13203544444;13703544444
564;13549079000;13244877777;13744877777
565;13549082000;13244877777;13744877777
566;13549083000;13244877777;13744877777
567;13549084000;13244877777;13744877777
568;13549085000;13244877777;13744877777
569;13549086000;13244877777;13744877777
570;13549087000;13244877777;13744877777
571;13549303000;13244922222;13744922222
572;13549318000;13245244444;13745244444
573;13549319000;13245244444;13745244444
574;13549320000;13245244444;13745244444
575;13590750000;13286544444;13786544444
576;13590753000;13286544444;13786544444
577;13590755000;13286544444;13786544444
578;13590756000;13286544444;13786544444
579;13590756000;13286544444;13786544444
580;13590757000;13286544444;13786544444
581;13590758000;13286544444;13786544444
582;13590955000;13286588888;13786588888
583;13590971000;13286900000;13786900000
584;13590972000;13286900000;13786900000
585;13590973000;13286900000;13786900000
586;13632416000;13328211111;13828211111
587;13632433000;13328211111;13828211111
588;13632434000;13328211111;13828211111
589;13632435000;13328211111;13828211111
590;13632436000;13328211111;13828211111
591;13632437000;13328211111;13828211111
592;13632438000;13328211111;13828211111
593;13632658000;13328255555;13828255555
594;13632673000;13328555555;13828555555
595;13632674000;13328555555;13828555555
596;13632675000;13328555555;13828555555
597;13674096000;13369877777;13869877777
598;13674099000;13369877777;13869877777
599;13674100000;13369877777;13869877777
600;13674101000;13369877777;13869877777
601;13674102000;13369877777;13869877777
602;13674103000;13369877777;13869877777
603;13674104000;13369877777;13869877777
604;13674302000;13369922222;13869922222
605;13674317000;13370255555;13870255555
606;13674318000;13370255555;13870255555
607;13674319000;13370255555;13870255555
608;13715764000;13411544444;13911544444
609;13715768000;13411544444;13911544444
610;13715769000;13411544444;13911544444
611;13715770000;13411544444;13911544444
612;13715770000;13411544444;13911544444
613;13715772000;13411544444;13911544444
614;13715772000;13411544444;13911544444
615;13715970000;13411588888;13911588888
616;13715985000;13411900000;13911900000
617;13715986000;13411900000;13911900000
618;13715987000;13411900000;13911900000
619;13757360000;13453211111;13953211111
620;13757362000;13453211111;13953211111
621;13757363000;13453211111;13953211111
622;13757364000;13453211111;13953211111
623;13757365000;13453211111;13953211111
624;13757366000;13453211111;13953211111
625;13757367000;13453211111;13953211111
626;13757531000;13453255555;13953255555
627;13757533000;13453555555;13953555555
628;13757534000;13453555555;13953555555
629;13757535000;13453555555;13953555555
630;13799091000;13494877777;13994877777
631;13799095000;13494877777;13994877777
632;13799096000;13494877777;13994877777
633;13799097000;13494877777;13994877777
634;13799098000;13494877777;13994877777
635;13799099000;13494877777;13994877777
636;13799100000;13494877777;13994877777
637;13799299000;13494922222;13994922222
839;20984165000;14286533333;14786533333
840;20984168000;14286533333;14786533333
841;20984169000;14286533333;14786533333
842;20984170000;14286533333;14786533333
843;20984171000;14286533333;14786533333
844;20984172000;14286533333;14786533333
845;20984173000;14286533333;14786533333
846;21074151000;14286544444;14786544444
888;21074172000;14453200000;14953200000
889;21074173000;14453200000;14953200000
890;21234783000;14453211111;14953211111
967;21398255000;14744888888;15244888888
1046;21398261000;15036866666;15536866666
1047;21398262000;15036866666;15536866666
1048;21496327000;15078200000;15578200000
1049;21496330000;15078200000;15578200000
1050;21496331000;15078200000;15578200000
1051;21496333000;15078200000;15578200000
1052;21496334000;15078200000;15578200000
1053;21496335000;15078200000;15578200000
1054;21496335000;15078200000;15578200000
1055;21496540000;15078211111;15578211111
1056;21496555000;15078488888;15578488888
1057;21496557000;15078488888;15578488888
1058;21496558000;15078488888;15578488888
1059;21506074000;15119866666;15619866666
1060;21506086000;15119866666;15619866666
1061;21506087000;15119866666;15619866666
1062;21506088000;15119866666;15619866666
1063;21506089000;15119866666;15619866666
1064;21506090000;15119866666;15619866666
1065;21506091000;15119866666;15619866666
1066;21506288000;15119877777;15619877777
1067;21506304000;15120177777;15620177777
1068;21506305000;15120177777;15620177777
1069;21584176000;15120177777;15620177777
1070;21634727000;15161533333;15661533333
1125;21837083000;15369866666;15869866666
1205;22000055000;15661533333;16161533333
1282;22078360000;15953200000;16453200000
1285;22078363000;15953200000;16453200000
1286;22078569000;15953211111;16453211111
1287;22078584000;15953511111;16453511111
1288;22078586000;15953511111;16453511111
1289;22078587000;15953511111;16453511111
1290;22098473000;15994866666;16494866666
1291;22098476000;15994866666;16494866666
1292;22098477000;15994866666;16494866666
1293;22098478000;15994866666;16494866666
1294;22098479000;15994866666;16494866666
1295;22098496000;15994866666;16494866666
1296;22098497000;15994866666;16494866666
1297;22098702000;15994877777;16494877777
1298;22098718000;15995155555;16495155555
1299;22098719000;15995155555;16495155555
1300;22098720000;15995155555;16495155555
1301;22108583000;16036533333;16536533333
1302;22108586000;16036533333;16536533333
1303;22108587000;16036533333;16536533333
1304;22108588000;16036533333;16536533333
1305;22108589000;16036533333;16536533333
1306;22108590000;16036533333;16536533333
1307;22186233000;16036533333;16536533333
1308;22236900000;16036544444;16536544444
1363;22439106000;16244877777;16744877777
1442;22439112000;16536866666;17036866666
1443;22439113000;16536866666;17036866666
1444;22611955000;16578200000;17078200000
1519;22679667000;16828477777;17328477777
1521;22699828000;16869866666;17369866666
1522;22699831000;16869866666;17369866666
1523;22699832000;16869866666;17369866666
1524;22699833000;16869866666;17369866666
1525;22699834000;16869866666;17369866666
1526;22699835000;16869866666;17369866666
1527;22699836000;16869866666;17369866666
1528;22700041000;16869877777;17369877777
1529;22700056000;16870166666;17370166666
1530;22700057000;16870166666;17370166666
1531;22700058000;16870166666;17370166666
1532;22709967000;16911533333;17411533333
1533;22709970000;16911533333;17411533333
1534;22709971000;16911533333;17411533333
1535;22709972000;16911533333;17411533333
1536;22709973000;16911533333;17411533333
1537;22709974000;16911533333;17411533333
1538;22709975000;16911533333;17411533333
1539;22710180000;16911544444;17411544444
1540;22710196000;16911866666;17411866666
1541;22710197000;16911866666;17411866666
1542;22710198000;16911866666;17411866666
1543;22719188000;16953200000;17453200000
1544;22787867000;16953200000;17453200000
1545;22788064000;16953200000;17453200000
1546;22788255000;16953200000;17453200000
1547;22788460000;16953200000;17453200000
1548;22788677000;16953200000;17453200000
1549;22788884000;16953200000;17453200000
1550;22839453000;16953211111;17453211111
1599;22839457000;17161533333;17661533333
1600;22839459000;17161533333;17661533333
1601;22839460000;17161533333;17661533333
1602;22839462000;17161533333;17661533333
1603;22839463000;17161533333;17661533333
1604;22839465000;17161533333;17661533333
1605;23041839000;17161544444;17661544444
1678;23041854000;17453200000;17953200000
1679;23041856000;17453200000;17953200000
1680;23041857000;17453200000;17953200000
1681;23041858000;17453200000;17953200000
1682;23205297000;17453211111;17953211111
1755;23205312000;17744866666;18244866666
1756;23205313000;17744866666;18244866666
1757;23205314000;17744866666;18244866666
1758;23205315000;17744866666;18244866666
1759;23282449000;17744877777;18244877777
1763;23282464000;17786533333;18286533333
1764;23282465000;17786533333;18286533333
1765;23282466000;17786533333;18286533333
1766;23282467000;17786533333;18286533333
1767;23282468000;17786533333;18286533333
1768;23282469000;17786533333;18286533333
1769;23282470000;17786533333;18286533333
1770;23302596000;17786544444;18286544444
1771;23302612000;17786855555;18286855555
1772;23302613000;17786855555;18286855555
1773;23302614000;17786855555;18286855555
1774;23312650000;17828200000;18328200000
1775;23312653000;17828200000;18328200000
1776;23312654000;17828200000;18328200000
1777;23312655000;17828200000;18328200000
1778;23312656000;17828200000;18328200000
1779;23312657000;17828200000;18328200000
1780;23312658000;17828200000;18328200000
1781;23312856000;17828211111;18328211111
1782;23389891000;17828500000;18328500000
1783;23390101000;17828500000;18328500000
1784;23390293000;17828500000;18328500000
1785;23481798000;17869866666;18369866666
1838;23642084000;18036877777;18536877777
1915;23806222000;18328544444;18828544444
1992;23883882000;18620155555;19120155555
1995;23903957000;18661533333;19161533333
1998;23903961000;18661533333;19161533333
1999;23903962000;18661533333;19161533333
2000;23903963000;18661533333;19161533333
2001;23904177000;18661544444;19161544444
2002;23904192000;18661855555;19161855555
2003;23904193000;18661855555;19161855555
2004;23904194000;18661855555;19161855555
2005;23914033000;18703200000;19203200000
2006;23914036000;18703200000;19203200000
2007;23914037000;18703200000;19203200000
2008;23914038000;18703200000;19203200000
2009;23914039000;18703200000;19203200000
2010;23914040000;18703200000;19203200000
2011;23914041000;18703200000;19203200000
2012;23914239000;18703211111;19203211111
2013;23914254000;18703522222;19203522222
2014;23914255000;18703522222;19203522222
2015;23914256000;18703522222;19203522222
2016;23923083000;18744866666;19244866666
2017;23923085000;18744866666;19244866666
2018;23923086000;18744866666;19244866666
2019;23923087000;18744866666;19244866666
2020;23991715000;18744866666;19244866666
2021;23992167000;18744866666;19244866666
2022;23992394000;18744866666;19244866666
2023;24042842000;18744877777;19244877777
2072;24042858000;18953188888;19453188888
2073;24042859000;18953188888;19453188888
2074;24042860000;18953188888;19453188888
2075;24042861000;18953188888;19453188888
2076;24042862000;18953188888;19453188888
2077;24042863000;18953188888;19453188888
2078;24245175000;18953200000;19453200000
2151;24245190000;19244877777;19744877777
2152;24245192000;19244877777;19744877777
2153;24245193000;19244877777;19744877777
2154;24245194000;19244877777;19744877777
2155;24408182000;19244888888;19744888888
2229;24408188000;19536555555;20036555555
2230;24408189000;19536555555;20036555555
2231;24408190000;19536555555;20036555555
2232;24486410000;19536577777;20036577777
2236;24486426000;19578211111;20078211111
2237;24486427000;19578211111;20078211111
2238;24486428000;19578211111;20078211111
2239;24486428000;19578211111;20078211111
2240;24486429000;19578211111;20078211111
2241;24486430000;19578211111;20078211111
2242;24486431000;19578211111;20078211111
2243;24506496000;19578233333;20078233333
2244;24506502000;19578544444;20078544444
2245;24506504000;19578544444;20078544444
2246;24506504000;19578544444;20078544444
2247;24516464000;19619866666;20119866666
2248;24516468000;19619866666;20119866666
2249;24516469000;19619866666;20119866666
2250;24516470000;19619866666;20119866666
2251;24516471000;19619866666;20119866666
2252;24516471000;19619866666;20119866666
2253;24516472000;19619866666;20119866666
2254;24516694000;19619877777;20119877777
2255;24516709000;19620188888;20120188888
2256;24516710000;19620188888;20120188888
2257;24593043000;19620188888;20120188888
2258;24643744000;19661544444;20161544444
2309;24808331000;19828211111;20328211111
2387;24808346000;20120200000;20620200000
2388;24808347000;20120200000;20620200000
2389;24808348000;20120200000;20620200000
2390;25024553000;20161533333;20661533333
2466;25095884000;20411866666;20911866666
2471;25114597000;20453211111;20953211111
2472;25114601000;20453211111;20953211111
2473;25114602000;20453211111;20953211111
2474;25114800000;20453222222;20953222222
2475;25114815000;20453544444;20953544444
2476;25114817000;20453544444;20953544444
2477;25114817000;20453544444;20953544444
2478;25124323000;20494866666;20994866666
2479;25124326000;20494866666;20994866666
2480;25124327000;20494866666;20994866666
2481;25124328000;20494866666;20994866666
2482;25124329000;20494866666;20994866666
2483;25124330000;20494866666;20994866666
2484;25124331000;20494866666;20994866666
2485;25124505000;20494877777;20994877777
2486;25124510000;20495155555;20995155555
2487;25124511000;20495155555;20995155555
2488;25124512000;20495155555;20995155555
2489;25132607000;20536544444;21036544444
2490;25132610000;20536544444;21036544444
2491;25132610000;20536544444;21036544444
2492;25132611000;20536544444;21036544444
2493;25132612000;20536544444;21036544444
2494;25194393000;20536544444;21036544444
2495;25194605000;20536544444;21036544444
2496;25245258000;20536555555;21036555555
2546;25245274000;20744877777;21244877777
2547;25245275000;20744877777;21244877777
2548;25245276000;20744877777;21244877777
2549;25245277000;20744877777;21244877777
2550;25245278000;20744877777;21244877777
2551;25447622000;20744888888;21244888888
2625;25447637000;21036522222;21536522222
2626;25447638000;21036522222;21536522222
2627;25447639000;21036522222;21536522222
2628;25611794000;21036533333;21536533333
2703;25611817000;21328211111;21828211111
2704;25611818000;21328211111;21828211111
2705;25689699000;21328222222;21828222222
2709;25689714000;21369866666;21869866666
2710;25689716000;21369866666;21869866666
2711;25689716000;21369866666;21869866666
2712;25689717000;21369866666;21869866666
2713;25689718000;21369866666;21869866666
2714;25689719000;21369866666;21869866666
2715;25689720000;21369866666;21869866666
2716;25709682000;21369877777;21869877777
2717;25709697000;21370166666;21870166666
2718;25709699000;21370166666;21870166666
2719;25709700000;21370166666;21870166666
2720;25719623000;21411544444;21911544444
2721;25719626000;21411544444;21911544444
2722;25719627000;21411544444;21911544444
2723;25719628000;21411544444;21911544444
2724;25719629000;21411544444;21911544444
2725;25719630000;21411544444;21911544444
2726;25719631000;21411544444;21911544444
2727;25719828000;21411577777;21911577777
2728;25719843000;21411900000;21911900000
2729;25719844000;21411900000;21911900000
2730;25719845000;21411900000;21911900000
2731;25846085000;21453188888;21953188888
2783;26010666000;21620155555;22120155555
2861;26210760000;21911844444;22411844444
2940;26318049000;22244855555;22744855555
2946;26318053000;22244855555;22744855555
2947;26318250000;22244866666;22744866666
2948;26318266000;22245155555;22745155555
2949;26318267000;22245155555;22745155555
2950;26318268000;22245155555;22745155555
2951;26327401000;22286533333;22786533333
2952;26327404000;22286533333;22786533333
2953;26327405000;22286533333;22786533333
2954;26327406000;22286533333;22786533333
2955;26327407000;22286533333;22786533333
2956;26327408000;22286533333;22786533333
2957;26327409000;22286533333;22786533333
2958;26327606000;22286544444;22786544444
2959;26327621000;22286822222;22786822222
2960;26327623000;22286822222;22786822222
2961;26327624000;22286822222;22786822222
2962;26330684000;22328211111;22828211111
2963;26330686000;22328211111;22828211111
2964;26330687000;22328211111;22828211111
2965;26330688000;22328211111;22828211111
2966;26330689000;22328211111;22828211111
2967;26330690000;22328211111;22828211111
2968;26397056000;22328211111;22828211111
2969;26447697000;22328222222;22828222222
3020;26447712000;22536533333;23036533333
3021;26447713000;22536533333;23036533333
3022;26447714000;22536533333;23036533333
3023;26447715000;22536533333;23036533333
3024;26650063000;22536544444;23036544444
3099;26650078000;22828211111;23328211111
3100;26650079000;22828211111;23328211111
3101;26814590000;22828222222;23328222222
3177;26814607000;23119877777;23619877777
3178;26892695000;23119888888;23619888888
3182;26892710000;23161544444;23661544444
3183;26892711000;23161544444;23661544444
3184;26892712000;23161544444;23661544444
3185;26892713000;23161544444;23661544444
3186;26892714000;23161544444;23661544444
3187;26892715000;23161544444;23661544444
3188;26892716000;23161544444;23661544444
3189;26912680000;23161555555;23661555555
3190;26912696000;23161866666;23661866666
3191;26912697000;23161866666;23661866666
3192;26912698000;23161866666;23661866666
3193;26922715000;23203211111;23703211111
3194;26922719000;23203211111;23703211111
3195;26922720000;23203211111;23703211111
3196;26922721000;23203211111;23703211111
3197;26922722000;23203211111;23703211111
3198;26922723000;23203211111;23703211111
3199;26922724000;23203211111;23703211111
3200;26922921000;23203300000;23703300000
3201;26922936000;23203566666;23703566666
3202;26922938000;23203566666;23703566666
3203;26922938000;23203566666;23703566666
3204;26934310000;23244855555;23744855555
3205;26998423000;23244855555;23744855555
3206;26998635000;23244855555;23744855555
3207;26998837000;23244855555;23744855555
3208;26999033000;23244855555;23744855555
3209;26999234000;23244855555;23744855555
3210;26999435000;23244855555;23744855555
3211;27050003000;23244866666;23744866666
3257;27050007000;23411855555;23911855555
3258;27050008000;23411855555;23911855555
3259;27252392000;23453188888;23953188888
3277;27286138000;23494866666;23994866666
3278;27286154000;23495133333;23995133333
3279;27286155000;23495133333;23995133333
3280;27286156000;23495133333;23995133333
3281;27316887000;23536544444;24036544444
3282;27316891000;23536544444;24036544444
3283;27316892000;23536544444;24036544444
3284;27316893000;23536544444;24036544444
3285;27316894000;23536544444;24036544444
3286;27316895000;23536544444;24036544444
3287;27316896000;23536544444;24036544444
3288;27317101000;23536555555;24036555555
3289;27317116000;23536855555;24036855555
3290;27317118000;23536855555;24036855555
3291;27317118000;23536855555;24036855555
3292;27344846000;23578200000;24078200000
3293;27344849000;23578200000;24078200000
3294;27344850000;23578200000;24078200000
3295;27344851000;23578200000;24078200000
3296;27344852000;23578200000;24078200000
3297;27344853000;23578200000;24078200000
3298;27344854000;23578200000;24078200000
3299;27345059000;23578211111;24078211111
