seqnum;now;rtptime;deadline
1;4023840000;3950466666;4450466666
3;4063459000;3981511111;4481511111
4;4063475000;3981511111;4481511111
5;4063477000;3981511111;4481511111
6;4063479000;3981511111;4481511111
7;4063481000;3981511111;4481511111
8;4063484000;3981511111;4481511111
9;4063485000;3981511111;4481511111
10;4063725000;3981600000;4481600000
11;4063730000;3981955555;4481955555
12;4063741000;3981955555;4481955555
13;4063742000;3981955555;4481955555
14;4108336000;4023122222;4523122222
25;4151847000;4064788888;4564788888
36;4193305000;4106466666;4606466666
47;4231602000;4148166666;4648166666
48;4231615000;4148166666;4648166666
49;4231617000;4148166666;4648166666
50;4231619000;4148166666;4648166666
51;4231621000;4148166666;4648166666
52;4231624000;4148166666;4648166666
53;4231626000;4148166666;4648166666
54;4231822000;4148255555;4648255555
55;4231828000;4148600000;4648600000
56;4231830000;4148600000;4648600000
57;4231833000;4148600000;4648600000
58;4268589000;4189788888;4689788888
59;4268599000;4189788888;4689788888
60;4268601000;4189788888;4689788888
61;4268602000;4189788888;4689788888
62;4268604000;4189788888;4689788888
63;4268605000;4189788888;4689788888
64;4268607000;4189788888;4689788888
65;4268823000;4189877777;4689877777
66;4268839000;4190200000;4690200000
67;4268841000;4190200000;4690200000
68;4268842000;4190200000;4690200000
69;4308141000;4231488888;4731488888
70;4308144000;4231488888;4731488888
71;4308146000;4231488888;4731488888
72;4308147000;4231488888;4731488888
73;4308149000;4231488888;4731488888
74;4308150000;4231488888;4731488888
75;4308151000;4231488888;4731488888
76;4308351000;4231577777;4731577777
77;4308366000;4231966666;4731966666
78;4308368000;4231966666;4731966666
79;4308369000;4231966666;4731966666
80;4346264000;4273177777;4773177777
81;4346268000;4273177777;4773177777
82;4346269000;4273177777;4773177777
83;4346271000;4273177777;4773177777
84;4346272000;4273177777;4773177777
85;4346273000;4273177777;4773177777
86;4346274000;4273177777;4773177777
87;4346473000;4273266666;4773266666
88;4346488000;4273577777;4773577777
89;4346489000;4273577777;4773577777
90;4346490000;4273577777;4773577777
91;4381629000;4314800000;4814800000
92;4381641000;4314800000;4814800000
93;4381644000;4314800000;4814800000
94;4381646000;4314800000;4814800000
95;4381649000;4314800000;4814800000
96;4381651000;4314800000;4814800000
97;4381653000;4314800000;4814800000
98;4383190000;4314877777;4814877777
99;4383208000;4315200000;4815200000
100;4383210000;4315200000;4815200000
101;4383211000;4315200000;4815200000
102;4420434000;4356455555;4856455555
103;4420438000;4356455555;4856455555
104;4420439000;4356455555;4856455555
105;4420441000;4356455555;4856455555
106;4420443000;4356455555;4856455555
107;4420445000;4356455555;4856455555
108;4420446000;4356455555;4856455555
109;4420667000;4356533333;4856533333
110;4420682000;4356800000;4856800000
111;4420683000;4356800000;4856800000
112;4420685000;4356800000;4856800000
113;4459392000;4398122222;4898122222
114;4459396000;4398122222;4898122222
115;4459397000;4398122222;4898122222
116;4459398000;4398122222;4898122222
117;4459399000;4398122222;4898122222
118;4459400000;4398122222;4898122222
119;4459401000;4398122222;4898122222
120;4459602000;4398233333;4898233333
121;4459617000;4398533333;4898533333
122;4459618000;4398533333;4898533333
123;4459619000;4398533333;4898533333
124;4584335000;4439788888;4939788888
146;4661132000;4523177777;5023177777
168;4729438000;4606466666;5106466666
179;4761017000;4648188888;5148188888
190;4793604000;4689788888;5189788888
201;4824890000;4731455555;5231455555
212;4853950000;4773188888;5273188888
213;4853954000;4773188888;5273188888
214;4853955000;4773188888;5273188888
215;4853956000;4773188888;5273188888
216;4853957000;4773188888;5273188888
217;4853958000;4773188888;5273188888
218;4853959000;4773188888;5273188888
219;4854200000;4773266666;5273266666
220;4854215000;4773600000;5273600000
221;4854216000;4773600000;5273600000
222;4854217000;4773600000;5273600000
223;4885905000;4814788888;5314788888
224;4885909000;4814788888;5314788888
225;4885910000;4814788888;5314788888
226;4885911000;4814788888;5314788888
227;4885926000;4814788888;5314788888
228;4885927000;4814788888;5314788888
229;4885928000;4814788888;5314788888
230;4886141000;4814866666;5314866666
231;4886157000;4815200000;5315200000
232;4886158000;4815200000;5315200000
233;4886159000;4815200000;5315200000
234;4919077000;4856455555;5356455555
235;4919090000;4856455555;5356455555
236;4919091000;4856455555;5356455555
237;4919092000;4856455555;5356455555
238;4919093000;4856455555;5356455555
239;4919094000;4856455555;5356455555
240;4919095000;4856455555;5356455555
241;4919293000;4856533333;5356533333
242;4919309000;4856811111;5356811111
243;4919310000;4856811111;5356811111
244;4919311000;4856811111;5356811111
245;4955709000;4898188888;5398188888
246;4955713000;4898188888;5398188888
247;4955714000;4898188888;5398188888
248;4955715000;4898188888;5398188888
249;4955716000;4898188888;5398188888
250;4955717000;4898188888;5398188888
251;4955718000;4898188888;5398188888
252;4955931000;4898277777;5398277777
253;4955934000;4898611111;5398611111
254;4955935000;4898611111;5398611111
255;4955936000;4898611111;5398611111
256;4994144000;4939800000;5439800000
257;4994147000;4939800000;5439800000
258;4994148000;4939800000;5439800000
259;4994149000;4939800000;5439800000
260;4994150000;4939800000;5439800000
261;4994151000;4939800000;5439800000
262;4994152000;4939800000;5439800000
263;4994351000;4939877777;5439877777
264;4994367000;4940200000;5440200000
265;4994368000;4940200000;5440200000
266;4994369000;4940200000;5440200000
267;5034077000;4981455555;5481455555
268;5034081000;4981455555;5481455555
269;5034082000;4981455555;5481455555
270;5034083000;4981455555;5481455555
271;5034084000;4981455555;5481455555
272;5034085000;4981455555;5481455555
273;5034086000;4981455555;5481455555
274;5034313000;4981533333;5481533333
275;5034329000;4981811111;5481811111
276;5034330000;4981811111;5481811111
277;5034331000;4981811111;5481811111
278;5126716000;5023177777;5523177777
289;5167495000;5064800000;5564800000
300;5206932000;5106477777;5606477777
311;5247162000;5148177777;5648177777
322;5285919000;5189788888;5689788888
334;5374990000;5231455555;5731455555
355;5452303000;5314788888;5814788888
377;5522598000;5398177777;5898177777
388;5557112000;5439800000;5939800000
399;5585600000;5481477777;5981477777
410;5616614000;5523188888;6023188888
421;5646633000;5564822222;6064822222
422;5646643000;5564822222;6064822222
423;5646645000;5564822222;6064822222
424;5646647000;5564822222;6064822222
425;5646648000;5564822222;6064822222
426;5646650000;5564822222;6064822222
427;5646652000;5564822222;6064822222
428;5650788000;5564911111;6064911111
432;5650799000;5606455555;6106455555
433;5650801000;5606455555;6106455555
434;5650803000;5606455555;6106455555
435;5650804000;5606455555;6106455555
436;5650806000;5606455555;6106455555
437;5650808000;5606455555;6106455555
438;5650809000;5606455555;6106455555
439;5677740000;5606544444;6106544444
440;5677762000;5606833333;6106833333
441;5677764000;5606833333;6106833333
442;5677767000;5606833333;6106833333
443;5712109000;5648177777;6148177777
444;5712117000;5648177777;6148177777
445;5712119000;5648177777;6148177777
446;5712122000;5648177777;6148177777
447;5712124000;5648177777;6148177777
448;5712126000;5648177777;6148177777
449;5712128000;5648177777;6148177777
450;5712373000;5648266666;6148266666
451;5712391000;5648555555;6148555555
452;5712392000;5648555555;6148555555
453;5712394000;5648555555;6148555555
454;5748961000;5689788888;6189788888
455;5748967000;5689788888;6189788888
456;5748969000;5689788888;6189788888
457;5748970000;5689788888;6189788888
458;5748972000;5689788888;6189788888
459;5748973000;5689788888;6189788888
460;5748975000;5689788888;6189788888
461;5749186000;5689877777;6189877777
462;5749203000;5690166666;6190166666
463;5749205000;5690166666;6190166666
464;5749206000;5690166666;6190166666
465;5785351000;5731533333;6231533333
466;5785360000;5731533333;6231533333
467;5785371000;5731533333;6231533333
468;5785372000;5731533333;6231533333
469;5785374000;5731533333;6231533333
470;5785375000;5731533333;6231533333
471;5785377000;5731533333;6231533333
472;5786195000;5731611111;6231611111
473;5786202000;5731888888;6231888888
474;5786204000;5731888888;6231888888
475;5786205000;5731888888;6231888888
476;5825957000;5773122222;6273122222
477;5825961000;5773122222;6273122222
478;5825963000;5773122222;6273122222
479;5825964000;5773122222;6273122222
480;5825965000;5773122222;6273122222
481;5825967000;5773122222;6273122222
482;5825968000;5773122222;6273122222
483;5826223000;5773233333;6273233333
484;5826238000;5773555555;6273555555
485;5826239000;5773555555;6273555555
486;5826240000;5773555555;6273555555
487;5866532000;5814788888;6314788888
488;5866535000;5814788888;6314788888
489;5866536000;5814788888;6314788888
490;5866537000;5814788888;6314788888
491;5866538000;5814788888;6314788888
492;5866539000;5814788888;6314788888
493;5866540000;5814788888;6314788888
494;5866739000;5814866666;6314866666
495;5866754000;5815200000;6315200000
496;5866756000;5815200000;6315200000
497;5866757000;5815200000;6315200000
498;5959633000;5856455555;6356455555
509;6000458000;5898211111;6398211111
520;6040743000;5939800000;6439800000
531;6079959000;5981466666;6481466666
542;6118181000;6023188888;6523188888
553;6155568000;6064800000;6564800000
564;6191984000;6106455555;6606455555
575;6226269000;6148122222;6648122222
576;6226273000;6148122222;6648122222
577;6226274000;6148122222;6648122222
578;6226275000;6148122222;6648122222
579;6226276000;6148122222;6648122222
580;6226277000;6148122222;6648122222
581;6226278000;6148122222;6648122222
582;6226477000;6148233333;6648233333
583;6226493000;6148555555;6648555555
584;6226494000;6148555555;6648555555
585;6226495000;6148555555;6648555555
586;6260077000;6189788888;6689788888
587;6260081000;6189788888;6689788888
588;6260082000;6189788888;6689788888
589;6260083000;6189788888;6689788888
590;6260084000;6189788888;6689788888
591;6260086000;6189788888;6689788888
592;6260087000;6189788888;6689788888
593;6262440000;6189866666;6689866666
594;6262447000;6190200000;6690200000
595;6262457000;6190200000;6690200000
596;6262458000;6190200000;6690200000
597;6298267000;6231466666;6731466666
598;6298281000;6231466666;6731466666
599;6298282000;6231466666;6731466666
600;6298284000;6231466666;6731466666
601;6298285000;6231466666;6731466666
602;6298287000;6231466666;6731466666
603;6298288000;6231466666;6731466666
604;6298438000;6231544444;6731544444
605;6298441000;6231844444;6731844444
606;6298443000;6231844444;6731844444
607;6298444000;6231844444;6731844444
608;6334957000;6273177777;6773177777
609;6334960000;6273177777;6773177777
610;6334961000;6273177777;6773177777
611;6334962000;6273177777;6773177777
612;6334963000;6273177777;6773177777
613;6334964000;6273177777;6773177777
614;6334965000;6273177777;6773177777
615;6335167000;6273266666;6773266666
616;6335183000;6273588888;6773588888
617;6335184000;6273588888;6773588888
618;6335185000;6273588888;6773588888
619;6371915000;6314788888;6814788888
620;6371918000;6314788888;6814788888
621;6371919000;6314788888;6814788888
622;6371920000;6314788888;6814788888
623;6371921000;6314788888;6814788888
624;6371922000;6314788888;6814788888
625;6371923000;6314788888;6814788888
626;6372131000;6314866666;6814866666
627;6372137000;6315200000;6815200000
628;6372138000;6315200000;6815200000
629;6372139000;6315200000;6815200000
630;6411011000;6356455555;6856455555
631;6411014000;6356455555;6856455555
632;6411015000;6356455555;6856455555
633;6411016000;6356455555;6856455555
634;6411017000;6356455555;6856455555
635;6411018000;6356455555;6856455555
636;6411019000;6356455555;6856455555
637;6411219000;6356533333;6856533333
638;6411226000;6356800000;6856800000
639;6411227000;6356800000;6856800000
640;6411228000;6356800000;6856800000
641;6451261000;6398122222;6898122222
642;6451264000;6398122222;6898122222
643;6451265000;6398122222;6898122222
644;6451266000;6398122222;6898122222
645;6451267000;6398122222;6898122222
646;6451268000;6398122222;6898122222
647;6451269000;6398122222;6898122222
648;6451433000;6398233333;6898233333
649;6451438000;6398544444;6898544444
650;6451439000;6398544444;6898544444
651;6451440000;6398544444;6898544444
652;6542992000;6439788888;6939788888
663;6583755000;6481488888;6981488888
674;6624302000;6523177777;7023177777
685;6662560000;6564800000;7064800000
696;6701012000;6606455555;7106455555
707;6738403000;6648122222;7148122222
718;6774811000;6689788888;7189788888
729;6916558000;6731455555;7231455555
762;7014793000;6856455555;7356455555
784;7068385000;6939788888;7439788888
806;7204709000;7023200000;7523200000
839;7291935000;7148177777;7648177777
861;7344540000;7231455555;7731455555
873;7371290000;7273122222;7773122222
883;7400844000;7314788888;7814788888
894;7501256000;7356455555;7856455555
916;7577780000;7439811111;7939811111
938;7646500000;7523177777;8023177777
949;7679800000;7564788888;8064788888
960;7710836000;7606488888;8106488888
971;7736870000;7648122222;8148122222
982;7772650000;7689788888;8189788888
983;7772654000;7689788888;8189788888
984;7772655000;7689788888;8189788888
985;7772656000;7689788888;8189788888
986;7772657000;7689788888;8189788888
987;7772658000;7689788888;8189788888
988;7772659000;7689788888;8189788888
989;7772858000;7689866666;8189866666
990;7772874000;7690188888;8190188888
991;7772875000;7690188888;8190188888
992;7772876000;7690188888;8190188888
993;7803975000;7731488888;8231488888
994;7803978000;7731488888;8231488888
995;7803979000;7731488888;8231488888
996;7803981000;7731488888;8231488888
997;7803982000;7731488888;8231488888
998;7803983000;7731488888;8231488888
999;7803984000;7731488888;8231488888
1000;7804191000;7731566666;8231566666
1001;7804206000;7731866666;8231866666
1002;7804207000;7731866666;8231866666
1003;7804208000;7731866666;8231866666
1004;7839099000;7773177777;8273177777
1005;7839103000;7773177777;8273177777
1006;7839103000;7773177777;8273177777
1007;7839105000;7773177777;8273177777
1008;7839106000;7773177777;8273177777
1009;7839107000;7773177777;8273177777
1010;7839108000;7773177777;8273177777
1011;7839307000;7773266666;8273266666
1012;7839313000;7773600000;8273600000
1013;7839314000;7773600000;8273600000
1014;7839315000;7773600000;8273600000
1015;7959640000;7814800000;8314800000
1038;8037712000;7898155555;8398155555
1059;8166751000;7981455555;8481455555
1092;8265011000;8106511111;8606511111
1114;8317927000;8189788888;8689788888
1136;8366426000;8273122222;8773122222
1147;8391096000;8314800000;8814800000
1148;8391100000;8314800000;8814800000
1149;8391101000;8314800000;8814800000
1150;8391102000;8314800000;8814800000
1151;8391103000;8314800000;8814800000
1152;8391104000;8314800000;8814800000
1153;8391105000;8314800000;8814800000
1154;8395984000;8314877777;8814877777
1155;8395999000;8315188888;8815188888
1156;8396000000;8315188888;8815188888
1157;8396001000;8315188888;8815188888
1158;8426011000;8356466666;8856466666
1159;8426015000;8356466666;8856466666
1160;8426016000;8356466666;8856466666
1161;8426017000;8356466666;8856466666
1162;8426018000;8356466666;8856466666
1163;8426019000;8356466666;8856466666
1164;8426020000;8356466666;8856466666
1165;8426253000;8356544444;8856544444
1166;8426268000;8356800000;8856800000
1167;8426269000;8356800000;8856800000
1168;8426270000;8356800000;8856800000
1169;8461031000;8398177777;8898177777
1170;8461034000;8398177777;8898177777
1171;8461035000;8398177777;8898177777
1172;8461037000;8398177777;8898177777
1173;8461037000;8398177777;8898177777
1174;8461038000;8398177777;8898177777
1175;8461039000;8398177777;8898177777
1176;8461247000;8398266666;8898266666
1177;8461262000;8398566666;8898566666
1178;8461263000;8398566666;8898566666
1179;8461264000;8398566666;8898566666
1180;8497202000;8439800000;8939800000
1181;8497206000;8439800000;8939800000
1182;8497207000;8439800000;8939800000
1183;8497208000;8439800000;8939800000
1184;8497209000;8439800000;8939800000
1185;8497210000;8439800000;8939800000
1186;8497211000;8439800000;8939800000
1187;8497409000;8439877777;8939877777
1188;8497413000;8440200000;8940200000
1189;8497414000;8440200000;8940200000
1190;8497415000;8440200000;8940200000
1191;8626460000;8481455555;8981455555
1213;8703037000;8564788888;9064788888
1235;8773430000;8648177777;9148177777
1246;8805852000;8689788888;9189788888
1257;8917224000;8731488888;9231488888
1290;9011312000;8856455555;9356455555
1312;9067979000;8939788888;9439788888
1334;9204594000;9023200000;9523200000
1367;9289374000;9148122222;9648122222
1389;9341231000;9231466666;9731466666
1401;9368602000;9273177777;9773177777
1411;9393243000;9314788888;9814788888
1412;9393247000;9314788888;9814788888
1413;9393248000;9314788888;9814788888
1414;9393249000;9314788888;9814788888
1415;9393250000;9314788888;9814788888
1416;9393251000;9314788888;9814788888
1417;9393252000;9314788888;9814788888
1418;9398557000;9314866666;9814866666
1419;9398562000;9315200000;9815200000
1420;9398563000;9315200000;9815200000
1421;9398564000;9315200000;9815200000
1422;9501120000;9356466666;9856466666
1444;9578258000;9439811111;9939811111
1466;9646518000;9523133333;10023133333
1477;9680503000;9564788888;10064788888
1488;9710691000;9606488888;10106488888
1499;9742799000;9648122222;10148122222
1510;9772535000;9689788888;10189788888
1511;9772538000;9689788888;10189788888
1512;9772540000;9689788888;10189788888
1513;9772541000;9689788888;10189788888
1514;9772542000;9689788888;10189788888
1515;9772543000;9689788888;10189788888
1516;9772544000;9689788888;10189788888
1517;9772743000;9689866666;10189866666
1518;9772758000;9690177777;10190177777
1519;9772759000;9690177777;10190177777
1520;9772760000;9690177777;10190177777
1521;9804164000;9731488888;10231488888
1522;9804167000;9731488888;10231488888
1523;9804168000;9731488888;10231488888
1524;9804170000;9731488888;10231488888
1525;9804170000;9731488888;10231488888
1526;9804171000;9731488888;10231488888
1527;9804172000;9731488888;10231488888
1528;9804373000;9731566666;10231566666
1529;9804388000;9731855555;10231855555
1530;9804389000;9731855555;10231855555
1531;9804390000;9731855555;10231855555
1532;9838234000;9773133333;10273133333
1533;9838237000;9773133333;10273133333
1534;9838238000;9773133333;10273133333
1535;9838239000;9773133333;10273133333
1536;9838240000;9773133333;10273133333
1537;9838241000;9773133333;10273133333
1538;9838242000;9773133333;10273133333
1539;9838453000;9773233333;10273233333
1540;9838469000;9773566666;10273566666
1541;9838470000;9773566666;10273566666
1542;9838471000;9773566666;10273566666
1543;9873613000;9814788888;10314788888
1544;9873617000;9814788888;10314788888
1545;9873618000;9814788888;10314788888
1546;9873619000;9814788888;10314788888
1547;9873620000;9814788888;10314788888
1548;9873621000;9814788888;10314788888
1549;9873622000;9814788888;10314788888
1550;9873828000;9814866666;10314866666
1551;9873835000;9815211111;10315211111
1552;9873836000;9815211111;10315211111
1553;9873837000;9815211111;10315211111
1554;9911086000;9856488888;10356488888
1555;9911099000;9856488888;10356488888
1556;9911100000;9856488888;10356488888
1557;9911101000;9856488888;10356488888
1558;9911102000;9856488888;10356488888
1559;9911103000;9856488888;10356488888
1560;9911104000;9856488888;10356488888
1561;9911275000;9856588888;10356588888
1562;9911279000;9856877777;10356877777
1563;9911280000;9856877777;10356877777
1564;9911281000;9856877777;10356877777
1565;10042715000;9898122222;10398122222
1589;10118849000;9981455555;10481455555
1609;10187870000;10064800000;10564800000
1622;10291225000;10106477777;10606477777
1653;10391651000;10231477777;10731477777
1675;10444085000;10314800000;10814800000
1697;10493469000;10398133333;10898133333
1708;10523665000;10439800000;10939800000
1709;10523669000;10439800000;10939800000
1710;10523670000;10439800000;10939800000
1711;10523671000;10439800000;10939800000
1712;10523671000;10439800000;10939800000
1713;10523672000;10439800000;10939800000
1714;10523673000;10439800000;10939800000
1715;10523874000;10439911111;10939911111
1716;10523889000;10440344444;10940344444
1717;10523890000;10440344444;10940344444
1718;10523891000;10440344444;10940344444
1719;10553927000;10481466666;10981466666
1720;10553931000;10481466666;10981466666
1721;10553932000;10481466666;10981466666
1722;10553933000;10481466666;10981466666
1723;10553934000;10481466666;10981466666
1724;10553935000;10481466666;10981466666
1725;10553936000;10481466666;10981466666
1726;10554141000;10481555555;10981555555
1727;10554157000;10481944444;10981944444
1728;10554165000;10481944444;10981944444
1729;10554166000;10481944444;10981944444
1730;10585284000;10523133333;11023133333
1731;10585288000;10523133333;11023133333
1732;10585289000;10523133333;11023133333
1733;10585290000;10523133333;11023133333
1734;10585291000;10523133333;11023133333
1735;10585292000;10523133333;11023133333
1736;10585293000;10523133333;11023133333
1737;10585516000;10523255555;11023255555
1738;10585531000;10523688888;11023688888
1739;10585533000;10523688888;11023688888
1740;10585534000;10523688888;11023688888
1741;10621367000;10564800000;11064800000
1742;10621370000;10564800000;11064800000
1743;10621371000;10564800000;11064800000
1744;10621372000;10564800000;11064800000
1745;10621373000;10564800000;11064800000
1746;10621374000;10564800000;11064800000
1747;10621375000;10564800000;11064800000
1748;10621545000;10564888888;11064888888
1749;10621550000;10565333333;11065333333
1750;10621551000;10565333333;11065333333
1751;10621552000;10565333333;11065333333
1752;10752225000;10606466666;11106466666
1774;10826445000;10689800000;11189800000
1796;10897482000;10773133333;11273133333
1807;10998686000;10814788888;11314788888
1840;11096749000;10939788888;11439788888
1862;11142021000;11023166666;11523166666
1873;11170016000;11064788888;11564788888
1885;11199822000;11106455555;11606455555
1895;11374188000;11148177777;11648177777
1939;11468620000;11314788888;11814788888
1961;11508780000;11398177777;11898177777
1972;11534945000;11439822222;11939822222
1983;11558509000;11481455555;11981455555
1984;11558512000;11481455555;11981455555
1985;11558514000;11481455555;11981455555
1986;11558516000;11481455555;11981455555
1987;11558517000;11481455555;11981455555
1988;11558528000;11481455555;11981455555
1989;11558529000;11481455555;11981455555
1990;11558674000;11481533333;11981533333
1991;11558678000;11481811111;11981811111
1992;11558680000;11481811111;11981811111
1993;11558681000;11481811111;11981811111
1994;11667750000;11523177777;12023177777
2016;11744811000;11606488888;12106488888
2038;11811712000;11689788888;12189788888
2049;11843010000;11731488888;12231488888
2060;11872661000;11773188888;12273188888
2071;11904560000;11814788888;12314788888
2082;11934728000;11856466666;12356466666
2083;11934732000;11856466666;12356466666
2084;11934733000;11856466666;12356466666
2085;11934734000;11856466666;12356466666
2086;11934735000;11856466666;12356466666
2087;11934736000;11856466666;12356466666
2088;11934737000;11856466666;12356466666
2089;11934943000;11856544444;12356544444
2090;11934959000;11856822222;12356822222
2091;11934960000;11856822222;12356822222
2092;11934961000;11856822222;12356822222
2093;11968557000;11898122222;12398122222
2094;11968560000;11898122222;12398122222
2095;11968561000;11898122222;12398122222
2096;11968562000;11898122222;12398122222
2097;11968564000;11898122222;12398122222
2098;11968564000;11898122222;12398122222
2099;11968565000;11898122222;12398122222
2100;11968766000;11898233333;12398233333
2101;11968782000;11898544444;12398544444
2102;11968783000;11898544444;12398544444
2103;11968784000;11898544444;12398544444
2104;12003612000;11939788888;12439788888
2105;12003615000;11939788888;12439788888
2106;12003616000;11939788888;12439788888
2107;12003617000;11939788888;12439788888
2108;12003618000;11939788888;12439788888
2109;12003619000;11939788888;12439788888
2110;12003620000;11939788888;12439788888
2111;12003820000;11939877777;12439877777
2112;12003835000;11940222222;12440222222
2113;12003836000;11940222222;12440222222
2114;12003837000;11940222222;12440222222
2115;12040202000;11981455555;12481455555
2116;12040205000;11981455555;12481455555
2117;12040207000;11981455555;12481455555
2118;12040208000;11981455555;12481455555
2119;12040209000;11981455555;12481455555
2120;12040210000;11981455555;12481455555
2121;12040211000;11981455555;12481455555
2122;12040418000;11981533333;12481533333
2123;12040434000;11981844444;12481844444
2124;12040435000;11981844444;12481844444
2125;12040436000;11981844444;12481844444
2126;12078320000;12023177777;12523177777
2127;12078323000;12023177777;12523177777
2128;12078324000;12023177777;12523177777
2129;12078335000;12023177777;12523177777
2130;12078336000;12023177777;12523177777
2131;12078337000;12023177777;12523177777
2132;12078338000;12023177777;12523177777
2133;12078472000;12023266666;12523266666
2134;12078475000;12023622222;12523622222
2135;12078476000;12023622222;12523622222
2136;12078477000;12023622222;12523622222
2137;12118187000;12064800000;12564800000
2138;12118191000;12064800000;12564800000
2139;12118192000;12064800000;12564800000
2140;12118193000;12064800000;12564800000
2141;12118194000;12064800000;12564800000
2142;12118195000;12064800000;12564800000
2143;12118196000;12064800000;12564800000
2144;12118357000;12064877777;12564877777
2145;12118364000;12065211111;12565211111
2146;12118366000;12065211111;12565211111
2147;12118367000;12065211111;12565211111
2148;12208949000;12106466666;12606466666
2161;12250020000;12148122222;12648122222
2170;12290054000;12189788888;12689788888
2182;12328039000;12231477777;12731477777
2192;12368166000;12273177777;12773177777
2203;12458903000;12314800000;12814800000
2225;12534408000;12398177777;12898177777
2247;12604310000;12481455555;12981455555
2258;12627112000;12523177777;13023177777
2269;12663554000;12564788888;13064788888
2280;12695373000;12606455555;13106455555
2291;12726751000;12648188888;13148188888
2292;12726755000;12648188888;13148188888
2293;12726756000;12648188888;13148188888
2294;12726757000;12648188888;13148188888
2295;12726758000;12648188888;13148188888
2296;12726759000;12648188888;13148188888
2297;12726760000;12648188888;13148188888
2298;12726978000;12648277777;13148277777
2299;12726994000;12648600000;13148600000
2300;12726995000;12648600000;13148600000
2301;12726996000;12648600000;13148600000
2302;12760311000;12689800000;13189800000
2303;12760315000;12689800000;13189800000
2304;12760316000;12689800000;13189800000
2305;12760317000;12689800000;13189800000
2306;12760318000;12689800000;13189800000
2307;12760319000;12689800000;13189800000
2308;12760320000;12689800000;13189800000
2309;12760519000;12689877777;13189877777
2310;12760534000;12690211111;13190211111
2311;12760536000;12690211111;13190211111
2312;12760537000;12690211111;13190211111
2313;12791940000;12731455555;13231455555
2314;12791944000;12731455555;13231455555
2315;12791945000;12731455555;13231455555
2316;12791946000;12731455555;13231455555
2317;12791947000;12731455555;13231455555
2318;12791948000;12731455555;13231455555
2319;12791949000;12731455555;13231455555
2320;12796025000;12731533333;13231533333
2321;12796040000;12731844444;13231844444
2322;12796042000;12731844444;13231844444
2323;12796050000;12731844444;13231844444
2324;12831276000;12773177777;13273177777
2325;12831279000;12773177777;13273177777
2326;12831280000;12773177777;13273177777
2327;12831281000;12773177777;13273177777
2328;12831282000;12773177777;13273177777
2329;12831283000;12773177777;13273177777
2330;12831284000;12773177777;13273177777
2331;12831491000;12773266666;13273266666
2332;12831496000;12773600000;13273600000
2333;12831497000;12773600000;13273600000
2334;12831498000;12773600000;13273600000
2335;12870048000;12814788888;13314788888
2336;12870052000;12814788888;13314788888
2337;12870053000;12814788888;13314788888
2338;12870054000;12814788888;13314788888
2339;12870055000;12814788888;13314788888
2340;12870056000;12814788888;13314788888
2341;12870056000;12814788888;13314788888
2342;12870257000;12814877777;13314877777
2343;12870272000;12815211111;13315211111
2344;12870273000;12815211111;13315211111
2345;12870274000;12815211111;13315211111
2346;12909888000;12856500000;13356500000
2347;12909891000;12856500000;13356500000
2348;12909893000;12856500000;13356500000
2349;12909893000;12856500000;13356500000
2350;12909894000;12856500000;13356500000
2351;12909895000;12856500000;13356500000
2352;12909896000;12856500000;13356500000
2353;12910105000;12856577777;13356577777
2354;12910111000;12856877777;13356877777
2355;12910112000;12856877777;13356877777
2356;12910113000;12856877777;13356877777
2357;12950347000;12898122222;13398122222
2358;12950351000;12898122222;13398122222
2359;12950352000;12898122222;13398122222
2360;12950353000;12898122222;13398122222
2361;12950362000;12898122222;13398122222
2362;12950362000;12898122222;13398122222
2363;12950363000;12898122222;13398122222
2364;12950563000;12898233333;13398233333
2365;12950569000;12898577777;13398577777
2366;12950570000;12898577777;13398577777
2367;12950571000;12898577777;13398577777
2368;12991422000;12939800000;13439800000
2369;12991426000;12939800000;13439800000
2370;12991427000;12939800000;13439800000
2371;12991428000;12939800000;13439800000
2372;12991429000;12939800000;13439800000
2373;12991430000;12939800000;13439800000
2374;12991431000;12939800000;13439800000
2375;12991631000;12939877777;13439877777
2376;12991636000;12940211111;13440211111
2377;12991638000;12940211111;13440211111
2378;12991639000;12940211111;13440211111
2379;13125640000;12981466666;13481466666
2401;13202104000;13064800000;13564800000
2423;13271099000;13148188888;13648188888
2434;13298018000;13189788888;13689788888
2445;13333735000;13231466666;13731466666
2456;13365081000;13273122222;13773122222
2467;13459275000;13314788888;13814788888
2489;13536637000;13398177777;13898177777
2511;13606299000;13481455555;13981455555
2522;13637155000;13523177777;14023177777
2533;13669650000;13564788888;14064788888
2544;13700481000;13606455555;14106455555
2555;13834055000;13648188888;14148188888
2588;13927065000;13773188888;14273188888
2612;13985264000;13856466666;14356466666
2632;14032160000;13939788888;14439788888
2643;14060270000;13981455555;14481455555
2644;14060274000;13981455555;14481455555
2645;14060274000;13981455555;14481455555
2646;14060275000;13981455555;14481455555
2647;14060276000;13981455555;14481455555
2648;14060277000;13981455555;14481455555
2649;14060278000;13981455555;14481455555
2650;14060370000;13981533333;14481533333
2651;14060375000;13981811111;14481811111
2652;14060377000;13981811111;14481811111
2653;14060377000;13981811111;14481811111
2654;14207142000;14023122222;14523122222
2687;14307256000;14148188888;14648188888
2709;14356593000;14231522222;14731522222
2720;14377179000;14273188888;14773188888
2731;14410454000;14314788888;14814788888
2742;14440731000;14356466666;14856466666
2748;14440744000;14356466666;14856466666
2749;14440857000;14356544444;14856544444
2751;14440862000;14356800000;14856800000
2752;14440864000;14356800000;14856800000
2753;14467479000;14398177777;14898177777
2754;14467482000;14398177777;14898177777
2755;14467483000;14398177777;14898177777
2756;14467484000;14398177777;14898177777
2757;14467485000;14398177777;14898177777
2758;14467486000;14398177777;14898177777
2759;14467487000;14398177777;14898177777
2760;14467579000;14398266666;14898266666
2761;14467584000;14398566666;14898566666
2762;14467585000;14398566666;14898566666
2763;14467586000;14398566666;14898566666
2764;14500914000;14439800000;14939800000
2765;14500917000;14439800000;14939800000
2766;14500918000;14439800000;14939800000
2767;14500919000;14439800000;14939800000
2768;14500920000;14439800000;14939800000
2769;14500921000;14439800000;14939800000
2770;14500922000;14439800000;14939800000
2771;14501130000;14439877777;14939877777
2772;14501137000;14440200000;14940200000
2773;14501138000;14440200000;14940200000
2774;14501139000;14440200000;14940200000
2775;14537598000;14481455555;14981455555
2776;14537602000;14481455555;14981455555
2777;14537603000;14481455555;14981455555
2778;14537604000;14481455555;14981455555
2779;14537605000;14481455555;14981455555
2780;14537606000;14481455555;14981455555
2781;14537607000;14481455555;14981455555
2782;14537777000;14481533333;14981533333
2783;14537780000;14481822222;14981822222
2784;14537781000;14481822222;14981822222
2785;14537782000;14481822222;14981822222
2786;14576843000;14523122222;15023122222
2787;14576847000;14523122222;15023122222
2788;14576848000;14523122222;15023122222
2789;14576849000;14523122222;15023122222
2790;14576850000;14523122222;15023122222
2791;14576851000;14523122222;15023122222
2792;14576852000;14523122222;15023122222
2793;14577059000;14523233333;15023233333
2794;14577065000;14523544444;15023544444
2795;14577067000;14523544444;15023544444
2796;14577068000;14523544444;15023544444
2797;14668291000;14564788888;15064788888
2808;14709138000;14606466666;15106466666
2820;14749508000;14648177777;15148177777
2830;14875030000;14689788888;15189788888
2864;14970763000;14814788888;15314788888
2885;15016965000;14898122222;15398122222
2896;15046313000;14939788888;15439788888
2907;15077735000;14981455555;15481455555
2920;15107470000;15023122222;15523122222
2926;15168886000;15023555555;15523555555
2942;15248844000;15106455555;15606455555
2962;15320976000;15189788888;15689788888
2984;15387065000;15273166666;15773166666
2995;15418269000;15314788888;15814788888
3006;15447315000;15356455555;15856455555
3017;15481940000;15398177777;15898177777
3018;15481944000;15398177777;15898177777
3019;15481945000;15398177777;15898177777
3020;15481946000;15398177777;15898177777
3021;15481947000;15398177777;15898177777
3022;15481948000;15398177777;15898177777
3023;15481949000;15398177777;15898177777
3024;15482155000;15398266666;15898266666
3025;15482170000;15398544444;15898544444
3026;15482171000;15398544444;15898544444
3027;15482172000;15398544444;15898544444
3028;15512904000;15439800000;15939800000
3029;15512907000;15439800000;15939800000
3030;15512908000;15439800000;15939800000
3031;15512909000;15439800000;15939800000
3032;15512910000;15439800000;15939800000
3033;15512911000;15439800000;15939800000
3034;15512912000;15439800000;15939800000
3035;15513084000;15439877777;15939877777
3036;15513088000;15440200000;15940200000
3037;15513089000;15440200000;15940200000
3038;15513090000;15440200000;15940200000
3039;15547501000;15481455555;15981455555
3040;15547504000;15481455555;15981455555
3041;15547505000;15481455555;15981455555
3042;15547506000;15481455555;15981455555
3043;15547507000;15481455555;15981455555
3044;15547508000;15481455555;15981455555
3045;15547509000;15481455555;15981455555
3046;15547709000;15481533333;15981533333
3047;15547715000;15481800000;15981800000
3048;15547716000;15481800000;15981800000
3049;15547717000;15481800000;15981800000
3050;15706426000;15523166666;16023166666
3083;15895099000;15648122222;16148122222
3127;15947119000;15814788888;16314788888
3149;15980207000;15898177777;16398177777
3150;15980210000;15898177777;16398177777
3151;15980211000;15898177777;16398177777
3152;15980213000;15898177777;16398177777
3153;15980213000;15898177777;16398177777
3154;15980214000;15898177777;16398177777
3155;15980215000;15898177777;16398177777
3156;15980308000;15898266666;16398266666
3157;15980313000;15898555555;16398555555
3158;15980314000;15898555555;16398555555
3159;15980315000;15898555555;16398555555
3160;16124446000;15939788888;16439788888
3194;16221801000;16064788888;16564788888
3215;16270976000;16148166666;16648166666
3226;16299589000;16189788888;16689788888
3237;16330345000;16231500000;16731500000
3248;16497137000;16273177777;16773177777
3292;16592377000;16439800000;16939800000
3314;16629702000;16523166666;17023166666
3325;16656754000;16564788888;17064788888
3336;16685814000;16606466666;17106466666
3337;16685818000;16606466666;17106466666
3338;16685819000;16606466666;17106466666
3339;16685820000;16606466666;17106466666
3340;16685820000;16606466666;17106466666
3341;16685821000;16606466666;17106466666
3342;16685822000;16606466666;17106466666
3343;16685914000;16606544444;17106544444
3344;16685919000;16606866666;17106866666
3345;16685920000;16606866666;17106866666
3346;16685921000;16606866666;17106866666
3347;16714989000;16648200000;17148200000
3348;16714993000;16648200000;17148200000
3349;16714994000;16648200000;17148200000
3350;16714995000;16648200000;17148200000
3351;16714996000;16648200000;17148200000
3352;16714996000;16648200000;17148200000
3353;16714997000;16648200000;17148200000
3354;16715098000;16648277777;17148277777
3355;16715103000;16648588888;17148588888
3356;16715104000;16648588888;17148588888
3357;16715105000;16648588888;17148588888
3358;16833674000;16689788888;17189788888
3380;16910809000;16773188888;17273188888
3402;16980650000;16856455555;17356455555
3413;17016799000;16898188888;17398188888
3427;17047416000;16939788888;17439788888
3435;17079117000;16981455555;17481455555
3446;17205963000;17023211111;17523211111
3481;17307466000;17148122222;17648122222
3501;17457375000;17231455555;17731455555
3546;17552164000;17398177777;17898177777
3567;17667133000;17481466666;17981466666
3600;17766900000;17606455555;18106455555
3622;17821326000;17689788888;18189788888
3644;18012949000;17773188888;18273188888
3688;18062078000;17939788888;18439788888
3700;18085721000;17981455555;18481455555
3710;18110675000;18023122222;18523122222
3721;18209335000;18064788888;18564788888
3743;18286623000;18148177777;18648177777
3765;18357670000;18231455555;18731455555
3784;18381757000;18273555555;18773555555
3787;18421227000;18314800000;18814800000
3798;18451636000;18356466666;18856466666
3809;18482663000;18398122222;18898122222
3817;18482798000;18398533333;18898533333
3819;18482811000;18398533333;18898533333
3820;18509924000;18439788888;18939788888
3821;18509927000;18439788888;18939788888
3822;18509928000;18439788888;18939788888
3823;18509929000;18439788888;18939788888
3824;18509930000;18439788888;18939788888
3825;18509932000;18439788888;18939788888
3826;18509932000;18439788888;18939788888
3827;18513551000;18439866666;18939866666
3828;18513566000;18440166666;18940166666
3829;18513567000;18440166666;18940166666
3830;18513568000;18440166666;18940166666
3831;18543777000;18481455555;18981455555
3832;18543780000;18481455555;18981455555
3833;18543781000;18481455555;18981455555
3834;18543782000;18481455555;18981455555
3835;18543783000;18481455555;18981455555
3836;18543784000;18481455555;18981455555
3837;18543785000;18481455555;18981455555
3838;18546471000;18481533333;18981533333
3839;18546486000;18481811111;18981811111
3840;18546487000;18481811111;18981811111
3841;18546488000;18481811111;18981811111
3842;18667236000;18523177777;19023177777
3864;18743794000;18606455555;19106455555
3888;18815049000;18689788888;19189788888
3897;18848319000;18731455555;19231455555
3908;18878287000;18773177777;19273177777
3919;18904225000;18814800000;19314800000
3930;18933646000;18856455555;19356455555
3931;18933650000;18856455555;19356455555
3932;18933651000;18856455555;19356455555
3933;18933652000;18856455555;19356455555
3934;18933653000;18856455555;19356455555
3935;18933654000;18856455555;19356455555
3936;18933655000;18856455555;19356455555
3937;18937560000;18856544444;19356544444
3938;18937576000;18856811111;19356811111
3939;18937577000;18856811111;19356811111
3940;18937578000;18856811111;19356811111
3941;18969672000;18898188888;19398188888
3942;18969675000;18898188888;19398188888
3943;18969676000;18898188888;19398188888
3944;18969677000;18898188888;19398188888
3945;18969678000;18898188888;19398188888
3946;18969679000;18898188888;19398188888
3947;18969680000;18898188888;19398188888
3948;18969879000;18898266666;19398266666
3949;18969894000;18898577777;19398577777
3950;18969895000;18898577777;19398577777
3951;18969896000;18898577777;19398577777
3952;19002963000;18939788888;19439788888
3953;19002966000;18939788888;19439788888
3954;19002967000;18939788888;19439788888
3955;19002969000;18939788888;19439788888
3956;19002969000;18939788888;19439788888
3957;19002971000;18939788888;19439788888
3958;19002971000;18939788888;19439788888
3959;19003170000;18939866666;19439866666
3960;19003186000;18940188888;19440188888
3961;19003187000;18940188888;19440188888
3962;19003188000;18940188888;19440188888
3963;19038432000;18981466666;19481466666
3964;19038435000;18981466666;19481466666
3965;19038436000;18981466666;19481466666
3966;19038437000;18981466666;19481466666
3967;19038438000;18981466666;19481466666
3968;19038439000;18981466666;19481466666
3969;19038440000;18981466666;19481466666
3970;19038639000;18981544444;19481544444
3971;19038645000;18981844444;19481844444
3972;19038646000;18981844444;19481844444
3973;19038647000;18981844444;19481844444
3974;19077198000;19023122222;19523122222
3975;19077202000;19023122222;19523122222
3976;19077203000;19023122222;19523122222
3977;19077204000;19023122222;19523122222
3978;19077205000;19023122222;19523122222
3979;19077206000;19023122222;19523122222
3980;19077207000;19023122222;19523122222
3981;19077414000;19023233333;19523233333
3982;19077429000;19023544444;19523544444
3983;19077439000;19023544444;19523544444
3984;19077440000;19023544444;19523544444
3985;19117284000;19064800000;19564800000
3986;19117297000;19064800000;19564800000
3987;19117298000;19064800000;19564800000
3988;19117299000;19064800000;19564800000
3989;19117300000;19064800000;19564800000
3990;19117301000;19064800000;19564800000
3991;19117302000;19064800000;19564800000
3992;19117508000;19064877777;19564877777
3993;19117524000;19065188888;19565188888
3994;19117525000;19065188888;19565188888
3995;19117526000;19065188888;19565188888
3996;19158174000;19106466666;19606466666
3997;19158177000;19106466666;19606466666
3998;19158178000;19106466666;19606466666
3999;19158180000;19106466666;19606466666
4000;19158181000;19106466666;19606466666
4001;19158182000;19106466666;19606466666
4002;19158183000;19106466666;19606466666
4003;19158388000;19106544444;19606544444
4004;19158395000;19106811111;19606811111
4005;19158396000;19106811111;19606811111
4006;19159365000;19106811111;19606811111
4007;19251208000;19148188888;19648188888
4018;19292113000;19189800000;19689800000
4029;19332203000;19231455555;19731455555
4040;19371507000;19273122222;19773122222
4052;19409614000;19314788888;19814788888
4062;19500435000;19356455555;19856455555
4084;19578295000;19439788888;19939788888
4106;19647889000;19523177777;20023177777
4117;19679767000;19564788888;20064788888
4128;19710767000;19606455555;20106455555
4139;19833714000;19648122222;20148122222
4174;19932978000;19773122222;20273122222
4194;19986123000;19856466666;20356466666
4216;20120383000;19939788888;20439788888
4249;20204979000;20064800000;20564800000
4271;20260482000;20148177777;20648177777
4282;20375266000;20189788888;20689788888
4315;20474709000;20314800000;20814800000
4337;20523483000;20398177777;20898177777
4349;20548131000;20439788888;20939788888
4359;20574198000;20481455555;20981455555
4370;20667244000;20523177777;21023177777
4392;20743160000;20606466666;21106466666
4414;20813054000;20689788888;21189788888
4425;20916310000;20731488888;21231488888
4458;21014629000;20856466666;21356466666
4480;21152426000;20939800000;21439800000
4524;21227959000;21106488888;21606488888
4535;21256299000;21148122222;21648122222
4546;21281194000;21189788888;21689788888
4557;21310756000;21231455555;21731455555
4558;21310759000;21231455555;21731455555
4559;21310760000;21231455555;21731455555
4560;21310761000;21231455555;21731455555
4561;21310762000;21231455555;21731455555
4562;21310763000;21231455555;21731455555
4563;21310764000;21231455555;21731455555
4564;21310855000;21231533333;21731533333
4565;21310860000;21231822222;21731822222
4566;21310861000;21231822222;21731822222
4567;21310862000;21231822222;21731822222
4568;21340113000;21273188888;21773188888
4569;21340116000;21273188888;21773188888
4570;21340117000;21273188888;21773188888
4571;21340118000;21273188888;21773188888
4572;21340119000;21273188888;21773188888
4573;21340120000;21273188888;21773188888
4574;21340121000;21273188888;21773188888
4575;21340213000;21273266666;21773266666
4576;21340218000;21273555555;21773555555
4577;21340219000;21273555555;21773555555
4578;21340220000;21273555555;21773555555
4579;21373290000;21314800000;21814800000
4580;21373293000;21314800000;21814800000
4581;21373295000;21314800000;21814800000
4582;21373296000;21314800000;21814800000
4583;21373297000;21314800000;21814800000
4584;21373297000;21314800000;21814800000
4585;21373299000;21314800000;21814800000
4586;21373391000;21314877777;21814877777
4587;21373396000;21315166666;21815166666
4588;21373397000;21315166666;21815166666
4589;21373398000;21315166666;21815166666
4590;21411146000;21356455555;21856455555
4591;21411158000;21356455555;21856455555
4592;21411159000;21356455555;21856455555
4593;21411160000;21356455555;21856455555
4594;21411161000;21356455555;21856455555
4595;21411162000;21356455555;21856455555
4596;21411163000;21356455555;21856455555
4597;21411253000;21356533333;21856533333
4598;21411257000;21356777777;21856777777
4599;21411258000;21356777777;21856777777
4600;21411259000;21356777777;21856777777
4601;21451191000;21398177777;21898177777
4602;21451202000;21398177777;21898177777
4603;21451211000;21398177777;21898177777
4604;21451212000;21398177777;21898177777
4605;21451213000;21398177777;21898177777
4606;21451214000;21398177777;21898177777
4607;21451215000;21398177777;21898177777
4608;21451304000;21398266666;21898266666
4609;21451308000;21398544444;21898544444
4610;21451310000;21398544444;21898544444
4611;21451311000;21398544444;21898544444
4612;21583806000;21439800000;21939800000
4634;21662380000;21523177777;22023177777
4658;21732895000;21606455555;22106455555
4674;21834033000;21648266666;22148266666
4700;21834040000;21773177777;22273177777
4701;21834041000;21773177777;22273177777
4702;21834049000;21773177777;22273177777
4703;21834050000;21773177777;22273177777
4704;21834051000;21773177777;22273177777
4705;21834052000;21773177777;22273177777
4706;21834053000;21773177777;22273177777
4707;21931781000;21773266666;22273266666
4722;21931787000;21856455555;22356455555
4723;21931788000;21856455555;22356455555
4724;21931789000;21856455555;22356455555
4725;21931790000;21856455555;22356455555
4726;21931791000;21856455555;22356455555
4727;21931792000;21856455555;22356455555
4728;21931793000;21856455555;22356455555
4729;21979470000;21856533333;22356533333
4733;21979476000;21898188888;22398188888
4734;21979477000;21898188888;22398188888
4735;21979478000;21898188888;22398188888
4736;21979479000;21898188888;22398188888
4737;21979480000;21898188888;22398188888
4738;21979481000;21898188888;22398188888
4739;21979482000;21898188888;22398188888
4740;22008197000;21898266666;22398266666
4744;22008203000;21939788888;22439788888
4745;22008204000;21939788888;22439788888
4746;22008205000;21939788888;22439788888
4747;22008206000;21939788888;22439788888
4748;22008207000;21939788888;22439788888
4749;22008208000;21939788888;22439788888
4750;22008209000;21939788888;22439788888
4751;22033611000;21939866666;22439866666
4755;22033617000;21981466666;22481466666
4756;22033618000;21981466666;22481466666
4757;22033619000;21981466666;22481466666
4758;22033620000;21981466666;22481466666
4759;22033621000;21981466666;22481466666
4760;22033622000;21981466666;22481466666
4761;22033623000;21981466666;22481466666
4762;22058335000;21981544444;22481544444
4763;22058341000;21981866666;22481866666
4764;22058342000;21981866666;22481866666
4765;22058343000;21981866666;22481866666
4766;22090714000;22023122222;22523122222
4767;22090717000;22023122222;22523122222
4768;22090718000;22023122222;22523122222
4769;22090719000;22023122222;22523122222
4770;22090720000;22023122222;22523122222
4771;22090721000;22023122222;22523122222
4772;22090722000;22023122222;22523122222
4773;22090814000;22023233333;22523233333
4774;22090819000;22023566666;22523566666
4775;22090820000;22023566666;22523566666
4776;22090821000;22023566666;22523566666
4777;22125517000;22064800000;22564800000
4778;22125521000;22064800000;22564800000
4779;22125521000;22064800000;22564800000
4780;22125522000;22064800000;22564800000
4781;22125523000;22064800000;22564800000
4782;22125524000;22064800000;22564800000
4783;22125526000;22064800000;22564800000
4784;22125618000;22064877777;22564877777
4785;22125623000;22065200000;22565200000
4786;22125624000;22065200000;22565200000
4787;22125625000;22065200000;22565200000
4788;22163349000;22106455555;22606455555
4789;22163353000;22106455555;22606455555
4790;22163354000;22106455555;22606455555
4791;22163355000;22106455555;22606455555
4792;22163356000;22106455555;22606455555
4793;22163357000;22106455555;22606455555
4794;22163358000;22106455555;22606455555
4795;22163449000;22106533333;22606533333
4796;22163454000;22106822222;22606822222
4797;22163455000;22106822222;22606822222
4798;22163456000;22106822222;22606822222
4799;22292874000;22148177777;22648177777
4821;22369680000;22231455555;22731455555
4845;22439907000;22314788888;22814788888
4856;22472644000;22356488888;22856488888
4865;22504129000;22398188888;22898188888
4877;22530822000;22439800000;22939800000
4887;22561657000;22481466666;22981466666
4888;22561660000;22481466666;22981466666
4889;22561661000;22481466666;22981466666
4890;22561662000;22481466666;22981466666
4891;22561663000;22481466666;22981466666
4892;22561672000;22481466666;22981466666
4893;22561673000;22481466666;22981466666
4894;22561768000;22481544444;22981544444
4895;22561773000;22481844444;22981844444
4896;22561774000;22481844444;22981844444
4897;22561775000;22481844444;22981844444
4898;22667854000;22523122222;23023122222
4920;22744288000;22606488888;23106488888
4942;22813084000;22689800000;23189800000
4953;22846483000;22731488888;23231488888
4964;22877856000;22773177777;23273177777
4975;22908715000;22814788888;23314788888
4986;22940023000;22856488888;23356488888
4987;22940026000;22856488888;23356488888
4988;22940027000;22856488888;23356488888
4989;22940028000;22856488888;23356488888
4990;22940029000;22856488888;23356488888
4991;22940030000;22856488888;23356488888
4992;22940031000;22856488888;23356488888
4993;22940129000;22856566666;23356566666
4994;22940134000;22856855555;23356855555
4995;22940136000;22856855555;23356855555
4996;22940137000;22856855555;23356855555
4997;22970407000;22898177777;23398177777
4998;22970410000;22898177777;23398177777
4999;22970411000;22898177777;23398177777
5000;22970412000;22898177777;23398177777
5001;22970413000;22898177777;23398177777
5002;22970414000;22898177777;23398177777
5003;22970415000;22898177777;23398177777
5004;22970507000;22898266666;23398266666
5005;22970512000;22898600000;23398600000
5006;22970513000;22898600000;23398600000
5007;22970514000;22898600000;23398600000
5008;23004786000;22939788888;23439788888
5009;23004790000;22939788888;23439788888
5010;23004791000;22939788888;23439788888
5011;23004792000;22939788888;23439788888
5012;23004792000;22939788888;23439788888
5013;23004794000;22939788888;23439788888
5014;23004795000;22939788888;23439788888
5015;23004887000;22939877777;23439877777
5016;23004892000;22940188888;23440188888
5017;23004893000;22940188888;23440188888
5018;23004894000;22940188888;23440188888
5019;23040755000;22981455555;23481455555
5020;23040767000;22981455555;23481455555
5021;23040768000;22981455555;23481455555
5022;23040769000;22981455555;23481455555
5023;23040769000;22981455555;23481455555
5024;23040770000;22981455555;23481455555
5025;23040771000;22981455555;23481455555
5026;23040859000;22981533333;23481533333
5027;23040864000;22981822222;23481822222
5028;23040865000;22981822222;23481822222
5029;23040866000;22981822222;23481822222
5030;23078206000;23023177777;23523177777
5031;23078210000;23023177777;23523177777
5032;23078211000;23023177777;23523177777
5033;23078212000;23023177777;23523177777
5034;23078213000;23023177777;23523177777
5035;23078214000;23023177777;23523177777
5036;23078215000;23023177777;23523177777
5037;23078329000;23023266666;23523266666
5038;23078334000;23023588888;23523588888
5039;23078335000;23023588888;23523588888
5040;23078336000;23023588888;23523588888
5041;23117898000;23064788888;23564788888
5042;23117902000;23064788888;23564788888
5043;23117903000;23064788888;23564788888
5044;23117904000;23064788888;23564788888
5045;23117905000;23064788888;23564788888
5046;23117906000;23064788888;23564788888
5047;23117907000;23064788888;23564788888
5048;23117999000;23064877777;23564877777
5049;23118004000;23065200000;23565200000
5050;23118005000;23065200000;23565200000
5051;23118006000;23065200000;23565200000
5052;23210305000;23106455555;23606455555
5063;23251315000;23148177777;23648177777
5074;23291525000;23189788888;23689788888
5085;23330447000;23231455555;23731455555
5096;23367902000;23273177777;23773177777
5107;23406188000;23314788888;23814788888
5118;23442161000;23356455555;23856455555
5129;23476513000;23398122222;23898122222
5130;23476516000;23398122222;23898122222
5131;23476518000;23398122222;23898122222
5132;23476519000;23398122222;23898122222
5133;23476520000;23398122222;23898122222
5134;23476521000;23398122222;23898122222
5135;23476521000;23398122222;23898122222
5136;23476613000;23398266666;23898266666
5137;23476618000;23398577777;23898577777
5138;23476619000;23398577777;23898577777
5139;23476620000;23398577777;23898577777
5140;23509736000;23439788888;23939788888
5141;23509740000;23439788888;23939788888
5142;23509741000;23439788888;23939788888
5143;23509742000;23439788888;23939788888
5144;23509751000;23439788888;23939788888
5145;23509752000;23439788888;23939788888
5146;23509752000;23439788888;23939788888
5147;23511926000;23439866666;23939866666
5148;23511932000;23440211111;23940211111
5149;23511933000;23440211111;23940211111
5150;23511934000;23440211111;23940211111
5151;23547939000;23481455555;23981455555
5152;23547942000;23481455555;23981455555
5153;23547943000;23481455555;23981455555
5154;23547944000;23481455555;23981455555
5155;23547945000;23481455555;23981455555
5156;23547946000;23481455555;23981455555
5157;23547947000;23481455555;23981455555
5158;23548039000;23481544444;23981544444
5159;23548051000;23481833333;23981833333
5160;23548052000;23481833333;23981833333
5161;23548053000;23481833333;23981833333
5162;23585673000;23523122222;24023122222
5163;23585676000;23523122222;24023122222
5164;23585677000;23523122222;24023122222
5165;23585678000;23523122222;24023122222
5166;23585679000;23523122222;24023122222
5167;23585680000;23523122222;24023122222
5168;23585681000;23523122222;24023122222
5169;23585774000;23523233333;24023233333
5170;23585779000;23523555555;24023555555
5171;23585780000;23523555555;24023555555
5172;23585781000;23523555555;24023555555
5173;23623127000;23564788888;24064788888
5174;23623130000;23564788888;24064788888
5175;23623131000;23564788888;24064788888
5176;23623132000;23564788888;24064788888
5177;23623133000;23564788888;24064788888
5178;23623134000;23564788888;24064788888
5179;23623135000;23564788888;24064788888
5180;23623227000;23564866666;24064866666
5181;23623232000;23565211111;24065211111
5182;23623233000;23565211111;24065211111
5183;23623234000;23565211111;24065211111
5184;23661305000;23606455555;24106455555
5185;23661317000;23606455555;24106455555
5186;23661318000;23606455555;24106455555
5187;23661319000;23606455555;24106455555
5188;23661320000;23606455555;24106455555
5189;23661321000;23606455555;24106455555
5190;23661322000;23606455555;24106455555
5191;23661410000;23606533333;24106533333
5192;23661415000;23606844444;24106844444
5193;23661416000;23606844444;24106844444
5194;23661417000;23606844444;24106844444
5195;23701421000;23648177777;24148177777
5196;23701424000;23648177777;24148177777
5197;23701425000;23648177777;24148177777
5198;23701426000;23648177777;24148177777
5199;23701427000;23648177777;24148177777
5200;23701428000;23648177777;24148177777
5201;23701429000;23648177777;24148177777
5202;23701521000;23648266666;24148266666
5203;23701526000;23648566666;24148566666
5204;23701528000;23648566666;24148566666
5205;23701528000;23648566666;24148566666
5206;23742204000;23689800000;24189800000
5207;23742207000;23689800000;24189800000
5208;23742209000;23689800000;24189800000
5209;23742210000;23689800000;24189800000
5210;23742211000;23689800000;24189800000
5211;23742212000;23689800000;24189800000
5212;23742213000;23689800000;24189800000
5213;23742308000;23689877777;24189877777
5214;23742313000;23690177777;24190177777
5215;23742314000;23690177777;24190177777
5216;23742315000;23690177777;24190177777
5217;23783374000;23731455555;24231455555
5218;23783378000;23731455555;24231455555
5219;23783379000;23731455555;24231455555
5220;23783380000;23731455555;24231455555
5221;23783381000;23731455555;24231455555
5222;23783382000;23731455555;24231455555
5223;23783382000;23731455555;24231455555
5224;23783475000;23731544444;24231544444
5225;23783480000;23731844444;24231844444
5226;23783481000;23731844444;24231844444
5227;23783482000;23731844444;24231844444
5228;23958287000;23773122222;24273122222
5261;24053210000;23898188888;24398188888
5283;24105604000;23981466666;24481466666
5294;24131154000;24023188888;24523188888
5305;24153020000;24064788888;24564788888
5316;24182777000;24106455555;24606455555
5317;24182780000;24106455555;24606455555
5318;24182781000;24106455555;24606455555
5319;24182782000;24106455555;24606455555
5320;24182783000;24106455555;24606455555
5321;24182784000;24106455555;24606455555
5322;24182785000;24106455555;24606455555
5323;24182877000;24106533333;24606533333
5324;24182882000;24106822222;24606822222
5325;24182883000;24106822222;24606822222
5326;24182884000;24106