seqnum;now;rtptime;deadline
1;4950266000;4759977777;5259977777
3;5097652000;4791311111;5291311111
58;5662861000;4999677777;5499677777
201;5729237000;5541322222;6041322222
223;5773617000;5624644444;6124644444
234;5806543000;5666311111;6166311111
245;5831006000;5707977777;6207977777
246;5831021000;5707977777;6207977777
247;5831023000;5707977777;6207977777
248;5831026000;5707977777;6207977777
249;5831028000;5707977777;6207977777
250;5831030000;5707977777;6207977777
251;5831032000;5707977777;6207977777
252;5831284000;5708066666;6208066666
253;5831301000;5708377777;6208377777
254;5831303000;5708377777;6208377777
255;5831304000;5708377777;6208377777
256;5862193000;5749644444;6249644444
257;5862204000;5749644444;6249644444
258;5862206000;5749644444;6249644444
259;5862207000;5749644444;6249644444
260;5862209000;5749644444;6249644444
261;5862211000;5749644444;6249644444
262;5862213000;5749644444;6249644444
263;5862451000;5749733333;6249733333
264;5862469000;5750011111;6250011111
265;5862470000;5750011111;6250011111
266;5862472000;5750011111;6250011111
267;6004186000;5791311111;6291311111
300;6118996000;5916311111;6416311111
322;6176529000;5999644444;6499644444
344;6336141000;6082977777;6582977777
388;6458409000;6249644444;6749644444
421;6530148000;6374644444;6874644444
432;6627835000;6416311111;6916311111
465;6739099000;6541311111;7041311111
487;6801572000;6624644444;7124644444
509;6858169000;6707988888;7207988888
520;6961439000;6749644444;7249644444
553;7071743000;6874644444;7374644444
575;7134019000;6957977777;7457977777
597;7191758000;7041311111;7541311111
608;7220571000;7082977777;7582977777
619;7344337000;7124644444;7624644444
652;7543194000;7249644444;7749644444
707;7739564000;7457977777;7957977777
751;7818842000;7624644444;8124644444
773;7919537000;7707977777;8207977777
806;8030480000;7832977777;8332977777
828;8092704000;7916311111;8416311111
850;8212380000;7999644444;8499644444
883;8322403000;8124644444;8624644444
905;8385709000;8207977777;8707977777
927;8614605000;8291311111;8791311111
982;8779826000;8499644444;8999644444
1026;8856613000;8666311111;9166311111
1048;8897500000;8749644444;9249644444
1059;8924920000;8791311111;9291311111
1070;8948156000;8832977777;9332977777
1071;8948160000;8832977777;9332977777
1072;8948162000;8832977777;9332977777
1073;8948163000;8832977777;9332977777
1074;8948164000;8832977777;9332977777
1075;8948166000;8832977777;9332977777
1076;8948167000;8832977777;9332977777
1077;8948290000;8833066666;9333066666
1078;8948296000;8833377777;9333377777
1079;8948297000;8833377777;9333377777
1080;8948298000;8833377777;9333377777
1081;8979640000;8874644444;9374644444
1082;8979644000;8874644444;9374644444
1083;8979645000;8874644444;9374644444
1084;8979646000;8874644444;9374644444
1085;8979647000;8874644444;9374644444
1086;8979649000;8874644444;9374644444
1087;8979650000;8874644444;9374644444
1088;8979754000;8874722222;9374722222
1089;8979760000;8875011111;9375011111
1090;8979761000;8875011111;9375011111
1091;8979762000;8875011111;9375011111
1092;9285361000;8916311111;9416311111
1158;9323499000;9166311111;9666311111
1169;9338159000;9207977777;9707977777
1180;9363484000;9249644444;9749644444
1181;9363488000;9249644444;9749644444
1182;9363488000;9249644444;9749644444
1183;9363489000;9249644444;9749644444
1184;9363490000;9249644444;9749644444
1185;9363491000;9249644444;9749644444
1186;9363492000;9249644444;9749644444
1187;9363635000;9249722222;9749722222
1188;9363640000;9250022222;9750022222
1189;9363642000;9250022222;9750022222
1190;9363643000;9250022222;9750022222
1191;9544137000;9291311111;9791311111
1235;9667135000;9457977777;9957977777
1268;9848315000;9582977777;10082977777
1312;9923725000;9749644444;10249644444
1334;9965798000;9832977777;10332977777
1345;9991891000;9874644444;10374644444
1346;9991894000;9874644444;10374644444
1347;9991895000;9874644444;10374644444
1348;9991896000;9874644444;10374644444
1349;9991897000;9874644444;10374644444
1350;9991898000;9874644444;10374644444
1351;9991899000;9874644444;10374644444
1352;9992131000;9874722222;10374722222
1353;9992147000;9875011111;10375011111
1354;9992148000;9875011111;10375011111
1355;9992163000;9875011111;10375011111
1356;10129029000;9916311111;10416311111
1389;10238962000;10041311111;10541311111
1411;10300931000;10124644444;10624644444
1433;10419827000;10207977777;10707977777
1466;10529550000;10332977777;10832977777
1488;10591409000;10416311111;10916311111
1510;10642982000;10499644444;10999644444
1521;10676557000;10541311111;11041311111
1532;10794158000;10582977777;11082977777
1565;10900845000;10707977777;11207977777
1587;10965280000;10791311111;11291311111
1609;11022469000;10874644444;11374644444
1620;11129061000;10916311111;11416311111
1653;11239133000;11041311111;11541311111
1675;11300032000;11124644444;11624644444
1697;11357223000;11207977777;11707977777
1708;11461953000;11249644444;11749644444
1741;11572736000;11374644444;11874644444
1763;11637172000;11457977777;11957977777
1785;11753115000;11541322222;12041322222
1818;11864099000;11666322222;12166322222
1840;11924999000;11749644444;12249644444
1862;11982807000;11832977777;12332977777
1873;12011525000;11874644444;12374644444
1884;12132390000;11916311111;12416311111
1917;12239617000;12041311111;12541311111
1939;12371893000;12124644444;12624644444
1968;12388135000;12208055555;12708055555
1983;12388151000;12291311111;12791311111
1984;12388152000;12291311111;12791311111
1985;12388153000;12291311111;12791311111
1986;12388154000;12291311111;12791311111
1987;12388155000;12291311111;12791311111
1988;12388156000;12291311111;12791311111
1989;12388157000;12291311111;12791311111
1990;12485817000;12291400000;12791400000
2005;12485832000;12374644444;12874644444
2006;12485834000;12374644444;12874644444
2007;12485834000;12374644444;12874644444
2008;12485836000;12374644444;12874644444
2009;12485836000;12374644444;12874644444
2010;12485837000;12374644444;12874644444
2011;12485838000;12374644444;12874644444
2012;12668295000;12374722222;12874722222
2060;12668313000;12582977777;13082977777
2061;12668314000;12582977777;13082977777
2062;12668315000;12582977777;13082977777
2063;12668316000;12582977777;13082977777
2064;12668317000;12582977777;13082977777
2065;12668318000;12582977777;13082977777
2066;12668319000;12582977777;13082977777
2067;12771418000;12583055555;13083055555
2082;12771434000;12666311111;13166311111
2083;12771435000;12666311111;13166311111
2084;12771436000;12666311111;13166311111
2085;12771437000;12666311111;13166311111
2086;12771438000;12666311111;13166311111
2087;12771439000;12666311111;13166311111
2088;12771440000;12666311111;13166311111
2089;12919589000;12666388888;13166388888
2125;12953461000;12791733333;13291733333
2126;13032961000;12832977777;13332977777
2148;13082415000;12916311111;13416311111
2170;13133789000;12999644444;13499644444
2181;13161398000;13041311111;13541311111
2182;13161402000;13041311111;13541311111
2183;13161403000;13041311111;13541311111
2184;13161404000;13041311111;13541311111
2185;13161405000;13041311111;13541311111
2186;13161406000;13041311111;13541311111
2187;13161407000;13041311111;13541311111
2188;13161614000;13041400000;13541400000
2189;13161630000;13041744444;13541744444
2190;13161631000;13041744444;13541744444
2191;13161632000;13041744444;13541744444
2192;13294341000;13082977777;13582977777
2225;13405718000;13207977777;13707977777
2247;13466910000;13291311111;13791311111
2269;13523962000;13374644444;13874644444
2280;13552658000;13416311111;13916311111
2291;13582285000;13457977777;13957977777
2302;13613150000;13499644444;13999644444
2303;13613153000;13499644444;13999644444
2304;13613154000;13499644444;13999644444
2305;13613156000;13499644444;13999644444
2306;13613157000;13499644444;13999644444
2307;13613158000;13499644444;13999644444
2308;13613159000;13499644444;13999644444
2309;13613360000;13499722222;13999722222
2310;13613376000;13500022222;14000022222
2311;13613377000;13500022222;14000022222
2312;13613378000;13500022222;14000022222
2313;13794889000;13541366666;14041366666
2357;13918158000;13707988888;14207988888
2390;13982444000;13832988888;14332988888
2401;14008480000;13874655555;14374655555
2412;14036313000;13916333333;14416333333
2413;14036317000;13916333333;14416333333
2414;14036318000;13916333333;14416333333
2415;14036328000;13916333333;14416333333
2416;14036329000;13916333333;14416333333
2417;14036330000;13916333333;14416333333
2418;14036332000;13916333333;14416333333
2419;14036535000;13916422222;14416422222
2420;14036550000;13916811111;14416811111
2421;14036551000;13916811111;14416811111
2422;14036552000;13916811111;14416811111
2423;14068676000;13957988888;14457988888
2424;14068679000;13957988888;14457988888
2425;14068680000;13957988888;14457988888
2426;14068681000;13957988888;14457988888
2427;14068682000;13957988888;14457988888
2428;14068683000;13957988888;14457988888
2429;14068684000;13957988888;14457988888
2430;14068856000;13958077777;14458077777
2431;14068861000;13958411111;14458411111
2432;14068862000;13958411111;14458411111
2433;14068863000;13958411111;14458411111
2434;14101912000;13999655555;14499655555
2435;14101915000;13999655555;14499655555
2436;14101916000;13999655555;14499655555
2437;14101917000;13999655555;14499655555
2438;14101918000;13999655555;14499655555
2439;14101919000;13999655555;14499655555
2440;14101920000;13999655555;14499655555
2441;14102134000;13999733333;14499733333
2442;14102150000;14000077777;14500077777
2443;14102151000;14000077777;14500077777
2444;14102152000;14000077777;14500077777
2445;14138214000;14041322222;14541322222
2446;14138218000;14041322222;14541322222
2447;14138219000;14041322222;14541322222
2448;14138220000;14041322222;14541322222
2449;14138221000;14041322222;14541322222
2450;14138222000;14041322222;14541322222
2451;14138222000;14041322222;14541322222
2452;14138394000;14041411111;14541411111
2453;14138398000;14041755555;14541755555
2454;14138400000;14041755555;14541755555
2455;14138401000;14041755555;14541755555
2456;14176938000;14082988888;14582988888
2457;14176940000;14082988888;14582988888
2458;14176941000;14082988888;14582988888
2459;14176942000;14082988888;14582988888
2460;14176944000;14082988888;14582988888
2461;14176945000;14082988888;14582988888
2462;14176946000;14082988888;14582988888
2463;14177065000;14083077777;14583077777
2464;14177070000;14083422222;14583422222
2465;14177072000;14083422222;14583422222
2466;14177073000;14083422222;14583422222
2467;14535964000;14124644444;14624644444
2544;14536125000;14416322222;14916322222
2545;14536131000;14416322222;14916322222
2546;14536132000;14416322222;14916322222
2547;14536134000;14416322222;14916322222
2548;14536136000;14416322222;14916322222
2549;14536137000;14416322222;14916322222
2550;14536139000;14416322222;14916322222
2551;14536275000;14416411111;14916411111
2552;14536292000;14416777777;14916777777
2553;14536294000;14416777777;14916777777
2554;14536296000;14416777777;14916777777
2555;14628828000;14457988888;14957988888
2577;14709332000;14541311111;15041311111
2599;14785929000;14624655555;15124655555
2610;14821478000;14666322222;15166322222
2621;14920686000;14707988888;15207988888
2654;15031640000;14832977777;15332977777
2676;15196322000;14916311111;15416311111
2720;15275115000;15082977777;15582977777
2742;15315627000;15166311111;15666311111
2753;15339286000;15207988888;15707988888
2764;15366122000;15249655555;15749655555
2765;15366126000;15249655555;15749655555
2766;15366126000;15249655555;15749655555
2767;15366127000;15249655555;15749655555
2768;15366128000;15249655555;15749655555
2769;15366129000;15249655555;15749655555
2770;15366130000;15249655555;15749655555
2771;15366332000;15249733333;15749733333
2772;15366347000;15250022222;15750022222
2773;15366349000;15250022222;15750022222
2774;15366349000;15250022222;15750022222
2775;15397078000;15291311111;15791311111
2776;15397082000;15291311111;15791311111
2777;15397083000;15291311111;15791311111
2778;15397084000;15291311111;15791311111
2779;15397085000;15291311111;15791311111
2780;15397086000;15291311111;15791311111
2781;15397087000;15291311111;15791311111
2782;15397259000;15291400000;15791400000
2783;15397263000;15291722222;15791722222
2784;15397264000;15291722222;15791722222
2785;15397265000;15291722222;15791722222
2786;15505225000;15332977777;15832977777
2808;15585775000;15416311111;15916311111
2830;15661577000;15499655555;15999655555
2841;15697016000;15541311111;16041311111
2852;15736491000;15582977777;16082977777
2863;15836932000;15624644444;16124644444
2896;15947877000;15749644444;16249644444
2918;16006612000;15832977777;16332977777
2940;16063611000;15916322222;16416322222
2951;16092756000;15957988888;16457988888
2962;16121652000;15999644444;16499644444
2963;16121659000;15999644444;16499644444
2964;16121660000;15999644444;16499644444
2965;16121662000;15999644444;16499644444
2966;16121663000;15999644444;16499644444
2967;16121665000;15999644444;16499644444
2968;16121666000;15999644444;16499644444
2969;16121899000;15999722222;16499722222
2970;16121917000;16000000000;16500000000
2971;16121918000;16000000000;16500000000
2972;16121920000;16000000000;16500000000
2973;16253576000;16041311111;16541311111
3006;16364612000;16166311111;16666311111
3028;16426129000;16249644444;16749644444
3050;16485790000;16332988888;16832988888
3061;16512130000;16374644444;16874644444
3072;16628450000;16416311111;16916311111
3105;16739510000;16541311111;17041311111
3127;16800717000;16624644444;17124644444
3149;16857606000;16707977777;17207977777
3160;16886225000;16749644444;17249644444
3171;17004177000;16791311111;17291311111
3204;17115703000;16916344444;17416344444
3226;17177861000;16999655555;17499655555
3248;17295538000;17082977777;17582977777
3281;17406097000;17207977777;17707977777
3303;17469336000;17291311111;17791311111
3325;17526526000;17374677777;17874677777
3336;17554670000;17416311111;17916311111
3347;17583736000;17457977777;17957977777
3358;17753023000;17499644444;17999644444
3402;17875405000;17666311111;18166311111
3435;17944210000;17791311111;18291311111
3446;18085876000;17832977777;18332977777
3490;18209405000;17999644444;18499644444
3523;18277464000;18124644444;18624644444
3534;18302622000;18166333333;18666333333
3545;18329653000;18207977777;18707977777
3546;18329656000;18207977777;18707977777
3547;18329657000;18207977777;18707977777
3548;18329658000;18207977777;18707977777
3549;18329660000;18207977777;18707977777
3550;18329661000;18207977777;18707977777
3551;18329662000;18207977777;18707977777
3552;18329879000;18208066666;18708066666
3553;18329886000;18208366666;18708366666
3554;18329887000;18208366666;18708366666
3555;18329888000;18208366666;18708366666
3556;18421879000;18249644444;18749644444
3578;18502155000;18332988888;18832988888
3600;18577278000;18416311111;18916311111
3611;18612778000;18457977777;18957977777
3622;18645248000;18499644444;18999644444
3633;18794542000;18541311111;19041311111
3677;18920272000;18707977777;19207977777
3710;18986277000;18832977777;19332977777
3721;19167606000;18874644444;19374644444
3776;19280186000;19082977777;19582977777
3798;19318503000;19166311111;19666311111
3809;19345189000;19207977777;19707977777
3820;19462031000;19249644444;19749644444
3853;19572925000;19374644444;19874644444
3875;19635879000;19457977777;19957977777
3897;19693076000;19541322222;20041322222
3908;19717068000;19582977777;20082977777
3919;19750740000;19624644444;20124644444
3930;19781031000;19666311111;20166311111
3931;19781041000;19666311111;20166311111
3932;19781057000;19666311111;20166311111
3933;19781059000;19666311111;20166311111
3934;19781060000;19666311111;20166311111
3935;19781062000;19666311111;20166311111
3936;19781063000;19666311111;20166311111
3937;19781290000;19666400000;20166400000
3938;19781306000;19666700000;20166700000
3939;19781307000;19666700000;20166700000
3940;19781309000;19666700000;20166700000
3941;19813762000;19707977777;20207977777
3942;19813766000;19707977777;20207977777
3943;19813767000;19707977777;20207977777
3944;19813769000;19707977777;20207977777
3945;19813770000;19707977777;20207977777
3946;19813771000;19707977777;20207977777
3947;19813773000;19707977777;20207977777
3948;19813981000;19708055555;20208055555
3949;19813997000;19708366666;20208366666
3950;19813998000;19708366666;20208366666
3951;19813999000;19708366666;20208366666
3952;20003080000;19749644444;20249644444
3996;20124231000;19916311111;20416311111
4029;20193943000;20041322222;20541322222
4040;20217291000;20082977777;20582977777
4051;20244957000;20124644444;20624644444
4052;20244961000;20124644444;20624644444
4053;20244972000;20124644444;20624644444
4054;20244973000;20124644444;20624644444
4055;20244974000;20124644444;20624644444
4056;20244975000;20124644444;20624644444
4057;20244976000;20124644444;20624644444
4058;20245178000;20124733333;20624733333
4059;20245193000;20125011111;20625011111
4060;20245195000;20125011111;20625011111
4061;20245195000;20125011111;20625011111
4062;20275697000;20166311111;20666311111
4063;20275700000;20166311111;20666311111
4064;20275701000;20166311111;20666311111
4065;20275702000;20166311111;20666311111
4066;20275703000;20166311111;20666311111
4067;20275705000;20166311111;20666311111
4068;20275705000;20166311111;20666311111
4069;20275906000;20166388888;20666388888
4070;20275922000;20166677777;20666677777
4071;20275923000;20166677777;20666677777
4072;20275924000;20166677777;20666677777
4073;20309577000;20207988888;20707988888
4074;20309581000;20207988888;20707988888
4075;20309582000;20207988888;20707988888
4076;20309583000;20207988888;20707988888
4077;20309584000;20207988888;20707988888
4078;20309585000;20207988888;20707988888
4079;20309586000;20207988888;20707988888
4080;20309787000;20208066666;20708066666
4081;20309793000;20208366666;20708366666
4082;20309794000;20208366666;20708366666
4083;20309795000;20208366666;20708366666
4084;20346649000;20249644444;20749644444
4085;20346652000;20249644444;20749644444
4086;20346653000;20249644444;20749644444
4087;20346654000;20249644444;20749644444
4088;20346655000;20249644444;20749644444
4089;20346656000;20249644444;20749644444
4090;20346657000;20249644444;20749644444
4091;20346829000;20249722222;20749722222
4092;20346833000;20250011111;20750011111
4093;20346834000;20250011111;20750011111
4094;20346835000;20250011111;20750011111
4095;20503324000;20291311111;20791311111
4128;20615592000;20416311111;20916311111
4150;20675431000;20499644444;20999644444
4172;20735289000;20582977777;21082977777
4183;20837166000;20624644444;21124644444
4216;20948397000;20749644444;21249644444
4238;21010221000;20832977777;21332977777
4260;21067614000;20916311111;21416311111
4271;21211300000;20957977777;21457977777
4315;21334673000;21124677777;21624677777
4348;21503026000;21249677777;21749677777
4392;21625240000;21416311111;21916311111
4425;21696654000;21541322222;22041322222
4436;21721131000;21582977777;22082977777
4447;21748640000;21624644444;22124644444
4457;21748805000;21625033333;22125033333
4458;21777348000;21666322222;22166322222
4459;21777352000;21666322222;22166322222
4460;21777353000;21666322222;22166322222
4461;21777355000;21666322222;22166322222
4462;21777356000;21666322222;22166322222
4463;21777358000;21666322222;22166322222
4464;21777360000;21666322222;22166322222
4465;21777563000;21666400000;22166400000
4466;21777579000;21666700000;22166700000
4467;21777580000;21666700000;22166700000
4468;21777581000;21666700000;22166700000
4469;21879770000;21707977777;22207977777
4491;21960445000;21791311111;22291311111
4513;22127972000;21874644444;22374644444
4557;22251471000;22041311111;22541311111
4590;22322294000;22166311111;22666311111
4601;22346607000;22207977777;22707977777
4612;22372915000;22249677777;22749677777
4613;22372919000;22249677777;22749677777
4614;22372920000;22249677777;22749677777
4615;22372921000;22249677777;22749677777
4616;22372923000;22249677777;22749677777
4617;22372924000;22249677777;22749677777
4618;22372925000;22249677777;22749677777
4619;22373118000;22249755555;22749755555
4620;22373126000;22250033333;22750033333
4621;22373127000;22250033333;22750033333
4622;22373128000;22250033333;22750033333
4623;22544700000;22291311111;22791311111
4667;22668147000;22457977777;22957977777
4700;22737676000;22582977777;23082977777
4711;22760432000;22624644444;23124644444
4722;22787624000;22666311111;23166311111
4723;22787628000;22666311111;23166311111
4724;22787629000;22666311111;23166311111
4725;22787630000;22666311111;23166311111
4726;22787631000;22666311111;23166311111
4727;22787632000;22666311111;23166311111
4728;22787633000;22666311111;23166311111
4730;22787749000;22666688888;23166688888
4731;22787752000;22666688888;23166688888
4732;22787753000;22666688888;23166688888
4733;22821214000;22707977777;23207977777
4734;22821218000;22707977777;23207977777
4735;22821219000;22707977777;23207977777
4736;22821220000;22707977777;23207977777
4737;22821221000;22707977777;23207977777
4738;22821222000;22707977777;23207977777
4739;22821223000;22707977777;23207977777
4740;22821424000;22708055555;23208055555
4741;22821439000;22708366666;23208366666
4742;22821440000;22708366666;23208366666
4743;22821441000;22708366666;23208366666
4744;22853511000;22749644444;23249644444
4745;22853514000;22749644444;23249644444
4746;22853515000;22749644444;23249644444
4747;22853516000;22749644444;23249644444
4748;22853517000;22749644444;23249644444
4749;22853518000;22749644444;23249644444
4750;22853519000;22749644444;23249644444
4751;22853719000;22749722222;23249722222
4752;22853734000;22750033333;23250033333
4753;22853735000;22750033333;23250033333
4754;22853737000;22750033333;23250033333
4755;23004107000;22791311111;23291311111
4788;23197400000;22916311111;23416311111
4832;23281131000;23082977777;23582977777
4854;23317499000;23166322222;23666322222
4865;23340025000;23207977777;23707977777
4876;23366469000;23249644444;23749644444
4877;23366479000;23249644444;23749644444
4878;23366481000;23249644444;23749644444
4879;23366482000;23249644444;23749644444
4880;23366483000;23249644444;23749644444
4881;23366485000;23249644444;23749644444
4882;23366486000;23249644444;23749644444
4883;23366706000;23249722222;23749722222
4884;23366722000;23250033333;23750033333
4885;23366724000;23250033333;23750033333
4886;23366725000;23250033333;23750033333
4887;23397260000;23291311111;23791311111
4888;23397264000;23291311111;23791311111
4889;23397265000;23291311111;23791311111
4890;23397267000;23291311111;23791311111
4891;23397268000;23291311111;23791311111
4892;23397269000;23291311111;23791311111
4893;23397270000;23291311111;23791311111
4894;23397443000;23291400000;23791400000
4895;23397447000;23291722222;23791722222
4896;23397448000;23291722222;23791722222
4897;23397449000;23291722222;23791722222
4898;23586321000;23332977777;23832977777
4942;23706834000;23499644444;23999644444
4973;23744744000;23583388888;24083388888
4975;23777609000;23624644444;24124644444
4986;23803101000;23666311111;24166311111
4997;23920573000;23707977777;24207977777
5030;24031533000;23833111111;24333111111
5052;24090262000;23916311111;24416311111
5074;24212336000;23999644444;24499644444
5107;24323153000;24124644444;24624644444
5129;24386041000;24207977777;24707977777
5151;24445260000;24291311111;24791311111
5162;24472951000;24332988888;24832988888
5173;24501829000;24374644444;24874644444
5184;24629005000;24416311111;24916311111
5217;24804077000;24541311111;25041311111
5261;24955412000;24707977777;25207977777
5294;25045653000;24832977777;25332977777
5327;25112015000;24957977777;25457977777
5338;25293030000;24999644444;25499644444
5393;25405142000;25207977777;25707977777
5415;25443102000;25291322222;25791322222
5426;25456983000;25332977777;25832977777
5437;25491551000;25374644444;25874644444
5438;25491554000;25374644444;25874644444
5439;25491556000;25374644444;25874644444
5440;25491557000;25374644444;25874644444
5441;25491558000;25374644444;25874644444
5442;25491558000;25374644444;25874644444
5443;25491559000;25374644444;25874644444
5444;25491762000;25374733333;25874733333
5445;25491777000;25375033333;25875033333
5446;25491778000;25375033333;25875033333
5447;25491779000;25375033333;25875033333
5448;25669588000;25416311111;25916311111
5481;25822197000;25541333333;26041333333
5482;25822216000;25541333333;26041333333
5483;25822218000;25541333333;26041333333
5484;25822220000;25541333333;26041333333
5485;25822221000;25541333333;26041333333
5486;25822223000;25541333333;26041333333
5487;25822224000;25541333333;26041333333
5488;25822443000;25541422222;26041422222
5489;25822460000;25541755555;26041755555
5490;25822462000;25541755555;26041755555
5491;25822463000;25541755555;26041755555
5492;25847156000;25582977777;26082977777
5493;25847160000;25582977777;26082977777
5494;25847161000;25582977777;26082977777
5495;25847162000;25582977777;26082977777
5496;25847195000;25582977777;26082977777
5497;25847196000;25582977777;26082977777
5498;25847198000;25582977777;26082977777
5499;25847407000;25583066666;26083066666
