seqnum;now;rtptime;deadline
2;8371274000;8180766666;8680766666
5;8489806000;8211988888;8711988888
42;8575637000;8337011111;8837011111
64;8951623000;8420311111;8920311111
163;9003274000;8795344444;9295344444
183;9112433000;8878666666;9378666666
208;9249173000;8962022222;9462022222
238;9249194000;9086977777;9586977777
239;9249196000;9086977777;9586977777
240;9249198000;9086977777;9586977777
241;9351930000;9087022222;9587022222
272;9351942000;9211977777;9711977777
273;9351953000;9211977777;9711977777
274;9488965000;9212022222;9712022222
306;9488986000;9337011111;9837011111
307;9602142000;9337055555;9837055555
338;9602163000;9461977777;9961977777
339;9602164000;9461977777;9961977777
340;9625604000;9462022222;9962022222
342;9625626000;9462311111;9962311111
343;9625628000;9462311111;9962311111
344;9651082000;9503644444;10003644444
351;9651291000;9503688888;10003688888
352;9651307000;9503988888;10003988888
353;9651308000;9503988888;10003988888
354;9651310000;9503988888;10003988888
355;9679005000;9545355555;10045355555
362;9679219000;9545400000;10045400000
363;9679235000;9545722222;10045722222
364;9679236000;9545722222;10045722222
365;9679237000;9545722222;10045722222
366;9706429000;9586977777;10086977777
367;9706433000;9586977777;10086977777
368;9706434000;9586977777;10086977777
369;9706435000;9586977777;10086977777
370;9706436000;9586977777;10086977777
371;9706437000;9586977777;10086977777
373;9706637000;9587022222;10087022222
374;9706652000;9587277777;10087277777
377;9802583000;9628644444;10128644444
395;9844662000;9670355555;10170355555
407;9844685000;9712300000;10212300000
408;9844687000;9712300000;10212300000
409;9844688000;9712300000;10212300000
410;9921299000;9753677777;10253677777
426;10088249000;9795311111;10295311111
471;10206164000;9962000000;10462000000
494;10254466000;10045377777;10545377777
514;10254481000;10128644444;10628644444
515;10254482000;10128644444;10628644444
516;10302023000;10128688888;10628688888
528;10302039000;10170677777;10670677777
529;10302040000;10170677777;10670677777
530;10302041000;10170677777;10670677777
531;10505919000;10212011111;10712011111
580;10625412000;10378644444;10878644444
603;10673441000;10461988888;10961988888
626;10713013000;10545388888;11045388888
635;10713019000;10586977777;11086977777
636;10713021000;10586977777;11086977777
637;10734616000;10587022222;11087022222
640;10734632000;10587288888;11087288888
641;10774093000;10628644444;11128644444
649;10841549000;10628988888;11128988888
667;10922884000;10712011111;11212011111
692;11000313000;10795355555;11295355555
703;11129656000;10837022222;11337022222
746;11129669000;11003644444;11503644444
747;11248441000;11003688888;11503688888
770;11248456000;11087300000;11587300000
771;11248457000;11087300000;11587300000
772;11248458000;11087300000;11587300000
773;11317238000;11128677777;11628677777
791;11337867000;11170355555;11670355555
800;11337883000;11211977777;11711977777
801;11337884000;11211977777;11711977777
802;11424372000;11212022222;11712022222
824;11516265000;11295366666;11795366666
846;11577381000;11378688888;11878688888
856;11577403000;11420311111;11920311111
857;11610784000;11420355555;11920355555
866;11610799000;11461977777;11961977777
867;11610800000;11461977777;11961977777
868;11644279000;11462022222;11962022222
879;11675022000;11503688888;12003688888
892;11675028000;11545677777;12045677777
893;11675029000;11545677777;12045677777
894;11735525000;11586977777;12086977777
901;11735727000;11587022222;12087022222
902;11735743000;11587288888;12087288888
903;11735744000;11587288888;12087288888
904;11735745000;11587288888;12087288888
905;11766376000;11628644444;12128644444
911;11766379000;11628644444;12128644444
912;11766579000;11628688888;12128688888
913;11766594000;11629000000;12129000000
914;11766595000;11629000000;12129000000
915;11766596000;11629000000;12129000000
916;11882484000;11670311111;12170311111
942;11961145000;11753644444;12253644444
968;12026758000;11837355555;12337355555
977;12065626000;11878677777;12378677777
987;12099402000;11920311111;12420311111
1001;12122918000;11962311111;12462311111
1002;12122921000;11962311111;12462311111
1003;12122936000;11962311111;12462311111
1004;12160985000;12003644444;12503644444
1013;12230902000;12004022222;12504022222
1031;12297305000;12086977777;12586977777
1051;12476742000;12170311111;12670311111
1098;12588055000;12336977777;12836977777
1132;12747979000;12462033333;12962033333
1165;12919184000;12587055555;13087055555
1207;12919191000;12753644444;13253644444
1208;12919195000;12753644444;13253644444
1209;13053946000;12753688888;13253688888
1251;13053986000;12920311111;13420311111
1252;13053987000;12920311111;13420311111
1253;13089816000;12920355555;13420355555
1261;13089834000;12961977777;13461977777
1262;13089835000;12961977777;13461977777
1268;13214307000;13003644444;13503644444
1297;13289464000;13087055555;13587055555
1308;13325014000;13128688888;13628688888
1318;13325020000;13170311111;13670311111
1319;13501797000;13170355555;13670355555
1360;13501818000;13336977777;13836977777
1361;13501820000;13336977777;13836977777
1362;13501821000;13336977777;13836977777
1363;13614473000;13337022222;13837022222
1395;13614488000;13462011111;13962011111
1396;13650281000;13462055555;13962055555
1408;13650297000;13504000000;14004000000
1409;13650298000;13504000000;14004000000
1410;13650299000;13504000000;14004000000
1411;13758005000;13545311111;14045311111
1438;13921126000;13628644444;14128644444
1481;14042581000;13795344444;14295344444
1505;14090225000;13878666666;14378666666
1524;14132410000;13961977777;14461977777
1533;14157085000;14003677777;14503677777
1534;14157097000;14003677777;14503677777
1535;14157098000;14003677777;14503677777
1536;14157099000;14003677777;14503677777
1537;14157100000;14003677777;14503677777
1538;14157101000;14003677777;14503677777
1539;14157302000;14003722222;14503722222
1540;14157317000;14004044444;14504044444
1543;14256843000;14045311111;14545311111
1572;14333431000;14128688888;14628688888
1582;14333448000;14170311111;14670311111
1583;14369814000;14170355555;14670355555
1594;14406247000;14212022222;14712022222
1604;14406253000;14253644444;14753644444
1608;14440307000;14254011111;14754011111
1614;14476434000;14295311111;14795311111
1626;14507448000;14336977777;14836977777
1641;14635592000;14379000000;14879000000
1671;14736649000;14503688888;15003688888
1692;14736666000;14586977777;15086977777
1693;14797326000;14587022222;15087022222
1711;14797341000;14670311111;15170311111
1712;14797343000;14670311111;15170311111
1713;14797343000;14670311111;15170311111
1714;14797344000;14670311111;15170311111
1715;14855354000;14670355555;15170355555
1727;14855369000;14712311111;15212311111
1728;14855370000;14712311111;15212311111
1729;14855371000;14712311111;15212311111
1730;14906543000;14753644444;15253644444
1740;14963062000;14754011111;15254011111
1758;15047243000;14837011111;15337011111
1782;15123227000;14920677777;15420677777
1789;15159362000;14961977777;15461977777
1799;15194227000;15003644444;15503644444
1814;15226609000;15045355555;15545355555
1827;15249412000;15087344444;15587344444
1828;15249414000;15087344444;15587344444
1829;15291305000;15128655555;15628655555
1835;15291308000;15128655555;15628655555
1836;15291509000;15128700000;15628700000
1837;15291524000;15129011111;15629011111
1838;15291525000;15129011111;15629011111
1839;15291526000;15129011111;15629011111
1840;15382414000;15170311111;15670311111
1867;15461432000;15253677777;15753677777
1891;15535990000;15337033333;15837033333
1900;15536008000;15378644444;15878644444
1901;15536010000;15378644444;15878644444
1902;15570534000;15378688888;15878688888
1913;15601218000;15420355555;15920355555
1927;15601224000;15462311111;15962311111
1928;15668574000;15503644444;16003644444
1936;15668660000;15503988888;16003988888
1937;15668663000;15503988888;16003988888
1938;15668665000;15503988888;16003988888
1939;15698944000;15545344444;16045344444
1944;15698948000;15545344444;16045344444
1945;15698949000;15545344444;16045344444
1946;15699157000;15545400000;16045400000
1947;15699172000;15545700000;16045700000
1948;15699174000;15545700000;16045700000
1949;15699175000;15545700000;16045700000
1950;15799136000;15586977777;16086977777
1977;15962927000;15670311111;16170311111
2021;16085184000;15836977777;16336977777
2045;16125768000;15920355555;16420355555
2056;16146540000;15962022222;16462022222
2068;16162230000;16003988888;16503988888
2070;16162243000;16003988888;16503988888
2071;16197930000;16045311111;16545311111
2078;16198141000;16045355555;16545355555
2079;16198156000;16045666666;16545666666
2080;16198157000;16045666666;16545666666
2081;16198158000;16045666666;16545666666
2082;16339794000;16086977777;16586977777
2120;16446638000;16211977777;16711977777
2144;16504676000;16295355555;16795355555
2165;16504691000;16378644444;16878644444
2166;16555364000;16378688888;16878688888
2177;16581518000;16420355555;16920355555
2178;16581524000;16420700000;16920700000
2179;16581525000;16420700000;16920700000
2180;16581526000;16420700000;16920700000
2181;16610142000;16461988888;16961988888
2188;16610522000;16462022222;16962022222
2189;16610538000;16462344444;16962344444
2190;16610539000;16462344444;16962344444
2191;16610540000;16462344444;16962344444
2192;16641170000;16503644444;17003644444
2199;16659520000;16503688888;17003688888
2200;16659536000;16504011111;17004011111
2201;16659538000;16504011111;17004011111
2202;16659539000;16504011111;17004011111
2203;16755644000;16545311111;17045311111
2230;16825780000;16628711111;17128711111
2245;16874458000;16670688888;17170688888
2252;16912296000;16711977777;17211977777
2263;16944452000;16753644444;17253644444
2276;17088457000;16795355555;17295355555
2317;17088479000;16961977777;17461977777
2318;17088481000;16961977777;17461977777
2319;17088482000;16961977777;17461977777
2322;17263527000;16962333333;17462333333
2361;17421892000;17128644444;17628644444
2406;17547651000;17295311111;17795311111
2440;17615001000;17420311111;17920311111
2451;17634382000;17461977777;17961977777
2461;17655561000;17503644444;18003644444
2462;17655564000;17503644444;18003644444
2463;17655764000;17503688888;18003688888
2464;17655780000;17504011111;18004011111
2467;17754804000;17545344444;18045344444
2498;17865851000;17629000000;18129000000
2514;18004617000;17711977777;18211977777
2560;18123195000;17878677777;18378677777
2584;18167004000;17962044444;18462044444
2594;18167019000;18003666666;18503666666
2595;18188678000;18003711111;18503711111
2606;18213216000;18045388888;18545388888
2617;18242755000;18087022222;18587022222
2618;18242773000;18087311111;18587311111
2619;18242775000;18087311111;18587311111
2620;18242776000;18087311111;18587311111
2621;18265450000;18128644444;18628644444
2629;18265582000;18129000000;18629000000
2630;18265586000;18129000000;18629000000
2631;18265587000;18129000000;18629000000
2632;18291817000;18170311111;18670311111
2633;18291827000;18170311111;18670311111
2634;18291829000;18170311111;18670311111
2635;18291831000;18170311111;18670311111
2636;18291832000;18170311111;18670311111
2637;18291834000;18170311111;18670311111
2638;18291835000;18170311111;18670311111
2639;18292066000;18170355555;18670355555
2640;18292073000;18170666666;18670666666
2641;18292074000;18170666666;18670666666
2642;18292076000;18170666666;18670666666
2643;18324148000;18211977777;18711977777
2644;18324152000;18211977777;18711977777
2645;18324153000;18211977777;18711977777
2646;18324155000;18211977777;18711977777
2647;18324156000;18211977777;18711977777
2648;18324157000;18211977777;18711977777
2649;18324158000;18211977777;18711977777
2650;18324358000;18212022222;18712022222
2651;18324373000;18212300000;18712300000
2652;18324374000;18212300000;18712300000
2653;18324376000;18212300000;18712300000
2654;18358573000;18253644444;18753644444
2655;18358575000;18253644444;18753644444
2656;18358576000;18253644444;18753644444
2657;18358577000;18253644444;18753644444
2661;18358824000;18253688888;18753688888
2662;18358826000;18253988888;18753988888
2663;18358827000;18253988888;18753988888
2664;18358828000;18253988888;18753988888
2668;18395152000;18295344444;18795344444
2669;18395155000;18295344444;18795344444
2670;18395156000;18295344444;18795344444
2671;18395157000;18295344444;18795344444
2672;18395264000;18295388888;18795388888
2673;18395279000;18295688888;18795688888
2674;18395281000;18295688888;18795688888
2675;18395290000;18295688888;18795688888
2676;18433179000;18337011111;18837011111
2677;18433182000;18337011111;18837011111
2679;18433183000;18337011111;18837011111
2680;18433184000;18337011111;18837011111
2682;18433185000;18337011111;18837011111
2683;18433385000;18337055555;18837055555
2687;18460860000;18378644444;18878644444
2688;18460862000;18378644444;18878644444
2689;18499679000;18378644444;18878644444
2690;18499681000;18378644444;18878644444
2691;18499682000;18378644444;18878644444
2692;18499683000;18378644444;18878644444
2693;18499684000;18378644444;18878644444
2694;18591473000;18378688888;18878688888
2716;18669273000;18462033333;18962033333
2734;18669279000;18545311111;19045311111
2735;18669280000;18545311111;19045311111
2736;18669281000;18545311111;19045311111
2737;18669282000;18545311111;19045311111
2738;18742471000;18545355555;19045355555
2750;18742487000;18587277777;19087277777
2751;18742488000;18587277777;19087277777
2752;18742489000;18587277777;19087277777
2753;18809910000;18628666666;19128666666
2770;18840752000;18670311111;19170311111
2781;18870915000;18711977777;19211977777
2782;18871124000;18712022222;19212022222
2783;18871139000;18712300000;19212300000
2784;18871140000;18712300000;19212300000
2785;18871141000;18712300000;19212300000
2786;18966125000;18753644444;19253644444
2815;19066368000;18837022222;19337022222
2837;19117114000;18920355555;19420355555
2849;19124557000;18962333333;19462333333
2850;19124560000;18962333333;19462333333
2851;19124561000;18962333333;19462333333
2852;19183436000;19003644444;19503644444
2869;19215863000;19045311111;19545311111
2881;19248958000;19087022222;19587022222
2882;19248973000;19087288888;19587288888
2883;19248974000;19087288888;19587288888
2884;19249498000;19087288888;19587288888
2885;19280094000;19128644444;19628644444
2893;19341683000;19129000000;19629000000
2913;19422487000;19212000000;19712000000
2934;19499186000;19295311111;19795311111
2946;19534262000;19336977777;19836977777
2956;19569159000;19378644444;19878644444
2967;19603223000;19420311111;19920311111
2978;19635620000;19461977777;19961977777
2988;19662929000;19503644444;20003644444
2989;19662932000;19503644444;20003644444
2990;19662933000;19503644444;20003644444
2991;19663140000;19503688888;20003688888
2992;19663155000;19503977777;20003977777
2993;19663156000;19503977777;20003977777
2994;19663157000;19503977777;20003977777
2995;19692153000;19545311111;20045311111
3005;19692219000;19545655555;20045655555
3006;19799925000;19586977777;20086977777
3033;19882289000;19670311111;20170311111
3055;20046435000;19753677777;20253677777
3101;20164097000;19920355555;20420355555
3119;20164103000;20003644444;20503644444
3120;20164105000;20003644444;20503644444
3121;20164105000;20003644444;20503644444
3122;20164107000;20003644444;20503644444
3123;20205778000;20003700000;20503700000
3130;20205785000;20045311111;20545311111
3131;20205786000;20045311111;20545311111
3135;20340299000;20045666666;20545666666
3175;20472034000;20211977777;20711977777
3207;20540815000;20336977777;20836977777
3223;20552842000;20379011111;20879011111
3235;20572394000;20420700000;20920700000
3236;20582915000;20420700000;20920700000
3237;20608569000;20461977777;20961977777
3244;20608694000;20462022222;20962022222
3245;20608699000;20462311111;20962311111
3246;20608701000;20462311111;20962311111
3247;20608702000;20462311111;20962311111
3248;20648273000;20503644444;21003644444
3254;20648281000;20503644444;21003644444
3255;20667881000;20503688888;21003688888
3259;20669156000;20545311111;21045311111
3260;20669159000;20545311111;21045311111
3261;20669160000;20545311111;21045311111
3262;20669162000;20545311111;21045311111
3263;20669163000;20545311111;21045311111
3264;20669174000;20545311111;21045311111
3265;20669176000;20545311111;21045311111
3266;20838027000;20545355555;21045355555
3308;20838035000;20711977777;21211977777
3309;20838036000;20711977777;21211977777
3310;20954769000;20712022222;21212022222
3332;21008470000;20795355555;21295355555
3351;21008475000;20878644444;21378644444
3352;21008477000;20878644444;21378644444
3353;21008477000;20878644444;21378644444
3354;21131742000;20878688888;21378688888
3386;21131748000;21003644444;21503644444
3387;21240669000;21003688888;21503688888
3407;21240676000;21086977777;21586977777
3408;21240677000;21086977777;21586977777
3411;21299034000;21087288888;21587288888
3431;21472237000;21170355555;21670355555
3473;21472245000;21336977777;21836977777
3474;21472247000;21336977777;21836977777
3475;21586145000;21337022222;21837022222
3508;21649698000;21462022222;21962022222
3517;21649704000;21503644444;22003644444
3518;21649706000;21503644444;22003644444
3519;21670606000;21503688888;22003688888
3529;21670613000;21545311111;22045311111
3530;21696118000;21545355555;22045355555
3531;21696124000;21545666666;22045666666
3532;21696125000;21545666666;22045666666
3533;21696126000;21545666666;22045666666
3534;21799005000;21586977777;22086977777
3561;21877641000;21670344444;22170344444
3582;21949566000;21753644444;22253644444
3599;21980967000;21795711111;22295711111
3608;22012033000;21837322222;22337322222
3617;22050026000;21878644444;22378644444
3628;22081963000;21920311111;22420311111
3629;22082039000;21920355555;22420355555
3630;22082057000;21920666666;22420666666
3635;22174416000;21961977777;22461977777
3661;22327848000;22045333333;22545333333
3693;22417907000;22170311111;22670311111
3719;22466452000;22254022222;22754022222
3739;22505953000;22337055555;22837055555
3749;22505959000;22378644444;22878644444
3750;22590354000;22378688888;22878688888
3770;22590361000;22461977777;22961977777
3771;22590362000;22461977777;22961977777
3772;22675285000;22462022222;22962022222
3793;22675293000;22545311111;23045311111
3794;22742456000;22545355555;23045355555
3804;22742464000;22586977777;23086977777
3805;22774701000;22587022222;23087022222
3816;22806653000;22628711111;23128711111
3826;22806659000;22670311111;23170311111
3827;22839600000;22670355555;23170355555
3838;22869810000;22712055555;23212055555
3839;22869816000;22712322222;23212322222
3840;22869817000;22712322222;23212322222
3841;22869818000;22712322222;23212322222
3842;22899301000;22753644444;23253644444
3849;22899397000;22753688888;23253688888
3850;22899403000;22754000000;23254000000
3851;22899404000;22754000000;23254000000
3852;22899405000;22754000000;23254000000
3853;22931286000;22795311111;23295311111
3860;22931411000;22795355555;23295355555
3861;22931417000;22795677777;23295677777
3863;22931418000;22795677777;23295677777
3864;22961140000;22836977777;23336977777
3871;22961236000;22837022222;23337022222
3874;22961242000;22837311111;23337311111
3875;22994837000;22878644444;23378644444
3877;22994840000;22878644444;23378644444
3878;22994841000;22878644444;23378644444
3879;22994842000;22878644444;23378644444
3880;22994843000;22878644444;23378644444
3881;22994844000;22878644444;23378644444
3882;22994970000;22878688888;23378688888
3883;22994974000;22878977777;23378977777
3884;22994975000;22878977777;23378977777
3885;22994976000;22878977777;23378977777
3886;23132031000;22920344444;23420344444
3916;23208319000;23003988888;23503988888
3927;23244573000;23045666666;23545666666
3937;23283834000;23087022222;23587022222
3948;23316712000;23128688888;23628688888
3957;23316717000;23170311111;23670311111
3958;23316719000;23170311111;23670311111
3959;23348763000;23170355555;23670355555
3970;23381408000;23212022222;23712022222
3981;23413566000;23253688888;23753688888
3982;23413579000;23253988888;23753988888
3983;23413581000;23253988888;23753988888
3984;23413582000;23253988888;23753988888
3985;23445016000;23295322222;23795322222
3992;23445145000;23295366666;23795366666
3993;23445150000;23295666666;23795666666
3994;23445152000;23295666666;23795666666
3995;23445152000;23295666666;23795666666
3996;23546798000;23336977777;23836977777
4022;23628185000;23420311111;23920311111
4046;23703142000;23503644444;24003644444
4057;23737878000;23545311111;24045311111
4069;23769207000;23587022222;24087022222
4083;23791225000;23628977777;24128977777
4084;23853780000;23670344444;24170344444
4098;23875525000;23711988888;24211988888
4100;23875532000;23711988888;24211988888
4101;23875534000;23711988888;24211988888
4102;23875656000;23712022222;24212022222
4103;23875679000;23712311111;24212311111
4104;23875680000;23712311111;24212311111
4105;23875682000;23712311111;24212311111
4106;23965779000;23753644444;24253644444
4135;24044733000;23837055555;24337055555
4155;24044740000;23920311111;24420311111
4156;24044741000;23920311111;24420311111
4157;24117553000;23920355555;24420355555
4168;24152217000;23962022222;24462022222
4180;24166188000;24004000000;24504000000
4181;24166190000;24004000000;24504000000
4182;24166191000;24004000000;24504000000
4183;24218113000;24045311111;24545311111
4198;24255365000;24086977777;24586977777
4205;24340948000;24128644444;24628644444
4233;24419673000;24211977777;24711977777
4253;24491256000;24295311111;24795311111
4268;24631765000;24337300000;24837300000
4305;24763282000;24503644444;25003644444
4343;24838869000;24628666666;25128666666
4363;25004391000;24711977777;25211977777
4408;25121990000;24878677777;25378677777
4433;25155759000;24962311111;25462311111
4441;25190641000;25003644444;25503644444
4453;25211250000;25045311111;25545311111
4466;25295326000;25087333333;25587333333
4487;25375458000;25170355555;25670355555
4496;25375464000;25211977777;25711977777
4497;25375465000;25211977777;25711977777
4498;25412810000;25212022222;25712022222
4511;25412816000;25253977777;25753977777
4512;25412817000;25253977777;25753977777
4513;25483990000;25295344444;25795344444
4529;25517644000;25336977777;25836977777
4543;25540767000;25378977777;25878977777
4544;25540770000;25378977777;25878977777
4545;25540772000;25378977777;25878977777
4546;25578401000;25420311111;25920311111
4552;25578405000;25420311111;25920311111
4553;25578528000;25420355555;25920355555
4554;25578533000;25420655555;25920655555
4555;25578534000;25420655555;25920655555
4556;25578535000;25420655555;25920655555
4557;25607561000;25461977777;25961977777
4565;25674691000;25462300000;25962300000
4586;25755861000;25545355555;26045355555
4605;25755868000;25628677777;26128677777
4606;25755869000;25628677777;26128677777
4607;25755870000;25628677777;26128677777
4608;25832992000;25628722222;26128722222
4620;25835812000;25670677777;26170677777
4622;25835817000;25670677777;26170677777
4623;25902328000;25711977777;26211977777
4642;26077204000;25754011111;26254011111
4680;26182879000;25920333333;26420333333
4716;26234183000;26045311111;26545311111
4725;26257304000;26086988888;26586988888
4735;26279011000;26128644444;26628644444
4736;26279021000;26128644444;26628644444
4737;26279023000;26128644444;26628644444
4738;26279025000;26128644444;26628644444
4739;26279026000;26128644444;26628644444
4741;26279113000;26128988888;26628988888
4742;26291411000;26128988888;26628988888
4744;26383147000;26170344444;26670344444
4773;26465841000;26253688888;26753688888
4793;26465847000;26336977777;26836977777
4794;26465848000;26336977777;26836977777
4795;26544377000;26337022222;26837022222
4815;26544383000;26420311111;26920311111
4816;26544385000;26420311111;26920311111
4817;26616675000;26420355555;26920355555
4828;26658100000;26462022222;26962022222
4837;26658123000;26503644444;27003644444
4838;26658126000;26503644444;27003644444
4839;26683198000;26503688888;27003688888
4849;26683209000;26545311111;27045311111
4850;26798252000;26545355555;27045355555
4883;26903941000;26670388888;27170388888
4901;26903947000;26753644444;27253644444
4902;26903948000;26753644444;27253644444
4903;26903949000;26753644444;27253644444
4904;26903950000;26753644444;27253644444
4905;26961913000;26753688888;27253688888
4929;26961919000;26837355555;27337355555
4930;26961921000;26837355555;27337355555
4931;27043218000;26878644444;27378644444
4939;27109081000;26879000000;27379000000
4957;27173932000;26961977777;27461977777
4976;27248923000;27045311111;27545311111
4990;27379453000;27086988888;27586988888
5033;27501204000;27253666666;27753666666
5058;27544352000;27336977777;27836977777
5081;27586143000;27420355555;27920355555
5092;27611705000;27462022222;27962022222
5093;27611711000;27462311111;27962311111
5094;27611712000;27462311111;27962311111
5095;27611713000;27462311111;27962311111
5096;27796374000;27503644444;28003644444
5149;27911924000;27670677777;28170677777
5169;27970987000;27753688888;28253688888
5189;27970994000;27836977777;28336977777
5190;27970995000;27836977777;28336977777
5191;28122167000;27837022222;28337022222
5222;28122174000;27961977777;28461977777
5223;28122175000;27961977777;28461977777
5226;28198561000;27962311111;28462311111
5245;28260546000;28045311111;28545311111
5269;28293122000;28129000000;28629000000
5270;28293125000;28129000000;28629000000
5271;28293126000;28129000000;28629000000
5272;28319081000;28170311111;28670311111
5280;28319147000;28170677777;28670677777
5281;28319159000;28170677777;28670677777
5282;28319160000;28170677777;28670677777
5283;28346704000;28211977777;28711977777
5291;28424975000;28212311111;28712311111
5309;28505693000;28295311111;28795311111
5333;28583653000;28378666666;28878666666
5346;28612021000;28420677777;28920677777
5354;28662296000;28461977777;28961977777
5366;28684410000;28503655555;29003655555
5379;28715002000;28545666666;29045666666
5387;28746929000;28587011111;29087011111
5388;28746932000;28587011111;29087011111
5389;28747077000;28587055555;29087055555
5390;28747082000;28587322222;29087322222
5391;28747084000;28587322222;29087322222
5392;28749506000;28587322222;29087322222
5393;28921176000;28628666666;29128666666
5440;29063452000;28795344444;29295344444
5477;29106273000;28920388888;29420388888
5478;29106285000;28920700000;29420700000
5479;29106286000;28920700000;29420700000
5480;29106287000;28920700000;29420700000
5481;29119800000;28961977777;29461977777
5482;29119804000;28961977777;29461977777
5483;29119805000;28961977777;29461977777
5484;29119806000;28961977777;29461977777
5485;29119808000;28961977777;29461977777
5486;29119809000;28961977777;29461977777
5487;29119810000;28961977777;29461977777
5488;29119934000;28962022222;29462022222
5489;29119939000;28962311111;29462311111
5490;29119941000;28962311111;29462311111
5491;29119942000;28962311111;29462311111
5492;29147233000;29003644444;29503644444
5493;29147237000;29003644444;29503644444
5494;29147238000;29003644444;29503644444
5495;29147240000;29003644444;29503644444
5496;29147241000;29003644444;29503644444
5497;29147242000;29003644444;29503644444
5498;29147243000;29003644444;29503644444
5499;29147346000;29003688888;29503688888
