seqnum;now;rtptime;deadline
0;12851774000;12411300000;12911300000
1;12851779000;12411300000;12911300000
2;12851780000;12411300000;12911300000
3;12882795000;12442588888;12942588888
4;12961645000;12442588888;12942588888
5;12961649000;12442588888;12942588888
6;12961717000;12442588888;12942588888
7;12961735000;12442588888;12942588888
8;12961740000;12442588888;12942588888
9;12961742000;12442588888;12942588888
10;13172351000;12442611111;12942611111
11;13172358000;12442933333;12942933333
12;13172359000;12442933333;12942933333
13;13172360000;12442933333;12942933333
14;13213801000;12484244444;12984244444
15;13213805000;12484244444;12984244444
16;13213807000;12484244444;12984244444
17;13213808000;12484244444;12984244444
18;13282170000;12484244444;12984244444
19;13282185000;12484244444;12984244444
20;13282196000;12484244444;12984244444
21;13332566000;12484266666;12984266666
22;13332573000;12484655555;12984655555
23;13332574000;12484655555;12984655555
24;13332575000;12484655555;12984655555
25;13374093000;12525911111;13025911111
26;13442425000;12525911111;13025911111
27;13442434000;12525911111;13025911111
28;13442445000;12525911111;13025911111
29;13442454000;12525911111;13025911111
30;13442473000;12525911111;13025911111
31;13442479000;12525911111;13025911111
32;13492829000;12525933333;13025933333
33;13492835000;12526277777;13026277777
34;13492837000;12526277777;13026277777
35;13492838000;12526277777;13026277777
36;13534351000;12567577777;13067577777
37;13602722000;12567577777;13067577777
38;13602730000;12567577777;13067577777
39;13602741000;12567577777;13067577777
40;13602750000;12567577777;13067577777
41;13602759000;12567577777;13067577777
42;13602767000;12567577777;13067577777
43;13653128000;12567600000;13067600000
44;13653135000;12567944444;13067944444
45;13653136000;12567944444;13067944444
46;13653137000;12567944444;13067944444
47;13694638000;12609244444;13109244444
48;13694642000;12609244444;13109244444
49;13694643000;12609244444;13109244444
50;13694644000;12609244444;13109244444
51;13694645000;12609244444;13109244444
52;13763008000;12609244444;13109244444
53;13763017000;12609244444;13109244444
54;13813374000;12609266666;13109266666
58;13855135000;12650911111;13150911111
59;13855138000;12650911111;13150911111
60;13855139000;12650911111;13150911111
61;13855140000;12650911111;13150911111
62;13855141000;12650911111;13150911111
63;13855142000;12650911111;13150911111
64;13855143000;12650911111;13150911111
65;13855283000;12650933333;13150933333
66;13855289000;12651244444;13151244444
67;13855291000;12651244444;13151244444
68;13855292000;12651244444;13151244444
69;13896403000;12692577777;13192577777
70;13896407000;12692577777;13192577777
71;13896408000;12692577777;13192577777
72;13896409000;12692577777;13192577777
73;13923305000;12692577777;13192577777
74;13923314000;12692577777;13192577777
75;13923324000;12692577777;13192577777
76;13973700000;12692600000;13192600000
81;13973706000;12734244444;13234244444
82;13973708000;12734244444;13234244444
83;13973709000;12734244444;13234244444
84;13973710000;12734244444;13234244444
85;13973711000;12734244444;13234244444
86;13973721000;12734244444;13234244444
87;14015269000;12734266666;13234266666
88;14015275000;12734577777;13234577777
89;14015277000;12734577777;13234577777
90;14015278000;12734577777;13234577777
91;14056721000;12775911111;13275911111
92;14056725000;12775911111;13275911111
93;14056726000;12775911111;13275911111
94;14056727000;12775911111;13275911111
95;14056728000;12775911111;13275911111
96;14056729000;12775911111;13275911111
97;14056730000;12775911111;13275911111
98;14056845000;12775933333;13275933333
100;14057246000;12776255555;13276255555
101;14057248000;12776255555;13276255555
102;14097596000;12817577777;13317577777
107;14097600000;12817577777;13317577777
132;14244296000;12901233333;13401233333
141;14244316000;12942577777;13442577777
144;14244324000;12942866666;13442866666
145;14244327000;12942866666;13442866666
146;14253908000;12984233333;13484233333
152;14253916000;12984233333;13484233333
196;14452877000;13150900000;13650900000
271;14569181000;13442555555;13942555555
345;14660956000;13734244444;14234244444
346;14660974000;13734244444;14234244444
347;14660975000;13734244444;14234244444
348;14660976000;13734244444;14234244444
349;14660977000;13734244444;14234244444
350;14660978000;13734244444;14234244444
351;14661083000;13734266666;14234266666
352;14661089000;13734566666;14234566666
356;14670554000;13775900000;14275900000
357;14670558000;13775900000;14275900000
358;14670559000;13775900000;14275900000
359;14670560000;13775900000;14275900000
360;14670561000;13775900000;14275900000
361;14670562000;13775900000;14275900000
362;14670659000;13775922222;14275922222
363;14670675000;13776222222;14276222222
364;14670676000;13776222222;14276222222
365;14670677000;13776222222;14276222222
366;14672851000;13817566666;14317566666
367;14672854000;13817566666;14317566666
368;14672855000;13817566666;14317566666
369;14672856000;13817566666;14317566666
370;14672857000;13817566666;14317566666
371;14672858000;13817566666;14317566666
372;14672859000;13817566666;14317566666
373;14673063000;13817588888;14317588888
374;14724862000;13817877777;14317877777
375;14724865000;13817877777;14317877777
376;14724866000;13817877777;14317877777
377;14816735000;13859244444;14359244444
431;14976808000;14026200000;14526200000
551;15252280000;14484744444;14984744444
617;15294979000;14734577777;15234577777
625;15366917000;14775900000;15275900000
626;15367040000;14775911111;15275911111
627;15367065000;14776200000;15276200000
628;15367067000;14776200000;15276200000
629;15367068000;14776200000;15276200000
630;15367091000;14817588888;15317588888
631;15367093000;14817588888;15317588888
632;15367095000;14817588888;15317588888
633;15367096000;14817588888;15317588888
634;15367098000;14817588888;15317588888
635;15367100000;14817588888;15317588888
636;15367102000;14817588888;15317588888
637;15367248000;14817600000;15317600000
638;15367254000;14817888888;15317888888
639;15367256000;14817888888;15317888888
640;15367257000;14817888888;15317888888
641;15367269000;14859244444;15359244444
642;15367272000;14859244444;15359244444
643;15367273000;14859244444;15359244444
644;15367284000;14859244444;15359244444
645;15367286000;14859244444;15359244444
646;15367288000;14859244444;15359244444
647;15367290000;14859244444;15359244444
648;15542417000;14859266666;15359266666
652;15542434000;14900900000;15400900000
653;15542436000;14900900000;15400900000
654;15542437000;14900900000;15400900000
655;15542439000;14900900000;15400900000
656;15542440000;14900900000;15400900000
657;15542442000;14900900000;15400900000
658;15542443000;14900900000;15400900000
659;15578953000;14900922222;15400922222
660;15578968000;14901222222;15401222222
661;15578970000;14901222222;15401222222
662;15578971000;14901222222;15401222222
663;15612868000;14942566666;15442566666
664;15612871000;14942566666;15442566666
665;15612872000;14942566666;15442566666
666;15612873000;14942566666;15442566666
667;15612875000;14942566666;15442566666
668;15612876000;14942566666;15442566666
669;15612877000;14942566666;15442566666
670;15613091000;14942577777;15442577777
671;15688241000;14942844444;15442844444
672;15691832000;14942844444;15442844444
673;15691943000;14942844444;15442844444
675;15779734000;14984255555;15484255555
676;15779738000;14984255555;15484255555
677;15779739000;14984255555;15484255555
678;15779740000;14984255555;15484255555
679;15779741000;14984255555;15484255555
680;15779742000;14984255555;15484255555
681;15779850000;14984266666;15484266666
682;15779865000;14984577777;15484577777
683;15779866000;14984577777;15484577777
684;15779867000;14984577777;15484577777
685;15820906000;15025911111;15525911111
686;15848824000;15025911111;15525911111
687;15849023000;15025911111;15525911111
688;15849297000;15025911111;15525911111
689;15849299000;15025911111;15525911111
690;15849465000;15025911111;15525911111
691;15849477000;15025911111;15525911111
692;15940714000;15025933333;15525933333
693;15940729000;15026233333;15526233333
696;15982380000;15067566666;15567566666
697;15982384000;15067566666;15567566666
698;15982385000;15067566666;15567566666
699;15982386000;15067566666;15567566666
700;15982387000;15067566666;15567566666
701;15982397000;15067566666;15567566666
702;16009282000;15067566666;15567566666
703;16101090000;15067588888;15567588888
704;16101106000;15067900000;15567900000
705;16101107000;15067900000;15567900000
706;16101108000;15067900000;15567900000
707;16142217000;15109233333;15609233333
708;16142221000;15109233333;15609233333
709;16142222000;15109233333;15609233333
710;16142223000;15109233333;15609233333
711;16142224000;15109233333;15609233333
712;16142225000;15109233333;15609233333
713;16142226000;15109233333;15609233333
714;16142443000;15109255555;15609255555
715;16142458000;15109555555;15609555555
716;16142460000;15109555555;15609555555
717;16142461000;15109555555;15609555555
718;16182543000;15150922222;15650922222
719;16182546000;15150922222;15650922222
720;16182547000;15150922222;15650922222
721;16182548000;15150922222;15650922222
722;16182549000;15150922222;15650922222
723;16182550000;15150922222;15650922222
724;16182551000;15150922222;15650922222
725;16261681000;15150933333;15650933333
726;16261696000;15151222222;15651222222
727;16261697000;15151222222;15651222222
728;16261698000;15151222222;15651222222
729;16302825000;15192577777;15692577777
730;16302829000;15192577777;15692577777
731;16302830000;15192577777;15692577777
732;16302831000;15192577777;15692577777
733;16302832000;15192577777;15692577777
734;16302833000;15192577777;15692577777
735;16302834000;15192577777;15692577777
736;16422037000;15192600000;15692600000
740;16422062000;15234222222;15734222222
741;16422063000;15234222222;15734222222
742;16422064000;15234222222;15734222222
743;16422065000;15234222222;15734222222
744;16422066000;15234222222;15734222222
745;16422067000;15234222222;15734222222
746;16422068000;15234222222;15734222222
747;16462904000;15234244444;15734244444
748;16462919000;15234566666;15734566666
749;16462920000;15234566666;15734566666
750;16462921000;15234566666;15734566666
751;16503753000;15275900000;15775900000
762;16624258000;15317577777;15817577777
763;16624261000;15317577777;15817577777
764;16624262000;15317577777;15817577777
765;16624263000;15317577777;15817577777
766;16624264000;15317577777;15817577777
767;16624265000;15317577777;15817577777
768;16624266000;15317577777;15817577777
769;16624466000;15317600000;15817600000
770;16624480000;15317888888;15817888888
771;16624482000;15317888888;15817888888
772;16624483000;15317888888;15817888888
773;16664467000;15359244444;15859244444
784;16785114000;15400911111;15900911111
785;16785117000;15400911111;15900911111
786;16785118000;15400911111;15900911111
787;16785119000;15400911111;15900911111
788;16785120000;15400911111;15900911111
789;16785121000;15400911111;15900911111
790;16785122000;15400911111;15900911111
791;16785331000;15400933333;15900933333
792;16785347000;15401233333;15901233333
793;16785348000;15401233333;15901233333
794;16785349000;15401233333;15901233333
795;16824514000;15442577777;15942577777
816;16945022000;15484577777;15984577777
817;16985350000;15525922222;16025922222
842;17146209000;15609211111;16109211111
872;17310897000;15734244444;16234244444
904;17429663000;15817877777;16317877777
905;17470014000;15859211111;16359211111
931;17629078000;15942588888;16442588888
961;17790537000;16067577777;16567577777
993;17951838000;16192566666;16692566666
1026;18148850000;16317577777;16817577777
1056;18270168000;16401244444;16901244444
1085;18432432000;16525911111;17025911111
1117;18592101000;16650911111;17150911111
1150;18753591000;16775911111;17275911111
1321;19149422000;17401222222;17901222222
1392;19272322000;17692566666;18192566666
1430;19430225000;17817855555;18317855555
1432;19542868000;17817855555;18317855555
1433;19543012000;17859211111;18359211111
1435;19543016000;17859211111;18359211111
1436;19543017000;17859211111;18359211111
1437;19543018000;17859211111;18359211111
1438;19543020000;17859211111;18359211111
1439;19543021000;17859211111;18359211111
1440;19543196000;17859322222;18359322222
1442;19543202000;17859688888;18359688888
1443;19543213000;17859688888;18359688888
1444;19543224000;17900911111;18400911111
1445;19543226000;17900911111;18400911111
1446;19543228000;17900911111;18400911111
1447;19543242000;17900911111;18400911111
1448;19543243000;17900911111;18400911111
1449;19543251000;17900911111;18400911111
1451;19543383000;17900933333;18400933333
1453;19543399000;17901233333;18401233333
1454;19543401000;17901233333;18401233333
1455;19561227000;17942555555;18442555555
1506;19753027000;18109233333;18609233333
1553;19753050000;18276222222;18776222222
1554;19983223000;18317577777;18817577777
1603;20128843000;18484255555;18984255555
1631;20279915000;18609244444;19109244444
1799;20555456000;19234211111;19734211111
1920;20799618000;19692577777;20192577777
1922;20833422000;19692577777;20192577777
1924;20833706000;19692600000;20192600000
1927;20833723000;19692866666;20192866666
1928;20833736000;19734233333;20234233333
1929;20833738000;19734233333;20234233333
1930;20833739000;19734233333;20234233333
1931;20833741000;19734233333;20234233333
1932;20833742000;19734233333;20234233333
1933;20833744000;19734233333;20234233333
1934;20833746000;19734233333;20234233333
1935;20833888000;19734244444;20234244444
1938;20833904000;19734533333;20234533333
1939;20833916000;19775911111;20275911111
1940;20833918000;19775911111;20275911111
1941;20833920000;19775911111;20275911111
1942;20833922000;19775911111;20275911111
1943;20833923000;19775911111;20275911111
1944;20833935000;19775911111;20275911111
1945;20833936000;19775911111;20275911111
1946;20927236000;19775933333;20275933333
2014;20927251000;20026233333;20526233333
2015;20927253000;20026233333;20526233333
2016;21122529000;20067566666;20567566666
2115;21233148000;20442577777;20942577777
2183;21418632000;20692544444;21192544444
2215;21474076000;20817577777;21317577777
2224;21608438000;20817888888;21317888888
2290;21764952000;21067922222;21567922222
2342;21928636000;21275944444;21775944444
2346;21928642000;21317577777;21817577777
2347;21928644000;21317577777;21817577777
2348;21928645000;21317577777;21817577777
2349;21928656000;21317577777;21817577777
2350;21928657000;21317577777;21817577777
2351;21928658000;21317577777;21817577777
2352;21928660000;21317577777;21817577777
2353;21928825000;21317600000;21817600000
2354;21928831000;21318000000;21818000000
2355;21928833000;21318000000;21818000000
2356;21928834000;21318000000;21818000000
2357;21928846000;21359211111;21859211111
2358;21928847000;21359211111;21859211111
2359;21928859000;21359211111;21859211111
2360;21928860000;21359211111;21859211111
2361;21928861000;21359211111;21859211111
2362;21928862000;21359211111;21859211111
2363;21928863000;21359211111;21859211111
2364;21939758000;21359233333;21859233333
2365;22125648000;21359544444;21859544444
2366;22125964000;21359544444;21859544444
2367;22125967000;21359544444;21859544444
2368;22217224000;21401111111;21901111111
2369;22217227000;21401111111;21901111111
2370;22217228000;21401111111;21901111111
2371;22217229000;21401111111;21901111111
2372;22217230000;21401111111;21901111111
2373;22217231000;21401111111;21901111111
2374;22217232000;21401111111;21901111111
2375;22217404000;21401133333;21901133333
2376;22217409000;21401522222;21901522222
2377;22217410000;21401522222;21901522222
2378;22217411000;21401522222;21901522222
2379;22258244000;21442544444;21942544444
2380;22258247000;21442544444;21942544444
2381;22258248000;21442544444;21942544444
2382;22258249000;21442544444;21942544444
2383;22258251000;21442544444;21942544444
2384;22286172000;21442544444;21942544444
2385;22286433000;21442544444;21942544444
2386;22418634000;21442566666;21942566666
2387;22418650000;21442833333;21942833333
2388;22418651000;21442833333;21942833333
2389;22418652000;21442833333;21942833333
2390;22458370000;21484211111;21984211111
2401;22539297000;21525900000;22025900000
2402;22539300000;21525900000;22025900000
2403;22539302000;21525900000;22025900000
2404;22539303000;21525900000;22025900000
2405;22539304000;21525900000;22025900000
2406;22539305000;21525900000;22025900000
2407;22539306000;21525900000;22025900000
2408;22539504000;21525922222;22025922222
2409;22539520000;21526233333;22026233333
2410;22539521000;21526233333;22026233333
2411;22539522000;21526233333;22026233333
2412;22580589000;21567588888;22067588888
2413;22580601000;21567588888;22067588888
2414;22580602000;21567588888;22067588888
2415;22580603000;21567588888;22067588888
2416;22580604000;21567588888;22067588888
2417;22580606000;21567588888;22067588888
2418;22580606000;21567588888;22067588888
2419;22580807000;21567611111;22067611111
2420;22580823000;21567922222;22067922222
2421;22580824000;21567922222;22067922222
2422;22607041000;21567922222;22067922222
2423;22740521000;21609244444;22109244444
2424;22740525000;21609244444;22109244444
2425;22740526000;21609244444;22109244444
2426;22740527000;21609244444;22109244444
2427;22740528000;21609244444;22109244444
2428;22740529000;21609244444;22109244444
2429;22740530000;21609244444;22109244444
2430;22740728000;21609266666;22109266666
2431;22740744000;21609566666;22109566666
2432;22740745000;21609566666;22109566666
2433;22740746000;21609566666;22109566666
2434;22779910000;21650911111;22150911111
2439;22779915000;21650911111;22150911111
2440;22779916000;21650911111;22150911111
2441;22859534000;21650933333;22150933333
2442;22859540000;21651233333;22151233333
2443;22859542000;21651233333;22151233333
2444;22859543000;21651233333;22151233333
2445;22900691000;21692577777;22192577777
2446;22900695000;21692577777;22192577777
2447;22900696000;21692577777;22192577777
2448;22900697000;21692577777;22192577777
2449;22900698000;21692577777;22192577777
2450;22900699000;21692577777;22192577777
2451;22900700000;21692577777;22192577777
2452;22900906000;21692588888;22192588888
2453;22900922000;21692866666;22192866666
2454;22900923000;21692866666;22192866666
2455;22900924000;21692866666;22192866666
2456;22940544000;21734244444;22234244444
2457;22940548000;21734244444;22234244444
2458;22940550000;21734244444;22234244444
2459;22940551000;21734244444;22234244444
2460;22940552000;21734244444;22234244444
2461;22940553000;21734244444;22234244444
2462;22940554000;21734244444;22234244444
2463;23019953000;21734266666;22234266666
2464;23019969000;21734588888;22234588888
2465;23019970000;21734588888;22234588888
2466;23019971000;21734588888;22234588888
2467;23061104000;21775911111;22275911111
2468;23061107000;21775911111;22275911111
2469;23061109000;21775911111;22275911111
2470;23061110000;21775911111;22275911111
2471;23061111000;21775911111;22275911111
2472;23061112000;21775911111;22275911111
2473;23061113000;21775911111;22275911111
2474;23061319000;21775933333;22275933333
2475;23061335000;21776233333;22276233333
2478;23100861000;21817555555;22317555555
2479;23100864000;21817555555;22317555555
2480;23100865000;21817555555;22317555555
2481;23100866000;21817555555;22317555555
2482;23100867000;21817555555;22317555555
2483;23100869000;21817555555;22317555555
2484;23100870000;21817555555;22317555555
2485;23180276000;21817588888;22317588888
2486;23180292000;21817955555;22317955555
2487;23180294000;21817955555;22317955555
2488;23180295000;21817955555;22317955555
2489;23221402000;21859244444;22359244444
2490;23221405000;21859244444;22359244444
2491;23221406000;21859244444;22359244444
2492;23221407000;21859244444;22359244444
2493;23221408000;21859244444;22359244444
2494;23221409000;21859244444;22359244444
2495;23221410000;21859244444;22359244444
2496;23221616000;21859266666;22359266666
2497;23221632000;21859566666;22359566666
2498;23221633000;21859566666;22359566666
2499;23250689000;21859566666;22359566666
2500;23381202000;21900911111;22400911111
2501;23381207000;21900911111;22400911111
2502;23381208000;21900911111;22400911111
2503;23381209000;21900911111;22400911111
2504;23381210000;21900911111;22400911111
2505;23381211000;21900911111;22400911111
2506;23381212000;21900911111;22400911111
2507;23381431000;21900933333;22400933333
2508;23381447000;21901222222;22401222222
2509;23381449000;21901222222;22401222222
2510;23381450000;21901222222;22401222222
2511;23421609000;21942588888;22442588888
2517;23421612000;21942588888;22442588888
2518;23421812000;21942600000;22442600000
2519;23421828000;21942911111;22442911111
2520;23421829000;21942911111;22442911111
2521;23421830000;21942911111;22442911111
2522;23543370000;21984233333;22484233333
2523;23543374000;21984233333;22484233333
2524;23543383000;21984233333;22484233333
2525;23543384000;21984233333;22484233333
2526;23543385000;21984233333;22484233333
2527;23543386000;21984233333;22484233333
2528;23543387000;21984233333;22484233333
2529;23543594000;21984255555;22484255555
2530;23543610000;21984566666;22484566666
2531;23543611000;21984566666;22484566666
2532;23570818000;21984566666;22484566666
2533;23582733000;22025900000;22525900000
2537;23582737000;22025900000;22525900000
2538;23582738000;22025900000;22525900000
2539;23582739000;22025900000;22525900000
2540;23662290000;22025911111;22525911111
2541;23662296000;22026211111;22526211111
2542;23662298000;22026211111;22526211111
2543;23662299000;22026211111;22526211111
2544;23703515000;22067588888;22567588888
2545;23703518000;22067588888;22567588888
2546;23703519000;22067588888;22567588888
2547;23703520000;22067588888;22567588888
2548;23703521000;22067588888;22567588888
2549;23703522000;22067588888;22567588888
2550;23703523000;22067588888;22567588888
2551;23703722000;22067600000;22567600000
2552;23703738000;22067911111;22567911111
2553;23703739000;22067911111;22567911111
2554;23703740000;22067911111;22567911111
2555;23744305000;22109244444;22609244444
2556;23744309000;22109244444;22609244444
2557;23744310000;22109244444;22609244444
2558;23744311000;22109244444;22609244444
2559;23744312000;22109244444;22609244444
2560;23744313000;22109244444;22609244444
2561;23744314000;22109244444;22609244444
2562;23822915000;22109266666;22609266666
2563;23822931000;22109555555;22609555555
2564;23822932000;22109555555;22609555555
2565;23822933000;22109555555;22609555555
2566;23864134000;22150922222;22650922222
2567;23864147000;22150922222;22650922222
2568;23864148000;22150922222;22650922222
2569;23864149000;22150922222;22650922222
2570;23864150000;22150922222;22650922222
2571;23864151000;22150922222;22650922222
2572;23864152000;22150922222;22650922222
2573;23864351000;22150944444;22650944444
2574;23864367000;22151244444;22651244444
2575;23864368000;22151244444;22651244444
2576;23864369000;22151244444;22651244444
2577;23983244000;22192588888;22692588888
2578;23983247000;22192588888;22692588888
2579;23983248000;22192588888;22692588888
2580;23983250000;22192588888;22692588888
2583;23983251000;22192588888;22692588888
2584;23983457000;22192611111;22692611111
2585;23983473000;22192888888;22692888888
2586;23983474000;22192888888;22692888888
2588;24024383000;22234244444;22734244444
2589;24024387000;22234244444;22734244444
2590;24024388000;22234244444;22734244444
2591;24024389000;22234244444;22734244444
2595;24024488000;22234266666;22734266666
2596;24024504000;22234577777;22734577777
2597;24024505000;22234577777;22734577777
2598;24024506000;22234577777;22734577777
2599;24185262000;22275911111;22775911111
2600;24185265000;22275911111;22775911111
2601;24185266000;22275911111;22775911111
2602;24185267000;22275911111;22775911111
2603;24185268000;22275911111;22775911111
2604;24185269000;22275911111;22775911111
2605;24185270000;22275911111;22775911111
2606;24185470000;22275933333;22775933333
2607;24185486000;22276233333;22776233333
2608;24185488000;22276233333;22776233333
2609;24185489000;22276233333;22776233333
2610;24225061000;22317577777;22817577777
2621;24345254000;22359244444;22859244444
2622;24345258000;22359244444;22859244444
2623;24345259000;22359244444;22859244444
2624;24345260000;22359244444;22859244444
2625;24345261000;22359244444;22859244444
2626;24345262000;22359244444;22859244444
2628;24345468000;22359266666;22859266666
2629;24345484000;22359588888;22859588888
2630;24345485000;22359588888;22859588888
2631;24345487000;22359588888;22859588888
2632;24385446000;22400911111;22900911111
2638;24385450000;22400911111;22900911111
2639;24464775000;22400933333;22900933333
2640;24464790000;22401200000;22901200000
2641;24464792000;22401200000;22901200000
2642;24464793000;22401200000;22901200000
2643;24505914000;22442577777;22942577777
2644;24505917000;22442577777;22942577777
2645;24505918000;22442577777;22942577777
2646;24505919000;22442577777;22942577777
2647;24505920000;22442577777;22942577777
2648;24505921000;22442577777;22942577777
2649;24505930000;22442577777;22942577777
2650;24506129000;22442600000;22942600000
2651;24506145000;22442855555;22942855555
2652;24506147000;22442855555;22942855555
2653;24506148000;22442855555;22942855555
2654;24545597000;22484222222;22984222222
2656;24545600000;22484222222;22984222222
2657;24545601000;22484222222;22984222222
2658;24545603000;22484222222;22984222222
2659;24545604000;22484222222;22984222222
2660;24545605000;22484222222;22984222222
2661;24624300000;22484244444;22984244444
2662;24624315000;22484633333;22984633333
2663;24624317000;22484633333;22984633333
2664;24624318000;22484633333;22984633333
2665;24666200000;22525888888;23025888888
2666;24666204000;22525888888;23025888888
2667;24666205000;22525888888;23025888888
2668;24666206000;22525888888;23025888888
2669;24666207000;22525888888;23025888888
2670;24666208000;22525888888;23025888888
2671;24666209000;22525888888;23025888888
2672;24666409000;22525911111;23025911111
2673;24666424000;22526255555;23026255555
2674;24666426000;22526255555;23026255555
2675;24666427000;22526255555;23026255555
2676;24705984000;22567577777;23067577777
2677;24705988000;22567577777;23067577777
2679;24745676000;22567577777;23067577777
2680;24745679000;22567577777;23067577777
2681;24745690000;22567577777;23067577777
2682;24745691000;22567577777;23067577777
2683;24785423000;22567600000;23067600000
2684;24785438000;22567888888;23067888888
2685;24785440000;22567888888;23067888888
2686;24785441000;22567888888;23067888888
2687;24826796000;22609233333;23109233333
2688;24826799000;22609233333;23109233333
2689;24826800000;22609233333;23109233333
2690;24826801000;22609233333;23109233333
2691;24826802000;22609233333;23109233333
2692;24826803000;22609233333;23109233333
2693;24826804000;22609233333;23109233333
2694;24827038000;22609255555;23109255555
2695;24827060000;22609555555;23109555555
2696;24827061000;22609555555;23109555555
2697;24827062000;22609555555;23109555555
2698;24987546000;22650900000;23150900000
2699;24987550000;22650900000;23150900000
2700;24987551000;22650900000;23150900000
2701;24987552000;22650900000;23150900000
2702;24987553000;22650900000;23150900000
2703;24987554000;22650900000;23150900000
2704;24987555000;22650900000;23150900000
2705;24987755000;22650911111;23150911111
2706;24987770000;22651188888;23151188888
2707;24987772000;22651188888;23151188888
2708;24987773000;22651188888;23151188888
2709;25027219000;22692577777;23192577777
2720;25147909000;22734244444;23234244444
2721;25147912000;22734244444;23234244444
2722;25147913000;22734244444;23234244444
2723;25147915000;22734244444;23234244444
2724;25147915000;22734244444;23234244444
2725;25147916000;22734244444;23234244444
2726;25147917000;22734244444;23234244444
2727;25148124000;22734266666;23234266666
2728;25148139000;22734566666;23234566666
2729;25148141000;22734566666;23234566666
2730;25148142000;22734566666;23234566666
2731;25187422000;22775900000;23275900000
2738;25266992000;22775922222;23275922222
2739;25267007000;22776211111;23276211111
2740;25267009000;22776211111;23276211111
2741;25267010000;22776211111;23276211111
2742;25308177000;22817577777;23317577777
2743;25308181000;22817577777;23317577777
2744;25308182000;22817577777;23317577777
2745;25308183000;22817577777;23317577777
2746;25308184000;22817577777;23317577777
2747;25308185000;22817577777;23317577777
2748;25308186000;22817577777;23317577777
2749;25308429000;22817600000;23317600000
2750;25308444000;22817866666;23317866666
2751;25308446000;22817866666;23317866666
2752;25308446000;22817866666;23317866666
2753;25347610000;22859244444;23359244444
2756;25347613000;22859244444;23359244444
2757;25347614000;22859244444;23359244444
2758;25347615000;22859244444;23359244444
2759;25347616000;22859244444;23359244444
2760;25426979000;22859266666;23359266666
2761;25426995000;22859544444;23359544444
2762;25426996000;22859544444;23359544444
2763;25426997000;22859544444;23359544444
2764;25467729000;22900911111;23400911111
2765;25467733000;22900911111;23400911111
2766;25467734000;22900911111;23400911111
2767;25467735000;22900911111;23400911111
2768;25467736000;22900911111;23400911111
2769;25467744000;22900911111;23400911111
2770;25467745000;22900911111;23400911111
2771;25467945000;22900933333;23400933333
2773;25468490000;22901211111;23401211111
2774;25468503000;22901211111;23401211111
2775;25508708000;22942566666;23442566666
2776;25508712000;22942566666;23442566666
2777;25508713000;22942566666;23442566666
2778;25508714000;22942566666;23442566666
2779;25508715000;22942566666;23442566666
2780;25508716000;22942566666;23442566666
2781;25508717000;22942566666;23442566666
2782;25587655000;22942588888;23442588888
2783;25587661000;22942855555;23442855555
2784;25587663000;22942855555;23442855555
2785;25587664000;22942855555;23442855555
2786;25628844000;22984244444;23484244444
2787;25628847000;22984244444;23484244444
2788;25628849000;22984244444;23484244444
2789;25628850000;22984244444;23484244444
2790;25628860000;22984244444;23484244444
2791;25628862000;22984244444;23484244444
2792;25628864000;22984244444;23484244444
2794;25628936000;22984577777;23484577777
2795;25628939000;22984577777;23484577777
2796;25628940000;22984577777;23484577777
2797;25668844000;23025911111;23525911111
2798;25668847000;23025911111;23525911111
2799;25668848000;23025911111;23525911111
2800;25668849000;23025911111;23525911111
2801;25668850000;23025911111;23525911111
2802;25668851000;23025911111;23525911111
2803;25668852000;23025911111;23525911111
2804;25748089000;23025933333;23525933333
2805;25748094000;23026222222;23526222222
2806;25748095000;23026222222;23526222222
2807;25748096000;23026222222;23526222222
2808;25789213000;23067577777;23567577777
2809;25789215000;23067577777;23567577777
2810;25789216000;23067577777;23567577777
2811;25789218000;23067577777;23567577777
2812;25789219000;23067577777;23567577777
2813;25789220000;23067577777;23567577777
2814;25789220000;23067577777;23567577777
2815;25789364000;23067600000;23567600000
2816;25789367000;23067900000;23567900000
2817;25789369000;23067900000;23567900000
2818;25816694000;23067900000;23567900000
2819;25950119000;23109233333;23609233333
2820;25950123000;23109233333;23609233333
2821;25950124000;23109233333;23609233333
2822;25950125000;23109233333;23609233333
2823;25950126000;23109233333;23609233333
2824;25950127000;23109233333;23609233333
2825;25950128000;23109233333;23609233333
2826;25950328000;23109255555;23609255555
2827;25950343000;23109533333;23609533333
2828;25950344000;23109533333;23609533333
2829;25950346000;23109533333;23609533333
2830;25989908000;23150922222;23650922222
2838;26069413000;23151211111;23651211111
2839;26069416000;23151211111;23651211111
2840;26069417000;23151211111;23651211111
2841;26110410000;23192577777;23692577777
2842;26110414000;23192577777;23692577777
2843;26110415000;23192577777;23692577777
2844;26110416000;23192577777;23692577777
2845;26110417000;23192577777;23692577777
2846;26110418000;23192577777;23692577777
2847;26110419000;23192577777;23692577777
2848;26110619000;23192600000;23692600000
2849;26110625000;23192877777;23692877777
2850;26110626000;23192877777;23692877777
2851;26110627000;23192877777;23692877777
2852;26149861000;23234244444;23734244444
2856;26149865000;23234244444;23734244444
2857;26149866000;23234244444;23734244444
2858;26149867000;23234244444;23734244444
2859;26229584000;23234266666;23734266666
2860;26229589000;23234566666;23734566666
2861;26229591000;23234566666;23734566666
2862;26229592000;23234566666;23734566666
2863;26270752000;23275911111;23775911111
2864;26270755000;23275911111;23775911111
2865;26270756000;23275911111;23775911111
2866;26270758000;23275911111;23775911111
2867;26270768000;23275911111;23775911111
2869;26270770000;23275911111;23775911111
2870;26270914000;23275933333;23775933333
2871;26270918000;23276233333;23776233333
2872;26270920000;23276233333;23776233333
2873;26270921000;23276233333;23776233333
2874;26310834000;23317555555;23817555555
2876;26310837000;23317555555;23817555555
2877;26310838000;23317555555;23817555555
2878;26310840000;23317555555;23817555555
2879;26310841000;23317555555;23817555555
2880;26310842000;23317555555;23817555555
2881;26390059000;23317600000;23817600000
2882;26390065000;23318122222;23818122222
2883;26390073000;23318122222;23818122222
2884;26390074000;23318122222;23818122222
2885;26431228000;23359244444;23859244444
2886;26431231000;23359244444;23859244444
2887;26431232000;23359244444;23859244444
2888;26431233000;23359244444;23859244444
2889;26431235000;23359244444;23859244444
2890;26431236000;23359244444;23859244444
2891;26431236000;23359244444;23859244444
2892;26431435000;23359266666;23859266666
2893;26431451000;23359566666;23859566666
2894;26431452000;23359566666;23859566666
2895;26431453000;23359566666;23859566666
2896;26471003000;23400911111;23900911111
2897;26471007000;23400911111;23900911111
2898;26471008000;23400911111;23900911111
2899;26471009000;23400911111;23900911111
2900;26471010000;23400911111;23900911111
2901;26471011000;23400911111;23900911111
2902;26471012000;23400911111;23900911111
2903;26550559000;23400933333;23900933333
2904;26550574000;23401211111;23901211111
2905;26550575000;23401211111;23901211111
2906;26550576000;23401211111;23901211111
2907;26591708000;23442577777;23942577777
2908;26591711000;23442577777;23942577777
2909;26591712000;23442577777;23942577777
2910;26591713000;23442577777;23942577777
2911;26591714000;23442577777;23942577777
2912;26591715000;23442577777;23942577777
2913;26591716000;23442577777;23942577777
2914;26591916000;23442600000;23942600000
2915;26591931000;23442855555;23942855555
2916;26591933000;23442855555;23942855555
2917;26591934000;23442855555;23942855555
2918;26752491000;23484244444;23984244444
3223;26752626000;24609633333;25109633333
3224;26752629000;24609633333;25109633333
3225;26752631000;24609633333;25109633333
3226;26752642000;24650911111;25150911111
3227;26752643000;24650911111;25150911111
3228;26752655000;24650911111;25150911111
3229;26752656000;24650911111;25150911111
3230;26752657000;24650911111;25150911111
3231;26752658000;24650911111;25150911111
3232;26752659000;24650911111;25150911111
3233;26752762000;24650933333;25150933333
3234;26752778000;24651222222;25151222222
3235;26779476000;24651222222;25151222222
3236;26783144000;24651222222;25151222222
3237;26912805000;24692577777;25192577777
3238;26912808000;24692577777;25192577777
3239;26912809000;24692577777;25192577777
3240;26912810000;24692577777;25192577777
3241;26912811000;24692577777;25192577777
3242;26912812000;24692577777;25192577777
3243;26912813000;24692577777;25192577777
3244;26913013000;24692600000;25192600000
3245;26913028000;24692866666;25192866666
3246;26913029000;24692866666;25192866666
3247;26913031000;24692866666;25192866666
3248;26952213000;24734244444;25234244444
3253;26952217000;24734244444;25234244444
3254;26952218000;24734244444;25234244444
3255;27032050000;24734266666;25234266666
3256;27032056000;24734555555;25234555555
3257;27032058000;24734555555;25234555555
3258;27032059000;24734555555;25234555555
3259;27073230000;24775911111;25275911111
3260;27073243000;24775911111;25275911111
3261;27073244000;24775911111;25275911111
3262;27073245000;24775911111;25275911111
3263;27073246000;24775911111;25275911111
3264;27073247000;24775911111;25275911111
3266;27073448000;24775933333;25275933333
3267;27073463000;24776233333;25276233333
3268;27073464000;24776233333;25276233333
3269;27073465000;24776233333;25276233333
3270;27113374000;24817577777;25317577777
3273;27113378000;24817577777;25317577777
3274;27113379000;24817577777;25317577777
3275;27113380000;24817577777;25317577777
3276;27113381000;24817577777;25317577777
3277;27191715000;24817600000;25317600000
3278;27191731000;24817866666;25317866666
3279;27191732000;24817866666;25317866666
3280;27191733000;24817866666;25317866666
3281;27232343000;24859244444;25359244444
3282;27232347000;24859244444;25359244444
3283;27232348000;24859244444;25359244444
3284;27232349000;24859244444;25359244444
3286;27233332000;24859244444;25359244444
3287;27233336000;24859244444;25359244444
3288;27233548000;24859255555;25359255555
3289;27233563000;24859566666;25359566666
3291;27233565000;24859566666;25359566666
3292;27273603000;24900922222;25400922222
3293;27273607000;24900922222;25400922222
3294;27273608000;24900922222;25400922222
3295;27273616000;24900922222;25400922222
3296;27273617000;24900922222;25400922222
3297;27273618000;24900922222;25400922222
3298;27273619000;24900922222;25400922222
3299;27357167000;24900944444;25400944444
3300;27357182000;24901244444;25401244444
3301;27357184000;24901244444;25401244444
3302;27357185000;24901244444;25401244444
3303;27398288000;24942577777;25442577777
3304;27398292000;24942577777;25442577777
3305;27398293000;24942577777;25442577777
3306;27398294000;24942577777;25442577777
3307;27398295000;24942577777;25442577777
3308;27398296000;24942577777;25442577777
3309;27398297000;24942577777;25442577777
3310;27398497000;24942600000;25442600000
3311;27398512000;24942855555;25442855555
3313;27398514000;24942855555;25442855555
3314;27438408000;24984244444;25484244444
3315;27438412000;24984244444;25484244444
3316;27438413000;24984244444;25484244444
3317;27438414000;24984244444;25484244444
3318;27438415000;24984244444;25484244444
3319;27438416000;24984244444;25484244444
3320;27438417000;24984244444;25484244444
3321;27517629000;24984266666;25484266666
3322;27517634000;24984566666;25484566666
3323;27517636000;24984566666;25484566666
3324;27517638000;24984566666;25484566666
3325;27558787000;25025900000;25525900000
3326;27558790000;25025900000;25525900000
3327;27558792000;25025900000;25525900000
3329;27558839000;25025900000;25525900000
3330;27558841000;25025900000;25525900000
3331;27558843000;25025900000;25525900000
3332;27558997000;25025922222;25525922222
3333;27559001000;25026222222;25526222222
3334;27559003000;25026222222;25526222222
3335;27585946000;25026222222;25526222222
3336;27719368000;25067566666;25567566666
3337;27719372000;25067566666;25567566666
3338;27719373000;25067566666;25567566666
3339;27719374000;25067566666;25567566666
3340;27719375000;25067566666;25567566666
3341;27719376000;25067566666;25567566666
3342;27719377000;25067566666;25567566666
3344;27719487000;25067888888;25567888888
3345;27719491000;25067888888;25567888888
3346;27719492000;25067888888;25567888888
3347;27758903000;25109244444;25609244444
3356;27838677000;25109544444;25609544444
3357;27838680000;25109544444;25609544444
3358;27879701000;25150922222;25650922222
3359;27879705000;25150922222;25650922222
3360;27879706000;25150922222;25650922222
3361;27879707000;25150922222;25650922222
3362;27879708000;25150922222;25650922222
3363;27879709000;25150922222;25650922222
3364;27879710000;25150922222;25650922222
3365;27879910000;25150933333;25650933333
3366;27879925000;25151222222;25651222222
3367;27879927000;25151222222;25651222222
3368;27879928000;25151222222;25651222222
3369;27919537000;25192588888;25692588888
3373;27919541000;25192588888;25692588888
3374;27919542000;25192588888;25692588888
3375;27919543000;25192588888;25692588888
3376;27998028000;25192600000;25692600000
3377;27998033000;25192866666;25692866666
3378;27998034000;25192866666;25692866666
3379;27998035000;25192866666;25692866666
3380;28040157000;25234244444;25734244444
3381;28040159000;25234244444;25734244444
3382;28040160000;25234244444;25734244444
3383;28040161000;25234244444;25734244444
3384;28040163000;25234244444;25734244444
3385;28040164000;25234244444;25734244444
3386;28040165000;25234244444;25734244444
3387;28040233000;25234266666;25734266666
3388;28040235000;25234566666;25734566666
3389;28040237000;25234566666;25734566666
3390;28040238000;25234566666;25734566666
3391;28079576000;25275911111;25775911111
3393;28079580000;25275911111;25775911111
3394;28079581000;25275911111;25775911111
3395;28079582000;25275911111;25775911111
3396;28079583000;25275911111;25775911111
3397;28079584000;25275911111;25775911111
3398;28159314000;25275933333;25775933333
3399;28159319000;25276222222;25776222222
3400;28159320000;25276222222;25776222222
3401;28159321000;25276222222;25776222222
3402;28200500000;25317577777;25817577777
3403;28200503000;25317577777;25817577777
3404;28200504000;25317577777;25817577777
3405;28200505000;25317577777;25817577777
3407;28200506000;25317577777;25817577777
3408;28200507000;25317577777;25817577777
3409;28200652000;25317600000;25817600000
3410;28200655000;25317877777;25817877777
3411;28200664000;25317877777;25817877777
3412;28200665000;25317877777;25817877777
3413;28239845000;25359233333;25859233333
3414;28239849000;25359233333;25859233333
3415;28239850000;25359233333;25859233333
3416;28239851000;25359233333;25859233333
3417;28239852000;25359233333;25859233333
3418;28239853000;25359233333;25859233333
3419;28239854000;25359233333;25859233333
3420;28319161000;25359255555;25859255555
3421;28319177000;25359577777;25859577777
3422;28319178000;25359577777;25859577777
3423;28319179000;25359577777;25859577777
3425;28360887000;25400900000;25900900000
3426;28360891000;25400900000;25900900000
3427;28360892000;25400900000;25900900000
3428;28360893000;25400900000;25900900000
3429;28360894000;25400900000;25900900000
3430;28360895000;25400900000;25900900000
3431;28361160000;25400922222;25900922222
3432;28361175000;25401222222;25901222222
3433;28361177000;25401222222;25901222222
3434;28361178000;25401222222;25901222222
3435;28521772000;25442577777;25942577777
3436;28521775000;25442577777;25942577777
3437;28521776000;25442577777;25942577777
3438;28521777000;25442577777;25942577777
3439;28521778000;25442577777;25942577777
3440;28521779000;25442577777;25942577777
3441;28521780000;25442577777;25942577777
3442;28521980000;25442600000;25942600000
3443;28521996000;25442866666;25942866666
3444;28521997000;25442866666;25942866666
3445;28521998000;25442866666;25942866666
3446;28561195000;25484244444;25984244444
3457;28682127000;25525911111;26025911111
3458;28682130000;25525911111;26025911111
3459;28682132000;25525911111;26025911111
3460;28682133000;25525911111;26025911111
3461;28682134000;25525911111;26025911111
3462;28682134000;25525911111;26025911111
3463;28682136000;25525911111;26025911111
3464;28682335000;25525933333;26025933333
3465;28682350000;25526222222;26026222222
3466;28682352000;25526222222;26026222222
3467;28682353000;25526222222;26026222222
3468;28721354000;25567577777;26067577777
3476;28801560000;25567888888;26067888888
3477;28801564000;25567888888;26067888888
3478;28801565000;25567888888;26067888888
3479;28842537000;25609244444;26109244444
3480;28842540000;25609244444;26109244444
3481;28842541000;25609244444;26109244444
3482;28842543000;25609244444;26109244444
3483;28842544000;25609244444;26109244444
3484;28842545000;25609244444;26109244444
3485;28842546000;25609244444;26109244444
3486;28842744000;25609266666;26109266666
3487;28842760000;25609566666;26109566666
3488;28842761000;25609566666;26109566666
3489;28842762000;25609566666;26109566666
3490;28881940000;25650911111;26150911111
3494;28881943000;25650911111;26150911111
3495;28881944000;25650911111;26150911111
3496;28881945000;25650911111;26150911111
3497;28962409000;25650933333;26150933333
3498;28962425000;25651233333;26151233333
3499;28962426000;25651233333;26151233333
3500;28962427000;25651233333;26151233333
3501;29003556000;25692566666;26192566666
3502;29003559000;25692566666;26192566666
3503;29003560000;25692566666;26192566666
3504;29003561000;25692566666;26192566666
3505;29003562000;25692566666;26192566666
3506;29003563000;25692566666;26192566666
3507;29003564000;25692566666;26192566666
3508;29003763000;25692588888;26192588888
3509;29003778000;25692900000;26192900000
3510;29003780000;25692900000;26192900000
3511;29003781000;25692900000;26192900000
3512;29043479000;25734244444;26234244444
3513;29043483000;25734244444;26234244444
3514;29043484000;25734244444;26234244444
3515;29043485000;25734244444;26234244444
3516;29043486000;25734244444;26234244444
3517;29043487000;25734244444;26234244444
3518;29043488000;25734244444;26234244444
3519;29122771000;25734266666;26234266666
3520;29122777000;25734577777;26234577777
3521;29122779000;25734577777;26234577777
3522;29122780000;25734577777;26234577777
3524;29163822000;25775911111;26275911111
3525;29163825000;25775911111;26275911111
3526;29163827000;25775911111;26275911111
3527;29163828000;25775911111;26275911111
3528;29163839000;25775911111;26275911111
3529;29163841000;25775911111;26275911111
3530;29163959000;25775933333;26275933333
3531;29163962000;25776222222;26276222222
3532;29163963000;25776222222;26276222222
3533;29163973000;25776222222;26276222222
3534;29203646000;25817577777;26317577777
3535;29203650000;25817577777;26317577777
3536;29203651000;25817577777;26317577777
3537;29203652000;25817577777;26317577777
3538;29203653000;25817577777;26317577777
3539;29203654000;25817577777;26317577777
3540;29203655000;25817577777;26317577777
3541;29283238000;25817600000;26317600000
3542;29283254000;25817877777;26317877777
3543;29283255000;25817877777;26317877777
3544;29283256000;25817877777;26317877777
3545;29324389000;25859244444;26359244444
3546;29324393000;25859244444;26359244444
3547;29324394000;25859244444;26359244444
3548;29324395000;25859244444;26359244444
3549;29324396000;25859244444;26359244444
3550;29324397000;25859244444;26359244444
3551;29324398000;25859244444;26359244444
3552;29324597000;25859266666;26359266666
3553;29324612000;25859588888;26359588888
3554;29324614000;25859588888;26359588888
3555;29351733000;25859588888;26359588888
3556;29485198000;25900911111;26400911111
3557;29485202000;25900911111;26400911111
3558;29485203000;25900911111;26400911111
3559;29485204000;25900911111;26400911111
3560;29485205000;25900911111;26400911111
3561;29485206000;25900911111;26400911111
3562;29485207000;25900911111;26400911111
3563;29485406000;25900933333;26400933333
3564;29485421000;25901344444;26401344444
3565;29485423000;25901344444;26401344444
3566;29485424000;25901344444;26401344444
3567;29524518000;25942577777;26442577777
3575;29604086000;25942866666;26442866666
3576;29604090000;25942866666;26442866666
3577;29604100000;25942866666;26442866666
3578;29645065000;25984233333;26484233333
3579;29645067000;25984233333;26484233333
3580;29645068000;25984233333;26484233333
3581;29645069000;25984233333;26484233333
3582;29645070000;25984233333;26484233333
3583;29645071000;25984233333;26484233333
3584;29645072000;25984233333;26484233333
3585;29645216000;25984255555;26484255555
3586;29645219000;25984577777;26484577777
3587;29645220000;25984577777;26484577777
3589;29685145000;26025900000;26525900000
3591;29685158000;26025900000;26525900000
3592;29685159000;26025900000;26525900000
3593;29685160000;26025900000;26525900000
3594;29685161000;26025900000;26525900000
3595;29685162000;26025900000;26525900000
3596;29765045000;26025922222;26525922222
3597;29765061000;26026244444;26526244444
3598;29765062000;26026244444;26526244444
3599;29765063000;26026244444;26526244444
3600;29806248000;26067577777;26567577777
3601;29806251000;26067577777;26567577777
3602;29806252000;26067577777;26567577777
3603;29806254000;26067577777;26567577777
3604;29806255000;26067577777;26567577777
3605;29806256000;26067577777;26567577777
3606;29806257000;26067577777;26567577777
3607;29806473000;26067600000;26567600000
3608;29806488000;26067900000;26567900000
3609;29806489000;26067900000;26567900000
3610;29806490000;26067900000;26567900000
3611;29845653000;26109244444;26609244444
3612;29845657000;26109244444;26609244444
3613;29845658000;26109244444;26609244444
3614;29845659000;26109244444;26609244444
3615;29845660000;26109244444;26609244444
3616;29845661000;26109244444;26609244444
3617;29845662000;26109244444;26609244444
3618;29925080000;26109266666;26609266666
3619;29925086000;26109555555;26609555555
3620;29925088000;26109555555;26609555555
3621;29925089000;26109555555;26609555555
3622;29966272000;26150900000;26650900000
3623;29966275000;26150900000;26650900000
3624;29966277000;26150900000;26650900000
3625;29966278000;26150900000;26650900000
3626;29966279000;26150900000;26650900000
3627;29966280000;26150900000;26650900000
3628;29966281000;26150900000;26650900000
3629;29966434000;26150922222;26650922222
3630;29966440000;26151222222;26651222222
3631;29966442000;26151222222;26651222222
3632;29966443000;26151222222;26651222222
3633;30126977000;26192566666;26692566666
3634;30126981000;26192566666;26692566666
3635;30126982000;26192566666;26692566666
3636;30126983000;26192566666;26692566666
3637;30126984000;26192566666;26692566666
3638;30126985000;26192566666;26692566666
3639;30126986000;26192566666;26692566666
3640;30127191000;26192588888;26692588888
3641;30127206000;26192877777;26692877777
3642;30127215000;26192877777;26692877777
3643;30127216000;26192877777;26692877777
3644;30166475000;26234244444;26734244444
3655;30287370000;26275911111;26775911111
3656;30287373000;26275911111;26775911111
3657;30287374000;26275911111;26775911111
3658;30287375000;26275911111;26775911111
3659;30287376000;26275911111;26775911111
3660;30287377000;26275911111;26775911111
3661;30287378000;26275911111;26775911111
3662;30287578000;26275933333;26775933333
3663;30287593000;26276233333;26776233333
3664;30287594000;26276233333;26776233333
3665;30287595000;26276233333;26776233333
3666;30326950000;26317566666;26817566666
3674;30406753000;26317900000;26817900000
3675;30406757000;26317900000;26817900000
3676;30406758000;26317900000;26817900000
3677;30447727000;26359255555;26859255555
3678;30447730000;26359255555;26859255555
3679;30447731000;26359255555;26859255555
3680;30447733000;26359255555;26859255555
3681;30447734000;26359255555;26859255555
3682;30447735000;26359255555;26859255555
3683;30447736000;26359255555;26859255555
3684;30447976000;26359266666;26859266666
3685;30447991000;26359600000;26859600000
3686;30447992000;26359600000;26859600000
3687;30447993000;26359600000;26859600000
3688;30487879000;26400911111;26900911111
3692;30487882000;26400911111;26900911111
3693;30487883000;26400911111;26900911111
3694;30487884000;26400911111;26900911111
3695;30566938000;26400933333;26900933333
3696;30566953000;26401211111;26901211111
3697;30566954000;26401211111;26901211111
3698;30566955000;26401211111;26901211111
3699;30608134000;26442577777;26942577777
3700;30608138000;26442577777;26942577777
3701;30608139000;26442577777;26942577777
3702;30608140000;26442577777;26942577777
3703;30608141000;26442577777;26942577777
3704;30608142000;26442577777;26942577777
3705;30608143000;26442577777;26942577777
3706;30608342000;26442600000;26942600000
3707;30608358000;26442855555;26942855555
3708;30608359000;26442855555;26942855555
3709;30608360000;26442855555;26942855555
3710;30647328000;26484233333;26984233333
3711;30647332000;26484233333;26984233333
3712;30647333000;26484233333;26984233333
3713;30647334000;26484233333;26984233333
3714;30647335000;26484233333;26984233333
3715;30647336000;26484233333;26984233333
3716;30647337000;26484233333;26984233333
3717;30727378000;26484255555;26984255555
3718;30727384000;26484600000;26984600000
3719;30727386000;26484600000;26984600000
3720;30727387000;26484600000;26984600000
3721;30768531000;26525911111;27025911111
3722;30768534000;26525911111;27025911111
3723;30768535000;26525911111;27025911111
3724;30768536000;26525911111;27025911111
3725;30768538000;26525911111;27025911111
3726;30768539000;26525911111;27025911111
3727;30768540000;26525911111;27025911111
3728;30768649000;26525933333;27025933333
4280;30800252000;28609644444;29109644444
4282;30890037000;28650922222;29150922222
4283;30890060000;28650922222;29150922222
4284;30890061000;28650922222;29150922222
4285;30890062000;28650922222;29150922222
4286;30890063000;28650922222;29150922222
4287;30890064000;28650922222;29150922222
4288;30890065000;28650922222;29150922222
4289;30890265000;28650933333;29150933333
4290;30890280000;28651233333;29151233333
4291;30890282000;28651233333;29151233333
4292;30890283000;28651233333;29151233333
4293;30931274000;28692577777;29192577777
4294;30931277000;28692577777;29192577777
4295;30931279000;28692577777;29192577777
4296;30931280000;28692577777;29192577777
4297;30931281000;28692577777;29192577777
4298;30931282000;28692577777;29192577777
4299;30958817000;28692577777;29192577777
4300;31050792000;28692600000;29192600000
4304;31050808000;28734255555;29234255555
4305;31050810000;28734255555;29234255555
4306;31050811000;28734255555;29234255555
4308;31092242000;28734255555;29234255555
4309;31092244000;28734255555;29234255555
4310;31092245000;28734255555;29234255555
4313;31092362000;28734600000;29234600000
4314;31092365000;28734600000;29234600000
4315;31132775000;28775911111;29275911111
4317;31132778000;28775911111;29275911111
4318;31132780000;28775911111;29275911111
4319;31132781000;28775911111;29275911111
4320;31132782000;28775911111;29275911111
4321;31132790000;28775911111;29275911111
4322;31211323000;28775933333;29275933333
4323;31211339000;28776233333;29276233333
4324;31211340000;28776233333;29276233333
4325;31211341000;28776233333;29276233333
4326;31251638000;28817588888;29317588888
4327;31251641000;28817588888;29317588888
4328;31251642000;28817588888;29317588888
4329;31251643000;28817588888;29317588888
4330;31251644000;28817588888;29317588888
4332;31252450000;28817588888;29317588888
4333;31252665000;28817600000;29317600000
4335;31252680000;28817877777;29317877777
4336;31252681000;28817877777;29317877777
4337;31292726000;28859244444;29359244444
4338;31292729000;28859244444;29359244444
4339;31292730000;28859244444;29359244444
4340;31292732000;28859244444;29359244444
4341;31292733000;28859244444;29359244444
4342;31292734000;28859244444;29359244444
4343;31292735000;28859244444;29359244444
4344;31371720000;28859266666;29359266666
4345;31371735000;28859566666;29359566666
4346;31371737000;28859566666;29359566666
4347;31371738000;28859566666;29359566666
4348;31412841000;28900911111;29400911111
4349;31412844000;28900911111;29400911111
4351;31412845000;28900911111;29400911111
4352;31412846000;28900911111;29400911111
4353;31412848000;28900911111;29400911111
4354;31412848000;28900911111;29400911111
4355;31413065000;28900933333;29400933333
4356;31413071000;28901266666;29401266666
4358;31413072000;28901266666;29401266666
4359;31573605000;28942577777;29442577777
4360;31573609000;28942577777;29442577777
4361;31573610000;28942577777;29442577777
4362;31573611000;28942577777;29442577777
4363;31573612000;28942577777;29442577777
4364;31573613000;28942577777;29442577777
4365;31573614000;28942577777;29442577777
4366;31573769000;28942600000;29442600000
4367;31573775000;28942866666;29442866666
4368;31573776000;28942866666;29442866666
4369;31573777000;28942866666;29442866666
4370;31612905000;28984244444;29484244444
4380;31692638000;28984577777;29484577777
4381;31733636000;29025911111;29525911111
4382;31733640000;29025911111;29525911111
4383;31733641000;29025911111;29525911111
4384;31733642000;29025911111;29525911111
4385;31733643000;29025911111;29525911111
4386;31733644000;29025911111;29525911111
4387;31733645000;29025911111;29525911111
4388;31733852000;29025933333;29525933333
4389;31733868000;29026233333;29526233333
4390;31733869000;29026233333;29526233333
4391;31733870000;29026233333;29526233333
4392;31773392000;29067577777;29567577777
4397;31773396000;29067577777;29567577777
4398;31773397000;29067577777;29567577777
4399;31853208000;29067600000;29567600000
4400;31853223000;29067900000;29567900000
4401;31853224000;29067900000;29567900000
4402;31853225000;29067900000;29567900000
4403;31894375000;29109244444;29609244444
4404;31894378000;29109244444;29609244444
4405;31894379000;29109244444;29609244444
4407;31894587000;29109244444;29609244444
4408;31894590000;29109244444;29609244444
4409;31894602000;29109244444;29609244444
4410;31894803000;29109266666;29609266666
4411;31894818000;29109555555;29609555555
4412;31894819000;29109555555;29609555555
4413;31894820000;29109555555;29609555555
4414;31934619000;29150922222;29650922222
4416;31934622000;29150922222;29650922222
4417;31934623000;29150922222;29650922222
4418;31934624000;29150922222;29650922222
4419;31934625000;29150922222;29650922222
4420;31934626000;29150922222;29650922222
4421;32013648000;29150944444;29650944444
4422;32013663000;29151244444;29651244444
4423;32013665000;29151244444;29651244444
4424;32013666000;29151244444;29651244444
4425;32054770000;29192566666;29692566666
4426;32054774000;29192566666;29692566666
4427;32054775000;29192566666;29692566666
4428;32054776000;29192566666;29692566666
4429;32054777000;29192566666;29692566666
4431;32054779000;29192566666;29692566666
4432;32054985000;29192588888;29692588888
4433;32055000000;29192877777;29692877777
4434;32055002000;29192877777;29692877777
4435;32055003000;29192877777;29692877777
4436;32094632000;29234233333;29734233333
4437;32094635000;29234233333;29734233333
4438;32094637000;29234233333;29734233333
4439;32094638000;29234233333;29734233333
4440;32094639000;29234233333;29734233333
4441;32094657000;29234233333;29734233333
4442;32094658000;29234233333;29734233333
4443;32174038000;29234255555;29734255555
4444;32174061000;29234577777;29734577777
4445;32174063000;29234577777;29734577777
4446;32174064000;29234577777;29734577777
4447;32215233000;29275933333;29775933333
4448;32215236000;29275933333;29775933333
4449;32215237000;29275933333;29775933333
4452;32215238000;29275933333;29775933333
4453;32215239000;29275933333;29775933333
4454;32215453000;29275955555;29775955555
4455;32215457000;29276300000;29776300000
4456;32215458000;29276300000;29776300000
4457;32215459000;29276300000;29776300000
4458;32375920000;29317577777;29817577777
4459;32375923000;29317577777;29817577777
4460;32375924000;29317577777;29817577777
4461;32375925000;29317577777;29817577777
4462;32375927000;29317577777;29817577777
4463;32375928000;29317577777;29817577777
4464;32375929000;29317577777;29817577777
4465;32376143000;29317600000;29817600000
4466;32376159000;29317911111;29817911111
4467;32376160000;29317911111;29817911111
4468;32376161000;29317911111;29817911111
4469;32415429000;29359233333;29859233333
4480;32536196000;29400900000;29900900000
4481;32536200000;29400900000;29900900000
4482;32536201000;29400900000;29900900000
4483;32536202000;29400900000;29900900000
4484;32536203000;29400900000;29900900000
4485;32536204000;29400900000;29900900000
4486;32536205000;29400900000;29900900000
4487;32536412000;29400922222;29900922222
4488;32536428000;29401200000;29901200000
4489;32536429000;29401200000;29901200000
4490;32536431000;29401200000;29901200000
4491;32575786000;29442577777;29942577777
4502;32697070000;29484244444;29984244444
4503;32697073000;29484244444;29984244444
4504;32697074000;29484244444;29984244444
4505;32697075000;29484244444;29984244444
4506;32697077000;29484244444;29984244444
4507;32697078000;29484244444;29984244444
4508;32697079000;29484244444;29984244444
4509;32697295000;29484266666;29984266666
4510;32697310000;29484555555;29984555555
4511;32697312000;29484555555;29984555555
4512;32697313000;29484555555;29984555555
4513;32736416000;29525900000;30025900000
4522;32816473000;29526233333;30026233333
4523;32816476000;29526233333;30026233333
4524;32857536000;29567588888;30067588888
4525;32857540000;29567588888;30067588888
4526;32857541000;29567588888;30067588888
4527;32857542000;29567588888;30067588888
4529;32857544000;29567588888;30067588888
4530;32857545000;29567588888;30067588888
4531;32857753000;29567611111;30067611111
4532;32857768000;29567888888;30067888888
4533;32857770000;29567888888;30067888888
4534;32857771000;29567888888;30067888888
4535;32897158000;29609244444;30109244444
4543;32976914000;29609544444;30109544444
4544;32976917000;29609544444;30109544444
4545;32976919000;29609544444;30109544444
4546;33017918000;29650911111;30150911111
4547;33017922000;29650911111;30150911111
4548;33017923000;29650911111;30150911111
4549;33017924000;29650911111;30150911111
4551;33017925000;29650911111;30150911111
4552;33017926000;29650911111;30150911111
4555;33018036000;29651211111;30151211111
4556;33018039000;29651211111;30151211111
4557;33057614000;29692566666;30192566666
4563;33057618000;29692566666;30192566666
4564;33137137000;29692588888;30192588888
4565;33137143000;29692855555;30192855555
4566;33137145000;29692855555;30192855555
4567;33137146000;29692855555;30192855555
4568;33178315000;29734244444;30234244444
4569;33178318000;29734244444;30234244444
4571;33178573000;29734244444;30234244444
4572;33178574000;29734244444;30234244444
4573;33178576000;29734244444;30234244444
4574;33178577000;29734244444;30234244444
4575;33178660000;29734266666;30234266666
4576;33178663000;29734544444;30234544444
4577;33178664000;29734544444;30234544444
4578;33178665000;29734544444;30234544444
4579;33218211000;29775911111;30275911111
4583;33218213000;29775911111;30275911111
4584;33218214000;29775911111;30275911111
4585;33218215000;29775911111;30275911111
4586;33297494000;29775933333;30275933333
4587;33297498000;29776200000;30276200000
4588;33297499000;29776200000;30276200000
4589;33297500000;29776200000;30276200000
4590;33338707000;29817577777;30317577777
4592;33339130000;29817577777;30317577777
4593;33339131000;29817577777;30317577777
4594;33339132000;29817577777;30317577777
4595;33339134000;29817577777;30317577777
4596;33339135000;29817577777;30317577777
4597;33339293000;29817600000;30317600000
4598;33339296000;29817855555;30317855555
4599;33339297000;29817855555;30317855555
4600;33339298000;29817855555;30317855555
4601;33378628000;29859244444;30359244444
4603;33378630000;29859244444;30359244444
4604;33378631000;29859244444;30359244444
4605;33378632000;29859244444;30359244444
4606;33378633000;29859244444;30359244444
4607;33378634000;29859244444;30359244444
4608;33457900000;29859255555;30359255555
4609;33457903000;29859555555;30359555555
4610;33457904000;29859555555;30359555555
4611;33457905000;29859555555;30359555555
4612;33499124000;29900900000;30400900000
4613;33499126000;29900900000;30400900000
4614;33499127000;29900900000;30400900000
4615;33499128000;29900900000;30400900000
4616;33499129000;29900900000;30400900000
4617;33499130000;29900900000;30400900000
4618;33499131000;29900900000;30400900000
4619;33499274000;29900922222;30400922222
4621;33499277000;29901222222;30401222222
4622;33499278000;29901222222;30401222222
4623;33538494000;29942588888;30442588888
4624;33538496000;29942588888;30442588888
4625;33538498000;29942588888;30442588888
4626;33538499000;29942588888;30442588888
4627;33538500000;29942588888;30442588888
4628;33538501000;29942588888;30442588888
4629;33538502000;29942588888;30442588888
4630;33618131000;29942611111;30442611111
4631;33618147000;29942866666;30442866666
4632;33618148000;29942866666;30442866666
4633;33618149000;29942866666;30442866666
4634;33659459000;29984244444;30484244444
4635;33659463000;29984244444;30484244444
4636;33659464000;29984244444;30484244444
4639;33659465000;29984244444;30484244444
4640;33659466000;29984244444;30484244444
4644;33659581000;29984555555;30484555555
4645;33699217000;30025900000;30525900000
4646;33699220000;30025900000;30525900000
4647;33699221000;30025900000;30525900000
4648;33699222000;30025900000;30525900000
4649;33699223000;30025900000;30525900000
4650;33699225000;30025900000;30525900000
4651;33699226000;30025900000;30525900000
4652;33779263000;30025922222;30525922222
4653;33779278000;30026233333;30526233333
4654;33779279000;30026233333;30526233333
4655;33779280000;30026233333;30526233333
4656;33820408000;30067566666;30567566666
4657;33820411000;30067566666;30567566666
4658;33820412000;30067566666;30567566666
4659;33820413000;30067566666;30567566666
4660;33820414000;30067566666;30567566666
4661;33820415000;30067566666;30567566666
4662;33820416000;30067566666;30567566666
4663;33820617000;30067588888;30567588888
4664;33820632000;30067900000;30567900000
4665;33820634000;30067900000;30567900000
4666;33820635000;30067900000;30567900000
4667;33978847000;30109277777;30609277777
4668;33978850000;30109277777;30609277777
4669;33978852000;30109277777;30609277777
4670;33978853000;30109277777;30609277777
4671;33978853000;30109277777;30609277777
4672;33978854000;30109277777;30609277777
4673;33978855000;30109277777;30609277777
4674;33979483000;30109300000;30609300000
4675;33979499000;30109566666;30609566666
4676;33979500000;30109566666;30609566666
4677;33979501000;30109566666;30609566666
4678;34020342000;30150911111;30650911111
4689;34141444000;30192588888;30692588888
4690;34141448000;30192588888;30692588888
4691;34141449000;30192588888;30692588888
4692;34141450000;30192588888;30692588888
4693;34141451000;30192588888;30692588888
4694;34141452000;30192588888;30692588888
4695;34141453000;30192588888;30692588888
4696;34141655000;30192611111;30692611111
4697;34141670000;30192866666;30692866666
4698;34141671000;30192866666;30692866666
4699;34141672000;30192866666;30692866666
4700;34180784000;30234366666;30734366666
4711;34302136000;30275911111;30775911111
4712;34302140000;30275911111;30775911111
4713;34302141000;30275911111;30775911111
4714;34302142000;30275911111;30775911111
4715;34302143000;30275911111;30775911111
4716;34302144000;30275911111;30775911111
4717;34302145000;30275911111;30775911111
4718;34302302000;30275933333;30775933333
4719;34302316000;30276211111;30776211111
4720;34302317000;30276211111;30776211111
4721;34302318000;30276211111;30776211111
4723;34341166000;30317566666;30817566666
4733;34462673000;30359266666;30859266666
4734;34462676000;30359266666;30859266666
4735;34462677000;30359266666;30859266666
4736;34462678000;30359266666;30859266666
4737;34462679000;30359266666;30859266666
4738;34462680000;30359266666;30859266666
4739;34462681000;30359266666;30859266666
4740;34462883000;30359277777;30859277777
4741;34462899000;30359588888;30859588888
4742;34462900000;30359588888;30859588888
4743;34462901000;30359588888;30859588888
4744;34502156000;30400911111;30900911111
4750;34502160000;30400911111;30900911111
4751;34581492000;30400933333;30900933333
4752;34581508000;30401266666;30901266666
4753;34581509000;30401266666;30901266666
4754;34581510000;30401266666;30901266666
4755;34622675000;30442577777;30942577777
4756;34622678000;30442577777;30942577777
4757;34622680000;30442577777;30942577777
4758;34622691000;30442577777;30942577777
4760;34622755000;30442577777;30942577777
4761;34622759000;30442577777;30942577777
4762;34622971000;30442600000;30942600000
4763;34622986000;30442877777;30942877777
4764;34622988000;30442877777;30942877777
4765;34622989000;30442877777;30942877777
4766;34662031000;30484233333;30984233333
4774;34742111000;30484588888;30984588888
4775;34742115000;30484588888;30984588888
4776;34742116000;30484588888;30984588888
4777;34783068000;30525911111;31025911111
4778;34783081000;30525911111;31025911111
4779;34783082000;30525911111;31025911111
4780;34783083000;30525911111;31025911111
4781;34783084000;30525911111;31025911111
4782;34783085000;30525911111;31025911111
4783;34783086000;30525911111;31025911111
4784;34783286000;30525933333;31025933333
4785;34783301000;30526255555;31026255555
4786;34783303000;30526255555;31026255555
4787;34783304000;30526255555;31026255555
4788;34822836000;30567577777;31067577777
4792;34822839000;30567577777;31067577777
4793;34822840000;30567577777;31067577777
4794;34822841000;30567577777;31067577777
4795;34902336000;30567600000;31067600000
4796;34902342000;30567900000;31067900000
4797;34902343000;30567900000;31067900000
4798;34902345000;30567900000;31067900000
4799;34943531000;30609244444;31109244444
4800;34943534000;30609244444;31109244444
4801;34943535000;30609244444;31109244444
4802;34943536000;30609244444;31109244444
4803;34943537000;30609244444;31109244444
4804;34943539000;30609244444;31109244444
4805;34943540000;30609244444;31109244444
4807;34943623000;30609588888;31109588888
4808;34943627000;30609588888;31109588888
4809;34943628000;30609588888;31109588888
4810;34983508000;30650900000;31150900000
4811;34983512000;30650900000;31150900000
4812;34983513000;30650900000;31150900000
4813;34983514000;30650900000;31150900000
4814;34983515000;30650900000;31150900000
4815;34983516000;30650900000;31150900000
4816;34983517000;30650900000;31150900000
4817;35062673000;30650922222;31150922222
4818;35062680000;30651244444;31151244444
4819;35062681000;30651244444;31151244444
4820;35062682000;30651244444;31151244444
4821;35103741000;30692577777;31192577777
4822;35103745000;30692577777;31192577777
4823;35103756000;30692577777;31192577777
4824;35103757000;30692577777;31192577777
4825;35103758000;30692577777;31192577777
4827;35103759000;30692577777;31192577777
4828;35103897000;30692600000;31192600000
5468;35134185000;33109633333;33609633333
5469;35134187000;33109633333;33609633333
5470;35224210000;33150922222;33650922222
5471;35224249000;33150922222;33650922222
5472;35224250000;33150922222;33650922222
5473;35224252000;33150922222;33650922222
5474;35224253000;33150922222;33650922222
5475;35224255000;33150922222;33650922222
5476;35224256000;33150922222;33650922222
5477;35224404000;33150944444;33650944444
5478;35224408000;33151244444;33651244444
5479;35224410000;33151244444;33651244444
5480;35224411000;33151244444;33651244444
5481;35265416000;33192577777;33692577777
5482;35265419000;33192577777;33692577777
5483;35265420000;33192577777;33692577777
5484;35265422000;33192577777;33692577777
5485;35265432000;33192577777;33692577777
5486;35265443000;33192577777;33692577777
5487;35265444000;33192577777;33692577777
5488;35385056000;33192600000;33692600000
5489;35385071000;33192877777;33692877777
5490;35385073000;33192877777;33692877777
5491;35385074000;33192877777;33692877777
5492;35426203000;33234255555;33734255555
5493;35426206000;33234255555;33734255555
5494;35426207000;33234255555;33734255555
5495;35426208000;33234255555;33734255555
5496;35426209000;33234255555;33734255555
5497;35426210000;33234255555;33734255555
5498;35426211000;33234255555;33734255555
5499;35426430000;33234277777;33734277777
