seqnum;now;rtptime;deadline
1;11833138000;11601655555;12101655555
2;11833163000;11601655555;12101655555
3;11914827000;11632688888;12132688888
11;11915005000;11633022222;12133022222
12;11915026000;11633022222;12133022222
13;11915034000;11633022222;12133022222
14;11955136000;11674344444;12174344444
22;11955289000;11674733333;12174733333
23;11955315000;11674733333;12174733333
24;11955317000;11674733333;12174733333
25;11996634000;11716000000;12216000000
33;11996829000;11716366666;12216366666
34;11996855000;11716366666;12216366666
35;11996861000;11716366666;12216366666
36;12037411000;11757677777;12257677777
44;12037564000;11758022222;12258022222
45;12037591000;11758022222;12258022222
46;12037593000;11758022222;12258022222
47;12078588000;11799333333;12299333333
55;12078782000;11799666666;12299666666
56;12078786000;11799666666;12299666666
57;12078813000;11799666666;12299666666
58;12118820000;11841000000;12341000000
60;12118874000;11841000000;12341000000
61;12118878000;11841000000;12341000000
62;12118880000;11841000000;12341000000
63;12118881000;11841000000;12341000000
64;12118883000;11841000000;12341000000
65;12119102000;11841022222;12341022222
66;12119140000;11841344444;12341344444
67;12119142000;11841344444;12341344444
68;12119144000;11841344444;12341344444
69;12157791000;11882655555;12382655555
77;12157928000;11883011111;12383011111
78;12157952000;11883011111;12383011111
79;12157954000;11883011111;12383011111
80;12196934000;11924333333;12424333333
88;12197078000;11924666666;12424666666
89;12197113000;11924666666;12424666666
90;12197114000;11924666666;12424666666
91;12235390000;11966022222;12466022222
99;12235593000;11966422222;12466422222
100;12235622000;11966422222;12466422222
101;12235624000;11966422222;12466422222
102;12273442000;12007677777;12507677777
103;12273471000;12007677777;12507677777
105;12273473000;12007677777;12507677777
106;12273474000;12007677777;12507677777
107;12273476000;12007677777;12507677777
108;12273477000;12007677777;12507677777
109;12273702000;12007700000;12507700000
110;12273740000;12007988888;12507988888
111;12273745000;12007988888;12507988888
112;12273747000;12007988888;12507988888
113;12312693000;12049333333;12549333333
121;12312874000;12049655555;12549655555
122;12312890000;12049655555;12549655555
123;12312893000;12049655555;12549655555
124;12349357000;12091000000;12591000000
132;12349474000;12091322222;12591322222
133;12349498000;12091322222;12591322222
134;12349500000;12091322222;12591322222
135;12388436000;12132666666;12632666666
143;12388598000;12132955555;12632955555
144;12388626000;12132955555;12632955555
145;12388627000;12132955555;12632955555
146;12428025000;12174333333;12674333333
154;12428147000;12174666666;12674666666
155;12428162000;12174666666;12674666666
156;12428163000;12174666666;12674666666
157;12468141000;12216000000;12716000000
165;12468239000;12216322222;12716322222
166;12468254000;12216322222;12716322222
167;12468255000;12216322222;12716322222
168;12508792000;12257677777;12757677777
176;12508910000;12258000000;12758000000
177;12508935000;12258000000;12758000000
178;12508936000;12258000000;12758000000
179;12549757000;12299333333;12799333333
187;12549873000;12299644444;12799644444
188;12549897000;12299644444;12799644444
189;12549898000;12299644444;12799644444
190;12591070000;12341000000;12841000000
198;12591187000;12341300000;12841300000
199;12591212000;12341300000;12841300000
200;12591214000;12341300000;12841300000
201;12632539000;12382677777;12882677777
209;12632670000;12382955555;12882955555
210;12632694000;12382955555;12882955555
211;12632695000;12382955555;12882955555
212;12674112000;12424333333;12924333333
220;12674229000;12424677777;12924677777
221;12674253000;12424677777;12924677777
222;12674255000;12424677777;12924677777
223;12715831000;12466000000;12966000000
231;12716024000;12466322222;12966322222
232;12716066000;12466322222;12966322222
233;12716068000;12466322222;12966322222
234;12757412000;12507666666;13007666666
236;12757441000;12507666666;13007666666
237;12757443000;12507666666;13007666666
239;12757445000;12507666666;13007666666
240;12757447000;12507666666;13007666666
241;12757676000;12507688888;13007688888
242;12757695000;12507977777;13007977777
243;12757703000;12507977777;13007977777
244;12757704000;12507977777;13007977777
245;12799068000;12549344444;13049344444
253;12799184000;12549666666;13049666666
254;12799208000;12549666666;13049666666
255;12799210000;12549666666;13049666666
256;12840710000;12591000000;13091000000
264;12840841000;12591311111;13091311111
265;12840865000;12591311111;13091311111
266;12840866000;12591311111;13091311111
267;12882376000;12632666666;13132666666
275;12882526000;12632944444;13132944444
276;12882541000;12632944444;13132944444
277;12882543000;12632944444;13132944444
278;12924060000;12674333333;13174333333
286;12924192000;12674655555;13174655555
287;12924216000;12674655555;13174655555
288;12924218000;12674655555;13174655555
289;12965697000;12716000000;13216000000
297;12965856000;12716311111;13216311111
298;12965880000;12716311111;13216311111
299;12965882000;12716311111;13216311111
300;13007361000;12757666666;13257666666
308;13007510000;12757966666;13257966666
309;13007525000;12757966666;13257966666
310;13007527000;12757966666;13257966666
311;13049037000;12799344444;13299344444
319;13049163000;12799666666;13299666666
320;13049187000;12799666666;13299666666
321;13049189000;12799666666;13299666666
322;13090711000;12841011111;13341011111
330;13090831000;12841333333;13341333333
331;13090856000;12841333333;13341333333
332;13090858000;12841333333;13341333333
333;13132358000;12882644444;13382644444
341;13132470000;12882933333;13382933333
342;13132486000;12882933333;13382933333
343;13132487000;12882933333;13382933333
344;13174060000;12924333333;13424333333
352;13174181000;12924655555;13424655555
353;13174206000;12924655555;13424655555
354;13174207000;12924655555;13424655555
355;13215701000;12966000000;13466000000
363;13215840000;12966311111;13466311111
364;13215856000;12966311111;13466311111
365;13215857000;12966311111;13466311111
366;13257336000;13007666666;13507666666
374;13257439000;13007955555;13507955555
375;13257455000;13007955555;13507955555
376;13257456000;13007955555;13507955555
377;13299029000;13049333333;13549333333
385;13299197000;13049633333;13549633333
386;13299222000;13049633333;13549633333
387;13299223000;13049633333;13549633333
388;13340622000;13091000000;13591000000
396;13340782000;13091311111;13591311111
397;13340802000;13091311111;13591311111
398;13340803000;13091311111;13591311111
399;13382372000;13132688888;13632688888
407;13382486000;13132966666;13632966666
408;13382511000;13132966666;13632966666
409;13382513000;13132966666;13632966666
410;13424188000;13174355555;13674355555
418;13424373000;13174688888;13674688888
419;13424378000;13174688888;13674688888
420;13424405000;13174688888;13674688888
421;13465719000;13216000000;13716000000
429;13465864000;13216322222;13716322222
430;13465890000;13216322222;13716322222
431;13465892000;13216322222;13716322222
432;13507492000;13257644444;13757644444
440;13507717000;13257977777;13757977777
441;13507747000;13257977777;13757977777
442;13507749000;13257977777;13757977777
443;13548862000;13299311111;13799311111
451;13549076000;13299611111;13799611111
452;13549081000;13299611111;13799611111
453;13549099000;13299611111;13799611111
454;13591826000;13340977777;13840977777
455;13591878000;13340977777;13840977777
456;13591880000;13340977777;13840977777
457;13591882000;13340977777;13840977777
458;13591885000;13340977777;13840977777
459;13591887000;13340977777;13840977777
460;13591890000;13340977777;13840977777
461;13592171000;13341000000;13841000000
462;13592222000;13341277777;13841277777
463;13592225000;13341277777;13841277777
464;13592239000;13341277777;13841277777
465;13632383000;13382633333;13882633333
473;13632530000;13382911111;13882911111
474;13632555000;13382911111;13882911111
475;13632556000;13382911111;13882911111
476;13673943000;13424300000;13924300000
484;13674026000;13424622222;13924622222
485;13674029000;13424622222;13924622222
486;13674080000;13424622222;13924622222
487;13715645000;13465966666;13965966666
495;13715761000;13466277777;13966277777
496;13715785000;13466277777;13966277777
497;13715787000;13466277777;13966277777
498;13757307000;13507633333;14007633333
506;13757439000;13507933333;14007933333
507;13757463000;13507933333;14007933333
508;13757464000;13507933333;14007933333
509;13798974000;13549300000;14049300000
517;13799133000;13549611111;14049611111
518;13799157000;13549611111;14049611111
519;13799158000;13549611111;14049611111
520;13840639000;13590966666;14090966666
528;13840789000;13591277777;14091277777
529;13840803000;13591277777;14091277777
530;13840805000;13591277777;14091277777
531;13882297000;13632633333;14132633333
539;13882395000;13632900000;14132900000
540;13882410000;13632900000;14132900000
541;13882412000;13632900000;14132900000
542;13925014000;13674300000;14174300000
550;13925193000;13674622222;14174622222
551;13925218000;13674622222;14174622222
552;13925221000;13674622222;14174622222
553;13965641000;13715966666;14215966666
560;13965859000;13715988888;14215988888
561;13965879000;13716311111;14216311111
562;13965887000;13716311111;14216311111
563;13965888000;13716311111;14216311111
564;14007345000;13757666666;14257666666
572;14007452000;13757988888;14257988888
573;14007467000;13757988888;14257988888
574;14007469000;13757988888;14257988888
575;14048986000;13799333333;14299333333
583;14049093000;13799655555;14299655555
584;14049108000;13799655555;14299655555
585;14049109000;13799655555;14299655555
586;14090673000;13841000000;14341000000
594;14090832000;13841333333;14341333333
595;14090855000;13841333333;14341333333
596;14090857000;13841333333;14341333333
597;14132350000;13882677777;14382677777
605;14132508000;13882977777;14382977777
606;14132532000;13882977777;14382977777
607;14132533000;13882977777;14382977777
608;14173997000;13924333333;14424333333
616;14174095000;13924666666;14424666666
617;14174110000;13924666666;14424666666
618;14174112000;13924666666;14424666666
619;14215675000;13966011111;14466011111
627;14215773000;13966333333;14466333333
628;14215788000;13966333333;14466333333
629;14215789000;13966333333;14466333333
630;14257321000;14007677777;14507677777
638;14257420000;14007977777;14507977777
639;14257434000;14007977777;14507977777
640;14257436000;14007977777;14507977777
641;14299011000;14049333333;14549333333
649;14299170000;14049644444;14549644444
650;14299185000;14049644444;14549644444
651;14299187000;14049644444;14549644444
652;14340675000;14091000000;14591000000
660;14340805000;14091322222;14591322222
661;14340829000;14091322222;14591322222
662;14340831000;14091322222;14591322222
663;14382363000;14132688888;14632688888
671;14382493000;14132977777;14632977777
672;14382517000;14132977777;14632977777
673;14382519000;14132977777;14632977777
674;14424001000;14174322222;14674322222
682;14424177000;14174666666;14674666666
683;14424181000;14174666666;14674666666
684;14424183000;14174666666;14674666666
685;14465655000;14215977777;14715977777
686;14465682000;14215977777;14715977777
687;14465683000;14215977777;14715977777
688;14465685000;14215977777;14715977777
689;14465686000;14215977777;14715977777
690;14465687000;14215977777;14715977777
691;14465688000;14215977777;14715977777
692;14465892000;14216000000;14716000000
693;14465920000;14216311111;14716311111
694;14465926000;14216311111;14716311111
695;14465928000;14216311111;14716311111
696;14507391000;14257644444;14757644444
704;14507538000;14257977777;14757977777
705;14507563000;14257977777;14757977777
706;14507564000;14257977777;14757977777
707;14548990000;14299311111;14799311111
715;14549155000;14299622222;14799622222
716;14549158000;14299622222;14799622222
717;14549183000;14299622222;14799622222
718;14590645000;14340966666;14840966666
726;14590762000;14341266666;14841266666
727;14590786000;14341266666;14841266666
728;14590788000;14341266666;14841266666
729;14632312000;14382633333;14882633333
737;14632428000;14382922222;14882922222
738;14632432000;14382922222;14882922222
739;14632453000;14382922222;14882922222
740;14673934000;14424300000;14924300000
748;14674009000;14424633333;14924633333
749;14674018000;14424633333;14924633333
750;14674020000;14424633333;14924633333
751;14715673000;14465966666;14965966666
759;14715813000;14466288888;14966288888
760;14715853000;14466288888;14966288888
761;14715856000;14466288888;14966288888
762;14757358000;14507633333;15007633333
770;14757497000;14507944444;15007944444
771;14757521000;14507944444;15007944444
772;14757523000;14507944444;15007944444
773;14798978000;14549300000;15049300000
781;14799105000;14549622222;15049622222
782;14799129000;14549622222;15049622222
783;14799130000;14549622222;15049622222
784;14840641000;14590966666;15090966666
792;14840775000;14591288888;15091288888
793;14840798000;14591288888;15091288888
794;14840800000;14591288888;15091288888
795;14882306000;14632633333;15132633333
803;14882478000;14632911111;15132911111
804;14882502000;14632911111;15132911111
805;14882504000;14632911111;15132911111
806;14923973000;14674300000;15174300000
813;14924159000;14674322222;15174322222
814;14924165000;14674622222;15174622222
815;14924176000;14674622222;15174622222
816;14924178000;14674622222;15174622222
817;14965639000;14715966666;15215966666
825;14965789000;14716300000;15216300000
826;14965804000;14716300000;15216300000
827;14965806000;14716300000;15216300000
828;15007330000;14757666666;15257666666
836;15007428000;14757988888;15257988888
837;15007443000;14757988888;15257988888
838;15007444000;14757988888;15257988888
839;15048997000;14799333333;15299333333
847;15049096000;14799666666;15299666666
848;15049111000;14799666666;15299666666
849;15049112000;14799666666;15299666666
850;15090653000;14841011111;15341011111
858;15090816000;14841355555;15341355555
859;15090831000;14841355555;15341355555
860;15090833000;14841355555;15341355555
861;15132416000;14882666666;15382666666
869;15132564000;14882988888;15382988888
870;15132588000;14882988888;15382988888
871;15132590000;14882988888;15382988888
872;15174011000;14924333333;15424333333
874;15174038000;14924333333;15424333333
875;15174040000;14924333333;15424333333
876;15174041000;14924333333;15424333333
877;15174057000;14924333333;15424333333
878;15174059000;14924333333;15424333333
879;15174263000;14924355555;15424355555
880;15174290000;14924666666;15424666666
881;15174297000;14924666666;15424666666
882;15174298000;14924666666;15424666666
883;15215664000;14966000000;15466000000
891;15215762000;14966322222;15466322222
892;15215777000;14966322222;15466322222
893;15215778000;14966322222;15466322222
894;15257340000;15007666666;15507666666
902;15257473000;15007977777;15507977777
903;15257497000;15007977777;15507977777
904;15257498000;15007977777;15507977777
905;15299008000;15049333333;15549333333
913;15299168000;15049666666;15549666666
914;15299191000;15049666666;15549666666
915;15299193000;15049666666;15549666666
916;15340673000;15091000000;15591000000
924;15340831000;15091333333;15591333333
925;15340855000;15091333333;15591333333
926;15340856000;15091333333;15591333333
927;15382339000;15132666666;15632666666
935;15382498000;15132966666;15632966666
936;15382521000;15132966666;15632966666
937;15382523000;15132966666;15632966666
938;15423984000;15174311111;15674311111
946;15424125000;15174666666;15674666666
947;15424139000;15174666666;15674666666
948;15424150000;15174666666;15674666666
949;15465652000;15215977777;15715977777
957;15465811000;15216322222;15716322222
958;15465835000;15216322222;15716322222
959;15465836000;15216322222;15716322222
960;15507333000;15257655555;15757655555
968;15507465000;15258011111;15758011111
969;15507489000;15258011111;15758011111
970;15507490000;15258011111;15758011111
971;15548998000;15299311111;15799311111
979;15549148000;15299633333;15799633333
980;15549162000;15299633333;15799633333
981;15549164000;15299633333;15799633333
982;15590525000;15341000000;15841000000
990;15590826000;15341322222;15841322222
991;15590850000;15341322222;15841322222
992;15590851000;15341322222;15841322222
993;15632344000;15382666666;15882666666
1001;15632493000;15382966666;15882966666
1002;15632508000;15382966666;15882966666
1003;15632509000;15382966666;15882966666
1004;15673994000;15424344444;15924344444
1012;15674149000;15424700000;15924700000
1013;15674172000;15424700000;15924700000
1014;15674174000;15424700000;15924700000
1015;15715688000;15466000000;15966000000
1023;15715812000;15466333333;15966333333
1024;15715837000;15466333333;15966333333
1025;15715838000;15466333333;15966333333
1026;15757330000;15507644444;16007644444
1034;15757446000;15507977777;16007977777
1035;15757470000;15507977777;16007977777
1036;15757471000;15507977777;16007977777
1037;15798991000;15549311111;16049311111
1045;15799140000;15549655555;16049655555
1046;15799154000;15549655555;16049655555
1047;15799156000;15549655555;16049655555
1048;15840662000;15590977777;16090977777
1056;15840792000;15591300000;16091300000
1057;15840816000;15591300000;16091300000
1058;15840818000;15591300000;16091300000
1059;15882352000;15632666666;16132666666
1067;15882526000;15632944444;16132944444
1068;15882549000;15632944444;16132944444
1069;15882551000;15632944444;16132944444
1070;15925916000;15674333333;16174333333
1078;15926077000;15674666666;16174666666
1079;15926102000;15674666666;16174666666
1080;15926104000;15674666666;16174666666
1081;15965680000;15716000000;16216000000
1089;15965811000;15716322222;16216322222
1090;15965836000;15716322222;16216322222
1091;15965837000;15716322222;16216322222
1092;16007355000;15757666666;16257666666
1100;16007487000;15757966666;16257966666
1101;16007511000;15757966666;16257966666
1102;16007513000;15757966666;16257966666
1103;16049034000;15799333333;16299333333
1111;16049222000;15799644444;16299644444
1112;16049245000;15799644444;16299644444
1113;16049247000;15799644444;16299644444
1114;16090696000;15841000000;16341000000
1120;16090720000;15841000000;16341000000
1121;16090920000;15841022222;16341022222
1122;16090927000;15841333333;16341333333
1123;16090941000;15841333333;16341333333
1124;16090942000;15841333333;16341333333
1125;16132357000;15882677777;16382677777
1133;16132455000;15882966666;16382966666
1134;16132470000;15882966666;16382966666
1135;16132471000;15882966666;16382966666
1136;16174015000;15924333333;16424333333
1144;16174125000;15924666666;16424666666
1145;16174140000;15924666666;16424666666
1146;16174141000;15924666666;16424666666
1147;16215682000;15966000000;16466000000
1155;16215780000;15966311111;16466311111
1156;16215794000;15966311111;16466311111
1157;16215796000;15966311111;16466311111
1158;16257358000;16007666666;16507666666
1166;16257488000;16007955555;16507955555
1167;16257512000;16007955555;16507955555
1168;16257513000;16007955555;16507955555
1169;16299025000;16049333333;16549333333
1177;16299189000;16049644444;16549644444
1178;16299212000;16049644444;16549644444
1179;16299214000;16049644444;16549644444
1180;16340770000;16091000000;16591000000
1188;16340921000;16091311111;16591311111
1189;16340946000;16091311111;16591311111
1190;16340948000;16091311111;16591311111
1191;16382369000;16132666666;16632666666
1199;16382486000;16132944444;16632944444
1200;16382510000;16132944444;16632944444
1201;16382512000;16132944444;16632944444
1202;16424031000;16174333333;16674333333
1210;16424151000;16174666666;16674666666
1211;16424166000;16174666666;16674666666
1212;16424167000;16174666666;16674666666
1213;16465698000;16216011111;16716011111
1221;16465796000;16216333333;16716333333
1222;16465810000;16216333333;16716333333
1223;16465812000;16216333333;16716333333
1224;16507343000;16257655555;16757655555
1232;16507440000;16257988888;16757988888
1233;16507455000;16257988888;16757988888
1234;16507456000;16257988888;16757988888
1235;16548999000;16299311111;16799311111
1243;16549097000;16299622222;16799622222
1244;16549112000;16299622222;16799622222
1245;16549113000;16299622222;16799622222
1246;16590656000;16340977777;16840977777
1254;16590753000;16341277777;16841277777
1255;16590768000;16341277777;16841277777
1256;16590769000;16341277777;16841277777
1257;16632355000;16382666666;16882666666
1265;16632452000;16382955555;16882955555
1266;16632467000;16382955555;16882955555
1267;16632469000;16382955555;16882955555
1268;16674002000;16424311111;16924311111
1276;16674128000;16424644444;16924644444
1277;16674143000;16424644444;16924644444
1278;16674144000;16424644444;16924644444
1279;16715694000;16465977777;16965977777
1287;16715808000;16466300000;16966300000
1288;16715832000;16466300000;16966300000
1289;16715843000;16466300000;16966300000
1290;16757346000;16507644444;17007644444
1298;16757461000;16507955555;17007955555
1299;16757484000;16507955555;17007955555
1300;16757486000;16507955555;17007955555
1301;16798994000;16549300000;17049300000
1309;16799100000;16549622222;17049622222
1310;16799124000;16549622222;17049622222
1311;16799125000;16549622222;17049622222
1312;16840670000;16590966666;17090966666
1320;16840800000;16591277777;17091277777
1321;16840823000;16591277777;17091277777
1322;16840825000;16591277777;17091277777
1323;16882339000;16632633333;17132633333
1331;16882513000;16632911111;17132911111
1332;16882537000;16632911111;17132911111
1333;16882538000;16632911111;17132911111
1334;16924013000;16674311111;17174311111
1342;16924170000;16674644444;17174644444
1343;16924173000;16674644444;17174644444
1344;16924175000;16674644444;17174644444
1345;16965683000;16715977777;17215977777
1353;16965859000;16716300000;17216300000
1354;16965882000;16716300000;17216300000
1355;16965884000;16716300000;17216300000
1356;17007366000;16757666666;17257666666
1364;17007541000;16757977777;17257977777
1365;17007546000;16757977777;17257977777
1366;17007547000;16757977777;17257977777
1367;17049050000;16799344444;17299344444
1374;17049315000;16799355555;17299355555
1375;17049346000;16799677777;17299677777
1376;17049347000;16799677777;17299677777
1377;17049349000;16799677777;17299677777
1378;17090692000;16841000000;17341000000
1386;17090841000;16841322222;17341322222
1387;17090856000;16841322222;17341322222
1388;17090857000;16841322222;17341322222
1389;17132480000;16882688888;17382688888
1397;17132678000;16883000000;17383000000
1398;17132683000;16883000000;17383000000
1399;17132685000;16883000000;17383000000
1400;17174031000;16924333333;17424333333
1405;17174079000;16924333333;17424333333
1406;17174081000;16924333333;17424333333
1407;17174309000;16924355555;17424355555
1408;17174347000;16924666666;17424666666
1409;17174353000;16924666666;17424666666
1410;17174354000;16924666666;17424666666
1411;17215677000;16966000000;17466000000
1419;17215780000;16966322222;17466322222
1420;17215785000;16966322222;17466322222
1421;17215786000;16966322222;17466322222
1422;17257340000;17007666666;17507666666
1428;17257359000;17007666666;17507666666
1429;17257480000;17007688888;17507688888
1430;17257495000;17007966666;17507966666
1431;17257502000;17007966666;17507966666
1432;17257503000;17007966666;17507966666
1433;17298988000;17049333333;17549333333
1441;17299103000;17049655555;17549655555
1442;17299107000;17049655555;17549655555
1443;17299109000;17049655555;17549655555
1444;17340645000;17091000000;17591000000
1447;17340672000;17091000000;17591000000
1448;17340673000;17091000000;17591000000
1449;17340675000;17091000000;17591000000
1450;17340676000;17091000000;17591000000
1451;17340878000;17091022222;17591022222
1452;17340906000;17091311111;17591311111
1453;17340914000;17091311111;17591311111
1454;17340916000;17091311111;17591311111
1455;17382337000;17132677777;17632677777
1463;17382435000;17132966666;17632966666
1464;17382449000;17132966666;17632966666
1465;17382451000;17132966666;17632966666
1466;17423977000;17174322222;17674322222
1474;17424074000;17174666666;17674666666
1475;17424089000;17174666666;17674666666
1476;17424090000;17174666666;17674666666
1477;17465629000;17215977777;17715977777
1485;17465727000;17216311111;17716311111
1486;17465742000;17216311111;17716311111
1487;17465743000;17216311111;17716311111
1488;17507136000;17257644444;17757644444
1496;17507471000;17257988888;17757988888
1497;17507475000;17257988888;17757988888
1498;17507497000;17257988888;17757988888
1499;17549039000;17299311111;17799311111
1507;17549203000;17299622222;17799622222
1508;17549229000;17299622222;17799622222
1509;17549230000;17299622222;17799622222
1510;17590467000;17340966666;17840966666
1515;17590496000;17340966666;17840966666
1516;17590497000;17340966666;17840966666
1517;17590723000;17340988888;17840988888
1518;17590750000;17341266666;17841266666
1519;17590757000;17341266666;17841266666
1520;17590758000;17341266666;17841266666
1521;17632280000;17382633333;17882633333
1529;17632438000;17382911111;17882911111
1530;17632452000;17382911111;17882911111
1531;17632454000;17382911111;17882911111
1532;17673942000;17424300000;17924300000
1540;17674011000;17424633333;17924633333
1541;17674030000;17424633333;17924633333
1542;17674031000;17424633333;17924633333
1543;17715612000;17465966666;17965966666
1551;17715732000;17466288888;17966288888
1552;17715735000;17466288888;17966288888
1553;17715760000;17466288888;17966288888
1554;17757274000;17507633333;18007633333
1562;17757389000;17507944444;18007944444
1563;17757412000;17507944444;18007944444
1564;17757414000;17507944444;18007944444
1565;17798955000;17549300000;18049300000
1573;17799023000;17549622222;18049622222
1574;17799032000;17549622222;18049622222
1575;17799034000;17549622222;18049622222
1576;17840588000;17590966666;18090966666
1584;17840685000;17591288888;18091288888
1585;17840700000;17591288888;18091288888
1586;17840701000;17591288888;18091288888
1587;17882254000;17632633333;18132633333
1592;17882269000;17632633333;18132633333
1593;17882270000;17632633333;18132633333
1594;17882389000;17632655555;18132655555
1595;17882394000;17632911111;18132911111
1596;17882406000;17632911111;18132911111
1597;17882408000;17632911111;18132911111
1598;17923918000;17674300000;18174300000
1604;17923933000;17674300000;18174300000
1605;17924088000;17674322222;18174322222
1606;17924095000;17674633333;18174633333
1607;17924109000;17674633333;18174633333
1608;17924111000;17674633333;18174633333
1609;17965562000;17715966666;18215966666
1617;17965677000;17716300000;18216300000
1618;17965701000;17716300000;18216300000
1619;17965703000;17716300000;18216300000
1620;18007293000;17757666666;18257666666
1628;18007409000;17757988888;18257988888
1629;18007434000;17757988888;18257988888
1630;18007436000;17757988888;18257988888
1631;18048959000;17799333333;18299333333
1639;18049065000;17799666666;18299666666
1640;18049080000;17799666666;18299666666
1641;18049081000;17799666666;18299666666
1642;18090632000;17841011111;18341011111
1650;18090748000;17841355555;18341355555
1651;18090771000;17841355555;18341355555
1652;18090773000;17841355555;18341355555
1653;18132282000;17882666666;18382666666
1661;18132447000;17882988888;18382988888
1662;18132470000;17882988888;18382988888
1663;18132472000;17882988888;18382988888
1664;18173909000;17924333333;18424333333
1672;18174041000;17924677777;18424677777
1673;18174059000;17924677777;18424677777
1674;18174061000;17924677777;18424677777
1675;18215616000;17966000000;18466000000
1683;18215746000;17966322222;18466322222
1684;18215769000;17966322222;18466322222
1685;18215771000;17966322222;18466322222
1686;18257296000;18007677777;18507677777
1694;18257411000;18007988888;18507988888
1695;18257435000;18007988888;18507988888
1696;18257436000;18007988888;18507988888
1697;18298950000;18049333333;18549333333
1705;18299072000;18049666666;18549666666
1706;18299096000;18049666666;18549666666
1707;18299098000;18049666666;18549666666
1708;18340748000;18091000000;18591000000
1716;18340910000;18091333333;18591333333
1717;18340936000;18091333333;18591333333
1718;18340938000;18091333333;18591333333
1719;18382293000;18132677777;18632677777
1722;18382321000;18132677777;18632677777
1723;18382323000;18132677777;18632677777
1724;18382325000;18132677777;18632677777
1725;18382326000;18132677777;18632677777
1726;18382558000;18132700000;18632700000
1727;18382595000;18132977777;18632977777
1728;18382602000;18132977777;18632977777
1729;18382603000;18132977777;18632977777
1730;18423933000;18174322222;18674322222
1738;18424031000;18174677777;18674677777
1739;18424060000;18174677777;18674677777
1740;18424061000;18174677777;18674677777
1741;18465576000;18215977777;18715977777
1749;18465672000;18216322222;18716322222
1750;18465687000;18216322222;18716322222
1751;18465689000;18216322222;18716322222
1752;18507219000;18257644444;18757644444
1760;18507381000;18257988888;18757988888
1761;18507396000;18257988888;18757988888
1762;18507397000;18257988888;18757988888
1763;18548921000;18299311111;18799311111
1771;18549040000;18299644444;18799644444
1772;18549074000;18299644444;18799644444
1773;18549085000;18299644444;18799644444
1774;18590588000;18340966666;18840966666
1781;18590766000;18340988888;18840988888
1782;18590774000;18341277777;18841277777
1783;18590788000;18341277777;18841277777
1784;18590789000;18341277777;18841277777
1785;18632225000;18382633333;18882633333
1793;18632323000;18382933333;18882933333
1794;18632338000;18382933333;18882933333
1795;18632339000;18382933333;18882933333
1796;18673892000;18424300000;18924300000
1804;18673988000;18424644444;18924644444
1805;18674003000;18424644444;18924644444
1806;18674005000;18424644444;18924644444
1807;18715565000;18465966666;18965966666
1815;18715681000;18466300000;18966300000
1816;18715706000;18466300000;18966300000
1817;18715707000;18466300000;18966300000
1818;18757307000;18507633333;19007633333
1826;18757458000;18507955555;19007955555
1827;18757462000;18507955555;19007955555
1828;18757488000;18507955555;19007955555
1829;18798748000;18549300000;19049300000
1837;18799081000;18549633333;19049633333
1838;18799104000;18549633333;19049633333
1839;18799107000;18549633333;19049633333
1840;18840564000;18590966666;19090966666
1848;18840670000;18591255555;19091255555
1849;18840685000;18591255555;19091255555
1850;18840687000;18591255555;19091255555
1851;18882221000;18632633333;19132633333
1859;18882332000;18632888888;19132888888
1860;18882351000;18632888888;19132888888
1861;18882352000;18632888888;19132888888
1862;18923895000;18674300000;19174300000
1870;18924075000;18674600000;19174600000
1871;18924098000;18674600000;19174600000
1872;18924100000;18674600000;19174600000
1873;18965562000;18715966666;19215966666
1881;18965693000;18716300000;19216300000
1882;18965716000;18716300000;19216300000
1883;18965718000;18716300000;19216300000
1884;19007264000;18757666666;19257666666
1892;19007380000;18757966666;19257966666
1893;19007403000;18757966666;19257966666
1894;19007405000;18757966666;19257966666
1895;19048940000;18799344444;19299344444
1903;19049110000;18799644444;19299644444
1904;19049133000;18799644444;19299644444
1905;19049135000;18799644444;19299644444
1906;19093585000;18841011111;19341011111
1914;19096586000;18841322222;19341322222
1915;19096626000;18841322222;19341322222
1916;19096629000;18841322222;19341322222
1917;19132306000;18882666666;19382666666
1925;19132477000;18882955555;19382955555
1926;19132502000;18882955555;19382955555
1927;19132504000;18882955555;19382955555
1928;19173922000;18924333333;19424333333
1936;19174082000;18924644444;19424644444
1937;19174107000;18924644444;19424644444
1938;19174108000;18924644444;19424644444
1939;19215604000;18966011111;19466011111
1947;19215766000;18966322222;19466322222
1948;19215790000;18966322222;19466322222
1949;19215792000;18966322222;19466322222
1950;19257266000;19007655555;19507655555
1958;19257403000;19007955555;19507955555
1959;19257422000;19007955555;19507955555
1960;19257433000;19007955555;19507955555
1961;19298925000;19049311111;19549311111
1969;19299065000;19049611111;19549611111
1970;19299089000;19049611111;19549611111
1971;19299100000;19049611111;19549611111
1972;19340586000;19090988888;19590988888
1980;19340736000;19091311111;19591311111
1981;19340740000;19091311111;19591311111
1982;19340765000;19091311111;19591311111
1983;19382244000;19132644444;19632644444
1991;19382392000;19132933333;19632933333
1992;19382417000;19132933333;19632933333
1993;19382418000;19132933333;19632933333
1994;19423916000;19174311111;19674311111
2002;19424087000;19174655555;19674655555
2003;19424111000;19174655555;19674655555
2004;19424113000;19174655555;19674655555
2005;19465585000;19215977777;19715977777
2013;19465747000;19216300000;19716300000
2014;19465771000;19216300000;19716300000
2015;19465773000;19216300000;19716300000
2016;19507203000;19257633333;19757633333
2024;19507321000;19257955555;19757955555
2025;19507342000;19257955555;19757955555
2026;19507344000;19257955555;19757955555
2027;19548950000;19299300000;19799300000
2035;19549094000;19299600000;19799600000
2036;19549096000;19299600000;19799600000
2037;19549117000;19299600000;19799600000
2038;19590610000;19340966666;19840966666
2043;19590637000;19340966666;19840966666
2044;19590647000;19340966666;19840966666
2045;19590835000;19340988888;19840988888
2046;19590862000;19341255555;19841255555
2047;19590864000;19341255555;19841255555
2048;19590865000;19341255555;19841255555
2049;19632127000;19382644444;19882644444
2051;19632154000;19382644444;19882644444
2052;19632156000;19382644444;19882644444
2053;19632157000;19382644444;19882644444
2054;19632158000;19382644444;19882644444
2055;19632173000;19382644444;19882644444
2056;19632356000;19382666666;19882666666
2057;19632380000;19382922222;19882922222
2058;19632385000;19382922222;19882922222
2059;19632396000;19382922222;19882922222
2060;19673954000;19424311111;19924311111
2068;19674100000;19424644444;19924644444
2069;19674124000;19424644444;19924644444
2070;19674126000;19424644444;19924644444
2071;19715616000;19465966666;19965966666
2079;19715779000;19466277777;19966277777
2080;19715803000;19466277777;19966277777
2081;19715805000;19466277777;19966277777
2082;19757284000;19507633333;20007633333
2090;19757446000;19507922222;20007922222
2091;19757470000;19507922222;20007922222
2092;19757472000;19507922222;20007922222
2093;19798951000;19549300000;20049300000
2101;19799039000;19549622222;20049622222
2102;19799076000;19549622222;20049622222
2103;19799078000;19549622222;20049622222
2104;19840625000;19590966666;20090966666
2112;19840786000;19591300000;20091300000
2113;19840810000;19591300000;20091300000
2114;19840812000;19591300000;20091300000
2115;19882325000;19632655555;20132655555
2123;19882488000;19632944444;20132944444
2124;19882512000;19632944444;20132944444
2125;19882513000;19632944444;20132944444
2126;19923983000;19674322222;20174322222
2134;19924137000;19674655555;20174655555
2135;19924162000;19674655555;20174655555
2136;19924164000;19674655555;20174655555
2137;19965527000;19715966666;20215966666
2145;19965792000;19716311111;20216311111
2146;19965817000;19716311111;20216311111
2147;19965818000;19716311111;20216311111
2148;20007307000;19757633333;20257633333
2156;20007469000;19757955555;20257955555
2157;20007493000;19757955555;20257955555
2158;20007495000;19757955555;20257955555
2159;20048977000;19799300000;20299300000
2167;20049126000;19799633333;20299633333
2168;20049150000;19799633333;20299633333
2169;20049151000;19799633333;20299633333
2170;20090653000;19840966666;20340966666
2178;20090818000;19841300000;20341300000
2179;20090842000;19841300000;20341300000
2180;20090844000;19841300000;20341300000
2181;20132183000;19882633333;20382633333
2189;20132475000;19882955555;20382955555
2190;20132479000;19882955555;20382955555
2191;20132480000;19882955555;20382955555
2192;20173992000;19924300000;20424300000
2196;20174019000;19924300000;20424300000
2197;20174021000;19924300000;20424300000
2198;20174022000;19924300000;20424300000
2199;20174219000;19924322222;20424322222
2200;20174247000;19924622222;20424622222
2201;20174253000;19924622222;20424622222
2202;20174254000;19924622222;20424622222
2203;20215657000;19965966666;20465966666
2211;20215819000;19966277777;20466277777
2212;20215843000;19966277777;20466277777
2213;20215844000;19966277777;20466277777
2214;20257326000;20007633333;20507633333
2222;20257459000;20007944444;20507944444
2223;20257479000;20007944444;20507944444
2224;20257480000;20007944444;20507944444
2225;20298992000;20049300000;20549300000
2233;20299130000;20049611111;20549611111
2234;20299150000;20049611111;20549611111
2235;20299151000;20049611111;20549611111
2236;20340683000;20090988888;20590988888
2244;20340829000;20091311111;20591311111
2245;20340849000;20091311111;20591311111
2246;20340850000;20091311111;20591311111
2247;20382375000;20132655555;20632655555
2255;20382513000;20132944444;20632944444
2256;20382516000;20132944444;20632944444
2257;20382526000;20132944444;20632944444
2258;20424028000;20174322222;20674322222
2266;20424168000;20174655555;20674655555
2267;20424188000;20174655555;20674655555
2268;20424190000;20174655555;20674655555
2269;20465668000;20215966666;20715966666
2277;20465806000;20216288888;20716288888
2278;20465826000;20216288888;20716288888
2279;20465827000;20216288888;20716288888
2280;20507380000;20257655555;20757655555
2288;20507520000;20258000000;20758000000
2289;20507539000;20258000000;20758000000
2290;20507551000;20258000000;20758000000
2291;20549010000;20299300000;20799300000
2299;20549171000;20299622222;20799622222
2300;20549191000;20299622222;20799622222
2301;20549193000;20299622222;20799622222
2302;20590649000;20340966666;20840966666
2310;20590758000;20341277777;20841277777
2311;20590767000;20341277777;20841277777
2312;20590768000;20341277777;20841277777
2313;20632351000;20382633333;20882633333
2321;20632514000;20382944444;20882944444
2322;20632539000;20382944444;20882944444
2323;20632540000;20382944444;20882944444
2324;20674017000;20424300000;20924300000
2332;20674182000;20424644444;20924644444
2333;20674207000;20424644444;20924644444
2334;20674208000;20424644444;20924644444
2335;20715704000;20465966666;20965966666
2343;20715841000;20466300000;20966300000
2344;20715872000;20466300000;20966300000
2345;20715874000;20466300000;20966300000
2346;20757428000;20507633333;21007633333
2353;20757678000;20507655555;21007655555
2354;20757703000;20507955555;21007955555
2355;20757705000;20507955555;21007955555
2356;20757722000;20507955555;21007955555
2357;20799024000;20549300000;21049300000
2360;20799064000;20549300000;21049300000
2361;20799066000;20549300000;21049300000
2362;20799067000;20549300000;21049300000
2363;20799068000;20549300000;21049300000
2364;20799191000;20549322222;21049322222
2365;20799214000;20549644444;21049644444
2366;20799232000;20549644444;21049644444
2367;20799234000;20549644444;21049644444
2368;20840642000;20590966666;21090966666
2376;20840748000;20591277777;21091277777
2377;20840751000;20591277777;21091277777
2378;20840752000;20591277777;21091277777
2379;20882349000;20632633333;21132633333
2380;20882382000;20632633333;21132633333
2381;20882383000;20632633333;21132633333
2382;20882385000;20632633333;21132633333
2383;20882386000;20632633333;21132633333
2384;20882387000;20632633333;21132633333
2385;20882388000;20632633333;21132633333
2386;20882533000;20632655555;21132655555
2387;20882560000;20632911111;21132911111
2388;20882561000;20632911111;21132911111
2389;20882578000;20632911111;21132911111
2390;20923821000;20674300000;21174300000
2398;20924156000;20674622222;21174622222
2399;20924159000;20674622222;21174622222
2400;20924178000;20674622222;21174622222
2401;20965703000;20715966666;21215966666
2408;20965956000;20715988888;21215988888
2409;20965963000;20716311111;21216311111
2410;20965987000;20716311111;21216311111
2411;20965989000;20716311111;21216311111
2412;21007410000;20757655555;21257655555
2420;21007558000;20757955555;21257955555
2421;21007562000;20757955555;21257955555
2422;21007563000;20757955555;21257955555
2423;21049072000;20799322222;21299322222
2425;21049100000;20799322222;21299322222
2426;21049101000;20799322222;21299322222
2427;21049102000;20799322222;21299322222
2428;21049104000;20799322222;21299322222
2429;21049105000;20799322222;21299322222
2430;21049313000;20799333333;21299333333
2431;21049342000;20799644444;21299644444
2432;21049347000;20799644444;21299644444
2433;21049348000;20799644444;21299644444
2434;21090704000;20840966666;21340966666
2442;21090866000;20841277777;21341277777
2443;21090890000;20841277777;21341277777
2444;21090892000;20841277777;21341277777
2445;21136539000;20882655555;21382655555
2453;21136738000;20882944444;21382944444
2454;21136765000;20882944444;21382944444
2455;21136767000;20882944444;21382944444
2456;21174056000;20924322222;21424322222
2464;21174218000;20924633333;21424633333
2465;21174243000;20924633333;21424633333
2466;21174245000;20924633333;21424633333
2467;21215754000;20965988888;21465988888
2475;21215903000;20966288888;21466288888
2476;21215907000;20966288888;21466288888
2477;21215908000;20966288888;21466288888
2478;21257383000;21007633333;21507633333
2486;21257533000;21007933333;21507933333
2487;21257537000;21007933333;21507933333
2488;21257538000;21007933333;21507933333
2489;21299055000;21049300000;21549300000
2492;21299082000;21049300000;21549300000
2493;21299084000;21049300000;21549300000
2494;21299089000;21049300000;21549300000
2495;21299090000;21049300000;21549300000
2496;21299296000;21049322222;21549322222
2497;21299310000;21049622222;21549622222
2498;21299319000;21049622222;21549622222
2499;21299331000;21049622222;21549622222
2500;21340709000;21090966666;21590966666
2508;21340861000;21091277777;21591277777
2509;21340881000;21091277777;21591277777
2510;21340882000;21091277777;21591277777
2511;21382399000;21132633333;21632633333
2519;21382537000;21132911111;21632911111
2520;21382549000;21132911111;21632911111
2521;21382550000;21132911111;21632911111
2522;21424063000;21174322222;21674322222
2530;21424268000;21174700000;21674700000
2531;21424287000;21174700000;21674700000
2532;21424289000;21174700000;21674700000
2533;21465736000;21215988888;21715988888
2541;21465868000;21216311111;21716311111
2542;21465888000;21216311111;21716311111
2543;21465890000;21216311111;21716311111
2544;21507403000;21257655555;21757655555
2552;21507549000;21257988888;21757988888
2553;21507569000;21257988888;21757988888
2554;21507570000;21257988888;21757988888
2555;21549056000;21299300000;21799300000
2563;21549204000;21299611111;21799611111
2564;21549224000;21299611111;21799611111
2565;21549225000;21299611111;21799611111
2566;21590715000;21340988888;21840988888
2574;21590804000;21341277777;21841277777
2575;21590823000;21341277777;21841277777
2576;21590824000;21341277777;21841277777
2577;21632388000;21382633333;21882633333
2585;21632550000;21382922222;21882922222
2586;21632574000;21382922222;21882922222
2587;21632576000;21382922222;21882922222
2588;21674063000;21424300000;21924300000
2596;21674225000;21424633333;21924633333
2597;21674250000;21424633333;21924633333
2598;21674251000;21424633333;21924633333
2599;21715728000;21465966666;21965966666
2607;21715866000;21466300000;21966300000
2608;21715886000;21466300000;21966300000
2609;21715888000;21466300000;21966300000
2610;21757392000;21507633333;22007633333
2618;21757530000;21507944444;22007944444
2619;21757550000;21507944444;22007944444
2620;21757551000;21507944444;22007944444
2621;21799077000;21549300000;22049300000
2629;21799216000;21549633333;22049633333
2630;21799236000;21549633333;22049633333
2631;21799237000;21549633333;22049633333
2632;21840720000;21590966666;22090966666
2640;21840863000;21591266666;22091266666
2641;21840865000;21591266666;22091266666
2642;21840876000;21591266666;22091266666
2643;21882386000;21632633333;22132633333
2644;21882419000;21632633333;22132633333
2645;21882420000;21632633333;22132633333
2646;21882421000;21632633333;22132633333
2647;21882422000;21632633333;22132633333
2648;21882424000;21632633333;22132633333
2649;21882425000;21632633333;22132633333
2650;21882598000;21632655555;22132655555
2651;21882624000;21632888888;22132888888
2652;21882626000;21632888888;22132888888
2653;21882642000;21632888888;22132888888
2654;21924064000;21674300000;22174300000
2662;21924172000;21674611111;22174611111
2663;21924175000;21674611111;22174611111
2664;21924195000;21674611111;22174611111
2665;21965806000;21715966666;22215966666
2673;21965981000;21716300000;22216300000
2674;21965985000;21716300000;22216300000
2675;21966010000;21716300000;22216300000
2676;22007442000;21757666666;22257666666
2684;22007606000;21757966666;22257966666
2685;22007631000;21757966666;22257966666
2686;22007632000;21757966666;22257966666
2687;22049119000;21799333333;22299333333
2695;22049279000;21799644444;22299644444
2696;22049304000;21799644444;22299644444
2697;22049305000;21799644444;22299644444
2698;22090773000;21841000000;22341000000
2706;22090935000;21841333333;22341333333
2707;22090959000;21841333333;22341333333
2708;22090961000;21841333333;22341333333
2709;22132447000;21882666666;22382666666
2717;22132611000;21882955555;22382955555
2718;22132636000;21882955555;22382955555
2719;22132637000;21882955555;22382955555
2720;22174117000;21924333333;22424333333
2728;22174279000;21924655555;22424655555
2729;22174303000;21924655555;22424655555
2730;22174304000;21924655555;22424655555
2731;22215783000;21966000000;22466000000
2739;22215933000;21966300000;22466300000
2740;22215937000;21966300000;22466300000
2741;22215938000;21966300000;22466300000
2742;22257448000;22007666666;22507666666
2743;22257483000;22007666666;22507666666
2744;22257485000;22007666666;22507666666
2745;22257486000;22007666666;22507666666
2746;22257488000;22007666666;22507666666
2747;22257489000;22007666666;22507666666
2748;22257490000;22007666666;22507666666
2749;22257708000;22007688888;22507688888
2750;22257728000;22007955555;22507955555
2751;22257744000;22007955555;22507955555
2752;22257745000;22007955555;22507955555
2753;22298956000;22049333333;22549333333
2761;22299233000;22049633333;22549633333
2762;22299236000;22049633333;22549633333
2763;22299254000;22049633333;22549633333
2764;22342023000;22091000000;22591000000
2772;22342221000;22091300000;22591300000
2773;22342242000;22091300000;22591300000
2774;22342244000;22091300000;22591300000
2775;22382445000;22132666666;22632666666
2783;22382578000;22132944444;22632944444
2784;22382598000;22132944444;22632944444
2785;22382600000;22132944444;22632944444
2786;22424128000;22174344444;22674344444
2794;22424274000;22174655555;22674655555
2795;22424294000;22174655555;22674655555
2796;22424296000;22174655555;22674655555
2797;22465797000;22216000000;22716000000
2805;22465955000;22216311111;22716311111
2806;22465975000;22216311111;22716311111
2807;22465977000;22216311111;22716311111
2808;22507449000;22257666666;22757666666
2816;22507599000;22257988888;22757988888
2817;22507619000;22257988888;22757988888
2818;22507621000;22257988888;22757988888
2819;22549129000;22299344444;22799344444
2827;22549260000;22299655555;22799655555
2828;22549280000;22299655555;22799655555
2829;22549281000;22299655555;22799655555
2830;22590749000;22340988888;22840988888
2837;22590892000;22341011111;22841011111
2838;22590896000;22341288888;22841288888
2839;22590904000;22341288888;22841288888
2840;22590906000;22341288888;22841288888
2841;22632432000;22382644444;22882644444
2849;22632593000;22382933333;22882933333
2850;22632618000;22382933333;22882933333
2851;22632619000;22382933333;22882933333
2852;22674111000;22424311111;22924311111
2860;22674208000;22424644444;22924644444
2861;22674227000;22424644444;22924644444
2862;22674228000;22424644444;22924644444
2863;22715757000;22465977777;22965977777
2871;22716051000;22466288888;22966288888
2872;22716071000;22466288888;22966288888
2873;22716073000;22466288888;22966288888
2874;22757426000;22507633333;23007633333
2882;22757559000;22507922222;23007922222
2883;22757579000;22507922222;23007922222
2884;22757580000;22507922222;23007922222
2885;22799098000;22549300000;23049300000
2893;22799236000;22549622222;23049622222
2894;22799255000;22549622222;23049622222
2895;22799257000;22549622222;23049622222
2896;22840764000;22590966666;23090966666
2904;22840925000;22591255555;23091255555
2905;22840949000;22591255555;23091255555
2906;22840951000;22591255555;23091255555
2907;22882431000;22632633333;23132633333
2915;22882592000;22632888888;23132888888
2916;22882616000;22632888888;23132888888
2917;22882618000;22632888888;23132888888
2918;22924105000;22674300000;23174300000
2926;22924265000;22674600000;23174600000
2927;22924290000;22674600000;23174600000
2928;22924291000;22674600000;23174600000
2929;22965767000;22715966666;23215966666
2937;22965928000;22716255555;23216255555
2938;22965952000;22716255555;23216255555
2939;22965954000;22716255555;23216255555
2940;23007326000;22757677777;23257677777
2948;23007583000;22757955555;23257955555
2949;23007587000;22757955555;23257955555
2950;23007609000;22757955555;23257955555
2951;23049155000;22799344444;23299344444
2959;23049303000;22799644444;23299644444
2960;23049327000;22799644444;23299644444
2961;23049329000;22799644444;23299644444
2962;23090821000;22841011111;23341011111
2970;23090984000;22841322222;23341322222
2971;23091008000;22841322222;23341322222
2972;23091010000;22841322222;23341322222
2973;23132471000;22882655555;23382655555
2981;23132601000;22882944444;23382944444
2982;23132626000;22882944444;23382944444
2983;23132628000;22882944444;23382944444
2984;23174174000;22924311111;23424311111
2992;23174313000;22924622222;23424622222
2993;23174337000;22924622222;23424622222
2994;23174339000;22924622222;23424622222
2995;23215637000;22965977777;23465977777
3003;23215908000;22966266666;23466266666
3004;23215912000;22966266666;23466266666
3005;23215938000;22966266666;23466266666
3006;23257473000;23007644444;23507644444
3014;23257573000;23007922222;23507922222
3015;23257602000;23007922222;23507922222
3016;23257604000;23007922222;23507922222
3017;23299125000;23049311111;23549311111
3025;23299257000;23049611111;23549611111
3026;23299276000;23049611111;23549611111
3027;23299278000;23049611111;23549611111
3028;23340797000;23090966666;23590966666
3036;23340898000;23091255555;23591255555
3037;23340917000;23091255555;23591255555
3038;23340928000;23091255555;23591255555
3039;23382424000;23132644444;23632644444
3047;23382534000;23132911111;23632911111
3048;23382555000;23132911111;23632911111
3049;23382567000;23132911111;23632911111
3050;23423970000;23174311111;23674311111
3058;23424283000;23174622222;23674622222
3059;23424302000;23174622222;23674622222
3060;23424304000;23174622222;23674622222
3061;23465792000;23215977777;23715977777
3069;23465923000;23216288888;23716288888
3070;23465943000;23216288888;23716288888
3071;23465944000;23216288888;23716288888
3072;23507465000;23257633333;23757633333
3080;23507565000;23257933333;23757933333
3081;23507584000;23257933333;23757933333
3082;23507595000;23257933333;23757933333
3083;23549187000;23299300000;23799300000
3091;23549318000;23299588888;23799588888
3092;23549350000;23299588888;23799588888
3093;23549358000;23299588888;23799588888
3094;23590749000;23340966666;23840966666
3102;23590853000;23341244444;23841244444
3103;23590872000;23341244444;23841244444
3104;23590873000;23341244444;23841244444
3105;23632452000;23382633333;23882633333
3113;23632571000;23382888888;23882888888
3114;23632595000;23382888888;23882888888
3115;23632596000;23382888888;23882888888
3116;23674132000;23424300000;23924300000
3124;23674252000;23424600000;23924600000
3125;23674276000;23424600000;23924600000
3126;23674277000;23424600000;23924600000
3127;23715797000;23465966666;23965966666
3135;23715897000;23466255555;23966255555
3136;23715916000;23466255555;23966255555
3137;23715927000;23466255555;23966255555
3138;23757466000;23507633333;24007633333
3146;23757566000;23507911111;24007911111
3147;23757585000;23507911111;24007911111
3148;23757596000;23507911111;24007911111
3149;23799124000;23549300000;24049300000
3157;23799268000;23549600000;24049600000
3158;23799287000;23549600000;24049600000
3159;23799289000;23549600000;24049600000
3160;23840641000;23590966666;24090966666
3168;23840937000;23591277777;24091277777
3169;23840957000;23591277777;24091277777
3170;23840958000;23591277777;24091277777
3171;23882509000;23632677777;24132677777
3179;23882609000;23632955555;24132955555
3180;23882628000;23632955555;24132955555
3181;23882640000;23632955555;24132955555
3182;23924163000;23674333333;24174333333
3190;23924262000;23674655555;24174655555
3191;23924281000;23674655555;24174655555
3192;23924292000;23674655555;24174655555
3193;23965783000;23716000000;24216000000
3201;23965866000;23716344444;24216344444
3202;23965885000;23716344444;24216344444
3203;23965886000;23716344444;24216344444
3204;24007468000;23757666666;24257666666
3212;24007614000;23757977777;24257977777
3213;24007641000;23757977777;24257977777
3214;24007643000;23757977777;24257977777
3215;24049153000;23799333333;24299333333
3223;24049297000;23799644444;24299644444
3224;24049321000;23799644444;24299644444
3225;24049323000;23799644444;24299644444
3226;24090819000;23841000000;24341000000
3234;24090938000;23841333333;24341333333
3235;24090962000;23841333333;24341333333
3236;24090963000;23841333333;24341333333
3237;24132483000;23882666666;24382666666
3245;24132625000;23882955555;24382955555
3246;24132648000;23882955555;24382955555
3247;24132650000;23882955555;24382955555
3248;24174002000;23924344444;24424344444
3256;24174303000;23924655555;24424655555
3257;24174327000;23924655555;24424655555
3258;24174328000;23924655555;24424655555
3259;24215816000;23966000000;24466000000
3267;24215960000;23966300000;24466300000
3268;24215983000;23966300000;24466300000
3269;24215985000;23966300000;24466300000
3270;24257491000;24007677777;24507677777
3278;24257617000;24007966666;24507966666
3279;24257637000;24007966666;24507966666
3280;24257638000;24007966666;24507966666
3281;24299165000;24049333333;24549333333
3289;24299264000;24049644444;24549644444
3290;24299283000;24049644444;24549644444
3291;24299284000;24049644444;24549644444
3292;24343978000;24091000000;24591000000
3300;24344115000;24091311111;24591311111
3301;24344139000;24091311111;24591311111
3302;24344142000;24091311111;24591311111
3303;24382469000;24132666666;24632666666
3311;24382608000;24132944444;24632944444
3312;24382633000;24132944444;24632944444
3313;24382634000;24132944444;24632944444
3314;24424165000;24174333333;24674333333
3318;24424191000;24174333333;24674333333
3319;24424193000;24174333333;24674333333
3320;24424194000;24174333333;24674333333
3321;24424383000;24174355555;24674355555
3322;24424403000;24174655555;24674655555
3323;24424408000;24174655555;24674655555
3324;24424410000;24174655555;24674655555
3325;24465708000;24216022222;24716022222
3333;24465998000;24216344444;24716344444
3334;24466018000;24216344444;24716344444
3335;24466029000;24216344444;24716344444
3336;24507469000;24257655555;24757655555
3344;24507594000;24257988888;24757988888
3345;24507613000;24257988888;24757988888
3346;24507615000;24257988888;24757988888
3347;24549142000;24299311111;24799311111
3355;24549243000;24299622222;24799622222
3356;24549272000;24299622222;24799622222
3357;24549274000;24299622222;24799622222
3358;24590761000;24340977777;24840977777
3366;24590845000;24341277777;24841277777
3367;24590864000;24341277777;24841277777
3368;24590865000;24341277777;24841277777
3369;24632464000;24382644444;24882644444
3377;24632585000;24382933333;24882933333
3378;24632608000;24382933333;24882933333
3379;24632610000;24382933333;24882933333
3380;24674129000;24424300000;24924300000
3388;24674249000;24424622222;24924622222
3389;24674273000;24424622222;24924622222
3390;24674274000;24424622222;24924622222
3391;24715781000;24465966666;24965966666
3399;24715913000;24466277777;24966277777
3400;24715932000;24466277777;24966277777
3401;24715934000;24466277777;24966277777
3402;24757478000;24507633333;25007633333
3410;24757588000;24507933333;25007933333
3411;24757591000;24507933333;25007933333
3412;24757612000;24507933333;25007933333
3413;24799140000;24549300000;25049300000
3416;24799167000;24549300000;25049300000
3417;24799168000;24549300000;25049300000
3418;24799170000;24549300000;25049300000
3419;24799171000;24549300000;25049300000
3420;24799407000;24549322222;25049322222
3421;24799430000;24549611111;25049611111
3422;24799432000;24549611111;25049611111
3423;24799449000;24549611111;25049611111
3424;24840795000;24590966666;25090966666
3431;24841004000;24590988888;25090988888
3432;24841024000;24591277777;25091277777
3433;24841029000;24591277777;25091277777
3434;24841030000;24591277777;25091277777
3435;24882393000;24632633333;25132633333
3443;24882475000;24632900000;25132900000
3444;24882478000;24632900000;25132900000
3445;24882479000;24632900000;25132900000
3446;24924070000;24674300000;25174300000
3447;24924093000;24674300000;25174300000
3448;24924094000;24674300000;25174300000
3449;24924095000;24674300000;25174300000
3450;24924106000;24674300000;25174300000
3451;24924107000;24674300000;25174300000
3452;24924109000;24674300000;25174300000
3453;24924226000;24674322222;25174322222
3454;24924238000;24674622222;25174622222
3455;24924251000;24674622222;25174622222
3456;24924252000;24674622222;25174622222
3457;24965710000;24715966666;25215966666
3465;24965956000;24716311111;25216311111
3466;24965960000;24716311111;25216311111
3467;24965985000;24716311111;25216311111
3468;25007499000;24757666666;25257666666
3476;25007617000;24757977777;25257977777
3477;25007642000;24757977777;25257977777
3478;25007644000;24757977777;25257977777
3479;25049161000;24799344444;25299344444
3487;25049278000;24799666666;25299666666
3488;25049302000;24799666666;25299666666
3489;25049303000;24799666666;25299666666
3490;25090829000;24841011111;25341011111
3498;25090947000;24841333333;25341333333
3499;25090972000;24841333333;25341333333
3500;25090982000;24841333333;25341333333
3501;25132329000;24882666666;25382666666
3509;25132643000;24882966666;25382966666
3510;25132647000;24882966666;25382966666
3511;25132670000;24882966666;25382966666
3512;25174149000;24924333333;25424333333
3520;25174265000;24924655555;25424655555
3521;25174289000;24924655555;25424655555
3522;25174291000;24924655555;25424655555
3523;25215817000;24966000000;25466000000
3530;25216016000;24966022222;25466022222
3531;25216033000;24966311111;25466311111
3532;25216065000;24966311111;25466311111
3533;25216067000;24966311111;25466311111
3534;25257476000;25007666666;25507666666
3542;25257606000;25007955555;25507955555
3543;25257625000;25007955555;25507955555
3544;25257627000;25007955555;25507955555
3545;25299148000;25049333333;25549333333
3553;25299279000;25049644444;25549644444
3554;25299298000;25049644444;25549644444
3555;25299299000;25049644444;25549644444
3556;25340830000;25091000000;25591000000
3564;25340930000;25091311111;25591311111
3565;25340949000;25091311111;25591311111
3566;25340960000;25091311111;25591311111
3567;25382481000;25132666666;25632666666
3575;25382606000;25132955555;25632955555
3576;25382626000;25132955555;25632955555
3577;25382627000;25132955555;25632955555
3578;25424164000;25174333333;25674333333
3586;25424264000;25174666666;25674666666
3587;25424293000;25174666666;25674666666
3588;25424294000;25174666666;25674666666
3589;25465857000;25216011111;25716011111
3597;25465966000;25216333333;25716333333
3598;25465986000;25216333333;25716333333
3599;25465997000;25216333333;25716333333
3600;25507510000;25257677777;25757677777
3608;25507613000;25258000000;25758000000
3609;25507643000;25258000000;25758000000
3610;25507644000;25258000000;25758000000
3611;25549240000;25299333333;25799333333
3619;25549424000;25299644444;25799644444
3620;25549436000;25299644444;25799644444
3621;25549458000;25299644444;25799644444
3622;25590792000;25341000000;25841000000
3624;25590828000;25341000000;25841000000
3625;25590830000;25341000000;25841000000
3626;25590831000;25341000000;25841000000
3627;25590833000;25341000000;25841000000
3628;25590834000;25341000000;25841000000
3629;25590987000;25341022222;25841022222
3630;25590997000;25341311111;25841311111
3631;25591004000;25341311111;25841311111
3632;25591005000;25341311111;25841311111
3633;25632505000;25382677777;25882677777
3641;25632649000;25382955555;25882955555
3642;25632673000;25382955555;25882955555
3643;25632674000;25382955555;25882955555
3644;25674160000;25424333333;25924333333
3652;25674275000;25424666666;25924666666
3653;25674299000;25424666666;25924666666
3654;25674301000;25424666666;25924666666
3655;25715839000;25466011111;25966011111
3663;25715968000;25466344444;25966344444
3664;25715987000;25466344444;25966344444
3665;25715988000;25466344444;25966344444
3666;25757502000;25507655555;26007655555
3674;25757601000;25507977777;26007977777
3675;25757631000;25507977777;26007977777
3676;25757632000;25507977777;26007977777
3677;25799200000;25549311111;26049311111
3685;25799300000;25549644444;26049644444
3686;25799319000;25549644444;26049644444
3687;25799330000;25549644444;26049644444
3688;25840672000;25590977777;26090977777
3696;25840925000;25591277777;26091277777
3697;25840955000;25591277777;26091277777
3698;25840956000;25591277777;26091277777
3699;25882519000;25632666666;26132666666
3707;25882618000;25632944444;26132944444
3708;25882637000;25632944444;26132944444
3709;25882649000;25632944444;26132944444
3710;25924186000;25674333333;26174333333
3717;25924388000;25674355555;26174355555
3718;25924391000;25674644444;26174644444
3719;25924410000;25674644444;26174644444
3720;25924422000;25674644444;26174644444
3721;25965924000;25716011111;26216011111
3729;25966106000;25716333333;26216333333
3730;25966131000;25716333333;26216333333
3731;25966132000;25716333333;26216333333
3732;26007352000;25757666666;26257666666
3740;26007604000;25757955555;26257955555
3741;26007631000;25757955555;26257955555
3742;26007632000;25757955555;26257955555
3743;26049196000;25799333333;26299333333
3749;26049225000;25799333333;26299333333
3750;26049426000;25799355555;26299355555
3751;26049466000;25799644444;26299644444
3752;26049471000;25799644444;26299644444
3753;26049472000;25799644444;26299644444
3754;26090856000;25841000000;26341000000
3762;26090956000;25841322222;26341322222
3763;26090975000;25841322222;26341322222
3764;26090987000;25841322222;26341322222
3765;26132494000;25882666666;26382666666
3773;26132576000;25882955555;26382955555
3774;26132587000;25882955555;26382955555
3775;26132589000;25882955555;26382955555
3776;26174162000;25924333333;26424333333
3784;26174268000;25924644444;26424644444
3785;26174270000;25924644444;26424644444
3786;26174271000;25924644444;26424644444
3787;26215705000;25966000000;26466000000
3795;26215959000;25966300000;26466300000
3796;26215971000;25966300000;26466300000
3797;26215993000;25966300000;26466300000
3798;26257523000;26007677777;26507677777
3806;26257647000;26007955555;26507955555
3807;26257667000;26007955555;26507955555
3808;26257668000;26007955555;26507955555
3809;26299179000;26049333333;26549333333
3817;26299309000;26049633333;26549633333
3818;26299328000;26049633333;26549633333
3819;26299330000;26049633333;26549633333
3820;26340864000;26091000000;26591000000
3828;26340964000;26091300000;26591300000
3829;26340982000;26091300000;26591300000
3830;26340994000;26091300000;26591300000
3831;26382543000;26132677777;26632677777
3839;26382665000;26132955555;26632955555
3840;26382690000;26132955555;26632955555
3841;26382691000;26132955555;26632955555
3842;26424173000;26174322222;26674322222
3850;26424290000;26174644444;26674644444
3851;26424314000;26174644444;26674644444
3852;26424316000;26174644444;26674644444
3853;26465847000;26215977777;26715977777
3861;26465965000;26216288888;26716288888
3862;26465989000;26216288888;26716288888
3863;26465991000;26216288888;26716288888
3864;26507512000;26257644444;26757644444
3872;26507612000;26257966666;26757966666
3873;26507631000;26257966666;26757966666
3874;26507642000;26257966666;26757966666
3875;26549179000;26299311111;26799311111
3883;26549279000;26299611111;26799611111
3884;26549299000;26299611111;26799611111
3885;26549310000;26299611111;26799611111
3886;26590788000;26340966666;26840966666
3894;26590871000;26341255555;26841255555
3895;26590890000;26341255555;26841255555
3896;26590892000;26341255555;26841255555
3897;26632491000;26382633333;26882633333
3905;26632610000;26382922222;26882922222
3906;26632634000;26382922222;26882922222
3907;26632635000;26382922222;26882922222
3908;26674159000;26424300000;26924300000
3916;26674279000;26424622222;26924622222
3917;26674303000;26424622222;26924622222
3918;26674304000;26424622222;26924622222
3919;26715823000;26465966666;26965966666
3927;26715948000;26466266666;26966266666
3928;26715968000;26466266666;26966266666
3929;26715970000;26466266666;26966266666
3930;26757568000;26507633333;27007633333
3938;26757720000;26507922222;27007922222
3939;26757750000;26507922222;27007922222
3940;26757751000;26507922222;27007922222
3941;26799159000;26549300000;27049300000
3944;26799186000;26549300000;27049300000
3945;26799187000;26549300000;27049300000
3946;26799189000;26549300000;27049300000
3947;26799190000;26549300000;27049300000
3948;26799407000;26549322222;27049322222
3949;26799438000;26549600000;27049600000
3950;26799443000;26549600000;27049600000
3951;26799444000;26549600000;27049600000
3952;26840843000;26590966666;27090966666
3960;26840918000;26591255555;27091255555
3961;26840937000;26591255555;27091255555
3962;26840938000;26591255555;27091255555
3963;26882496000;26632633333;27132633333
3971;26882568000;26632900000;27132900000
3972;26882579000;26632900000;27132900000
3973;26882581000;26632900000;27132900000
3974;26924148000;26674300000;27174300000
3982;26924253000;26674611111;27174611111
3983;26924255000;26674611111;27174611111
3984;26924274000;26674611111;27174611111
3985;26965777000;26715966666;27215966666
3993;26965859000;26716277777;27216277777
3994;26965861000;26716277777;27216277777
3995;26965871000;26716277777;27216277777
3996;27007534000;26757666666;27257666666
4004;27007662000;26757966666;27257966666
4005;27007666000;26757966666;27257966666
4006;27007691000;26757966666;27257966666
4007;27049202000;26799333333;27299333333
4015;27049340000;26799644444;27299644444
4016;27049364000;26799644444;27299644444
4017;27049365000;26799644444;27299644444
4018;27090887000;26841000000;27341000000
4026;27091005000;26841311111;27341311111
4027;27091030000;26841311111;27341311111
4028;27091031000;26841311111;27341311111
4029;27132540000;26882666666;27382666666
4037;27132658000;26882966666;27382966666
4038;27132682000;26882966666;27382966666
4039;27132683000;26882966666;27382966666
4040;27174276000;26924333333;27424333333
4048;27174420000;26924655555;27424655555
4049;27174446000;26924655555;27424655555
4050;27174447000;26924655555;27424655555
4051;27215874000;26966000000;27466000000
4059;27216011000;26966300000;27466300000
4060;27216035000;26966300000;27466300000
4061;27216037000;26966300000;27466300000
4062;27257557000;27007666666;27507666666
4070;27257656000;27007955555;27507955555
4071;27257686000;27007955555;27507955555
4072;27257687000;27007955555;27507955555
4073;27299207000;27049333333;27549333333
4081;27299338000;27049633333;27549633333
4082;27299358000;27049633333;27549633333
4083;27299359000;27049633333;27549633333
4084;27340891000;27091000000;27591000000
4092;27340990000;27091322222;27591322222
4093;27341009000;27091322222;27591322222
4094;27341020000;27091322222;27591322222
4095;27382558000;27132666666;27632666666
4103;27382657000;27132944444;27632944444
4104;27382676000;27132944444;27632944444
4105;27382687000;27132944444;27632944444
4106;27424225000;27174333333;27674333333
4114;27424324000;27174655555;27674655555
4115;27424343000;27174655555;27674655555
4116;27424355000;27174655555;27674655555
4117;27465888000;27216011111;27716011111
4125;27466016000;27216322222;27716322222
4126;27466035000;27216322222;27716322222
4127;27466037000;27216322222;27716322222
4128;27507553000;27257666666;27757666666
4136;27507679000;27257988888;27757988888
4137;27507698000;27257988888;27757988888
4138;27507700000;27257988888;27757988888
4139;27549241000;27299344444;27799344444
4147;27549341000;27299655555;27799655555
4148;27549360000;27299655555;27799655555
4149;27549371000;27299655555;27799655555
4150;27590827000;27340988888;27840988888
4158;27590914000;27341288888;27841288888
4159;27590933000;27341288888;27841288888
4160;27590935000;27341288888;27841288888
4161;27632518000;27382644444;27882644444
4169;27632650000;27382933333;27882933333
4170;27632654000;27382933333;27882933333
4171;27632656000;27382933333;27882933333
4172;27674195000;27424311111;27924311111
4174;27674223000;27424311111;27924311111
4175;27674225000;27424311111;27924311111
4176;27674226000;27424311111;27924311111
4177;27674227000;27424311111;27924311111
4178;27674228000;27424311111;27924311111
4179;27674460000;27424333333;27924333333
4180;27674498000;27424644444;27924644444
4181;27674504000;27424644444;27924644444
4182;27674505000;27424644444;27924644444
4183;27715857000;27465977777;27965977777
4191;27715986000;27466288888;27966288888
4192;27716006000;27466288888;27966288888
4193;27716007000;27466288888;27966288888
4194;27757530000;27507633333;28007633333
4202;27757630000;27507922222;28007922222
4203;27757649000;27507922222;28007922222
4204;27757660000;27507922222;28007922222
4205;27799042000;27549300000;28049300000
4213;27799318000;27549622222;28049622222
4214;27799330000;27549622222;28049622222
4215;27799339000;27549622222;28049622222
4216;27840816000;27590966666;28090966666
4224;27840899000;27591288888;28091288888
4225;27840919000;27591288888;28091288888
4226;27840920000;27591288888;28091288888
4227;27882554000;27632666666;28132666666
4235;27882673000;27632955555;28132955555
4236;27882697000;27632955555;28132955555
4237;27882698000;27632955555;28132955555
4238;27924220000;27674333333;28174333333
4246;27924340000;27674666666;28174666666
4247;27924363000;27674666666;28174666666
4248;27924365000;27674666666;28174666666
4249;27965797000;27716000000;28216000000
4257;27965950000;27716300000;28216300000
4258;27965954000;27716300000;28216300000
4259;27965955000;27716300000;28216300000
4260;28007554000;27757666666;28257666666
4261;28007581000;27757666666;28257666666
4262;28007599000;27757666666;28257666666
4263;28007601000;27757666666;28257666666
4264;28007612000;27757666666;28257666666
4265;28007613000;27757666666;28257666666
4266;28007614000;27757666666;28257666666
4267;28007807000;27757688888;28257688888
4268;28007834000;27757977777;28257977777
4269;28007841000;27757977777;28257977777
4270;28007843000;27757977777;28257977777
4271;28049218000;27799333333;28299333333
4279;28049363000;27799666666;28299666666
4280;28049387000;27799666666;28299666666
4281;28049389000;27799666666;28299666666
4282;28090886000;27841000000;28341000000
4290;28090981000;27841344444;28341344444
4291;28091000000;27841344444;28341344444
4292;28091002000;27841344444;28341344444
4293;28132555000;27882666666;28382666666
4301;28132699000;27882977777;28382977777
4302;28132727000;27882977777;28382977777
4303;28132729000;27882977777;28382977777
4304;28174234000;27924333333;28424333333
4312;28174371000;27924666666;28424666666
4313;28174395000;27924666666;28424666666
4314;28174397000;27924666666;28424666666
4315;28215888000;27966000000;28466000000
4323;28216006000;27966311111;28466311111
4324;28216031000;27966311111;28466311111
4325;28216033000;27966311111;28466311111
4326;28257552000;28007666666;28507666666
4334;28257684000;28007966666;28507966666
4335;28257704000;28007966666;28507966666
4336;28257705000;28007966666;28507966666
4337;28299218000;28049333333;28549333333
4345;28299348000;28049655555;28549655555
4346;28299367000;28049655555;28549655555
4347;28299369000;28049655555;28549655555
4348;28340878000;28091000000;28591000000
4356;28340983000;28091322222;28591322222
4357;28341003000;28091322222;28591322222
4358;28341014000;28091322222;28591322222
4359;28382621000;28132666666;28632666666
4367;28382751000;28132955555;28632955555
4368;28382783000;28132955555;28632955555
4369;28382784000;28132955555;28632955555
4370;28424236000;28174333333;28674333333
4378;28424340000;28174666666;28674666666
4379;28424360000;28174666666;28674666666
4380;28424361000;28174666666;28674666666
4381;28465886000;28216000000;28716000000
4389;28466017000;28216322222;28716322222
4390;28466037000;28216322222;28716322222
4391;28466038000;28216322222;28716322222
4392;28507552000;28257666666;28757666666
4400;28507677000;28258000000;28758000000
4401;28507697000;28258000000;28758000000
4402;28507698000;28258000000;28758000000
4403;28549237000;28299333333;28799333333
4411;28549336000;28299644444;28799644444
4412;28549366000;28299644444;28799644444
4413;28549367000;28299644444;28799644444
4414;28590868000;28341011111;28841011111
4421;28591009000;28341033333;28841033333
4422;28591013000;28341333333;28841333333
4423;28591022000;28341333333;28841333333
4424;28591033000;28341333333;28841333333
4425;28632546000;28382655555;28882655555
4433;28632684000;28382955555;28882955555
4434;28632708000;28382955555;28882955555
4435;28632710000;28382955555;28882955555
4436;28674218000;28424311111;28924311111
4444;28674295000;28424666666;28924666666
4445;28674314000;28424666666;28924666666
4446;28674316000;28424666666;28924666666
4447;28715867000;28465977777;28965977777
4455;28715992000;28466300000;28966300000
4456;28716012000;28466300000;28966300000
4457;28716013000;28466300000;28966300000
4458;28757548000;28507644444;29007644444
4466;28757648000;28507955555;29007955555
4467;28757668000;28507955555;29007955555
4468;28757679000;28507955555;29007955555
4469;28799205000;28549300000;29049300000
4477;28799304000;28549633333;29049633333
4478;28799323000;28549633333;29049633333
4479;28799335000;28549633333;29049633333
4480;28840700000;28590966666;29090966666
4488;28840961000;28591255555;29091255555
4489;28840981000;28591255555;29091255555
4490;28840982000;28591255555;29091255555
4491;28882523000;28632633333;29132633333
4499;28882649000;28632900000;29132900000
4500;28882668000;28632900000;29132900000
4501;28882670000;28632900000;29132900000
4502;28924158000;28674300000;29174300000
4510;28924241000;28674600000;29174600000
4511;28924260000;28674600000;29174600000
4512;28924262000;28674600000;29174600000
4513;28965861000;28715966666;29215966666
4521;28965980000;28716266666;29216266666
4522;28966012000;28716266666;29216266666
4523;28966014000;28716266666;29216266666
4524;29007559000;28757666666;29257666666
4532;29007678000;28757955555;29257955555
4533;29007702000;28757955555;29257955555
4534;29007704000;28757955555;29257955555
4535;29049238000;28799344444;29299344444
4541;29049262000;28799344444;29299344444
4542;29049445000;28799366666;29299366666
4543;29049462000;28799644444;29299644444
4544;29049485000;28799644444;29299644444
4545;29049487000;28799644444;29299644444
4546;29090940000;28841011111;29341011111
4554;29091068000;28841311111;29341311111
4555;29091092000;28841311111;29341311111
4556;29091093000;28841311111;29341311111
4557;29132577000;28882666666;29382666666
4565;29132653000;28882955555;29382955555
4566;29132673000;28882955555;29382955555
4567;29132674000;28882955555;29382955555
4568;29174150000;28924333333;29424333333
4576;29174295000;28924644444;29424644444
4577;29174319000;28924644444;29424644444
4578;29174321000;28924644444;29424644444
4579;29215764000;28966022222;29466022222
4587;29216077000;28966322222;29466322222
4588;29216102000;28966322222;29466322222
4589;29216103000;28966322222;29466322222
4590;29257558000;29007666666;29507666666
4598;29257684000;29007944444;29507944444
4599;29257704000;29007944444;29507944444
4600;29257705000;29007944444;29507944444
4601;29299225000;29049333333;29549333333
4609;29299350000;29049622222;29549622222
4610;29299370000;29049622222;29549622222
4611;29299371000;29049622222;29549622222
4612;29340908000;29091000000;29591000000
4620;29341008000;29091300000;29591300000
4621;29341028000;29091300000;29591300000
4622;29341039000;29091300000;29591300000
4623;29382572000;29132666666;29632666666
4631;29382675000;29132933333;29632933333
4632;29382695000;29132933333;29632933333
4633;29382707000;29132933333;29632933333
4634;29424248000;29174355555;29674355555
4642;29424380000;29174666666;29674666666
4643;29424399000;29174666666;29674666666
4644;29424400000;29174666666;29674666666
4645;29465897000;29215988888;29715988888
4653;29465996000;29216300000;29716300000
4654;29466025000;29216300000;29716300000
4655;29466027000;29216300000;29716300000
4656;29507551000;29257644444;29757644444
4664;29507656000;29257955555;29757955555
4665;29507675000;29257955555;29757955555
4666;29507687000;29257955555;29757955555
4667;29554174000;29299311111;29799311111
4675;29554368000;29299611111;29799611111
4676;29554392000;29299611111;29799611111
4677;29554394000;29299611111;29799611111
4678;29590848000;29340977777;29840977777
4686;29590948000;29341266666;29841266666
4687;29590967000;29341266666;29841266666
4688;29590979000;29341266666;29841266666
4689;29632529000;29382633333;29882633333
4697;29632648000;29382900000;29882900000
4698;29632676000;29382900000;29882900000
4699;29632677000;29382900000;29882900000
4700;29674199000;29424300000;29924300000
4708;29674319000;29424600000;29924600000
4709;29674343000;29424600000;29924600000
4710;29674345000;29424600000;29924600000
4711;29715864000;29465966666;29965966666
4719;29716002000;29466255555;29966255555
4720;29716025000;29466255555;29966255555
4721;29716027000;29466255555;29966255555
4722;29757531000;29507633333;30007633333
4730;29757650000;29507911111;30007911111
4731;29757675000;29507911111;30007911111
4732;29757676000;29507911111;30007911111
4733;29799230000;29549300000;30049300000
4741;29799371000;29549600000;30049600000
4742;29799395000;29549600000;30049600000
4743;29799397000;29549600000;30049600000
4744;29840865000;29590966666;30090966666
4752;29840983000;29591277777;30091277777
4753;29841009000;29591277777;30091277777
4754;29841011000;29591277777;30091277777
4755;29882389000;29632644444;30132644444
4760;29882414000;29632644444;30132644444
4761;29882416000;29632644444;30132644444
4762;29882607000;29632666666;30132666666
4763;29882645000;29633022222;30133022222
4764;29882647000;29633022222;30133022222
4765;29882664000;29633022222;30133022222
4766;29924208000;29674300000;30174300000
4774;29924472000;29674744444;30174744444
4775;29924496000;29674744444;30174744444
4776;29924498000;29674744444;30174744444
4777;29965823000;29715977777;30215977777
4785;29966173000;29716411111;30216411111
4786;29966177000;29716411111;30216411111
4787;29966178000;29716411111;30216411111
4788;30007540000;29757644444;30257644444
4789;30007566000;29757644444;30257644444
4790;30007568000;29757644444;30257644444
4791;30007569000;29757644444;30257644444
4792;30007570000;29757644444;30257644444
4793;30007582000;29757644444;30257644444
4794;30007583000;29757644444;30257644444
4795;30007801000;29757666666;30257666666
4796;30007822000;29758044444;30258044444
4797;30007836000;29758044444;30258044444
4798;30007837000;29758044444;30258044444
4799;30049225000;29799311111;30299311111
4807;30049457000;29799744444;30299744444
4808;30049477000;29799744444;30299744444
4809;30049488000;29799744444;30299744444
4810;30090892000;29840977777;30340977777
4818;30091117000;29841400000;30341400000
4819;30091147000;29841400000;30341400000
4820;30091148000;29841400000;30341400000
4821;30132534000;29882644444;30382644444
4829;30132702000;29883033333;30383033333
4830;30132714000;29883033333;30383033333
4831;30132715000;29883033333;30383033333
4832;30174180000;29924311111;30424311111
4840;30174445000;29924733333;30424733333
4841;30174447000;29924733333;30424733333
4842;30174477000;29924733333;30424733333
4843;30215893000;29965977777;30465977777
4851;30216100000;29966377777;30466377777
4852;30216119000;29966377777;30466377777
4853;30216130000;29966377777;30466377777
4854;30257545000;30007644444;30507644444
4862;30257761000;30008044444;30508044444
4863;30257780000;30008044444;30508044444
4864;30257782000;30008044444;30508044444
4865;30299211000;30049311111;30549311111
4873;30299440000;30049722222;30549722222
4874;30299450000;30049722222;30549722222
4875;30299461000;30049722222;30549722222
4876;30340875000;30090977777;30590977777
4884;30341112000;30091388888;30591388888
4885;30341132000;30091388888;30591388888
4886;30341133000;30091388888;30591388888
4887;30382617000;30132644444;30632644444
4895;30382762000;30133022222;30633022222
4896;30382788000;30133022222;30633022222
4897;30382789000;30133022222;30633022222
4898;30424217000;30174311111;30674311111
4904;30424244000;30174311111;30674311111
4905;30424483000;30174333333;30674333333
4906;30424510000;30174744444;30674744444
4907;30424528000;30174744444;30674744444
4908;30424530000;30174744444;30674744444
4909;30465883000;30215977777;30715977777
4917;30466135000;30216400000;30716400000
4918;30466159000;30216400000;30716400000
4919;30466160000;30216400000;30716400000
4920;30507547000;30257644444;30757644444
4928;30507798000;30258077777;30758077777
4929;30507817000;30258077777;30758077777
4930;30507819000;30258077777;30758077777
4931;30549228000;30299311111;30799311111
4939;30549430000;30299722222;30799722222
4940;30549450000;30299722222;30799722222
4941;30549451000;30299722222;30799722222
4942;30590855000;30340977777;30840977777
4950;30591065000;30341377777;30841377777
4951;30591084000;30341377777;30841377777
4952;30591086000;30341377777;30841377777
4953;30632546000;30382644444;30882644444
4961;30632687000;30383022222;30883022222
4962;30632711000;30383022222;30883022222
4963;30632713000;30383022222;30883022222
4964;30674214000;30424311111;30924311111
4972;30674489000;30424755555;30924755555
4973;30674513000;30424755555;30924755555
4974;30674514000;30424755555;30924755555
4975;30715882000;30465977777;30965977777
4983;30716128000;30466400000;30966400000
4984;30716148000;30466400000;30966400000
4985;30716149000;30466400000;30966400000
4986;30758731000;30507644444;31007644444
4994;30758913000;30508055555;31008055555
4995;30758925000;30508055555;31008055555
4996;30758927000;30508055555;31008055555
4997;30799212000;30549311111;31049311111
5005;30799508000;30549755555;31049755555
5006;30799528000;30549755555;31049755555
5007;30799529000;30549755555;31049755555
5008;30840884000;30590977777;31090977777
5016;30841110000;30591377777;31091377777
5017;30841130000;30591377777;31091377777
5018;30841131000;30591377777;31091377777
5019;30882547000;30632644444;31132644444
5027;30882676000;30633011111;31133011111
5028;30882696000;30633011111;31133011111
5029;30882697000;30633011111;31133011111
5030;30924206000;30674311111;31174311111
5038;30924453000;30674733333;31174733333
5039;30924484000;30674733333;31174733333
5040;30924486000;30674733333;31174733333
5041;30965887000;30715977777;31215977777
5049;30966124000;30716388888;31216388888
5050;30966157000;30716388888;31216388888
5051;30966159000;30716388888;31216388888
5052;31007500000;30757644444;31257644444
5060;31007813000;30758044444;31258044444
5061;31007817000;30758044444;31258044444
5062;31007818000;30758044444;31258044444
5063;31049221000;30799311111;31299311111
5071;31049450000;30799733333;31299733333
5072;31049474000;30799733333;31299733333
5073;31049475000;30799733333;31299733333
5074;31090886000;30840977777;31340977777
5082;31091115000;30841377777;31341377777
5083;31091139000;30841377777;31341377777
5084;31091141000;30841377777;31341377777
5085;31132557000;30882644444;31382644444
5093;31132772000;30883033333;31383033333
5094;31132776000;30883033333;31383033333
5095;31132777000;30883033333;31383033333
5096;31174169000;30924311111;31424311111
5104;31174464000;30924722222;31424722222
5105;31174468000;30924722222;31424722222
5106;31174469000;30924722222;31424722222
5107;31215890000;30965977777;31465977777
5108;31215917000;30965977777;31465977777
5109;31215919000;30965977777;31465977777
5110;31215920000;30965977777;31465977777
5111;31215921000;30965977777;31465977777
5112;31215933000;30965977777;31465977777
5113;31215934000;30965977777;31465977777
5114;31216176000;30966000000;31466000000
5115;31216214000;30966377777;31466377777
5116;31216219000;30966377777;31466377777
5117;31216221000;30966377777;31466377777
5118;31257553000;31007644444;31507644444
5126;31257749000;31008022222;31508022222
5127;31257769000;31008022222;31508022222
5128;31257770000;31008022222;31508022222
5129;31299238000;31049311111;31549311111
5137;31299436000;31049711111;31549711111
5138;31299455000;31049711111;31549711111
5139;31299467000;31049711111;31549711111
5140;31340881000;31090977777;31590977777
5148;31341098000;31091377777;31591377777
5149;31341110000;31091377777;31591377777
5150;31341112000;31091377777;31591377777
5151;31382555000;31132644444;31632644444
5153;31382581000;31132644444;31632644444
5154;31382583000;31132644444;31632644444
5155;31382584000;31132644444;31632644444
5156;31382585000;31132644444;31632644444
5157;31382586000;31132644444;31632644444
5158;31382802000;31132666666;31632666666
5159;31382823000;31133011111;31633011111
5160;31382837000;31133011111;31633011111
5161;31382839000;31133011111;31633011111
5162;31424238000;31174311111;31674311111
5170;31424459000;31174733333;31674733333
5171;31424478000;31174733333;31674733333
5172;31424490000;31174733333;31674733333
5173;31465905000;31215977777;31715977777
5181;31466117000;31216411111;31716411111
5182;31466147000;31216411111;31716411111
5183;31466148000;31216411111;31716411111
5184;31507552000;31257644444;31757644444
5192;31507806000;31258077777;31758077777
5193;31507825000;31258077777;31758077777
5194;31507827000;31258077777;31758077777
5195;31549230000;31299311111;31799311111
5203;31549428000;31299711111;31799711111
5204;31549448000;31299711111;31799711111
5205;31549450000;31299711111;31799711111
5206;31590914000;31340977777;31840977777
5214;31591011000;31341366666;31841366666
5215;31591014000;31341366666;31841366666
5216;31591035000;31341366666;31841366666
5217;31632560000;31382644444;31882644444
5222;31632589000;31382644444;31882644444
5223;31632590000;31382644444;31882644444
5224;31632780000;31382666666;31882666666
5225;31632820000;31383011111;31883011111
5226;31632837000;31383011111;31883011111
5227;31632838000;31383011111;31883011111
5228;31674227000;31424311111;31924311111
5236;31674418000;31424733333;31924733333
5237;31674437000;31424733333;31924733333
5238;31674439000;31424733333;31924733333
5239;31715738000;31465977777;31965977777
5247;31716158000;31466388888;31966388888
5248;31716185000;31466388888;31966388888
5249;31716187000;31466388888;31966388888
5250;31757561000;31507644444;32007644444
5258;31757776000;31508033333;32008033333
5259;31757801000;31508033333;32008033333
5260;31757802000;31508033333;32008033333
5261;31799263000;31549311111;32049311111
5269;31799401000;31549733333;32049733333
5270;31799425000;31549733333;32049733333
5271;31799427000;31549733333;32049733333
5272;31840895000;31590977777;32090977777
5280;31841072000;31591377777;32091377777
5281;31841075000;31591377777;32091377777
5282;31841095000;31591377777;32091377777
5283;31882561000;31632644444;32132644444
5291;31882648000;31633011111;32133011111
5292;31882650000;31633011111;32133011111
5293;31882651000;31633011111;32133011111
5294;31924228000;31674311111;32174311111
5295;31924255000;31674311111;32174311111
5296;31924256000;31674311111;32174311111
5297;31924257000;31674311111;32174311111
5298;31924259000;31674311111;32174311111
5299;31924260000;31674311111;32174311111
5300;31924261000;31674311111;32174311111
5301;31924487000;31674333333;32174333333
5302;31924515000;31674733333;32174733333
5303;31924532000;31674733333;32174733333
5304;31924533000;31674733333;32174733333
5305;31965972000;31715977777;32215977777
5313;31966163000;31716388888;32216388888
5314;31966188000;31716388888;32216388888
5315;31966190000;31716388888;32216388888
5316;32007559000;31757644444;32257644444
5320;32007586000;31757644444;32257644444
5321;32007588000;31757644444;32257644444
5322;32007590000;31757644444;32257644444
5323;32007816000;31757666666;32257666666
5324;32007845000;31758044444;32258044444
5325;32007862000;31758044444;32258044444
5326;32007863000;31758044444;32258044444
5327;32049228000;31799311111;32299311111
5335;32049420000;31799733333;32299733333
5336;32049439000;31799733333;32299733333
5337;32049440000;31799733333;32299733333
5338;32090838000;31840977777;32340977777
5346;32091174000;31841400000;32341400000
5347;32091202000;31841400000;32341400000
5348;32091203000;31841400000;32341400000
5349;32132560000;31882644444;32382644444
5357;32132771000;31883033333;32383033333
5358;32132795000;31883033333;32383033333
5359;32132796000;31883033333;32383033333
5360;32174212000;31924300000;32424300000
5368;32174491000;31924711111;32424711111
5369;32174523000;31924711111;32424711111
5370;32174524000;31924711111;32424711111
5371;32215838000;31965977777;32465977777
5379;32216136000;31966377777;32466377777
5380;32216140000;31966377777;32466377777
5381;32216141000;31966377777;32466377777
5382;32257574000;32007644444;32507644444
5383;32257601000;32007644444;32507644444
5384;32257603000;32007644444;32507644444
5385;32257604000;32007644444;32507644444
5386;32257605000;32007644444;32507644444
5387;32257607000;32007644444;32507644444
5388;32257608000;32007644444;32507644444
5389;32257829000;32007666666;32507666666
5390;32257850000;32008033333;32508033333
5391;32257864000;32008033333;32508033333
5392;32257865000;32008033333;32508033333
5393;32299242000;32049311111;32549311111
5401;32299451000;32049722222;32549722222
5402;32299470000;32049722222;32549722222
5403;32299481000;32049722222;32549722222
5404;32340930000;32091000000;32591000000
5412;32341030000;32091322222;32591322222
5413;32341066000;32091322222;32591322222
5414;32341068000;32091322222;32591322222
5415;32382598000;32132666666;32632666666
5423;32382697000;32132955555;32632955555
5424;32382716000;32132955555;32632955555
5425;32382728000;32132955555;32632955555
5426;32424263000;32174333333;32674333333
5434;32424364000;32174666666;32674666666
5435;32424383000;32174666666;32674666666
5436;32424394000;32174666666;32674666666
5437;32465931000;32216000000;32716000000
5445;32466030000;32216322222;32716322222
5446;32466068000;32216322222;32716322222
5447;32466069000;32216322222;32716322222
5448;32507598000;32257666666;32757666666
5456;32507698000;32258000000;32758000000
5457;32507716000;32258000000;32758000000
5458;32507728000;32258000000;32758000000
5459;32549275000;32299344444;32799344444
5467;32549375000;32299666666;32799666666
5468;32549395000;32299666666;32799666666
5469;32549405000;32299666666;32799666666
5470;32590896000;32341011111;32841011111
5478;32590980000;32341333333;32841333333
5479;32590999000;32341333333;32841333333
5480;32591000000;32341333333;32841333333
5481;32632585000;32382655555;32882655555
5489;32632710000;32382955555;32882955555
5490;32632738000;32382955555;32882955555
5491;32632739000;32382955555;32882955555
5492;32674265000;32424311111;32924311111
5493;32674271000;32424311111;32924311111
5494;32674273000;32424311111;32924311111
5495;32674274000;32424311111;32924311111
5496;32674275000;32424311111;32924311111
5497;32674277000;32424311111;32924311111
5498;32674278000;32424311111;32924311111
5499;32674482000;32424333333;32924333333
