seqnum;now;rtptime;deadline
0;16122237000;15782000000;16282000000
1;16122244000;15782000000;16282000000
2;16122245000;15782000000;16282000000
3;16153201000;15813166666;16313166666
4;16192124000;15813166666;16313166666
5;16192128000;15813166666;16313166666
6;16192159000;15813166666;16313166666
7;16192162000;15813166666;16313166666
8;16192175000;15813166666;16313166666
9;16193037000;15813166666;16313166666
10;16243809000;15813188888;16313188888
11;16312915000;15813533333;16313533333
12;16313098000;15813533333;16313533333
13;16313306000;15813533333;16313533333
14;16404693000;15854822222;16354822222
15;16404697000;15854822222;16354822222
16;16404699000;15854822222;16354822222
17;16404700000;15854822222;16354822222
18;16433416000;15854822222;16354822222
19;16433551000;15854822222;16354822222
20;16433762000;15854822222;16354822222
21;16484409000;15854833333;16354833333
22;16553891000;15855255555;16355255555
23;16554089000;15855255555;16355255555
24;16554212000;15855255555;16355255555
25;16645669000;15896488888;16396488888
26;16645673000;15896488888;16396488888
27;16645674000;15896488888;16396488888
28;16645675000;15896488888;16396488888
29;16674163000;15896488888;16396488888
30;16674654000;15896488888;16396488888
31;16674843000;15896488888;16396488888
32;16765815000;15896500000;16396500000
33;16765831000;15896833333;16396833333
34;16765832000;15896833333;16396833333
35;16795062000;15896833333;16396833333
36;16806848000;15938166666;16438166666
37;16806852000;15938166666;16438166666
38;16806853000;15938166666;16438166666
39;16806854000;15938166666;16438166666
40;16806855000;15938166666;16438166666
41;16806856000;15938166666;16438166666
42;16806857000;15938166666;16438166666
43;16886312000;15938177777;16438177777
44;16886328000;15938533333;16438533333
45;16886329000;15938533333;16438533333
46;16886330000;15938533333;16438533333
47;16927499000;15979822222;16479822222
48;16927502000;15979822222;16479822222
49;16927503000;15979822222;16479822222
50;16927504000;15979822222;16479822222
51;16927505000;15979822222;16479822222
52;16927506000;15979822222;16479822222
53;16927507000;15979822222;16479822222
54;17007086000;15979833333;16479833333
55;17007101000;15980166666;16480166666
56;17007103000;15980166666;16480166666
57;17007104000;15980166666;16480166666
58;17048111000;16021488888;16521488888
59;17048114000;16021488888;16521488888
60;17048115000;16021488888;16521488888
61;17048116000;16021488888;16521488888
62;17048117000;16021488888;16521488888
63;17048118000;16021488888;16521488888
64;17048119000;16021488888;16521488888
65;17126996000;16021500000;16521500000
66;17127012000;16021800000;16521800000
67;17127013000;16021800000;16521800000
69;17169080000;16063177777;16563177777
70;17169083000;16063177777;16563177777
71;17169084000;16063177777;16563177777
72;17169085000;16063177777;16563177777
73;17169086000;16063177777;16563177777
74;17169087000;16063177777;16563177777
75;17169088000;16063177777;16563177777
76;17247540000;16063200000;16563200000
77;17247543000;16063588888;16563588888
78;17247544000;16063588888;16563588888
79;17247545000;16063588888;16563588888
80;17288629000;16104822222;16604822222
82;17288632000;16104822222;16604822222
83;17288634000;16104822222;16604822222
84;17288635000;16104822222;16604822222
85;17288636000;16104822222;16604822222
86;17288636000;16104822222;16604822222
87;17288835000;16104833333;16604833333
88;17288851000;16105166666;16605166666
89;17288852000;16105166666;16605166666
90;17288853000;16105166666;16605166666
91;17329019000;16146488888;16646488888
92;17329022000;16146488888;16646488888
93;17329023000;16146488888;16646488888
95;17329024000;16146488888;16646488888
96;17329025000;16146488888;16646488888
97;17329026000;16146488888;16646488888
98;17329292000;16146500000;16646500000
99;17329307000;16146800000;16646800000
100;17329309000;16146800000;16646800000
102;17367470000;16188155555;16688155555
103;17367473000;16188155555;16688155555
104;17396676000;16188155555;16688155555
105;17397724000;16188155555;16688155555
106;17397909000;16188155555;16688155555
107;17398903000;16188155555;16688155555
108;17398911000;16188155555;16688155555
109;17488754000;16188177777;16688177777
111;17488770000;16188433333;16688433333
112;17488771000;16188433333;16688433333
114;17529756000;16229822222;16729822222
115;17529775000;16229822222;16729822222
116;17529777000;16229822222;16729822222
117;17529779000;16229822222;16729822222
118;17529780000;16229822222;16729822222
119;17529782000;16229822222;16729822222
120;17610307000;16229833333;16729833333
121;17610329000;16230155555;16730155555
122;17610331000;16230155555;16730155555
123;17610333000;16230155555;16730155555
124;17729325000;16271488888;16771488888
127;17729344000;16271488888;16771488888
128;17729346000;16271488888;16771488888
129;17729347000;16271488888;16771488888
130;17729349000;16271488888;16771488888
131;17729558000;16271500000;16771500000
132;17729573000;16271788888;16771788888
133;17729575000;16271788888;16771788888
134;17729576000;16271788888;16771788888
135;17770514000;16313144444;16813144444
146;17810627000;16354822222;16854822222
147;17810630000;16354822222;16854822222
148;17810632000;16354822222;16854822222
149;17810633000;16354822222;16854822222
150;17810634000;16354822222;16854822222
151;17810634000;16354822222;16854822222
152;17810635000;16354822222;16854822222
153;17810833000;16354833333;16854833333
154;17810849000;16355166666;16855166666
155;17810850000;16355166666;16855166666
156;17810851000;16355166666;16855166666
157;17846567000;16396500000;16896500000
158;17846571000;16396500000;16896500000
159;17846572000;16396500000;16896500000
160;17846573000;16396500000;16896500000
162;17846574000;16396500000;16896500000
163;17846575000;16396500000;16896500000
164;17846761000;16396533333;16896533333
166;17846765000;16396833333;16896833333
167;17881002000;16396833333;16896833333
168;18011652000;16438155555;16938155555
180;18051429000;16479822222;16979822222
181;18051432000;16479822222;16979822222
182;18051433000;16479822222;16979822222
183;18051434000;16479822222;16979822222
184;18051435000;16479822222;16979822222
185;18051436000;16479822222;16979822222
186;18051635000;16479833333;16979833333
187;18051650000;16480133333;16980133333
188;18051651000;16480133333;16980133333
189;18051652000;16480133333;16980133333
190;18089128000;16521488888;17021488888
191;18089132000;16521488888;17021488888
192;18089133000;16521488888;17021488888
193;18089133000;16521488888;17021488888
194;18089134000;16521488888;17021488888
195;18089135000;16521488888;17021488888
196;18089136000;16521488888;17021488888
197;18089335000;16521511111;17021511111
198;18089342000;16521788888;17021788888
199;18089343000;16521788888;17021788888
200;18089344000;16521788888;17021788888
201;18128163000;16563144444;17063144444
202;18128167000;16563144444;17063144444
203;18128167000;16563144444;17063144444
204;18128168000;16563144444;17063144444
205;18128169000;16563144444;17063144444
206;18128170000;16563144444;17063144444
207;18128171000;16563144444;17063144444
208;18248247000;16563166666;17063166666
216;18248262000;16604811111;17104811111
217;18248263000;16604811111;17104811111
218;18248264000;16604811111;17104811111
219;18291083000;16604822222;17104822222
220;18291099000;16605177777;17105177777
221;18291100000;16605177777;17105177777
222;18291101000;16605177777;17105177777
223;18330115000;16646488888;17146488888
224;18330119000;16646488888;17146488888
225;18330120000;16646488888;17146488888
226;18330121000;16646488888;17146488888
227;18330122000;16646488888;17146488888
228;18330122000;16646488888;17146488888
229;18330123000;16646488888;17146488888
230;18330294000;16646500000;17146500000
232;18330298000;16646800000;17146800000
233;18330299000;16646800000;17146800000
234;18362592000;16688155555;17188155555
235;18362595000;16688155555;17188155555
236;18362596000;16688155555;17188155555
237;18362597000;16688155555;17188155555
238;18362598000;16688155555;17188155555
239;18364984000;16688155555;17188155555
240;18364993000;16688155555;17188155555
241;18452483000;16688166666;17188166666
243;18452498000;16688455555;17188455555
244;18452499000;16688455555;17188455555
245;18493535000;16729822222;17229822222
259;18533507000;16771488888;17271488888
260;18533519000;16771488888;17271488888
261;18533520000;16771488888;17271488888
262;18533521000;16771488888;17271488888
263;18613652000;16771511111;17271511111
280;18613667000;16854833333;17354833333
281;18613668000;16854833333;17354833333
283;18689307000;16854833333;17354833333
284;18689320000;16854833333;17354833333
285;18689523000;16854844444;17354844444
286;18689538000;16855277777;17355277777
287;18689539000;16855277777;17355277777
288;18689540000;16855277777;17355277777
289;18723821000;16896488888;17396488888
290;18723825000;16896488888;17396488888
291;18723826000;16896488888;17396488888
294;18723827000;16896488888;17396488888
295;18723828000;16896488888;17396488888
297;18723938000;16896766666;17396766666
298;18723941000;16896766666;17396766666
299;18723942000;16896766666;17396766666
300;18746309000;16938155555;17438155555
305;18746312000;16938155555;17438155555
306;18746313000;16938155555;17438155555
307;18857116000;16938166666;17438166666
332;18857132000;17021788888;17521788888
334;18966084000;17063155555;17563155555
338;18966098000;17063155555;17563155555
340;18966334000;17063177777;17563177777
344;18966340000;17104822222;17604822222
345;18966341000;17104822222;17604822222
346;18966342000;17104822222;17604822222
347;18966343000;17104822222;17604822222
348;18966344000;17104822222;17604822222
349;18966345000;17104822222;17604822222
350;18966346000;17104822222;17604822222
355;19139947000;17146488888;17646488888
388;19235158000;17271488888;17771488888
417;19379323000;17354833333;17854833333
452;19379338000;17480111111;17980111111
453;19379339000;17480111111;17980111111
454;19491070000;17521500000;18021500000
486;19619850000;17605155555;18105155555
516;19702172000;17729833333;18229833333
544;19702187000;17854822222;18354822222
548;19808912000;17854822222;18354822222
549;19860990000;17854833333;18354833333
805;19861005000;18813466666;19313466666
806;20508155000;18854822222;19354822222
1020;20686137000;19646500000;20146500000
1134;20930796000;20063466666;20563466666
1224;21195067000;20438155555;20938155555
1311;21270495000;20730155555;21230155555
1336;21448839000;20854833333;21354833333
1345;21451153000;20896488888;21396488888
1346;21451156000;20896488888;21396488888
1347;21451157000;20896488888;21396488888
1348;21451158000;20896488888;21396488888
1349;21451159000;20896488888;21396488888
1350;21451160000;20896488888;21396488888
1351;21451161000;20896488888;21396488888
1352;21451368000;20896511111;21396511111
1353;21451383000;20896788888;21396788888
1354;21451385000;20896788888;21396788888
1355;21451386000;20896788888;21396788888
1356;21451399000;20938155555;21438155555
1358;21451401000;20938155555;21438155555
1359;21451402000;20938155555;21438155555
1360;21451403000;20938155555;21438155555
1361;21451404000;20938155555;21438155555
1362;21451405000;20938155555;21438155555
1363;21801836000;20938177777;21438177777
1367;21843280000;20979822222;21479822222
1369;21843282000;20979822222;21479822222
1370;21843283000;20979822222;21479822222
1371;21843284000;20979822222;21479822222
1374;21843484000;20979844444;21479844444
1375;21843499000;20980155555;21480155555
1376;21843500000;20980155555;21480155555
1377;21872565000;20980155555;21480155555
1378;21884698000;21021488888;21521488888
1379;21884702000;21021488888;21521488888
1380;21884703000;21021488888;21521488888
1381;21884704000;21021488888;21521488888
1385;22002715000;21021500000;21521500000
1390;22002730000;21063144444;21563144444
1391;22002731000;21063144444;21563144444
1392;22002733000;21063144444;21563144444
1393;22002733000;21063144444;21563144444
1394;22002734000;21063144444;21563144444
1395;22002735000;21063144444;21563144444
1396;22044101000;21063166666;21563166666
1397;22044116000;21063466666;21563466666
1398;22044117000;21063466666;21563466666
1399;22044118000;21063466666;21563466666
1400;22083405000;21104822222;21604822222
1401;22083408000;21104822222;21604822222
1402;22083409000;21104822222;21604822222
1403;22083410000;21104822222;21604822222
1404;22083411000;21104822222;21604822222
1405;22083412000;21104822222;21604822222
1406;22083413000;21104822222;21604822222
1407;22083620000;21104844444;21604844444
1408;22083636000;21105144444;21605144444
1409;22083637000;21105144444;21605144444
1410;22083638000;21105144444;21605144444
1411;22118538000;21146477777;21646477777
1412;22118542000;21146477777;21646477777
1413;22118543000;21146477777;21646477777
1414;22118544000;21146477777;21646477777
1415;22118545000;21146477777;21646477777
1416;22118546000;21146477777;21646477777
1417;22118547000;21146477777;21646477777
1418;22205103000;21146500000;21646500000
1419;22205118000;21146822222;21646822222
1420;22205119000;21146822222;21646822222
1421;22205120000;21146822222;21646822222
1422;22246228000;21188144444;21688144444
1425;22246231000;21188144444;21688144444
1426;22246232000;21188144444;21688144444
1427;22246233000;21188144444;21688144444
1428;22246234000;21188144444;21688144444
1429;22325789000;21188166666;21688166666
1430;22325804000;21188433333;21688433333
1431;22325805000;21188433333;21688433333
1432;22325806000;21188433333;21688433333
1433;22366852000;21229822222;21729822222
1444;22407186000;21271477777;21771477777
1445;22407190000;21271477777;21771477777
1446;22407191000;21271477777;21771477777
1447;22407192000;21271477777;21771477777
1448;22407193000;21271477777;21771477777
1449;22407194000;21271477777;21771477777
1450;22407195000;21271477777;21771477777
1451;22407401000;21271500000;21771500000
1454;22407417000;21271788888;21771788888
1455;22444447000;21313166666;21813166666
1456;22444450000;21313166666;21813166666
1458;22444452000;21313166666;21813166666
1459;22444453000;21313166666;21813166666
1460;22444453000;21313166666;21813166666
1461;22444455000;21313166666;21813166666
1462;22444661000;21313200000;21813200000
1464;22444677000;21313477777;21813477777
1465;22474780000;21313477777;21813477777
1466;22607601000;21354822222;21854822222
1477;22643585000;21396477777;21896477777
1478;22643589000;21396477777;21896477777
1479;22643590000;21396477777;21896477777
1480;22643591000;21396477777;21896477777
1481;22643592000;21396477777;21896477777
1482;22643593000;21396477777;21896477777
1483;22643594000;21396477777;21896477777
1484;22645844000;21396500000;21896500000
1485;22645860000;21396800000;21896800000
1486;22645861000;21396800000;21896800000
1487;22645862000;21396800000;21896800000
1488;22684543000;21438155555;21938155555
1489;22684546000;21438155555;21938155555
1490;22684547000;21438155555;21938155555
1491;22684548000;21438155555;21938155555
1492;22684549000;21438155555;21938155555
1493;22684550000;21438155555;21938155555
1494;22684551000;21438155555;21938155555
1495;22684757000;21438177777;21938177777
1496;22684773000;21438477777;21938477777
1497;22684774000;21438477777;21938477777
1498;22684775000;21438477777;21938477777
1499;22720037000;21479822222;21979822222
1500;22720040000;21479822222;21979822222
1501;22720041000;21479822222;21979822222
1502;22720063000;21479822222;21979822222
1503;22720064000;21479822222;21979822222
1504;22720066000;21479822222;21979822222
1505;22720067000;21479822222;21979822222
1506;22847837000;21479844444;21979844444
1511;22847853000;21521488888;22021488888
1512;22847854000;21521488888;22021488888
1513;22847855000;21521488888;22021488888
1514;22847856000;21521488888;22021488888
1516;22887335000;21521488888;22021488888
1517;22887546000;21521511111;22021511111
1518;22887561000;21521788888;22021788888
1519;22887563000;21521788888;22021788888
1520;22887563000;21521788888;22021788888
1522;22925507000;21563155555;22063155555
1528;22925665000;21563177777;22063177777
1529;22925671000;21563466666;22063466666
1530;22925672000;21563466666;22063466666
1531;22925673000;21563466666;22063466666
1533;22961249000;21604822222;22104822222
1534;22961253000;21604822222;22104822222
1535;22961254000;21604822222;22104822222
1536;22961255000;21604822222;22104822222
1537;22961256000;21604822222;22104822222
1538;22961257000;21604822222;22104822222
1539;23048713000;21604844444;22104844444
1540;23048728000;21605166666;22105166666
1541;23048730000;21605166666;22105166666
1544;23089715000;21646488888;22146488888
1545;23089719000;21646488888;22146488888
1546;23089721000;21646488888;22146488888
1547;23089729000;21646488888;22146488888
1550;23089939000;21646511111;22146511111
1551;23089954000;21646800000;22146800000
1552;23089955000;21646800000;22146800000
1553;23089956000;21646800000;22146800000
1554;23209715000;21688166666;22188166666
1557;23209718000;21688166666;22188166666
1558;23209719000;21688166666;22188166666
1559;23209720000;21688166666;22188166666
1560;23209721000;21688166666;22188166666
1561;23209922000;21688188888;22188188888
1562;23209937000;21688466666;22188466666
1563;23209939000;21688466666;22188466666
1564;23209939000;21688466666;22188466666
1565;23250368000;21729822222;22229822222
1567;23250370000;21729822222;22229822222
1568;23250371000;21729822222;22229822222
1569;23250372000;21729822222;22229822222
1570;23250373000;21729822222;22229822222
1571;23250374000;21729822222;22229822222
1572;23250517000;21729844444;22229844444
1573;23250520000;21730155555;22230155555
1574;23250521000;21730155555;22230155555
1575;23250522000;21730155555;22230155555
1576;23290484000;21771477777;22271477777
1577;23290486000;21771477777;22271477777
1578;23290487000;21771477777;22271477777
1579;23319284000;21771477777;22271477777
1580;23319499000;21771477777;22271477777
1581;23319726000;21771477777;22271477777
1582;23319729000;21771477777;22271477777
1583;23411327000;21771488888;22271488888
1584;23411343000;21771788888;22271788888
1585;23411344000;21771788888;22271788888
1586;23411345000;21771788888;22271788888
1587;23452371000;21813177777;22313177777
1593;23452375000;21813177777;22313177777
1594;23452573000;21813211111;22313211111
1595;23452589000;21813500000;22313500000
1596;23452590000;21813500000;22313500000
1597;23452591000;21813500000;22313500000
1598;23572560000;21854822222;22354822222
1609;23612759000;21896477777;22396477777
1611;23612763000;21896477777;22396477777
1612;23612764000;21896477777;22396477777
1613;23612765000;21896477777;22396477777
1614;23612766000;21896477777;22396477777
1615;23612767000;21896477777;22396477777
1616;23612967000;21896488888;22396488888
1617;23612982000;21896788888;22396788888
1618;23612983000;21896788888;22396788888
1619;23612984000;21896788888;22396788888
1620;23649910000;21938177777;22438177777
1621;23649914000;21938177777;22438177777
1622;23649915000;21938177777;22438177777
1623;23649916000;21938177777;22438177777
1624;23649917000;21938177777;22438177777
1626;23649918000;21938177777;22438177777
1627;23650106000;21938200000;22438200000
1628;23650111000;21938477777;22438477777
1629;23650112000;21938477777;22438477777
1630;23650113000;21938477777;22438477777
1631;23684296000;21979822222;22479822222
1632;23684299000;21979822222;22479822222
1633;23684300000;21979822222;22479822222
1634;23684301000;21979822222;22479822222
1635;23684302000;21979822222;22479822222
1636;23684303000;21979822222;22479822222
1637;23684304000;21979822222;22479822222
1638;23812791000;21979833333;22479833333
1644;23852926000;22021477777;22521477777
1645;23852939000;22021477777;22521477777
1646;23852940000;22021477777;22521477777
1647;23852941000;22021477777;22521477777
1648;23852942000;22021477777;22521477777
1649;23853151000;22021500000;22521500000
1650;23853167000;22021800000;22521800000
1651;23853168000;22021800000;22521800000
1652;23853169000;22021800000;22521800000
1653;23890444000;22063166666;22563166666
1654;23890447000;22063166666;22563166666
1655;23890448000;22063166666;22563166666
1656;23890449000;22063166666;22563166666
1657;23890450000;22063166666;22563166666
1658;23890451000;22063166666;22563166666
1660;23890621000;22063188888;22563188888
1661;23890626000;22063500000;22563500000
1663;23890627000;22063500000;22563500000
1665;23923411000;22104822222;22604822222
1666;23923415000;22104822222;22604822222
1667;23923416000;22104822222;22604822222
1668;23923426000;22104822222;22604822222
1669;23923428000;22104822222;22604822222
1670;23923430000;22104822222;22604822222
1671;24013658000;22104833333;22604833333
1672;24013673000;22105155555;22605155555
1673;24013674000;22105155555;22605155555
1674;24013675000;22105155555;22605155555
1675;24054618000;22146477777;22646477777
1681;24054621000;22146477777;22646477777
1682;24054827000;22146500000;22646500000
1683;24054843000;22146811111;22646811111
1684;24054844000;22146811111;22646811111
1685;24054845000;22146811111;22646811111
1686;24175118000;22188155555;22688155555
1697;24215411000;22229822222;22729822222
1698;24215414000;22229822222;22729822222
1699;24215415000;22229822222;22729822222
1700;24215416000;22229822222;22729822222
1701;24215417000;22229822222;22729822222
1702;24215418000;22229822222;22729822222
1703;24215419000;22229822222;22729822222
1704;24215618000;22229833333;22729833333
1705;24215633000;22230166666;22730166666
1706;24215634000;22230166666;22730166666
1707;24215635000;22230166666;22730166666
1708;24253066000;22271477777;22771477777
1709;24253080000;22271477777;22771477777
1710;24253081000;22271477777;22771477777
1711;24253082000;22271477777;22771477777
1712;24253083000;22271477777;22771477777
1713;24253084000;22271477777;22771477777
1714;24253085000;22271477777;22771477777
1715;24253261000;22271500000;22771500000
1716;24253266000;22271800000;22771800000
1719;24287166000;22313155555;22813155555
1720;24287170000;22313155555;22813155555
1721;24287171000;22313155555;22813155555
1722;24287172000;22313155555;22813155555
1723;24287173000;22313155555;22813155555
1724;24287174000;22313155555;22813155555
1725;24287175000;22313155555;22813155555
1726;24415980000;22313177777;22813177777
1731;24415996000;22354833333;22854833333
1732;24415997000;22354833333;22854833333
1733;24415998000;22354833333;22854833333
1734;24415999000;22354833333;22854833333
1735;24416000000;22354833333;22854833333
1736;24416001000;22354833333;22854833333
1737;24454240000;22354844444;22854844444
1738;24454256000;22355211111;22855211111
1739;24454257000;22355211111;22855211111
1740;24454258000;22355211111;22855211111
1741;24493706000;22396477777;22896477777
1742;24493709000;22396477777;22896477777
1743;24493710000;22396477777;22896477777
1745;24493711000;22396477777;22896477777
1748;24493882000;22396488888;22896488888
1749;24493887000;22396800000;22896800000
1750;24493888000;22396800000;22896800000
1751;24493889000;22396800000;22896800000
1753;24526561000;22438155555;22938155555
1754;24526565000;22438155555;22938155555
1755;24526566000;22438155555;22938155555
1756;24526567000;22438155555;22938155555
1757;24526568000;22438155555;22938155555
1758;24526569000;22438155555;22938155555
1759;24616364000;22438177777;22938177777
1760;24616380000;22438477777;22938477777
1761;24616381000;22438477777;22938477777
1762;24616382000;22438477777;22938477777
1764;24657330000;22479811111;22979811111
1773;24735175000;22480166666;22980166666
1774;24777691000;22521477777;23021477777
1785;24818103000;22563155555;23063155555
1786;24818106000;22563155555;23063155555
1787;24818107000;22563155555;23063155555
1788;24818108000;22563155555;23063155555
1789;24818109000;22563155555;23063155555
1790;24818110000;22563155555;23063155555
1791;24818111000;22563155555;23063155555
1792;24818310000;22563177777;23063177777
1793;24818325000;22563466666;23063466666
1794;24818326000;22563466666;23063466666
1795;24818327000;22563466666;23063466666
1796;24855242000;22604811111;23104811111
1797;24855245000;22604811111;23104811111
1798;24855246000;22604811111;23104811111
1800;24855247000;22604811111;23104811111
1801;24855249000;22604811111;23104811111
1802;24855250000;22604811111;23104811111
1803;24855420000;22604822222;23104822222
1804;24855424000;22605166666;23105166666
1805;24855425000;22605166666;23105166666
1806;24855426000;22605166666;23105166666
1807;24888712000;22646477777;23146477777
1808;24888716000;22646477777;23146477777
1809;24888717000;22646477777;23146477777
1810;24888717000;22646477777;23146477777
1811;24888718000;22646477777;23146477777
1812;24888719000;22646477777;23146477777
1813;24888720000;22646477777;23146477777
1814;25018605000;22646488888;23146488888
1820;25018620000;22688155555;23188155555
1821;25018621000;22688155555;23188155555
1822;25018623000;22688155555;23188155555
1823;25018624000;22688155555;23188155555
1824;25018625000;22688155555;23188155555
1825;25057511000;22688177777;23188177777
1826;25057526000;22688455555;23188455555
1827;25057534000;22688455555;23188455555
1828;25057535000;22688455555;23188455555
1829;25096841000;22729822222;23229822222
1830;25096844000;22729822222;23229822222
1832;25096846000;22729822222;23229822222
1833;25096846000;22729822222;23229822222
1835;25096847000;22729822222;23229822222
1836;25097064000;22729833333;23229833333
1837;25097070000;22730166666;23230166666
1838;25097071000;22730166666;23230166666
1839;25097072000;22730166666;23230166666
1840;25129307000;22771488888;23271488888
1841;25129311000;22771488888;23271488888
1842;25129312000;22771488888;23271488888
1843;25129313000;22771488888;23271488888
1844;25129314000;22771488888;23271488888
1845;25129315000;22771488888;23271488888
1846;25129316000;22771488888;23271488888
1847;25218780000;22771500000;23271500000
1848;25218783000;22771777777;23271777777
1849;25218784000;22771777777;23271777777
1850;25218785000;22771777777;23271777777
1851;25259856000;22813155555;23313155555
1862;25380376000;22854811111;23354811111
1877;25419076000;22896522222;23396522222
1878;25419080000;22896522222;23396522222
1879;25419081000;22896522222;23396522222
1880;25419299000;22896533333;23396533333
1881;25419314000;22896877777;23396877777
1882;25419315000;22896877777;23396877777
1883;25419316000;22896877777;23396877777
1884;25457390000;22938155555;23438155555
1885;25457393000;22938155555;23438155555
1886;25457394000;22938155555;23438155555
1887;25457395000;22938155555;23438155555
1888;25457396000;22938155555;23438155555
1892;25457506000;22938444444;23438444444
1893;25457509000;22938444444;23438444444
1894;25457510000;22938444444;23438444444
1896;25493456000;22979811111;23479811111
1897;25493459000;22979811111;23479811111
1898;25493460000;22979811111;23479811111
1899;25493461000;22979811111;23479811111
1900;25493462000;22979811111;23479811111
1901;25493463000;22979811111;23479811111
1902;25580401000;22979833333;23479833333
1903;25580417000;22980155555;23480155555
1904;25580418000;22980155555;23480155555
1905;25580419000;22980155555;23480155555
1906;25621533000;23021488888;23521488888
1916;25621645000;23021777777;23521777777
1917;25741013000;23063155555;23563155555
2168;26438077000;23980244444;24480244444
2258;26438195000;24354822222;24854822222
2259;26438199000;24354822222;24854822222
2260;26438200000;24354822222;24854822222
2261;26438201000;24354822222;24854822222
2262;26438202000;24354822222;24854822222
2263;26438203000;24354822222;24854822222
2264;26438204000;24354822222;24854822222
2265;26467105000;24354833333;24854833333
2275;26467121000;24396488888;24896488888
2276;26506663000;24396511111;24896511111
2277;26506678000;24396811111;24896811111
2278;26506679000;24396811111;24896811111
2279;26506680000;24396811111;24896811111
2280;26545819000;24438155555;24938155555
2281;26545822000;24438155555;24938155555
2282;26545823000;24438155555;24938155555
2283;26545824000;24438155555;24938155555
2284;26545825000;24438155555;24938155555
2286;26545826000;24438155555;24938155555
2287;26545996000;24438177777;24938177777
2288;26546000000;24438488888;24938488888
2289;26546001000;24438488888;24938488888
2290;26546002000;24438488888;24938488888
2291;26578473000;24479822222;24979822222
2292;26578486000;24479822222;24979822222
2293;26578488000;24479822222;24979822222
2295;26578490000;24479822222;24979822222
2296;26578492000;24479822222;24979822222
2297;26578494000;24479822222;24979822222
2298;26668009000;24479844444;24979844444
2301;26668015000;24480166666;24980166666
2302;26709009000;24521488888;25021488888
2313;26749480000;24563155555;25063155555
2314;26749484000;24563155555;25063155555
2315;26749485000;24563155555;25063155555
2317;26749486000;24563155555;25063155555
2318;26749487000;24563155555;25063155555
2319;26749488000;24563155555;25063155555
2320;26749687000;24563177777;25063177777
2321;26749702000;24563477777;25063477777
2322;26749703000;24563477777;25063477777
2323;26749704000;24563477777;25063477777
2324;26787385000;24604822222;25104822222
2325;26787389000;24604822222;25104822222
2326;26787390000;24604822222;25104822222
2327;26787391000;24604822222;25104822222
2328;26787392000;24604822222;25104822222
2329;26787400000;24604822222;25104822222
2330;26787401000;24604822222;25104822222
2331;26787578000;24604844444;25104844444
2332;26787583000;24605177777;25105177777
2333;26787584000;24605177777;25105177777
2334;26787585000;24605177777;25105177777
2335;26950076000;24646477777;25146477777
2348;26989601000;24688155555;25188155555
2349;26989604000;24688155555;25188155555
2350;26989605000;24688155555;25188155555
2351;26989606000;24688155555;25188155555
2352;26989607000;24688155555;25188155555
2353;26989779000;24688166666;25188166666
2354;26989783000;24688466666;25188466666
2355;26989784000;24688466666;25188466666
2356;26989785000;24688466666;25188466666
2357;27026793000;24729822222;25229822222
2359;27026797000;24729822222;25229822222
2360;27026798000;24729822222;25229822222
2361;27026799000;24729822222;25229822222
2362;27026800000;24729822222;25229822222
2363;27026801000;24729822222;25229822222
2365;27026916000;24730166666;25230166666
2366;27026919000;24730166666;25230166666
2367;27026920000;24730166666;25230166666
2368;27058789000;24771477777;25271477777
2369;27058810000;24771477777;25271477777
2370;27058812000;24771477777;25271477777
2371;27058813000;24771477777;25271477777
2372;27058814000;24771477777;25271477777
2373;27060495000;24771477777;25271477777
2374;27060504000;24771477777;25271477777
2375;27150156000;24771500000;25271500000
2376;27150172000;24771800000;25271800000
2377;27150173000;24771800000;25271800000
2378;27150174000;24771800000;25271800000
2379;27191119000;24813144444;25313144444
2390;27311972000;24854822222;25354822222
2407;27350286000;24896477777;25396477777
2408;27350409000;24896500000;25396500000
2409;27350425000;24896788888;25396788888
2410;27350426000;24896788888;25396788888
2411;27350427000;24896788888;25396788888
2412;27388563000;24938155555;25438155555
2413;27388566000;24938155555;25438155555
2416;27388567000;24938155555;25438155555
2417;27388568000;24938155555;25438155555
2418;27388569000;24938155555;25438155555
2422;27388679000;24938455555;25438455555
2423;27423010000;24979822222;25479822222
2424;27423014000;24979822222;25479822222
2425;27423014000;24979822222;25479822222
2426;27423015000;24979822222;25479822222
2427;27423017000;24979822222;25479822222
2428;27423018000;24979822222;25479822222
2429;27423018000;24979822222;25479822222
2430;27510765000;24979833333;25479833333
2431;27510781000;24980155555;25480155555
2432;27510782000;24980155555;25480155555
2433;27510783000;24980155555;25480155555
2434;27552584000;25021477777;25521477777
2445;27593119000;25063144444;25563144444
2446;27593123000;25063144444;25563144444
2447;27593123000;25063144444;25563144444
2448;27593124000;25063144444;25563144444
2449;27593126000;25063144444;25563144444
2450;27593126000;25063144444;25563144444
2451;27660431000;25063144444;25563144444
2452;27672552000;25063166666;25563166666
2462;27672568000;25104822222;25604822222
2463;27712338000;25104833333;25604833333
2464;27712353000;25105155555;25605155555
2465;27712355000;25105155555;25605155555
2466;27712356000;25105155555;25605155555
2467;27751292000;25146477777;25646477777
2468;27751296000;25146477777;25646477777
2469;27751297000;25146477777;25646477777
2472;27751298000;25146477777;25646477777
2474;27751497000;25146488888;25646488888
2475;27751512000;25146800000;25646800000
2476;27751513000;25146800000;25646800000
2477;27751514000;25146800000;25646800000
2478;27785199000;25188155555;25688155555
2479;27785202000;25188155555;25688155555
2480;27785203000;25188155555;25688155555
2481;27785204000;25188155555;25688155555
2482;27785205000;25188155555;25688155555
2483;27785206000;25188155555;25688155555
2484;27785207000;25188155555;25688155555
2485;27873155000;25188177777;25688177777
2486;27873171000;25188511111;25688511111
2487;27873172000;25188511111;25688511111
2489;27914248000;25229833333;25729833333
2500;27954813000;25271477777;25771477777
2501;27954817000;25271477777;25771477777
2502;27954818000;25271477777;25771477777
2503;27954819000;25271477777;25771477777
2504;27954820000;25271477777;25771477777
2506;27954821000;25271477777;25771477777
2508;27954930000;25271822222;25771822222
2509;27954942000;25271822222;25771822222
2510;27954943000;25271822222;25771822222
2511;27992462000;25313188888;25813188888
2512;27992466000;25313188888;25813188888
2513;27992467000;25313188888;25813188888
2514;27992468000;25313188888;25813188888
2515;27992469000;25313188888;25813188888
2516;27992470000;25313188888;25813188888
2517;27992471000;25313188888;25813188888
2520;27992585000;25313500000;25813500000
2521;28022683000;25313500000;25813500000
2522;28156409000;25354822222;25854822222
2536;28194967000;25396477777;25896477777
2537;28194970000;25396477777;25896477777
2538;28194971000;25396477777;25896477777
2539;28194972000;25396477777;25896477777
2540;28195172000;25396488888;25896488888
2542;28195187000;25396822222;25896822222
2544;28235166000;25438166666;25938166666
2545;28235170000;25438166666;25938166666
2546;28235171000;25438166666;25938166666
2547;28235172000;25438166666;25938166666
2548;28235172000;25438166666;25938166666
2549;28235173000;25438166666;25938166666
2550;28235174000;25438166666;25938166666
2551;28235293000;25438211111;25938211111
2552;28235308000;25438511111;25938511111
2553;28235309000;25438511111;25938511111
2554;28235310000;25438511111;25938511111
2555;28267712000;25479822222;25979822222
2557;28267715000;25479822222;25979822222
2558;28267716000;25479822222;25979822222
2560;28355715000;25479822222;25979822222
2561;28355717000;25479822222;25979822222
2562;28355942000;25479833333;25979833333
2563;28355958000;25480155555;25980155555
2565;28355959000;25480155555;25980155555
2566;28475939000;25521477777;26021477777
2577;28476063000;25563155555;26063155555
2578;28476067000;25563155555;26063155555
2579;28476067000;25563155555;26063155555
2580;28476068000;25563155555;26063155555
2581;28476069000;25563155555;26063155555
2582;28476070000;25563155555;26063155555
2583;28476071000;25563155555;26063155555
2584;28516867000;25563177777;26063177777
2588;28516882000;25604822222;26104822222
2589;28516883000;25604822222;26104822222
2590;28516884000;25604822222;26104822222
2591;28516885000;25604822222;26104822222
2592;28516886000;25604822222;26104822222
2593;28516887000;25604822222;26104822222
2594;28516888000;25604822222;26104822222
2595;28555218000;25604833333;26104833333
2596;28555233000;25605188888;26105188888
2597;28555234000;25605188888;26105188888
2598;28555235000;25605188888;26105188888
2599;28595248000;25646488888;26146488888
2600;28595252000;25646488888;26146488888
2601;28595253000;25646488888;26146488888
2602;28595254000;25646488888;26146488888
2603;28595255000;25646488888;26146488888
2604;28595256000;25646488888;26146488888
2605;28595257000;25646488888;26146488888
2606;28595433000;25646500000;26146500000
2927;28627590000;26855255555;27355255555
2928;28627594000;26855255555;27355255555
2929;28717517000;26896488888;27396488888
2930;28717528000;26896488888;27396488888
2931;28717529000;26896488888;27396488888
2932;28717530000;26896488888;27396488888
2933;28717530000;26896488888;27396488888
2934;28717531000;26896488888;27396488888
2935;28717532000;26896488888;27396488888
2936;28717732000;26896511111;27396511111
2937;28717747000;26896777777;27396777777
2938;28717748000;26896777777;27396777777
2939;28717749000;26896777777;27396777777
2940;28758591000;26938166666;27438166666
2943;28758595000;26938166666;27438166666
2944;28758596000;26938166666;27438166666
2945;28758597000;26938166666;27438166666
2946;28758598000;26938166666;27438166666
2947;28838318000;26938200000;27438200000
2948;28838333000;26938477777;27438477777
2949;28838335000;26938477777;27438477777
2950;28838336000;26938477777;27438477777
2951;28879266000;26979811111;27479811111
2962;28919512000;27021488888;27521488888
2963;28919514000;27021488888;27521488888
2964;28919515000;27021488888;27521488888
2965;28919516000;27021488888;27521488888
2966;28919517000;27021488888;27521488888
2967;28919518000;27021488888;27521488888
2968;28919519000;27021488888;27521488888
2969;28999172000;27021511111;27521511111
2982;28999176000;27063477777;27563477777
2983;28999178000;27063477777;27563477777
2984;29069776000;27104822222;27604822222
2985;29069780000;27104822222;27604822222
2986;29069799000;27104822222;27604822222
2987;29069800000;27104822222;27604822222
2988;29069801000;27104822222;27604822222
2989;29069802000;27104822222;27604822222
2990;29069803000;27104822222;27604822222
2991;29073913000;27104844444;27604844444
2992;29073919000;27105122222;27605122222
2993;29073920000;27105122222;27605122222
2994;29073921000;27105122222;27605122222
2995;29110196000;27146488888;27646488888
3002;29110409000;27146511111;27646511111
3004;29110415000;27146766666;27646766666
3005;29110416000;27146766666;27646766666
3006;29240899000;27188144444;27688144444
3020;29280473000;27229811111;27729811111
3021;29280477000;27229811111;27729811111
3022;29280478000;27229811111;27729811111
3023;29280479000;27229811111;27729811111
3024;29280678000;27229833333;27729833333
3025;29280693000;27230111111;27730111111
3026;29280694000;27230111111;27730111111
3027;29280695000;27230111111;27730111111
3028;29318708000;27271488888;27771488888
3029;29318711000;27271488888;27771488888
3030;29318712000;27271488888;27771488888
3031;29318713000;27271488888;27771488888
3032;29318714000;27271488888;27771488888
3033;29318715000;27271488888;27771488888
3034;29318716000;27271488888;27771488888
3035;29318893000;27271500000;27771500000
3036;29318897000;27271777777;27771777777
3037;29318898000;27271777777;27771777777
3038;29318899000;27271777777;27771777777
3039;29349539000;27313144444;27813144444
3040;29349542000;27313144444;27813144444
3041;29349543000;27313144444;27813144444
3042;29349544000;27313144444;27813144444
3043;29349545000;27313144444;27813144444
3044;29349546000;27313144444;27813144444
3045;29349556000;27313144444;27813144444
3046;29440856000;27313166666;27813166666
3048;29440871000;27313444444;27813444444
3049;29440873000;27313444444;27813444444
3050;29481839000;27354822222;27854822222
3061;29521897000;27396488888;27896488888
3062;29521900000;27396488888;27896488888
3063;29521901000;27396488888;27896488888
3064;29521902000;27396488888;27896488888
3065;29521903000;27396488888;27896488888
3066;29521904000;27396488888;27896488888
3069;29601781000;27396777777;27896777777
3083;29680395000;27479811111;27979811111
3084;29680398000;27479811111;27979811111
3085;29680399000;27479811111;27979811111
3086;29680400000;27479811111;27979811111
3087;29680401000;27479811111;27979811111
3088;29680402000;27479811111;27979811111
3089;29680403000;27479811111;27979811111
3090;29680609000;27479833333;27979833333
3091;29680624000;27480111111;27980111111
3092;29680626000;27480111111;27980111111
3093;29680627000;27480111111;27980111111
3094;29712929000;27521488888;28021488888
3098;29712933000;27521488888;28021488888
3099;29712934000;27521488888;28021488888
3100;29712935000;27521488888;28021488888
3101;29713174000;27521500000;28021500000
3105;29713181000;27563144444;28063144444
3106;29713183000;27563144444;28063144444
3107;29713184000;27563144444;28063144444
3108;29713185000;27563144444;28063144444
3109;29713187000;27563144444;28063144444
3110;29831286000;27563144444;28063144444
3111;29831288000;27563144444;28063144444
3112;29843272000;27563166666;28063166666
3119;29843287000;27604822222;28104822222
3120;29843288000;27604822222;28104822222
3121;29843289000;27604822222;28104822222
3122;29843290000;27604822222;28104822222
3123;29881751000;27604833333;28104833333
3124;29881766000;27605133333;28105133333
3125;29881768000;27605133333;28105133333
3126;29881769000;27605133333;28105133333
3127;29921142000;27646488888;28146488888
3128;29921146000;27646488888;28146488888
3129;29921147000;27646488888;28146488888
3130;29921148000;27646488888;28146488888
3132;29921149000;27646488888;28146488888
3134;29921319000;27646500000;28146500000
3135;29921323000;27646777777;28146777777
3136;29921324000;27646777777;28146777777
3137;29921325000;27646777777;28146777777
3138;29953587000;27688155555;28188155555
3139;29953590000;27688155555;28188155555
3140;29953591000;27688155555;28188155555
3141;29953592000;27688155555;28188155555
3142;29953593000;27688155555;28188155555
3143;29953594000;27688155555;28188155555
3144;29953897000;27688155555;28188155555
3145;30043768000;27688177777;28188177777
3146;30043792000;27688444444;28188444444
3147;30043793000;27688444444;28188444444
3148;30043794000;27688444444;28188444444
3149;30084774000;27729822222;28229822222
3160;30125179000;27771488888;28271488888
3161;30125182000;27771488888;28271488888
3162;30125183000;27771488888;28271488888
3163;30125184000;27771488888;28271488888
3164;30125185000;27771488888;28271488888
3165;30125186000;27771488888;28271488888
3166;30125187000;27771488888;28271488888
3171;30246071000;27813155555;28313155555
3182;30281800000;27854822222;28354822222
3183;30281803000;27854822222;28354822222
3184;30281804000;27854822222;28354822222
3185;30281805000;27854822222;28354822222
3186;30281806000;27854822222;28354822222
3187;30281807000;27854822222;28354822222
3188;30281808000;27854822222;28354822222
3189;30282007000;27854833333;28354833333
3191;30282023000;27855166666;28355166666
3192;30282024000;27855166666;28355166666
3193;30316681000;27896488888;28396488888
3201;30406153000;27896766666;28396766666
3202;30406156000;27896766666;28396766666
3205;30447007000;27938155555;28438155555
3216;30487392000;27979822222;28479822222
3217;30487396000;27979822222;28479822222
3218;30487396000;27979822222;28479822222
3219;30487398000;27979822222;28479822222
3220;30487399000;27979822222;28479822222
3221;30487399000;27979822222;28479822222
3222;30487598000;27979833333;28479833333
3223;30487613000;27980133333;28480133333
3224;30487614000;27980133333;28480133333
3225;30487615000;27980133333;28480133333
3226;30523951000;28021488888;28521488888
3228;30523954000;28021488888;28521488888
3229;30523955000;28021488888;28521488888
3230;30523956000;28021488888;28521488888
3231;30523957000;28021488888;28521488888
3232;30523958000;28021488888;28521488888
3233;30524137000;28021500000;28521500000
3235;30524142000;28021777777;28521777777
3236;30524143000;28021777777;28521777777
3237;30556217000;28063155555;28563155555
3239;30556219000;28063155555;28563155555
3240;30556221000;28063155555;28563155555
3241;30556222000;28063155555;28563155555
3242;30556223000;28063155555;28563155555
3243;30556223000;28063155555;28563155555
3244;30687533000;28063177777;28563177777
3256;30687548000;28105133333;28605133333
3258;30726177000;28105133333;28605133333
3259;30766550000;28146477777;28646477777
3260;30766553000;28146477777;28646477777
3261;30766554000;28146477777;28646477777
3262;30766555000;28146477777;28646477777
3263;30766556000;28146477777;28646477777
3264;30766557000;28146477777;28646477777
3265;30766558000;28146477777;28646477777
3266;30766765000;28146500000;28646500000
3267;30766780000;28146777777;28646777777
3268;30766781000;28146777777;28646777777
3269;30766782000;28146777777;28646777777
3270;30795541000;28188144444;28688144444
3271;30795545000;28188144444;28688144444
3273;30795546000;28188144444;28688144444
3274;30795547000;28188144444;28688144444
3275;30795548000;28188144444;28688144444
3276;30795548000;28188144444;28688144444
3278;30795662000;28188422222;28688422222
3279;30795666000;28188422222;28688422222
3280;30795946000;28188422222;28688422222
3281;30929229000;28229822222;28729822222
3297;30968422000;28271477777;28771477777
3298;30968425000;28271477777;28771477777
3299;30968625000;28271500000;28771500000
3300;30968640000;28271800000;28771800000
3301;30968641000;28271800000;28771800000
3302;30968642000;28271800000;28771800000
3303;31006795000;28313166666;28813166666
3304;31006799000;28313166666;28813166666
3305;31006800000;28313166666;28813166666
3308;31006801000;28313166666;28813166666
3309;31006802000;28313166666;28813166666
3310;31007002000;28313177777;28813177777
3312;31007018000;28313466666;28813466666
3313;31007019000;28313466666;28813466666
3314;31039684000;28354822222;28854822222
3316;31039687000;28354822222;28854822222
3317;31039698000;28354822222;28854822222
3318;31039699000;28354822222;28854822222
3319;31039700000;28354822222;28854822222
3320;31039701000;28354822222;28854822222
3321;31128835000;28354833333;28854833333
3324;31128839000;28355133333;28855133333
3325;31170063000;28396477777;28896477777
3336;31209975000;28438166666;28938166666
3337;31209979000;28438166666;28938166666
3338;31209987000;28438166666;28938166666
3339;31209988000;28438166666;28938166666
3340;31209989000;28438166666;28938166666
3341;31209990000;28438166666;28938166666
3344;31290346000;28438477777;28938477777
3358;31370112000;28521477777;29021477777
3359;31370115000;28521477777;29021477777
3360;31370116000;28521477777;29021477777
3361;31370117000;28521477777;29021477777
3362;31370118000;28521477777;29021477777
3363;31370119000;28521477777;29021477777
3364;31370120000;28521477777;29021477777
3365;31370282000;28521500000;29021500000
3366;31370289000;28521788888;29021788888
3369;31400234000;28563166666;29063166666
3370;31400248000;28563166666;29063166666
3371;31400249000;28563166666;29063166666
3372;31400250000;28563166666;29063166666
3374;31400251000;28563166666;29063166666
3376;31400480000;28563177777;29063177777
3697;31402814000;29772200000;30272200000
3698;31402826000;29772200000;30272200000
3699;31492499000;29813166666;30313166666
3700;31492511000;29813166666;30313166666
3701;31492512000;29813166666;30313166666
3702;31492513000;29813166666;30313166666
3703;31492514000;29813166666;30313166666
3704;31492515000;29813166666;30313166666
3705;31492516000;29813166666;30313166666
3706;31492722000;29813177777;30313177777
3707;31492729000;29813444444;30313444444
3709;31492730000;29813444444;30313444444
3710;31533777000;29854822222;30354822222
3711;31533781000;29854822222;30354822222
3712;31533782000;29854822222;30354822222
3713;31533782000;29854822222;30354822222
3714;31533783000;29854822222;30354822222
3715;31533784000;29854822222;30354822222
3716;31533785000;29854822222;30354822222
3717;31613477000;29854844444;30354844444
3718;31613492000;29855133333;30355133333
3719;31613493000;29855133333;30355133333
3720;31613494000;29855133333;30355133333
3721;31654505000;29896488888;30396488888
3736;31774623000;29938166666;30438166666
3750;31814024000;29979833333;30479833333
3751;31814039000;29980122222;30480122222
3752;31814040000;29980122222;30480122222
3753;31814041000;29980122222;30480122222
3754;31852976000;30021488888;30521488888
3755;31852979000;30021488888;30521488888
3756;31852980000;30021488888;30521488888
3757;31852981000;30021488888;30521488888
3758;31852982000;30021488888;30521488888
3759;31852983000;30021488888;30521488888
3760;31852984000;30021488888;30521488888
3761;31853198000;30021511111;30521511111
3762;31853214000;30021777777;30521777777
3764;31853215000;30021777777;30521777777
3765;31882998000;30063166666;30563166666
3766;31883002000;30063166666;30563166666
3767;31883009000;30063166666;30563166666
3768;31883011000;30063166666;30563166666
3769;31883012000;30063166666;30563166666
3770;31883013000;30063166666;30563166666
3771;31883015000;30063166666;30563166666
3772;31974908000;30063188888;30563188888
3776;31974914000;30104811111;30604811111
3777;31974915000;30104811111;30604811111
3778;31974916000;30104811111;30604811111
3779;31974917000;30104811111;30604811111
3780;31974918000;30104811111;30604811111
3781;31974919000;30104811111;30604811111
3785;32015477000;30105166666;30605166666
3789;32056290000;30146488888;30646488888
3790;32056293000;30146488888;30646488888
3791;32056294000;30146488888;30646488888
3792;32056295000;30146488888;30646488888
3793;32056296000;30146488888;30646488888
3794;32056497000;30146511111;30646511111
3795;32056513000;30146777777;30646777777
3796;32056514000;30146777777;30646777777
3797;32056515000;30146777777;30646777777
3798;32092141000;30188155555;30688155555
3799;32092145000;30188155555;30688155555
3800;32092146000;30188155555;30688155555
3801;32092147000;30188155555;30688155555
3802;32092148000;30188155555;30688155555
3803;32092149000;30188155555;30688155555
3804;32092150000;30188155555;30688155555
3806;32092237000;30188422222;30688422222
3807;32092241000;30188422222;30688422222
3808;32092242000;30188422222;30688422222
3809;32126633000;30229811111;30729811111
3811;32126636000;30229811111;30729811111
3812;32126637000;30229811111;30729811111
3813;32126638000;30229811111;30729811111
3814;32126639000;30229811111;30729811111
3815;32126640000;30229811111;30729811111
3816;32256593000;30229833333;30729833333
3831;32256609000;30313155555;30813155555
3832;32256610000;30313155555;30813155555
3833;32256611000;30313155555;30813155555
3834;32256612000;30313155555;30813155555
3835;32256613000;30313155555;30813155555
3836;32256614000;30313155555;30813155555
3837;32256614000;30313155555;30813155555
3838;32331681000;30313177777;30813177777
3839;32331696000;30313444444;30813444444
3841;32331698000;30313444444;30813444444
3842;32366417000;30354811111;30854811111
3843;32366421000;30354811111;30854811111
3844;32366422000;30354811111;30854811111
3845;32366423000;30354811111;30854811111
3846;32366424000;30354811111;30854811111
3847;32366425000;30354811111;30854811111
3848;32366426000;30354811111;30854811111
3849;32366703000;30354822222;30854822222
3850;32366710000;30355133333;30855133333
3852;32366711000;30355133333;30855133333
3853;32496895000;30396488888;30896488888
3871;32537750000;30438166666;30938166666
3873;32537766000;30438455555;30938455555
3874;32537767000;30438455555;30938455555
3875;32576910000;30479811111;30979811111
3876;32576914000;30479811111;30979811111
3877;32576915000;30479811111;30979811111
3879;32576916000;30479811111;30979811111
3880;32576917000;30479811111;30979811111
3881;32576918000;30479811111;30979811111
3882;32577126000;30479833333;30979833333
3886;32601762000;30521488888;31021488888
3887;32601764000;30521488888;31021488888
3890;32608414000;30521488888;31021488888
3891;32608416000;30521488888;31021488888
3892;32608417000;30521488888;31021488888
3893;32697644000;30521511111;31021511111
3897;32697659000;30563144444;31063144444
3898;32697660000;30563144444;31063144444
3899;32697661000;30563144444;31063144444
3900;32697662000;30563144444;31063144444
3901;32697663000;30563144444;31063144444
3902;32697664000;30563144444;31063144444
3903;32697665000;30563144444;31063144444
3904;32738747000;30563166666;31063166666
3912;32738762000;30604822222;31104822222
3913;32738763000;30604822222;31104822222
3914;32738764000;30604822222;31104822222
3915;32778719000;30604833333;31104833333
3916;32778734000;30605144444;31105144444
3917;32778735000;30605144444;31105144444
3919;32817768000;30646488888;31146488888
3920;32817772000;30646488888;31146488888
3921;32817773000;30646488888;31146488888
3922;32817774000;30646488888;31146488888
3923;32817775000;30646488888;31146488888
3924;32817776000;30646488888;31146488888
3925;32817777000;30646488888;31146488888
3926;32817975000;30646511111;31146511111
3927;32817991000;30646788888;31146788888
3928;32817992000;30646788888;31146788888
3930;32851301000;30688166666;31188166666
3933;32851305000;30688166666;31188166666
3934;32851306000;30688166666;31188166666
3935;32851307000;30688166666;31188166666
3936;32851308000;30688166666;31188166666
3937;32939414000;30688188888;31188188888
3938;32939429000;30688455555;31188455555
3939;32939430000;30688455555;31188455555
3940;32967597000;30688455555;31188455555
3941;33059482000;30729811111;31229811111
3953;33059594000;30771488888;31271488888
3954;33059597000;30771488888;31271488888
3957;33088744000;30771488888;31271488888
3960;33100601000;30771788888;31271788888
3974;33179075000;30854822222;31354822222
3975;33179079000;30854822222;31354822222
3976;33179080000;30854822222;31354822222
3977;33179081000;30854822222;31354822222
3978;33179082000;30854822222;31354822222
3979;33179083000;30854822222;31354822222
3980;33179084000;30854822222;31354822222
3981;33179290000;30854844444;31354844444
3982;33179306000;30855144444;31355144444
3983;33179307000;30855144444;31355144444
3984;33179308000;30855144444;31355144444
3985;33210085000;30896500000;31396500000
3986;33210089000;30896500000;31396500000
3987;33210090000;30896500000;31396500000
3988;33210091000;30896500000;31396500000
3989;33210092000;30896500000;31396500000
3990;33210094000;30896500000;31396500000
3991;33210095000;30896500000;31396500000
3992;33210303000;30896522222;31396522222
3993;33210307000;30896788888;31396788888
3994;33210309000;30896788888;31396788888
3995;33210309000;30896788888;31396788888
3996;33240294000;30938144444;31438144444
3997;33240296000;30938144444;31438144444
3998;33240315000;30938144444;31438144444
3999;33240316000;30938144444;31438144444
4000;33240317000;30938144444;31438144444
4001;33240318000;30938144444;31438144444
4002;33240319000;30938144444;31438144444
4003;33342061000;30938166666;31438166666
4018;33342077000;31021488888;31521488888
4019;33342079000;31021488888;31521488888
4020;33342080000;31021488888;31521488888
4021;33342080000;31021488888;31521488888
4022;33342081000;31021488888;31521488888
4023;33342082000;31021488888;31521488888
4024;33342083000;31021488888;31521488888
4025;33416804000;31021500000;31521500000
4026;33416820000;31021777777;31521777777
4027;33416821000;31021777777;31521777777
4028;33416822000;31021777777;31521777777
4029;33454393000;31063144444;31563144444
4040;33583354000;31104822222;31604822222
4059;33609948000;31146777777;31646777777
4060;33609951000;31146777777;31646777777
4061;33609952000;31146777777;31646777777
4062;33659900000;31188144444;31688144444
4063;33659904000;31188144444;31688144444
4064;33659905000;31188144444;31688144444
4066;33659906000;31188144444;31688144444
4067;33659907000;31188144444;31688144444
4068;33659908000;31188144444;31688144444
4069;33660107000;31188166666;31688166666
4071;33660122000;31188422222;31688422222
4072;33660123000;31188422222;31688422222
4073;33691953000;31229822222;31729822222
4074;33691959000;31229822222;31729822222
4075;33691964000;31229822222;31729822222
4076;33691965000;31229822222;31729822222
4077;33691966000;31229822222;31729822222
4078;33691967000;31229822222;31729822222
4079;33691968000;31229822222;31729822222
4080;33783274000;31229844444;31729844444
4084;33783280000;31271488888;31771488888
4085;33811689000;31271488888;31771488888
4086;33811692000;31271488888;31771488888
4087;33811704000;31271488888;31771488888
4088;33811705000;31271488888;31771488888
4089;33811706000;31271488888;31771488888
4090;33812483000;31271488888;31771488888
4091;33823960000;31271511111;31771511111
4357;33823975000;32271877777;32771877777
4358;33823977000;32271877777;32771877777
4359;34542452000;32313166666;32813166666
4480;34625585000;32771488888;33271488888
4481;34625589000;32771488888;33271488888
4482;34625590000;32771488888;33271488888
4483;34625591000;32771488888;33271488888
4485;34625592000;32771488888;33271488888
4486;34625593000;32771488888;33271488888
4487;34625799000;32771511111;33271511111
4488;34625815000;32771766666;33271766666
4489;34625816000;32771766666;33271766666
4490;34625817000;32771766666;33271766666
4491;34657878000;32813166666;33313166666
4492;34657881000;32813166666;33313166666
4493;34657882000;32813166666;33313166666
4494;34657883000;32813166666;33313166666
4495;34657884000;32813166666;33313166666
4496;34657885000;32813166666;33313166666
4497;34657886000;32813166666;33313166666
4498;34658105000;32813177777;33313177777
4499;34658124000;32813444444;33313444444
4500;34658125000;32813444444;33313444444
4501;34658126000;32813444444;33313444444
4502;34788017000;32854811111;33354811111
4519;34826563000;32896477777;33396477777
4520;34826764000;32896500000;33396500000
4521;34826779000;32896766666;33396766666
4522;34826780000;32896766666;33396766666
4523;34826781000;32896766666;33396766666
4524;34853722000;32938166666;33438166666
4525;34853726000;32938166666;33438166666
4526;34853727000;32938166666;33438166666
4527;34853728000;32938166666;33438166666
4528;34853729000;32938166666;33438166666
4529;34853729000;32938166666;33438166666
4530;34853730000;32938166666;33438166666
4532;34861216000;32938455555;33438455555
4533;34861220000;32938455555;33438455555
4534;34861221000;32938455555;33438455555
4535;34898158000;32979811111;33479811111
4536;34898162000;32979811111;33479811111
4538;34898163000;32979811111;33479811111
4539;34898164000;32979811111;33479811111
4540;34898165000;32979811111;33479811111
4541;34901243000;32979811111;33479811111
4542;34987876000;32979833333;33479833333
4546;34987891000;33021488888;33521488888
4547;34987893000;33021488888;33521488888
4548;34987894000;33021488888;33521488888
4549;34987894000;33021488888;33521488888
4550;34987895000;33021488888;33521488888
4551;34987896000;33021488888;33521488888
4552;34987904000;33021488888;33521488888
4553;35028672000;33021500000;33521500000
4561;35028687000;33063166666;33563166666
4562;35028688000;33063166666;33563166666
4563;35028689000;33063166666;33563166666
4564;35067851000;33063177777;33563177777
4565;35067866000;33063455555;33563455555
4566;35067867000;33063455555;33563455555
4567;35067868000;33063455555;33563455555
4568;35107134000;33104811111;33604811111
4569;35107137000;33104811111;33604811111
4571;35107138000;33104811111;33604811111
4572;35107139000;33104811111;33604811111
4573;35107140000;33104811111;33604811111
4574;35107142000;33104811111;33604811111
4575;35107318000;33104833333;33604833333
4577;35107323000;33105122222;33605122222
4578;35107324000;33105122222;33605122222
4579;35142779000;33146477777;33646477777
4580;35142783000;33146477777;33646477777
4581;35142784000;33146477777;33646477777
4582;35142785000;33146477777;33646477777
4583;35142786000;33146477777;33646477777
4584;35142787000;33146477777;33646477777
4585;35142788000;33146477777;33646477777
4586;35272585000;33146500000;33646500000
4602;35272600000;33229811111;33729811111
4603;35272601000;33229811111;33729811111
4604;35272602000;33229811111;33729811111
4605;35272603000;33229811111;33729811111
4606;35272604000;33229811111;33729811111
4607;35272605000;33229811111;33729811111
4608;35347369000;33229833333;33729833333
4609;35347384000;33230133333;33730133333
4610;35347386000;33230133333;33730133333
4612;35384174000;33271488888;33771488888
4623;35409353000;33313155555;33813155555
4624;35409356000;33313155555;33813155555
4625;35409357000;33313155555;33813155555
4626;35409358000;33313155555;33813155555
4627;35409359000;33313155555;33813155555
4630;35513374000;33313177777;33813177777
4640;35513389000;33354811111;33854811111
4641;35552620000;33354822222;33854822222
4642;35552636000;33355122222;33855122222
4643;35552637000;33355122222;33855122222
4644;35552638000;33355122222;33855122222
4646;35592295000;33396488888;33896488888
4647;35592298000;33396488888;33896488888
4648;35592299000;33396488888;33896488888
4649;35592301000;33396488888;33896488888
4650;35592301000;33396488888;33896488888
4651;35592302000;33396488888;33896488888
4652;35592502000;33396500000;33896500000
4654;35592517000;33396777777;33896777777
4655;35592518000;33396777777;33896777777
4656;35626143000;33438155555;33938155555
4660;35626147000;33438155555;33938155555
4661;35626148000;33438155555;33938155555
4662;35626149000;33438155555;33938155555
4663;35713949000;33438177777;33938177777
4664;35713964000;33438455555;33938455555
4665;35713966000;33438455555;33938455555
4666;35713967000;33438455555;33938455555
4668;35754961000;33479811111;33979811111
4680;35795656000;33521488888;34021488888
4681;35795659000;33521488888;34021488888
4682;35795660000;33521488888;34021488888
4683;35795662000;33521488888;34021488888
4684;35795663000;33521488888;34021488888
4685;35874961000;33521500000;34021500000
4700;35874976000;33604822222;34104822222
4701;35874977000;33604822222;34104822222
4702;35874978000;33604822222;34104822222
4703;35874979000;33604822222;34104822222
4704;35874980000;33604822222;34104822222
4705;35874981000;33604822222;34104822222
4706;35874982000;33604822222;34104822222
4707;35947024000;33604833333;34104833333
4709;35947039000;33605133333;34105133333
4710;35947041000;33605133333;34105133333
4711;35983806000;33646488888;34146488888
4712;35983809000;33646488888;34146488888
4713;35983820000;33646488888;34146488888
4714;35983821000;33646488888;34146488888
4715;35983822000;33646488888;34146488888
4716;35983823000;33646488888;34146488888
4717;35983824000;33646488888;34146488888
4718;35983959000;33646500000;34146500000
4719;35983964000;33646777777;34146777777
4720;35983975000;33646777777;34146777777
4721;35983976000;33646777777;34146777777
4723;36004936000;33688166666;34188166666
4724;36004939000;33688166666;34188166666
4725;36004940000;33688166666;34188166666
4726;36004941000;33688166666;34188166666
4727;36004942000;33688166666;34188166666
4728;36004943000;33688166666;34188166666
4729;36115957000;33688188888;34188188888
4964;36115972000;34604822222;35104822222
4965;36115980000;34604822222;35104822222
4966;36226342000;34604822222;35104822222
4967;36226360000;34604822222;35104822222
4968;36226361000;34604822222;35104822222
4969;36226363000;34604822222;35104822222
4970;36226364000;34604822222;35104822222
4971;36803462000;34604844444;35104844444
5063;36803486000;34979822222;35479822222
5064;36803488000;34979822222;35479822222
5065;36803489000;34979822222;35479822222
5066;36803490000;34979822222;35479822222
5067;36803491000;34979822222;35479822222
5068;36803492000;34979822222;35479822222
5069;36803493000;34979822222;35479822222
5070;36841235000;34979844444;35479844444
5085;36841250000;35063155555;35563155555
5086;36841252000;35063155555;35563155555
5087;36841253000;35063155555;35563155555
5088;36841254000;35063155555;35563155555
5089;36841255000;35063155555;35563155555
5090;36841255000;35063155555;35563155555
5091;36841256000;35063155555;35563155555
5092;36914941000;35063177777;35563177777
5093;36914957000;35063466666;35563466666
5094;36914958000;35063466666;35563466666
5095;36914959000;35063466666;35563466666
5096;36951120000;35104822222;35604822222
5097;36951124000;35104822222;35604822222
5098;36951125000;35104822222;35604822222
5099;36951127000;35104822222;35604822222
5100;36951128000;35104822222;35604822222
5101;36951130000;35104822222;35604822222
5102;36951131000;35104822222;35604822222
5103;36951313000;35104833333;35604833333
5104;36951319000;35105133333;35605133333
5105;36951320000;35105133333;35605133333
5106;36951321000;35105133333;35605133333
5107;37083173000;35146477777;35646477777
5125;37121779000;35188188888;35688188888
5126;37121794000;35188455555;35688455555
5127;37121796000;35188455555;35688455555
5128;37121796000;35188455555;35688455555
5129;37161112000;35229822222;35729822222
5130;37161116000;35229822222;35729822222
5131;37161117000;35229822222;35729822222
5132;37161118000;35229822222;35729822222
5133;37161119000;35229822222;35729822222
5134;37161120000;35229822222;35729822222
5135;37161121000;35229822222;35729822222
5136;37161326000;35229844444;35729844444
5137;37161342000;35230133333;35730133333
5138;37161343000;35230133333;35730133333
5139;37161344000;35230133333;35730133333
5140;37190175000;35271488888;35771488888
5141;37190179000;35271488888;35771488888
5142;37190180000;35271488888;35771488888
5143;37190181000;35271488888;35771488888
5144;37190182000;35271488888;35771488888
5145;37192608000;35271488888;35771488888
5146;37192865000;35271488888;35771488888
5147;37282463000;35271511111;35771511111
5151;37282479000;35313166666;35813166666
5152;37282480000;35313166666;35813166666
5155;37311922000;35313166666;35813166666
5156;37311925000;35313166666;35813166666
5157;37311926000;35313166666;35813166666
5160;37318560000;35313466666;35813466666
5167;37362710000;35354822222;35854822222
5168;37362714000;35354822222;35854822222
5169;37362914000;35354844444;35854844444
5170;37362929000;35355177777;35855177777
5171;37362930000;35355177777;35855177777
5172;37362931000;35355177777;35855177777
5173;37402009000;35396477777;35896477777
5176;37402012000;35396477777;35896477777
5177;37402013000;35396477777;35896477777
5179;37402014000;35396477777;35896477777
5180;37402214000;35396500000;35896500000
5181;37402229000;35396800000;35896800000
5183;37402230000;35396800000;35896800000
5184;37436413000;35438155555;35938155555
5190;37436416000;35438155555;35938155555
5191;37563768000;35438177777;35938177777
5209;37563783000;35521488888;36021488888
5210;37563784000;35521488888;36021488888
5211;37563785000;35521488888;36021488888
5212;37563786000;35521488888;36021488888
5214;37638201000;35521777777;36021777777
5215;37638205000;35521777777;36021777777
5216;37638206000;35521777777;36021777777
5217;37763769000;35563277777;36063277777
5233;37805131000;35604833333;36104833333
5257;37877235000;35688211111;36188211111
5258;37877251000;35688477777;36188477777
5259;37877252000;35688477777;36188477777
5260;37877253000;35688477777;36188477777
5261;37914320000;35729822222;36229822222
5262;37914324000;35729822222;36229822222
5263;37914325000;35729822222;36229822222
5264;37914326000;35729822222;36229822222
5265;37914336000;35729822222;36229822222
5266;37914337000;35729822222;36229822222
5267;37914338000;35729822222;36229822222
5268;37914561000;35729833333;36229833333
5270;37914577000;35730155555;36230155555
5271;37914578000;35730155555;36230155555
5272;37943630000;35771477777;36271477777
5277;37943633000;35771477777;36271477777
5278;37943634000;35771477777;36271477777
5279;38005581000;35771500000;36271500000
5280;38005597000;35771788888;36271788888
5281;38005598000;35771788888;36271788888
5282;38005599000;35771788888;36271788888
5283;38046749000;35813166666;36313166666
5297;38085977000;35854822222;36354822222
5298;38085980000;35854822222;36354822222
5299;38085981000;35854822222;36354822222
5300;38085982000;35854822222;36354822222
5301;38166580000;35854833333;36354833333
5319;38166596000;35938166666;36438166666
5320;38166597000;35938166666;36438166666
5321;38166598000;35938166666;36438166666
5322;38166599000;35938166666;36438166666
5323;38242092000;35938177777;36438177777
5324;38242108000;35938455555;36438455555
5325;38242109000;35938455555;36438455555
5326;38242110000;35938455555;36438455555
5327;38278356000;35979822222;36479822222
5328;38278370000;35979822222;36479822222
5329;38278371000;35979822222;36479822222
5332;38278372000;35979822222;36479822222
5333;38278373000;35979822222;36479822222
5334;38278592000;35979844444;36479844444
5335;38278607000;35980166666;36480166666
5337;38278609000;35980166666;36480166666
5338;38408506000;36021477777;36521477777
5339;38408510000;36021477777;36521477777
5340;38408511000;36021477777;36521477777
5341;38408512000;36021477777;36521477777
5342;38408513000;36021477777;36521477777
5343;38408514000;36021477777;36521477777
5344;38408515000;36021477777;36521477777
5345;38408728000;36021500000;36521500000
