seqnum;now;rtptime;deadline
0;7112209000;6670600000;6870600000
1;7112214000;6670600000;6870600000
2;7112216000;6670600000;6870600000
3;7112217000;6670600000;6870600000
4;7222271000;6670600000;6870600000
5;7222407000;6670600000;6870600000
6;7222643000;6670600000;6870600000
7;7222646000;6670600000;6870600000
8;7222838000;6670600000;6870600000
9;7223442000;6670600000;6870600000
10;7224284000;6670600000;6870600000
11;7224300000;6702333333;6902333333
12;7383296000;6702333333;6902333333
13;7383298000;6702333333;6902333333
16;7384247000;6702333333;6902333333
17;7384258000;6702333333;6902333333
18;7384426000;6702333333;6902333333
19;7384434000;6702333333;6902333333
20;7384698000;6702333333;6902333333
23;7384873000;6744033333;6944033333
24;7384934000;6744033333;6944033333
25;7384936000;6744033333;6944033333
26;7385228000;6744033333;6944033333
27;7544771000;6744033333;6944033333
28;7544773000;6744033333;6944033333
29;7545022000;6744033333;6944033333
30;7545025000;6744033333;6944033333
31;7545272000;6744033333;6944033333
32;7545294000;6744033333;6944033333
33;7545718000;6785666666;6985666666
35;7704184000;6785666666;6985666666
36;7705756000;6785666666;6985666666
37;7705758000;6785666666;6985666666
38;7705996000;6785666666;6985666666
40;7706283000;6785666666;6985666666
41;7706736000;6785666666;6985666666
42;7864972000;6785666666;6985666666
43;7866732000;6785666666;6985666666
44;7866939000;6827366666;7027366666
45;7866941000;6827366666;7027366666
46;7867205000;6827366666;7027366666
47;7867207000;6827366666;7027366666
48;7867428000;6827366666;7027366666
49;8026471000;6827366666;7027366666
50;8026690000;6827366666;7027366666
51;8027934000;6827366666;7027366666
52;8027936000;6827366666;7027366666
53;8185608000;6827366666;7027366666
54;8185620000;6827366666;7027366666
55;8185780000;6868977777;7068977777
56;8185782000;6868977777;7068977777
57;8186024000;6868977777;7068977777
58;8186181000;6868977777;7068977777
59;8186186000;6868977777;7068977777
61;8186940000;6868977777;7068977777
62;8187107000;6868977777;7068977777
63;8187109000;6868977777;7068977777
64;8187302000;6868977777;7068977777
65;8345568000;6868977777;7068977777
69;8346281000;6910622222;7110622222
70;8346449000;6910622222;7110622222
71;8346451000;6910622222;7110622222
72;8346656000;6910622222;7110622222
73;8346865000;6910622222;7110622222
74;8347354000;6910622222;7110622222
75;8347528000;6910622222;7110622222
76;8506936000;6910622222;7110622222
77;8507058000;6952388888;7152388888
78;8507254000;6952388888;7152388888
79;8507257000;6952388888;7152388888
80;8507442000;6952388888;7152388888
81;8507445000;6952388888;7152388888
82;8507808000;6952388888;7152388888
83;8508008000;6952388888;7152388888
84;8667824000;6952388888;7152388888
85;8667976000;6952388888;7152388888
86;8667978000;6952388888;7152388888
87;8668241000;6952388888;7152388888
88;8668244000;6994033333;7194033333
89;8668383000;6994033333;7194033333
90;8668560000;6994033333;7194033333
91;8668563000;6994033333;7194033333
92;8828281000;6994033333;7194033333
93;8828499000;6994033333;7194033333
94;8828688000;6994033333;7194033333
95;8828690000;6994033333;7194033333
96;8829053000;6994033333;7194033333
97;8829244000;6994033333;7194033333
99;8829499000;7035633333;7235633333
100;8988826000;7035633333;7235633333
104;8989609000;7035633333;7235633333
105;8989733000;7035633333;7235633333
106;8989939000;7035633333;7235633333
107;9149316000;7035633333;7235633333
108;9150401000;7035633333;7235633333
110;9150676000;7077266666;7277266666
111;9309786000;7077266666;7277266666
112;9310904000;7077266666;7277266666
114;9470333000;7077266666;7277266666
115;9471376000;7077266666;7277266666
116;9471601000;7077266666;7277266666
117;9630785000;7077266666;7277266666
118;9631860000;7077266666;7277266666
119;9632067000;7077266666;7277266666
120;9791223000;7077266666;7277266666
121;9792343000;7118977777;7318977777
122;9792547000;7118977777;7318977777
123;9951692000;7118977777;7318977777
124;9952822000;7118977777;7318977777
125;9953034000;7118977777;7318977777
126;10112178000;7118977777;7318977777
127;10113303000;7118977777;7318977777
128;10113502000;7118977777;7318977777
129;10272662000;7118977777;7318977777
130;10273806000;7118977777;7318977777
132;10433209000;7160622222;7360622222
133;10434342000;7160622222;7360622222
134;10593644000;7160622222;7360622222
136;10594847000;7160622222;7360622222
137;10754138000;7160622222;7360622222
138;10755292000;7160622222;7360622222
139;10915789000;7160622222;7360622222
140;10915998000;7160622222;7360622222
141;10916001000;7160622222;7360622222
142;11076236000;7160622222;7360622222
143;11076424000;7202300000;7402300000
145;11236735000;7202300000;7402300000
146;11236907000;7202300000;7402300000
147;11397193000;7202300000;7402300000
148;11397388000;7202300000;7402300000
149;11557680000;7202300000;7402300000
150;11557888000;7202300000;7402300000
151;11557891000;7202300000;7402300000
152;11718165000;7202300000;7402300000
153;11718375000;7202300000;7402300000
154;11718389000;7243988888;7443988888
155;11878651000;7243988888;7443988888
156;11878854000;7243988888;7443988888
160;12042896000;7243988888;7443988888
161;12203933000;7243988888;7443988888
162;12364403000;7243988888;7443988888
163;12525468000;7243988888;7443988888
164;12525681000;7243988888;7443988888
165;12525694000;7285633333;7485633333
143;12526330000;7202300000;7402300000
144;12526333000;7202300000;7402300000
145;12526333000;7202300000;7402300000
146;12526339000;7202300000;7402300000
147;12526341000;7202300000;7402300000
166;12685987000;7285633333;7485633333
167;12686155000;7285633333;7485633333
148;12687324000;7202300000;7402300000
149;12687338000;7202300000;7402300000
150;12687339000;7202300000;7402300000
151;12687340000;7202300000;7402300000
152;12687340000;7202300000;7402300000
169;12846444000;7285633333;7485633333
170;12846626000;7285633333;7485633333
153;12848328000;7202300000;7402300000
154;12848341000;7243988888;7443988888
155;12848342000;7243988888;7443988888
156;12848343000;7243988888;7443988888
157;12848344000;7243988888;7443988888
171;13006932000;7285633333;7485633333
172;13007108000;7285633333;7485633333
173;13167381000;7285633333;7485633333
174;13167561000;7285633333;7485633333
175;13167727000;7285633333;7485633333
176;13327864000;7327300000;7527300000
177;13328067000;7327300000;7527300000
179;13488373000;7327300000;7527300000
180;13488551000;7327300000;7527300000
181;13648818000;7327300000;7527300000
182;13649022000;7327300000;7527300000
183;13809326000;7327300000;7527300000
184;13809489000;7327300000;7527300000
185;13809497000;7327300000;7527300000
186;13969706000;7327300000;7527300000
187;13969928000;7368988888;7568988888
188;13975122000;7368988888;7568988888
189;13975124000;7368988888;7568988888
190;14130352000;7368988888;7568988888
191;14132782000;7368988888;7568988888
192;14136141000;7368988888;7568988888
193;14136143000;7368988888;7568988888
194;14293781000;7368988888;7568988888
195;14293784000;7368988888;7568988888
196;14297171000;7368988888;7568988888
197;14297184000;7368988888;7568988888
198;14297417000;7410622222;7610622222
199;14454744000;7410622222;7610622222
202;14458298000;7410622222;7610622222
203;14615774000;7410622222;7610622222
204;14772683000;7410622222;7610622222
205;14776818000;7410622222;7610622222
206;14932743000;7410622222;7610622222
207;14932950000;7410622222;7610622222
208;14933155000;7410622222;7610622222
209;14933158000;7452322222;7652322222
211;15093231000;7452322222;7652322222
212;15093396000;7452322222;7652322222
213;15093635000;7452322222;7652322222
214;15093816000;7452322222;7652322222
215;15253669000;7452322222;7652322222
216;15253869000;7452322222;7652322222
217;15254266000;7452322222;7652322222
218;15254444000;7452322222;7652322222
219;15254458000;7452322222;7652322222
220;15414142000;7493988888;7693988888
224;15420412000;7493988888;7693988888
225;15574615000;7493988888;7693988888
226;15743098000;7493988888;7693988888
227;15743317000;7493988888;7693988888
228;15743322000;7493988888;7693988888
229;15743556000;7493988888;7693988888
230;15903635000;7493988888;7693988888
231;15904034000;7535633333;7735633333
232;15904036000;7535633333;7735633333
233;15904317000;7535633333;7735633333
234;15904319000;7535633333;7735633333
235;15904599000;7535633333;7735633333
236;16064477000;7535633333;7735633333
238;16065112000;7535633333;7735633333
239;16065321000;7535633333;7735633333
240;16065323000;7535633333;7735633333
241;16065598000;7535633333;7735633333
242;16225616000;7577300000;7777300000
243;16226078000;7577300000;7777300000
244;16226080000;7577300000;7777300000
245;16386629000;7577300000;7777300000
246;16387114000;7577300000;7777300000
247;16387117000;7577300000;7777300000
248;16547689000;7577300000;7777300000
249;16548131000;7577300000;7777300000
250;16548134000;7577300000;7777300000
251;16708743000;7577300000;7777300000
252;16709102000;7577300000;7777300000
253;16709319000;7618988888;7818988888
254;16869795000;7618988888;7818988888
255;16870069000;7618988888;7818988888
256;16870313000;7618988888;7818988888
257;17030811000;7618988888;7818988888
258;17030813000;7618988888;7818988888
259;17031102000;7618988888;7818988888
260;17031318000;7618988888;7818988888
261;17191332000;7618988888;7818988888
262;17191529000;7618988888;7818988888
263;17191756000;7618988888;7818988888
265;17191996000;7660611111;7860611111
266;17192166000;7660611111;7860611111
267;17240607000;7660611111;7860611111
268;17240814000;7660611111;7860611111
269;17248294000;7660611111;7860611111
270;17351788000;7660611111;7860611111
271;17352006000;7660611111;7860611111
272;17352210000;7660611111;7860611111
273;17352399000;7660611111;7860611111
274;17352415000;7660611111;7860611111
275;17352600000;7702300000;7902300000
276;17512484000;7702300000;7902300000
277;17512754000;7702300000;7902300000
278;17512756000;7702300000;7902300000
279;17512899000;7702300000;7902300000
281;17673214000;7702300000;7902300000
282;17673380000;7702300000;7902300000
283;17673382000;7702300000;7902300000
284;17673579000;7702300000;7902300000
285;17833605000;7702300000;7902300000
286;17833797000;7743977777;7943977777
287;17833997000;7743977777;7943977777
290;17994473000;7743977777;7943977777
291;17997083000;7743977777;7943977777
292;18157672000;7743977777;7943977777
294;18158068000;7743977777;7943977777
296;18319014000;7743977777;7943977777
297;18319207000;7785622222;7985622222
298;18480012000;7785622222;7985622222
300;18641101000;7785622222;7985622222
301;18641103000;7785622222;7985622222
302;18802097000;7785622222;7985622222
303;18802099000;7785622222;7985622222
304;18957439000;7785622222;7985622222
305;18957649000;7785622222;7985622222
306;18963395000;7785622222;7985622222
307;19118145000;7785622222;7985622222
308;19124232000;7827277777;8027277777
309;19124235000;7827277777;8027277777
310;19124465000;7827277777;8027277777
311;19285028000;7827277777;8027277777
312;19285031000;7827277777;8027277777
313;19285613000;7827277777;8027277777
314;19439870000;7827277777;8027277777
315;19446075000;7827277777;8027277777
316;19446077000;7827277777;8027277777
317;19446609000;7827277777;8027277777
318;19600278000;7827277777;8027277777
319;19600461000;7868966666;8068966666
320;19607622000;7868966666;8068966666
321;19760000000;7868966666;8068966666
322;19760716000;7868966666;8068966666
323;19760928000;7868966666;8068966666
324;19920334000;7868966666;8068966666
325;19920484000;7868966666;8068966666
326;19921183000;7868966666;8068966666
327;19921384000;7868966666;8068966666
328;19921386000;7868966666;8068966666
330;20081032000;7910633333;8110633333
331;20081654000;7910633333;8110633333
332;20081857000;7910633333;8110633333
333;20082054000;7910633333;8110633333
334;20241453000;7910633333;8110633333
335;20242070000;7910633333;8110633333
336;20242488000;7910633333;8110633333
337;20401930000;7910633333;8110633333
338;20402522000;7910633333;8110633333
339;20402913000;7910633333;8110633333
340;20562350000;7910633333;8110633333
341;20562967000;7952344444;8152344444
342;20563339000;7952344444;8152344444
343;20722816000;7952344444;8152344444
344;20723423000;7952344444;8152344444
345;20723792000;7952344444;8152344444
346;20883299000;7952344444;8152344444
347;20883877000;7952344444;8152344444
348;20884230000;7952344444;8152344444
349;21043789000;7952344444;8152344444
350;21044329000;7952344444;8152344444
351;21044685000;7952344444;8152344444
352;21204268000;7993966666;8193966666
353;21204781000;7993966666;8193966666
354;21205093000;7993966666;8193966666
355;21364756000;7993966666;8193966666
356;21365304000;7993966666;8193966666
357;21365663000;7993966666;8193966666
358;21525241000;7993966666;8193966666
359;21525733000;7993966666;8193966666
360;21526063000;7993966666;8193966666
361;21685718000;7993966666;8193966666
362;21686129000;7993966666;8193966666
363;21686498000;8035611111;8235611111
364;21846586000;8035611111;8235611111
365;21846791000;8035611111;8235611111
366;21846997000;8035611111;8235611111
367;22007065000;8035611111;8235611111
368;22007265000;8035611111;8235611111
369;22007470000;8035611111;8235611111
370;22167547000;8035611111;8235611111
371;22167751000;8035611111;8235611111
372;22167957000;8035611111;8235611111
373;22327920000;8035611111;8235611111
374;22328165000;8077244444;8277244444
375;22328387000;8077244444;8277244444
376;22488390000;8077244444;8277244444
377;22488625000;8077244444;8277244444
378;22488833000;8077244444;8277244444
379;22648902000;8077244444;8277244444
380;22649105000;8077244444;8277244444
381;22656703000;8077244444;8277244444
382;22817664000;8077244444;8277244444
383;22817883000;8077244444;8277244444
384;22817905000;8077244444;8277244444
385;22818072000;8118966666;8318966666
386;22818075000;8118966666;8318966666
387;22978146000;8118966666;8318966666
388;22978339000;8118966666;8318966666
389;22978574000;8118966666;8318966666
390;22978576000;8118966666;8318966666
391;22978766000;8118966666;8318966666
392;23138641000;8118966666;8318966666
393;23138997000;8118966666;8318966666
394;23139194000;8118966666;8318966666
395;23139216000;8118966666;8318966666
396;23139400000;8160633333;8360633333
397;23299684000;8160633333;8360633333
398;23299891000;8160633333;8360633333
399;23299893000;8160633333;8360633333
400;23300085000;8160633333;8360633333
401;23300319000;8160633333;8360633333
402;23460167000;8160633333;8360633333
403;23460364000;8160633333;8360633333
404;23460563000;8160633333;8360633333
405;23460626000;8160633333;8360633333
406;23461607000;8160633333;8360633333
407;23620862000;8202311111;8402311111
408;23621065000;8202311111;8402311111
409;23621068000;8202311111;8402311111
410;23621260000;8202311111;8402311111
411;23622075000;8202311111;8402311111
412;23781338000;8202311111;8402311111
413;23781555000;8202311111;8402311111
414;23781771000;8202311111;8402311111
415;23781773000;8202311111;8402311111
416;23782558000;8202311111;8402311111
417;23941786000;8202311111;8402311111
418;23942010000;8243977777;8443977777
419;23942203000;8243977777;8443977777
420;23945029000;8243977777;8443977777
421;23945227000;8243977777;8443977777
422;24102508000;8243977777;8443977777
423;24102716000;8243977777;8443977777
424;24105551000;8243977777;8443977777
425;24105730000;8243977777;8443977777
426;24105732000;8243977777;8443977777
427;24262999000;8243977777;8443977777
428;24263230000;8243977777;8443977777
429;24266012000;8285622222;8485622222
430;24266210000;8285622222;8485622222
433;24423674000;8285622222;8485622222
434;24426484000;8285622222;8485622222
435;24426697000;8285622222;8485622222
436;24428958000;8285622222;8485622222
437;24431623000;8285622222;8485622222
438;24584756000;8285622222;8485622222
439;24584773000;8285622222;8485622222
440;24585099000;8327300000;8527300000
441;24589466000;8327300000;8527300000
442;24589468000;8327300000;8527300000
443;24589715000;8327300000;8527300000
444;24589718000;8327300000;8527300000
445;24589967000;8327300000;8527300000
446;24589969000;8327300000;8527300000
447;24745807000;8327300000;8527300000
448;24745809000;8327300000;8527300000
449;24746074000;8327300000;8527300000
451;24750543000;8368955555;8568955555
453;24750546000;8368955555;8568955555
454;24750800000;8368955555;8568955555
455;24751008000;8368955555;8568955555
456;24751010000;8368955555;8568955555
457;24906866000;8368955555;8568955555
458;24906868000;8368955555;8568955555
459;24908144000;8368955555;8568955555
462;24911680000;8410611111;8610611111
463;24911682000;8410611111;8610611111
464;24912052000;8410611111;8610611111
465;24912054000;8410611111;8610611111
466;25068702000;8410611111;8610611111
467;25068704000;8410611111;8610611111
468;25068914000;8410611111;8610611111
469;25069204000;8410611111;8610611111
471;25072721000;8410611111;8610611111
473;25229541000;8452311111;8652311111
474;25229777000;8452311111;8652311111
475;25229779000;8452311111;8652311111
478;25233726000;8452311111;8652311111
479;25390536000;8452311111;8652311111
480;25394763000;8452311111;8652311111
481;25551619000;8452311111;8652311111
482;25555740000;8452311111;8652311111
483;25555753000;8452311111;8652311111
484;25556021000;8493988888;8693988888
466;26191969000;8410611111;8610611111
467;26191971000;8410611111;8610611111
468;26191972000;8410611111;8610611111
469;26191978000;8410611111;8610611111
470;26191979000;8410611111;8610611111
471;26192132000;8410611111;8610611111
472;26352133000;8410611111;8610611111
473;26352373000;8452311111;8652311111
474;26352571000;8452311111;8652311111
475;26512596000;8452311111;8652311111
476;26512815000;8452311111;8652311111
477;26513007000;8452311111;8652311111
478;26513237000;8452311111;8652311111
479;26673106000;8452311111;8652311111
480;26673262000;8452311111;8652311111
481;26673464000;8452311111;8652311111
483;26833495000;8452311111;8652311111
484;26833739000;8493988888;8693988888
485;26993980000;8493988888;8693988888
486;26994156000;8493988888;8693988888
487;26994159000;8493988888;8693988888
488;26994352000;8493988888;8693988888
489;27154640000;8493988888;8693988888
491;27154884000;8493988888;8693988888
492;27315127000;8493988888;8693988888
493;27315318000;8493988888;8693988888
494;27475653000;8493988888;8693988888
495;27475761000;8535644444;8735644444
496;27475969000;8535644444;8735644444
497;27636028000;8535644444;8735644444
498;27636195000;8535644444;8735644444
500;27796542000;8535644444;8735644444
501;28332009000;8535644444;8735644444
502;28332221000;8535644444;8735644444
503;28492489000;8535644444;8735644444
504;28492699000;8535644444;8735644444
505;28652924000;8535644444;8735644444
506;28653133000;8577322222;8777322222
507;28813419000;8577322222;8777322222
509;28973935000;8577322222;8777322222
510;29134391000;8577322222;8777322222
511;29294876000;8577322222;8777322222
512;29455358000;8577322222;8777322222
513;29455595000;8577322222;8777322222
514;29455598000;8577322222;8777322222
515;29615848000;8577322222;8777322222
516;29616077000;8577322222;8777322222
518;29776363000;8618977777;8818977777
519;29776549000;8618977777;8818977777
520;29936825000;8618977777;8818977777
521;29937024000;8618977777;8818977777
522;30097296000;8618977777;8818977777
523;30097501000;8618977777;8818977777
524;30097503000;8618977777;8818977777
525;30097713000;8618977777;8818977777
526;30257736000;8618977777;8818977777
527;30257964000;8618977777;8818977777
528;30258144000;8660633333;8860633333
529;30258146000;8660633333;8860633333
530;30259177000;8660633333;8860633333
531;30315849000;8660633333;8860633333
532;30315851000;8660633333;8860633333
533;30316098000;8660633333;8860633333
534;30316100000;8660633333;8860633333
535;30316352000;8660633333;8860633333
536;30419425000;8660633333;8860633333
537;30419434000;8660633333;8860633333
541;30476951000;8702300000;8902300000
542;30476962000;8702300000;8902300000
543;30477154000;8702300000;8902300000
544;30477156000;8702300000;8902300000
547;30580495000;8702300000;8902300000
548;30637949000;8702300000;8902300000
549;30637961000;8702300000;8902300000
550;30798999000;8744011111;8944011111
551;30799002000;8744011111;8944011111
552;30799250000;8744011111;8944011111
555;30959960000;8744011111;8944011111
556;30959974000;8744011111;8944011111
557;30960202000;8744011111;8944011111
558;31120994000;8744011111;8944011111
559;31120997000;8744011111;8944011111
560;31121281000;8744011111;8944011111
561;31282058000;8785611111;8985611111
562;31282060000;8785611111;8985611111
563;31381824000;8785611111;8985611111
564;31443081000;8785611111;8985611111
565;31443084000;8785611111;8985611111
566;31542659000;8785611111;8985611111
567;31542676000;8785611111;8985611111
568;31604079000;8785611111;8985611111
569;31604081000;8785611111;8985611111
570;31703207000;8785611111;8985611111
571;31703441000;8785611111;8985611111
572;31765115000;8827288888;9027288888
573;31765118000;8827288888;9027288888
574;31863367000;8827288888;9027288888
576;31863676000;8827288888;9027288888
577;31926157000;8827288888;9027288888
578;31926159000;8827288888;9027288888
579;32023491000;8827288888;9027288888
580;32023707000;8827288888;9027288888
581;32023911000;8827288888;9027288888
582;32024125000;8827288888;9027288888
583;32183769000;8868988888;9068988888
584;32183995000;8868988888;9068988888
585;32184173000;8868988888;9068988888
586;32184175000;8868988888;9068988888
587;32184365000;8868988888;9068988888
588;32184565000;8868988888;9068988888
589;32184568000;8868988888;9068988888
590;32344244000;8868988888;9068988888
591;32344441000;8868988888;9068988888
592;32344659000;8868988888;9068988888
593;32344681000;8868988888;9068988888
594;32344855000;8910622222;9110622222
595;32345054000;8910622222;9110622222
596;32345281000;8910622222;9110622222
597;32504718000;8910622222;9110622222
598;32504924000;8910622222;9110622222
599;32505125000;8910622222;9110622222
601;32505335000;8910622222;9110622222
602;32505520000;8910622222;9110622222
603;32505745000;8910622222;9110622222
604;32665145000;8910622222;9110622222
605;32665344000;8952366666;9152366666
606;32665530000;8952366666;9152366666
608;32666008000;8952366666;9152366666
609;32666187000;8952366666;9152366666
610;32666391000;8952366666;9152366666
611;32825609000;8952366666;9152366666
612;32825817000;8952366666;9152366666
613;32826011000;8952366666;9152366666
614;32826412000;8952366666;9152366666
615;32826646000;8952366666;9152366666
616;32986271000;8993977777;9193977777
617;32986427000;8993977777;9193977777
619;32987089000;8993977777;9193977777
620;33146753000;8993977777;9193977777
621;33146962000;8993977777;9193977777
622;33152532000;8993977777;9193977777
623;33152743000;8993977777;9193977777
624;33307239000;8993977777;9193977777
625;33313290000;8993977777;9193977777
626;33313447000;8993977777;9193977777
627;33467723000;9035622222;9235622222
628;33473758000;9035622222;9235622222
629;33473966000;9035622222;9235622222
630;33473968000;9035622222;9235622222
609;33475242000;8952366666;9152366666
610;33475255000;8952366666;9152366666
611;33475256000;8952366666;9152366666
612;33475257000;8952366666;9152366666
613;33475258000;8952366666;9152366666
631;33628227000;9035622222;9235622222
632;33634439000;9035622222;9235622222
633;33634647000;9035622222;9235622222
634;33634650000;9035622222;9235622222
615;33636574000;8952366666;9152366666
616;33636576000;8993977777;9193977777
617;33636577000;8993977777;9193977777
618;33636577000;8993977777;9193977777
619;33636578000;8993977777;9193977777
635;33794953000;9035622222;9235622222
636;33795128000;9035622222;9235622222
637;33795253000;9035622222;9235622222
638;33795343000;9077300000;9277300000
639;33955413000;9077300000;9277300000
640;33955577000;9077300000;9277300000
641;33955825000;9077300000;9277300000
642;33958091000;9077300000;9277300000
643;34116303000;9077300000;9277300000
644;34116502000;9077300000;9277300000
645;34116505000;9077300000;9277300000
646;34118559000;9077300000;9277300000
647;34276788000;9077300000;9277300000
648;34277107000;9077300000;9277300000
649;34277190000;9118977777;9318977777
650;34279040000;9118977777;9318977777
651;34439560000;9118977777;9318977777
652;34439760000;9118977777;9318977777
653;34439762000;9118977777;9318977777
654;34439964000;9118977777;9318977777
655;34600053000;9118977777;9318977777
656;34600282000;9118977777;9318977777
657;34600478000;9118977777;9318977777
658;34605528000;9118977777;9318977777
659;34760474000;9118977777;9318977777
660;34760704000;9160633333;9360633333
661;34760907000;9160633333;9360633333
663;34764044000;9160633333;9360633333
664;34766078000;9160633333;9360633333
665;34766080000;9160633333;9360633333
666;34766313000;9160633333;9360633333
667;34766316000;9160633333;9360633333
668;34924355000;9160633333;9360633333
669;34924750000;9160633333;9360633333
670;34924771000;9160633333;9360633333
671;34925031000;9202300000;9402300000
672;34927146000;9202300000;9402300000
673;35085390000;9202300000;9402300000
674;35085746000;9202300000;9402300000
675;35085748000;9202300000;9402300000
676;35086034000;9202300000;9402300000
677;35088201000;9202300000;9402300000
678;35246392000;9202300000;9402300000
679;35246728000;9202300000;9402300000
680;35246731000;9202300000;9402300000
682;35249295000;9243977777;9443977777
683;35407439000;9243977777;9443977777
684;35407441000;9243977777;9443977777
685;35407699000;9243977777;9443977777
686;35407702000;9243977777;9443977777
687;35410295000;9243977777;9443977777
688;35568489000;9243977777;9443977777
689;35568492000;9243977777;9443977777
690;35571343000;9243977777;9443977777
691;35724364000;9243977777;9443977777
692;35724578000;9243977777;9443977777
693;35728076000;9285633333;9485633333
694;35884200000;9285633333;9485633333
696;35884693000;9285633333;9485633333
697;35884850000;9285633333;9485633333
698;35884852000;9285633333;9485633333
699;35885041000;9285633333;9485633333
700;35888484000;9285633333;9485633333
701;36044672000;9285633333;9485633333
702;36045087000;9285633333;9485633333
703;36045301000;9285633333;9485633333
704;36048950000;9327311111;9527311111
705;36205149000;9327311111;9527311111
706;36205546000;9327311111;9527311111
707;36205763000;9327311111;9527311111
708;36209418000;9327311111;9527311111
709;36365625000;9327311111;9527311111
710;36365976000;9327311111;9527311111
711;36366189000;9327311111;9527311111
712;36369886000;9327311111;9527311111
713;36526082000;9327311111;9527311111
714;36526354000;9327311111;9527311111
715;36526629000;9368988888;9568988888
716;36530355000;9368988888;9568988888
717;36535266000;9368988888;9568988888
718;36686781000;9368988888;9568988888
719;36687070000;9368988888;9568988888
720;36690821000;9368988888;9568988888
721;36847056000;9368988888;9568988888
723;36847537000;9368988888;9568988888
724;36851289000;9368988888;9568988888
725;37007455000;9368988888;9568988888
726;37007948000;9410611111;9610611111
727;37011752000;9410611111;9610611111
728;37018058000;9410611111;9610611111
729;37018060000;9410611111;9610611111
730;37172218000;9410611111;9610611111
731;37328954000;9410611111;9610611111
733;37329041000;9410611111;9610611111
734;37333633000;9410611111;9610611111
735;37489986000;9410611111;9610611111
736;37489999000;9410611111;9610611111
737;37490253000;9452322222;9652322222
738;37494658000;9452322222;9652322222
739;37651024000;9452322222;9652322222
740;37651026000;9452322222;9652322222
741;37655696000;9452322222;9652322222
