seqnum;now;rtptime;deadline
2;7886013000;7695077777;8195077777
10;8062993000;7726488888;8226488888
64;8063012000;7934777777;8434777777
65;8523001000;7934833333;8434833333
179;8523013000;8393111111;8893111111
180;8523020000;8393111111;8893111111
181;8523021000;8393111111;8893111111
182;8523024000;8393111111;8893111111
183;8523025000;8393111111;8893111111
184;8523027000;8393111111;8893111111
185;8523029000;8393111111;8893111111
188;8769163000;8393444444;8893444444
252;8873362000;8643166666;9143166666
268;8873380000;8726444444;9226444444
269;8873382000;8726444444;9226444444
270;8873384000;8726444444;9226444444
271;8873385000;8726444444;9226444444
272;8873387000;8726444444;9226444444
273;8873388000;8726444444;9226444444
274;8910154000;8726488888;9226488888
284;8910178000;8768111111;9268111111
285;8981438000;8768155555;9268155555
307;9059145000;8851500000;9351500000
326;9059159000;8934788888;9434788888
327;9059161000;8934788888;9434788888
328;9059162000;8934788888;9434788888
329;9131131000;8934833333;9434833333
341;9131152000;8976800000;9476800000
342;9131154000;8976800000;9476800000
343;9139246000;8976800000;9476800000
344;9197117000;9018111111;9518111111
358;9227723000;9059777777;9559777777
374;9314161000;9101766666;9601766666
388;9392786000;9184777777;9684777777
412;9466673000;9268144444;9768144444
422;9603477000;9309777777;9809777777
467;9721541000;9476477777;9976477777
488;9763562000;9559777777;10059777777
505;9809778000;9601544444;10101544444
523;9809785000;9684777777;10184777777
524;9809787000;9684777777;10184777777
525;9809797000;9684777777;10184777777
526;9809799000;9684777777;10184777777
527;9897388000;9684822222;10184822222
547;9897406000;9768133333;10268133333
548;9897407000;9768133333;10268133333
549;10061313000;9768177777;10268177777
595;10097517000;9935111111;10435111111
596;10097526000;9935111111;10435111111
597;10238110000;9976444444;10476444444
636;10271226000;10101444444;10601444444
646;10355893000;10143111111;10643111111
673;10434452000;10226800000;10726800000
691;10508583000;10309811111;10809811111
701;10644786000;10351444444;10851444444
747;10768032000;10518188888;11018188888
781;10768055000;10643477777;11143477777
782;10768057000;10643477777;11143477777
783;10768058000;10643477777;11143477777
784;10936712000;10684800000;11184800000
820;11054323000;10809777777;11309777777
838;11140322000;10851800000;11351800000
868;11246413000;10976555555;11476555555
898;11246419000;11101444444;11601444444
899;11246421000;11101444444;11601444444
900;11246422000;11101444444;11601444444
901;11307383000;11101488888;11601488888
912;11437001000;11143155555;11643155555
953;11437018000;11309777777;11809777777
957;11557645000;11310133333;11810133333
975;11612921000;11393111111;11893111111
1001;11650062000;11476811111;11976811111
1009;11674231000;11518144444;12018144444
1011;11674434000;11518188888;12018188888
1012;11674449000;11518544444;12018544444
1013;11674451000;11518544444;12018544444
1014;11674452000;11518544444;12018544444
1015;11700124000;11559777777;12059777777
1023;11773136000;11560133333;12060133333
1042;11854464000;11643133333;12143133333
1063;12019392000;11726444444;12226444444
1110;12138357000;11893155555;12393155555
1132;12183853000;11976500000;12476500000
1144;12183860000;12018455555;12518455555
1145;12183861000;12018455555;12518455555
1146;12183862000;12018455555;12518455555
1147;12313466000;12059777777;12559777777
1185;12421566000;12184777777;12684777777
1208;12485898000;12268111111;12768111111
1227;12537519000;12351444444;12851444444
1242;12564727000;12393166666;12893166666
1249;12564742000;12434777777;12934777777
1251;12588248000;12434777777;12934777777
1252;12588262000;12434777777;12934777777
1253;12588464000;12434833333;12934833333
1254;12588479000;12435100000;12935100000
1255;12588480000;12435100000;12935100000
1256;12588481000;12435100000;12935100000
1257;12688401000;12476444444;12976444444
1283;12767468000;12559788888;13059788888
1308;12840173000;12643166666;13143166666
1318;12840179000;12684811111;13184811111
1319;12873527000;12684855555;13184855555
1327;12873543000;12726444444;13226444444
1328;12873544000;12726444444;13226444444
1329;12873557000;12726444444;13226444444
1330;12905383000;12726488888;13226488888
1341;12938032000;12768155555;13268155555
1354;12938038000;12810111111;13310111111
1355;12938039000;12810111111;13310111111
1356;12999416000;12851477777;13351477777
1363;12999618000;12851555555;13351555555
1364;12999634000;12851833333;13351833333
1365;12999635000;12851833333;13351833333
1366;12999636000;12851833333;13351833333
1367;13262501000;12893111111;13393111111
1426;13339886000;13101444444;13601444444
1453;13473519000;13185155555;13685155555
1483;13570914000;13309800000;13809800000
1517;13647168000;13434833333;13934833333
1536;13647183000;13518111111;14018111111
1537;13647184000;13518111111;14018111111
1538;13647185000;13518111111;14018111111
1539;13767158000;13518155555;14018155555
1563;13767174000;13601800000;14101800000
1564;13767175000;13601800000;14101800000
1565;13847086000;13643111111;14143111111
1583;13895441000;13684855555;14184855555
1599;13895457000;13768144444;14268144444
1600;13895458000;13768144444;14268144444
1601;13895460000;13768144444;14268144444
1602;13895461000;13768144444;14268144444
1603;13895462000;13768144444;14268144444
1604;13895463000;13768144444;14268144444
1605;13950931000;13768188888;14268188888
1618;13972640000;13810111111;14310111111
1619;13972650000;13810111111;14310111111
1620;14063680000;13851477777;14351477777
1651;14144314000;13935133333;14435133333
1668;14222145000;14018111111;14518111111
1678;14257524000;14059777777;14559777777
1690;14395084000;14101444444;14601444444
1736;14521178000;14268111111;14768111111
1765;14646495000;14393111111;14893111111
1803;14752875000;14518166666;15018166666
1822;14752891000;14601444444;15101444444
1823;14752893000;14601444444;15101444444
1824;14752894000;14601444444;15101444444
1825;14813318000;14601488888;15101488888
1850;14847523000;14685100000;15185100000
1851;14895245000;14726444444;15226444444
1869;14980350000;14768166666;15268166666
1886;14980366000;14851477777;15351477777
1887;14980367000;14851477777;15351477777
1888;14980368000;14851477777;15351477777
1889;14980369000;14851477777;15351477777
1890;14980370000;14851477777;15351477777
1891;15059528000;14851544444;15351544444
1913;15132227000;14934833333;15434833333
1924;15229816000;14976500000;15476500000
1952;15229822000;15101477777;15601477777
1953;15229823000;15101477777;15601477777
1954;15229824000;15101477777;15601477777
1955;15229825000;15101477777;15601477777
1956;15229826000;15101477777;15601477777
1957;15336953000;15101555555;15601555555
1981;15347488000;15185100000;15685100000
1982;15347497000;15185100000;15685100000
1983;15430487000;15226444444;15726444444
2001;15459806000;15268188888;15768188888
2011;15459822000;15309777777;15809777777
2012;15480198000;15309822222;15809822222
2023;15563869000;15351500000;15851500000
2044;15563875000;15434777777;15934777777
2045;15642748000;15434822222;15934822222
2066;15642763000;15518111111;16018111111
2067;15716337000;15518155555;16018155555
2078;15750939000;15559822222;16059822222
2089;15783070000;15601500000;16101500000
2099;15783075000;15643111111;16143111111
2100;15821643000;15643155555;16143155555
2109;15821663000;15684777777;16184777777
2110;15821665000;15684777777;16184777777
2111;15846012000;15684822222;16184822222
2114;15847577000;15685122222;16185122222
2115;15939019000;15726444444;16226444444
2144;16107439000;15809822222;16309822222
2182;16107456000;15976444444;16476444444
2183;16107458000;15976444444;16476444444
2184;16107460000;15976444444;16476444444
2185;16107461000;15976444444;16476444444
2186;16107462000;15976444444;16476444444
2187;16107464000;15976444444;16476444444
2188;16207809000;15976500000;16476500000
2211;16222604000;16060133333;16560133333
2212;16222607000;16060133333;16560133333
2213;16222609000;16060133333;16560133333
2214;16265416000;16101488888;16601488888
2224;16267308000;16101877777;16601877777
2232;16291577000;16143177777;16643177777
2233;16291593000;16143522222;16643522222
2234;16291594000;16143522222;16643522222
2235;16291595000;16143522222;16643522222
2236;16397400000;16184811111;16684811111
2261;16561694000;16268111111;16768111111
2304;16679581000;16434777777;16934777777
2326;16730412000;16518111111;17018111111
2350;16773698000;16601444444;17101444444
2361;16855716000;16643144444;17143144444
2385;17024641000;16726477777;17226477777
2426;17218644000;16893144444;17393144444
2474;17273876000;17059855555;17559855555
2496;17303194000;17143155555;17643155555
2497;17303200000;17143466666;17643466666
2498;17303201000;17143466666;17643466666
2499;17303202000;17143466666;17643466666
2500;17326067000;17184811111;17684811111
2507;17326280000;17184855555;17684855555
2508;17326296000;17185155555;17685155555
2509;17326297000;17185155555;17685155555
2510;17326298000;17185155555;17685155555
2511;17520271000;17226444444;17726444444
2559;17642160000;17393111111;17893111111
2584;17692004000;17476500000;17976500000
2605;17692020000;17559800000;18059800000
2606;17734210000;17559855555;18059855555
2617;17757969000;17601500000;18101500000
2618;17757975000;17601800000;18101800000
2619;17757976000;17601800000;18101800000
2620;17757977000;17601800000;18101800000
2621;17896242000;17643111111;18143111111
2660;18002753000;17768122222;18268122222
2681;18064034000;17851444444;18351444444
2703;18124742000;17934777777;18434777777
2714;18142903000;17976444444;18476444444
2724;18170680000;18018122222;18518122222
2726;18170684000;18018122222;18518122222
2727;18170885000;18018166666;18518166666
2728;18170900000;18018466666;18518466666
2729;18170901000;18018466666;18518466666
2730;18170902000;18018466666;18518466666
2731;18271995000;18059777777;18559777777
2755;18435992000;18143144444;18643144444
2803;18553190000;18309811111;18809811111
2825;18685684000;18393111111;18893111111
2869;18801713000;18559788888;19059788888
2891;18846288000;18643111111;19143111111
2901;18870928000;18684777777;19184777777
2914;18888328000;18726488888;19226488888
2915;18888343000;18726788888;19226788888
2916;18888344000;18726788888;19226788888
2917;18888345000;18726788888;19226788888
2918;18980123000;18768111111;19268111111
2945;19059651000;18851466666;19351466666
2970;19125622000;18935133333;19435133333
2977;19164277000;18976466666;19476466666
2984;19197968000;19018133333;19518133333
2998;19228534000;19059777777;19559777777
3014;19388708000;19101788888;19601788888
3044;19482968000;19226466666;19726466666
3077;19561825000;19351466666;19851466666
3104;19676707000;19435088888;19935088888
3120;19763293000;19518166666;20018166666
3138;19894219000;19601444444;20101444444
3189;20115487000;19768166666;20268166666
3244;20197066000;19976488888;20476488888
3261;20197072000;20059777777;20559777777
3262;20197073000;20059777777;20559777777
3263;20197074000;20059777777;20559777777
3264;20197075000;20059777777;20559777777
3265;20197076000;20059777777;20559777777
3266;20215411000;20059822222;20559822222
3267;20215426000;20060100000;20560100000
3268;20215428000;20060100000;20560100000
3269;20215428000;20060100000;20560100000
3270;20239452000;20101444444;20601444444
3279;20239565000;20101777777;20601777777
3281;20266938000;20143144444;20643144444
3282;20266941000;20143144444;20643144444
3283;20266943000;20143144444;20643144444
3284;20266944000;20143144444;20643144444
3287;20266945000;20143144444;20643144444
3288;20267059000;20143188888;20643188888
3290;20267062000;20143477777;20643477777
3291;20267063000;20143477777;20643477777
3293;20297638000;20184788888;20684788888
3294;20297642000;20184788888;20684788888
3295;20297643000;20184788888;20684788888
3296;20297644000;20184788888;20684788888
3297;20297645000;20184788888;20684788888
3298;20297645000;20184788888;20684788888
3299;20297765000;20184833333;20684833333
3300;20297780000;20185122222;20685122222
3303;20439614000;20226444444;20726444444
3331;20602992000;20309777777;20809777777
3371;20832569000;20476466666;20976466666
3430;20894946000;20684800000;21184800000
3452;20921902000;20768111111;21268111111
3453;20922105000;20768155555;21268155555
3454;20922120000;20768466666;21268466666
3459;21030922000;20809788888;21309788888
3482;21100806000;20893111111;21393111111
3508;21269699000;20976500000;21476500000
3553;21269715000;21143455555;21643455555
3556;21407128000;21184777777;21684777777
3581;21447857000;21268111111;21768111111
3592;21473426000;21309777777;21809777777
3595;21473429000;21309777777;21809777777
3596;21473631000;21309822222;21809822222
3597;21473646000;21310122222;21810122222
3598;21473647000;21310122222;21810122222
3599;21473648000;21310122222;21810122222
3600;21499711000;21351455555;21851455555
3609;21564768000;21351833333;21851833333
3626;21645382000;21434777777;21934777777
3646;21722601000;21518144444;22018144444
3656;21744576000;21559777777;22059777777
3668;21792123000;21601477777;22101477777
3686;21831672000;21643477777;22143477777
3697;21852496000;21685133333;22185133333
3706;21883757000;21726555555;22226555555
3707;21883773000;21726822222;22226822222
3708;21883775000;21726822222;22226822222
3709;21883776000;21726822222;22226822222
3710;21980445000;21768111111;22268111111
3738;22059833000;21851477777;22351477777
3760;22134180000;21934811111;22434811111
3769;22170826000;21976466666;22476466666
3781;22201326000;22018111111;22518111111
3790;22234549000;22059811111;22559811111
3804;22394532000;22101444444;22601444444
3848;22509147000;22268111111;22768111111
3871;22555278000;22351488888;22851488888
3882;22580250000;22393188888;22893188888
3893;22601059000;22434822222;22934822222
3902;22601066000;22476466666;22976466666
3903;22601067000;22476466666;22976466666
3904;22626848000;22476544444;22976544444
3905;22626864000;22476833333;22976833333
3906;22626865000;22476833333;22976833333
3907;22626866000;22476833333;22976833333
3908;22654065000;22518111111;23018111111
3915;22654260000;22518155555;23018155555
3916;22654263000;22518466666;23018466666
3917;22654265000;22518466666;23018466666
3918;22654266000;22518466666;23018466666
3919;22683448000;22559811111;23059811111
3920;22683452000;22559811111;23059811111
3921;22683453000;22559811111;23059811111
3922;22683454000;22559811111;23059811111
3923;22683455000;22559811111;23059811111
3924;22683456000;22559811111;23059811111
3925;22683457000;22559811111;23059811111
3926;22683657000;22559855555;23059855555
3927;22683672000;22560155555;23060155555
3928;22683673000;22560155555;23060155555
3929;22683674000;22560155555;23060155555
3930;22894582000;22601444444;23101444444
3980;23034383000;22768122222;23268122222
4013;23263697000;22893111111;23393111111
4068;23337029000;23101444444;23601444444
4090;23364883000;23184777777;23684777777
4102;23519864000;23226488888;23726488888
4144;23519882000;23393144444;23893144444
4147;23628439000;23393488888;23893488888
4167;23681674000;23476444444;23976444444
4179;23703363000;23518155555;24018155555
4189;23703378000;23559777777;24059777777
4190;23813261000;23559822222;24059822222
4225;23847477000;23685144444;24185144444
4226;23847487000;23685144444;24185144444
4227;23952797000;23726444444;24226444444
4252;24010763000;23809777777;24309777777
4265;24144442000;23851444444;24351444444
4308;24260979000;24018122222;24518122222
4332;24305899000;24101477777;24601477777
4344;24330370000;24143155555;24643155555
4353;24330386000;24184777777;24684777777
4354;24330387000;24184777777;24684777777
4355;24351058000;24184822222;24684822222
4365;24351065000;24226477777;24726477777
4366;24376762000;24226577777;24726577777
4369;24389393000;24226866666;24726866666
4370;24560837000;24268111111;24768111111
4419;24762301000;24434811111;24934811111
4463;24803581000;24601477777;25101477777
4476;24828450000;24643155555;25143155555
4487;24847224000;24684822222;25184822222
4488;24847230000;24685100000;25185100000
4489;24847231000;24685100000;25185100000
4490;24847232000;24685100000;25185100000
4491;25007420000;24726444444;25226444444
4531;25114261000;24851500000;25351500000
4563;25114276000;24976455555;25476455555
4564;25187347000;24976500000;25476500000
4585;25187362000;25059777777;25559777777
4586;25231138000;25059822222;25559822222
4595;25231154000;25101444444;25601444444
4596;25231155000;25101444444;25601444444
4597;25255636000;25101488888;25601488888
4598;25255651000;25101766666;25601766666
4599;25255652000;25101766666;25601766666
4600;25255653000;25101766666;25601766666
4601;25355096000;25143111111;25643111111
4632;25438270000;25226788888;25726788888
4650;25506658000;25309777777;25809777777
4663;25540452000;25351522222;25851522222
4671;25540467000;25393133333;25893133333
4672;25540469000;25393133333;25893133333
4673;25540470000;25393133333;25893133333
4677;25572751000;25393466666;25893466666
4688;25730372000;25435122222;25935122222
4726;25885644000;25601444444;26101444444
4758;25973159000;25726444444;26226444444
4783;26021131000;25809777777;26309777777
4806;26060348000;25893166666;26393166666
4816;26060363000;25934788888;26434788888
4817;26188149000;25934844444;26434844444
4850;26295303000;26059822222;26559822222
4871;26295309000;26143111111;26643111111
4872;26355111000;26143155555;26643155555
4892;26355126000;26226444444;26726444444
4893;26355127000;26226444444;26726444444
4896;26402496000;26226811111;26726811111
4906;26438601000;26268488888;26768488888
4914;26465507000;26309777777;26809777777
4915;26465510000;26309777777;26809777777
4916;26465709000;26309822222;26809822222
4917;26465724000;26310133333;26810133333
4918;26465725000;26310133333;26810133333
4919;26465726000;26310133333;26810133333
4920;26563666000;26351444444;26851444444
4950;26640742000;26435111111;26935111111
4962;26677944000;26476811111;26976811111
4971;26717162000;26518188888;27018188888
4981;26717178000;26559777777;27059777777
4982;26749452000;26559822222;27059822222
4991;26749467000;26601444444;27101444444
4992;26749469000;26601444444;27101444444
4993;26781736000;26601488888;27101488888
5004;26814377000;26643188888;27143188888
5017;26814383000;26685111111;27185111111
5018;26847544000;26685111111;27185111111
5019;26873642000;26726477777;27226477777
5027;26873754000;26726833333;27226833333
5029;26873758000;26726833333;27226833333
5030;26904883000;26768111111;27268111111
5038;26981208000;26768477777;27268477777
5054;27063111000;26851444444;27351444444
5077;27138457000;26934777777;27434777777
5090;27175214000;26976477777;27476477777
5103;27209659000;27018155555;27518155555
5114;27240322000;27059822222;27559822222
5125;27267771000;27101488888;27601488888
5136;27298122000;27143155555;27643155555
5137;27298127000;27143455555;27643455555
5138;27298129000;27143455555;27643455555
5139;27298130000;27143455555;27643455555
5140;27397221000;27184777777;27684777777
5167;27475919000;27268133333;27768133333
5193;27543055000;27351811111;27851811111
5202;27581786000;27393188888;27893188888
5210;27581801000;27434777777;27934777777
5211;27581803000;27434777777;27934777777
5212;27581803000;27434777777;27934777777
5213;27615451000;27434822222;27934822222
5223;27615466000;27476444444;27976444444
5224;27646357000;27476488888;27976488888
5235;27678332000;27518155555;28018155555
5236;27678338000;27518488888;28018488888
5237;27678339000;27518488888;28018488888
5238;27678340000;27518488888;28018488888
5239;27852909000;27559777777;28059777777
5290;27981751000;27726488888;28226488888
5320;27981767000;27851466666;28351466666
5321;27981768000;27851466666;28351466666
5322;27981769000;27851466666;28351466666
5323;28174229000;27851533333;28351533333
5367;28252141000;28018155555;28518155555
5389;28387190000;28101488888;28601488888
5422;28472820000;28226488888;28726488888
5444;28520186000;28309822222;28809822222
5465;28520192000;28393111111;28893111111
5466;28564134000;28393155555;28893155555
5476;28564140000;28434777777;28934777777
5477;28588862000;28434833333;28934833333
5478;28588877000;28435111111;28935111111
5479;28588878000;28435111111;28935111111
5480;28588879000;28435111111;28935111111
5481;28615206000;28476444444;28976444444
5482;28615209000;28476444444;28976444444
5483;28615210000;28476444444;28976444444
5484;28615211000;28476444444;28976444444
5485;28615212000;28476444444;28976444444
5486;28615213000;28476444444;28976444444
5487;28615214000;28476444444;28976444444
5488;28615420000;28476488888;28976488888
5489;28615435000;28476811111;28976811111
5490;28615436000;28476811111;28976811111
5491;28615437000;28476811111;28976811111
5492;28730651000;28518111111;29018111111
5493;28730664000;28518111111;29018111111
5494;28730665000;28518111111;29018111111
5495;28730665000;28518111111;29018111111
5496;28730675000;28518111111;29018111111
5497;28730676000;28518111111;29018111111
5498;28730677000;28518111111;29018111111
5499;28730890000;28518166666;29018166666
