seqnum;now;rtptime;deadline
1;4622401000;4278455555;4778455555
11;4704236000;4310177777;4810177777
33;4786777000;4393477777;4893477777
55;4950072000;4476922222;4976922222
98;5154108000;4643166666;5143166666
150;5154125000;4851488888;5351488888
154;5201560000;4851833333;5351833333
164;5234071000;4893200000;5393200000
173;5243208000;4934822222;5434822222
174;5243221000;4934822222;5434822222
175;5243419000;4934866666;5434866666
176;5243434000;4935188888;5435188888
177;5243435000;4935188888;5435188888
178;5243436000;4935188888;5435188888
179;5341806000;4976455555;5476455555
207;5420967000;5059822222;5559822222
230;5493452000;5143200000;5643200000
241;5526840000;5184833333;5684833333
252;5560553000;5226500000;5726500000
262;5560558000;5268133333;5768133333
263;5714134000;5268177777;5768177777
303;5714152000;5434788888;5934788888
304;5714153000;5434788888;5934788888
305;5714154000;5434788888;5934788888
306;5714155000;5434788888;5934788888
307;5838662000;5434833333;5934833333
342;5875586000;5560155555;6060155555
343;5875588000;5560155555;6060155555
344;5921678000;5601455555;6101455555
358;6008498000;5643133333;6143133333
383;6130020000;5726455555;6226455555
416;6297950000;5851455555;6351455555
460;6419121000;6018155555;6518155555
482;6460165000;6101455555;6601455555
493;6477961000;6143122222;6643122222
506;6503665000;6185155555;6685155555
511;6529372000;6226455555;6726455555
515;6529376000;6226455555;6726455555
516;6529593000;6226500000;6726500000
517;6529609000;6226800000;6726800000
518;6529610000;6226800000;6726800000
519;6529611000;6226800000;6726800000
520;6556818000;6268122222;6768122222
528;6634189000;6268455555;6768455555
549;6715195000;6351500000;6851500000
571;6790860000;6434833333;6934833333
583;6790866000;6476844444;6976844444
584;6790867000;6476844444;6976844444
585;6790868000;6476844444;6976844444
586;6859499000;6518122222;7018122222
600;6892994000;6559788888;7059788888
614;6924028000;6601455555;7101455555
625;6956166000;6643155555;7143155555
626;6956364000;6643200000;7143200000
627;6956379000;6643488888;7143488888
628;6956381000;6643488888;7143488888
629;6956382000;6643488888;7143488888
630;6985323000;6684788888;7184788888
638;6985434000;6685133333;7185133333
639;6985438000;6685133333;7185133333
640;6985439000;6685133333;7185133333
641;7014227000;6726455555;7226455555
649;7014338000;6726800000;7226800000
650;7014341000;6726800000;7226800000
651;7014342000;6726800000;7226800000
652;7046686000;6768122222;7268122222
662;7092745000;6768455555;7268455555
670;7135095000;6809833333;7309833333
681;7175229000;6851511111;7351511111
692;7215777000;6893166666;7393166666
703;7255663000;6934833333;7434833333
714;7294707000;6976500000;7476500000
715;7294714000;6976800000;7476800000
716;7294715000;6976800000;7476800000
717;7294716000;6976800000;7476800000
718;7332851000;7018122222;7518122222
724;7332855000;7018122222;7518122222
725;7333052000;7018177777;7518177777
726;7333067000;7018466666;7518466666
727;7333068000;7018466666;7518466666
728;7333069000;7018466666;7518466666
729;7370049000;7059788888;7559788888
735;7370052000;7059788888;7559788888
736;7370221000;7059833333;7559833333
737;7370225000;7060155555;7560155555
738;7370226000;7060155555;7560155555
739;7370227000;7060155555;7560155555
740;7406259000;7101455555;7601455555
750;7406506000;7101822222;7601822222
751;7443738000;7143155555;7643155555
762;7480379000;7184788888;7684788888
770;7551383000;7185144444;7685144444
791;7632225000;7268166666;7768166666
810;7632240000;7351455555;7851455555
811;7632241000;7351455555;7851455555
812;7632242000;7351455555;7851455555
813;7797754000;7351500000;7851500000
855;7797769000;7518122222;8018122222
856;7797770000;7518122222;8018122222
857;7923105000;7518166666;8018166666
890;8084977000;7643177777;8143177777
923;8168375000;7768166666;8268166666
945;8218594000;7851500000;8351500000
965;8218600000;7934788888;8434788888
966;8218601000;7934788888;8434788888
967;8264062000;7934833333;8434833333
978;8287426000;7976500000;8476500000
979;8287431000;7976800000;8476800000
980;8287433000;7976800000;8476800000
981;8287434000;7976800000;8476800000
982;8312942000;8018122222;8518122222
991;8313066000;8018455555;8518455555
992;8313070000;8018455555;8518455555
993;8340837000;8059822222;8559822222
1001;8384860000;8060200000;8560200000
1011;8426044000;8101500000;8601500000
1022;8467057000;8143166666;8643166666
1033;8591296000;8184833333;8684833333
1064;8591301000;8309811111;8809811111
1065;8591302000;8309811111;8809811111
1066;8698822000;8309855555;8809855555
1086;8698837000;8393122222;8893122222
1087;8698838000;8393122222;8893122222
1088;8762040000;8393166666;8893166666
1112;8792243000;8476800000;8976800000
1113;8792252000;8476800000;8976800000
1114;8842108000;8518122222;9018122222
1132;8868988000;8559833333;9059833333
1133;8869003000;8560155555;9060155555
1134;8869004000;8560155555;9060155555
1135;8869005000;8560155555;9060155555
1136;8967235000;8601455555;9101455555
1163;9045772000;8684788888;9184788888
1187;9119305000;8768200000;9268200000
1198;9154061000;8809833333;9309833333
1205;9154066000;8851455555;9351455555
1206;9154068000;8851455555;9351455555
1207;9154069000;8851455555;9351455555
1208;9154070000;8851455555;9351455555
1209;9185021000;8851511111;9351511111
1219;9185037000;8893122222;9393122222
1220;9214038000;8893166666;9393166666
1235;9214053000;8976488888;9476488888
1236;9214055000;8976488888;9476488888
1237;9250931000;8976488888;9476488888
1238;9250933000;8976488888;9476488888
1239;9250934000;8976488888;9476488888
1240;9250935000;8976488888;9476488888
1241;9250936000;8976488888;9476488888
1242;9277798000;8976533333;9476533333
1246;9277813000;9018122222;9518122222
1247;9277815000;9018122222;9518122222
1248;9277815000;9018122222;9518122222
1249;9277816000;9018122222;9518122222
1250;9277817000;9018122222;9518122222
1251;9277818000;9018122222;9518122222
1252;9277819000;9018122222;9518122222
1253;9308867000;9018166666;9518166666
1257;9333934000;9059788888;9559788888
1258;9333936000;9059788888;9559788888
1259;9333938000;9059788888;9559788888
1260;9333948000;9059788888;9559788888
1261;9333949000;9059788888;9559788888
1262;9333950000;9059788888;9559788888
1263;9333951000;9059788888;9559788888
1264;9425891000;9059833333;9559833333
1284;9425906000;9143122222;9643122222
1285;9425907000;9143122222;9643122222
1288;9504511000;9143466666;9643466666
1311;9558620000;9226844444;9726844444
1319;9614993000;9268177777;9768177777
1329;9615008000;9309788888;9809788888
1330;9646746000;9309833333;9809833333
1340;9646753000;9351455555;9851455555
1341;9673704000;9351500000;9851500000
1352;9703989000;9393166666;9893166666
1353;9703995000;9393444444;9893444444
1354;9703996000;9393444444;9893444444
1355;9703997000;9393444444;9893444444
1356;9733569000;9434788888;9934788888
1365;9733693000;9435144444;9935144444
1366;9733696000;9435144444;9935144444
1367;9762946000;9476455555;9976455555
1373;9762950000;9476455555;9976455555
1374;9763147000;9476500000;9976500000
1375;9763152000;9476811111;9976811111
1376;9763154000;9476811111;9976811111
1377;9763154000;9476811111;9976811111
1378;9795574000;9518122222;10018122222
1386;9884457000;9518455555;10018455555
1401;9965210000;9601488888;10101488888
1428;10042918000;9684822222;10184822222
1441;10176614000;9726800000;10226800000
1481;10332539000;9893122222;10393122222
1516;10417025000;10018122222;10518122222
1537;10459047000;10101455555;10601455555
1548;10483505000;10143155555;10643155555
1559;10591185000;10184788888;10684788888
1594;10699216000;10309833333;10809833333
1615;10699222000;10393122222;10893122222
1616;10757885000;10393166666;10893166666
1634;10757901000;10476455555;10976455555
1635;10757902000;10476455555;10976455555
1636;10757903000;10476455555;10976455555
1637;10757904000;10476455555;10976455555
1642;10847059000;10518155555;11018155555
1659;10873106000;10559822222;11059822222
1660;10873229000;10559866666;11059866666
1661;10873245000;10560200000;11060200000
1662;10873246000;10560200000;11060200000
1663;10873247000;10560200000;11060200000
1664;10966962000;10601488888;11101488888
1687;11127463000;10684788888;11184788888
1725;11226933000;10809822222;11309822222
1758;11381678000;10934822222;11434822222
1800;11499145000;11101466666;11601466666
1825;11550789000;11184833333;11684833333
1845;11550812000;11268122222;11768122222
1846;11550813000;11268122222;11768122222
1847;11587231000;11268177777;11768177777
1858;11612933000;11309833333;11809833333
1859;11612938000;11310166666;11810166666
1862;11798408000;11351455555;11851455555
1911;11920537000;11518122222;12018122222
1940;11993662000;11643122222;12143122222
1953;12015368000;11684788888;12184788888
1970;12169892000;11726788888;12226788888
2001;12230433000;11851533333;12351533333
2023;12323233000;11934833333;12434833333
2043;12323239000;12018122222;12518122222
2044;12323240000;12018122222;12518122222
2045;12358923000;12018166666;12518166666
2055;12358938000;12059788888;12559788888
2056;12379570000;12059833333;12559833333
2067;12405099000;12101500000;12601500000
2068;12405104000;12101811111;12601811111
2069;12405105000;12101811111;12601811111
2070;12405106000;12101811111;12601811111
2071;12432351000;12143155555;12643155555
2078;12432550000;12143200000;12643200000
2079;12432566000;12143488888;12643488888
2080;12432567000;12143488888;12643488888
2081;12432568000;12143488888;12643488888
2082;12459011000;12184788888;12684788888
2083;12459014000;12184788888;12684788888
2084;12459015000;12184788888;12684788888
2085;12459016000;12184788888;12684788888
2086;12459017000;12184788888;12684788888
2087;12459018000;12184788888;12684788888
2088;12459019000;12184788888;12684788888
2089;12459216000;12184833333;12684833333
2090;12459232000;12185133333;12685133333
2091;12459233000;12185133333;12685133333
2092;12459234000;12185133333;12685133333
2093;12550811000;12226455555;12726455555
2110;12592104000;12268122222;12768122222
2119;12632524000;12309788888;12809788888
2132;12671887000;12351455555;12851455555
2141;12710942000;12393122222;12893122222
2143;12710946000;12393122222;12893122222
2146;12712119000;12393466666;12893466666
2154;12748552000;12434822222;12934822222
2156;12748660000;12435188888;12935188888
2157;12748663000;12435188888;12935188888
2158;12748664000;12435188888;12935188888
2159;12784830000;12476455555;12976455555
2164;12784834000;12476455555;12976455555
2165;12784835000;12476455555;12976455555
2168;12842874000;12476844444;12976844444
2191;12922189000;12560177777;13060177777
2209;12999972000;12643122222;13143122222
2220;13035400000;12684788888;13184788888
2233;13175164000;12726844444;13226844444
2274;13310333000;12893133333;13393133333
2308;13382236000;13018144444;13518144444
2329;13430506000;13101455555;13601455555
2340;13454214000;13143122222;13643122222
2342;13454325000;13143166666;13643166666
2344;13454341000;13143477777;13643477777
2345;13454343000;13143477777;13643477777
2346;13479572000;13184822222;13684822222
2354;13479683000;13185188888;13685188888
2355;13479687000;13185188888;13685188888
2356;13479688000;13185188888;13685188888
2357;13507354000;13226455555;13726455555
2364;13507583000;13226500000;13726500000
2365;13507598000;13226855555;13726855555
2366;13507599000;13226855555;13726855555
2367;13507600000;13226855555;13726855555
2368;13714552000;13268155555;13768155555
2416;13831290000;13434788888;13934788888
2441;13879137000;13518166666;14018166666
2464;13879152000;13601822222;14101822222
2465;13879154000;13601822222;14101822222
2466;13879155000;13601822222;14101822222
2467;14128520000;13643122222;14143122222
2517;14225091000;13809822222;14309822222
2548;14237475000;13934788888;14434788888
2549;14237479000;13934788888;14434788888
2550;14237487000;13934788888;14434788888
2551;14272052000;13934833333;14434833333
2562;14289617000;13976500000;14476500000
2563;14289632000;13976800000;14476800000
2564;14289633000;13976800000;14476800000
2565;14289634000;13976800000;14476800000
2566;14310787000;14018155555;14518155555
2573;14310986000;14018200000;14518200000
2575;14311002000;14018488888;14518488888
2576;14311003000;14018488888;14518488888
2577;14336269000;14059788888;14559788888
2578;14336273000;14059788888;14559788888
2579;14336274000;14059788888;14559788888
2580;14336275000;14059788888;14559788888
2582;14336276000;14059788888;14559788888
2583;14336277000;14059788888;14559788888
2584;14336497000;14059844444;14559844444
2585;14336511000;14060166666;14560166666
2586;14336513000;14060166666;14560166666
2587;14336514000;14060166666;14560166666
2588;14467590000;14101488888;14601488888
2615;14545543000;14184788888;14684788888
2634;14618423000;14268122222;14768122222
2647;14650920000;14309788888;14809788888
2658;14684730000;14351455555;14851455555
2670;14715208000;14393122222;14893122222
2682;14746126000;14434811111;14934811111
2683;14746363000;14434866666;14934866666
2684;14746379000;14435144444;14935144444
2685;14746380000;14435144444;14935144444
2686;14746381000;14435144444;14935144444
2687;14777671000;14476477777;14976477777
2695;14842884000;14476833333;14976833333
2712;14923521000;14559788888;15059788888
2736;14999946000;14643144444;15143144444
2747;15037810000;14684822222;15184822222
2760;15071585000;14726500000;15226500000
2773;15071601000;14768477777;15268477777
2774;15071602000;14768477777;15268477777
2775;15132938000;14809811111;15309811111
2793;15163112000;14851533333;15351533333
2794;15163116000;14851855555;15351855555
2795;15163118000;14851855555;15351855555
2796;15163119000;14851855555;15351855555
2797;15258969000;14893144444;15393144444
2825;15337818000;14976477777;15476477777
2844;15411575000;15059788888;15559788888
2859;15446479000;15101500000;15601500000
2871;15459050000;15143488888;15643488888
2872;15459052000;15143488888;15643488888
2873;15459053000;15143488888;15643488888
2874;15506961000;15184788888;15684788888
2892;15539065000;15226500000;15726500000
2893;15539080000;15226811111;15726811111
2894;15539081000;15226811111;15726811111
2895;15539082000;15226811111;15726811111
2896;15633467000;15268122222;15768122222
2922;15794873000;15351455555;15851455555
2958;15889716000;15476533333;15976533333
2990;15889731000;15601455555;16101455555
2991;15963744000;15601500000;16101500000
3009;15963759000;15684788888;16184788888
3010;15963760000;15684788888;16184788888
3011;15963761000;15684788888;16184788888
3012;15963762000;15684788888;16184788888
3013;16010973000;15684833333;16184833333
3023;16010989000;15726455555;16226455555
3024;16031506000;15726500000;16226500000
3025;16031512000;15726777777;16226777777
3026;16031513000;15726777777;16226777777
3027;16031514000;15726777777;16226777777
3028;16058428000;15768155555;16268155555
3036;16134288000;15768466666;16268466666
3055;16215220000;15851455555;16351455555
3077;16290415000;15934800000;16434800000
3088;16328297000;15976455555;16476455555
3099;16363105000;16018122222;16518122222
3114;16505671000;16060155555;16560155555
3154;16625998000;16226455555;16726455555
3175;16678325000;16309788888;16809788888
3191;16685789000;16351800000;16851800000
3192;16685792000;16351800000;16851800000
3193;16720560000;16393122222;16893122222
3210;16744578000;16434822222;16934822222
3211;16744804000;16434866666;16934866666
3212;16744819000;16435188888;16935188888
3213;16744820000;16435188888;16935188888
3214;16744821000;16435188888;16935188888
3215;16921951000;16476488888;16976488888
3267;17030333000;16643444444;17143444444
3287;17087430000;16726455555;17226455555
3309;17136941000;16809788888;17309788888
3320;17154773000;16851455555;17351455555
3323;17217506000;16851822222;17351822222
3342;17298065000;16934822222;17434822222
3365;17376085000;17018166666;17518166666
3376;17411382000;17059866666;17559866666
3384;17411388000;17101455555;17601455555
3385;17411389000;17101455555;17601455555
3386;17411390000;17101455555;17601455555
3387;17445269000;17101500000;17601500000
3396;17445284000;17143122222;17643122222
3397;17445285000;17143122222;17643122222
3398;17478837000;17143166666;17643166666
3411;17478852000;17185133333;17685133333
3412;17500902000;17185133333;17685133333
3413;17593107000;17226488888;17726488888
3442;17675911000;17309833333;17809833333
3461;17675927000;17393122222;17893122222
3462;17675928000;17393122222;17893122222
3463;17675929000;17393122222;17893122222
3464;17754258000;17393166666;17893166666
3486;17828296000;17476533333;17976533333
3496;17828301000;17518122222;18018122222
3497;17863204000;17518177777;18018177777
3508;17893838000;17559833333;18059833333
3519;17924388000;17601500000;18101500000
3528;17924401000;17643122222;18143122222
3529;17924402000;17643122222;18143122222
3530;17956461000;17643166666;18143166666
3531;17956476000;17643455555;18143455555
3532;17956477000;17643455555;18143455555
3533;17956478000;17643455555;18143455555
3534;18049999000;17684788888;18184788888
3561;18128840000;17768155555;18268155555
3586;18202460000;17851811111;18351811111
3596;18237259000;17893200000;18393200000
3606;18237274000;17934788888;18434788888
3607;18268976000;17934833333;18434833333
3618;18299753000;17976511111;18476511111
3629;18331801000;18018166666;18518166666
3630;18331806000;18018455555;18518455555
3631;18331808000;18018455555;18518455555
3632;18331808000;18018455555;18518455555
3633;18363237000;18059788888;18559788888
3641;18426137000;18060155555;18560155555
3658;18506776000;18143122222;18643122222
3685;18583173000;18226811111;18726811111
3697;18615109000;18268477777;18768477777
3705;18653864000;18309788888;18809788888
3716;18686039000;18351455555;18851455555
3729;18710536000;18393433333;18893433333
3731;18710540000;18393433333;18893433333
3732;18748444000;18434788888;18934788888
3738;18748447000;18434788888;18934788888
3739;18748646000;18434833333;18934833333
3740;18748661000;18435133333;18935133333
3741;18748662000;18435133333;18935133333
3742;18748663000;18435133333;18935133333
3743;18922557000;18476455555;18976455555
3793;19047931000;18643155555;19143155555
3824;19106357000;18768144444;19268144444
3836;19331142000;18809788888;19309788888
3890;19420362000;19018133333;19518133333
3918;19541906000;19101811111;19601811111
3946;19641642000;19226455555;19726455555
3981;19711536000;19351500000;19851500000
3994;19711552000;19393444444;19893444444
3995;19711553000;19393444444;19893444444
3996;19755241000;19434788888;19934788888
4013;19780738000;19476455555;19976455555
4014;19780938000;19476500000;19976500000
4015;19780953000;19476800000;19976800000
4016;19780954000;19476800000;19976800000
4017;19792346000;19476800000;19976800000
4018;19883478000;19518122222;20018122222
4046;19962219000;19601455555;20101455555
4068;20036559000;19684788888;20184788888
4078;20070156000;19726455555;20226455555
4091;20102056000;19768166666;20268166666
4106;20125702000;19851488888;20351488888
4107;20125705000;19851488888;20351488888
4108;20125706000;19851488888;20351488888
4109;20125712000;19851488888;20351488888
4110;20125713000;19851488888;20351488888
4111;20125714000;19851488888;20351488888
4112;20125715000;19851488888;20351488888
4113;20167523000;19851533333;20351533333
4117;20167539000;19893122222;20393122222
4118;20167540000;19893122222;20393122222
4119;20167541000;19893122222;20393122222
4120;20167542000;19893122222;20393122222
4121;20167543000;19893122222;20393122222
4122;20167544000;19893122222;20393122222
4123;20167545000;19893122222;20393122222
4124;20198589000;19893166666;20393166666
4127;20208952000;19893455555;20393455555
4128;20300241000;19934788888;20434788888
4156;20379032000;20018122222;20518122222
4179;20452762000;20101533333;20601533333
4189;20452777000;20143122222;20643122222
4192;20548110000;20143455555;20643455555
4222;20657449000;20268122222;20768122222
4245;20717688000;20351500000;20851500000
4267;20772006000;20434833333;20934833333
4277;20772011000;20476455555;20976455555
4278;20797036000;20476500000;20976500000
4289;20824478000;20518166666;21018166666
4290;20824491000;20518466666;21018466666
4291;20824492000;20518466666;21018466666
4292;20824493000;20518466666;21018466666
4293;20852897000;20559788888;21059788888
4301;20852991000;20560166666;21060166666
4302;20852994000;20560166666;21060166666
4303;20852995000;20560166666;21060166666
4304;20882728000;20601455555;21101455555
4311;20882927000;20601500000;21101500000
4312;20882943000;20601811111;21101811111
4313;20882944000;20601811111;21101811111
4314;20882945000;20601811111;21101811111
4315;20914293000;20643122222;21143122222
4316;20914297000;20643122222;21143122222
4317;20914298000;20643122222;21143122222
4318;20914299000;20643122222;21143122222
4319;20914300000;20643122222;21143122222
4321;20914366000;20643122222;21143122222
4322;20914558000;20643166666;21143166666
4323;20914570000;20643455555;21143455555
4324;20914571000;20643455555;21143455555
4325;20914572000;20643455555;21143455555
4326;21050849000;20684788888;21184788888
4354;21129193000;20768122222;21268122222
4376;21200737000;20851488888;21351488888
4387;21235243000;20893122222;21393122222
4399;21420505000;20934833333;21434833333
4454;21532328000;21143200000;21643200000
4476;21566677000;21226500000;21726500000
4485;21566683000;21268155555;21768155555
4486;21566684000;21268155555;21768155555
4487;21584356000;21268200000;21768200000
4489;21584371000;21268488888;21768488888
4490;21584372000;21268488888;21768488888
4491;21608467000;21309788888;21809788888
4501;21672973000;21310144444;21810144444
4518;21756997000;21393155555;21893155555
4539;21833125000;21476477777;21976477777
4553;21868653000;21518166666;22018166666
4563;21868669000;21559822222;22059822222
4564;21903548000;21559866666;22059866666
4574;21903554000;21601455555;22101455555
4575;22007785000;21601500000;22101500000
4610;22007800000;21726777777;22226777777
4611;22007801000;21726777777;22226777777
4612;22146542000;21768155555;22268155555
4637;22203954000;21851455555;22351455555
4649;22489190000;21893122222;22393122222
4723;22501211000;22184788888;22684788888
4725;22501214000;22184788888;22684788888
4726;22501215000;22184788888;22684788888
4727;22501217000;22184788888;22684788888
4728;22501218000;22184788888;22684788888
4729;22501430000;22184833333;22684833333
4732;22503646000;22185122222;22685122222
4733;22592082000;22226466666;22726466666
4757;22670651000;22309788888;22809788888
4779;22891657000;22393122222;22893122222
4838;22958047000;22601455555;23101455555
4850;22966512000;22643166666;23143166666
4861;23207447000;22684833333;23184833333
4915;23207453000;22893122222;23393122222
4916;23294395000;22893166666;23393166666
4939;23294400000;22976800000;23476800000
4940;23294401000;22976800000;23476800000
4941;23294402000;22976800000;23476800000
4942;23338628000;23018122222;23518122222
4958;23424892000;23059788888;23559788888
4977;23498332000;23143122222;23643122222
4989;23541029000;23184822222;23684822222
5004;23577878000;23226533333;23726533333
5017;23577893000;23268466666;23768466666
5018;23577894000;23268466666;23768466666
5019;23641225000;23309788888;23809788888
5037;23758035000;23351500000;23851500000
5064;23758051000;23476455555;23976455555
5065;23758052000;23476455555;23976455555
5066;23758053000;23476455555;23976455555
5067;23758053000;23476455555;23976455555
5068;23758054000;23476455555;23976455555
5069;23758055000;23476455555;23976455555
5070;23948876000;23476500000;23976500000
5113;23948891000;23643122222;24143122222
5116;24010623000;23643455555;24143455555
5132;24060657000;23726455555;24226455555
5146;24075686000;23768122222;24268122222
5147;24075885000;23768166666;24268166666
5148;24075900000;23768455555;24268455555
5149;24075901000;23768455555;24268455555
5150;24084250000;23768455555;24268455555
5151;24175259000;23809822222;24309822222
5179;24253825000;23893122222;24393122222
5202;24415824000;23976500000;24476500000
5232;24415839000;24101455555;24601455555
5235;24501150000;24101500000;24601500000
5256;24501166000;24184788888;24684788888
5257;24551438000;24184833333;24684833333
5279;24592361000;24268166666;24768166666
5290;24616930000;24309833333;24809833333
5291;24616936000;24310155555;24810155555
5294;24758025000;24351455555;24851455555
5330;24865625000;24476455555;24976455555
5353;24931128000;24559788888;25059788888
5379;24968639000;24643455555;25143455555
5388;25004884000;24684788888;25184788888
5399;25032451000;24726455555;25226455555
5400;25032651000;24726500000;25226500000
5401;25032666000;24726800000;25226800000
5402;25032667000;24726800000;25226800000
5403;25032668000;24726800000;25226800000
5404;25131161000;24768122222;25268122222
5431;25212130000;24851455555;25351455555
5453;25285244000;24934822222;25434822222
5460;25303422000;24976455555;25476455555
5472;25350088000;25018122222;25518122222
5478;25426334000;25018444444;25518444444
5481;25467507000;25059788888;25559788888
5482;25467511000;25059788888;25559788888
5483;25467512000;25059788888;25559788888
5484;25467521000;25059788888;25559788888
5485;25467522000;25059788888;25559788888
5486;25467523000;25059788888;25559788888
5487;25467524000;25059788888;25559788888
5488;25467645000;25059833333;25559833333
5489;25467651000;25060155555;25560155555
5490;25467652000;25060155555;25560155555
5491;25467653000;25060155555;25560155555
5492;25467664000;25101455555;25601455555
5493;25467665000;25101455555;25601455555
5494;25467681000;25101455555;25601455555
5495;25467682000;25101455555;25601455555
5497;25467683000;25101455555;25601455555
5498;25467685000;25101455555;25601455555
5499;25467803000;25101500000;25601500000
