seqnum;now;rtptime;deadline
3;13640268000;12477388888;12977388888
14;13763538000;12519044444;13019044444
57;13883693000;12644366666;13144366666
58;13919014000;12685711111;13185711111
59;13919024000;12685711111;13185711111
60;13919025000;12685711111;13185711111
61;13919027000;12685711111;13185711111
62;13919029000;12685711111;13185711111
63;13919031000;12685711111;13185711111
64;13919032000;12685711111;13185711111
65;13919235000;12685722222;13185722222
66;13919251000;12686022222;13186022222
67;13919252000;12686022222;13186022222
68;13919253000;12686022222;13186022222
69;13949984000;12727377777;13227377777
70;13949987000;12727377777;13227377777
71;13949989000;12727377777;13227377777
72;13949990000;12727377777;13227377777
73;13949991000;12727377777;13227377777
74;13949993000;12727377777;13227377777
75;13949994000;12727377777;13227377777
76;13950193000;12727388888;13227388888
77;13950208000;12727722222;13227722222
78;13950210000;12727722222;13227722222
79;13950211000;12727722222;13227722222
237;24672232000;13352377777;13852377777
291;24874507000;13560711111;14060711111
292;24874511000;13560711111;14060711111
293;24874512000;13560711111;14060711111
294;24874513000;13560711111;14060711111
295;24874514000;13560711111;14060711111
296;24874712000;13560722222;14060722222
297;24874728000;13561000000;14061000000
298;24874729000;13561000000;14061000000
299;24874730000;13561000000;14061000000
300;24908100000;13602377777;14102377777
301;24908103000;13602377777;14102377777
302;24908104000;13602377777;14102377777
303;24908105000;13602377777;14102377777
304;24908106000;13602377777;14102377777
305;24908107000;13602377777;14102377777
306;24908108000;13602377777;14102377777
307;24908244000;13602388888;14102388888
308;24908246000;13602655555;14102655555
309;24908247000;13602655555;14102655555
310;24908249000;13602655555;14102655555
311;24938073000;13644044444;14144044444
368;25037636000;13852377777;14352377777
372;25037639000;13852377777;14352377777
373;25037837000;13852388888;14352388888
374;25037852000;13852633333;14352633333
375;25037853000;13852633333;14352633333
376;25037854000;13852633333;14352633333
377;25051452000;13894044444;14394044444
378;25051456000;13894044444;14394044444
379;25051457000;13894044444;14394044444
380;25051458000;13894044444;14394044444
381;25051459000;13894044444;14394044444
382;25051459000;13894044444;14394044444
383;25051460000;13894044444;14394044444
384;25051630000;13894055555;14394055555
385;25051634000;13894355555;14394355555
386;25051635000;13894355555;14394355555
387;25051637000;13894355555;14394355555
388;25067398000;13935711111;14435711111
389;25067401000;13935711111;14435711111
390;25067402000;13935711111;14435711111
391;25067403000;13935711111;14435711111
392;25067404000;13935711111;14435711111
393;25067405000;13935711111;14435711111
394;25223179000;13935711111;14435711111
395;25273820000;13935722222;14435722222
450;25476025000;14144066666;14644066666
451;25476030000;14144366666;14644366666
452;25476032000;14144366666;14644366666
453;25476033000;14144366666;14644366666
454;25509620000;14185711111;14685711111
455;25509623000;14185711111;14685711111
456;25509624000;14185711111;14685711111
457;25509625000;14185711111;14685711111
458;25509626000;14185711111;14685711111
459;25509627000;14185711111;14685711111
460;25509628000;14185711111;14685711111
461;25509840000;14185722222;14685722222
462;25509855000;14186000000;14686000000
463;25509857000;14186000000;14686000000
464;25509858000;14186000000;14686000000
465;25539606000;14227377777;14727377777
525;25639785000;14435711111;14935711111
530;25639895000;14436044444;14936044444
531;25653420000;14477377777;14977377777
532;25653423000;14477377777;14977377777
533;25653424000;14477377777;14977377777
534;25653426000;14477377777;14977377777
535;25653426000;14477377777;14977377777
536;25653427000;14477377777;14977377777
537;25653428000;14477377777;14977377777
538;25653632000;14477388888;14977388888
539;25653647000;14477677777;14977677777
540;25653648000;14477677777;14977677777
541;25653649000;14477677777;14977677777
542;25669255000;14519044444;15019044444
543;25669259000;14519044444;15019044444
544;25669270000;14519044444;15019044444
545;25669271000;14519044444;15019044444
546;25669272000;14519044444;15019044444
547;25669273000;14519044444;15019044444
548;25669274000;14519044444;15019044444
549;25669411000;14519055555;15019055555
550;25669413000;14519377777;15019377777
551;25669414000;14519377777;15019377777
552;25824184000;14519377777;15019377777
553;25874718000;14560722222;15060722222
608;26077078000;14769044444;15269044444
609;26077081000;14769044444;15269044444
610;26077082000;14769044444;15269044444
611;26077083000;14769044444;15269044444
612;26077084000;14769044444;15269044444
613;26077085000;14769044444;15269044444
614;26077086000;14769044444;15269044444
615;26077298000;14769055555;15269055555
616;26077313000;14769388888;15269388888
617;26077314000;14769388888;15269388888
618;26077315000;14769388888;15269388888
619;26110713000;14810711111;15310711111
620;26110716000;14810711111;15310711111
621;26110717000;14810711111;15310711111
622;26110718000;14810711111;15310711111
623;26110719000;14810711111;15310711111
624;26110720000;14810711111;15310711111
625;26110721000;14810711111;15310711111
626;26110890000;14810722222;15310722222
627;26110894000;14811022222;15311022222
628;26110896000;14811022222;15311022222
629;26110896000;14811022222;15311022222
630;26141221000;14852377777;15352377777
682;26233656000;15019377777;15519377777
687;26251918000;15060711111;15560711111
688;26251921000;15060711111;15560711111
689;26251922000;15060711111;15560711111
690;26251923000;15060711111;15560711111
691;26251924000;15060711111;15560711111
692;26252122000;15060722222;15560722222
693;26252137000;15061033333;15561033333
694;26252138000;15061033333;15561033333
695;26252139000;15061033333;15561033333
696;26268748000;15102377777;15602377777
697;26268752000;15102377777;15602377777
698;26268753000;15102377777;15602377777
699;26268754000;15102377777;15602377777
700;26268754000;15102377777;15602377777
701;26268755000;15102377777;15602377777
702;26268756000;15102377777;15602377777
703;26268925000;15102388888;15602388888
704;26268930000;15102688888;15602688888
705;26268931000;15102688888;15602688888
706;26268932000;15102688888;15602688888
707;26287116000;15144044444;15644044444
708;26287118000;15144044444;15644044444
709;26287119000;15144044444;15644044444
710;26425133000;15144044444;15644044444
711;26425341000;15144044444;15644044444
712;26425542000;15144044444;15644044444
713;26425748000;15144044444;15644044444
714;26476420000;15144055555;15644055555
766;26476435000;15352377777;15852377777
767;26476436000;15352377777;15852377777
768;26476437000;15352377777;15852377777
769;26678743000;15352388888;15852388888
770;26678758000;15352655555;15852655555
771;26678759000;15352655555;15852655555
772;26678760000;15352655555;15852655555
773;26712262000;15394044444;15894044444
774;26712266000;15394044444;15894044444
775;26712267000;15394044444;15894044444
776;26712268000;15394044444;15894044444
777;26712268000;15394044444;15894044444
778;26712269000;15394044444;15894044444
779;26712270000;15394044444;15894044444
780;26712468000;15394055555;15894055555
781;26712490000;15394355555;15894355555
782;26712492000;15394355555;15894355555
783;26712493000;15394355555;15894355555
784;26742759000;15435711111;15935711111
840;26853385000;15644044444;16144044444
845;26853389000;15644044444;16144044444
846;26853566000;15644055555;16144055555
847;26853570000;15644400000;16144400000
848;26853571000;15644400000;16144400000
849;26853572000;15644400000;16144400000
850;26869671000;15685711111;16185711111
851;26869674000;15685711111;16185711111
852;26869675000;15685711111;16185711111
853;26869677000;15685711111;16185711111
854;26869678000;15685711111;16185711111
855;26869679000;15685711111;16185711111
856;26869680000;15685711111;16185711111
857;26869877000;15685722222;16185722222
858;26869883000;15686033333;16186033333
859;26869884000;15686033333;16186033333
860;26869885000;15686033333;16186033333
861;26886645000;15727377777;16227377777
862;26886648000;15727377777;16227377777
863;26886649000;15727377777;16227377777
864;26886650000;15727377777;16227377777
865;26886659000;15727377777;16227377777
866;26886660000;15727377777;16227377777
867;27026231000;15727377777;16227377777
868;27076881000;15727388888;16227388888
923;27279129000;15935722222;16435722222
924;27279134000;15936055555;16436055555
925;27279135000;15936055555;16436055555
926;27279136000;15936055555;16436055555
927;27312787000;15977377777;16477377777
928;27312791000;15977377777;16477377777
929;27312792000;15977377777;16477377777
930;27312793000;15977377777;16477377777
931;27312794000;15977377777;16477377777
932;27312795000;15977377777;16477377777
933;27312796000;15977377777;16477377777
934;27312994000;15977388888;16477388888
935;27313009000;15977688888;16477688888
936;27313010000;15977688888;16477688888
937;27313011000;15977688888;16477688888
938;27342775000;16019044444;16519044444
997;27443587000;16227377777;16727377777
1003;27443698000;16227688888;16727688888
1004;27457364000;16269044444;16769044444
1005;27457378000;16269044444;16769044444
1006;27457379000;16269044444;16769044444
1007;27457380000;16269044444;16769044444
1008;27457381000;16269044444;16769044444
1009;27457382000;16269044444;16769044444
1010;27457383000;16269044444;16769044444
1011;27457612000;16269055555;16769055555
1012;27457628000;16269388888;16769388888
1013;27457629000;16269388888;16769388888
1014;27457630000;16269388888;16769388888
1015;27473331000;16310711111;16810711111
1016;27473334000;16310711111;16810711111
1017;27473335000;16310711111;16810711111
1018;27473336000;16310711111;16810711111
1019;27473337000;16310711111;16810711111
1020;27473338000;16310711111;16810711111
1021;27473339000;16310711111;16810711111
1022;27473475000;16310722222;16810722222
1023;27473478000;16311033333;16811033333
1024;27473479000;16311033333;16811033333
1025;27627250000;16311033333;16811033333
1026;27677789000;16352377777;16852377777
1081;27880231000;16560711111;17060711111
1082;27880235000;16560711111;17060711111
1083;27880236000;16560711111;17060711111
1084;27880237000;16560711111;17060711111
1085;27880238000;16560711111;17060711111
1086;27880240000;16560711111;17060711111
1087;27880241000;16560711111;17060711111
1088;27880423000;16560722222;17060722222
1089;27880429000;16561000000;17061000000
1090;27880431000;16561000000;17061000000
1091;27880432000;16561000000;17061000000
1092;27913899000;16602377777;17102377777
1093;27913902000;16602377777;17102377777
1094;27913904000;16602377777;17102377777
1095;27913905000;16602377777;17102377777
1096;27913906000;16602377777;17102377777
1097;27913907000;16602377777;17102377777
1098;27913908000;16602377777;17102377777
1099;27914105000;16602388888;17102388888
1100;27914120000;16602655555;17102655555
1101;27914122000;16602655555;17102655555
1102;27914123000;16602655555;17102655555
1103;27944446000;16644044444;17144044444
1154;28036924000;16810722222;17310722222
1160;28036939000;16852377777;17352377777
1161;28036940000;16852377777;17352377777
1162;28036941000;16852377777;17352377777
1163;28036942000;16852377777;17352377777
1164;28036943000;16852377777;17352377777
1165;28054472000;16852388888;17352388888
1166;28054496000;16852633333;17352633333
1167;28054497000;16852633333;17352633333
1168;28054498000;16852633333;17352633333
1169;28071335000;16894044444;17394044444
1170;28071338000;16894044444;17394044444
1171;28071340000;16894044444;17394044444
1172;28071340000;16894044444;17394044444
1173;28071341000;16894044444;17394044444
1174;28071342000;16894044444;17394044444
1175;28071343000;16894044444;17394044444
1176;28071512000;16894055555;17394055555
1177;28071517000;16894355555;17394355555
1178;28071518000;16894355555;17394355555
1179;28071519000;16894355555;17394355555
1180;28089807000;16935677777;17435677777
1181;28089810000;16935677777;17435677777
1182;28089811000;16935677777;17435677777
1183;28228321000;16935677777;17435677777
1184;28228493000;16935677777;17435677777
1185;28228752000;16935677777;17435677777
1186;28228946000;16935677777;17435677777
1187;28279606000;16935688888;17435688888
1239;28279621000;17144044444;17644044444
1240;28279622000;17144044444;17644044444
1241;28279623000;17144044444;17644044444
1242;28482013000;17144055555;17644055555
1243;28482036000;17144344444;17644344444
1244;28482037000;17144344444;17644344444
1245;28482038000;17144344444;17644344444
1246;28515575000;17185711111;17685711111
1247;28515578000;17185711111;17685711111
1248;28515579000;17185711111;17685711111
1249;28515580000;17185711111;17685711111
1250;28515581000;17185711111;17685711111
1251;28515582000;17185711111;17685711111
1252;28515583000;17185711111;17685711111
1253;28515752000;17185722222;17685722222
1254;28515756000;17186011111;17686011111
1255;28515757000;17186011111;17686011111
1256;28515758000;17186011111;17686011111
1257;28546070000;17227377777;17727377777
1312;28655917000;17435711111;17935711111
1319;28656117000;17435722222;17935722222
1320;28656132000;17436044444;17936044444
1321;28656134000;17436044444;17936044444
1322;28656134000;17436044444;17936044444
1323;28672288000;17477377777;17977377777
1324;28672291000;17477377777;17977377777
1325;28672292000;17477377777;17977377777
1326;28672293000;17477377777;17977377777
1327;28672294000;17477377777;17977377777
1328;28672295000;17477377777;17977377777
1329;28672296000;17477377777;17977377777
1330;28672494000;17477388888;17977388888
1331;28672500000;17477677777;17977677777
1332;28672501000;17477677777;17977677777
1333;28672502000;17477677777;17977677777
1334;28689382000;17519044444;18019044444
1335;28689384000;17519044444;18019044444
1336;28689386000;17519044444;18019044444
1337;28689387000;17519044444;18019044444
1338;28689388000;17519044444;18019044444
1339;28689388000;17519044444;18019044444
1340;28689399000;17519044444;18019044444
1341;28879681000;17519055555;18019055555
1397;28879696000;17727688888;18227688888
1398;28879697000;17727688888;18227688888
1399;28879698000;17727688888;18227688888
1400;29116684000;17769044444;18269044444
1401;29116687000;17769044444;18269044444
1402;29116688000;17769044444;18269044444
1403;29116689000;17769044444;18269044444
1404;29116690000;17769044444;18269044444
1405;29116691000;17769044444;18269044444
1406;29116692000;17769044444;18269044444
1407;29116889000;17769055555;18269055555
1408;29116904000;17769366666;18269366666
1409;29116906000;17769366666;18269366666
1410;29116907000;17769366666;18269366666
1411;29145742000;17810711111;18310711111
1469;29246919000;18019044444;18519044444
1476;29247030000;18019366666;18519366666
1477;29260798000;18060711111;18560711111
1478;29260802000;18060711111;18560711111
1479;29260803000;18060711111;18560711111
1480;29260804000;18060711111;18560711111
1481;29260805000;18060711111;18560711111
1482;29260806000;18060711111;18560711111
1483;29260807000;18060711111;18560711111
1484;29261004000;18060722222;18560722222
1485;29261019000;18061033333;18561033333
1486;29261020000;18061033333;18561033333
1487;29261021000;18061033333;18561033333
1488;29276861000;18102377777;18602377777
1489;29276864000;18102377777;18602377777
1490;29276865000;18102377777;18602377777
1491;29276866000;18102377777;18602377777
1492;29276867000;18102377777;18602377777
1493;29276868000;18102377777;18602377777
1494;29276869000;18102377777;18602377777
1495;29277005000;18102388888;18602388888
1496;29277008000;18102688888;18602688888
1497;29277009000;18102688888;18602688888
1498;29430357000;18102688888;18602688888
1499;29480881000;18144044444;18644044444
1554;29683340000;18352377777;18852377777
1555;29683344000;18352377777;18852377777
1556;29683345000;18352377777;18852377777
1557;29683346000;18352377777;18852377777
1558;29683346000;18352377777;18852377777
1559;29683347000;18352377777;18852377777
1560;29683348000;18352377777;18852377777
1561;29683547000;18352388888;18852388888
1562;29683562000;18352655555;18852655555
1563;29683563000;18352655555;18852655555
1564;29683564000;18352655555;18852655555
1565;29717045000;18394044444;18894044444
1566;29717048000;18394044444;18894044444
1567;29717049000;18394044444;18894044444
1568;29717050000;18394044444;18894044444
1569;29717051000;18394044444;18894044444
1570;29717052000;18394044444;18894044444
1571;29717053000;18394044444;18894044444
1572;29717250000;18394055555;18894055555
1573;29717265000;18394366666;18894366666
1574;29717266000;18394366666;18894366666
1575;29717275000;18394366666;18894366666
1576;29747637000;18435711111;18935711111
1627;29840003000;18602388888;19102388888
1632;29840018000;18644044444;19144044444
1633;29840020000;18644044444;19144044444
1634;29840021000;18644044444;19144044444
1635;29840022000;18644044444;19144044444
1636;29840022000;18644044444;19144044444
1637;29840023000;18644044444;19144044444
1638;29857535000;18644055555;19144055555
1639;29857550000;18644377777;19144377777
1640;29857552000;18644377777;19144377777
1641;29857553000;18644377777;19144377777
1642;29874363000;18685711111;19185711111
1643;29874366000;18685711111;19185711111
1644;29874367000;18685711111;19185711111
1645;29874368000;18685711111;19185711111
1646;29874369000;18685711111;19185711111
1647;29874370000;18685711111;19185711111
1648;29874371000;18685711111;19185711111
1649;29874549000;18685722222;19185722222
1650;29874554000;18686033333;19186033333
1651;29874555000;18686033333;19186033333
1652;29874556000;18686033333;19186033333
1653;29892844000;18727377777;19227377777
1654;29892847000;18727377777;19227377777
1655;30031392000;18727377777;19227377777
1656;30031621000;18727377777;19227377777
1657;30031623000;18727377777;19227377777
1658;30031826000;18727377777;19227377777
1659;30031981000;18727377777;19227377777
1660;30082660000;18727388888;19227388888
1711;30082675000;18935700000;19435700000
1712;30082676000;18935700000;19435700000
1713;30082677000;18935700000;19435700000
1714;30082678000;18935700000;19435700000
1715;30285048000;18935722222;19435722222
1716;30285064000;18936255555;19436255555
1717;30285065000;18936255555;19436255555
1718;30285066000;18936255555;19436255555
1719;30318673000;18977400000;19477400000
1720;30318677000;18977400000;19477400000
1721;30318678000;18977400000;19477400000
1722;30318679000;18977400000;19477400000
1723;30318679000;18977400000;19477400000
1724;30318680000;18977400000;19477400000
1725;30318681000;18977400000;19477400000
1726;30318879000;18977422222;19477422222
1727;30318894000;18977800000;19477800000
1728;30318896000;18977800000;19477800000
1729;30318896000;18977800000;19477800000
1730;30349162000;19019044444;19519044444
1784;30441047000;19186022222;19686022222
1790;30459166000;19227377777;19727377777
1791;30459169000;19227377777;19727377777
1792;30459368000;19227388888;19727388888
1793;30459383000;19227688888;19727688888
1794;30459384000;19227688888;19727688888
1795;30459385000;19227688888;19727688888
1796;30475819000;19269044444;19769044444
1797;30475823000;19269044444;19769044444
1798;30475824000;19269044444;19769044444
1799;30475825000;19269044444;19769044444
1800;30475826000;19269044444;19769044444
1801;30475827000;19269044444;19769044444
1802;30475828000;19269044444;19769044444
1803;30475997000;19269055555;19769055555
1804;30476001000;19269388888;19769388888
1805;30476002000;19269388888;19769388888
1806;30476003000;19269388888;19769388888
1807;30494023000;19310711111;19810711111
1808;30494026000;19310711111;19810711111
1809;30494027000;19310711111;19810711111
1810;30494028000;19310711111;19810711111
1811;30494029000;19310711111;19810711111
1812;30494030000;19310711111;19810711111
1813;30632471000;19310711111;19810711111
1814;30683118000;19310722222;19810722222
1869;30885431000;19519066666;20019066666
1870;30885436000;19519388888;20019388888
1871;30885438000;19519388888;20019388888
1872;30885438000;19519388888;20019388888
1873;30919114000;19560711111;20060711111
1874;30919118000;19560711111;20060711111
1875;30919119000;19560711111;20060711111
1876;30919120000;19560711111;20060711111
1877;30919121000;19560711111;20060711111
1878;30919122000;19560711111;20060711111
1879;30919123000;19560711111;20060711111
1880;30919319000;19560722222;20060722222
1881;30919334000;19561022222;20061022222
1882;30919335000;19561022222;20061022222
1883;30919336000;19561022222;20061022222
1884;30949204000;19602377777;20102377777
1942;31049777000;19810722222;20310722222
1949;31049888000;19811011111;20311011111
1950;31063828000;19852377777;20352377777
1951;31063832000;19852377777;20352377777
1952;31063833000;19852377777;20352377777
1953;31063841000;19852377777;20352377777
1954;31063842000;19852377777;20352377777
1955;31063843000;19852377777;20352377777
1956;31063844000;19852377777;20352377777
1957;31064041000;19852388888;20352388888
1958;31064057000;19852633333;20352633333
1959;31064058000;19852633333;20352633333
1960;31064059000;19852633333;20352633333
1961;31080040000;19894022222;20394022222
1962;31080044000;19894022222;20394022222
1963;31080045000;19894022222;20394022222
1964;31080045000;19894022222;20394022222
1965;31080046000;19894022222;20394022222
1966;31080047000;19894022222;20394022222
1967;31080048000;19894022222;20394022222
1968;31080183000;19894044444;20394044444
1969;31080186000;19894377777;20394377777
1970;31080187000;19894377777;20394377777
1971;31233448000;19894377777;20394377777
1972;31284008000;19935711111;20435711111
2027;31486475000;20144044444;20644044444
2028;31486478000;20144044444;20644044444
2029;31486479000;20144044444;20644044444
2030;31486486000;20144044444;20644044444
2031;31486488000;20144044444;20644044444
2032;31486488000;20144044444;20644044444
2033;31486489000;20144044444;20644044444
2034;31486688000;20144055555;20644055555
2035;31486703000;20144344444;20644344444
2036;31486704000;20144344444;20644344444
2037;31486705000;20144344444;20644344444
2038;31520188000;20185711111;20685711111
2039;31520192000;20185711111;20685711111
2040;31520193000;20185711111;20685711111
2041;31520194000;20185711111;20685711111
2042;31520195000;20185711111;20685711111
2043;31520195000;20185711111;20685711111
2044;31520196000;20185711111;20685711111
2045;31520394000;20185722222;20685722222
2046;31520409000;20186000000;20686000000
2047;31520410000;20186000000;20686000000
2048;31520411000;20186000000;20686000000
2049;31550651000;20227388888;20727388888
2100;31643099000;20394066666;20894066666
2105;31643115000;20435711111;20935711111
2106;31643116000;20435711111;20935711111
2107;31643117000;20435711111;20935711111
2108;31643118000;20435711111;20935711111
2109;31643119000;20435711111;20935711111
2110;31643119000;20435711111;20935711111
2111;31660575000;20435722222;20935722222
2112;31660590000;20436055555;20936055555
2113;31660592000;20436055555;20936055555
2114;31660592000;20436055555;20936055555
2115;31677404000;20477377777;20977377777
2116;31677408000;20477377777;20977377777
2117;31677409000;20477377777;20977377777
2118;31677410000;20477377777;20977377777
2119;31677411000;20477377777;20977377777
2120;31677412000;20477377777;20977377777
2121;31677413000;20477377777;20977377777
2122;31677581000;20477388888;20977388888
2123;31677586000;20477688888;20977688888
2124;31677587000;20477688888;20977688888
2125;31677588000;20477688888;20977688888
2126;31695832000;20519044444;21019044444
2127;31695836000;20519044444;21019044444
2128;31834499000;20519044444;21019044444
2129;31834734000;20519044444;21019044444
2130;31834736000;20519044444;21019044444
2131;31834926000;20519044444;21019044444
2132;31835119000;20519044444;21019044444
2133;31885783000;20519055555;21019055555
2184;31885798000;20727388888;21227388888
2185;31885799000;20727388888;21227388888
2186;31885800000;20727388888;21227388888
2187;31885801000;20727388888;21227388888
2188;32088174000;20727400000;21227400000
2189;32088189000;20727744444;21227744444
2190;32088190000;20727744444;21227744444
2191;32088191000;20727744444;21227744444
2192;32121765000;20769044444;21269044444
2193;32121768000;20769044444;21269044444
2194;32121769000;20769044444;21269044444
2195;32121770000;20769044444;21269044444
2196;32121771000;20769044444;21269044444
2197;32121772000;20769044444;21269044444
2198;32121773000;20769044444;21269044444
2199;32121970000;20769055555;21269055555
2200;32121985000;20769388888;21269388888
2201;32121986000;20769388888;21269388888
2202;32121987000;20769388888;21269388888
2203;32152285000;20810711111;21310711111
2257;32244156000;20977711111;21477711111
2263;32262270000;21019044444;21519044444
2264;32262274000;21019044444;21519044444
2265;32262472000;21019055555;21519055555
2266;32262496000;21019388888;21519388888
2267;32262497000;21019388888;21519388888
2268;32262498000;21019388888;21519388888
2269;32278863000;21060711111;21560711111
2270;32278867000;21060711111;21560711111
2271;32278868000;21060711111;21560711111
2272;32278869000;21060711111;21560711111
2273;32278870000;21060711111;21560711111
2274;32278871000;21060711111;21560711111
2275;32278871000;21060711111;21560711111
2276;32279040000;21060722222;21560722222
2277;32279044000;21061055555;21561055555
2278;32279045000;21061055555;21561055555
2279;32279046000;21061055555;21561055555
2280;32297041000;21102377777;21602377777
2281;32297043000;21102377777;21602377777
2282;32297044000;21102377777;21602377777
2283;32297045000;21102377777;21602377777
2284;32297046000;21102377777;21602377777
2285;32297048000;21102377777;21602377777
2286;32435502000;21102377777;21602377777
2287;32486152000;21102388888;21602388888
2342;32688470000;21310722222;21810722222
2343;32688475000;21311055555;21811055555
2344;32688476000;21311055555;21811055555
2345;32688478000;21311055555;21811055555
2346;32722150000;21352377777;21852377777
2347;32722153000;21352377777;21852377777
2348;32722154000;21352377777;21852377777
2349;32722155000;21352377777;21852377777
2350;32722156000;21352377777;21852377777
2351;32722157000;21352377777;21852377777
2352;32722158000;21352377777;21852377777
2353;32722355000;21352388888;21852388888
2354;32722370000;21352688888;21852688888
2355;32722371000;21352688888;21852688888
2356;32722372000;21352688888;21852688888
2357;32752252000;21394044444;21894044444
2415;32853766000;21602377777;22102377777
2422;32853879000;21602677777;22102677777
2423;32867730000;21644044444;22144044444
2424;32867734000;21644044444;22144044444
2425;32867735000;21644044444;22144044444
2426;32867736000;21644044444;22144044444
2427;32867737000;21644044444;22144044444
2428;32867738000;21644044444;22144044444
2429;32867739000;21644044444;22144044444
2430;32867937000;21644055555;22144055555
2431;32867953000;21644377777;22144377777
2432;32867954000;21644377777;22144377777
2433;32867955000;21644377777;22144377777
2434;32883887000;21685722222;22185722222
2435;32883890000;21685722222;22185722222
2436;32883891000;21685722222;22185722222
2437;32883892000;21685722222;22185722222
2438;32883893000;21685722222;22185722222
2439;32883894000;21685722222;22185722222
2440;32883895000;21685722222;22185722222
2441;32884030000;21685733333;22185733333
2442;32884033000;21686055555;22186055555
2443;32884034000;21686055555;22186055555
2444;33036526000;21686055555;22186055555
2445;33087053000;21727388888;22227388888
2500;33289501000;21935711111;22435711111
2501;33289505000;21935711111;22435711111
2502;33289506000;21935711111;22435711111
2503;33289516000;21935711111;22435711111
2504;33289517000;21935711111;22435711111
2505;33289518000;21935711111;22435711111
2506;33289519000;21935711111;22435711111
2507;33289716000;21935722222;22435722222
2508;33289731000;21936055555;22436055555
2509;33289732000;21936055555;22436055555
2510;33289734000;21936055555;22436055555
2511;33323241000;21977377777;22477377777
2512;33323244000;21977377777;22477377777
2513;33323245000;21977377777;22477377777
2514;33323246000;21977377777;22477377777
2515;33323247000;21977377777;22477377777
2516;33323248000;21977377777;22477377777
2517;33323249000;21977377777;22477377777
2518;33323418000;21977388888;22477388888
2519;33323422000;21977688888;22477688888
2520;33323423000;21977688888;22477688888
2521;33323424000;21977688888;22477688888
2522;33353812000;22019044444;22519044444
2573;33446061000;22185722222;22685722222
2579;33446076000;22227388888;22727388888
2580;33446078000;22227388888;22727388888
2581;33446079000;22227388888;22727388888
2582;33446079000;22227388888;22727388888
2583;33446081000;22227388888;22727388888
2584;33463551000;22227400000;22727400000
2585;33463566000;22227700000;22727700000
2586;33463567000;22227700000;22727700000
2587;33463568000;22227700000;22727700000
2588;33480326000;22269044444;22769044444
2589;33480330000;22269044444;22769044444
2590;33480331000;22269044444;22769044444
2591;33480332000;22269044444;22769044444
2592;33480333000;22269044444;22769044444
2593;33480334000;22269044444;22769044444
2594;33480335000;22269044444;22769044444
2595;33480515000;22269055555;22769055555
2596;33480519000;22269477777;22769477777
2597;33480520000;22269477777;22769477777
2598;33480521000;22269477777;22769477777
2599;33498848000;22310722222;22810722222
2600;33498852000;22310722222;22810722222
2601;33498853000;22310722222;22810722222
2602;33637538000;22310722222;22810722222
2603;33637758000;22310722222;22810722222
2604;33637950000;22310722222;22810722222
2605;33638142000;22310722222;22810722222
2606;33688778000;22310733333;22810733333
2658;33688794000;22519044444;23019044444
2659;33688795000;22519044444;23019044444
2660;33688796000;22519044444;23019044444
2661;33891155000;22519055555;23019055555
2662;33891170000;22519366666;23019366666
2663;33891171000;22519366666;23019366666
2664;33891172000;22519366666;23019366666
2665;33924767000;22560711111;23060711111
2666;33924770000;22560711111;23060711111
2667;33924771000;22560711111;23060711111
2668;33924772000;22560711111;23060711111
2669;33924773000;22560711111;23060711111
2670;33924774000;22560711111;23060711111
2671;33924775000;22560711111;23060711111
2672;33924944000;22560722222;23060722222
2673;33924948000;22561000000;23061000000
2674;33924949000;22561000000;23061000000
2675;33924950000;22561000000;23061000000
2676;33955305000;22602388888;23102388888
2729;34047093000;22769355555;23269355555
2737;34065174000;22810722222;23310722222
2738;34065375000;22810733333;23310733333
2739;34065390000;22811033333;23311033333
2740;34065392000;22811033333;23311033333
2741;34065393000;22811033333;23311033333
2742;34081787000;22852377777;23352377777
2743;34081791000;22852377777;23352377777
2744;34081792000;22852377777;23352377777
2745;34081793000;22852377777;23352377777
2746;34081793000;22852377777;23352377777
2747;34081794000;22852377777;23352377777
2748;34081795000;22852377777;23352377777
2749;34081965000;22852388888;23352388888
2750;34081969000;22852655555;23352655555
2751;34081970000;22852655555;23352655555
2752;34081971000;22852655555;23352655555
2753;34099965000;22894055555;23394055555
2754;34099968000;22894055555;23394055555
2755;34099969000;22894055555;23394055555
2756;34099969000;22894055555;23394055555
2757;34099970000;22894055555;23394055555
2758;34099971000;22894055555;23394055555
2759;34099973000;22894055555;23394055555
2760;34288913000;22894066666;23394066666
2816;34288928000;23102688888;23602688888
2817;34288930000;23102688888;23602688888
2818;34288931000;23102688888;23602688888
2819;34525928000;23144044444;23644044444
2820;34525931000;23144044444;23644044444
2821;34525932000;23144044444;23644044444
2822;34525933000;23144044444;23644044444
2823;34525934000;23144044444;23644044444
2824;34525935000;23144044444;23644044444
2825;34525936000;23144044444;23644044444
2826;34526134000;23144055555;23644055555
2827;34526140000;23144344444;23644344444
2828;34526141000;23144344444;23644344444
2829;34526142000;23144344444;23644344444
2830;34555077000;23185722222;23685722222
2887;34656857000;23394055555;23894055555
2896;34670868000;23435711111;23935711111
2897;34670884000;23435711111;23935711111
2898;34670885000;23435711111;23935711111
2899;34670886000;23435711111;23935711111
2900;34670887000;23435711111;23935711111
2901;34670888000;23435711111;23935711111
2902;34670889000;23435711111;23935711111
2903;34671110000;23435722222;23935722222
2904;34671125000;23436000000;23936000000
2905;34671126000;23436000000;23936000000
2906;34671127000;23436000000;23936000000
2907;34687073000;23477388888;23977388888
2908;34687077000;23477388888;23977388888
2909;34687078000;23477388888;23977388888
2910;34687079000;23477388888;23977388888
2911;34687080000;23477388888;23977388888
2912;34687081000;23477388888;23977388888
2913;34687082000;23477388888;23977388888
2914;34687291000;23477400000;23977400000
2915;34687307000;23477677777;23977677777
2916;34687308000;23477677777;23977677777
2917;34687309000;23477677777;23977677777
2918;34889816000;23519044444;24019044444
2974;35092282000;23727377777;24227377777
2975;35092286000;23727377777;24227377777
2976;35092287000;23727377777;24227377777
2977;35092288000;23727377777;24227377777
2978;35092289000;23727377777;24227377777
2979;35092298000;23727377777;24227377777
2980;35092495000;23727388888;24227388888
2981;35092501000;23727688888;24227688888
2982;35092502000;23727688888;24227688888
2983;35092503000;23727688888;24227688888
2984;35126028000;23769044444;24269044444
2985;35126031000;23769044444;24269044444
2986;35126032000;23769044444;24269044444
2987;35126033000;23769044444;24269044444
2988;35126034000;23769044444;24269044444
2989;35126035000;23769044444;24269044444
2990;35126036000;23769044444;24269044444
2991;35126234000;23769055555;24269055555
2992;35126249000;23769344444;24269344444
2993;35126251000;23769344444;24269344444
2994;35126252000;23769344444;24269344444
2995;35156647000;23810711111;24310711111
3045;35248849000;23977377777;24477377777
3053;35266374000;24019044444;24519044444
3054;35266377000;24019044444;24519044444
3055;35266378000;24019044444;24519044444
3056;35266379000;24019044444;24519044444
3057;35266585000;24019055555;24519055555
3058;35266601000;24019355555;24519355555
3059;35266602000;24019355555;24519355555
3060;35266603000;24019355555;24519355555
3061;35283243000;24060711111;24560711111
3062;35283246000;24060711111;24560711111
3063;35283247000;24060711111;24560711111
3064;35283248000;24060711111;24560711111
3065;35283249000;24060711111;24560711111
3066;35283250000;24060711111;24560711111
3067;35283251000;24060711111;24560711111
3068;35283420000;24060722222;24560722222
3069;35283424000;24061011111;24561011111
3070;35283426000;24061011111;24561011111
3071;35283426000;24061011111;24561011111
3072;35301657000;24102377777;24602377777
3073;35301660000;24102377777;24602377777
3074;35301661000;24102377777;24602377777
3075;35301662000;24102377777;24602377777
