seqnum;now;rtptime;deadline
0;11132312000;10690955555;10890955555
1;11132317000;10690955555;10890955555
2;11132318000;10690955555;10890955555
3;11132320000;10690955555;10890955555
4;11242402000;10690955555;10890955555
5;11242501000;10690955555;10890955555
6;11242751000;10690955555;10890955555
7;11242937000;10690955555;10890955555
8;11242942000;10690955555;10890955555
9;11243769000;10690955555;10890955555
10;11244304000;10690955555;10890955555
11;11244321000;10722611111;10922611111
12;11403374000;10722611111;10922611111
14;11404223000;10722611111;10922611111
15;11404421000;10722611111;10922611111
16;11404427000;10722611111;10922611111
17;11404666000;10722611111;10922611111
19;11404703000;10722611111;10922611111
20;11404945000;10722611111;10922611111
21;11405036000;10722611111;10922611111
22;11405188000;10764333333;10964333333
23;11405190000;10764333333;10964333333
24;11405404000;10764333333;10964333333
25;11405411000;10764333333;10964333333
27;11565086000;10764333333;10964333333
28;11565098000;10764333333;10964333333
29;11565391000;10764333333;10964333333
30;11565948000;10764333333;10964333333
31;11566407000;10764333333;10964333333
32;11566425000;10764333333;10964333333
33;11566712000;10805922222;11005922222
34;11726012000;10805922222;11005922222
35;11726014000;10805922222;11005922222
36;11726363000;10805922222;11005922222
37;11726370000;10805922222;11005922222
38;11726928000;10805922222;11005922222
39;11727381000;10805922222;11005922222
40;11727687000;10805922222;11005922222
41;11887042000;10805922222;11005922222
42;11887045000;10805922222;11005922222
43;11887318000;10805922222;11005922222
44;11887573000;10847600000;11047600000
45;11887584000;10847600000;11047600000
46;11887931000;10847600000;11047600000
47;11888373000;10847600000;11047600000
48;11888657000;10847600000;11047600000
49;12048069000;10847600000;11047600000
50;12048071000;10847600000;11047600000
51;12048325000;10847600000;11047600000
53;12048935000;10847600000;11047600000
54;12049341000;10847600000;11047600000
55;12049617000;10889322222;11089322222
57;12209090000;10889322222;11089322222
58;12209092000;10889322222;11089322222
59;12209333000;10889322222;11089322222
60;12209892000;10889322222;11089322222
61;12210326000;10889322222;11089322222
62;12210329000;10889322222;11089322222
63;12370093000;10889322222;11089322222
64;12370096000;10889322222;11089322222
65;12370370000;10889322222;11089322222
66;12527941000;10930888888;11130888888
67;12528109000;10930888888;11130888888
68;12531323000;10930888888;11130888888
69;12531326000;10930888888;11130888888
70;12688148000;10930888888;11130888888
71;12688332000;10930888888;11130888888
72;12688334000;10930888888;11130888888
73;12692376000;10930888888;11130888888
74;12848681000;10930888888;11130888888
75;12848789000;10930888888;11130888888
77;12853504000;10972611111;11172611111
78;13009042000;10972611111;11172611111
79;13009243000;10972611111;11172611111
80;13169570000;10972611111;11172611111
81;13169725000;10972611111;11172611111
82;13169733000;10972611111;11172611111
83;13330059000;10972611111;11172611111
84;13330220000;10972611111;11172611111
85;13330223000;10972611111;11172611111
86;13330412000;10972611111;11172611111
87;13490460000;10972611111;11172611111
88;13490638000;11014244444;11214244444
89;13490852000;11014244444;11214244444
90;13490855000;11014244444;11214244444
91;13491070000;11014244444;11214244444
92;13650913000;11014244444;11214244444
93;13651107000;11014244444;11214244444
94;13651347000;11014244444;11214244444
95;13651546000;11014244444;11214244444
96;13651556000;11014244444;11214244444
97;13811398000;11014244444;11214244444
98;13811658000;11014244444;11214244444
99;13811788000;11055888888;11255888888
100;13812016000;11055888888;11255888888
101;13812213000;11055888888;11255888888
102;13971872000;11055888888;11255888888
104;13972281000;11055888888;11255888888
105;13972458000;11055888888;11255888888
106;13972670000;11055888888;11255888888
107;14132402000;11055888888;11255888888
108;14133143000;11055888888;11255888888
109;14133374000;11055888888;11255888888
111;14293670000;11097522222;11297522222
112;14293837000;11097522222;11297522222
113;14454104000;11097522222;11297522222
114;14454302000;11097522222;11297522222
115;14614591000;11097522222;11297522222
116;14614803000;11097522222;11297522222
117;14614805000;11097522222;11297522222
118;14775062000;11097522222;11297522222
119;14775263000;11097522222;11297522222
120;14775286000;11097522222;11297522222
121;14786010000;11139244444;11339244444
122;14935717000;11139244444;11339244444
123;14935929000;11139244444;11339244444
124;14938997000;11139244444;11339244444
125;14946791000;11139244444;11339244444
126;14946793000;11139244444;11339244444
127;15099986000;11139244444;11339244444
128;15099988000;11139244444;11339244444
129;15107872000;11139244444;11339244444
130;15261057000;11139244444;11339244444
131;15261079000;11139244444;11339244444
132;15268883000;11180877777;11380877777
133;15422071000;11180877777;11380877777
134;15422073000;11180877777;11380877777
135;15429895000;11180877777;11380877777
136;15583123000;11180877777;11380877777
137;15590917000;11180877777;11380877777
138;15590919000;11180877777;11380877777
140;15751981000;11180877777;11380877777
141;15751993000;11180877777;11380877777
142;15912950000;11180877777;11380877777
143;15913134000;11222544444;11422544444
144;15913136000;11222544444;11422544444
145;16059665000;11222544444;11422544444
146;16219902000;11222544444;11422544444
147;16220108000;11222544444;11422544444
148;16234951000;11222544444;11422544444
149;16380600000;11222544444;11422544444
150;16380603000;11222544444;11422544444
151;16380782000;11222544444;11422544444
152;16395639000;11222544444;11422544444
153;16540777000;11222544444;11422544444
154;16541054000;11264255555;11464255555
155;16541314000;11264255555;11464255555
156;16541316000;11264255555;11464255555
157;16556095000;11264255555;11464255555
158;16701233000;11264255555;11464255555
160;16701765000;11264255555;11464255555
161;16716570000;11264255555;11464255555
162;16716778000;11264255555;11464255555
163;16862225000;11264255555;11464255555
164;16862432000;11264255555;11464255555
165;16877046000;11305922222;11505922222
166;17022707000;11305922222;11505922222
167;17022913000;11305922222;11505922222
168;17037524000;11305922222;11505922222
169;17183187000;11305922222;11505922222
170;17183388000;11305922222;11505922222
172;17343705000;11305922222;11505922222
174;17504199000;11305922222;11505922222
175;17664599000;11305922222;11505922222
176;17825057000;11347555555;11547555555
177;17825263000;11347555555;11547555555
178;17880921000;11347555555;11547555555
179;17985501000;11347555555;11547555555
180;17985710000;11347555555;11547555555
181;18041419000;11347555555;11547555555
183;18041654000;11347555555;11547555555
184;18041656000;11347555555;11547555555
185;18041896000;11347555555;11547555555
186;18041908000;11347555555;11547555555
187;18147252000;11389233333;11589233333
188;18147255000;11389233333;11589233333
189;18202449000;11389233333;11589233333
190;18202452000;11389233333;11589233333
191;18202741000;11389233333;11589233333
193;18363530000;11389233333;11589233333
194;18363537000;11389233333;11589233333
195;18363787000;11389233333;11589233333
196;18524553000;11389233333;11589233333
197;18524566000;11389233333;11589233333
198;18524846000;11430866666;11630866666
199;18685631000;11430866666;11630866666
200;18685633000;11430866666;11630866666
201;18685913000;11430866666;11630866666
202;18846541000;11430866666;11630866666
203;18846544000;11430866666;11630866666
204;18846898000;11430866666;11630866666
205;19007613000;11430866666;11630866666
206;19007616000;11430866666;11630866666
207;19007936000;11430866666;11630866666
208;19168577000;11430866666;11630866666
209;19168801000;11472544444;11672544444
210;19168804000;11472544444;11672544444
211;19329616000;11472544444;11672544444
213;19329702000;11472544444;11672544444
214;19490662000;11472544444;11672544444
215;19490664000;11472544444;11672544444
216;19591657000;11472544444;11672544444
218;19651771000;11472544444;11672544444
219;19751716000;11472544444;11672544444
220;19751905000;11514255555;11714255555
221;19752091000;11514255555;11714255555
222;19752093000;11514255555;11714255555
223;19911926000;11514255555;11714255555
224;19912156000;11514255555;11714255555
225;19912618000;11514255555;11714255555
227;20072648000;11514255555;11714255555
228;20073032000;11514255555;11714255555
229;20233088000;11514255555;11714255555
231;20393622000;11555888888;11755888888
232;20393763000;11555888888;11755888888
233;20554044000;11555888888;11755888888
234;20554235000;11555888888;11755888888
235;20714582000;11555888888;11755888888
236;20714717000;11555888888;11755888888
238;20779263000;11555888888;11755888888
239;20874981000;11555888888;11755888888
240;20940013000;11555888888;11755888888
241;20940025000;11555888888;11755888888
242;20940291000;11597533333;11797533333
243;21100998000;11597533333;11797533333
244;21101279000;11597533333;11797533333
245;21262014000;11597533333;11797533333
246;21262016000;11597533333;11797533333
247;21262283000;11597533333;11797533333
248;21423066000;11597533333;11797533333
249;21423068000;11597533333;11797533333
250;21423318000;11597533333;11797533333
251;21584026000;11597533333;11797533333
253;21584387000;11639255555;11839255555
254;21746295000;11639255555;11839255555
255;21906627000;11639255555;11839255555
256;21906630000;11639255555;11839255555
257;21906834000;11639255555;11839255555
258;22067095000;11639255555;11839255555
260;22067325000;11639255555;11839255555
261;22227620000;11639255555;11839255555
262;22388279000;11639255555;11839255555
263;22548696000;11639255555;11839255555
264;22548883000;11680877777;11880877777
265;23404911000;11680877777;11880877777
266;23405118000;11680877777;11880877777
267;23565392000;11680877777;11880877777
268;23565691000;11680877777;11880877777
269;23725868000;11680877777;11880877777
270;23726084000;11680877777;11880877777
271;23728105000;11680877777;11880877777
272;23728107000;11680877777;11880877777
273;23888430000;11680877777;11880877777
275;23888489000;11722533333;11922533333
276;23888901000;11722533333;11922533333
277;24047356000;11722533333;11922533333
278;24047358000;11722533333;11922533333
279;24047673000;11722533333;11922533333
280;24049493000;11722533333;11922533333
281;24049495000;11722533333;11922533333
282;24049896000;11722533333;11922533333
283;24208421000;11722533333;11922533333
284;24210572000;11722533333;11922533333
285;24210593000;11722533333;11922533333
286;24368322000;11764244444;11964244444
287;24371652000;11764244444;11964244444
288;24371654000;11764244444;11964244444
289;24371882000;11764244444;11964244444
290;24532544000;11764244444;11964244444
291;24532555000;11764244444;11964244444
292;24532798000;11764244444;11964244444
293;24532800000;11764244444;11964244444
294;24693663000;11764244444;11964244444
295;24693666000;11764244444;11964244444
296;24693857000;11764244444;11964244444
297;24693869000;11805855555;12005855555
298;24854723000;11805855555;12005855555
299;24854726000;11805855555;12005855555
300;24854978000;11805855555;12005855555
301;24854980000;11805855555;12005855555
302;25015782000;11805855555;12005855555
303;25015784000;11805855555;12005855555
305;25016084000;11805855555;12005855555
306;25176844000;11805855555;12005855555
307;25176866000;11805855555;12005855555
308;25177121000;11847522222;12047522222
309;25337811000;11847522222;12047522222
310;25337814000;11847522222;12047522222
311;25338120000;11847522222;12047522222
312;25498891000;11847522222;12047522222
313;25498894000;11847522222;12047522222
314;25499161000;11847522222;12047522222
316;25659973000;11847522222;12047522222
317;25659984000;11847522222;12047522222
318;25820951000;11847522222;12047522222
319;25821162000;11889244444;12089244444
320;25981935000;11889244444;12089244444
321;25981938000;11889244444;12089244444
322;26133914000;11889244444;12089244444
323;26142974000;11889244444;12089244444
324;26142976000;11889244444;12089244444
325;26294950000;11889244444;12089244444
326;26294952000;11889244444;12089244444
327;26304016000;11889244444;12089244444
328;26304018000;11889244444;12089244444
329;26455952000;11889244444;12089244444
330;26456166000;11930877777;12130877777
331;26465051000;11930877777;12130877777
332;26465053000;11930877777;12130877777
333;26616968000;11930877777;12130877777
334;26617206000;11930877777;12130877777
335;26626131000;11930877777;12130877777
336;26626133000;11930877777;12130877777
337;26778015000;11930877777;12130877777
338;26787178000;11930877777;12130877777
339;26787180000;11930877777;12130877777
341;26939094000;11972544444;12172544444
342;26948234000;11972544444;12172544444
343;26948245000;11972544444;12172544444
344;27100061000;11972544444;12172544444
345;27109231000;11972544444;12172544444
346;27109233000;11972544444;12172544444
347;27261078000;11972544444;12172544444
348;27270288000;11972544444;12172544444
349;27270291000;11972544444;12172544444
350;27418733000;11972544444;12172544444
351;27418913000;11972544444;12172544444
352;27431451000;12014244444;12214244444
353;27578773000;12014244444;12214244444
354;27578975000;12014244444;12214244444
355;27582808000;12014244444;12214244444
356;27583010000;12014244444;12214244444
357;27583230000;12014244444;12214244444
358;27583232000;12014244444;12214244444
359;27739264000;12014244444;12214244444
360;27739431000;12014244444;12214244444
361;27739648000;12014244444;12214244444
363;27743537000;12055866666;12255866666
364;27743685000;12055866666;12255866666
365;27743890000;12055866666;12255866666
366;27899870000;12055866666;12255866666
367;27900079000;12055866666;12255866666
368;27900082000;12055866666;12255866666
369;27903954000;12055866666;12255866666
370;27904148000;12055866666;12255866666
371;28060551000;12055866666;12255866666
372;28060758000;12055866666;12255866666
373;28064372000;12055866666;12255866666
374;28064614000;12097522222;12297522222
375;28221232000;12097522222;12297522222
376;28221435000;12097522222;12297522222
377;28221438000;12097522222;12297522222
378;28221636000;12097522222;12297522222
379;28224866000;12097522222;12297522222
380;28225123000;12097522222;12297522222
381;28381969000;12097522222;12297522222
382;28382129000;12097522222;12297522222
383;28382131000;12097522222;12297522222
384;28382334000;12097522222;12297522222
385;28385313000;12139244444;12339244444
388;28542668000;12139244444;12339244444
389;28542851000;12139244444;12339244444
390;28543053000;12139244444;12339244444
391;28545784000;12139244444;12339244444
392;28703117000;12139244444;12339244444
393;28703316000;12139244444;12339244444
394;28706258000;12139244444;12339244444
395;28863538000;12139244444;12339244444
397;28866768000;12180888888;12380888888
398;29024012000;12180888888;12380888888
399;29027223000;12180888888;12380888888
401;29187751000;12180888888;12380888888
402;29187923000;12180888888;12380888888
404;29348226000;12180888888;12380888888
405;29348391000;12180888888;12380888888
406;29508623000;12180888888;12380888888
407;29508813000;12222544444;12422544444
408;29509014000;12222544444;12422544444
409;29669163000;12222544444;12422544444
410;29669283000;12222544444;12422544444
411;29669297000;12222544444;12422544444
412;29669504000;12222544444;12422544444
413;29829614000;12222544444;12422544444
414;29829846000;12222544444;12422544444
415;29830022000;12222544444;12422544444
416;29830024000;12222544444;12422544444
417;29990043000;12222544444;12422544444
418;29990248000;12264255555;12464255555
419;29990472000;12264255555;12464255555
420;29990693000;12264255555;12464255555
421;30150503000;12264255555;12464255555
422;30150715000;12264255555;12464255555
423;30150911000;12264255555;12464255555
425;30311033000;12264255555;12464255555
426;30311177000;12264255555;12464255555
427;30311377000;12264255555;12464255555
428;30471441000;12264255555;12464255555
429;30471679000;12305888888;12505888888
430;30471880000;12305888888;12505888888
432;30631942000;12305888888;12505888888
433;30632117000;12305888888;12505888888
434;30632317000;12305888888;12505888888
435;30792401000;12305888888;12505888888
436;30792636000;12305888888;12505888888
437;30792812000;12305888888;12505888888
438;30952908000;12305888888;12505888888
439;30953201000;12305888888;12505888888
440;30953377000;12347555555;12547555555
441;31113391000;12347555555;12547555555
442;31113615000;12347555555;12547555555
443;31113819000;12347555555;12547555555
444;31273871000;12347555555;12547555555
445;31274069000;12347555555;12547555555
446;31274272000;12347555555;12547555555
428;31282076000;12264255555;12464255555
429;31282089000;12305888888;12505888888
430;31282089000;12305888888;12505888888
431;31282090000;12305888888;12505888888
432;31282091000;12305888888;12505888888
447;31434441000;12347555555;12547555555
448;31434586000;12347555555;12547555555
449;31434769000;12347555555;12547555555
450;31594943000;12347555555;12547555555
452;31595279000;12389222222;12589222222
453;31755271000;12389222222;12589222222
454;31764634000;12389222222;12589222222
455;31764834000;12389222222;12589222222
456;31915749000;12389222222;12589222222
457;31925116000;12389222222;12589222222
458;31925317000;12389222222;12589222222
459;32076231000;12389222222;12589222222
460;32085702000;12389222222;12589222222
461;32086466000;12389222222;12589222222
462;32086656000;12430866666;12630866666
463;32236676000;12430866666;12630866666
464;32246150000;12430866666;12630866666
465;32246921000;12430866666;12630866666
466;32247130000;12430866666;12630866666
467;32397155000;12430866666;12630866666
468;32406664000;12430866666;12630866666
469;32407395000;12430866666;12630866666
470;32407690000;12430866666;12630866666
471;32557631000;12430866666;12630866666
472;32567066000;12430866666;12630866666
473;32567871000;12472533333;12672533333
474;32568111000;12472533333;12672533333
475;32718112000;12472533333;12672533333
476;32727530000;12472533333;12672533333
477;32728365000;12472533333;12672533333
478;32728542000;12472533333;12672533333
479;32878594000;12472533333;12672533333
480;32888010000;12472533333;12672533333
481;32888828000;12472533333;12672533333
482;32889038000;12472533333;12672533333
483;33039025000;12472533333;12672533333
484;33048494000;12514277777;12714277777
485;33049304000;12514277777;12714277777
486;33049504000;12514277777;12714277777
487;33199492000;12514277777;12714277777
488;33209993000;12514277777;12714277777
489;33210196000;12514277777;12714277777
490;33210199000;12514277777;12714277777
491;33359971000;12514277777;12714277777
492;33370473000;12514277777;12714277777
493;33370683000;12514277777;12714277777
494;33370906000;12514277777;12714277777
495;33520457000;12555888888;12755888888
496;33530968000;12555888888;12755888888
497;33531171000;12555888888;12755888888
498;33531368000;12555888888;12755888888
499;33680940000;12555888888;12755888888
500;33691453000;12555888888;12755888888
502;33691878000;12555888888;12755888888
503;33841426000;12555888888;12755888888
504;33851936000;12555888888;12755888888
505;33858109000;12555888888;12755888888
506;34001911000;12597533333;12797533333
507;34012431000;12597533333;12797533333
509;34162431000;12597533333;12797533333
510;34172905000;12597533333;12797533333
490;34181084000;12514277777;12714277777
491;34181097000;12514277777;12714277777
492;34181098000;12514277777;12714277777
493;34181099000;12514277777;12714277777
494;34181100000;12514277777;12714277777
511;34322906000;12597533333;12797533333
512;34333380000;12597533333;12797533333
495;34342069000;12555888888;12755888888
496;34342076000;12555888888;12755888888
497;34342077000;12555888888;12755888888
498;34342078000;12555888888;12755888888
499;34342079000;12555888888;12755888888
500;34342080000;12555888888;12755888888
513;34483405000;12597533333;12797533333
514;34483594000;12597533333;12797533333
515;34493861000;12597533333;12797533333
516;34643903000;12597533333;12797533333
517;34644015000;12639255555;12839255555
518;34644178000;12639255555;12839255555
519;34654342000;12639255555;12839255555
520;34804257000;12639255555;12839255555
521;34804484000;12639255555;12839255555
522;34804706000;12639255555;12839255555
523;34814814000;12639255555;12839255555
524;34964740000;12639255555;12839255555
525;34964944000;12639255555;12839255555
526;34965135000;12639255555;12839255555
527;34975239000;12639255555;12839255555
528;35125244000;12680888888;12880888888
529;35125444000;12680888888;12880888888
530;35125655000;12680888888;12880888888
531;35135703000;12680888888;12880888888
533;35285959000;12680888888;12880888888
534;35286128000;12680888888;12880888888
535;35296181000;12680888888;12880888888
536;35446403000;12680888888;12880888888
537;35446665000;12680888888;12880888888
538;35456605000;12680888888;12880888888
539;35606885000;12722544444;12922544444
540;35607085000;12722544444;12922544444
541;35617035000;12722544444;12922544444
542;35767335000;12722544444;12922544444
543;35767559000;12722544444;12922544444
544;35777510000;12722544444;12922544444
545;35927808000;12722544444;12922544444
546;35928018000;12722544444;12922544444
547;35937988000;12722544444;12922544444
548;36088503000;12722544444;12922544444
549;36088734000;12722544444;12922544444
550;36098495000;12764266666;12964266666
551;36249003000;12764266666;12964266666
552;36249166000;12764266666;12964266666
553;37056950000;12764266666;12964266666
554;37056952000;12764266666;12964266666
556;37218008000;12764266666;12964266666
558;37218010000;12764266666;12964266666
559;37379059000;12764266666;12964266666
560;37540029000;12764266666;12964266666
562;37701089000;12805877777;13005877777
563;37862066000;12805877777;13005877777
565;38023136000;12805877777;13005877777
567;38184186000;12805877777;13005877777
569;38715117000;12805877777;13005877777
570;38715120000;12805877777;13005877777
571;38876046000;12805877777;13005877777
572;38876263000;12847544444;13047544444
574;39037103000;12847544444;13047544444
575;39037105000;12847544444;13047544444
576;39198083000;12847544444;13047544444
577;39198086000;12847544444;13047544444
578;39359115000;12847544444;13047544444
579;39359117000;12847544444;13047544444
580;39359392000;12847544444;13047544444
581;39515969000;12847544444;13047544444
582;39520220000;12847544444;13047544444
583;39520403000;12889255555;13089255555
584;39676130000;12889255555;13089255555
586;39680881000;12889255555;13089255555
587;39681060000;12889255555;13089255555
589;39836633000;12889255555;13089255555
591;39841553000;12889255555;13089255555
592;39997067000;12889255555;13089255555
593;40003437000;12889255555;13089255555
594;40003440000;12930888888;13130888888
595;40164197000;12930888888;13130888888
596;40164199000;12930888888;13130888888
598;40164482000;12930888888;13130888888
599;40325231000;12930888888;13130888888
600;40325233000;12930888888;13130888888
601;40478852000;12930888888;13130888888
603;40486308000;12930888888;13130888888
604;40486339000;12930888888;13130888888
605;40639941000;12972555555;13172555555
606;40647316000;12972555555;13172555555
607;40647318000;12972555555;13172555555
608;40647598000;12972555555;13172555555
609;40808374000;12972555555;13172555555
610;40808376000;12972555555;13172555555
612;40969399000;12972555555;13172555555
613;40969402000;12972555555;13172555555
614;41121043000;12972555555;13172555555
615;41121066000;12972555555;13172555555
616;41280878000;13014244444;13214244444
617;41281109000;13014244444;13214244444
618;41281276000;13014244444;13214244444
619;41281474000;13014244444;13214244444
620;41281694000;13014244444;13214244444
621;41441585000;13014244444;13214244444
622;41441791000;13014244444;13214244444
623;41441793000;13014244444;13214244444
625;41442179000;13014244444;13214244444
626;41602034000;13014244444;13214244444
627;41602210000;13055888888;13255888888
628;41602664000;13055888888;13255888888
629;41602820000;13055888888;13255888888
