seqnum;now;rtptime;deadline
2;4289688000;4095500000;4295500000
3;4289691000;4095500000;4295500000
4;4289693000;4095500000;4295500000
5;4289694000;4095500000;4295500000
6;4289695000;4095500000;4295500000
7;4289696000;4095500000;4295500000
8;4289698000;4095500000;4295500000
9;4289699000;4095500000;4295500000
10;4337226000;4095500000;4295500000
32;4410904000;4169044444;4369044444
43;4452338000;4210655555;4410655555
54;4494041000;4252388888;4452388888
65;4535723000;4294022222;4494022222
76;4577275000;4335622222;4535622222
87;4619036000;4377366666;4577366666
98;4660630000;4418977777;4618977777
109;4702275000;4460622222;4660622222
119;4702280000;4502322222;4702322222
120;4743980000;4502322222;4702322222
131;4785666000;4544000000;4744000000
143;4785672000;4627322222;4827322222
144;4785674000;4627322222;4827322222
145;4785674000;4627322222;4827322222
146;4785675000;4627322222;4827322222
147;4785677000;4627322222;4827322222
148;4785677000;4627322222;4827322222
149;4785678000;4627322222;4827322222
150;4785679000;4627322222;4827322222
151;4785680000;4627322222;4827322222
152;4785681000;4627322222;4827322222
153;4869183000;4627322222;4827322222
164;4910735000;4669066666;4869066666
175;4952372000;4710722222;4910722222
186;4994034000;4752366666;4952366666
197;5035653000;4793988888;4993988888
208;5077263000;4835611111;5035611111
219;5118974000;4877322222;5077322222
230;5160683000;4919011111;5119011111
241;5202285000;4960633333;5160633333
252;5243984000;5002333333;5202333333
263;5285630000;5043977777;5243977777
274;5327348000;5085677777;5285677777
285;5368976000;5127322222;5327322222
296;5410635000;5168966666;5368966666
307;5452301000;5210633333;5410633333
318;5493951000;5252300000;5452300000
329;5535665000;5294000000;5494000000
340;5577273000;5335622222;5535622222
350;5577288000;5377355555;5577355555
351;5619016000;5377355555;5577355555
362;5660649000;5419000000;5619000000
375;5667772000;5502288888;5702288888
376;5667774000;5502288888;5702288888
377;5667775000;5502288888;5702288888
378;5667776000;5502288888;5702288888
379;5667777000;5502288888;5702288888
380;5667778000;5502288888;5702288888
381;5667779000;5502288888;5702288888
382;5667780000;5502288888;5702288888
383;5667781000;5502288888;5702288888
384;5744123000;5502288888;5702288888
395;5785678000;5544000000;5744000000
406;5827286000;5585666666;5785666666
417;5869010000;5627333333;5827333333
428;5910618000;5669000000;5869000000
439;5952331000;5710655555;5910655555
450;5993991000;5752322222;5952322222
461;6035559000;5793955555;5993955555
472;6077282000;5835633333;6035633333
483;6119028000;5877377777;6077377777
494;6160637000;5918988888;6118988888
505;6202272000;5960622222;6160622222
516;6243979000;6002300000;6202300000
527;6285600000;6044000000;6244000000
538;6327298000;6085644444;6285644444
549;6369014000;6127344444;6327344444
559;6369020000;6169000000;6369000000
560;6410668000;6169000000;6369000000
571;6452278000;6210611111;6410611111
583;6452283000;6294022222;6494022222
584;6452284000;6294022222;6494022222
585;6452285000;6294022222;6494022222
586;6452286000;6294022222;6494022222
587;6452287000;6294022222;6494022222
588;6452288000;6294022222;6494022222
589;6452289000;6294022222;6494022222
590;6452290000;6294022222;6494022222
591;6452291000;6294022222;6494022222
592;6452292000;6294022222;6494022222
593;6535815000;6294022222;6494022222
604;6577219000;6335633333;6535633333
615;6618986000;6377333333;6577333333
626;6660648000;6418977777;6618977777
637;6702257000;6460655555;6660655555
648;6743974000;6502322222;6702322222
659;6785641000;6543988888;6743988888
670;6827259000;6585655555;6785655555
681;6868975000;6627322222;6827322222
692;6910681000;6669011111;6869011111
703;6952267000;6710666666;6910666666
714;6993955000;6752355555;6952355555
725;7035598000;6794000000;6994000000
736;7077234000;6835633333;7035633333
747;7118989000;6877311111;7077311111
758;7160666000;6918988888;7118988888
766;7160673000;6960666666;7160666666
767;7160674000;6960666666;7160666666
768;7160675000;6960666666;7160666666
769;7202336000;6960666666;7160666666
780;7243962000;7002311111;7202311111
792;7243968000;7085644444;7285644444
793;7243982000;7085644444;7285644444
794;7243983000;7085644444;7285644444
795;7243984000;7085644444;7285644444
796;7243985000;7085644444;7285644444
797;7243986000;7085644444;7285644444
798;7243987000;7085644444;7285644444
799;7243988000;7085644444;7285644444
800;7243989000;7085644444;7285644444
801;7243990000;7085644444;7285644444
802;7327527000;7085644444;7285644444
811;7327533000;7127355555;7327355555
812;7327534000;7127355555;7327355555
813;7369009000;7127355555;7327355555
824;7410656000;7168988888;7368988888
835;7452307000;7210655555;7410655555
846;7494024000;7252355555;7452355555
857;7535633000;7293977777;7493977777
868;7577233000;7335633333;7535633333
879;7619035000;7377366666;7577366666
890;7660686000;7419033333;7619033333
901;7702322000;7460655555;7660655555
912;7743893000;7502311111;7702311111
923;7785627000;7543977777;7743977777
934;7827291000;7585688888;7785688888
945;7868958000;7627355555;7827355555
956;7910593000;7668988888;7868988888
967;7952278000;7710677777;7910677777
978;7994000000;7752333333;7952333333
989;8035598000;7794000000;7994000000
1000;8077274000;7835622222;8035622222
1011;8119008000;7877355555;8077355555
1022;8160667000;7919000000;8119000000
1033;8202272000;7960688888;8160688888
1044;8243995000;8002344444;8202344444
1055;8285641000;8043988888;8243988888
1066;8327291000;8085622222;8285622222
1077;8368976000;8127322222;8327322222
1088;8410612000;8169011111;8369011111
1099;8452211000;8210611111;8410611111
1110;8493912000;8252311111;8452311111
1121;8535639000;8293988888;8493988888
1132;8577247000;8335644444;8535644444
1143;8619025000;8377355555;8577355555
1154;8660633000;8418966666;8618966666
1165;8702254000;8460655555;8660655555
1176;8743957000;8502288888;8702288888
1187;8785619000;8543966666;8743966666
1198;8827225000;8585622222;8785622222
1209;8868895000;8627311111;8827311111
1220;8910631000;8668977777;8868977777
1231;8952311000;8710644444;8910644444
1242;8993957000;8752355555;8952355555
1253;9035628000;8793955555;8993955555
1264;9077209000;8835611111;9035611111
1275;9118990000;8877322222;9077322222
1286;9160640000;8918988888;9118988888
1297;9202287000;8960633333;9160633333
1308;9244000000;9002333333;9202333333
1319;9285588000;9043988888;9243988888
1330;9327292000;9085622222;9285622222
1341;9368998000;9127344444;9327344444
1352;9410630000;9168977777;9368977777
1363;9452289000;9210622222;9410622222
1374;9493969000;9252300000;9452300000
1385;9535661000;9294011111;9494011111
1396;9577301000;9335633333;9535633333
1407;9619004000;9377333333;9577333333
1416;9619010000;9419011111;9619011111
1417;9619011000;9419011111;9619011111
1418;9660663000;9419011111;9619011111
1429;9702274000;9460622222;9660622222
1441;9702280000;9543966666;9743966666
1442;9702282000;9543966666;9743966666
1443;9702283000;9543966666;9743966666
1444;9702283000;9543966666;9743966666
1445;9702284000;9543966666;9743966666
1446;9702285000;9543966666;9743966666
1447;9702286000;9543966666;9743966666
1448;9702287000;9543966666;9743966666
1449;9702288000;9543966666;9743966666
1450;9702289000;9543966666;9743966666
1451;9785826000;9543966666;9743966666
1461;9785832000;9585655555;9785655555
1462;9827255000;9585655555;9785655555
1473;9869008000;9627355555;9827355555
1484;9910666000;9669011111;9869011111
1495;9952317000;9710666666;9910666666
1506;9993990000;9752322222;9952322222
1517;10035633000;9793966666;9993966666
1528;10077222000;9835622222;10035622222
1539;10119003000;9877333333;10077333333
1550;10160681000;9919022222;10119022222
1561;10202267000;9960666666;10160666666
1572;10243913000;10002311111;10202311111
1583;10285612000;10044011111;10244011111
1594;10327335000;10085666666;10285666666
1605;10368987000;10127333333;10327333333
1616;10410674000;10169022222;10369022222
1627;10452300000;10210633333;10410633333
1638;10493993000;10252322222;10452322222
1649;10535653000;10293988888;10493988888
1660;10577266000;10335666666;10535666666
1671;10619032000;10377366666;10577366666
1682;10660642000;10418988888;10618988888
1693;10702233000;10460633333;10660633333
1704;10744001000;10502333333;10702333333
1713;10744007000;10543977777;10743977777
1714;10744015000;10543977777;10743977777
1715;10785646000;10543977777;10743977777
1726;10827272000;10585644444;10785644444
1738;10827278000;10668988888;10868988888
1739;10827279000;10668988888;10868988888
1740;10827289000;10668988888;10868988888
1741;10827290000;10668988888;10868988888
1742;10827291000;10668988888;10868988888
1743;10827292000;10668988888;10868988888
1744;10827293000;10668988888;10868988888
1745;10827294000;10668988888;10868988888
1746;10827295000;10668988888;10868988888
1747;10827296000;10668988888;10868988888
1748;10910847000;10668988888;10868988888
1758;10910853000;10710655555;10910655555
1759;10952322000;10710655555;10910655555
1770;10993917000;10752333333;10952333333
1781;11035662000;10794011111;10994011111
1792;11077255000;10835655555;11035655555
1803;11119021000;10877366666;11077366666
1814;11160701000;10919033333;11119033333
1825;11202244000;10960644444;11160644444
1836;11243974000;11002322222;11202322222
1847;11285599000;11044000000;11244000000
1858;11327309000;11085655555;11285655555
1869;11368965000;11127311111;11327311111
1880;11410620000;11168966666;11368966666
1891;11452279000;11210611111;11410611111
1902;11494001000;11252333333;11452333333
1913;11535673000;11294022222;11494022222
1924;11577221000;11335622222;11535622222
1935;11618997000;11377344444;11577344444
1945;11619003000;11418988888;11618988888
1946;11660656000;11418988888;11618988888
1957;11702260000;11460611111;11660611111
1969;11702266000;11543955555;11743955555
1970;11702267000;11543955555;11743955555
1971;11702268000;11543955555;11743955555
1972;11702269000;11543955555;11743955555
1973;11702270000;11543955555;11743955555
1974;11702271000;11543955555;11743955555
1975;11702272000;11543955555;11743955555
1976;11702273000;11543955555;11743955555
1977;11702274000;11543955555;11743955555
1978;11702275000;11543955555;11743955555
1979;11785831000;11543955555;11743955555
1990;11827296000;11585644444;11785644444
2001;11868978000;11627311111;11827311111
2012;11910669000;11669000000;11869000000
2023;11952307000;11710655555;11910655555
2034;11993975000;11752322222;11952322222
2045;12035622000;11793955555;11993955555
2056;12077286000;11835633333;12035633333
2067;12118985000;11877333333;12077333333
2078;12160663000;11919011111;12119011111
2089;12202325000;11960655555;12160655555
2100;12243939000;12002288888;12202288888
2111;12285601000;12044000000;12244000000
2122;12327346000;12085677777;12285677777
2133;12368997000;12127344444;12327344444
2144;12410676000;12169022222;12369022222
2155;12452296000;12210644444;12410644444
2166;12494024000;12252355555;12452355555
2177;12535689000;12294022222;12494022222
2188;12577330000;12335677777;12535677777
2199;12619046000;12377377777;12577377777
2210;12660652000;12419000000;12619000000
2221;12702266000;12460666666;12660666666
2232;12743951000;12502300000;12702300000
2243;12785690000;12544011111;12744011111
2254;12827244000;12585644444;12785644444
2265;12868986000;12627333333;12827333333
2276;12910674000;12669022222;12869022222
2287;12952297000;12710644444;12910644444
2298;12994031000;12752377777;12952377777
2308;12994037000;12793977777;12993977777
2309;13035626000;12793977777;12993977777
2320;13077335000;12835666666;13035666666
2332;13077341000;12919022222;13119022222
2333;13077342000;12919022222;13119022222
2334;13077343000;12919022222;13119022222
2335;13077344000;12919022222;13119022222
2336;13077345000;12919022222;13119022222
2337;13077346000;12919022222;13119022222
2338;13077347000;12919022222;13119022222
2339;13077348000;12919022222;13119022222
2340;13077349000;12919022222;13119022222
2341;13077350000;12919022222;13119022222
2342;13160884000;12919022222;13119022222
2353;13202243000;12960644444;13160644444
2364;13243989000;13002322222;13202322222
2375;13285675000;13044022222;13244022222
2386;13327331000;13085677777;13285677777
2397;13369022000;13127366666;13327366666
2408;13410641000;13168988888;13368988888
2419;13452288000;13210622222;13410622222
2430;13493966000;13252311111;13452311111
2439;13493972000;13294011111;13494011111
2440;13493973000;13294011111;13494011111
2441;13535661000;13294011111;13494011111
2452;13577302000;13335633333;13535633333
2464;13577307000;13419011111;13619011111
2465;13577308000;13419011111;13619011111
2466;13577310000;13419011111;13619011111
2467;13577310000;13419011111;13619011111
2468;13577311000;13419011111;13619011111
2469;13577312000;13419011111;13619011111
2470;13577313000;13419011111;13619011111
2471;13577314000;13419011111;13619011111
2472;13577315000;13419011111;13619011111
2473;13577316000;13419011111;13619011111
2474;13660871000;13419011111;13619011111
2484;13660876000;13460633333;13660633333
2485;13702279000;13460633333;13660633333
2496;13743978000;13502311111;13702311111
2507;13785664000;13544011111;13744011111
2518;13827319000;13585666666;13785666666
2529;13868963000;13627311111;13827311111
2540;13910691000;13669022222;13869022222
2551;13952352000;13710700000;13910700000
2562;13993985000;13752333333;13952333333
2572;13993991000;13793977777;13993977777
2573;14035647000;13793977777;13993977777
2584;14077288000;13835622222;14035622222
2596;14077294000;13919044444;14119044444
2597;14077295000;13919044444;14119044444
2598;14077296000;13919044444;14119044444
2599;14077297000;13919044444;14119044444
2600;14077298000;13919044444;14119044444
2601;14077299000;13919044444;14119044444
2602;14077300000;13919044444;14119044444
2603;14077301000;13919044444;14119044444
2604;14077302000;13919044444;14119044444
2605;14077303000;13919044444;14119044444
2606;14160905000;13919044444;14119044444
2617;14202241000;13960644444;14160644444
2628;14244011000;14002344444;14202344444
2639;14285675000;14044022222;14244022222
2650;14327296000;14085644444;14285644444
2661;14369001000;14127344444;14327344444
2672;14410653000;14169000000;14369000000
2683;14452277000;14210611111;14410611111
2694;14493968000;14252300000;14452300000
2704;14493974000;14293977777;14493977777
2705;14535628000;14293977777;14493977777
2716;14577319000;14335666666;14535666666
2728;14577325000;14419000000;14619000000
2729;14577326000;14419000000;14619000000
2730;14577327000;14419000000;14619000000
2731;14577328000;14419000000;14619000000
2732;14577329000;14419000000;14619000000
2733;14577330000;14419000000;14619000000
2734;14577331000;14419000000;14619000000
2735;14577332000;14419000000;14619000000
2736;14577332000;14419000000;14619000000
2737;14577333000;14419000000;14619000000
2738;14660876000;14419000000;14619000000
2749;14702273000;14460622222;14660622222
2760;14743956000;14502288888;14702288888
2771;14785667000;14544000000;14744000000
2782;14827308000;14585655555;14785655555
2793;14868945000;14627344444;14827344444
2804;14910646000;14668977777;14868977777
2815;14952290000;14710688888;14910688888
2826;14993925000;14752322222;14952322222
2837;15035655000;14793988888;14993988888
2848;15077213000;14835611111;15035611111
2859;15118963000;14877311111;15077311111
2870;15160646000;14918977777;15118977777
2881;15202289000;14960622222;15160622222
2892;15243949000;15002300000;15202300000
2903;15285664000;15044011111;15244011111
2914;15327236000;15085633333;15285633333
2925;15368952000;15127300000;15327300000
2936;15410673000;15169022222;15369022222
2947;15452274000;15210622222;15410622222
2958;15493991000;15252322222;15452322222
2969;15535656000;15293988888;15493988888
2979;15535661000;15335611111;15535611111
2980;15577209000;15335611111;15535611111
2991;15618989000;15377344444;15577344444
3003;15618995000;15460611111;15660611111
3004;15618996000;15460611111;15660611111
3005;15618997000;15460611111;15660611111
3006;15618998000;15460611111;15660611111
3007;15618999000;15460611111;15660611111
3008;15619000000;15460611111;15660611111
3009;15619001000;15460611111;15660611111
3010;15619002000;15460611111;15660611111
3011;15619003000;15460611111;15660611111
3012;15619004000;15460611111;15660611111
3013;15702458000;15460611111;15660611111
3024;15743936000;15502288888;15702288888
3035;15785627000;15543955555;15743955555
3046;15827244000;15585644444;15785644444
3057;15869001000;15627333333;15827333333
3068;15910619000;15668966666;15868966666
3079;15952273000;15710622222;15910622222
3090;15993910000;15752311111;15952311111
3101;16035628000;15793977777;15993977777
3112;16077239000;15835655555;16035655555
3123;16119016000;15877333333;16077333333
3134;16160629000;15918977777;16118977777
3145;16202225000;15960622222;16160622222
3156;16243965000;16002300000;16202300000
3167;16285578000;16043977777;16243977777
3178;16327275000;16085622222;16285622222
3189;16369003000;16127344444;16327344444
3200;16410631000;16168977777;16368977777
3211;16452260000;16210611111;16410611111
3222;16494005000;16252322222;16452322222
3233;16535616000;16293966666;16493966666
3244;16577309000;16335655555;16535655555
3255;16618976000;16377322222;16577322222
3266;16660643000;16419000000;16619000000
3277;16702350000;16460666666;16660666666
3288;16743949000;16502300000;16702300000
3299;16785618000;16543966666;16743966666
3310;16827443000;16585788888;16785788888
3321;16868986000;16627333333;16827333333
3332;16910702000;16669033333;16869033333
3343;16952374000;16710722222;16910722222
3354;16994038000;16752366666;16952366666
3365;17035616000;16793966666;16993966666
3376;17077313000;16835644444;17035644444
3387;17118973000;16877322222;17077322222
3398;17160629000;16918977777;17118977777
3409;17202297000;16960644444;17160644444
3420;17243999000;17002333333;17202333333
3431;17285654000;17044000000;17244000000
3442;17327309000;17085655555;17285655555
3453;17369035000;17127366666;17327366666
3464;17410646000;17168977777;17368977777
3475;17452273000;17210622222;17410622222
3486;17493999000;17252344444;17452344444
3497;17535665000;17294000000;17494000000
3508;17577300000;17335655555;17535655555
3519;17618987000;17377333333;17577333333
3530;17660634000;17418966666;17618966666
3541;17702275000;17460622222;17660622222
3552;17743965000;17502300000;17702300000
3563;17785668000;17544000000;17744000000
3574;17827324000;17585655555;17785655555
3585;17868975000;17627322222;17827322222
3596;17910631000;17668977777;17868977777
3607;17952356000;17710688888;17910688888
3618;17994000000;17752333333;17952333333
3627;17994006000;17794000000;17994000000
3628;17994007000;17794000000;17994000000
3629;18035665000;17794000000;17994000000
3640;18077286000;17835633333;18035633333
3652;18077292000;17919022222;18119022222
3653;18077293000;17919022222;18119022222
3654;18077294000;17919022222;18119022222
3655;18077295000;17919022222;18119022222
3656;18077296000;17919022222;18119022222
3657;18077297000;17919022222;18119022222
3658;18077298000;17919022222;18119022222
3659;18077299000;17919022222;18119022222
3660;18077300000;17919022222;18119022222
3661;18077300000;17919022222;18119022222
3662;18160895000;17919022222;18119022222
3672;18160900000;17960666666;18160666666
3673;18202332000;17960666666;18160666666
3684;18243977000;18002311111;18202311111
3695;18285679000;18044011111;18244011111
3706;18327296000;18085644444;18285644444
3717;18369007000;18127344444;18327344444
3728;18410658000;18169000000;18369000000
3739;18452252000;18210611111;18410611111
3749;18452258000;18252300000;18452300000
3750;18493949000;18252300000;18452300000
3761;18535668000;18293977777;18493977777
3773;18535674000;18377322222;18577322222
3774;18535675000;18377322222;18577322222
3775;18535676000;18377322222;18577322222
3776;18535677000;18377322222;18577322222
3777;18535678000;18377322222;18577322222
3778;18535679000;18377322222;18577322222
3779;18535680000;18377322222;18577322222
3780;18535680000;18377322222;18577322222
3781;18535682000;18377322222;18577322222
3782;18535683000;18377322222;18577322222
3783;18619194000;18377322222;18577322222
3794;18660652000;18419000000;18619000000
3804;18660657000;18460611111;18660611111
3805;18702264000;18460611111;18660611111
3816;18743987000;18502322222;18702322222
3828;18743993000;18585622222;18785622222
3829;18743994000;18585622222;18785622222
3830;18743995000;18585622222;18785622222
3831;18743996000;18585622222;18785622222
3832;18743997000;18585622222;18785622222
3833;18743998000;18585622222;18785622222
3834;18743999000;18585622222;18785622222
3835;18744000000;18585622222;18785622222
3836;18744001000;18585622222;18785622222
3837;18744002000;18585622222;18785622222
3838;18827486000;18585622222;18785622222
3849;18868975000;18627311111;18827311111
3860;18910631000;18668977777;18868977777
3870;18910637000;18710655555;18910655555
3871;18952307000;18710655555;18910655555
3881;18952313000;18752344444;18952344444
3882;18993998000;18752344444;18952344444
3897;19001166000;18835633333;19035633333
3898;19001178000;18835633333;19035633333
3899;19001179000;18835633333;19035633333
3900;19001180000;18835633333;19035633333
3901;19001181000;18835633333;19035633333
3902;19001182000;18835633333;19035633333
3903;19001183000;18835633333;19035633333
3904;19077487000;18835633333;19035633333
3915;19118998000;18877344444;19077344444
3926;19160662000;18919011111;19119011111
3937;19202308000;18960655555;19160655555
3948;19243973000;19002322222;19202322222
3959;19285670000;19044000000;19244000000
3970;19327275000;19085622222;19285622222
3981;19368992000;19127322222;19327322222
3992;19410634000;19168977777;19368977777
4003;19452267000;19210644444;19410644444
4014;19493964000;19252311111;19452311111
4025;19535632000;19293966666;19493966666
4036;19577287000;19335622222;19535622222
4047;19619011000;19377355555;19577355555
4058;19660616000;19418966666;19618966666
4069;19702313000;19460644444;19660644444
4080;19743950000;19502300000;19702300000
4091;19785619000;19543966666;19743966666
4102;19827331000;19585677777;19785677777
4113;19868975000;19627322222;19827322222
4124;19910669000;19669000000;19869000000
4134;19910675000;19710633333;19910633333
4135;19952300000;19710633333;19910633333
4146;19993976000;19752322222;19952322222
4158;19993981000;19835644444;20035644444
4159;19993982000;19835644444;20035644444
4160;19993983000;19835644444;20035644444
4161;19993984000;19835644444;20035644444
4162;19993985000;19835644444;20035644444
4163;19993986000;19835644444;20035644444
4164;19993987000;19835644444;20035644444
4165;19993988000;19835644444;20035644444
4166;19993989000;19835644444;20035644444
4167;19993990000;19835644444;20035644444
4168;20077507000;19835644444;20035644444
4179;20118995000;19877344444;20077344444
4191;20119000000;19960655555;20160655555
4192;20119002000;19960655555;20160655555
4193;20119002000;19960655555;20160655555
4194;20119003000;19960655555;20160655555
4195;20119004000;19960655555;20160655555
4196;20119005000;19960655555;20160655555
4197;20119006000;19960655555;20160655555
4198;20119007000;19960655555;20160655555
4199;20119008000;19960655555;20160655555
4200;20119009000;19960655555;20160655555
4201;20202541000;19960655555;20160655555
4210;20202547000;20002333333;20202333333
4211;20202548000;20002333333;20202333333
4212;20243999000;20002333333;20202333333
4223;20285631000;20043977777;20243977777
4234;20327337000;20085666666;20285666666
4245;20369007000;20127355555;20327355555
4256;20410658000;20168988888;20368988888
4267;20452289000;20210622222;20410622222
4278;20494001000;20252333333;20452333333
4289;20535638000;20293988888;20493988888
4300;20577335000;20335666666;20535666666
4311;20619033000;20377366666;20577366666
4322;20660643000;20418977777;20618977777
4333;20702344000;20460677777;20660677777
4344;20743985000;20502333333;20702333333
4355;20785628000;20543977777;20743977777
4366;20827338000;20585688888;20785688888
4377;20868993000;20627322222;20827322222
4388;20910667000;20669000000;20869000000
4399;20952298000;20710644444;20910644444
4410;20994003000;20752333333;20952333333
4421;21035672000;20794022222;20994022222
4432;21077325000;20835655555;21035655555
4442;21077330000;20877344444;21077344444
4443;21118996000;20877344444;21077344444
4454;21160672000;20919022222;21119022222
4466;21160679000;21002322222;21202322222
4467;21160680000;21002322222;21202322222
4468;21160681000;21002322222;21202322222
4469;21160682000;21002322222;21202322222
4470;21160683000;21002322222;21202322222
4471;21160683000;21002322222;21202322222
4472;21160694000;21002322222;21202322222
4473;21160695000;21002322222;21202322222
4474;21160696000;21002322222;21202322222
4475;21160697000;21002322222;21202322222
4476;21244182000;21002322222;21202322222
4487;21285657000;21043988888;21243988888
4499;21285663000;21127333333;21327333333
4500;21285664000;21127333333;21327333333
4501;21285665000;21127333333;21327333333
4502;21285676000;21127333333;21327333333
4503;21285677000;21127333333;21327333333
4504;21285677000;21127333333;21327333333
4505;21285679000;21127333333;21327333333
4506;21285679000;21127333333;21327333333
4507;21285680000;21127333333;21327333333
4508;21285681000;21127333333;21327333333
4509;21369193000;21127333333;21327333333
4520;21410653000;21169000000;21369000000
4531;21452284000;21210633333;21410633333
4542;21493976000;21252322222;21452322222
4553;21535661000;21294011111;21494011111
4564;21577264000;21335611111;21535611111
4575;21618991000;21377322222;21577322222
4586;21660628000;21418955555;21618955555
4597;21702310000;21460655555;21660655555
4608;21744002000;21502333333;21702333333
4619;21785657000;21543988888;21743988888
4630;21827314000;21585644444;21785644444
4641;21868968000;21627300000;21827300000
4652;21910656000;21668988888;21868988888
4663;21952296000;21710644444;21910644444
4674;21993964000;21752311111;21952311111
4685;22035591000;21793955555;21993955555
4696;22077269000;21835600000;22035600000
4707;22118954000;21877300000;22077300000
4718;22160627000;21918988888;22118988888
4729;22202264000;21960622222;22160622222
4740;22243958000;22002322222;22202322222
4751;22285617000;22043977777;22243977777
4762;22327308000;22085666666;22285666666
4773;22369031000;22127377777;22327377777
4783;22369037000;22168988888;22368988888
4784;22410643000;22168988888;22368988888
4795;22452274000;22210622222;22410622222
4807;22452279000;22294011111;22494011111
4808;22452280000;22294011111;22494011111
4809;22452281000;22294011111;22494011111
4810;22452282000;22294011111;22494011111
4811;22452283000;22294011111;22494011111
4812;22452284000;22294011111;22494011111
4813;22452285000;22294011111;22494011111
4814;22452286000;22294011111;22494011111
4815;22452287000;22294011111;22494011111
4816;22452288000;22294011111;22494011111
4817;22535872000;22294011111;22494011111
4828;22577341000;22335688888;22535688888
4839;22619037000;22377366666;22577366666
4850;22660650000;22419011111;22619011111
4861;22702309000;22460666666;22660666666
4872;22743927000;22502300000;22702300000
4883;22785652000;22544000000;22744000000
4894;22827308000;22585655555;22785655555
4905;22868974000;22627333333;22827333333
4916;22910644000;22669011111;22869011111
4927;22952293000;22710655555;22910655555
4938;22994041000;22752388888;22952388888
4949;23035643000;22793977777;22993977777
4960;23077302000;22835633333;23035633333
4971;23119043000;22877388888;23077388888
4982;23160638000;22919000000;23119000000
4993;23202273000;22960655555;23160655555
5004;23243989000;23002322222;23202322222
5015;23285630000;23043988888;23243988888
5026;23327287000;23085633333;23285633333
5037;23369023000;23127355555;23327355555
5045;23369029000;23169000000;23369000000
5046;23369030000;23169000000;23369000000
5047;23369031000;23169000000;23369000000
5048;23410643000;23169000000;23369000000
5059;23452293000;23210655555;23410655555
5071;23452299000;23294011111;23494011111
5072;23452301000;23294011111;23494011111
5073;23452302000;23294011111;23494011111
5074;23452303000;23294011111;23494011111
5075;23452304000;23294011111;23494011111
5076;23452305000;23294011111;23494011111
5077;23452306000;23294011111;23494011111
5078;23452307000;23294011111;23494011111
5079;23452308000;23294011111;23494011111
5080;23452309000;23294011111;23494011111
5081;23535856000;23294011111;23494011111
5090;23535862000;23335633333;23535633333
5091;23535864000;23335633333;23535633333
5092;23577303000;23335633333;23535633333
5103;23619032000;23377377777;23577377777
5114;23660663000;23419011111;23619011111
5125;23702323000;23460655555;23660655555
5136;23743940000;23502288888;23702288888
5147;23785651000;23544000000;23744000000
5158;23827325000;23585655555;23785655555
5169;23868975000;23627322222;23827322222
5180;23910630000;23668977777;23868977777
5191;23952319000;23710666666;23910666666
5202;23994010000;23752355555;23952355555
5213;24035649000;23794000000;23994000000
5224;24077276000;23835622222;24035622222
5235;24118998000;23877344444;24077344444
5246;24160691000;23919022222;24119022222
5257;24202287000;23960633333;24160633333
5268;24243962000;24002311111;24202311111
5279;24285665000;24044011111;24244011111
5290;24327309000;24085655555;24285655555
5301;24368980000;24127311111;24327311111
5312;24410634000;24169011111;24369011111
5323;24452275000;24210622222;24410622222
5334;24493997000;24252344444;24452344444
5344;24494003000;24293988888;24493988888
5345;24535654000;24293988888;24493988888
5356;24577287000;24335633333;24535633333
5368;24577293000;24419033333;24619033333
5369;24577294000;24419033333;24619033333
5370;24577295000;24419033333;24619033333
5371;24577296000;24419033333;24619033333
5372;24577297000;24419033333;24619033333
5373;24577298000;24419033333;24619033333
5374;24577299000;24419033333;24619033333
5375;24577300000;24419033333;24619033333
5376;24577301000;24419033333;24619033333
5377;24577302000;24419033333;24619033333
5378;24660895000;24419033333;24619033333
5389;24702335000;24460655555;24660655555
5400;24743953000;24502300000;24702300000
5411;24785669000;24544000000;24744000000
5422;24827310000;24585655555;24785655555
5433;24868987000;24627333333;24827333333
5444;24910665000;24669011111;24869011111
5455;24952311000;24710644444;24910644444
5466;24993989000;24752322222;24952322222
5477;25035628000;24793977777;24993977777
5478;25035634000;24835644444;25035644444
5479;25035635000;24835644444;25035644444
5480;25035636000;24835644444;25035644444
5481;25035637000;24835644444;25035644444
5482;25035638000;24835644444;25035644444
5483;25035639000;24835644444;25035644444
5484;25035640000;24835644444;25035644444
5485;25035641000;24835644444;25035644444
5486;25035642000;24835644444;25035644444
5487;25035643000;24835644444;25035644444
5488;25077294000;24835644444;25035644444
5489;25077300000;24877311111;25077311111
5490;25077301000;24877311111;25077311111
5491;25077302000;24877311111;25077311111
5492;25077303000;24877311111;25077311111
5493;25077304000;24877311111;25077311111
5494;25077305000;24877311111;25077311111
5495;25077306000;24877311111;25077311111
5496;25077306000;24877311111;25077311111
5497;25077307000;24877311111;25077311111
5498;25077308000;24877311111;25077311111
5499;25118977000;24877311111;25077311111
