seqnum;now;rtptime;deadline
0;7959435000;7617688888;7817688888
1;7959439000;7617688888;7817688888
2;7959441000;7617688888;7817688888
3;7959442000;7617688888;7817688888
5;8030130000;7617688888;7817688888
6;8030134000;7617688888;7817688888
8;8030314000;7617688888;7817688888
9;8030316000;7617688888;7817688888
10;8031114000;7617688888;7817688888
11;8031121000;7649433333;7849433333
12;8150980000;7649433333;7849433333
15;8151295000;7649433333;7849433333
17;8151298000;7649433333;7849433333
18;8151543000;7649433333;7849433333
19;8151552000;7649433333;7849433333
20;8272046000;7649433333;7849433333
21;8272124000;7649433333;7849433333
22;8272275000;7691122222;7891122222
23;8272283000;7691122222;7891122222
24;8272523000;7691122222;7891122222
25;8272545000;7691122222;7891122222
26;8272779000;7691122222;7891122222
27;8272786000;7691122222;7891122222
28;8273029000;7691122222;7891122222
29;8273036000;7691122222;7891122222
30;8393135000;7691122222;7891122222
31;8393142000;7691122222;7891122222
32;8393381000;7691122222;7891122222
33;8393395000;7732722222;7932722222
34;8393590000;7732722222;7932722222
35;8393601000;7732722222;7932722222
36;8393868000;7732722222;7932722222
37;8393880000;7732722222;7932722222
38;8394068000;7732722222;7932722222
39;8394074000;7732722222;7932722222
40;8394365000;7732722222;7932722222
41;8394374000;7732722222;7932722222
42;8394614000;7732722222;7932722222
43;8394633000;7732722222;7932722222
44;8394647000;7774400000;7974400000
45;8394884000;7774400000;7974400000
46;8514080000;7774400000;7974400000
47;8514092000;7774400000;7974400000
48;8514321000;7774400000;7974400000
49;8514333000;7774400000;7974400000
50;8514603000;7774400000;7974400000
51;8514611000;7774400000;7974400000
52;8514822000;7774400000;7974400000
53;8514830000;7774400000;7974400000
54;8515100000;7774400000;7974400000
56;8515125000;7816044444;8016044444
57;8515270000;7816044444;8016044444
58;8515275000;7816044444;8016044444
59;8515527000;7816044444;8016044444
60;8515537000;7816044444;8016044444
61;8515812000;7816044444;8016044444
62;8515821000;7816044444;8016044444
63;8515839000;7816044444;8016044444
64;8516066000;7816044444;8016044444
65;8516084000;7816044444;8016044444
66;8516273000;7857688888;8057688888
67;8516279000;7857688888;8057688888
68;8516587000;7857688888;8057688888
70;8516622000;7857688888;8057688888
72;8516840000;7857688888;8057688888
73;8516853000;7857688888;8057688888
74;8517082000;7857688888;8057688888
76;8517130000;7857688888;8057688888
77;8517144000;7899400000;8099400000
78;8635129000;7899400000;8099400000
79;8635138000;7899400000;8099400000
80;8635370000;7899400000;8099400000
81;8635377000;7899400000;8099400000
82;8635640000;7899400000;8099400000
83;8635647000;7899400000;8099400000
84;8635875000;7899400000;8099400000
85;8635882000;7899400000;8099400000
86;8636133000;7899400000;8099400000
87;8636151000;7899400000;8099400000
88;8636321000;7941033333;8141033333
89;8636330000;7941033333;8141033333
90;8636568000;7941033333;8141033333
91;8636573000;7941033333;8141033333
92;8636873000;7941033333;8141033333
93;8636921000;7941033333;8141033333
95;8636974000;7941033333;8141033333
96;8637108000;7941033333;8141033333
98;8637232000;7941033333;8141033333
100;8637350000;7982677777;8182677777
101;8637352000;7982677777;8182677777
102;8637587000;7982677777;8182677777
103;8637594000;7982677777;8182677777
104;8637819000;7982677777;8182677777
105;8637828000;7982677777;8182677777
106;8638128000;7982677777;8182677777
107;8638135000;7982677777;8182677777
108;8638368000;7982677777;8182677777
109;8638388000;7982677777;8182677777
110;8638402000;8024322222;8224322222
111;8638627000;8024322222;8224322222
112;8638634000;8024322222;8224322222
113;8638879000;8024322222;8224322222
114;8638886000;8024322222;8224322222
115;8639072000;8024322222;8224322222
117;8639091000;8024322222;8224322222
118;8756252000;8024322222;8224322222
119;8756259000;8024322222;8224322222
120;8756492000;8024322222;8224322222
121;8756506000;8066111111;8266111111
122;8756742000;8066111111;8266111111
123;8756759000;8066111111;8266111111
124;8757001000;8066111111;8266111111
125;8757008000;8066111111;8266111111
126;8757245000;8066111111;8266111111
127;8757254000;8066111111;8266111111
128;8757491000;8066111111;8266111111
129;8757500000;8066111111;8266111111
130;8757509000;8066111111;8266111111
131;8757710000;8066111111;8266111111
132;8757725000;8107688888;8307688888
133;8757939000;8107688888;8307688888
134;8757947000;8107688888;8307688888
135;8758188000;8107688888;8307688888
136;8758193000;8107688888;8307688888
137;8758438000;8107688888;8307688888
138;8758447000;8107688888;8307688888
139;8758734000;8107688888;8307688888
140;8758743000;8107688888;8307688888
141;8758977000;8107688888;8307688888
142;8759005000;8107688888;8307688888
143;8759018000;8149355555;8349355555
144;8759230000;8149355555;8349355555
145;8759236000;8149355555;8349355555
146;8759426000;8149355555;8349355555
147;8759433000;8149355555;8349355555
148;8759743000;8149355555;8349355555
149;8759751000;8149355555;8349355555
150;8760027000;8149355555;8349355555
151;8760035000;8149355555;8349355555
152;8760241000;8149355555;8349355555
153;8760260000;8149355555;8349355555
155;8760464000;8191044444;8391044444
156;8760467000;8191044444;8391044444
157;8760745000;8191044444;8391044444
158;8760754000;8191044444;8391044444
159;8760773000;8191044444;8391044444
160;8760981000;8191044444;8391044444
161;8760996000;8191044444;8391044444
162;8761193000;8191044444;8391044444
163;8877178000;8191044444;8391044444
164;8877196000;8191044444;8391044444
165;8877408000;8232700000;8432700000
166;8877417000;8232700000;8432700000
167;8877759000;8232700000;8432700000
168;8877766000;8232700000;8432700000
169;8878007000;8232700000;8432700000
170;8878015000;8232700000;8432700000
171;8878245000;8232700000;8432700000
173;8878293000;8232700000;8432700000
174;8878486000;8232700000;8432700000
175;8878505000;8232700000;8432700000
176;8878759000;8274366666;8474366666
177;8879000000;8274366666;8474366666
179;8879030000;8274366666;8474366666
180;8879195000;8274366666;8474366666
181;8879203000;8274366666;8474366666
182;8879445000;8274366666;8474366666
183;8879451000;8274366666;8474366666
184;8879758000;8274366666;8474366666
185;8879765000;8274366666;8474366666
188;8880044000;8316022222;8516022222
189;8880046000;8316022222;8516022222
190;8880252000;8316022222;8516022222
191;8880269000;8316022222;8516022222
193;8880451000;8316022222;8516022222
194;8880453000;8316022222;8516022222
195;8880740000;8316022222;8516022222
196;8880983000;8316022222;8516022222
198;8881076000;8357666666;8557666666
199;8881202000;8357666666;8557666666
200;8881210000;8357666666;8557666666
201;8881463000;8357666666;8557666666
204;8881476000;8357666666;8557666666
205;8881754000;8357666666;8557666666
206;8881761000;8357666666;8557666666
207;8882009000;8357666666;8557666666
208;8882027000;8357666666;8557666666
210;8882210000;8399355555;8599355555
211;8882212000;8399355555;8599355555
213;8998201000;8399355555;8599355555
215;8998432000;8399355555;8599355555
216;8998680000;8399355555;8599355555
217;8998695000;8399355555;8599355555
220;8999034000;8441088888;8641088888
221;8999236000;8441088888;8641088888
222;8999243000;8441088888;8641088888
223;8999255000;8441088888;8641088888
224;8999422000;8441088888;8641088888
227;8999748000;8441088888;8641088888
228;8999754000;8441088888;8641088888
229;8999982000;8441088888;8641088888
230;9000014000;8441088888;8641088888
231;9000196000;8482711111;8682711111
232;9000460000;8482711111;8682711111
233;9000467000;8482711111;8682711111
234;9000772000;8482711111;8682711111
235;9000779000;8482711111;8682711111
237;9001039000;8482711111;8682711111
238;9001052000;8482711111;8682711111
239;9001266000;8482711111;8682711111
240;9001273000;8482711111;8682711111
241;9001486000;8482711111;8682711111
242;9001501000;8524344444;8724344444
243;9001713000;8524344444;8724344444
244;9001721000;8524344444;8724344444
245;9001962000;8524344444;8724344444
246;9001972000;8524344444;8724344444
248;9002264000;8524344444;8724344444
249;9002273000;8524344444;8724344444
250;9002477000;8524344444;8724344444
253;9002631000;8566044444;8766044444
254;9002803000;8566044444;8766044444
255;9002811000;8566044444;8766044444
256;9002821000;8566044444;8766044444
257;9003025000;8566044444;8766044444
258;9003032000;8566044444;8766044444
259;9003265000;8566044444;8766044444
260;9003273000;8566044444;8766044444
261;9003478000;8566044444;8766044444
262;9119210000;8566044444;8766044444
263;9119229000;8566044444;8766044444
265;9119444000;8607666666;8807666666
266;9119447000;8607666666;8807666666
267;9119714000;8607666666;8807666666
268;9120235000;8607666666;8807666666
269;9120257000;8607666666;8807666666
270;9120472000;8607666666;8807666666
271;9120481000;8607666666;8807666666
272;9120745000;8607666666;8807666666
273;9120753000;8607666666;8807666666
274;9121011000;8607666666;8807666666
276;9121043000;8649333333;8849333333
277;9121243000;8649333333;8849333333
278;9121251000;8649333333;8849333333
279;9121432000;8649333333;8849333333
280;9121438000;8649333333;8849333333
281;9121686000;8649333333;8849333333
282;9121693000;8649333333;8849333333
283;9121933000;8649333333;8849333333
284;9121943000;8649333333;8849333333
285;9121970000;8649333333;8849333333
286;9122204000;8691033333;8891033333
287;9122213000;8691033333;8891033333
288;9122432000;8691033333;8891033333
289;9122444000;8691033333;8891033333
290;9122685000;8691033333;8891033333
291;9122694000;8691033333;8891033333
292;9122935000;8691033333;8891033333
293;9122944000;8691033333;8891033333
294;9123236000;8691033333;8891033333
296;9123335000;8691033333;8891033333
299;9123341000;8732666666;8932666666
300;9123465000;8732666666;8932666666
301;9123725000;8732666666;8932666666
302;9123744000;8732666666;8932666666
303;9123752000;8732666666;8932666666
304;9123936000;8732666666;8932666666
305;9123944000;8732666666;8932666666
306;9124224000;8732666666;8932666666
307;9124241000;8732666666;8932666666
308;9124440000;8774322222;8974322222
309;9124446000;8774322222;8974322222
310;9124724000;8774322222;8974322222
311;9124739000;8774322222;8974322222
312;9124974000;8774322222;8974322222
313;9124988000;8774322222;8974322222
314;9125226000;8774322222;8974322222
315;9125233000;8774322222;8974322222
316;9125242000;8774322222;8974322222
317;9125443000;8774322222;8974322222
318;9125457000;8774322222;8974322222
319;9125737000;8816022222;9016022222
320;9240138000;8816022222;9016022222
321;9240157000;8816022222;9016022222
322;9240401000;8816022222;9016022222
323;9240410000;8816022222;9016022222
324;9240663000;8816022222;9016022222
325;9240681000;8816022222;9016022222
326;9240923000;8816022222;9016022222
327;9241187000;8816022222;9016022222
328;9241481000;8816022222;9016022222
329;9241599000;8816022222;9016022222
330;9241605000;8857666666;9057666666
331;9241749000;8857666666;9057666666
332;9241758000;8857666666;9057666666
333;9241995000;8857666666;9057666666
334;9242004000;8857666666;9057666666
335;9242246000;8857666666;9057666666
336;9242255000;8857666666;9057666666
337;9242660000;8857666666;9057666666
338;9242964000;8857666666;9057666666
339;9242975000;8857666666;9057666666
340;9242994000;8857666666;9057666666
341;9243211000;8899344444;9099344444
342;9243219000;8899344444;9099344444
343;9243447000;8899344444;9099344444
344;9243455000;8899344444;9099344444
345;9243713000;8899344444;9099344444
346;9243717000;8899344444;9099344444
347;9243906000;8899344444;9099344444
348;9243911000;8899344444;9099344444
349;9244216000;8899344444;9099344444
350;9244223000;8899344444;9099344444
351;9244255000;8899344444;9099344444
352;9244396000;8941033333;9141033333
353;9244406000;8941033333;9141033333
354;9244684000;8941033333;9141033333
355;9244702000;8941033333;9141033333
356;9244943000;8941033333;9141033333
357;9244958000;8941033333;9141033333
363;9324532000;8982666666;9182666666
365;9324540000;8982666666;9182666666
366;9324542000;8982666666;9182666666
367;9324543000;8982666666;9182666666
368;9324544000;8982666666;9182666666
369;9324546000;8982666666;9182666666
370;9324547000;8982666666;9182666666
371;9324548000;8982666666;9182666666
372;9324549000;8982666666;9182666666
373;9324657000;8982666666;9182666666
374;9324672000;9024311111;9224311111
375;9324674000;9024311111;9224311111
376;9324675000;9024311111;9224311111
377;9324676000;9024311111;9224311111
378;9324711000;9024311111;9224311111
381;9362464000;9024311111;9224311111
382;9362467000;9024311111;9224311111
383;9362468000;9024311111;9224311111
384;9365782000;9024311111;9224311111
403;9365791000;9107666666;9307666666
404;9365792000;9107666666;9307666666
405;9365793000;9107666666;9307666666
406;9449526000;9107666666;9307666666
431;9449551000;9232677777;9432677777
432;9449552000;9232677777;9432677777
433;9449554000;9232677777;9432677777
434;9449556000;9232677777;9432677777
435;9449557000;9232677777;9432677777
436;9449558000;9232677777;9432677777
437;9449560000;9232677777;9432677777
438;9449561000;9232677777;9432677777
439;9574729000;9232677777;9432677777
473;9574742000;9399333333;9599333333
474;9574743000;9399333333;9599333333
475;9574745000;9399333333;9599333333
476;9574746000;9399333333;9599333333
477;9574747000;9399333333;9599333333
478;9574749000;9399333333;9599333333
479;9574750000;9399333333;9599333333
480;9574752000;9399333333;9599333333
481;9574753000;9399333333;9599333333
482;9574764000;9399333333;9599333333
483;9741563000;9399333333;9599333333
515;9741569000;9524411111;9724411111
516;9866460000;9524411111;9724411111
546;9866466000;9649444444;9849444444
547;9866467000;9649444444;9849444444
550;10033289000;9691122222;9891122222
591;10158208000;9816100000;10016100000
622;10283140000;9941100000;10141100000
655;10408080000;10066100000;10266100000
686;10533140000;10191100000;10391100000
722;10658158000;10316122222;10516122222
755;10783319000;10441311111;10641311111
787;10908088000;10566100000;10766100000
821;11033177000;10691122222;10891122222
850;11158147000;10816111111;11016111111
879;11241365000;10899444444;11099444444
901;11324583000;10982733333;11182733333
924;11324589000;11107744444;11307744444
925;11324590000;11107744444;11307744444
926;11324591000;11107744444;11307744444
927;11324592000;11107744444;11307744444
928;11324593000;11107744444;11307744444
929;11324593000;11107744444;11307744444
932;11334793000;11107744444;11307744444
933;11334795000;11107744444;11307744444
934;11449747000;11107744444;11307744444
966;11449753000;11232744444;11432744444
967;11574780000;11232744444;11432744444
996;11584765000;11357733333;11557733333
997;11584768000;11357733333;11557733333
999;11584770000;11357733333;11557733333
1000;11699734000;11357733333;11557733333
1033;11824748000;11482744444;11682744444
1063;11824754000;11607722222;11807722222
1064;11824755000;11607722222;11807722222
1065;11824756000;11607722222;11807722222
1066;11949776000;11607722222;11807722222
1095;11949782000;11732722222;11932722222
1096;11949783000;11732722222;11932722222
1099;12074708000;11732722222;11932722222
1129;12074714000;11857733333;12057733333
1130;12074715000;11857733333;12057733333
1131;12074716000;11857733333;12057733333
1134;12241648000;11899433333;12099433333
1175;12366296000;12024388888;12224388888
1206;12491375000;12149422222;12349422222
1236;12616472000;12274433333;12474433333
1270;12741463000;12399422222;12599422222
1301;12866447000;12524411111;12724411111
1335;12991386000;12649422222;12849422222
1368;13116427000;12774422222;12974422222
1395;13199582000;12857744444;13057744444
1420;13324773000;12982733333;13182733333
1446;13407900000;13066088888;13266088888
1469;13491271000;13149422222;13349422222
1493;13574590000;13232744444;13432744444
1511;13657912000;13316088888;13516088888
1531;13741180000;13399422222;13599422222
1554;13824589000;13482755555;13682755555
1581;13907942000;13566111111;13766111111
1598;13991194000;13649433333;13849433333
1619;14074579000;13732733333;13932733333
1644;14157925000;13816122222;14016122222
1667;14241294000;13899444444;14099444444
1683;14324600000;13982744444;14182744444
1705;14407921000;14066122222;14266122222
1734;14491194000;14149433333;14349433333
1750;14574606000;14232744444;14432744444
1772;14657985000;14316133333;14516133333
1794;14741282000;14399433333;14599433333
1815;14824588000;14482755555;14682755555
1837;14907902000;14566122222;14766122222
1859;14991270000;14649422222;14849422222
1883;15074569000;14732711111;14932711111
1905;15157925000;14816088888;15016088888
1924;15199434000;14857722222;15057722222
1933;15199469000;14899411111;15099411111
1934;15199470000;14899411111;15099411111
1935;15241001000;14899411111;15099411111
1946;15282728000;14941088888;15141088888
1959;15282733000;15024366666;15224366666
1962;15293092000;15024366666;15224366666
1963;15293095000;15024366666;15224366666
1967;15293336000;15024366666;15224366666
1968;15366160000;15024366666;15224366666
1991;15366166000;15149411111;15349411111
1992;15366167000;15149411111;15349411111
1993;15366168000;15149411111;15349411111
1994;15366169000;15149411111;15349411111
1995;15366169000;15149411111;15349411111
1996;15366170000;15149411111;15349411111
1997;15366171000;15149411111;15349411111
1998;15366172000;15149411111;15349411111
1999;15366173000;15149411111;15349411111
2000;15366174000;15149411111;15349411111
2001;15491380000;15149411111;15349411111
2029;15491385000;15274411111;15474411111
2030;15491387000;15274411111;15474411111
2033;15501435000;15274411111;15474411111
2034;15616364000;15274411111;15474411111
2064;15616370000;15399411111;15599411111
2065;15616371000;15399411111;15599411111
2068;15783298000;15441100000;15641100000
2109;15908094000;15566088888;15766088888
2142;16033139000;15691133333;15891133333
2176;16158181000;15816122222;16016122222
2208;16283167000;15941122222;16141122222
2241;16408110000;16066122222;16266122222
2271;16533143000;16191133333;16391133333
2305;16658094000;16316100000;16516100000
2335;16783172000;16441133333;16641133333
2362;16866213000;16524433333;16724433333
2386;16949680000;16607755555;16807755555
2412;16949695000;16732733333;16932733333
2413;16949697000;16732733333;16932733333
2414;16949698000;16732733333;16932733333
2417;16959755000;16732733333;16932733333
2418;16959758000;16732733333;16932733333
2419;17074740000;16732733333;16932733333
2445;17074746000;16857744444;17057744444
2446;17074747000;16857744444;17057744444
2447;17074748000;16857744444;17057744444
2448;17074749000;16857744444;17057744444
2449;17074750000;16857744444;17057744444
2450;17074751000;16857744444;17057744444
2451;17074752000;16857744444;17057744444
2452;17199745000;16857744444;17057744444
2486;17199751000;17024433333;17224433333
2487;17199752000;17024433333;17224433333
2488;17199753000;17024433333;17224433333
2489;17199754000;17024433333;17224433333
2490;17199755000;17024433333;17224433333
2491;17199756000;17024433333;17224433333
2492;17199757000;17024433333;17224433333
2493;17199758000;17024433333;17224433333
2494;17199759000;17024433333;17224433333
2495;17199760000;17024433333;17224433333
2496;17366679000;17024433333;17224433333
2526;17366685000;17149433333;17349433333
2527;17366686000;17149433333;17349433333
2530;17533312000;17191122222;17391122222
2568;17658140000;17316100000;17516100000
2603;17783216000;17441155555;17641155555
2633;17908151000;17566122222;17766122222
2669;18033155000;17691100000;17891100000
2699;18158146000;17816088888;18016088888
2729;18283114000;17941100000;18141100000
2764;18408081000;18066122222;18266122222
2795;18533140000;18191100000;18391100000
2825;18616249000;18274422222;18474422222
2846;18699507000;18357711111;18557711111
2869;18782939000;18441100000;18641100000
2890;18866236000;18524400000;18724400000
2906;18949566000;18607711111;18807711111
2931;19032867000;18691066666;18891066666
2955;19116247000;18774400000;18974400000
2975;19199573000;18857722222;19057722222
2996;19282904000;18941066666;19141066666
3020;19366210000;19024377777;19224377777
3042;19449564000;19107722222;19307722222
3061;19532889000;19191088888;19391088888
3083;19616220000;19274422222;19474422222
3108;19699506000;19357711111;19557711111
3120;19741052000;19399411111;19599411111
3134;19782834000;19441088888;19641088888
3146;19782850000;19524400000;19724400000
3147;19782851000;19524400000;19724400000
3148;19782852000;19524400000;19724400000
3149;19782853000;19524400000;19724400000
3150;19782863000;19524400000;19724400000
3153;19793117000;19524400000;19724400000
3154;19793120000;19524400000;19724400000
3157;19908077000;19566088888;19766088888
3190;20033151000;19691111111;19891111111
3223;20158156000;19816088888;20016088888
3258;20283103000;19941088888;20141088888
3288;20366341000;20024400000;20224400000
3314;20366356000;20149422222;20349422222
3315;20366357000;20149422222;20349422222
3316;20366358000;20149422222;20349422222
3317;20366359000;20149422222;20349422222
3318;20366360000;20149422222;20349422222
3319;20366361000;20149422222;20349422222
3320;20366362000;20149422222;20349422222
3321;20491430000;20149422222;20349422222
3348;20491435000;20274433333;20474433333
3349;20491436000;20274433333;20474433333
3350;20491438000;20274433333;20474433333
3351;20491439000;20274433333;20474433333
3352;20491440000;20274433333;20474433333
3353;20491441000;20274433333;20474433333
3354;20616470000;20274433333;20474433333
3385;20616475000;20399422222;20599422222
3386;20616477000;20399422222;20599422222
3387;20741460000;20399422222;20599422222
3418;20741466000;20524411111;20724411111
3419;20741467000;20524411111;20724411111
3420;20866420000;20524411111;20724411111
3451;20866427000;20649422222;20849422222
3452;20866428000;20649422222;20849422222
3453;20991430000;20649422222;20849422222
3481;20991436000;20774422222;20974422222
3482;20991437000;20774422222;20974422222
3483;20991438000;20774422222;20974422222
3484;20991439000;20774422222;20974422222
3485;20991441000;20774422222;20974422222
3486;21116474000;20774422222;20974422222
3516;21116480000;20899444444;21099444444
3517;21116481000;20899444444;21099444444
3518;21116482000;20899444444;21099444444
3519;21241497000;20899444444;21099444444
3547;21241503000;21024422222;21224422222
3551;21251456000;21024422222;21224422222
3552;21366437000;21024422222;21224422222
3577;21366452000;21149422222;21349422222
3578;21366453000;21149422222;21349422222
3579;21366454000;21149422222;21349422222
3580;21366455000;21149422222;21349422222
3581;21366456000;21149422222;21349422222
3582;21366457000;21149422222;21349422222
3583;21366458000;21149422222;21349422222
3584;21366459000;21149422222;21349422222
3585;21491429000;21149422222;21349422222
3613;21491436000;21274444444;21474444444
3614;21491437000;21274444444;21474444444
3615;21491447000;21274444444;21474444444
3618;21616431000;21274444444;21474444444
3646;21616437000;21399422222;21599422222
3647;21616438000;21399422222;21599422222
3648;21616439000;21399422222;21599422222
3649;21616440000;21399422222;21599422222
3652;21783322000;21441144444;21641144444
3693;21908149000;21566111111;21766111111
3724;22033155000;21691100000;21891100000
3757;22158132000;21816088888;22016088888
3789;22283150000;21941088888;22141088888
3822;22408119000;22066066666;22266066666
3856;22533109000;22191100000;22391100000
3887;22658113000;22316055555;22516055555
3920;22783145000;22441100000;22641100000
3952;22908105000;22566100000;22766100000
3983;23033157000;22691100000;22891100000
4017;23158088000;22816077777;23016077777
4046;23241278000;22899444444;23099444444
4068;23324505000;22982722222;23182722222
4095;23449766000;23107722222;23307722222
4122;23532929000;23191100000;23391100000
4143;23616254000;23274422222;23474422222
4170;23741465000;23399422222;23599422222
4193;23824571000;23482733333;23682733333
4214;23907898000;23566100000;23766100000
4240;23991183000;23649422222;23849422222
4261;24074581000;23732722222;23932722222
4282;24157950000;23816100000;24016100000
4305;24241202000;23899433333;24099433333
4328;24324615000;23982766666;24182766666
4350;24407943000;24066111111;24266111111
4368;24491223000;24149422222;24349422222
4392;24574559000;24232744444;24432744444
4415;24657905000;24316100000;24516100000
4434;24741295000;24399444444;24599444444
4456;24824583000;24482744444;24682744444
4476;24866009000;24524422222;24724422222
4487;24907719000;24566122222;24766122222
4501;24907724000;24649411111;24849411111
4502;24907726000;24649411111;24849411111
4503;24907727000;24649411111;24849411111
4504;24907728000;24649411111;24849411111
4505;24907729000;24649411111;24849411111
4506;24907729000;24649411111;24849411111
4507;24907730000;24649411111;24849411111
4508;24907731000;24649411111;24849411111
4509;24991273000;24649411111;24849411111
4532;24991287000;24774400000;24974400000
4533;24991289000;24774400000;24974400000
4534;24991289000;24774400000;24974400000
4535;24991298000;24774400000;24974400000
4536;24991299000;24774400000;24974400000
4537;24991300000;24774400000;24974400000
4538;24991301000;24774400000;24974400000
4539;24991302000;24774400000;24974400000
4540;24991303000;24774400000;24974400000
4541;24991304000;24774400000;24974400000
4542;25116452000;24774400000;24974400000
4568;25116458000;24899422222;25099422222
4569;25116459000;24899422222;25099422222
4570;25116460000;24899422222;25099422222
4571;25116461000;24899422222;25099422222
4574;25126456000;24899422222;25099422222
4575;25241427000;24899422222;25099422222
4608;25366436000;25024400000;25224400000
4638;25366442000;25149411111;25349411111
4639;25366443000;25149411111;25349411111
4640;25366444000;25149411111;25349411111
4641;25491419000;25149411111;25349411111
4673;25491425000;25274433333;25474433333
4674;25616419000;25274433333;25474433333
4707;25741420000;25399411111;25599411111
4737;25741425000;25524400000;25724400000
4738;25741427000;25524400000;25724400000
4739;25741427000;25524400000;25724400000
4740;25866408000;25524400000;25724400000
4773;25991400000;25649433333;25849433333
4803;26001464000;25774422222;25974422222
4806;26116408000;25774422222;25974422222
4834;26116413000;25899444444;26099444444
4835;26116415000;25899444444;26099444444
4836;26116416000;25899444444;26099444444
4837;26116417000;25899444444;26099444444
4838;26116417000;25899444444;26099444444
4839;26241485000;25899444444;26099444444
4873;26241490000;26066166666;26266166666
4874;26241492000;26066166666;26266166666
4875;26241493000;26066166666;26266166666
4876;26241494000;26066166666;26266166666
4877;26241495000;26066166666;26266166666
4878;26241495000;26066166666;26266166666
4879;26241496000;26066166666;26266166666
4880;26241497000;26066166666;26266166666
4881;26241498000;26066166666;26266166666
4882;26241499000;26066166666;26266166666
4883;26408425000;26066166666;26266166666
4910;26408431000;26191122222;26391122222
4911;26408432000;26191122222;26391122222
4914;26418126000;26191122222;26391122222
4915;26418129000;26191122222;26391122222
4917;26574954000;26232744444;26432744444
4959;26699781000;26357733333;26557733333
4991;26824826000;26482766666;26682766666
5021;26949782000;26607733333;26807733333
5057;27074770000;26732722222;26932722222
5087;27199770000;26857733333;27057733333
5115;27324750000;26982733333;27182733333
5150;27449780000;27107733333;27307733333
5182;27574711000;27232744444;27432744444
5203;27657893000;27316088888;27516088888
5230;27741274000;27399422222;27599422222
5250;27824576000;27482733333;27682733333
5268;27866151000;27524422222;27724422222
5281;27866167000;27607733333;27807733333
5284;27876440000;27607733333;27807733333
5285;27876443000;27607733333;27807733333
5286;27876445000;27607733333;27807733333
5287;27876452000;27607733333;27807733333
5291;27991423000;27649422222;27849422222
5321;28074567000;27732722222;27932722222
5341;28157953000;27816100000;28016100000
5364;28241282000;27899433333;28099433333
5383;28324494000;27982733333;28182733333
5406;28407969000;28066100000;28266100000
5428;28491194000;28149433333;28349433333
5448;28574590000;28232744444;28432744444
5461;28616075000;28274433333;28474433333
5462;28616078000;28274433333;28474433333
5463;28616079000;28274433333;28474433333
5464;28616080000;28274433333;28474433333
5465;28616081000;28274433333;28474433333
5466;28616188000;28274433333;28474433333
5467;28616194000;28316088888;28516088888
5468;28616195000;28316088888;28516088888
5469;28616196000;28316088888;28516088888
5470;28616197000;28316088888;28516088888
5471;28616198000;28316088888;28516088888
5472;28616198000;28316088888;28516088888
5474;28657649000;28316088888;28516088888
5475;28657651000;28316088888;28516088888
5477;28657760000;28316088888;28516088888
5478;28657766000;28357722222;28557722222
5479;28657767000;28357722222;28557722222
5480;28657768000;28357722222;28557722222
5481;28657769000;28357722222;28557722222
5482;28657770000;28357722222;28557722222
5483;28657771000;28357722222;28557722222
5484;28657772000;28357722222;28557722222
5485;28657773000;28357722222;28557722222
5486;28657773000;28357722222;28557722222
5487;28657782000;28357722222;28557722222
5488;28699346000;28357722222;28557722222
5489;28699352000;28399422222;28599422222
5490;28699353000;28399422222;28599422222
5492;28741199000;28399422222;28599422222
5493;28741202000;28399422222;28599422222
5494;28741213000;28399422222;28599422222
5495;28741214000;28399422222;28599422222
5496;28741215000;28399422222;28599422222
5497;28741216000;28399422222;28599422222
5498;28741217000;28399422222;28599422222
5499;28741327000;28399422222;28599422222
