seqnum;now;rtptime;deadline
1;3480918000;3233555555;3733555555
3;3563265000;3264877777;3764877777
14;3600687000;3306566666;3806566666
23;3600820000;3307033333;3807033333
24;3600824000;3307033333;3807033333
25;3644719000;3348233333;3848233333
35;3644851000;3348600000;3848600000
36;3681786000;3389888888;3889888888
44;3681911000;3390311111;3890311111
45;3681915000;3390311111;3890311111
46;3681917000;3390311111;3890311111
47;3722408000;3431555555;3931555555
54;3722628000;3431600000;3931600000
55;3722643000;3431911111;3931911111
56;3722645000;3431911111;3931911111
57;3722646000;3431911111;3931911111
58;3761230000;3473222222;3973222222
67;3761362000;3473566666;3973566666
68;3761365000;3473566666;3973566666
69;3798880000;3514900000;4014900000
78;3798991000;3515311111;4015311111
79;3798995000;3515311111;4015311111
80;3829855000;3556555555;4056555555
88;3829966000;3556922222;4056922222
89;3829970000;3556922222;4056922222
90;3829971000;3556922222;4056922222
91;3867755000;3598222222;4098222222
100;3867869000;3598588888;4098588888
101;3867873000;3598588888;4098588888
102;3898383000;3639900000;4139900000
110;3898423000;3640233333;4140233333
111;3898425000;3640233333;4140233333
112;3898426000;3640233333;4140233333
113;3936232000;3681555555;4181555555
114;3936239000;3681555555;4181555555
116;3936241000;3681555555;4181555555
117;3936242000;3681555555;4181555555
118;3936243000;3681555555;4181555555
119;3936244000;3681555555;4181555555
120;3936443000;3681600000;4181600000
121;3936458000;3681900000;4181900000
122;3936459000;3681900000;4181900000
123;3936460000;3681900000;4181900000
124;3968734000;3723222222;4223222222
125;3968737000;3723222222;4223222222
126;3968748000;3723222222;4223222222
127;3968749000;3723222222;4223222222
128;3968750000;3723222222;4223222222
129;3968751000;3723222222;4223222222
130;3968752000;3723222222;4223222222
131;4029610000;3723266666;4223266666
144;4029615000;3765255555;4265255555
145;4029616000;3765255555;4265255555
146;4109286000;3806555555;4306555555
166;4148747000;3848577777;4348577777
176;4187118000;3890244444;4390244444
177;4187121000;3890244444;4390244444
178;4187123000;3890244444;4390244444
179;4229158000;3931555555;4431555555
189;4229273000;3931888888;4431888888
190;4262046000;3973222222;4473222222
198;4262162000;3973544444;4473544444
199;4262165000;3973544444;4473544444
200;4262167000;3973544444;4473544444
201;4299977000;4014877777;4514877777
209;4300088000;4015300000;4515300000
210;4300092000;4015300000;4515300000
211;4300093000;4015300000;4515300000
212;4329550000;4056533333;4556533333
219;4334233000;4056577777;4556577777
221;4334239000;4056900000;4556900000
222;4334240000;4056900000;4556900000
223;4367767000;4098233333;4598233333
232;4367894000;4098577777;4598577777
233;4367897000;4098577777;4598577777
234;4399885000;4139888888;4639888888
241;4446711000;4139944444;4639944444
253;4446726000;4181922222;4681922222
254;4446727000;4181922222;4681922222
255;4446728000;4181922222;4681922222
256;4529623000;4223222222;4723222222
276;4568650000;4265233333;4765233333
286;4607931000;4306911111;4806911111
296;4648394000;4348266666;4848266666
308;4648399000;4390288888;4890288888
309;4648400000;4390288888;4890288888
310;4648401000;4390288888;4890288888
311;4724043000;4431555555;4931555555
319;4724154000;4431955555;4931955555
320;4724158000;4431955555;4931955555
321;4724159000;4431955555;4931955555
322;4754110000;4473222222;4973222222
331;4754221000;4473555555;4973555555
332;4754225000;4473555555;4973555555
337;4791516000;4514900000;5014900000
344;4820351000;4556555555;5056555555
349;4820355000;4556555555;5056555555
350;4820357000;4556555555;5056555555
351;4825230000;4556600000;5056600000
352;4825245000;4556911111;5056911111
353;4825247000;4556911111;5056911111
354;4825248000;4556911111;5056911111
355;4857598000;4598222222;5098222222
365;4857710000;4598555555;5098555555
366;4887188000;4639888888;5139888888
368;4891507000;4639888888;5139888888
369;4891509000;4639888888;5139888888
373;4891711000;4639955555;5139955555
374;4891726000;4640244444;5140244444
375;4891727000;4640244444;5140244444
376;4891728000;4640244444;5140244444
377;4925911000;4681566666;5181566666
378;4925915000;4681566666;5181566666
379;4925916000;4681566666;5181566666
380;4925917000;4681566666;5181566666
381;4925918000;4681566666;5181566666
382;4925919000;4681566666;5181566666
383;4925920000;4681566666;5181566666
384;4926135000;4681611111;5181611111
385;4937918000;4681900000;5181900000
386;4937920000;4681900000;5181900000
387;4937921000;4681900000;5181900000
388;5029608000;4723233333;5223233333
407;5072238000;4765244444;5265244444
416;5109253000;4806566666;5306566666
427;5149467000;4848188888;5348188888
439;5187439000;4889944444;5389944444
440;5187455000;4890255555;5390255555
441;5187457000;4890255555;5390255555
442;5187458000;4890255555;5390255555
443;5223104000;4931533333;5431533333
452;5278946000;4931866666;5431866666
473;5352637000;5015222222;5515222222
484;5390340000;5056955555;5556955555
494;5430132000;5098266666;5598266666
504;5430148000;5139888888;5639888888
505;5466690000;5139955555;5639955555
517;5466705000;5182022222;5682022222
518;5466706000;5182022222;5682022222
519;5466707000;5182022222;5682022222
520;5520797000;5223233333;5723233333
527;5527715000;5223277777;5723277777
539;5527730000;5265277777;5765277777
540;5527731000;5265277777;5765277777
541;5527732000;5265277777;5765277777
542;5574375000;5306555555;5806555555
549;5580988000;5306611111;5806611111
550;5581003000;5306933333;5806933333
551;5581004000;5306933333;5806933333
552;5581005000;5306933333;5806933333
553;5611671000;5348233333;5848233333
560;5611871000;5348277777;5848277777
561;5611886000;5348555555;5848555555
562;5611887000;5348555555;5848555555
563;5611888000;5348555555;5848555555
564;5696670000;5389888888;5889888888
584;5735403000;5431922222;5931922222
594;5775194000;5473588888;5973588888
604;5815806000;5514955555;6014955555
614;5815822000;5556555555;6056555555
615;5854415000;5556600000;6056600000
616;5854421000;5556922222;6056922222
617;5854422000;5556922222;6056922222
618;5854423000;5556922222;6056922222
619;5890792000;5598233333;6098233333
626;5890993000;5598277777;6098277777
627;5891008000;5598588888;6098588888
628;5891009000;5598588888;6098588888
629;5891010000;5598588888;6098588888
630;5921700000;5639900000;6139900000
637;5925946000;5639966666;6139966666
638;5925961000;5640233333;6140233333
639;5925963000;5640233333;6140233333
640;5925964000;5640233333;6140233333
641;5944945000;5681566666;6181566666
648;5956029000;5681611111;6181611111
649;5956044000;5681933333;6181933333
650;5956046000;5681933333;6181933333
651;5956047000;5681933333;6181933333
652;5988043000;5723222222;6223222222
661;5988167000;5723577777;6223577777
662;6020015000;5723577777;6223577777
663;6023740000;5764888888;6264888888
671;6072053000;5765255555;6265255555
681;6113259000;5806611111;6306611111
694;6113265000;5848577777;6348577777
695;6113267000;5848577777;6348577777
696;6192786000;5889866666;6389866666
715;6230128000;5931900000;6431900000
716;6230131000;5931900000;6431900000
717;6230133000;5931900000;6431900000
718;6267603000;5973222222;6473222222
727;6267714000;5973555555;6473555555
728;6267718000;5973555555;6473555555
729;6306877000;6014888888;6514888888
739;6306989000;6015266666;6515266666
740;6337916000;6056555555;6556555555
749;6338027000;6056933333;6556933333
750;6338030000;6056933333;6556933333
751;6376359000;6098233333;6598233333
758;6376600000;6098277777;6598277777
759;6376615000;6098600000;6598600000
760;6376617000;6098600000;6598600000
761;6376618000;6098600000;6598600000
762;6404867000;6139888888;6639888888
769;6409794000;6139944444;6639944444
770;6409809000;6140255555;6640255555
771;6409811000;6140255555;6640255555
772;6409812000;6140255555;6640255555
773;6443043000;6181555555;6681555555
782;6443152000;6181922222;6681922222
783;6443154000;6181922222;6681922222
785;6476495000;6223233333;6723233333
786;6476499000;6223233333;6723233333
787;6476500000;6223233333;6723233333
788;6476501000;6223233333;6723233333
789;6476502000;6223233333;6723233333
790;6476503000;6223233333;6723233333
791;6529505000;6223277777;6723277777
805;6529512000;6265233333;6765233333
809;6612243000;6306555555;6806555555
824;6651785000;6348277777;6848277777
836;6651808000;6390255555;6890255555
837;6651809000;6390255555;6890255555
838;6651810000;6390255555;6890255555
839;6729259000;6431566666;6931566666
849;6729370000;6431966666;6931966666
850;6761456000;6473200000;6973200000
858;6761568000;6473544444;6973544444
859;6761572000;6473544444;6973544444
860;6761573000;6473544444;6973544444
861;6800317000;6514900000;7014900000
871;6863307000;6515300000;7015300000
889;6870631000;6598200000;7098200000
890;6870826000;6598244444;7098244444
891;6870841000;6598544444;7098544444
892;6870843000;6598544444;7098544444
893;6870844000;6598544444;7098544444
894;6986532000;6639866666;7139866666
924;7057597000;6723600000;7223600000
936;7086470000;6765266666;7265266666
945;7131332000;6806611111;7306611111
958;7131348000;6848588888;7348588888
959;7131350000;6848588888;7348588888
960;7187017000;6889888888;7389888888
967;7192773000;6889955555;7389955555
978;7217693000;6931622222;7431622222
979;7217699000;6931933333;7431933333
980;7217700000;6931933333;7431933333
981;7217702000;6931933333;7431933333
982;7247106000;6973200000;7473200000
992;7247216000;6973533333;7473533333
993;7285819000;7014866666;7514866666
1002;7285931000;7015233333;7515233333
1004;7312239000;7056533333;7556533333
1005;7312242000;7056533333;7556533333
1006;7312243000;7056533333;7556533333
1007;7312244000;7056533333;7556533333
1008;7312245000;7056533333;7556533333
1009;7312246000;7056533333;7556533333
1010;7312247000;7056533333;7556533333
1011;7312369000;7056577777;7556577777
1012;7312385000;7056911111;7556911111
1013;7312386000;7056911111;7556911111
1014;7312387000;7056911111;7556911111
1015;7344041000;7098233333;7598233333
1016;7344044000;7098233333;7598233333
1017;7344045000;7098233333;7598233333
1018;7344046000;7098233333;7598233333
1019;7344056000;7098233333;7598233333
1020;7344057000;7098233333;7598233333
1021;7344058000;7098233333;7598233333
1023;7344124000;7098588888;7598588888
1024;7344126000;7098588888;7598588888
1025;7344127000;7098588888;7598588888
1026;7375465000;7139877777;7639877777
1027;7375468000;7139877777;7639877777
1028;7375469000;7139877777;7639877777
1029;7375470000;7139877777;7639877777
1030;7375486000;7139877777;7639877777
1031;7375487000;7139877777;7639877777
1032;7375488000;7139877777;7639877777
1033;7379354000;7139922222;7639922222
1034;7379369000;7140244444;7640244444
1035;7379370000;7140244444;7640244444
1036;7379371000;7140244444;7640244444
1037;7488368000;7181566666;7681566666
1051;7529317000;7223222222;7723222222
1064;7568617000;7264866666;7764866666
1077;7608675000;7306577777;7806577777
1089;7608691000;7348544444;7848544444
1090;7608692000;7348544444;7848544444
1091;7608694000;7348544444;7848544444
1092;7668989000;7389888888;7889888888
1101;7676083000;7390244444;7890244444
1102;7688226000;7390244444;7890244444
1103;7715918000;7431566666;7931566666
1110;7716119000;7431611111;7931611111
1111;7716134000;7431911111;7931911111
1112;7716135000;7431911111;7931911111
1113;7716135000;7431911111;7931911111
1114;7744671000;7473222222;7973222222
1122;7821202000;7473566666;7973566666
1143;7901106000;7556622222;8056622222
1166;7901111000;7640222222;8140222222
1167;7901112000;7640222222;8140222222
1168;7901113000;7640222222;8140222222
1169;8007681000;7681555555;8181555555
1188;8028371000;7723566666;8223566666
1201;8113260000;7765277777;8265277777
1214;8125016000;7848222222;8348222222
1215;8125019000;7848222222;8348222222
1216;8125020000;7848222222;8348222222
1217;8125021000;7848222222;8348222222
1218;8125022000;7848222222;8348222222
1219;8125023000;7848222222;8348222222
1220;8125220000;7848266666;8348266666
1221;8125235000;7848577777;8348577777
1222;8125236000;7848577777;8348577777
1223;8125237000;7848577777;8348577777
1224;8236853000;7889888888;8389888888
1252;8310695000;7973233333;8473233333
1263;8348603000;8014900000;8514900000
1275;8368777000;8056600000;8556600000
1286;8414464000;8098277777;8598277777
1297;8442692000;8139955555;8639955555
1311;8442698000;8181944444;8681944444
1312;8494392000;8223222222;8723222222
1320;8494511000;8223566666;8723566666
1321;8494514000;8223566666;8723566666
1322;8494515000;8223566666;8723566666
1323;8529386000;8264900000;8764900000
1333;8529495000;8265266666;8765266666
1334;8553852000;8306555555;8806555555
1335;8553856000;8306555555;8806555555
1336;8553857000;8306555555;8806555555
1337;8553858000;8306555555;8806555555
1339;8559073000;8306555555;8806555555
1340;8559077000;8306555555;8806555555
1341;8559303000;8306600000;8806600000
1342;8559306000;8306922222;8806922222
1343;8559308000;8306922222;8806922222
1344;8559309000;8306922222;8806922222
1345;8592069000;8348233333;8848233333
1346;8592073000;8348233333;8848233333
1347;8592074000;8348233333;8848233333
1348;8592075000;8348233333;8848233333
1349;8592075000;8348233333;8848233333
1350;8592076000;8348233333;8848233333
1351;8592077000;8348233333;8848233333
1352;8592247000;8348277777;8848277777
1353;8592251000;8348555555;8848555555
1354;8592253000;8348555555;8848555555
1355;8592253000;8348555555;8848555555
1356;8696301000;8389911111;8889911111
1376;8734902000;8431922222;8931922222
1386;8774219000;8473566666;8973566666
1397;8814855000;8515233333;9015233333
1407;8854014000;8556611111;9056611111
1411;8854650000;8598255555;9098255555
1412;8854652000;8598255555;9098255555
1413;8854663000;8598255555;9098255555
1414;8854664000;8598255555;9098255555
1415;8854665000;8598255555;9098255555
1416;8854666000;8598255555;9098255555
1417;8854667000;8598255555;9098255555
1418;8889224000;8598300000;9098300000
1422;8889239000;8639888888;9139888888
1423;8889241000;8639888888;9139888888
1424;8889242000;8639888888;9139888888
1425;8889243000;8639888888;9139888888
1426;8889244000;8639888888;9139888888
1427;8889245000;8639888888;9139888888
1428;8889246000;8639888888;9139888888
1429;8926658000;8639955555;9139955555
1433;8926674000;8681555555;9181555555
1434;8926675000;8681555555;9181555555
1435;8926676000;8681555555;9181555555
1436;8926677000;8681555555;9181555555
1437;8926678000;8681555555;9181555555
1438;8926679000;8681555555;9181555555
1439;8926680000;8681555555;9181555555
1440;8956543000;8681611111;9181611111
1444;8956559000;8723222222;9223222222
1445;8956560000;8723222222;9223222222
1446;8956561000;8723222222;9223222222
1447;8979625000;8723222222;9223222222
1448;8979627000;8723222222;9223222222
1449;8979637000;8723222222;9223222222
1450;8979638000;8723222222;9223222222
1451;8981097000;8723266666;9223266666
1455;8981104000;8764888888;9264888888
1456;8981106000;8764888888;9264888888
1457;8981107000;8764888888;9264888888
1458;8981108000;8764888888;9264888888
1459;8981109000;8764888888;9264888888
1460;8981120000;8764888888;9264888888
1461;8981121000;8764888888;9264888888
1462;9026106000;8764955555;9264955555
1466;9026121000;8806555555;9306555555
1467;9026123000;8806555555;9306555555
1468;9026123000;8806555555;9306555555
1469;9026125000;8806555555;9306555555
1470;9026126000;8806555555;9306555555
1471;9026127000;8806555555;9306555555
1472;9026128000;8806555555;9306555555
1473;9058602000;8806600000;9306600000
1474;9058617000;8806955555;9306955555
1475;9058618000;8806955555;9306955555
1476;9058619000;8806955555;9306955555
1477;9092691000;8848233333;9348233333
1478;9092694000;8848233333;9348233333
1479;9092695000;8848233333;9348233333
1480;9092696000;8848233333;9348233333
1481;9092697000;8848233333;9348233333
1482;9092698000;8848233333;9348233333
1483;9092699000;8848233333;9348233333
1484;9092896000;8848277777;9348277777
1485;9092911000;8848588888;9348588888
1486;9092912000;8848588888;9348588888
1487;9092913000;8848588888;9348588888
1488;9124918000;8889888888;9389888888
1489;9124921000;8889888888;9389888888
1491;9127853000;8889888888;9389888888
1492;9127855000;8889888888;9389888888
1493;9127857000;8889888888;9389888888
1495;9128064000;8889955555;9389955555
1497;9128080000;8890277777;9390277777
1498;9128081000;8890277777;9390277777
1499;9164747000;8931566666;9431566666
1500;9164751000;8931566666;9431566666
1501;9164752000;8931566666;9431566666
1502;9164753000;8931566666;9431566666
1503;9164754000;8931566666;9431566666
1504;9164755000;8931566666;9431566666
1505;9164756000;8931566666;9431566666
1506;9164954000;8931611111;9431611111
1507;9164969000;8931911111;9431911111
1508;9164978000;8931911111;9431911111
1509;9164979000;8931911111;9431911111
1510;9279761000;8973222222;9473222222
1525;9321012000;9014900000;9514900000
1538;9359610000;9056555555;9556555555
1551;9395395000;9098588888;9598588888
1552;9395399000;9098588888;9598588888
1553;9395400000;9098588888;9598588888
1554;9437466000;9139900000;9639900000
1562;9487938000;9140255555;9640255555
1583;9567081000;9223277777;9723277777
1603;9567085000;9306566666;9806566666
1604;9567087000;9306566666;9806566666
1605;9637901000;9306611111;9806611111
1616;9673356000;9348266666;9848266666
1628;9673362000;9390266666;9890266666
1629;9673363000;9390266666;9890266666
1630;9673364000;9390266666;9890266666
1631;9728032000;9431555555;9931555555
1640;9728147000;9431933333;9931933333
1641;9728151000;9431933333;9931933333
1642;9764578000;9473222222;9973222222
1650;9764689000;9473577777;9973577777
1651;9764692000;9473577777;9973577777
1652;9764693000;9473577777;9973577777
1653;9785077000;9514888888;10014888888
1662;9785188000;9515277777;10015277777
1663;9813029000;9515277777;10015277777
1667;9816290000;9556555555;10056555555
1675;9846041000;9598233333;10098233333
1676;9846044000;9598233333;10098233333
1677;9846045000;9598233333;10098233333
1678;9846047000;9598233333;10098233333
1679;9846047000;9598233333;10098233333
1680;9846048000;9598233333;10098233333
1681;9846049000;9598233333;10098233333
1682;9851664000;9598277777;10098277777
1683;9851679000;9598577777;10098577777
1684;9851680000;9598577777;10098577777
1685;9851681000;9598577777;10098577777
1686;9989240000;9639888888;10139888888
1714;10064610000;9723222222;10223222222
1735;10129140000;9806566666;10306566666
1748;10163077000;9848266666;10348266666
1756;10163083000;9889888888;10389888888
1757;10163085000;9889888888;10389888888
1758;10163085000;9889888888;10389888888
1759;10189176000;9889955555;10389955555
1764;10189183000;9931555555;10431555555
1766;10189190000;9931555555;10431555555
1768;10189192000;9931555555;10431555555
1769;10189194000;9931555555;10431555555
1770;10223293000;9931600000;10431600000
1774;10223298000;9973233333;10473233333
1775;10223299000;9973233333;10473233333
1776;10223300000;9973233333;10473233333
1777;10223301000;9973233333;10473233333
1778;10229785000;9973233333;10473233333
1779;10229789000;9973233333;10473233333
1780;10229791000;9973233333;10473233333
1781;10252429000;9973277777;10473277777
1785;10252434000;10014900000;10514900000
1786;10252436000;10014900000;10514900000
1787;10252437000;10014900000;10514900000
1788;10252438000;10014900000;10514900000
1789;10252439000;10014900000;10514900000
1790;10252440000;10014900000;10514900000
1791;10252441000;10014900000;10514900000
1792;10280672000;10014966666;10514966666
1796;10280678000;10056555555;10556555555
1797;10280679000;10056555555;10556555555
1798;10280680000;10056555555;10556555555
1799;10280681000;10056555555;10556555555
1800;10280682000;10056555555;10556555555
1801;10280683000;10056555555;10556555555
1802;10280684000;10056555555;10556555555
1803;10363154000;10056600000;10556600000
1815;10363160000;10098588888;10598588888
1816;10363162000;10098588888;10598588888
1817;10363163000;10098588888;10598588888
1818;10444545000;10139888888;10639888888
1837;10479178000;10181955555;10681955555
1838;10479181000;10181955555;10681955555
1839;10479182000;10181955555;10681955555
1840;10521206000;10223222222;10723222222
1846;10521210000;10223222222;10723222222
1847;10521339000;10223266666;10723266666
1848;10521343000;10223544444;10723544444
1849;10521345000;10223544444;10723544444
1850;10521346000;10223544444;10723544444
1851;10554034000;10264888888;10764888888
1859;10554107000;10265233333;10765233333
1860;10554110000;10265233333;10765233333
1862;10591872000;10306555555;10806555555
1871;10591948000;10306911111;10806911111
1872;10591951000;10306911111;10806911111
1873;10622625000;10348233333;10848233333
1882;10696579000;10348544444;10848544444
1902;10776233000;10431600000;10931600000
1924;10849955000;10514966666;11014966666
1936;10849963000;10556900000;11056900000
1937;10849964000;10556900000;11056900000
1938;10849965000;10556900000;11056900000
1939;10907907000;10598222222;11098222222
1957;10937283000;10639955555;11139955555
1958;10937288000;10640222222;11140222222
1959;10937290000;10640222222;11140222222
1960;10937291000;10640222222;11140222222
1961;10964409000;10681555555;11181555555
1970;10964464000;10681900000;11181900000
1971;10964466000;10681900000;11181900000
1972;10999245000;10723222222;11223222222
1980;10999318000;10723555555;11223555555
1981;10999320000;10723555555;11223555555
1982;10999321000;10723555555;11223555555
1983;11021997000;10764900000;11264900000
1984;11022000000;10764900000;11264900000
1985;11022001000;10764900000;11264900000
1986;11022002000;10764900000;11264900000
1987;11022003000;10764900000;11264900000
1988;11022004000;10764900000;11264900000
1989;11022005000;10764900000;11264900000
1990;11027953000;10764955555;11264955555
1994;11027958000;10806555555;11306555555
1995;11027959000;10806555555;11306555555
1996;11027960000;10806555555;11306555555
1997;11063247000;10806555555;11306555555
1998;11063251000;10806555555;11306555555
1999;11063253000;10806555555;11306555555
2000;11063254000;10806555555;11306555555
2001;11111641000;10806600000;11306600000
2013;11111646000;10848566666;11348566666
2014;11111648000;10848566666;11348566666
2015;11111648000;10848566666;11348566666
2016;11194149000;10889888888;11389888888
2033;11230851000;10931555555;11431555555
2037;11230917000;10931900000;11431900000
2038;11270302000;10973222222;11473222222
2045;11270429000;10973266666;11473266666
2046;11270435000;10973544444;11473544444
2047;11270436000;10973544444;11473544444
2048;11270437000;10973544444;11473544444
2049;11303240000;11014888888;11514888888
2056;11306752000;11014955555;11514955555
2057;11306757000;11015244444;11515244444
2058;11306759000;11015244444;11515244444
2059;11306760000;11015244444;11515244444
2060;11342047000;11056555555;11556555555
2070;11342130000;11056922222;11556922222
2071;11372084000;11098222222;11598222222
2080;11372156000;11098566666;11598566666
2081;11372159000;11098566666;11598566666
2082;11409075000;11139900000;11639900000
2092;11409148000;11140233333;11640233333
2093;11435677000;11181533333;11681533333
2094;11435681000;11181533333;11681533333
2095;11435682000;11181533333;11681533333
2096;11435683000;11181533333;11681533333
2097;11435684000;11181533333;11681533333
2098;11435685000;11181533333;11681533333
2099;11435686000;11181533333;11681533333
2100;11440082000;11181577777;11681577777
2104;11440088000;11223233333;11723233333
2105;11440089000;11223233333;11723233333
2106;11440090000;11223233333;11723233333
2107;11440091000;11223233333;11723233333
2108;11440092000;11223233333;11723233333
2109;11440093000;11223233333;11723233333
2110;11440094000;11223233333;11723233333
2111;11471361000;11223277777;11723277777
2112;11471366000;11223600000;11723600000
2113;11471367000;11223600000;11723600000
2114;11471368000;11223600000;11723600000
2115;11504822000;11264888888;11764888888
2116;11504826000;11264888888;11764888888
2117;11504827000;11264888888;11764888888
2118;11504828000;11264888888;11764888888
2119;11504829000;11264888888;11764888888
2120;11504830000;11264888888;11764888888
2121;11504831000;11264888888;11764888888
2122;11508554000;11264955555;11764955555
2123;11508559000;11265277777;11765277777
2124;11521499000;11265277777;11765277777
2125;11521501000;11265277777;11765277777
2126;11545183000;11306555555;11806555555
2127;11545186000;11306555555;11806555555
2128;11545187000;11306555555;11806555555
2129;11545188000;11306555555;11806555555
2130;11545189000;11306555555;11806555555
2131;11545190000;11306555555;11806555555
2133;11545314000;11306600000;11806600000
2134;11545319000;11306966666;11806966666
2135;11545321000;11306966666;11806966666
2136;11545322000;11306966666;11806966666
2137;11654095000;11348222222;11848222222
2157;11693377000;11390266666;11890266666
2167;11732530000;11431944444;11931944444
2178;11772954000;11473588888;11973588888
2187;11809443000;11514888888;12014888888
2190;11809524000;11515288888;12015288888
2191;11809527000;11515288888;12015288888
2192;11849742000;11556555555;12056555555
2201;11849815000;11556955555;12056955555
2202;11849827000;11556955555;12056955555
2203;11879648000;11598222222;12098222222
2212;11879719000;11598600000;12098600000
2213;11879721000;11598600000;12098600000
2214;11911733000;11639888888;12139888888
2223;11911806000;11640255555;12140255555
2224;11911809000;11640255555;12140255555
2225;11945192000;11681555555;12181555555
2232;11950043000;11681600000;12181600000
2233;11950049000;11681922222;12181922222
2234;11950051000;11681922222;12181922222
2235;11950052000;11681922222;12181922222
2236;11983535000;11723222222;12223222222
2246;12030383000;11723588888;12223588888
2255;12071212000;11765277777;12265277777
2263;12112098000;11806566666;12306566666
2276;12152598000;11848266666;12348266666
2289;12152604000;11890288888;12390288888
2290;12152605000;11890288888;12390288888
2291;12226263000;11931555555;12431555555
2299;12226337000;11931922222;12431922222
2300;12226339000;11931922222;12431922222
2301;12226340000;11931922222;12431922222
2302;12264859000;11973200000;12473200000
2311;12264933000;11973544444;12473544444
2312;12264935000;11973544444;12473544444
2313;12295092000;12014888888;12514888888
2321;12295146000;12015277777;12515277777
2322;12295148000;12015277777;12515277777
2323;12295149000;12015277777;12515277777
2324;12333565000;12056555555;12556555555
2333;12333621000;12056966666;12556966666
2334;12333624000;12056966666;12556966666
2335;12362610000;12098222222;12598222222
2342;12367518000;12098266666;12598266666
2343;12367524000;12098588888;12598588888
2344;12367525000;12098588888;12598588888
2345;12367526000;12098588888;12598588888
2346;12397180000;12139888888;12639888888
2347;12397184000;12139888888;12639888888
2348;12397185000;12139888888;12639888888
2349;12397187000;12139888888;12639888888
2350;12397188000;12139888888;12639888888
2351;12397189000;12139888888;12639888888
2352;12397190000;12139888888;12639888888
2353;12397324000;12139944444;12639944444
2354;12397330000;12140244444;12640244444
2355;12397331000;12140244444;12640244444
2356;12437900000;12140244444;12640244444
2357;12487894000;12181555555;12681555555
2377;12527023000;12223588888;12723588888
2386;12569180000;12264955555;12764955555
2399;12569186000;12306922222;12806922222
2400;12569187000;12306922222;12806922222
2401;12643070000;12348211111;12848211111
2409;12643144000;12348566666;12848566666
2410;12643146000;12348566666;12848566666
2411;12643148000;12348566666;12848566666
2412;12681664000;12389888888;12889888888
2421;12681733000;12390277777;12890277777
2422;12681736000;12390277777;12890277777
2423;12713324000;12431544444;12931544444
2429;12713328000;12431544444;12931544444
2430;12713441000;12431600000;12931600000
2431;12713446000;12431955555;12931955555
2432;12713457000;12431955555;12931955555
2433;12713459000;12431955555;12931955555
2434;12744097000;12473222222;12973222222
2442;12744169000;12473577777;12973577777
2443;12744171000;12473577777;12973577777
2444;12744172000;12473577777;12973577777
2447;12821436000;12514888888;13014888888
2464;12863517000;12556944444;13056944444
2471;12904492000;12598222222;13098222222
2483;12945110000;12639900000;13139900000
2497;12984087000;12681922222;13181922222
2509;13019521000;12723600000;13223600000
2510;13019524000;12723600000;13223600000
2511;13059776000;12764888888;13264888888
2518;13062544000;12764955555;13264955555
2519;13062549000;12765266666;13265266666
2520;13062551000;12765266666;13265266666
2521;13062552000;12765266666;13265266666
2522;13099083000;12806555555;13306555555
2527;13099087000;12806555555;13306555555
2528;13099088000;12806555555;13306555555
2529;13099197000;12806611111;13306611111
2530;13099202000;12806966666;13306966666
2531;13099204000;12806966666;13306966666
2532;13099204000;12806966666;13306966666
2533;13131127000;12848222222;13348222222
2550;13164892000;12889900000;13389900000
2555;13202273000;12931566666;13431566666
2565;13280886000;12931955555;13431955555
2585;13359627000;13015266666;13515266666
2602;13431764000;13098222222;13598222222
2613;13454633000;13139888888;13639888888
2629;13494515000;13181944444;13681944444
2640;13508575000;13223522222;13723522222
2641;13508579000;13223522222;13723522222
2642;13508601000;13223522222;13723522222
2643;13559798000;13264900000;13764900000
2653;13559871000;13265255555;13765255555
2654;13579101000;13306533333;13806533333
2662;13579174000;13306900000;13806900000
2663;13579176000;13306900000;13806900000
2664;13579177000;13306900000;13806900000
2665;13617913000;13348222222;13848222222
2675;13617977000;13348566666;13848566666
2676;13639460000;13389888888;13889888888
2677;13639464000;13389888888;13889888888
2678;13639465000;13389888888;13889888888
2680;13645610000;13389888888;13889888888
2681;13645612000;13389888888;13889888888
2682;13645614000;13389888888;13889888888
2683;13645738000;13389955555;13889955555
2684;13645744000;13390233333;13890233333
2685;13645745000;13390233333;13890233333
2686;13645746000;13390233333;13890233333
2687;13677370000;13431555555;13931555555
2688;13677373000;13431555555;13931555555
2689;13677374000;13431555555;13931555555
2690;13677375000;13431555555;13931555555
2691;13677376000;13431555555;13931555555
2692;13677377000;13431555555;13931555555
2693;13677378000;13431555555;13931555555
2694;13677513000;13431600000;13931600000
2695;13677518000;13431911111;13931911111
2696;13677519000;13431911111;13931911111
2697;13677520000;13431911111;13931911111
2698;13779428000;13473222222;13973222222
2718;13818875000;13515266666;14015266666
2727;13861016000;13556600000;14056600000
2740;13861021000;13598555555;14098555555
2741;13861023000;13598555555;14098555555
2742;13935214000;13639888888;14139888888
2750;13935268000;13640233333;14140233333
2751;13935271000;13640233333;14140233333
2752;13935272000;13640233333;14140233333
2753;13973635000;13681555555;14181555555
2763;13973709000;13681900000;14181900000
2764;14004911000;13723222222;14223222222
2772;14004966000;13723555555;14223555555
2775;14043603000;13764900000;14264900000
2782;14043717000;13764955555;14264955555
2783;14043722000;13765266666;14265266666
2784;14043724000;13765266666;14265266666
2785;14043725000;13765266666;14265266666
2786;14072026000;13806566666;14306566666
2795;14155108000;13806922222;14306922222
2816;14229809000;13890266666;14390266666
2828;14263538000;13931866666;14431866666
2838;14298656000;13973566666;14473566666
2849;14338038000;14015255555;14515255555
2857;14373428000;14056566666;14556566666
2866;14399985000;14098222222;14598222222
2879;14431727000;14139900000;14639900000
2880;14431731000;14139900000;14639900000
2887;14529955000;14181522222;14681522222
2911;14612717000;14264900000;14764900000
2936;14687708000;14348244444;14848244444
2947;14723463000;14389966666;14889966666
2959;14723469000;14431900000;14931900000
2960;14723470000;14431900000;14931900000
2961;14723471000;14431900000;14931900000
2962;14781968000;14473222222;14973222222
2980;14814238000;14514955555;15014955555
2988;14814245000;14556555555;15056555555
2989;14814246000;14556555555;15056555555
2990;14814248000;14556555555;15056555555
2991;14848305000;14556600000;15056600000
2995;14848311000;14598200000;15098200000
2996;14848312000;14598200000;15098200000
2997;14848313000;14598200000;15098200000
2998;14855231000;14598200000;15098200000
2999;14855233000;14598200000;15098200000
3000;14855234000;14598200000;15098200000
3001;14855245000;14598200000;15098200000
3002;14857549000;14598255555;15098255555
3006;14857555000;14639866666;15139866666
3007;14857556000;14639866666;15139866666
3008;14857557000;14639866666;15139866666
3009;14857558000;14639866666;15139866666
3010;14857559000;14639866666;15139866666
3011;14857560000;14639866666;15139866666
3012;14857561000;14639866666;15139866666
3013;14907844000;14639911111;15139911111
3017;14907850000;14681566666;15181566666
3018;14907851000;14681566666;15181566666
3019;14907852000;14681566666;15181566666
3020;14907853000;14681566666;15181566666
3021;14907854000;14681566666;15181566666
3022;14907855000;14681566666;15181566666
3023;14907856000;14681566666;15181566666
3024;14931109000;14681611111;15181611111
3025;14931114000;14681888888;15181888888
3027;14931116000;14681888888;15181888888
3028;14964177000;14723222222;15223222222
3029;14964181000;14723222222;15223222222
3030;14964182000;14723222222;15223222222
3031;14964193000;14723222222;15223222222
3032;14964194000;14723222222;15223222222
3033;14964195000;14723222222;15223222222
3034;14964196000;14723222222;15223222222
3035;14967337000;14723277777;15223277777
3036;14967343000;14723544444;15223544444
3037;14967344000;14723544444;15223544444
3038;14967345000;14723544444;15223544444
3039;15071400000;14764888888;15264888888
3057;15112607000;14806633333;15306633333
3069;15112613000;14848533333;15348533333
3070;15112614000;14848533333;15348533333
3071;15112615000;14848533333;15348533333
3072;15189706000;14889866666;15389866666
3089;15229393000;14931533333;15431533333
3090;15229559000;14931577777;15431577777
3091;15229564000;14931855555;15431855555
3092;15229566000;14931855555;15431855555
3093;15229567000;14931855555;15431855555
3094;15261585000;14973200000;15473200000
3103;15261640000;14973511111;15473511111
3104;15261642000;14973511111;15473511111
3105;15300502000;15014922222;15514922222
3115;15300577000;15015266666;15515266666
3116;15331169000;15056533333;15556533333
3122;15331172000;15056533333;15556533333
3123;15335934000;15056577777;15556577777
3124;15335940000;15056888888;15556888888
3125;15335942000;15056888888;15556888888
3126;15335942000;15056888888;15556888888
3127;15369610000;15098200000;15598200000
3135;15369664000;15098522222;15598522222
3136;15369667000;15098522222;15598522222
3137;15369668000;15098522222;15598522222
3138;15401356000;15139900000;15639900000
3145;15447010000;15139955555;15639955555
3155;15447016000;15181555555;15681555555
3160;15530089000;15223255555;15723255555
3179;15569743000;15265266666;15765266666
3191;15607298000;15306900000;15806900000
3201;15645222000;15348544444;15848544444
3202;15645225000;15348544444;15848544444
3203;15645226000;15348544444;15848544444
3204;15687314000;15389900000;15889900000
3213;15687386000;15390244444;15890244444
3214;15687389000;15390244444;15890244444
3215;15720211000;15431566666;15931566666
3223;15720278000;15431922222;15931922222
3224;15720280000;15431922222;15931922222
3225;15720281000;15431922222;15931922222
3226;15758963000;15473200000;15973200000
3233;15759075000;15473244444;15973244444
3234;15759080000;15473533333;15973533333
3235;15759081000;15473533333;15973533333
3236;15759082000;15473533333;15973533333
3237;15791053000;15514888888;16014888888
3246;15791127000;15515266666;16015266666
3247;15791130000;15515266666;16015266666
3248;15826539000;15556566666;16056566666
3256;15826612000;15556911111;16056911111
3257;15826615000;15556911111;16056911111
3258;15826616000;15556911111;16056911111
3259;15853886000;15598211111;16098211111
3260;15853889000;15598211111;16098211111
3261;15853890000;15598211111;16098211111
3262;15853891000;15598211111;16098211111
3263;15853892000;15598211111;16098211111
3264;15853893000;15598211111;16098211111
3265;15853894000;15598211111;16098211111
3266;15858608000;15598255555;16098255555
3270;15858614000;15639900000;16139900000
3271;15858615000;15639900000;16139900000
3272;15858616000;15639900000;16139900000
3273;15858617000;15639900000;16139900000
3274;15858618000;15639900000;16139900000
3275;15858619000;15639900000;16139900000
3276;15858620000;15639900000;16139900000
3277;15945349000;15639966666;16139966666
3289;15945355000;15681911111;16181911111
3290;15945356000;15681911111;16181911111
3291;15945357000;15681911111;16181911111
3292;16027623000;15723222222;16223222222
3311;16062540000;15765255555;16265255555
3312;16062543000;15765255555;16265255555
3313;16062544000;15765255555;16265255555
3314;16104601000;15806555555;16306555555
3323;16104676000;15806922222;16306922222
3324;16104679000;15806922222;16306922222
3325;16137426000;15848222222;16348222222
3334;16137491000;15848566666;16348566666
3335;16137494000;15848566666;16348566666
3336;16175343000;15889900000;16389900000
3345;16175396000;15890266666;16390266666
3346;16175399000;15890266666;16390266666
3347;16204709000;15931566666;16431566666
3356;16204781000;15931900000;16431900000
3357;16204784000;15931900000;16431900000
3358;16241715000;15973200000;16473200000
3368;16241789000;15973522222;16473522222
3369;16269544000;16014877777;16514877777
3370;16269557000;16014877777;16514877777
3371;16269558000;16014877777;16514877777
3372;16269559000;16014877777;16514877777
3373;16269560000;16014877777;16514877777
3374;16269561000;16014877777;16514877777
3375;16269562000;16014877777;16514877777
3376;16274090000;16014922222;16514922222
3380;16274096000;16056566666;16556566666
3381;16274097000;16056566666;16556566666
3382;16274098000;16056566666;16556566666
3383;16274099000;16056566666;16556566666
3384;16274100000;16056566666;16556566666
3385;16274101000;16056566666;16556566666
3386;16274102000;16056566666;16556566666
3387;16305153000;16056611111;16556611111
3388;16305159000;16056933333;16556933333
3389;16305160000;16056933333;16556933333
3390;16305161000;16056933333;16556933333
3391;16338479000;16098233333;16598233333
3392;16338493000;16098233333;16598233333
3393;16338494000;16098233333;16598233333
3394;16338495000;16098233333;16598233333
3395;16338496000;16098233333;16598233333
3396;16338497000;16098233333;16598233333
3397;16338498000;16098233333;16598233333
3398;16342232000;16098277777;16598277777
3399;16342237000;16098566666;16598566666
3400;16342239000;16098566666;16598566666
3401;16342240000;16098566666;16598566666
3402;16377750000;16139866666;16639866666
3403;16377754000;16139866666;16639866666
3404;16377755000;16139866666;16639866666
3405;16377756000;16139866666;16639866666
3407;16377757000;16139866666;16639866666
3410;16377827000;16140211111;16640211111
3411;16377830000;16140211111;16640211111
3412;16377831000;16140211111;16640211111
3413;16413071000;16181555555;16681555555
3414;16413075000;16181555555;16681555555
3415;16413077000;16181555555;16681555555
3416;16413078000;16181555555;16681555555
3417;16413080000;16181555555;16681555555
3418;16413082000;16181555555;16681555555
3419;16413083000;16181555555;16681555555
3420;16415362000;16181600000;16681600000
3421;16415368000;16181922222;16681922222
3422;16415369000;16181922222;16681922222
3423;16415370000;16181922222;16681922222
3424;16528774000;16223200000;16723200000
3443;16569692000;16265255555;16765255555
3453;16606549000;16306577777;16806577777
3464;16651088000;16348277777;16848277777
3477;16651094000;16390255555;16890255555
3478;16651095000;16390255555;16890255555
3479;16719087000;16431566666;16931566666
3488;16719158000;16431966666;16931966666
3489;16719161000;16431966666;16931966666
3490;16757736000;16473222222;16973222222
3500;16757810000;16473566666;16973566666
3501;16787337000;16514866666;17014866666
3510;16787411000;16515244444;17015244444
3511;16787414000;16515244444;17015244444
3512;16825721000;16556533333;17056533333
3521;16825787000;16556888888;17056888888
3522;16825789000;16556888888;17056888888
3523;16854274000;16598200000;17098200000
3524;16854278000;16598200000;17098200000
3525;16854279000;16598200000;17098200000
3526;16854280000;16598200000;17098200000
3527;16854281000;16598200000;17098200000
3528;16854282000;16598200000;17098200000
3529;16854283000;16598200000;17098200000
3530;16859003000;16598244444;17098244444
3534;16859009000;16639900000;17139900000
3535;16859010000;16639900000;17139900000
3536;16859011000;16639900000;17139900000
3537;16859012000;16639900000;17139900000
3538;16859013000;16639900000;17139900000
3539;16859014000;16639900000;17139900000
3540;16859015000;16639900000;17139900000
3541;16889567000;16639966666;17139966666
3542;16889574000;16640233333;17140233333
3543;16889575000;16640233333;17140233333
3544;16889576000;16640233333;17140233333
3545;16988654000;16681533333;17181533333
3566;17029250000;16723566666;17223566666
3572;17069812000;16764900000;17264900000
3581;17107280000;16806533333;17306533333
3597;17142532000;16848588888;17348588888
3598;17142536000;16848588888;17348588888
3599;17142537000;16848588888;17348588888
3600;17184882000;16889900000;17389900000
3608;17238269000;16890277777;17390277777
3630;17315220000;16973555555;17473555555
3651;17388257000;17056600000;17556600000
3663;17388263000;17098566666;17598566666
3664;17388264000;17098566666;17598566666
3665;17388265000;17098566666;17598566666
3666;17455758000;17139866666;17639866666
3683;17479053000;17181533333;17681533333
3684;17486075000;17181577777;17681577777
3698;17486081000;17223555555;17723555555
3699;17527780000;17264888888;17764888888
3706;17545454000;17264933333;17764933333
3707;17545459000;17265233333;17765233333
3708;17545461000;17265233333;17765233333
3709;17545462000;17265233333;17765233333
3710;17571300000;17306533333;17806533333
3720;17613570000;17306888888;17806888888
3729;17654113000;17348544444;17848544444
3739;17695391000;17389966666;17889966666
3750;17735734000;17431577777;17931577777
3763;17735740000;17473555555;17973555555
3764;17735741000;17473555555;17973555555
3765;17810070000;17514900000;18014900000
3773;17810124000;17515266666;18015266666
3774;17810127000;17515266666;18015266666
3775;17810128000;17515266666;18015266666
3776;17848431000;17556555555;18056555555
3786;17848506000;17556900000;18056900000
3787;17878629000;17598211111;18098211111
3796;17878701000;17598533333;18098533333
3797;17878704000;17598533333;18098533333
3798;17917016000;17639877777;18139877777
3808;17917084000;17640222222;18140222222
3809;17944815000;17681533333;18181533333
3818;17988611000;17681866666;18181866666
3827;17988723000;17723244444;18223244444
3831;18022107000;17764900000;18264900000
3832;18022109000;17764900000;18264900000
3833;18022111000;17764900000;18264900000
3834;18022112000;17764900000;18264900000
3835;18022113000;17764900000;18264900000
3836;18022124000;17764900000;18264900000
3837;18022125000;17764900000;18264900000
3838;18071611000;17764955555;18264955555
3848;18071617000;17806555555;18306555555
3849;18112053000;17806611111;18306611111
3861;18112059000;17848533333;18348533333
3862;18112061000;17848533333;18348533333
3863;18112062000;17848533333;18348533333
3864;18191237000;17889866666;18389866666
3882;18229884000;17931611111;18431611111
3883;18229890000;17931888888;18431888888
3884;18229891000;17931888888;18431888888
3885;18229893000;17931888888;18431888888
3886;18264294000;17973322222;18473322222
3894;18264362000;17973633333;18473633333
3895;18264365000;17973633333;18473633333
3896;18264366000;17973633333;18473633333
3897;18296025000;18014900000;18514900000
3904;18296136000;18014955555;18514955555
3905;18296142000;18015255555;18515255555
3906;18296143000;18015255555;18515255555
3907;18296144000;18015255555;18515255555
3908;18334375000;18056555555;18556555555
3917;18334433000;18056922222;18556922222
3918;18334436000;18056922222;18556922222
3919;18359085000;18098200000;18598200000
3927;18359139000;18098533333;18598533333
3928;18359142000;18098533333;18598533333
3929;18359143000;18098533333;18598533333
3930;18391922000;18139866666;18639866666
3931;18391926000;18139866666;18639866666
3932;18391927000;18139866666;18639866666
3933;18391928000;18139866666;18639866666
3934;18391929000;18139866666;18639866666
3935;18391930000;18139866666;18639866666
3936;18391931000;18139866666;18639866666
3937;18394721000;18139911111;18639911111
3938;18394727000;18140200000;18640200000
3939;18394728000;18140200000;18640200000
3940;18394729000;18140200000;18640200000
3941;18426947000;18181555555;18681555555
3942;18426951000;18181555555;18681555555
3943;18426952000;18181555555;18681555555
3944;18426953000;18181555555;18681555555
3945;18426954000;18181555555;18681555555
3947;18430745000;18181555555;18681555555
3948;18430880000;18181600000;18681600000
3949;18430885000;18181911111;18681911111
3950;18430886000;18181911111;18681911111
3951;18430887000;18181911111;18681911111
3952;18465868000;18223222222;18723222222
3953;18465872000;18223222222;18723222222
3954;18465873000;18223222222;18723222222
3955;18465874000;18223222222;18723222222
3956;18465875000;18223222222;18723222222
3957;18465876000;18223222222;18723222222
3958;18465877000;18223222222;18723222222
3959;18466005000;18223277777;18723277777
3960;18466010000;18223555555;18723555555
3961;18466011000;18223555555;18723555555
3962;18466012000;18223555555;18723555555
3963;18571627000;18264900000;18764900000
3980;18612614000;18306533333;18806533333
3993;18648801000;18348544444;18848544444
4003;18691516000;18389955555;18889955555
4013;18691522000;18431566666;18931566666
4014;18730058000;18431611111;18931611111
4017;18730842000;18431955555;18931955555
4018;18766691000;18473200000;18973200000
4029;18797762000;18514866666;19014866666
4037;18797835000;18515233333;19015233333
4038;18797838000;18515233333;19015233333
4039;18797839000;18515233333;19015233333
4040;18836128000;18556566666;19056566666
4049;18836203000;18556922222;19056922222
4050;18836206000;18556922222;19056922222
4051;18863199000;18598200000;19098200000
4061;18863263000;18598522222;19098522222
4062;18901443000;18639900000;19139900000
4071;18901547000;18640222222;19140222222
4072;18901550000;18640222222;19140222222
4073;18930244000;18681533333;19181533333
4074;18930247000;18681533333;19181533333
4075;18930248000;18681533333;19181533333
4076;18930249000;18681533333;19181533333
4077;18930250000;18681533333;19181533333
4078;18930252000;18681533333;19181533333
4079;18930253000;18681533333;19181533333
4080;18934806000;18681577777;19181577777
4085;18980838000;18723200000;19223200000
4086;18980841000;18723200000;19223200000
4087;18980845000;18723200000;19223200000
4089;18980847000;18723200000;19223200000
4090;18980848000;18723200000;19223200000
4091;19029931000;18723244444;19223244444
4103;19029937000;18765255555;19265255555
4104;19029938000;18765255555;19265255555
4105;19029939000;18765255555;19265255555
4106;19111280000;18806566666;19306566666
4124;19150062000;18848288888;19348288888
4137;19150067000;18890266666;19390266666
4138;19150069000;18890266666;19390266666
4139;19219684000;18931555555;19431555555
4148;19219747000;18931900000;19431900000
4149;19219750000;18931900000;19431900000
4150;19258505000;18973233333;19473233333
4156;19258509000;18973233333;19473233333
4157;19258636000;18973277777;19473277777
4158;19258640000;18973544444;19473544444
4159;19258642000;18973544444;19473544444
4160;19258643000;18973544444;19473544444
4161;19288052000;19014966666;19514966666
4169;19288120000;19015311111;19515311111
4170;19288123000;19015311111;19515311111
4171;19288124000;19015311111;19515311111
4172;19326230000;19056533333;19556533333
4182;19326297000;19056900000;19556900000
4183;19356057000;19098244444;19598244444
4190;19361033000;19098288888;19598288888
4194;19361038000;19140022222;19640022222
4195;19361040000;19140022222;19640022222
4196;19361041000;19140022222;19640022222
4197;19361042000;19140022222;19640022222
4198;19361043000;19140022222;19640022222
4199;19361044000;19140022222;19640022222
4200;19361045000;19140022222;19640022222
4201;19446466000;19140077777;19640077777
4212;19487572000;19181611111;19681611111
4223;19527101000;19223566666;19723566666
4235;19527107000;19265522222;19765522222
4236;19527108000;19265522222;19765522222
4237;19527109000;19265522222;19765522222
4238;19607137000;19306633333;19806633333
4254;19637647000;19348522222;19848522222
4255;19637651000;19348522222;19848522222
4256;19637780000;19348566666;19848566666
4258;19637785000;19348866666;19848866666
4259;19637787000;19348866666;19848866666
4260;19668295000;19390011111;19890011111
4268;19668374000;19390333333;19890333333
4269;19668376000;19390333333;19890333333
4270;19668378000;19390333333;19890333333
4271;19704047000;19431711111;19931711111
4282;19737338000;19473233333;19973233333
4289;19742096000;19473277777;19973277777
4290;19742102000;19473577777;19973577777
4291;19742104000;19473577777;19973577777
4292;19742105000;19473577777;19973577777
4293;19773223000;19514888888;20014888888
4294;19773225000;19514888888;20014888888
4295;19773226000;19514888888;20014888888
4296;19773227000;19514888888;20014888888
4297;19773228000;19514888888;20014888888
4298;19773229000;19514888888;20014888888
4299;19773231000;19514888888;20014888888
4300;19822431000;19514955555;20014955555
4301;19822437000;19515277777;20015277777
4302;19822438000;19515277777;20015277777
4303;19822439000;19515277777;20015277777
4304;19862983000;19556555555;20056555555
4305;19862986000;19556555555;20056555555
4306;19862987000;19556555555;20056555555
4307;19862988000;19556555555;20056555555
4308;19862989000;19556555555;20056555555
4309;19862990000;19556555555;20056555555
4388;20840090000;19848222222;20348222222
4488;20840099000;20223511111;20723511111
4489;20840109000;20223511111;20723511111
4490;20840110000;20223511111;20723511111
4491;21182451000;20264877777;20764877777
4658;21213800000;20889922222;21389922222
4671;21213875000;20931555555;21431555555
4672;21213878000;20931555555;21431555555
4673;21213879000;20931555555;21431555555
4674;21213949000;20931600000;21431600000
4675;21213954000;20931877777;21431877777
4676;21213955000;20931877777;21431877777
4677;21213956000;20931877777;21431877777
4678;21223946000;20973233333;21473233333
4679;21223950000;20973233333;21473233333
4680;21223951000;20973233333;21473233333
4681;21223952000;20973233333;21473233333
4682;21223953000;20973233333;21473233333
4683;21229814000;20973233333;21473233333
4684;21229816000;20973233333;21473233333
4686;21229898000;20973533333;21473533333
4687;21229911000;20973533333;21473533333
4688;21229913000;20973533333;21473533333
4689;21253444000;21014900000;21514900000
4690;21253447000;21014900000;21514900000
4691;21253449000;21014900000;21514900000
4692;21253449000;21014900000;21514900000
4693;21253450000;21014900000;21514900000
4694;21253451000;21014900000;21514900000
4695;21253452000;21014900000;21514900000
4696;21259919000;21014955555;21514955555
4697;21259935000;21015222222;21515222222
4698;21259936000;21015222222;21515222222
4699;21259937000;21015222222;21515222222
4700;21363256000;21056566666;21556566666
4720;21402203000;21098577777;21598577777
4731;21440036000;21140233333;21640233333
4740;21482540000;21181577777;21681577777
4752;21482546000;21223577777;21723577777
4753;21482547000;21223577777;21723577777
4754;21482548000;21223577777;21723577777
4755;21614303000;21264866666;21764866666
4786;21681523000;21348566666;21848566666
4794;21721259000;21389866666;21889866666
4806;21753454000;21431611111;21931611111
4818;21753460000;21473577777;21973577777
4819;21753461000;21473577777;21973577777
4820;21753462000;21473577777;21973577777
4821;21819479000;21514900000;22014900000
4838;21839873000;21556533333;22056533333
4839;21847021000;21556577777;22056577777
4840;21847027000;21556888888;22056888888
4841;21847029000;21556888888;22056888888
4842;21847030000;21556888888;22056888888
4843;21876458000;21598222222;22098222222
4852;21876554000;21598600000;22098600000
4853;21876557000;21598600000;22098600000
4854;21899234000;21639900000;22139900000
4862;21899287000;21640222222;22140222222
4863;21899290000;21640222222;22140222222
4864;21899291000;21640222222;22140222222
4865;21935357000;21681533333;22181533333
4866;21935361000;21681533333;22181533333
4867;21935362000;21681533333;22181533333
4869;21935363000;21681533333;22181533333
4870;21935364000;21681533333;22181533333
4871;21935365000;21681533333;22181533333
4872;21935474000;21681577777;22181577777
4873;21935479000;21681888888;22181888888
4874;21938347000;21681888888;22181888888
4875;21938349000;21681888888;22181888888
4876;22029412000;21723222222;22223222222
4893;22070333000;21764900000;22264900000
4907;22109608000;21806922222;22306922222
4919;22147032000;21848577777;22348577777
4920;22184464000;21889866666;22389866666
4927;22187180000;21889911111;22389911111
4928;22187186000;21890244444;22390244444
4929;22187188000;21890244444;22390244444
4930;22187189000;21890244444;22390244444
4931;22223787000;21931566666;22431566666
4941;22223862000;21931933333;22431933333
4942;22254724000;21973200000;22473200000
4949;22258922000;21973244444;22473244444
4950;22258928000;21973522222;22473522222
4951;22258929000;21973522222;22473522222
4952;22258930000;21973522222;22473522222
4953;22293178000;22014900000;22514900000
4961;22293262000;22015255555;22515255555
4962;22293265000;22015255555;22515255555
4963;22293266000;22015255555;22515255555
4964;22320611000;22056533333;22556533333
4972;22320685000;22056900000;22556900000
4973;22320687000;22056900000;22556900000
4974;22320688000;22056900000;22556900000
4975;22358916000;22098233333;22598233333
4985;22405436000;22098577777;22598577777
4993;22445101000;22139966666;22639966666
5006;22445107000;22181911111;22681911111
5007;22445108000;22181911111;22681911111
5008;22526236000;22223222222;22723222222
5028;22561294000;22265233333;22765233333
5029;22561306000;22265233333;22765233333
5030;22601589000;22306533333;22806533333
5037;22604291000;22306577777;22806577777
5038;22604296000;22306888888;22806888888
5039;22604298000;22306888888;22806888888
5040;22604299000;22306888888;22806888888
5041;22640859000;22348200000;22848200000
5051;22640933000;22348544444;22848544444
5052;22673243000;22389866666;22889866666
5061;22673317000;22390222222;22890222222
5062;22673319000;22390222222;22890222222
5063;22711535000;22431566666;22931566666
5072;22711609000;22431922222;22931922222
5073;22711611000;22431922222;22931922222
5074;22738730000;22473200000;22973200000
5083;22738784000;22473533333;22973533333
5084;22738786000;22473533333;22973533333
5085;22775677000;22514900000;23014900000
5095;22775751000;22515244444;23015244444
5096;22804574000;22556544444;23056544444
5097;22804576000;22556544444;23056544444
5098;22804577000;22556544444;23056544444
5099;22804578000;22556544444;23056544444
5100;22804579000;22556544444;23056544444
5101;22804580000;22556544444;23056544444
5102;22804581000;22556544444;23056544444
5103;22809205000;22556600000;23056600000
5104;22809211000;22556900000;23056900000
5105;22809212000;22556900000;23056900000
5106;22809213000;22556900000;23056900000
5107;22904998000;22598222222;23098222222
5126;22944063000;22640233333;23140233333
5138;22981905000;22681911111;23181911111
5148;23019926000;22723566666;23223566666
5149;23019930000;22723566666;23223566666
5150;23019931000;22723566666;23223566666
5151;23062015000;22764900000;23264900000
5159;23062090000;22765255555;23265255555
5160;23062092000;22765255555;23265255555
5161;23062093000;22765255555;23265255555
5162;23094944000;22806566666;23306566666
5171;23095018000;22806911111;23306911111
5172;23095021000;22806911111;23306911111
5173;23133719000;22848200000;23348200000
5183;23133793000;22848544444;23348544444
5184;23164415000;22889866666;23389866666
5191;23169271000;22889911111;23389911111
5192;23169277000;22890233333;23390233333
5193;23169278000;22890233333;23390233333
5194;23169279000;22890233333;23390233333
5195;23200263000;22931566666;23431566666
5204;23200337000;22931900000;23431900000
5205;23200339000;22931900000;23431900000
5206;23229055000;22973244444;23473244444
5207;23229059000;22973244444;23473244444
5208;23229805000;22973244444;23473244444
5209;23229806000;22973244444;23473244444
5210;23229808000;22973244444;23473244444
5211;23229809000;22973244444;23473244444
5212;23229810000;22973244444;23473244444
5213;23233703000;22973300000;23473300000
5217;23233709000;23014900000;23514900000
5218;23233711000;23014900000;23514900000
5219;23233712000;23014900000;23514900000
5220;23233713000;23014900000;23514900000
5221;23233714000;23014900000;23514900000
5222;23233715000;23014900000;23514900000
5223;23233716000;23014900000;23514900000
5224;23264326000;23014955555;23514955555
5225;23264331000;23015244444;23515244444
5226;23264332000;23015244444;23515244444
5227;23264333000;23015244444;23515244444
5228;23363196000;23056566666;23556566666
5249;23398561000;23098544444;23598544444
5258;23442017000;23140244444;23640244444
5268;23482780000;23181611111;23681611111
5279;23520082000;23223277777;23723277777
5280;23520086000;23223577777;23723577777
5281;23520087000;23223577777;23723577777
5282;23520088000;23223577777;23723577777
5283;23555942000;23264866666;23764866666
5294;23589365000;23306533333;23806533333
5303;23589438000;23306888888;23806888888
5304;23589440000;23306888888;23806888888
5305;23627624000;23348200000;23848200000
5314;23627679000;23348522222;23848522222
5315;23627682000;23348522222;23848522222
5316;23655882000;23389866666;23889866666
5324;23655955000;23390244444;23890244444
5325;23655958000;23390244444;23890244444
5326;23655959000;23390244444;23890244444
5327;23694033000;23431566666;23931566666
5337;23694107000;23431911111;23931911111
5338;23722524000;23473200000;23973200000
5339;23722528000;23473200000;23973200000
5340;23722529000;23473200000;23973200000
5341;23722530000;23473200000;23973200000
5342;23722531000;23473200000;23973200000
5343;23722532000;23473200000;23973200000
5345;23727419000;23473244444;23973244444
5346;23727425000;23473533333;23973533333
5347;23727426000;23473533333;23973533333
5348;23727427000;23473533333;23973533333
5349;23821414000;23514866666;24014866666
5368;23860625000;23556911111;24056911111
5379;23900566000;23598577777;24098577777
5389;23940991000;23639955555;24139955555
5401;23940997000;23681911111;24181911111
5402;23940999000;23681911111;24181911111
5403;23940999000;23681911111;24181911111
5404;24011820000;23723222222;24223222222
5413;24011893000;23723566666;24223566666
5414;24011896000;23723566666;24223566666
5415;24049738000;23764866666;24264866666
5425;24049824000;23765255555;24265255555
5426;24079368000;23806566666;24306566666
5435;24079442000;23806955555;24306955555
5436;24079444000;23806955555;24306955555
5437;24116450000;23848200000;24348200000
5447;24116536000;23848544444;24348544444
5448;24145297000;23889866666;24389866666
5449;24145300000;23889866666;24389866666
5450;24145301000;23889866666;24389866666
5451;24145302000;23889866666;24389866666
5452;24145303000;23889866666;24389866666
5453;24145304000;23889866666;24389866666
5454;24145305000;23889866666;24389866666
5455;24149909000;23889911111;24389911111
5459;24149915000;23931566666;24431566666
5460;24149917000;23931566666;24431566666
5461;24149918000;23931566666;24431566666
5462;24149919000;23931566666;24431566666
5463;24149920000;23931566666;24431566666
5464;24149921000;23931566666;24431566666
5465;24149922000;23931566666;24431566666
5466;24180734000;23931611111;24431611111
5467;24180740000;23931900000;24431900000
5468;24180741000;23931900000;24431900000
5470;24217838000;23973233333;24473233333
5471;24217841000;23973233333;24473233333
5472;24217842000;23973233333;24473233333
5473;24217843000;23973233333;24473233333
5474;24217844000;23973233333;24473233333
5475;24217845000;23973233333;24473233333
5476;24217846000;23973233333;24473233333
5477;24217918000;23973277777;24473277777
5478;24217923000;23973555555;24473555555
5479;24217924000;23973555555;24473555555
5480;24217925000;23973555555;24473555555
5483;24253115000;24014866666;24514866666
5485;24253118000;24014866666;24514866666
5486;24253119000;24014866666;24514866666
5487;24253119000;24014866666;24514866666
5488;24253185000;24014922222;24514922222
5489;24253189000;24015233333;24515233333
5490;24253191000;24015233333;24515233333
5491;24271216000;24015233333;24515233333
5492;24287541000;24056566666;24556566666
5493;24287544000;24056566666;24556566666
5494;24287545000;24056566666;24556566666
5495;24287546000;24056566666;24556566666
5496;24287547000;24056566666;24556566666
5497;24287548000;24056566666;24556566666
5498;24287549000;24056566666;24556566666
5499;24289805000;24056611111;24556611111
