seqnum;now;rtptime;deadline
12;5315636000;5066744444;5266744444
15;5315641000;5066744444;5266744444
16;5315643000;5066744444;5266744444
17;5315645000;5066744444;5266744444
18;5315646000;5066744444;5266744444
19;5315649000;5066744444;5266744444
20;5315650000;5066744444;5266744444
21;5376393000;5066744444;5266744444
33;5376413000;5150055555;5350055555
34;5376415000;5150055555;5350055555
35;5376416000;5150055555;5350055555
36;5376418000;5150055555;5350055555
37;5376419000;5150055555;5350055555
38;5376420000;5150055555;5350055555
39;5376422000;5150055555;5350055555
40;5376423000;5150055555;5350055555
41;5376424000;5150055555;5350055555
42;5376426000;5150055555;5350055555
43;5459853000;5150055555;5350055555
51;5459866000;5191788888;5391788888
52;5459868000;5191788888;5391788888
53;5459870000;5191788888;5391788888
54;5501372000;5191788888;5391788888
66;5501387000;5275066666;5475066666
67;5501389000;5275066666;5475066666
68;5501390000;5275066666;5475066666
69;5501392000;5275066666;5475066666
70;5501394000;5275066666;5475066666
71;5501404000;5275066666;5475066666
72;5501406000;5275066666;5475066666
73;5501407000;5275066666;5475066666
74;5501408000;5275066666;5475066666
75;5501410000;5275066666;5475066666
76;5584804000;5275066666;5475066666
88;5584810000;5358433333;5558433333
89;5584811000;5358433333;5558433333
90;5584812000;5358433333;5558433333
91;5584814000;5358433333;5558433333
92;5584815000;5358433333;5558433333
93;5584816000;5358433333;5558433333
94;5584817000;5358433333;5558433333
95;5584819000;5358433333;5558433333
96;5584820000;5358433333;5558433333
97;5584821000;5358433333;5558433333
98;5668162000;5358433333;5558433333
104;5668177000;5400055555;5600055555
105;5668179000;5400055555;5600055555
106;5668180000;5400055555;5600055555
107;5668181000;5400055555;5600055555
108;5668182000;5400055555;5600055555
109;5709586000;5400055555;5600055555
120;5751294000;5441766666;5641766666
140;5774055000;5525055555;5725055555
141;5774058000;5525055555;5725055555
142;5834671000;5525055555;5725055555
154;5834677000;5608444444;5808444444
155;5834679000;5608444444;5808444444
156;5834680000;5608444444;5808444444
157;5834681000;5608444444;5808444444
158;5834682000;5608444444;5808444444
159;5834683000;5608444444;5808444444
160;5834684000;5608444444;5808444444
161;5834685000;5608444444;5808444444
162;5834686000;5608444444;5808444444
163;5834687000;5608444444;5808444444
164;5918185000;5608444444;5808444444
173;5918191000;5650044444;5850044444
174;5918192000;5650044444;5850044444
175;5959582000;5650044444;5850044444
187;5959587000;5733400000;5933400000
188;5959589000;5733400000;5933400000
189;5959590000;5733400000;5933400000
190;5959591000;5733400000;5933400000
191;5959591000;5733400000;5933400000
192;5959592000;5733400000;5933400000
193;5959593000;5733400000;5933400000
194;5959594000;5733400000;5933400000
195;5959595000;5733400000;5933400000
196;5959596000;5733400000;5933400000
197;6043138000;5733400000;5933400000
207;6043143000;5775044444;5975044444
208;6084579000;5775044444;5975044444
220;6084584000;5858455555;6058455555
221;6084585000;5858455555;6058455555
222;6084586000;5858455555;6058455555
223;6084587000;5858455555;6058455555
224;6084588000;5858455555;6058455555
225;6084589000;5858455555;6058455555
226;6084590000;5858455555;6058455555
227;6084591000;5858455555;6058455555
228;6084592000;5858455555;6058455555
229;6084593000;5858455555;6058455555
230;6168197000;5858455555;6058455555
240;6168203000;5900088888;6100088888
241;6209619000;5900088888;6100088888
251;6209624000;5941711111;6141711111
252;6251241000;5941711111;6141711111
260;6251247000;5983455555;6183455555
261;6251248000;5983455555;6183455555
262;6251249000;5983455555;6183455555
263;6292985000;5983455555;6183455555
274;6334579000;6025044444;6225044444
283;6334585000;6066711111;6266711111
284;6334586000;6066711111;6266711111
288;6418065000;6108444444;6308444444
309;6501321000;6191700000;6391700000
330;6584839000;6275100000;6475100000
349;6626274000;6316744444;6516744444
362;6668057000;6358433333;6558433333
373;6709658000;6400022222;6600022222
382;6709675000;6441655555;6641655555
383;6709686000;6441655555;6641655555
384;6751274000;6441655555;6641655555
391;6751304000;6483455555;6683455555
392;6751305000;6483455555;6683455555
393;6751307000;6483455555;6683455555
394;6751309000;6483455555;6683455555
398;6834771000;6525033333;6725033333
417;6876303000;6566711111;6766711111
434;6898654000;6650055555;6850055555
435;6898657000;6650055555;6850055555
436;6898658000;6650055555;6850055555
437;6898660000;6650055555;6850055555
438;6898662000;6650055555;6850055555
439;6959721000;6650055555;6850055555
447;6959728000;6691711111;6891711111
448;6959730000;6691711111;6891711111
449;6959732000;6691711111;6891711111
450;7001242000;6691711111;6891711111
462;7001248000;6775044444;6975044444
463;7001250000;6775044444;6975044444
464;7001251000;6775044444;6975044444
465;7001252000;6775044444;6975044444
466;7001254000;6775044444;6975044444
467;7001255000;6775044444;6975044444
468;7001256000;6775044444;6975044444
469;7001257000;6775044444;6975044444
470;7001259000;6775044444;6975044444
471;7001260000;6775044444;6975044444
472;7084788000;6775044444;6975044444
480;7084794000;6816722222;7016722222
481;7084795000;6816722222;7016722222
482;7084796000;6816722222;7016722222
483;7126252000;6816722222;7016722222
495;7126258000;6900100000;7100100000
496;7126259000;6900100000;7100100000
497;7126260000;6900100000;7100100000
498;7126261000;6900100000;7100100000
499;7126262000;6900100000;7100100000
500;7126263000;6900100000;7100100000
501;7126264000;6900100000;7100100000
502;7126265000;6900100000;7100100000
503;7126266000;6900100000;7100100000
504;7126267000;6900100000;7100100000
508;7251325000;6941700000;7141700000
530;7334710000;7025077777;7225077777
548;7376259000;7066711111;7266711111
560;7418102000;7108477777;7308477777
571;7459586000;7150055555;7350055555
584;7482092000;7233444444;7433444444
585;7482104000;7233444444;7433444444
586;7482105000;7233444444;7433444444
587;7482106000;7233444444;7433444444
588;7482107000;7233444444;7433444444
589;7482108000;7233444444;7433444444
590;7482109000;7233444444;7433444444
591;7482110000;7233444444;7433444444
592;7482111000;7233444444;7433444444
593;7543066000;7233444444;7433444444
601;7543072000;7275088888;7475088888
602;7543073000;7275088888;7475088888
603;7543074000;7275088888;7475088888
604;7584619000;7275088888;7475088888
615;7626242000;7316711111;7516711111
626;7667974000;7358444444;7558444444
636;7667979000;7400066666;7600066666
637;7709596000;7400066666;7600066666
651;7732144000;7483444444;7683444444
652;7732146000;7483444444;7683444444
653;7732147000;7483444444;7683444444
654;7732148000;7483444444;7683444444
655;7732149000;7483444444;7683444444
656;7732150000;7483444444;7683444444
657;7732151000;7483444444;7683444444
658;7732151000;7483444444;7683444444
659;7793072000;7483444444;7683444444
668;7793077000;7525066666;7725066666
669;7793079000;7525066666;7725066666
670;7834592000;7525066666;7725066666
682;7834598000;7608422222;7808422222
683;7834600000;7608422222;7808422222
684;7834601000;7608422222;7808422222
685;7834602000;7608422222;7808422222
686;7834603000;7608422222;7808422222
687;7834604000;7608422222;7808422222
688;7834605000;7608422222;7808422222
689;7834606000;7608422222;7808422222
690;7834607000;7608422222;7808422222
691;7834608000;7608422222;7808422222
692;7918167000;7608422222;7808422222
703;7959631000;7650100000;7850100000
713;7959636000;7691744444;7891744444
714;8001276000;7691744444;7891744444
724;8001282000;7733433333;7933433333
725;8042962000;7733433333;7933433333
736;8088056000;7775055555;7975055555
748;8088083000;7858477777;8058477777
749;8088086000;7858477777;8058477777
750;8088087000;7858477777;8058477777
751;8088089000;7858477777;8058477777
752;8088090000;7858477777;8058477777
755;8107224000;7858477777;8058477777
756;8107236000;7858477777;8058477777
757;8107238000;7858477777;8058477777
758;8168111000;7858477777;8058477777
769;8209619000;7900088888;8100088888
776;8209625000;7941722222;8141722222
777;8209627000;7941722222;8141722222
778;8209628000;7941722222;8141722222
779;8209630000;7941722222;8141722222
780;8251253000;7941722222;8141722222
791;8292988000;7983455555;8183455555
801;8293011000;8025044444;8225044444
802;8334587000;8025044444;8225044444
813;8376269000;8066733333;8266733333
825;8376275000;8150066666;8350066666
826;8376276000;8150066666;8350066666
827;8376277000;8150066666;8350066666
828;8376278000;8150066666;8350066666
829;8376279000;8150066666;8350066666
830;8376280000;8150066666;8350066666
831;8376281000;8150066666;8350066666
832;8376282000;8150066666;8350066666
833;8376283000;8150066666;8350066666
834;8376284000;8150066666;8350066666
835;8459809000;8150066666;8350066666
843;8459815000;8191755555;8391755555
847;8543088000;8233455555;8433455555
869;8626524000;8316755555;8516755555
884;8668011000;8358477777;8558477777
895;8709590000;8400055555;8600055555
908;8751208000;8441677777;8641677777
919;8792985000;8483444444;8683444444
933;8834618000;8525077777;8725077777
946;8918219000;8608455555;8808455555
963;8959615000;8650066666;8850066666
975;9001257000;8691722222;8891722222
984;9042946000;8733444444;8933444444
1001;9126474000;8816733333;9016733333
1016;9168000000;8858466666;9058466666
1027;9209590000;8900055555;9100055555
1040;9251261000;8941722222;9141722222
1048;9293008000;8983466666;9183466666
1060;9334585000;9025044444;9225044444
1073;9376246000;9066711111;9266711111
1086;9417996000;9108455555;9308455555
1100;9501435000;9191677777;9391677777
1119;9542978000;9233444444;9433444444
1130;9584574000;9275033333;9475033333
1142;9626254000;9316733333;9516733333
1154;9668012000;9358411111;9558411111
1165;9709585000;9400055555;9600055555
1177;9709591000;9483411111;9683411111
1178;9709592000;9483411111;9683411111
1179;9709593000;9483411111;9683411111
1180;9709594000;9483411111;9683411111
1181;9709594000;9483411111;9683411111
1182;9709596000;9483411111;9683411111
1183;9709596000;9483411111;9683411111
1184;9709597000;9483411111;9683411111
1185;9709598000;9483411111;9683411111
1186;9709599000;9483411111;9683411111
1187;9793151000;9483411111;9683411111
1199;9793157000;9566722222;9766722222
1200;9793158000;9566722222;9766722222
1201;9793159000;9566722222;9766722222
1202;9793160000;9566722222;9766722222
1203;9793161000;9566722222;9766722222
1204;9793162000;9566722222;9766722222
1205;9793163000;9566722222;9766722222
1206;9793164000;9566722222;9766722222
1207;9793165000;9566722222;9766722222
1208;9793166000;9566722222;9766722222
1209;9876466000;9566722222;9766722222
1219;9876472000;9608455555;9808455555
1220;9917986000;9608455555;9808455555
1232;9917992000;9691700000;9891700000
1233;9917993000;9691700000;9891700000
1234;9917994000;9691700000;9891700000
1235;9917995000;9691700000;9891700000
1236;9917996000;9691700000;9891700000
1237;9917996000;9691700000;9891700000
1238;9917997000;9691700000;9891700000
1239;9917998000;9691700000;9891700000
1240;9917999000;9691700000;9891700000
1241;9918000000;9691700000;9891700000
1242;10001444000;9691700000;9891700000
1254;10001450000;9775022222;9975022222
1255;10001451000;9775022222;9975022222
1256;10001452000;9775022222;9975022222
1257;10001453000;9775022222;9975022222
1258;10001454000;9775022222;9975022222
1259;10001455000;9775022222;9975022222
1260;10001456000;9775022222;9975022222
1261;10001456000;9775022222;9975022222
1264;10084651000;9775022222;9975022222
1274;10084657000;9816722222;10016722222
1275;10126260000;9816722222;10016722222
1286;10167987000;9858455555;10058455555
1297;10209588000;9900055555;10100055555
1308;10251259000;9941711111;10141711111
1318;10251265000;9983422222;10183422222
1319;10292953000;9983422222;10183422222
1328;10292959000;10025066666;10225066666
1329;10292960000;10025066666;10225066666
1330;10334598000;10025066666;10225066666
1341;10376193000;10066700000;10266700000
1352;10418026000;10108477777;10308477777
1364;10418031000;10191688888;10391688888
1365;10418032000;10191688888;10391688888
1366;10418033000;10191688888;10391688888
1367;10418034000;10191688888;10391688888
1368;10418035000;10191688888;10391688888
1369;10418036000;10191688888;10391688888
1370;10418037000;10191688888;10391688888
1371;10418038000;10191688888;10391688888
1372;10418039000;10191688888;10391688888
1377;10543080000;10233455555;10433455555
1396;10584733000;10275111111;10475111111
1407;10626275000;10316744444;10516744444
1419;10626281000;10400066666;10600066666
1420;10626282000;10400066666;10600066666
1421;10626283000;10400066666;10600066666
1422;10626284000;10400066666;10600066666
1423;10626285000;10400066666;10600066666
1426;10648870000;10400066666;10600066666
1427;10648873000;10400066666;10600066666
1428;10648874000;10400066666;10600066666
1429;10709695000;10400066666;10600066666
1439;10709701000;10441711111;10641711111
1440;10751238000;10441711111;10641711111
1449;10751244000;10483411111;10683411111
1450;10751245000;10483411111;10683411111
1451;10792942000;10483411111;10683411111
1461;10792948000;10525088888;10725088888
1462;10834623000;10525088888;10725088888
1474;10834629000;10608455555;10808455555
1475;10834630000;10608455555;10808455555
1476;10834631000;10608455555;10808455555
1477;10834632000;10608455555;10808455555
1478;10834633000;10608455555;10808455555
1479;10834634000;10608455555;10808455555
1480;10834635000;10608455555;10808455555
1481;10834636000;10608455555;10808455555
1482;10834636000;10608455555;10808455555
1483;10834637000;10608455555;10808455555
1484;10918200000;10608455555;10808455555
1496;10918206000;10691711111;10891711111
1499;10940442000;10691711111;10891711111
1500;10940444000;10691711111;10891711111
1501;10940445000;10691711111;10891711111
1502;10940446000;10691711111;10891711111
1503;10940447000;10691711111;10891711111
1504;10940448000;10691711111;10891711111
1505;10940449000;10691711111;10891711111
1506;11001356000;10691711111;10891711111
1516;11001362000;10733433333;10933433333
1517;11042964000;10733433333;10933433333
1526;11042970000;10775100000;10975100000
1527;11042971000;10775100000;10975100000
1528;11084631000;10775100000;10975100000
1539;11126282000;10816733333;11016733333
1549;11126288000;10858433333;11058433333
1550;11167964000;10858433333;11058433333
1561;11209620000;10900088888;11100088888
1575;11231984000;10983488888;11183488888
1576;11231986000;10983488888;11183488888
1577;11231987000;10983488888;11183488888
1578;11231988000;10983488888;11183488888
1579;11231989000;10983488888;11183488888
1580;11231999000;10983488888;11183488888
1581;11232000000;10983488888;11183488888
1582;11232001000;10983488888;11183488888
1583;11293119000;10983488888;11183488888
1591;11293125000;11025044444;11225044444
1592;11293126000;11025044444;11225044444
1593;11293127000;11025044444;11225044444
1594;11334566000;11025044444;11225044444
1605;11376276000;11066744444;11266744444
1616;11418016000;11108466666;11308466666
1628;11418022000;11191722222;11391722222
1629;11418024000;11191722222;11391722222
1630;11418025000;11191722222;11391722222
1631;11418026000;11191722222;11391722222
1632;11418027000;11191722222;11391722222
1639;11543320000;11233455555;11433455555
1655;11584645000;11275111111;11475111111
1666;11626289000;11316755555;11516755555
1678;11667990000;11358455555;11558455555
1689;11709637000;11400100000;11600100000
1700;11751231000;11441688888;11641688888
1711;11793017000;11483466666;11683466666
1724;11834590000;11525055555;11725055555
1731;11876278000;11566744444;11766744444
1744;11917943000;11608444444;11808444444
1756;11959618000;11650055555;11850055555
1769;12001280000;11691744444;11891744444
1783;12084704000;11775077777;11975077777
1802;12126278000;11816744444;12016744444
1813;12168031000;11858477777;12058477777
1826;12251446000;11941700000;12141700000
1843;12292978000;11983444444;12183444444
1857;12334433000;12025022222;12225022222
1869;12376318000;12066688888;12266688888
1880;12417856000;12108444444;12308444444
1892;12417863000;12191711111;12391711111
1893;12417864000;12191711111;12391711111
1896;12440498000;12191711111;12391711111
1898;12440501000;12191711111;12391711111
1899;12440502000;12191711111;12391711111
1900;12440502000;12191711111;12391711111
1901;12440503000;12191711111;12391711111
1902;12501335000;12191711111;12391711111
1913;12542942000;12233411111;12433411111
1925;12542948000;12316733333;12516733333
1926;12542949000;12316733333;12516733333
1927;12542950000;12316733333;12516733333
1928;12542951000;12316733333;12516733333
1929;12542952000;12316733333;12516733333
1930;12542961000;12316733333;12516733333
1931;12542962000;12316733333;12516733333
1932;12542963000;12316733333;12516733333
1933;12542963000;12316733333;12516733333
1934;12542964000;12316733333;12516733333
1935;12626477000;12316733333;12516733333
1947;12626483000;12400022222;12600022222
1948;12626484000;12400022222;12600022222
1949;12626485000;12400022222;12600022222
1950;12626486000;12400022222;12600022222
1951;12626487000;12400022222;12600022222
1952;12626488000;12400022222;12600022222
1953;12626489000;12400022222;12600022222
1954;12626490000;12400022222;12600022222
1955;12626491000;12400022222;12600022222
1956;12626492000;12400022222;12600022222
1957;12709768000;12400022222;12600022222
1967;12709774000;12441688888;12641688888
1968;12751216000;12441688888;12641688888
1980;12751221000;12525022222;12725022222
1981;12751222000;12525022222;12725022222
1982;12751223000;12525022222;12725022222
1983;12751224000;12525022222;12725022222
1984;12751225000;12525022222;12725022222
1985;12751226000;12525022222;12725022222
1986;12751227000;12525022222;12725022222
1987;12751228000;12525022222;12725022222
1988;12751229000;12525022222;12725022222
1989;12751230000;12525022222;12725022222
1990;12834786000;12525022222;12725022222
2002;12834793000;12608411111;12808411111
2003;12834794000;12608411111;12808411111
2004;12834795000;12608411111;12808411111
2005;12834796000;12608411111;12808411111
2006;12834797000;12608411111;12808411111
2007;12834798000;12608411111;12808411111
2008;12834799000;12608411111;12808411111
2009;12834800000;12608411111;12808411111
2010;12834801000;12608411111;12808411111
2011;12834802000;12608411111;12808411111
2012;12918142000;12608411111;12808411111
2021;12918148000;12650100000;12850100000
2022;12918149000;12650100000;12850100000
2023;12959622000;12650100000;12850100000
2034;13001258000;12691733333;12891733333
2045;13042936000;12733411111;12933411111
2057;13042942000;12816711111;13016711111
2058;13042943000;12816711111;13016711111
2059;13042944000;12816711111;13016711111
2060;13042945000;12816711111;13016711111
2061;13042946000;12816711111;13016711111
2062;13042947000;12816711111;13016711111
2063;13042948000;12816711111;13016711111
2064;13042949000;12816711111;13016711111
2065;13042950000;12816711111;13016711111
2066;13042951000;12816711111;13016711111
2067;13126462000;12816711111;13016711111
2077;13126468000;12858455555;13058455555
2078;13167986000;12858455555;13058455555
2088;13167991000;12900066666;13100066666
2089;13209599000;12900066666;13100066666
2100;13251255000;12941722222;13141722222
2110;13251261000;12983422222;13183422222
2111;13292954000;12983422222;13183422222
2121;13292959000;13025055555;13225055555
2122;13334535000;13025055555;13225055555
2134;13334541000;13108444444;13308444444
2135;13334542000;13108444444;13308444444
2136;13334543000;13108444444;13308444444
2137;13334544000;13108444444;13308444444
2138;13334545000;13108444444;13308444444
2139;13334546000;13108444444;13308444444
2140;13334547000;13108444444;13308444444
2141;13334548000;13108444444;13308444444
2142;13334548000;13108444444;13308444444
2143;13334549000;13108444444;13308444444
2144;13418188000;13108444444;13308444444
2155;13459581000;13150044444;13350044444
2168;13482087000;13233433333;13433433333
2169;13482089000;13233433333;13433433333
2170;13482090000;13233433333;13433433333
2171;13482091000;13233433333;13433433333
2172;13482092000;13233433333;13433433333
2173;13482093000;13233433333;13433433333
2174;13482094000;13233433333;13433433333
2175;13482095000;13233433333;13433433333
2176;13482096000;13233433333;13433433333
2177;13543035000;13233433333;13433433333
2187;13543041000;13275055555;13475055555
2192;13626410000;13316777777;13516777777
2208;13667989000;13358455555;13558455555
2219;13709636000;13400100000;13600100000
2233;13793199000;13483455555;13683455555
2252;13834645000;13525055555;13725055555
2261;13876308000;13566744444;13766744444
2275;13918064000;13608500000;13808500000
2286;13959601000;13650066666;13850066666
2295;14001313000;13691777777;13891777777
2309;14043068000;13733444444;13933444444
2317;14043083000;13775088888;13975088888
2318;14043092000;13775088888;13975088888
2319;14043093000;13775088888;13975088888
2320;14084620000;13775088888;13975088888
2330;14084626000;13816733333;14016733333
2331;14126267000;13816733333;14016733333
2343;14148754000;13900055555;14100055555
2345;14148757000;13900055555;14100055555
2346;14148758000;13900055555;14100055555
2347;14148759000;13900055555;14100055555
2350;14149005000;13900055555;14100055555
2352;14149007000;13900055555;14100055555
2353;14209683000;13900055555;14100055555
2362;14209689000;13941733333;14141733333
2363;14209690000;13941733333;14141733333
2366;14293110000;13983477777;14183477777
2387;14376339000;14066711111;14266711111
2408;14418105000;14108466666;14308466666
2422;14440333000;14191700000;14391700000
2423;14440335000;14191700000;14391700000
2424;14440336000;14191700000;14391700000
2425;14440337000;14191700000;14391700000
2426;14440338000;14191700000;14391700000
2427;14440339000;14191700000;14391700000
2428;14440340000;14191700000;14391700000
2429;14440350000;14191700000;14391700000
2432;14543088000;14233455555;14433455555
2449;14584708000;14275122222;14475122222
2461;14626289000;14316755555;14516755555
2473;14667967000;14358433333;14558433333
2480;14709625000;14400088888;14600088888
2491;14751212000;14441677777;14641677777
2506;14793027000;14483477777;14683477777
2518;14834699000;14525044444;14725044444
2532;14856998000;14608466666;14808466666
2533;14857000000;14608466666;14808466666
2534;14857001000;14608466666;14808466666
2535;14857002000;14608466666;14808466666
2536;14857003000;14608466666;14808466666
2537;14857004000;14608466666;14808466666
2538;14857014000;14608466666;14808466666
2539;14857015000;14608466666;14808466666
2540;14918114000;14608466666;14808466666
2551;14959586000;14650055555;14850055555
2563;14959592000;14733444444;14933444444
2564;14959594000;14733444444;14933444444
2565;14959594000;14733444444;14933444444
2566;14959595000;14733444444;14933444444
2567;14959596000;14733444444;14933444444
2568;14959597000;14733444444;14933444444
2569;14959598000;14733444444;14933444444
2570;14959599000;14733444444;14933444444
2571;14959600000;14733444444;14933444444
2576;15084698000;14775066666;14975066666
2595;15126354000;14816733333;15016733333
2603;15126369000;14858444444;15058444444
2604;15126371000;14858444444;15058444444
2605;15126372000;14858444444;15058444444
2606;15167960000;14858444444;15058444444
2618;15190428000;14941722222;15141722222
2620;15190431000;14941722222;15141722222
2621;15190432000;14941722222;15141722222
2622;15190433000;14941722222;15141722222
2623;15190434000;14941722222;15141722222
2624;15190435000;14941722222;15141722222
2625;15190436000;14941722222;15141722222
2626;15190437000;14941722222;15141722222
2627;15190438000;14941722222;15141722222
2630;15293105000;14983466666;15183466666
2645;15334589000;15025055555;15225055555
2661;15376339000;15066700000;15266700000
2671;15376354000;15108444444;15308444444
2672;15418006000;15108444444;15308444444
2683;15459597000;15150044444;15350044444
2695;15459603000;15233433333;15433433333
2696;15459604000;15233433333;15433433333
2697;15459605000;15233433333;15433433333
2698;15459606000;15233433333;15433433333
2699;15459607000;15233433333;15433433333
2700;15459608000;15233433333;15433433333
2701;15459609000;15233433333;15433433333
2702;15459610000;15233433333;15433433333
2703;15459611000;15233433333;15433433333
2704;15459612000;15233433333;15433433333
2705;15543177000;15233433333;15433433333
2719;15565281000;15316733333;15516733333
2720;15565284000;15316733333;15516733333
2721;15565285000;15316733333;15516733333
2722;15565286000;15316733333;15516733333
2723;15565287000;15316733333;15516733333
2724;15565288000;15316733333;15516733333
2725;15565289000;15316733333;15516733333
2726;15565290000;15316733333;15516733333
2727;15626364000;15316733333;15516733333
2736;15626370000;15358444444;15558444444
2737;15626371000;15358444444;15558444444
2738;15667991000;15358444444;15558444444
2749;15709595000;15400044444;15600044444
2758;15709601000;15441677777;15641677777
2759;15709602000;15441677777;15641677777
2760;15751205000;15441677777;15641677777
2771;15793010000;15483477777;15683477777
2783;15793016000;15566711111;15766711111
2784;15793017000;15566711111;15766711111
2785;15793018000;15566711111;15766711111
2786;15793019000;15566711111;15766711111
2787;15793020000;15566711111;15766711111
2788;15793021000;15566711111;15766711111
2789;15793022000;15566711111;15766711111
2790;15793022000;15566711111;15766711111
2791;15793023000;15566711111;15766711111
2794;15918288000;15608444444;15808444444
2815;15959704000;15650066666;15850066666
2823;15959719000;15691755555;15891755555
2824;15959725000;15691755555;15891755555
2825;15959727000;15691755555;15891755555
2826;16001286000;15691755555;15891755555
2838;16001292000;15775044444;15975044444
2839;16001293000;15775044444;15975044444
2840;16001294000;15775044444;15975044444
2841;16001295000;15775044444;15975044444
2842;16001296000;15775044444;15975044444
2843;16001297000;15775044444;15975044444
2844;16001298000;15775044444;15975044444
2845;16001299000;15775044444;15975044444
2846;16001300000;15775044444;15975044444
2847;16001301000;15775044444;15975044444
2848;16084790000;15775044444;15975044444
2858;16084796000;15816711111;16016711111
2859;16126242000;15816711111;16016711111
2871;16126248000;15900033333;16100033333
2872;16126249000;15900033333;16100033333
2873;16126250000;15900033333;16100033333
2874;16126251000;15900033333;16100033333
2875;16126252000;15900033333;16100033333
2876;16126253000;15900033333;16100033333
2877;16126254000;15900033333;16100033333
2878;16126255000;15900033333;16100033333
2879;16126255000;15900033333;16100033333
2880;16126256000;15900033333;16100033333
2881;16209777000;15900033333;16100033333
2887;16209783000;15941733333;16141733333
2888;16209784000;15941733333;16141733333
2889;16209785000;15941733333;16141733333
2890;16209786000;15941733333;16141733333
2891;16209787000;15941733333;16141733333
2892;16251264000;15941733333;16141733333
2902;16251270000;15983422222;16183422222
2903;16292953000;15983422222;16183422222
2913;16292959000;16025044444;16225044444
2914;16334582000;16025044444;16225044444
2926;16334588000;16108422222;16308422222
2927;16334589000;16108422222;16308422222
2928;16334590000;16108422222;16308422222
2929;16334591000;16108422222;16308422222
2930;16334592000;16108422222;16308422222
2931;16334593000;16108422222;16308422222
2937;16459844000;16150000000;16350000000
2951;16501199000;16191666666;16391666666
2964;16542968000;16233433333;16433433333
2974;16584574000;16275033333;16475033333
2989;16626270000;16316722222;16516722222
3002;16668089000;16358433333;16558433333
3013;16709582000;16400044444;16600044444
3024;16751171000;16441644444;16641644444
3034;16751177000;16483422222;16683422222
3035;16792953000;16483422222;16683422222
3046;16834609000;16525044444;16725044444
3054;16834615000;16566700000;16766700000
3055;16834616000;16566700000;16766700000
3056;16834617000;16566700000;16766700000
3057;16876232000;16566700000;16766700000
3068;16917987000;16608455555;16808455555
3079;16959572000;16650033333;16850033333
3091;16959577000;16733411111;16933411111
3092;16959578000;16733411111;16933411111
3093;16959579000;16733411111;16933411111
3094;16959580000;16733411111;16933411111
3095;16959581000;16733411111;16933411111
3100;16982202000;16733411111;16933411111
3101;17043039000;16733411111;16933411111
3107;17043045000;16775033333;16975033333
3108;17043046000;16775033333;16975033333
3109;17043047000;16775033333;16975033333
3110;17043048000;16775033333;16975033333
3111;17043049000;16775033333;16975033333
3112;17084570000;16775033333;16975033333
3124;17084576000;16858444444;17058444444
3125;17084578000;16858444444;17058444444
3126;17084579000;16858444444;17058444444
3127;17084580000;16858444444;17058444444
3128;17084581000;16858444444;17058444444
3129;17084581000;16858444444;17058444444
3130;17084582000;16858444444;17058444444
3131;17084583000;16858444444;17058444444
3132;17084584000;16858444444;17058444444
3133;17084585000;16858444444;17058444444
3134;17168184000;16858444444;17058444444
3145;17209580000;16900044444;17100044444
3158;17232080000;16983444444;17183444444
3159;17232083000;16983444444;17183444444
3160;17232091000;16983444444;17183444444
3161;17232092000;16983444444;17183444444
3162;17232093000;16983444444;17183444444
3163;17232094000;16983444444;17183444444
3164;17232095000;16983444444;17183444444
3165;17232096000;16983444444;17183444444
3166;17232096000;16983444444;17183444444
3167;17293073000;16983444444;17183444444
3169;17315437000;17025022222;17225022222
3173;17315686000;17025022222;17225022222
3175;17315688000;17025022222;17225022222
3176;17315689000;17025022222;17225022222
3177;17315691000;17025022222;17225022222
3178;17334459000;17025022222;17225022222
3185;17334464000;17066733333;17266733333
3186;17334466000;17066733333;17266733333
3187;17334467000;17066733333;17266733333
3188;17334468000;17066733333;17266733333
3189;17376265000;17066733333;17266733333
3200;17417977000;17108444444;17308444444
3211;17459569000;17150044444;17350044444
3224;17482103000;17233433333;17433433333
3229;17482310000;17233433333;17433433333
3230;17482312000;17233433333;17433433333
3231;17482313000;17233433333;17433433333
3232;17482314000;17233433333;17433433333
3233;17543062000;17233433333;17433433333
3243;17543068000;17275100000;17475100000
3244;17584631000;17275100000;17475100000
3252;17584637000;17316744444;17516744444
3253;17584638000;17316744444;17516744444
3254;17584639000;17316744444;17516744444
3255;17626276000;17316744444;17516744444
3267;17626281000;17400055555;17600055555
3268;17626283000;17400055555;17600055555
3269;17626284000;17400055555;17600055555
3270;17626285000;17400055555;17600055555
3271;17626286000;17400055555;17600055555
3272;17626286000;17400055555;17600055555
3273;17626287000;17400055555;17600055555
3274;17626288000;17400055555;17600055555
3275;17626289000;17400055555;17600055555
3276;17626290000;17400055555;17600055555
3277;17709792000;17400055555;17600055555
3286;17709798000;17441688888;17641688888
3287;17709799000;17441688888;17641688888
3288;17751257000;17441688888;17641688888
3300;17751262000;17525055555;17725055555
3301;17751264000;17525055555;17725055555
3302;17751265000;17525055555;17725055555
3303;17751266000;17525055555;17725055555
3304;17751267000;17525055555;17725055555
3305;17751268000;17525055555;17725055555
3306;17751269000;17525055555;17725055555
3307;17751270000;17525055555;17725055555
3308;17751271000;17525055555;17725055555
3309;17751271000;17525055555;17725055555
3310;17834799000;17525055555;17725055555
3318;17834805000;17566722222;17766722222
3319;17834806000;17566722222;17766722222
3320;17834808000;17566722222;17766722222
3323;17918061000;17608422222;17808422222
3343;17959689000;17650033333;17850033333
3354;18001264000;17691733333;17891733333
3366;18001270000;17775044444;17975044444
3367;18001271000;17775044444;17975044444
3368;18001273000;17775044444;17975044444
3369;18001273000;17775044444;17975044444
3370;18001274000;17775044444;17975044444
3371;18001275000;17775044444;17975044444
3372;18001276000;17775044444;17975044444
3373;18001277000;17775044444;17975044444
3374;18001278000;17775044444;17975044444
3375;18001279000;17775044444;17975044444
3376;18084782000;17775044444;17975044444
3390;18106992000;17858488888;18058488888
3391;18106994000;17858488888;18058488888
3392;18106995000;17858488888;18058488888
3393;18106996000;17858488888;18058488888
3394;18106997000;17858488888;18058488888
3395;18106998000;17858488888;18058488888
3396;18107008000;17858488888;18058488888
3397;18107009000;17858488888;18058488888
3398;18168131000;17858488888;18058488888
3409;18209592000;17900066666;18100066666
3421;18209598000;17983433333;18183433333
3422;18209600000;17983433333;18183433333
3423;18209601000;17983433333;18183433333
3424;18209602000;17983433333;18183433333
3425;18209603000;17983433333;18183433333
3426;18209604000;17983433333;18183433333
3427;18209605000;17983433333;18183433333
3428;18209605000;17983433333;18183433333
3429;18209606000;17983433333;18183433333
3430;18209608000;17983433333;18183433333
3431;18293177000;17983433333;18183433333
3441;18293183000;18025033333;18225033333
3442;18334569000;18025033333;18225033333
3453;18376253000;18066722222;18266722222
3464;18417921000;18108422222;18308422222
3475;18459469000;18150055555;18350055555
3486;18501221000;18191688888;18391688888
3497;18542955000;18233411111;18433411111
3507;18542970000;18275033333;18475033333
3508;18584588000;18275033333;18475033333
3518;18584594000;18316700000;18516700000
3521;18668054000;18358422222;18558422222
3539;18709590000;18400055555;18600055555
3553;18793209000;18483466666;18683466666
3572;18834600000;18525066666;18725066666
3582;18876248000;18566711111;18766711111
3593;18918006000;18608455555;18808455555
3606;18959677000;18650144444;18850144444
3621;19043035000;18733400000;18933400000
3639;19084643000;18775100000;18975100000
3650;19126234000;18816700000;19016700000
3663;19209780000;18900033333;19100033333
3681;19251222000;18941688888;19141688888
3694;19292994000;18983444444;19183444444
3706;19334671000;19025022222;19225022222
3717;19376253000;19066722222;19266722222
3729;19376258000;19150011111;19350011111
3730;19376259000;19150011111;19350011111
3731;19376260000;19150011111;19350011111
3732;19376261000;19150011111;19350011111
3733;19376262000;19150011111;19350011111
3734;19376263000;19150011111;19350011111
3735;19376264000;19150011111;19350011111
3736;19376265000;19150011111;19350011111
3737;19376266000;19150011111;19350011111
3738;19376267000;19150011111;19350011111
3739;19459748000;19150011111;19350011111
3748;19459755000;19191688888;19391688888
3749;19459756000;19191688888;19391688888
3750;19501219000;19191688888;19391688888
3761;19542954000;19233422222;19433422222
3772;19584576000;19275022222;19475022222
3781;19584581000;19316722222;19516722222
3782;19584583000;19316722222;19516722222
3783;19626248000;19316722222;19516722222
3792;19626263000;19358433333;19558433333
3793;19626264000;19358433333;19558433333
3794;19667963000;19358433333;19558433333
3805;19709575000;19400022222;19600022222
3817;19709582000;19483400000;19683400000
3818;19709583000;19483400000;19683400000
3819;19709584000;19483400000;19683400000
3820;19709585000;19483400000;19683400000
3821;19709586000;19483400000;19683400000
3822;19709587000;19483400000;19683400000
3823;19709588000;19483400000;19683400000
3824;19709589000;19483400000;19683400000
3825;19709590000;19483400000;19683400000
3831;19834656000;19525055555;19725055555
3848;19876212000;19566677777;19766677777
3853;19917937000;19608411111;19808411111
3866;19959554000;19650055555;19850055555
3879;20001212000;19691677777;19891677777
3889;20042842000;19733422222;19933422222
3896;20084540000;19775011111;19975011111
3908;20126257000;19816722222;20016722222
3918;20168009000;19858477777;20058477777
3928;20209605000;19900066666;20100066666
3937;20209714000;19900066666;20100066666
3941;20231774000;19941677777;20141677777
3942;20231776000;19941677777;20141677777
3943;20231777000;19941677777;20141677777
3946;20231972000;19941677777;20141677777
3949;20293078000;19983444444;20183444444
3966;20334604000;20025055555;20225055555
3981;20376302000;20066677777;20266677777
3993;20376318000;20150011111;20350011111
3994;20376319000;20150011111;20350011111
3995;20376320000;20150011111;20350011111
3996;20376321000;20150011111;20350011111
3997;20376322000;20150011111;20350011111
3998;20376323000;20150011111;20350011111
3999;20376324000;20150011111;20350011111
4000;20376325000;20150011111;20350011111
4001;20376326000;20150011111;20350011111
4002;20376326000;20150011111;20350011111
4003;20459753000;20150011111;20350011111
4011;20459759000;20191711111;20391711111
4012;20459760000;20191711111;20391711111
4013;20459761000;20191711111;20391711111
4016;20543080000;20233433333;20433433333
4034;20584646000;20275111111;20475111111
4044;20626258000;20316722222;20516722222
4057;20667943000;20358411111;20558411111
4068;20709546000;20400022222;20600022222
4080;20751301000;20441677777;20641677777
4088;20751307000;20483422222;20683422222
4089;20751309000;20483422222;20683422222
4090;20751310000;20483422222;20683422222
4091;20792954000;20483422222;20683422222
4101;20792960000;20525066666;20725066666
4102;20834597000;20525066666;20725066666
4113;20876221000;20566688888;20766688888
4124;20917997000;20608455555;20808455555
4135;20959567000;20650055555;20850055555
4145;20959581000;20691722222;20891722222
4146;21001221000;20691722222;20891722222
4158;21001236000;20775033333;20975033333
4159;21001238000;20775033333;20975033333
4160;21001239000;20775033333;20975033333
4161;21001240000;20775033333;20975033333
4162;21001241000;20775033333;20975033333
4163;21001242000;20775033333;20975033333
4164;21001243000;20775033333;20975033333
4165;21001244000;20775033333;20975033333
4166;21001245000;20775033333;20975033333
4169;21126593000;20816755555;21016755555
4192;21209693000;20900066666;21100066666
4213;21293082000;20983455555;21183455555
4231;21334622000;21025088888;21225088888
4242;21376245000;21066711111;21266711111
4252;21418041000;21108488888;21308488888
4263;21459660000;21150111111;21350111111
4275;21501239000;21191688888;21391688888
4287;21542969000;21233455555;21433455555
4298;21584624000;21275088888;21475088888
4311;21626365000;21316711111;21516711111
4320;21626381000;21358455555;21558455555
4321;21626383000;21358455555;21558455555
4322;21668035000;21358455555;21558455555
4335;21690333000;21441700000;21641700000
4339;21690336000;21441700000;21641700000
4340;21690337000;21441700000;21641700000
4341;21690338000;21441700000;21641700000
4342;21690339000;21441700000;21641700000
4343;21690340000;21441700000;21641700000
4344;21751310000;21441700000;21641700000
4352;21751316000;21483466666;21683466666
4353;21751318000;21483466666;21683466666
4354;21751319000;21483466666;21683466666
4355;21792993000;21483466666;21683466666
4365;21792999000;21525088888;21725088888
4366;21834620000;21525088888;21725088888
4372;21834626000;21566722222;21766722222
4373;21834627000;21566722222;21766722222
4374;21834628000;21566722222;21766722222
4375;21834629000;21566722222;21766722222
4376;21834630000;21566722222;21766722222
4377;21876254000;21566722222;21766722222
4378;21876259000;21608455555;21808455555
4379;21876260000;21608455555;21808455555
4380;21876262000;21608455555;21808455555
4381;21876263000;21608455555;21808455555
4382;21876263000;21608455555;21808455555
4384;21918129000;21608455555;21808455555
4385;21918140000;21608455555;21808455555
4386;21918141000;21608455555;21808455555
4387;21918142000;21608455555;21808455555
4388;21918268000;21608455555;21808455555
4389;21918273000;21650044444;21850044444
4391;21959539000;21650044444;21850044444
4392;21959541000;21650044444;21850044444
4393;21959542000;21650044444;21850044444
4394;21959543000;21650044444;21850044444
4397;21959544000;21650044444;21850044444
4398;21959545000;21650044444;21850044444
4399;21959655000;21650044444;21850044444
4400;21959661000;21691711111;21891711111
4401;21959662000;21691711111;21891711111
4402;21959663000;21691711111;21891711111
4403;21959664000;21691711111;21891711111
4404;21959665000;21691711111;21891711111
4405;21959666000;21691711111;21891711111
4406;21959667000;21691711111;21891711111
4407;21959667000;21691711111;21891711111
4408;21959668000;21691711111;21891711111
4409;21959669000;21691711111;21891711111
4410;22001239000;21691711111;21891711111
4411;22001245000;21733433333;21933433333
4412;22001246000;21733433333;21933433333
4413;22001257000;21733433333;21933433333
4414;22001258000;21733433333;21933433333
4415;22001259000;21733433333;21933433333
4416;22001260000;21733433333;21933433333
