seqnum;now;rtptime;deadline
2;9634619000;8894711111;9394711111
5;9715625000;8925600000;9425600000
6;9715631000;8925600000;9425600000
7;9715632000;8925600000;9425600000
8;9715633000;8925600000;9425600000
9;9715634000;8925600000;9425600000
10;9715920000;8925611111;9425611111
11;9715942000;8925955555;9425955555
12;9715943000;8925955555;9425955555
13;9715944000;8925955555;9425955555
14;9757103000;8967266666;9467266666
15;9757112000;8967266666;9467266666
16;9757114000;8967266666;9467266666
18;9757116000;8967266666;9467266666
19;9757117000;8967266666;9467266666
20;9757132000;8967266666;9467266666
21;9757413000;8967277777;9467277777
22;9757421000;8967644444;9467644444
23;9757438000;8967644444;9467644444
24;9757439000;8967644444;9467644444
25;9798200000;9008966666;9508966666
26;9798203000;9008966666;9508966666
27;9798204000;9008966666;9508966666
28;9934727000;9008966666;9508966666
29;9934744000;9008966666;9508966666
30;9934747000;9008966666;9508966666
31;9934752000;9008966666;9508966666
32;9985242000;9008977777;9508977777
51;9985257000;9092300000;9592300000
52;9985258000;9092300000;9592300000
53;9985259000;9092300000;9592300000
54;10068528000;9092311111;9592311111
55;10068543000;9092622222;9592622222
56;10068544000;9092622222;9592622222
57;10068545000;9092622222;9592622222
58;10109200000;9133966666;9633966666
59;10109203000;9133966666;9633966666
60;10109204000;9133966666;9633966666
61;10109205000;9133966666;9633966666
62;10109206000;9133966666;9633966666
63;10109207000;9133966666;9633966666
64;10109208000;9133966666;9633966666
65;10109378000;9133977777;9633977777
66;10109382000;9134277777;9634277777
67;10109383000;9134277777;9634277777
68;10109384000;9134277777;9634277777
69;10148898000;9175633333;9675633333
70;10148902000;9175633333;9675633333
71;10148903000;9175633333;9675633333
72;10148904000;9175633333;9675633333
73;10148905000;9175633333;9675633333
74;10235265000;9175633333;9675633333
75;10235268000;9175633333;9675633333
76;10285738000;9175644444;9675644444
110;10285744000;9300888888;9800888888
111;10285745000;9300888888;9800888888
112;10285746000;9300888888;9800888888
113;10449975000;9342300000;9842300000
114;10449979000;9342300000;9842300000
115;10449989000;9342300000;9842300000
116;10449990000;9342300000;9842300000
117;10449991000;9342300000;9842300000
118;10449992000;9342300000;9842300000
119;10449993000;9342300000;9842300000
120;10450145000;9342311111;9842311111
121;10450148000;9342611111;9842611111
122;10450149000;9342611111;9842611111
123;10450149000;9342611111;9842611111
124;10486888000;9383966666;9883966666
125;10486890000;9383966666;9883966666
126;10486891000;9383966666;9883966666
127;10486892000;9383966666;9883966666
128;10486893000;9383966666;9883966666
129;10486894000;9383966666;9883966666
130;10486895000;9383966666;9883966666
131;10487038000;9383977777;9883977777
133;10487932000;9384277777;9884277777
134;10535733000;9384277777;9884277777
135;10586117000;9425633333;9925633333
187;10750540000;9592655555;10092655555
188;10750543000;9592655555;10092655555
189;10750544000;9592655555;10092655555
190;10787481000;9633966666;10133966666
191;10787484000;9633966666;10133966666
194;10787790000;9633966666;10133966666
195;10787792000;9633966666;10133966666
196;10787793000;9633966666;10133966666
197;10788090000;9633977777;10133977777
198;10788123000;9634311111;10134311111
199;10788124000;9634311111;10134311111
200;10788125000;9634311111;10134311111
201;10821651000;9675622222;10175622222
202;10821654000;9675622222;10175622222
203;10821655000;9675622222;10175622222
204;10821656000;9675622222;10175622222
205;10821657000;9675622222;10175622222
206;10821658000;9675622222;10175622222
207;10821659000;9675622222;10175622222
208;10821858000;9675633333;10175633333
209;10821873000;9675933333;10175933333
210;10821874000;9675933333;10175933333
211;10821875000;9675933333;10175933333
212;10852042000;9717300000;10217300000
266;10947172000;9884300000;10384300000
267;10965497000;9925633333;10425633333
268;10965509000;9925633333;10425633333
269;10965511000;9925633333;10425633333
270;10965512000;9925633333;10425633333
271;10965514000;9925633333;10425633333
272;10965544000;9925633333;10425633333
273;10965545000;9925633333;10425633333
274;10965807000;9925644444;10425644444
275;10965815000;9925922222;10425922222
276;10965817000;9925922222;10425922222
277;10965819000;9925922222;10425922222
278;10983289000;9967300000;10467300000
279;10983298000;9967300000;10467300000
280;10983301000;9967300000;10467300000
281;10983303000;9967300000;10467300000
282;10983305000;9967300000;10467300000
283;10983307000;9967300000;10467300000
284;10983308000;9967300000;10467300000
286;10983946000;9967655555;10467655555
288;10983951000;9967655555;10467655555
289;11010559000;10008966666;10508966666
290;11010568000;10008966666;10508966666
291;11137237000;10008966666;10508966666
292;11137242000;10008966666;10508966666
293;11137262000;10008966666;10508966666
294;11137266000;10008966666;10508966666
295;11137282000;10008966666;10508966666
296;11187823000;10008977777;10508977777
347;11187845000;10217300000;10717300000
348;11187847000;10217300000;10717300000
349;11187848000;10217300000;10717300000
350;11187850000;10217300000;10717300000
351;11389792000;10217311111;10717311111
352;11389799000;10217611111;10717611111
353;11389800000;10217611111;10717611111
354;11389802000;10217611111;10717611111
355;11423096000;10258955555;10758955555
356;11423100000;10258955555;10758955555
357;11423101000;10258955555;10758955555
358;11423103000;10258955555;10758955555
359;11423113000;10258955555;10758955555
360;11423114000;10258955555;10758955555
361;11423115000;10258955555;10758955555
362;11423214000;10258966666;10758966666
363;11423217000;10259255555;10759255555
364;11423219000;10259255555;10759255555
365;11423220000;10259255555;10759255555
366;11452767000;10300622222;10800622222
425;11550054000;10508966666;11008966666
426;11550058000;10508966666;11008966666
427;11550059000;10508966666;11008966666
428;11550260000;10508977777;11008977777
429;11550275000;10509266666;11009266666
430;11550276000;10509266666;11009266666
431;11550277000;10509266666;11009266666
432;11562959000;10550622222;11050622222
433;11562962000;10550622222;11050622222
434;11562963000;10550622222;11050622222
435;11562964000;10550622222;11050622222
436;11562965000;10550622222;11050622222
437;11562966000;10550622222;11050622222
438;11562967000;10550622222;11050622222
439;11563139000;10550633333;11050633333
440;11563143000;10550922222;11050922222
441;11563144000;10550922222;11050922222
442;11563145000;10550922222;11050922222
443;11578014000;10592288888;11092288888
444;11578016000;10592288888;11092288888
445;11578017000;10592288888;11092288888
446;11578018000;10592288888;11092288888
447;11578019000;10592288888;11092288888
448;11738349000;10592288888;11092288888
449;11738353000;10592288888;11092288888
450;11788769000;10592300000;11092300000
499;11788775000;10800633333;11300633333
500;11788776000;10800633333;11300633333
501;11788777000;10800633333;11300633333
502;11788778000;10800633333;11300633333
503;11788779000;10800633333;11300633333
504;11788780000;10800633333;11300633333
505;11990866000;10800644444;11300644444
506;11990871000;10800911111;11300911111
507;11990872000;10800911111;11300911111
508;11990873000;10800911111;11300911111
509;12024178000;10842288888;11342288888
510;12024182000;10842288888;11342288888
511;12024183000;10842288888;11342288888
512;12024184000;10842288888;11342288888
513;12024185000;10842288888;11342288888
516;12024679000;10842300000;11342300000
521;12038951000;10883955555;11383955555
523;12038955000;10883955555;11383955555
525;12038957000;10883955555;11383955555
526;12038964000;10883955555;11383955555
528;12057083000;10884266666;11384266666
583;12160072000;11092611111;11592611111
584;12160075000;11092611111;11592611111
585;12160076000;11092611111;11592611111
586;12171259000;11133966666;11633966666
587;12171262000;11133966666;11633966666
588;12171263000;11133966666;11633966666
589;12171264000;11133966666;11633966666
590;12171265000;11133966666;11633966666
591;12171266000;11133966666;11633966666
592;12171267000;11133966666;11633966666
593;12171466000;11133977777;11633977777
594;12171481000;11134288888;11634288888
595;12171482000;11134288888;11634288888
596;12171491000;11134288888;11634288888
597;12184815000;11175633333;11675633333
598;12184819000;11175633333;11675633333
599;12184819000;11175633333;11675633333
600;12184820000;11175633333;11675633333
601;12184821000;11175633333;11675633333
602;12184822000;11175633333;11675633333
603;12184823000;11175633333;11675633333
604;12184994000;11175644444;11675644444
605;12184998000;11175944444;11675944444
606;12339380000;11175944444;11675944444
607;12339383000;11175944444;11675944444
608;12389730000;11217300000;11717300000
661;12554190000;11384266666;11884266666
662;12554200000;11384266666;11884266666
663;12591013000;11425633333;11925633333
664;12591016000;11425633333;11925633333
665;12591018000;11425633333;11925633333
666;12591028000;11425633333;11925633333
667;12591030000;11425633333;11925633333
668;12591031000;11425633333;11925633333
669;12591032000;11425633333;11925633333
670;12591192000;11425644444;11925644444
672;12591205000;11425922222;11925922222
673;12591206000;11425922222;11925922222
674;12625219000;11467288888;11967288888
675;12625221000;11467288888;11967288888
676;12625222000;11467288888;11967288888
677;12625223000;11467288888;11967288888
678;12625225000;11467288888;11967288888
679;12625226000;11467288888;11967288888
680;12625227000;11467288888;11967288888
681;12625372000;11467300000;11967300000
682;12625375000;11467611111;11967611111
683;12625376000;11467611111;11967611111
684;12625377000;11467611111;11967611111
685;12655644000;11508966666;12008966666
741;12769490000;11717300000;12217300000
742;12769494000;11717300000;12217300000
743;12769495000;11717300000;12217300000
744;12769496000;11717300000;12217300000
745;12769497000;11717300000;12217300000
746;12769498000;11717300000;12217300000
747;12769697000;11717311111;12217311111
748;12769712000;11717622222;12217622222
749;12769713000;11717622222;12217622222
750;12769714000;11717622222;12217622222
751;12786786000;11758955555;12258955555
752;12786790000;11758955555;12258955555
753;12786791000;11758955555;12258955555
754;12786792000;11758955555;12258955555
755;12786793000;11758955555;12258955555
756;12786794000;11758955555;12258955555
757;12786794000;11758955555;12258955555
758;12786994000;11758966666;12258966666
759;12787009000;11759266666;12259266666
760;12787010000;11759266666;12259266666
761;12787011000;11759266666;12259266666
762;12803297000;11800622222;12300622222
763;12803300000;11800622222;12300622222
764;12940465000;11800622222;12300622222
765;12940473000;11800622222;12300622222
766;12940485000;11800622222;12300622222
767;12940487000;11800622222;12300622222
768;12940493000;11800622222;12300622222
769;12990909000;11800633333;12300633333
819;12990915000;12008966666;12508966666
820;12990916000;12008966666;12508966666
822;13193177000;12008966666;12508966666
823;13193179000;12008966666;12508966666
824;13193332000;12008977777;12508977777
825;13193335000;12009266666;12509266666
826;13193336000;12009266666;12509266666
827;13193337000;12009266666;12509266666
828;13226336000;12050622222;12550622222
829;13226339000;12050622222;12550622222
830;13226340000;12050622222;12550622222
831;13226341000;12050622222;12550622222
832;13226341000;12050622222;12550622222
833;13226343000;12050622222;12550622222
834;13226343000;12050622222;12550622222
835;13226488000;12050633333;12550633333
836;13226491000;12050922222;12550922222
837;13226492000;12050922222;12550922222
838;13226493000;12050922222;12550922222
839;13256021000;12092300000;12592300000
899;13352468000;12300633333;12800633333
900;13352472000;12300633333;12800633333
901;13352643000;12300644444;12800644444
902;13352647000;12300911111;12800911111
903;13352648000;12300911111;12800911111
904;13352649000;12300911111;12800911111
905;13365536000;12342288888;12842288888
906;13365539000;12342288888;12842288888
907;13365540000;12342288888;12842288888
908;13365541000;12342288888;12842288888
909;13365542000;12342288888;12842288888
910;13365543000;12342288888;12842288888
911;13365544000;12342288888;12842288888
912;13365715000;12342300000;12842300000
913;13365720000;12342611111;12842611111
914;13365721000;12342611111;12842611111
915;13365731000;12342611111;12842611111
916;13380810000;12383955555;12883955555
917;13380813000;12383955555;12883955555
918;13380814000;12383955555;12883955555
919;13380815000;12383955555;12883955555
920;13380816000;12383955555;12883955555
921;13380817000;12383955555;12883955555
922;13541465000;12383955555;12883955555
923;13591881000;12383966666;12883966666
977;13591887000;12592300000;13092300000
978;13794068000;12592311111;13092311111
979;13794074000;12592600000;13092600000
980;13794075000;12592600000;13092600000
981;13794076000;12592600000;13092600000
983;13828695000;12633966666;13133966666
984;13828698000;12633966666;13133966666
985;13828699000;12633966666;13133966666
986;13828700000;12633966666;13133966666
987;13828701000;12633966666;13133966666
988;13828702000;12633966666;13133966666
989;13828823000;12633977777;13133977777
990;13828838000;12634266666;13134266666
991;13828839000;12634266666;13134266666
992;13828840000;12634266666;13134266666
993;13856954000;12675622222;13175622222
1057;13953445000;12884266666;13384266666
1058;13953449000;12884266666;13384266666
1059;13966529000;12925633333;13425633333
1060;13966533000;12925633333;13425633333
1061;13966534000;12925633333;13425633333
1062;13966534000;12925633333;13425633333
1063;13966536000;12925633333;13425633333
1064;13966537000;12925633333;13425633333
1065;13966538000;12925633333;13425633333
1066;13966736000;12925644444;13425644444
1067;13966751000;12925911111;13425911111
1068;13966752000;12925911111;13425911111
1069;13966753000;12925911111;13425911111
1070;13981809000;12967288888;13467288888
1071;13981812000;12967288888;13467288888
1072;13981813000;12967288888;13467288888
1073;13981814000;12967288888;13467288888
1074;13981815000;12967288888;13467288888
1075;13981816000;12967288888;13467288888
1076;13981817000;12967288888;13467288888
1077;13981987000;12967300000;13467300000
1078;13981991000;12967600000;13467600000
1079;13981992000;12967600000;13467600000
1080;14142485000;12967600000;13467600000
1081;14192832000;13008966666;13508966666
1134;14357197000;13175933333;13675933333
1135;14357200000;13175933333;13675933333
1136;14394108000;13217300000;13717300000
1137;14394110000;13217300000;13717300000
1138;14394111000;13217300000;13717300000
1139;14394112000;13217300000;13717300000
1142;14395151000;13217300000;13717300000
1143;14395297000;13217311111;13717311111
1144;14395300000;13217600000;13717600000
1145;14395301000;13217600000;13717600000
1146;14395302000;13217600000;13717600000
1147;14428401000;13258955555;13758955555
1148;14428404000;13258955555;13758955555
1149;14428405000;13258955555;13758955555
1150;14428406000;13258955555;13758955555
1151;14428407000;13258955555;13758955555
1152;14428408000;13258955555;13758955555
1153;14428409000;13258955555;13758955555
1154;14428609000;13258966666;13758966666
1155;14428624000;13259266666;13759266666
1156;14428625000;13259266666;13759266666
1157;14428626000;13259266666;13759266666
1158;14457970000;13300622222;13800622222
1214;14554513000;13508966666;14008966666
1215;14554526000;13508966666;14008966666
1216;14554527000;13508966666;14008966666
1217;14554528000;13508966666;14008966666
1218;14554528000;13508966666;14008966666
1219;14554529000;13508966666;14008966666
1220;14554728000;13508977777;14008977777
1221;14554743000;13509266666;14009266666
1223;14554745000;13509266666;14009266666
1224;14567553000;13550622222;14050622222
1225;14567556000;13550622222;14050622222
1226;14567557000;13550622222;14050622222
1227;14567558000;13550622222;14050622222
1228;14567559000;13550622222;14050622222
1229;14567560000;13550622222;14050622222
1230;14567561000;13550622222;14050622222
1231;14567731000;13550633333;14050633333
1232;14567735000;13550922222;14050922222
1233;14567737000;13550922222;14050922222
1234;14567738000;13550922222;14050922222
1235;14582760000;13592300000;14092300000
1236;14582762000;13592300000;14092300000
1237;14582763000;13592300000;14092300000
1238;14743308000;13592300000;14092300000
1239;14743320000;13592300000;14092300000
1240;14743330000;13592300000;14092300000
1241;14743341000;13592300000;14092300000
1242;14793757000;13592311111;14092311111
1293;14793772000;13800633333;14300633333
1294;14793773000;13800633333;14300633333
1295;14793774000;13800633333;14300633333
1296;14793775000;13800633333;14300633333
1297;14995932000;13800644444;14300644444
1298;14995948000;13800911111;14300911111
1299;14995949000;13800911111;14300911111
1300;14995949000;13800911111;14300911111
1301;15029230000;13842288888;14342288888
1302;15029234000;13842288888;14342288888
1303;15029235000;13842288888;14342288888
1304;15029236000;13842288888;14342288888
1305;15029237000;13842288888;14342288888
1306;15029238000;13842288888;14342288888
1307;15029239000;13842288888;14342288888
1308;15029454000;13842300000;14342300000
1309;15029469000;13842611111;14342611111
1310;15029470000;13842611111;14342611111
1311;15029471000;13842611111;14342611111
1312;15058842000;13883966666;14383966666
1373;15156109000;14092300000;14592300000
1374;15156281000;14092311111;14592311111
1375;15156286000;14092611111;14592611111
1376;15156287000;14092611111;14592611111
1377;15156288000;14092611111;14592611111
1378;15169040000;14133966666;14633966666
1379;15169053000;14133966666;14633966666
1380;15169054000;14133966666;14633966666
1381;15169055000;14133966666;14633966666
1382;15169056000;14133966666;14633966666
1383;15169057000;14133966666;14633966666
1384;15169058000;14133966666;14633966666
1385;15169228000;14133977777;14633977777
1386;15169233000;14134266666;14634266666
1387;15169234000;14134266666;14634266666
1388;15169235000;14134266666;14634266666
1389;15184165000;14175622222;14675622222
1390;15184168000;14175622222;14675622222
1391;15184170000;14175622222;14675622222
1392;15184171000;14175622222;14675622222
1393;15184171000;14175622222;14675622222
1394;15184172000;14175622222;14675622222
1395;15184173000;14175622222;14675622222
1398;15394539000;14175933333;14675933333
1451;15596503000;14383977777;14883977777
1452;15596518000;14384277777;14884277777
1453;15596519000;14384277777;14884277777
1454;15596520000;14384277777;14884277777
1455;15629823000;14425633333;14925633333
1456;15629827000;14425633333;14925633333
1457;15629828000;14425633333;14925633333
1458;15629829000;14425633333;14925633333
1459;15629830000;14425633333;14925633333
1460;15629831000;14425633333;14925633333
1461;15629832000;14425633333;14925633333
1462;15630032000;14425644444;14925644444
1463;15630056000;14425922222;14925922222
1464;15630057000;14425922222;14925922222
1465;15630058000;14425922222;14925922222
1466;15659398000;14467288888;14967288888
1531;15756795000;14675922222;15175922222
1532;15771008000;14717300000;15217300000
1533;15771011000;14717300000;15217300000
1534;15771012000;14717300000;15217300000
1535;15771013000;14717300000;15217300000
1536;15771014000;14717300000;15217300000
1537;15771015000;14717300000;15217300000
1538;15771016000;14717300000;15217300000
1539;15771233000;14717311111;15217311111
1540;15771249000;14717622222;15217622222
1541;15771250000;14717622222;15217622222
1542;15771251000;14717622222;15217622222
1543;15785871000;14758955555;15258955555
1544;15785875000;14758955555;15258955555
1545;15785876000;14758955555;15258955555
1546;15785877000;14758955555;15258955555
1547;15785878000;14758955555;15258955555
1548;15785879000;14758955555;15258955555
1549;15785880000;14758955555;15258955555
1550;15786058000;14758966666;15258966666
1551;15786062000;14759266666;15259266666
1552;15786063000;14759266666;15259266666
1553;15786064000;14759266666;15259266666
1554;15995653000;14800622222;15300622222
1610;16197790000;15008966666;15508966666
1611;16197794000;15008966666;15508966666
1612;16197804000;15008966666;15508966666
1613;16197805000;15008966666;15508966666
1614;16197806000;15008966666;15508966666
1615;16197807000;15008966666;15508966666
1616;16197945000;15008977777;15508977777
1617;16197948000;15009266666;15509266666
1618;16197949000;15009266666;15509266666
1619;16197950000;15009266666;15509266666
1620;16231172000;15050622222;15550622222
1621;16231175000;15050622222;15550622222
1622;16231176000;15050622222;15550622222
1623;16231176000;15050622222;15550622222
1624;16231177000;15050622222;15550622222
1625;16231178000;15050622222;15550622222
1626;16231199000;15050622222;15550622222
1627;16231336000;15050633333;15550633333
1628;16231339000;15050922222;15550922222
1629;16231340000;15050922222;15550922222
1630;16231341000;15050922222;15550922222
1631;16260804000;15092288888;15592288888
1689;16364538000;15300633333;15800633333
1690;16364541000;15300633333;15800633333
1691;16364542000;15300633333;15800633333
1692;16364543000;15300633333;15800633333
1693;16364714000;15300644444;15800644444
1694;16364718000;15300911111;15800911111
1695;16364719000;15300911111;15800911111
1696;16364720000;15300911111;15800911111
1697;16376303000;15342300000;15842300000
1698;16376306000;15342300000;15842300000
1699;16376307000;15342300000;15842300000
1700;16376308000;15342300000;15842300000
1701;16376309000;15342300000;15842300000
1702;16376310000;15342300000;15842300000
1703;16376311000;15342300000;15842300000
1704;16376511000;15342311111;15842311111
1705;16376518000;15342611111;15842611111
1706;16376519000;15342611111;15842611111
1707;16376520000;15342611111;15842611111
1708;16390292000;15383955555;15883955555
1709;16390294000;15383955555;15883955555
1710;16390295000;15383955555;15883955555
1711;16390296000;15383955555;15883955555
1712;16546391000;15383955555;15883955555
1713;16546399000;15383955555;15883955555
1714;16546411000;15383955555;15883955555
1715;16596828000;15383966666;15883966666
1768;16596835000;15592300000;16092300000
1769;16596836000;15592300000;16092300000
1770;16798935000;15592322222;16092322222
1771;16798940000;15592622222;16092622222
1772;16798941000;15592622222;16092622222
1773;16798942000;15592622222;16092622222
1774;16832259000;15633966666;16133966666
1775;16832262000;15633966666;16133966666
1776;16832263000;15633966666;16133966666
1777;16832264000;15633966666;16133966666
1778;16832265000;15633966666;16133966666
1779;16832265000;15633966666;16133966666
1780;16832266000;15633966666;16133966666
1781;16832411000;15633977777;16133977777
1782;16832413000;15634266666;16134266666
1783;16832414000;15634266666;16134266666
1784;16832415000;15634266666;16134266666
1785;16861928000;15675622222;16175622222
1847;16958582000;15883977777;16383977777
1848;16958597000;15884255555;16384255555
1849;16958598000;15884255555;16384255555
1850;16958599000;15884255555;16384255555
1851;16971602000;15925633333;16425633333
1852;16971606000;15925633333;16425633333
1853;16971606000;15925633333;16425633333
1854;16971608000;15925633333;16425633333
1855;16971609000;15925633333;16425633333
1856;16971609000;15925633333;16425633333
1857;16971610000;15925633333;16425633333
1858;16971809000;15925644444;16425644444
1859;16971824000;15925911111;16425911111
1860;16971826000;15925911111;16425911111
1861;16971827000;15925911111;16425911111
1862;16986897000;15967300000;16467300000
1863;16986900000;15967300000;16467300000
1864;16986901000;15967300000;16467300000
1865;16986902000;15967300000;16467300000
1866;16986903000;15967300000;16467300000
1867;16986904000;15967300000;16467300000
1868;16986905000;15967300000;16467300000
1869;16987052000;15967311111;16467311111
1870;17147911000;15967611111;16467611111
1871;17147914000;15967611111;16467611111
1872;17147920000;15967611111;16467611111
1873;17239789000;16008955555;16508955555
1926;17399837000;16175922222;16675922222
1927;17399851000;16175922222;16675922222
1928;17433444000;16217300000;16717300000
1929;17433447000;16217300000;16717300000
1930;17433448000;16217300000;16717300000
1931;17433449000;16217300000;16717300000
1932;17433450000;16217300000;16717300000
1933;17433451000;16217300000;16717300000
1934;17433461000;16217300000;16717300000
1935;17433598000;16217311111;16717311111
1936;17433601000;16217600000;16717600000
1937;17433602000;16217600000;16717600000
1938;17433603000;16217600000;16717600000
1939;17463126000;16258955555;16758955555
2004;17560385000;16467600000;16967600000
2005;17574625000;16508966666;17008966666
2006;17574629000;16508966666;17008966666
2007;17574630000;16508966666;17008966666
2008;17574631000;16508966666;17008966666
2009;17574632000;16508966666;17008966666
2010;17574633000;16508966666;17008966666
2011;17574634000;16508966666;17008966666
2012;17574842000;16508977777;17008977777
2013;17574857000;16509266666;17009266666
2014;17574858000;16509266666;17009266666
2016;17590159000;16550622222;17050622222
2017;17590162000;16550622222;17050622222
2018;17590163000;16550622222;17050622222
2019;17590164000;16550622222;17050622222
2020;17590165000;16550622222;17050622222
2021;17590166000;16550622222;17050622222
2022;17590167000;16550622222;17050622222
2023;17590289000;16550633333;17050633333
2024;17590304000;16550922222;17050922222
2025;17590305000;16550922222;17050922222
2026;17590306000;16550922222;17050922222
2027;17603968000;16592288888;17092288888
2028;17749413000;16592288888;17092288888
2029;17749416000;16592288888;17092288888
2030;17749418000;16592288888;17092288888
2031;17749425000;16592288888;17092288888
2032;17749449000;16592288888;17092288888
2033;17749460000;16592288888;17092288888
2034;17799879000;16592300000;17092300000
2084;17799885000;16800633333;17300633333
2085;17799886000;16800633333;17300633333
2086;17799888000;16800633333;17300633333
2087;17799889000;16800633333;17300633333
2088;17799889000;16800633333;17300633333
2089;18001979000;16800644444;17300644444
2090;18001983000;16800911111;17300911111
2091;18001984000;16800911111;17300911111
2092;18001985000;16800911111;17300911111
2093;18035297000;16842300000;17342300000
2094;18035300000;16842300000;17342300000
2095;18035301000;16842300000;17342300000
2096;18035302000;16842300000;17342300000
2097;18035302000;16842300000;17342300000
2098;18035304000;16842300000;17342300000
2099;18035305000;16842300000;17342300000
2100;18035448000;16842311111;17342311111
2101;18035450000;16842600000;17342600000
2102;18035451000;16842600000;17342600000
2103;18035452000;16842600000;17342600000
2104;18064940000;16883955555;17383955555
2163;18161463000;17092300000;17592300000
2164;18161467000;17092300000;17592300000
2165;18161468000;17092300000;17592300000
2166;18161638000;17092311111;17592311111
2167;18161642000;17092622222;17592622222
2168;18161643000;17092622222;17592622222
2169;18161644000;17092622222;17592622222
2170;18174517000;17133966666;17633966666
2171;18174521000;17133966666;17633966666
2172;18174522000;17133966666;17633966666
2173;18174522000;17133966666;17633966666
2174;18174524000;17133966666;17633966666
2175;18174524000;17133966666;17633966666
2176;18174525000;17133966666;17633966666
2177;18174726000;17133977777;17633977777
2178;18174741000;17134277777;17634277777
2179;18174742000;17134277777;17634277777
2180;18174743000;17134277777;17634277777
2181;18189779000;17175622222;17675622222
2182;18189782000;17175622222;17675622222
2183;18189783000;17175622222;17675622222
2184;18189784000;17175622222;17675622222
2185;18189785000;17175622222;17675622222
2186;18350892000;17175622222;17675622222
2187;18350895000;17175622222;17675622222
2188;18401369000;17175644444;17675644444
2243;18603410000;17383977777;17883977777
2244;18603416000;17384277777;17884277777
2245;18603417000;17384277777;17884277777
2246;18603418000;17384277777;17884277777
2247;18636804000;17425644444;17925644444
2248;18636807000;17425644444;17925644444
2249;18636808000;17425644444;17925644444
2250;18636809000;17425644444;17925644444
2251;18636810000;17425644444;17925644444
2252;18636811000;17425644444;17925644444
2253;18636812000;17425644444;17925644444
2254;18637013000;17425666666;17925666666
2255;18637028000;17425955555;17925955555
2256;18637029000;17425955555;17925955555
2257;18637030000;17425955555;17925955555
2258;18666434000;17467288888;17967288888
2316;18763695000;17675633333;18175633333
2323;18763806000;17675933333;18175933333
2324;18776611000;17717300000;18217300000
2325;18776615000;17717300000;18217300000
2326;18776616000;17717300000;18217300000
2327;18776617000;17717300000;18217300000
2328;18776618000;17717300000;18217300000
2329;18776618000;17717300000;18217300000
2330;18776619000;17717300000;18217300000
2331;18776819000;17717311111;18217311111
2332;18776835000;17717622222;18217622222
2333;18776836000;17717622222;18217622222
2334;18776837000;17717622222;18217622222
2335;18791722000;17758955555;18258955555
2336;18791725000;17758955555;18258955555
2337;18791734000;17758955555;18258955555
2338;18791735000;17758955555;18258955555
2339;18791736000;17758955555;18258955555
2340;18791737000;17758955555;18258955555
2341;18791738000;17758955555;18258955555
2342;18791876000;17758966666;18258966666
2343;18791879000;17759277777;18259277777
2344;18791880000;17759277777;18259277777
2345;18951906000;17759277777;18259277777
2346;19002261000;17800633333;18300633333
2398;19166751000;17967622222;18467622222
2399;19166755000;17967622222;18467622222
2400;19166756000;17967622222;18467622222
2401;19203690000;18008966666;18508966666
2402;19203693000;18008966666;18508966666
2403;19203694000;18008966666;18508966666
2404;19203695000;18008966666;18508966666
2407;19203696000;18008966666;18508966666
2408;19203842000;18008977777;18508977777
2409;19203845000;18009277777;18509277777
2410;19203846000;18009277777;18509277777
2411;19203847000;18009277777;18509277777
2412;19237961000;18050622222;18550622222
2413;19237965000;18050622222;18550622222
2414;19237966000;18050622222;18550622222
2415;19237967000;18050622222;18550622222
2416;19237968000;18050622222;18550622222
2417;19237969000;18050622222;18550622222
2418;19237970000;18050622222;18550622222
2419;19238170000;18050633333;18550633333
2420;19238185000;18050922222;18550922222
2421;19252396000;18050922222;18550922222
2422;19252403000;18050922222;18550922222
2423;19268296000;18092288888;18592288888
2473;19363462000;18259000000;18759000000
2477;19363574000;18259322222;18759322222
2478;19381789000;18300633333;18800633333
2479;19381792000;18300633333;18800633333
2480;19381794000;18300633333;18800633333
2481;19381794000;18300633333;18800633333
2482;19381795000;18300633333;18800633333
2483;19381796000;18300633333;18800633333
2484;19381797000;18300633333;18800633333
2485;19381997000;18300644444;18800644444
2486;19382012000;18300900000;18800900000
2487;19382013000;18300900000;18800900000
2488;19382014000;18300900000;18800900000
2489;19399584000;18342300000;18842300000
2490;19399588000;18342300000;18842300000
2491;19399589000;18342300000;18842300000
2492;19399590000;18342300000;18842300000
2493;19399591000;18342300000;18842300000
2494;19399592000;18342300000;18842300000
2495;19399593000;18342300000;18842300000
2496;19399791000;18342311111;18842311111
2497;19399807000;18342611111;18842611111
2498;19399808000;18342611111;18842611111
2499;19552741000;18342611111;18842611111
2500;19603141000;18383966666;18883966666
2555;19805281000;18592300000;19092300000
2556;19805284000;18592300000;19092300000
2557;19805285000;18592300000;19092300000
2558;19805286000;18592300000;19092300000
2559;19805287000;18592300000;19092300000
2560;19805288000;18592300000;19092300000
2561;19805289000;18592300000;19092300000
2562;19805504000;18592311111;19092311111
2563;19805519000;18592600000;19092600000
2564;19805521000;18592600000;19092600000
2565;19805522000;18592600000;19092600000
2566;19838684000;18633966666;19133966666
2567;19838688000;18633966666;19133966666
2568;19838688000;18633966666;19133966666
2569;19838689000;18633966666;19133966666
2570;19838690000;18633966666;19133966666
2571;19838691000;18633966666;19133966666
2572;19838692000;18633966666;19133966666
2573;19838891000;18633977777;19133977777
2574;19838906000;18634266666;19134266666
2575;19838907000;18634266666;19134266666
2576;19838909000;18634266666;19134266666
2577;19868809000;18675622222;19175622222
2630;19959754000;18842622222;19342622222
2635;19976842000;18883966666;19383966666
2636;19976845000;18883966666;19383966666
2637;19976846000;18883966666;19383966666
2638;19976847000;18883966666;19383966666
2639;19977068000;18883977777;19383977777
2640;19977074000;18884266666;19384266666
2641;19977075000;18884266666;19384266666
2642;19977076000;18884266666;19384266666
2643;19993292000;18925633333;19425633333
2644;19993296000;18925633333;19425633333
2645;19993297000;18925633333;19425633333
2646;19993297000;18925633333;19425633333
2647;19993298000;18925633333;19425633333
2648;19993299000;18925633333;19425633333
2649;19993300000;18925633333;19425633333
2650;19993471000;18925644444;19425644444
2651;19993484000;18925911111;19425911111
2652;19993485000;18925911111;19425911111
2653;19993486000;18925911111;19425911111
2654;20011262000;18967288888;19467288888
2655;20011264000;18967288888;19467288888
2656;20011266000;18967288888;19467288888
2657;20011267000;18967288888;19467288888
2658;20153581000;18967288888;19467288888
2659;20153585000;18967288888;19467288888
2660;20153587000;18967288888;19467288888
2661;20204034000;18967300000;19467300000
2710;20204059000;19175633333;19675633333
2711;20204060000;19175633333;19675633333
2712;20204061000;19175633333;19675633333
2713;20204062000;19175633333;19675633333
2714;20204063000;19175633333;19675633333
2715;20204064000;19175633333;19675633333
2720;20442480000;19217300000;19717300000
2721;20442484000;19217300000;19717300000
2722;20442484000;19217300000;19717300000
2723;20442485000;19217300000;19717300000
2724;20442486000;19217300000;19717300000
2725;20442487000;19217300000;19717300000
2726;20442488000;19217300000;19717300000
2727;20442687000;19217311111;19717311111
2728;20442702000;19217600000;19717600000
2729;20442703000;19217600000;19717600000
2730;20442704000;19217600000;19717600000
2731;20470965000;19258955555;19758955555
2788;20566732000;19467300000;19967300000
2793;20566934000;19467311111;19967311111
2794;20566949000;19467600000;19967600000
2795;20566950000;19467600000;19967600000
2796;20566951000;19467600000;19967600000
2797;20579611000;19508977777;20008977777
2798;20579614000;19508977777;20008977777
2799;20579615000;19508977777;20008977777
2800;20579616000;19508977777;20008977777
2801;20579617000;19508977777;20008977777
2802;20579618000;19508977777;20008977777
2803;20579619000;19508977777;20008977777
2804;20579819000;19508988888;20008988888
2805;20579834000;19509277777;20009277777
2806;20579835000;19509277777;20009277777
2807;20579836000;19509277777;20009277777
2808;20594697000;19550633333;20050633333
2809;20594700000;19550633333;20050633333
2810;20594701000;19550633333;20050633333
2811;20594702000;19550633333;20050633333
2812;20594703000;19550633333;20050633333
2813;20594704000;19550633333;20050633333
2814;20594705000;19550633333;20050633333
2815;20804649000;19550644444;20050644444
2870;21006743000;19758977777;20258977777
2872;21006749000;19759288888;20259288888
2873;21006750000;19759288888;20259288888
2874;21040164000;19800633333;20300633333
2875;21040168000;19800633333;20300633333
2876;21040169000;19800633333;20300633333
2877;21040170000;19800633333;20300633333
2878;21040171000;19800633333;20300633333
2879;21040172000;19800633333;20300633333
2880;21040172000;19800633333;20300633333
2881;21040372000;19800644444;20300644444
2882;21040387000;19800900000;20300900000
2883;21040388000;19800900000;20300900000
2884;21040389000;19800900000;20300900000
2885;21069760000;19842300000;20342300000
2945;21167179000;20050633333;20550633333
2951;21180062000;20092300000;20592300000
2952;21180066000;20092300000;20592300000
2953;21180067000;20092300000;20592300000
2954;21180068000;20092300000;20592300000
2955;21180069000;20092300000;20592300000
2956;21180070000;20092300000;20592300000
2957;21180071000;20092300000;20592300000
2958;21180270000;20092311111;20592311111
2959;21180286000;20092588888;20592588888
2960;21180287000;20092588888;20592588888
2961;21180288000;20092588888;20592588888
2962;21195211000;20133966666;20633966666
2963;21195214000;20133966666;20633966666
2964;21195215000;20133966666;20633966666
2965;21195216000;20133966666;20633966666
2966;21195217000;20133966666;20633966666
2967;21195218000;20133966666;20633966666
2968;21195219000;20133966666;20633966666
2969;21195418000;20133977777;20633977777
2970;21195433000;20134266666;20634266666
2971;21195435000;20134266666;20634266666
2972;21195436000;20134266666;20634266666
2973;21405158000;20175633333;20675633333
3028;21607340000;20383966666;20883966666
3030;21607343000;20383966666;20883966666
3031;21607345000;20383966666;20883966666
3032;21607346000;20383966666;20883966666
3033;21607346000;20383966666;20883966666
3034;21607347000;20383966666;20883966666
3035;21607547000;20383977777;20883977777
3036;21607562000;20384255555;20884255555
3037;21607571000;20384255555;20884255555
3038;21607572000;20384255555;20884255555
3039;21640743000;20425633333;20925633333
3040;21640747000;20425633333;20925633333
3041;21640747000;20425633333;20925633333
3042;21640748000;20425633333;20925633333
3043;21640749000;20425633333;20925633333
3044;21640750000;20425633333;20925633333
3045;21640751000;20425633333;20925633333
3046;21640951000;20425644444;20925644444
3047;21640967000;20425900000;20925900000
3048;21640968000;20425900000;20925900000
3049;21640969000;20425900000;20925900000
3050;21670855000;20467288888;20967288888
3103;21761822000;20634266666;21134266666
3108;21778875000;20675633333;21175633333
3109;21778878000;20675633333;21175633333
3110;21778879000;20675633333;21175633333
3111;21778880000;20675633333;21175633333
3112;21779086000;20675644444;21175644444
3113;21779101000;20675900000;21175900000
3114;21779102000;20675900000;21175900000
3115;21779103000;20675900000;21175900000
3116;21795319000;20717300000;21217300000
3117;21795323000;20717300000;21217300000
3118;21795324000;20717300000;21217300000
3119;21795325000;20717300000;21217300000
3120;21795325000;20717300000;21217300000
3121;21795326000;20717300000;21217300000
3122;21795327000;20717300000;21217300000
3123;21795497000;20717311111;21217311111
3124;21795502000;20717600000;21217600000
3125;21795503000;20717600000;21217600000
3127;21813922000;20758955555;21258955555
3128;21813924000;20758955555;21258955555
3129;21813925000;20758955555;21258955555
3130;21813926000;20758955555;21258955555
3131;21955441000;20758955555;21258955555
3132;21955448000;20758955555;21258955555
3133;21955450000;20758955555;21258955555
3134;22005870000;20758966666;21258966666
3185;22005876000;20967300000;21467300000
3186;22005877000;20967300000;21467300000
3187;22005878000;20967300000;21467300000
3188;22005879000;20967300000;21467300000
3189;22208060000;20967311111;21467311111
3192;22208066000;20967600000;21467600000
3193;22241366000;21008966666;21508966666
3194;22241369000;21008966666;21508966666
3195;22241370000;21008966666;21508966666
3196;22241371000;21008966666;21508966666
3197;22241372000;21008966666;21508966666
3198;22241373000;21008966666;21508966666
3199;22241374000;21008966666;21508966666
3200;22241572000;21008977777;21508977777
3201;22241588000;21009244444;21509244444
3202;22241589000;21009244444;21509244444
3203;22241590000;21009244444;21509244444
3204;22270969000;21050633333;21550633333
3260;22367470000;21258966666;21758966666
3266;22367643000;21258977777;21758977777
3267;22367647000;21259255555;21759255555
3268;22367648000;21259255555;21759255555
3269;22367649000;21259255555;21759255555
3270;22380526000;21300633333;21800633333
3271;22380529000;21300633333;21800633333
3272;22380530000;21300633333;21800633333
3274;22381019000;21300633333;21800633333
3275;22381022000;21300633333;21800633333
3276;22381034000;21300633333;21800633333
3277;22381245000;21300644444;21800644444
3278;22381260000;21300888888;21800888888
3279;22381261000;21300888888;21800888888
3280;22381262000;21300888888;21800888888
3281;22395812000;21342300000;21842300000
3282;22395815000;21342300000;21842300000
3283;22395816000;21342300000;21842300000
3284;22395817000;21342300000;21842300000
3285;22395818000;21342300000;21842300000
3286;22395819000;21342300000;21842300000
3287;22395820000;21342300000;21842300000
3288;22396019000;21342311111;21842311111
3289;22556036000;21342588888;21842588888
3290;22556040000;21342588888;21842588888
3291;22556055000;21342588888;21842588888
3292;22647975000;21383955555;21883955555
3344;22808025000;21550922222;22050922222
3345;22808038000;21550922222;22050922222
3346;22808040000;21550922222;22050922222
3347;22841697000;21592300000;22092300000
3348;22841700000;21592300000;22092300000
3349;22841701000;21592300000;22092300000
3350;22841702000;21592300000;22092300000
3351;22841703000;21592300000;22092300000
3352;22841704000;21592300000;22092300000
3353;22841705000;21592300000;22092300000
3354;22841903000;21592311111;22092311111
3355;22841919000;21592600000;22092600000
3356;22841920000;21592600000;22092600000
3357;22841921000;21592600000;22092600000
3358;22871304000;21633966666;22133966666
3419;22968803000;21842311111;22342311111
3425;22982411000;21883966666;22383966666
3426;22982414000;21883966666;22383966666
3427;22982415000;21883966666;22383966666
3428;22982416000;21883966666;22383966666
3429;22982417000;21883966666;22383966666
3430;22982418000;21883966666;22383966666
3431;22982617000;21883977777;22383977777
3432;22982632000;21884277777;22384277777
3433;22982634000;21884277777;22384277777
3434;22982634000;21884277777;22384277777
3435;22997434000;21925633333;22425633333
3436;22997437000;21925633333;22425633333
3437;22997438000;21925633333;22425633333
3438;22997439000;21925633333;22425633333
3439;22997440000;21925633333;22425633333
3440;22997441000;21925633333;22425633333
3441;22997442000;21925633333;22425633333
3442;22997613000;21925644444;22425644444
3443;22997617000;21925922222;22425922222
3444;22997618000;21925922222;22425922222
3445;22997619000;21925922222;22425922222
3446;23015233000;21967300000;22467300000
3447;23015235000;21967300000;22467300000
3448;23156635000;21967300000;22467300000
3449;23156638000;21967300000;22467300000
3450;23156648000;21967300000;22467300000
3451;23156657000;21967300000;22467300000
3452;23156659000;21967300000;22467300000
3453;23207080000;21967311111;22467311111
3502;23207086000;22175633333;22675633333
3503;23207087000;22175633333;22675633333
3504;23207089000;22175633333;22675633333
3505;23207090000;22175633333;22675633333
3506;23207090000;22175633333;22675633333
3507;23207091000;22175633333;22675633333
3508;23409282000;22175644444;22675644444
3510;23409297000;22175933333;22675933333
3511;23409298000;22175933333;22675933333
3512;23442586000;22217300000;22717300000
3513;23442589000;22217300000;22717300000
3514;23442590000;22217300000;22717300000
3515;23442591000;22217300000;22717300000
3516;23442592000;22217300000;22717300000
3517;23442593000;22217300000;22717300000
3518;23442594000;22217300000;22717300000
3519;23442793000;22217311111;22717311111
3520;23442808000;22217600000;22717600000
3521;23442809000;22217600000;22717600000
3522;23442810000;22217600000;22717600000
3523;23472750000;22258955555;22758955555
3576;23563662000;22425922222;22925922222
3582;23581446000;22467300000;22967300000
3583;23581449000;22467300000;22967300000
3584;23581450000;22467300000;22967300000
3585;23581649000;22467311111;22967311111
3586;23581665000;22467611111;22967611111
3587;23581666000;22467611111;22967611111
3588;23581667000;22467611111;22967611111
3589;23597756000;22508966666;23008966666
3590;23597759000;22508966666;23008966666
3591;23597760000;22508966666;23008966666
3592;23597761000;22508966666;23008966666
3594;23598316000;22508966666;23008966666
3595;23598319000;22508966666;23008966666
3596;23598551000;22508977777;23008977777
3597;23598554000;22509277777;23009277777
3598;23598555000;22509277777;23009277777
3599;23598556000;22509277777;23009277777
3600;23615626000;22550633333;23050633333
3601;23615629000;22550633333;23050633333
3602;23615639000;22550633333;23050633333
3603;23615640000;22550633333;23050633333
3604;23615641000;22550633333;23050633333
3605;23757264000;22550633333;23050633333
3606;23757268000;22550633333;23050633333
3607;23807686000;22550644444;23050644444
3660;23807693000;22758966666;23258966666
3661;23807694000;22758966666;23258966666
3662;24009797000;22758977777;23258977777
3664;24009802000;22759266666;23259266666
3665;24009803000;22759266666;23259266666
3666;24043221000;22800633333;23300633333
3667;24043225000;22800633333;23300633333
3668;24043226000;22800633333;23300633333
3669;24043227000;22800633333;23300633333
3670;24043228000;22800633333;23300633333
3671;24043229000;22800633333;23300633333
3672;24043229000;22800633333;23300633333
3673;24043428000;22800644444;23300644444
3674;24043443000;22800922222;23300922222
3675;24043444000;22800922222;23300922222
3676;24043446000;22800922222;23300922222
3677;24072889000;22842300000;23342300000
3735;24170370000;23050633333;23550633333
3741;24170482000;23050900000;23550900000
3742;24170486000;23050900000;23550900000
3743;24183330000;23092300000;23592300000
3744;24183334000;23092300000;23592300000
3745;24183342000;23092300000;23592300000
3746;24183343000;23092300000;23592300000
3747;24183344000;23092300000;23592300000
3748;24183345000;23092300000;23592300000
3749;24183346000;23092300000;23592300000
3750;24183546000;23092311111;23592311111
3751;24183562000;23092600000;23592600000
3752;24183563000;23092600000;23592600000
3753;24183564000;23092600000;23592600000
3754;24198520000;23133966666;23633966666
3755;24198524000;23133966666;23633966666
3756;24198525000;23133966666;23633966666
3757;24198526000;23133966666;23633966666
3758;24198527000;23133966666;23633966666
3759;24198528000;23133966666;23633966666
3760;24198529000;23133966666;23633966666
3761;24198699000;23133977777;23633977777
3762;24198702000;23134255555;23634255555
3763;24357877000;23134255555;23634255555
3764;24357883000;23134255555;23634255555
3765;24408275000;23175633333;23675633333
3807;24532673000;23300877777;23800877777
3812;24571971000;23342300000;23842300000
3813;24571974000;23342300000;23842300000
3814;24571975000;23342300000;23842300000
3815;24571976000;23342300000;23842300000
3816;24572129000;23342311111;23842311111
3817;24572132000;23342588888;23842588888
3818;24572133000;23342588888;23842588888
3819;24572135000;23342588888;23842588888
3820;24609523000;23383966666;23883966666
3821;24609526000;23383966666;23883966666
3822;24609527000;23383966666;23883966666
3832;24649095000;23425633333;23925633333
3833;24649099000;23425633333;23925633333
3834;24649100000;23425633333;23925633333
3835;24649101000;23425633333;23925633333
3836;24649102000;23425633333;23925633333
3837;24649102000;23425633333;23925633333
3838;24649224000;23425644444;23925644444
3839;24649239000;23425911111;23925911111
3840;24649240000;23425911111;23925911111
3841;24649241000;23425911111;23925911111
3842;24678057000;23467288888;23967288888
3890;24772070000;23633966666;24133966666
3897;24790127000;23675633333;24175633333
3898;24790130000;23675633333;24175633333
3899;24790131000;23675633333;24175633333
3900;24790132000;23675633333;24175633333
3901;24790133000;23675633333;24175633333
3902;24790134000;23675633333;24175633333
3903;24790135000;23675633333;24175633333
3904;24790531000;23675644444;24175644444
3905;24790547000;23675911111;24175911111
3906;24790548000;23675911111;24175911111
3907;24790549000;23675911111;24175911111
3908;24807614000;23717300000;24217300000
3909;24807617000;23717300000;24217300000
3910;24807618000;23717300000;24217300000
3911;24807619000;23717300000;24217300000
3912;24807620000;23717300000;24217300000
3913;24807621000;23717300000;24217300000
3914;24807622000;23717300000;24217300000
3915;24807808000;23717311111;24217311111
3916;24807813000;23717611111;24217611111
3917;24807814000;23717611111;24217611111
3918;24807815000;23717611111;24217611111
3919;24826577000;23758955555;24258955555
3920;24958531000;23758955555;24258955555
3921;24958534000;23758955555;24258955555
3922;24958536000;23758955555;24258955555
3923;24958539000;23758955555;24258955555
3924;24958546000;23758955555;24258955555
3925;24958549000;23758955555;24258955555
3926;25008971000;23758977777;24258977777
3971;25008977000;23925911111;24425911111
3972;25008978000;23925911111;24425911111
3973;25008979000;23925911111;24425911111
3974;25211102000;23967300000;24467300000
3976;25211105000;23967300000;24467300000
3977;25211106000;23967300000;24467300000
3978;25211107000;23967300000;24467300000
3979;25211108000;23967300000;24467300000
3980;25211109000;23967300000;24467300000
3981;25211308000;23967311111;24467311111
3982;25211323000;23967622222;24467622222
3983;25211325000;23967622222;24467622222
3984;25211325000;23967622222;24467622222
3985;25244495000;24008966666;24508966666
3986;25244498000;24008966666;24508966666
3987;25244499000;24008966666;24508966666
3988;25244500000;24008966666;24508966666
3989;25244501000;24008966666;24508966666
3990;25244502000;24008966666;24508966666
3991;25244503000;24008966666;24508966666
3992;25244702000;24008977777;24508977777
3993;25244717000;24009255555;24509255555
3994;25244718000;24009255555;24509255555
3995;25244719000;24009255555;24509255555
3996;25274938000;24050633333;24550633333
4045;25370217000;24217300000;24717300000
4052;25389330000;24258966666;24758966666
4053;25389333000;24258966666;24758966666
4054;25389334000;24258966666;24758966666
4055;25389335000;24258966666;24758966666
4056;25389336000;24258966666;24758966666
4057;25389337000;24258966666;24758966666
4058;25389551000;24258977777;24758977777
4059;25389567000;24259255555;24759255555
4060;25389568000;24259255555;24759255555
4061;25389569000;24259255555;24759255555
4062;25407107000;24300633333;24800633333
4063;25407110000;24300633333;24800633333
4064;25407111000;24300633333;24800633333
4065;25407112000;24300633333;24800633333
4066;25407113000;24300633333;24800633333
4067;25407114000;24300633333;24800633333
4068;25407115000;24300633333;24800633333
4069;25407286000;24300644444;24800644444
4070;25407290000;24300888888;24800888888
4071;25407292000;24300888888;24800888888
4072;25407293000;24300888888;24800888888
4073;25426308000;24342300000;24842300000
4074;25426311000;24342300000;24842300000
4075;25558989000;24342300000;24842300000
4076;25559002000;24342300000;24842300000
4077;25559004000;24342300000;24842300000
4078;25559009000;24342300000;24842300000
4079;25559085000;24342300000;24842300000
4080;25609516000;24342311111;24842311111
4129;25609522000;24550633333;25050633333
4130;25609524000;24550633333;25050633333
4131;25609525000;24550633333;25050633333
4132;25609525000;24550633333;25050633333
4133;25609526000;24550633333;25050633333
4134;25609527000;24550633333;25050633333
4135;25811621000;24550644444;25050644444
4138;25811626000;24550922222;25050922222
4139;25844955000;24592300000;25092300000
4140;25844957000;24592300000;25092300000
4141;25844958000;24592300000;25092300000
4142;25844959000;24592300000;25092300000
4143;25844960000;24592300000;25092300000
4144;25844961000;24592300000;25092300000
4145;25844962000;24592300000;25092300000
4146;25845110000;24592311111;25092311111
4147;25845113000;24592588888;25092588888
4148;25845114000;24592588888;25092588888
4149;25845115000;24592588888;25092588888
4150;25875217000;24633966666;25133966666
4203;25966205000;24800900000;25300900000
4210;25984018000;24842300000;25342300000
4211;25984021000;24842300000;25342300000
4212;25984221000;24842311111;25342311111
4213;25984237000;24842600000;25342600000
4214;25984238000;24842600000;25342600000
4215;25984239000;24842600000;25342600000
4216;26000358000;24883966666;25383966666
4217;26000362000;24883966666;25383966666
4218;26000363000;24883966666;25383966666
4219;26000364000;24883966666;25383966666
4220;26000365000;24883966666;25383966666
4221;26000366000;24883966666;25383966666
4222;26000366000;24883966666;25383966666
4223;26000538000;24883977777;25383977777
4224;26000542000;24884266666;25384266666
4225;26000543000;24884266666;25384266666
4226;26000544000;24884266666;25384266666
4227;26018254000;24925633333;25425633333
4228;26018257000;24925633333;25425633333
4229;26018259000;24925633333;25425633333
4230;26018260000;24925633333;25425633333
4231;26018262000;24925633333;25425633333
4232;26018272000;24925633333;25425633333
4233;26159596000;24925633333;25425633333
4234;26210009000;24925644444;25425644444
4285;26210016000;25133966666;25633966666
4286;26210017000;25133966666;25633966666
4287;26210018000;25133966666;25633966666
4290;26411884000;25134277777;25634277777
4292;26411888000;25134277777;25634277777
4293;26445438000;25175633333;25675633333
4294;26445440000;25175633333;25675633333
4295;26445441000;25175633333;25675633333
4296;26445442000;25175633333;25675633333
4297;26445443000;25175633333;25675633333
4298;26445444000;25175633333;25675633333
4299;26445445000;25175633333;25675633333
4300;26445590000;25175644444;25675644444
4301;26445593000;25175933333;25675933333
4302;26445594000;25175933333;25675933333
4303;26445595000;25175933333;25675933333
4304;26475166000;25217300000;25717300000
4359;26572620000;25425633333;25925633333
4366;26572821000;25425644444;25925644444
4367;26572836000;25425922222;25925922222
4368;26572837000;25425922222;25925922222
4369;26572838000;25425922222;25925922222
4370;26585583000;25467300000;25967300000
4371;26585586000;25467300000;25967300000
4372;26585597000;25467300000;25967300000
4375;26586070000;25467300000;25967300000
4376;26586084000;25467300000;25967300000
4377;26586259000;25467311111;25967311111
4378;26586274000;25467611111;25967611111
4379;26586275000;25467611111;25967611111
4380;26586276000;25467611111;25967611111
4381;26600745000;25508966666;26008966666
4382;26600749000;25508966666;26008966666
4383;26600750000;25508966666;26008966666
4384;26600751000;25508966666;26008966666
4385;26600752000;25508966666;26008966666
4386;26600753000;25508966666;26008966666
4387;26600754000;25508966666;26008966666
4388;26600953000;25508977777;26008977777
4389;26600969000;25509277777;26009277777
4390;26760101000;25509277777;26009277777
4391;26760105000;25509277777;26009277777
4392;26810477000;25550633333;26050633333
4442;26974824000;25717300000;26217300000
4447;27011743000;25758966666;26258966666
4448;27011746000;25758966666;26258966666
4449;27011747000;25758966666;26258966666
4450;27011748000;25758966666;26258966666
4451;27011749000;25758966666;26258966666
4452;27011750000;25758966666;26258966666
4453;27011751000;25758966666;26258966666
4454;27011896000;25758977777;26258977777
4455;27011899000;25759277777;26259277777
4456;27011900000;25759277777;26259277777
4457;27011901000;25759277777;26259277777
4458;27046062000;25800633333;26300633333
4459;27046074000;25800633333;26300633333
4460;27046076000;25800633333;26300633333
4461;27046077000;25800633333;26300633333
4462;27046077000;25800633333;26300633333
4463;27046078000;25800633333;26300633333
4464;27046079000;25800633333;26300633333
4465;27046294000;25800644444;26300644444
4466;27046310000;25800911111;26300911111
4467;27046311000;25800911111;26300911111
4468;27046312000;25800911111;26300911111
4469;27076436000;25842300000;26342300000
4518;27171761000;26008966666;26508966666
4524;27190177000;26050633333;26550633333
4525;27190180000;26050633333;26550633333
4526;27190181000;26050633333;26550633333
4527;27190182000;26050633333;26550633333
4528;27190183000;26050633333;26550633333
4529;27190184000;26050633333;26550633333
4530;27190185000;26050633333;26550633333
4531;27190384000;26050644444;26550644444
4532;27190399000;26050911111;26550911111
4533;27190400000;26050911111;26550911111
4534;27190401000;26050911111;26550911111
4535;27208031000;26092300000;26592300000
4536;27208034000;26092300000;26592300000
4537;27208036000;26092300000;26592300000
4538;27208036000;26092300000;26592300000
4539;27208037000;26092300000;26592300000
4540;27208038000;26092300000;26592300000
4541;27208039000;26092300000;26592300000
4542;27208248000;26092311111;26592311111
4543;27208263000;26092588888;26592588888
4544;27208264000;26092588888;26592588888
4545;27208265000;26092588888;26592588888
4546;27411122000;26133966666;26633966666
4601;27613249000;26342300000;26842300000
4603;27613252000;26342300000;26842300000
4604;27613263000;26342300000;26842300000
4605;27613264000;26342300000;26842300000
4606;27613265000;26342300000;26842300000
4607;27613266000;26342300000;26842300000
4608;27613403000;26342311111;26842311111
4609;27613406000;26342588888;26842588888
4610;27613407000;26342588888;26842588888
4611;27613408000;26342588888;26842588888
4612;27646752000;26383966666;26883966666
4613;27646756000;26383966666;26883966666
4614;27646757000;26383966666;26883966666
4615;27646758000;26383966666;26883966666
4616;27646759000;26383966666;26883966666
4617;27646760000;26383966666;26883966666
4618;27646761000;26383966666;26883966666
4619;27646961000;26383977777;26883977777
4620;27646977000;26384244444;26884244444
4621;27646978000;26384244444;26884244444
4622;27646979000;26384244444;26884244444
4623;27676908000;26425633333;26925633333
4676;27767961000;26592577777;27092577777
4682;27785073000;26633966666;27133966666
4683;27785077000;26633966666;27133966666
4684;27785078000;26633966666;27133966666
4685;27785277000;26633977777;27133977777
4686;27785292000;26634244444;27134244444
4687;27785293000;26634244444;27134244444
4688;27785294000;26634244444;27134244444
4689;27801550000;26675633333;27175633333
4690;27801554000;26675633333;27175633333
4691;27801555000;26675633333;27175633333
4692;27801564000;26675633333;27175633333
4693;27801565000;26675633333;27175633333
4694;27801565000;26675633333;27175633333
4695;27801566000;26675633333;27175633333
4696;27801737000;26675644444;27175644444
4697;27801742000;26675900000;27175900000
4698;27801743000;26675900000;27175900000
4699;27801744000;26675900000;27175900000
4700;27819564000;26717300000;27217300000
4701;27819567000;26717300000;27217300000
4702;27819568000;26717300000;27217300000
4703;27819570000;26717300000;27217300000
4704;27819571000;26717300000;27217300000
4705;27961459000;26717300000;27217300000
4706;27961469000;26717300000;27217300000
4707;28011890000;26717311111;27217311111
4758;28011897000;26925633333;27425633333
4759;28011898000;26925633333;27425633333
4760;28011899000;26925633333;27425633333
4761;28011900000;26925633333;27425633333
4762;28214131000;26925644444;27425644444
4766;28214136000;26967300000;27467300000
4767;28214137000;26967300000;27467300000
4768;28214138000;26967300000;27467300000
4769;28214139000;26967300000;27467300000
4770;28214140000;26967300000;27467300000
4771;28214141000;26967300000;27467300000
4773;28247760000;26967311111;27467311111
4774;28247763000;26967622222;27467622222
4775;28247764000;26967622222;27467622222
4776;28247765000;26967622222;27467622222
4777;28277193000;27008966666;27508966666
4834;28374562000;27217300000;27717300000
4839;28374764000;27217311111;27717311111
4840;28374779000;27217611111;27717611111
4841;28374780000;27217611111;27717611111
4842;28374781000;27217611111;27717611111
4843;28387491000;27258966666;27758966666
4844;28387495000;27258966666;27758966666
4845;28387496000;27258966666;27758966666
4846;28387497000;27258966666;27758966666
4847;28387498000;27258966666;27758966666
4848;28387499000;27258966666;27758966666
4849;28387500000;27258966666;27758966666
4850;28387670000;27258977777;27758977777
4851;28387674000;27259300000;27759300000
4852;28387675000;27259300000;27759300000
4853;28387676000;27259300000;27759300000
4854;28402599000;27300633333;27800633333
4855;28402601000;27300633333;27800633333
4856;28402602000;27300633333;27800633333
4857;28402603000;27300633333;27800633333
4858;28402604000;27300633333;27800633333
4859;28402605000;27300633333;27800633333
4860;28402606000;27300633333;27800633333
4861;28402748000;27300644444;27800644444
4862;28562001000;27300911111;27800911111
4863;28562015000;27300911111;27800911111
4864;28562017000;27300911111;27800911111
4865;28653950000;27342300000;27842300000
4918;28813978000;27509288888;28009288888
4919;28813982000;27509288888;28009288888
4920;28847604000;27550633333;28050633333
4921;28847606000;27550633333;28050633333
4922;28847607000;27550633333;28050633333
4923;28847608000;27550633333;28050633333
4924;28847609000;27550633333;28050633333
4925;28847610000;27550633333;28050633333
4926;28847611000;27550633333;28050633333
4927;28847756000;27550644444;28050644444
4928;28847759000;27550944444;28050944444
4929;28847760000;27550944444;28050944444
4930;28847761000;27550944444;28050944444
4931;28877317000;27592300000;28092300000
4991;28974966000;27800633333;28300633333
4996;28975069000;27800911111;28300911111
4997;28988606000;27842300000;28342300000
4998;28988609000;27842300000;28342300000
4999;28988610000;27842300000;28342300000
5000;28988611000;27842300000;28342300000
5001;28988612000;27842300000;28342300000
5002;28988613000;27842300000;28342300000
5003;28988614000;27842300000;28342300000
5004;28988815000;27842311111;28342311111
5005;28988831000;27842622222;28342622222
5006;28988832000;27842622222;28342622222
5007;28988833000;27842622222;28342622222
5008;29003682000;27883966666;28383966666
5009;29003686000;27883966666;28383966666
5010;29003687000;27883966666;28383966666
5011;29003688000;27883966666;28383966666
5012;29003689000;27883966666;28383966666
5014;29004205000;27883966666;28383966666
5015;29004431000;27883977777;28383977777
5016;29004446000;27884266666;28384266666
5017;29004447000;27884266666;28384266666
5018;29004448000;27884266666;28384266666
5019;29213038000;27925633333;28425633333
5074;29415157000;28133966666;28633966666
5076;29415170000;28133966666;28633966666
5077;29415181000;28133966666;28633966666
5078;29415183000;28133966666;28633966666
5079;29415184000;28133966666;28633966666
5080;29415185000;28133966666;28633966666
5081;29415335000;28133977777;28633977777
5082;29415339000;28134266666;28634266666
5083;29415340000;28134266666;28634266666
5084;29415342000;28134266666;28634266666
5085;29448553000;28175633333;28675633333
5086;29448556000;28175633333;28675633333
5087;29448557000;28175633333;28675633333
5088;29448558000;28175633333;28675633333
5089;29448559000;28175633333;28675633333
5090;29448560000;28175633333;28675633333
5091;29448561000;28175633333;28675633333
5092;29448704000;28175644444;28675644444
5093;29448706000;28175933333;28675933333
5094;29448707000;28175933333;28675933333
5095;29448708000;28175933333;28675933333
5096;29478806000;28217300000;28717300000
5150;29569777000;28384277777;28884277777
5154;29586850000;28425633333;28925633333
5155;29586853000;28425633333;28925633333
5156;29586854000;28425633333;28925633333
5157;29586855000;28425633333;28925633333
5158;29587055000;28425644444;28925644444
5159;29587061000;28425922222;28925922222
5160;29587062000;28425922222;28925922222
5161;29587063000;28425922222;28925922222
5162;29603331000;28467300000;28967300000
5163;29603334000;28467300000;28967300000
5164;29603335000;28467300000;28967300000
5165;29603336000;28467300000;28967300000
5166;29603337000;28467300000;28967300000
5167;29603338000;28467300000;28967300000
5168;29603339000;28467300000;28967300000
5169;29603509000;28467311111;28967311111
5170;29603514000;28467611111;28967611111
5171;29603515000;28467611111;28967611111
5172;29603516000;28467611111;28967611111
5173;29621326000;28508966666;29008966666
5174;29621329000;28508966666;29008966666
5175;29621330000;28508966666;29008966666
5176;29621332000;28508966666;29008966666
5177;29763373000;28508966666;29008966666
5178;29763385000;28508966666;29008966666
5179;29763388000;28508966666;29008966666
5180;29813848000;28508977777;29008977777
5232;29813863000;28717300000;29217300000
5233;29813865000;28717300000;29217300000
5234;29813866000;28717300000;29217300000
5235;30016014000;28717311111;29217311111
5237;30016029000;28717622222;29217622222
5238;30016030000;28717622222;29217622222
5239;30049323000;28758966666;29258966666
5240;30049327000;28758966666;29258966666
5241;30049328000;28758966666;29258966666
5242;30049329000;28758966666;29258966666
5243;30049330000;28758966666;29258966666
5244;30049330000;28758966666;29258966666
5245;30049331000;28758966666;29258966666
5246;30049503000;28758977777;29258977777
5247;30049507000;28759277777;29259277777
5248;30049508000;28759277777;29259277777
5249;30049509000;28759277777;29259277777
5250;30078902000;28800644444;29300644444
5305;30176231000;29008966666;29508966666
5311;30364012000;29008966666;29508966666
5314;30364149000;29009255555;29509255555
5322;30364178000;29050633333;29550633333
5323;30364276000;29050644444;29550644444
5331;30364283000;29092300000;29592300000
5332;30364285000;29092300000;29592300000
5333;30364287000;29092300000;29592300000
5334;30364404000;29092311111;29592311111
5339;30364520000;29133966666;29633966666
5341;30364523000;29133966666;29633966666
5342;30364526000;29133966666;29633966666
5343;30364532000;29133966666;29633966666
5345;30456023000;29133977777;29633977777
5391;30456039000;29300900000;29800900000
5392;30456040000;29300900000;29800900000
5393;30649512000;29342300000;29842300000
5394;30649526000;29342300000;29842300000
5395;30649527000;29342300000;29842300000
5396;30649528000;29342300000;29842300000
5397;30649529000;29342300000;29842300000
5398;30649530000;29342300000;29842300000
5399;30649531000;29342300000;29842300000
5400;30649675000;29342311111;29842311111
5401;30649678000;29342633333;29842633333
5402;30649679000;29342633333;29842633333
5403;30649680000;29342633333;29842633333
5404;30679227000;29383966666;29883966666
5465;30776715000;29592300000;30092300000
5470;30790305000;29633966666;30133966666
5471;30790308000;29633966666;30133966666
5472;30790310000;29633966666;30133966666
5473;30790311000;29633966666;30133966666
5474;30790311000;29633966666;30133966666
5475;30790322000;29633966666;30133966666
5476;30790323000;29633966666;30133966666
5477;30790529000;29633988888;30133988888
5478;30790545000;29634266666;30134266666
5479;30790546000;29634266666;30134266666
5480;30790547000;29634266666;30134266666
5481;30805319000;29675633333;30175633333
5482;30805322000;29675633333;30175633333
5483;30805323000;29675633333;30175633333
5484;30805324000;29675633333;30175633333
5485;30805325000;29675633333;30175633333
5486;30805326000;29675633333;30175633333
5487;30805327000;29675633333;30175633333
5488;30805525000;29675644444;30175644444
5489;30805541000;29675922222;30175922222
5490;30805542000;29675922222;30175922222
5491;30805543000;29675922222;30175922222
5492;31014970000;29717300000;30217300000
5493;31014973000;29717300000;30217300000
5494;31014974000;29717300000;30217300000
5495;31014975000;29717300000;30217300000
5496;31014976000;29717300000;30217300000
5497;31014977000;29717300000;30217300000
5498;31014978000;29717300000;30217300000
5499;31015192000;29717311111;30217311111
