seqnum;now;rtptime;deadline
1;5636274000;5544522222;6044522222
2;5636277000;5544522222;6044522222
3;5667458000;5575733333;6075733333
4;5667478000;5575733333;6075733333
5;5667480000;5575733333;6075733333
7;5667482000;5575733333;6075733333
10;6672284000;5575755555;6075755555
11;6672291000;5576077777;6076077777
12;6672292000;5576077777;6076077777
13;6672293000;5576077777;6076077777
14;6713494000;5617366666;6117366666
15;6713497000;5617366666;6117366666
16;6713498000;5617366666;6117366666
17;6713499000;5617366666;6117366666
19;6713500000;5617366666;6117366666
20;6713502000;5617366666;6117366666
21;6713709000;5617388888;6117388888
22;6713725000;5617777777;6117777777
23;6713726000;5617777777;6117777777
24;6713727000;5617777777;6117777777
25;6755164000;5659033333;6159033333
26;6755168000;5659033333;6159033333
27;6755169000;5659033333;6159033333
28;6755170000;5659033333;6159033333
29;6755171000;5659033333;6159033333
31;6755172000;5659033333;6159033333
33;6755422000;5659388888;6159388888
35;6755425000;5659388888;6159388888
36;6796759000;5700700000;6200700000
42;6796762000;5700700000;6200700000
43;6796961000;5700711111;6200711111
44;6796977000;5701077777;6201077777
45;6796978000;5701077777;6201077777
46;6796979000;5701077777;6201077777
50;6838065000;5742366666;6242366666
57;6838177000;5742688888;6242688888
58;6879012000;5784033333;6284033333
78;6918896000;5826044444;6326044444
106;7028864000;5950722222;6450722222
156;7131768000;6117700000;6617700000
234;7206085000;6450700000;6950700000
282;7238840000;6617377777;7117377777
288;7238974000;6617700000;7117700000
291;7248744000;6659033333;7159033333
299;7248863000;6659322222;7159322222
300;7262479000;6700700000;7200700000
304;7262497000;6700700000;7200700000
305;7262499000;6700700000;7200700000
306;7262500000;6700700000;7200700000
307;7262759000;6700711111;7200711111
308;7262766000;6701000000;7201000000
309;7262767000;6701000000;7201000000
310;7262769000;6701000000;7201000000
311;7271756000;6742377777;7242377777
312;7271763000;6742377777;7242377777
313;7271765000;6742377777;7242377777
314;7271767000;6742377777;7242377777
315;7271768000;6742377777;7242377777
316;7271769000;6742377777;7242377777
317;7271771000;6742377777;7242377777
318;7271981000;6742388888;7242388888
319;7271997000;6742700000;7242700000
320;7271999000;6742700000;7242700000
321;7272000000;6742700000;7242700000
322;7352877000;6784033333;7284033333
335;7393602000;6825700000;7325700000
342;7393714000;6825988888;7325988888
343;7393718000;6825988888;7325988888
344;7432513000;6867366666;7367366666
345;7432517000;6867366666;7367366666
346;7432518000;6867366666;7367366666
347;7432519000;6867366666;7367366666
348;7432520000;6867366666;7367366666
349;7432521000;6867366666;7367366666
350;7432522000;6867366666;7367366666
351;7432721000;6867377777;7367377777
352;7432736000;6867688888;7367688888
353;7432738000;6867688888;7367688888
354;7432739000;6867688888;7367688888
355;7472038000;6909022222;7409022222
356;7472041000;6909022222;7409022222
357;7472056000;6909022222;7409022222
358;7472057000;6909022222;7409022222
359;7472058000;6909022222;7409022222
360;7472059000;6909022222;7409022222
362;7472230000;6909044444;7409044444
363;7472234000;6909333333;7409333333
365;7472235000;6909333333;7409333333
366;7506877000;6950688888;7450688888
367;7506879000;6950688888;7450688888
368;7506880000;6950688888;7450688888
370;7506881000;6950688888;7450688888
371;7506882000;6950688888;7450688888
372;7506883000;6950688888;7450688888
376;7506955000;6950977777;7450977777
377;7545460000;6992366666;7492366666
378;7545464000;6992366666;7492366666
379;7545465000;6992366666;7492366666
381;7545544000;6992366666;7492366666
382;7545556000;6992366666;7492366666
383;7565792000;6992366666;7492366666
384;7616287000;6992377777;7492377777
385;7616302000;6992677777;7492677777
386;7616303000;6992677777;7492677777
387;7616304000;6992677777;7492677777
388;7657759000;7034022222;7534022222
392;7657762000;7034022222;7534022222
393;7657763000;7034022222;7534022222
396;7658134000;7034333333;7534333333
397;7658137000;7034333333;7534333333
398;7658138000;7034333333;7534333333
399;7699359000;7075700000;7575700000
411;7740733000;7117366666;7617366666
429;7781670000;7159355555;7659355555
451;7860422000;7242666666;7742666666
468;7932251000;7325700000;7825700000
475;7932363000;7325977777;7825977777
476;7964026000;7367366666;7867366666
481;7964029000;7367366666;7867366666
482;7964030000;7367366666;7867366666
483;7964239000;7367388888;7867388888
484;7964254000;7367677777;7867677777
487;7987556000;7409033333;7909033333
488;7987559000;7409033333;7909033333
489;7987560000;7409033333;7909033333
490;7987561000;7409033333;7909033333
491;7987562000;7409033333;7909033333
492;7987563000;7409033333;7909033333
493;7987564000;7409033333;7909033333
494;7987657000;7409055555;7909055555
496;7987660000;7409355555;7909355555
497;7987661000;7409355555;7909355555
498;8015965000;7450700000;7950700000
499;8015969000;7450700000;7950700000
501;8015980000;7450700000;7950700000
502;8015982000;7450700000;7950700000
503;8015983000;7450700000;7950700000
504;8015983000;7450700000;7950700000
505;8016203000;7450711111;7950711111
506;8016218000;7451000000;7951000000
507;8016220000;7451000000;7951000000
508;8016221000;7451000000;7951000000
509;8044278000;7492366666;7992366666
510;8044281000;7492366666;7992366666
511;8044282000;7492366666;7992366666
512;8044283000;7492366666;7992366666
513;8044284000;7492366666;7992366666
516;8044484000;7492388888;7992388888
517;8044499000;7492677777;7992677777
518;8044500000;7492677777;7992677777
520;8071587000;7534033333;8034033333
521;8071590000;7534033333;8034033333
522;8071591000;7534033333;8034033333
524;8071593000;7534033333;8034033333
525;8071594000;7534033333;8034033333
526;8071594000;7534033333;8034033333
527;8071714000;7534055555;8034055555
528;8071730000;7534344444;8034344444
529;8071731000;7534344444;8034344444
532;8099798000;7575700000;8075700000
533;8099802000;7575700000;8075700000
534;8099803000;7575700000;8075700000
535;8099804000;7575700000;8075700000
536;8099805000;7575700000;8075700000
537;8099805000;7575700000;8075700000
538;8099925000;7575711111;8075711111
539;8099940000;7576011111;8076011111
540;8099941000;7576011111;8076011111
541;8099942000;7576011111;8076011111
542;8129410000;7617366666;8117366666
543;8129413000;7617366666;8117366666
544;8129414000;7617366666;8117366666
545;8129415000;7617366666;8117366666
546;8129416000;7617366666;8117366666
547;8129417000;7617366666;8117366666
548;8129418000;7617366666;8117366666
549;8129589000;7617377777;8117377777
551;8129593000;7617700000;8117700000
552;8129594000;7617700000;8117700000
553;8160779000;7659033333;8159033333
554;8160782000;7659033333;8159033333
555;8160783000;7659033333;8159033333
556;8160784000;7659033333;8159033333
557;8160785000;7659033333;8159033333
559;8160786000;7659033333;8159033333
560;8161001000;7659055555;8159055555
561;8161017000;7659355555;8159355555
562;8198674000;7659355555;8159355555
563;8198676000;7659355555;8159355555
564;8291550000;7700700000;8200700000
565;8291554000;7700700000;8200700000
566;8291555000;7700700000;8200700000
567;8291556000;7700700000;8200700000
568;8291557000;7700700000;8200700000
570;8291558000;7700700000;8200700000
571;8291757000;7700711111;8200711111
572;8291773000;7701000000;8201000000
573;8291774000;7701000000;8201000000
574;8291775000;7701000000;8201000000
575;8332391000;7742366666;8242366666
579;8332394000;7742366666;8242366666
580;8332395000;7742366666;8242366666
581;8332396000;7742366666;8242366666
582;8332595000;7742377777;8242377777
583;8332611000;7742677777;8242677777
584;8332612000;7742677777;8242677777
585;8332613000;7742677777;8242677777
586;8373165000;7784033333;8284033333
595;8373241000;7784366666;8284366666
596;8373243000;7784366666;8284366666
597;8413507000;7825711111;8325711111
611;8452994000;7867366666;8367366666
617;8453111000;7867677777;8367677777
618;8453114000;7867677777;8367677777
619;8492006000;7909033333;8409033333
622;8492013000;7909033333;8409033333
623;8492015000;7909033333;8409033333
624;8492016000;7909033333;8409033333
625;8492018000;7909033333;8409033333
626;8492249000;7909044444;8409044444
627;8492265000;7909355555;8409355555
628;8492266000;7909355555;8409355555
629;8492284000;7909355555;8409355555
630;8529239000;7950711111;8450711111
631;8529243000;7950711111;8450711111
632;8529244000;7950711111;8450711111
633;8529245000;7950711111;8450711111
634;8529247000;7950711111;8450711111
636;8529249000;7950711111;8450711111
637;8529432000;7950722222;8450722222
638;8529447000;7951000000;8451000000
641;8559748000;7992366666;8492366666
642;8559751000;7992366666;8492366666
643;8559753000;7992366666;8492366666
645;8559754000;7992366666;8492366666
646;8559755000;7992366666;8492366666
649;8559768000;7992677777;8492677777
650;8559769000;7992677777;8492677777
652;8596739000;8034033333;8534033333
653;8596742000;8034033333;8534033333
654;8596743000;8034033333;8534033333
656;8596744000;8034033333;8534033333
657;8596745000;8034033333;8534033333
658;8596746000;8034033333;8534033333
659;8596864000;8034044444;8534044444
660;8596880000;8034344444;8534344444
662;8596881000;8034344444;8534344444
663;8630808000;8075700000;8575700000
664;8630811000;8075700000;8575700000
665;8630813000;8075700000;8575700000
667;8630814000;8075700000;8575700000
668;8630814000;8075700000;8575700000
669;8630815000;8075700000;8575700000
670;8631016000;8075711111;8575711111
671;8631031000;8075977777;8575977777
672;8631033000;8075977777;8575977777
673;8631033000;8075977777;8575977777
674;8664613000;8117366666;8617366666
675;8664616000;8117366666;8617366666
677;8664617000;8117366666;8617366666
678;8664618000;8117366666;8617366666
679;8664619000;8117366666;8617366666
680;8664620000;8117366666;8617366666
681;8716679000;8117388888;8617388888
688;8727370000;8159022222;8659022222
692;8758114000;8159044444;8659044444
696;8758129000;8200700000;8700700000
697;8758131000;8200700000;8700700000
698;8758132000;8200700000;8700700000
699;8758133000;8200700000;8700700000
700;8758134000;8200700000;8700700000
701;8758134000;8200700000;8700700000
706;8799818000;8201022222;8701022222
710;8841039000;8242366666;8742366666
720;8881841000;8284033333;8784033333
732;8921887000;8325700000;8825700000
740;8960181000;8367366666;8867366666
750;8960293000;8367688888;8867688888
751;8993560000;8409044444;8909044444
766;9031881000;8450700000;8950700000
771;9031994000;8451000000;8951000000
772;9031997000;8451000000;8951000000
773;9067901000;8492366666;8992366666
776;9067904000;8492366666;8992366666
777;9067905000;8492366666;8992366666
778;9067906000;8492366666;8992366666
779;9067907000;8492366666;8992366666
780;9068109000;8492377777;8992377777
781;9068124000;8492688888;8992688888
782;9068125000;8492688888;8992688888
784;9103150000;8534033333;9034033333
785;9103153000;8534033333;9034033333
786;9103154000;8534033333;9034033333
787;9103155000;8534033333;9034033333
788;9103156000;8534033333;9034033333
789;9103157000;8534033333;9034033333
790;9103158000;8534033333;9034033333
791;9103277000;8534055555;9034055555
792;9103293000;8534377777;9034377777
793;9103294000;8534377777;9034377777
794;9103295000;8534377777;9034377777
795;9133069000;8575700000;9075700000
796;9133072000;8575700000;9075700000
797;9133073000;8575700000;9075700000
798;9133074000;8575700000;9075700000
799;9133075000;8575700000;9075700000
800;9133076000;8575700000;9075700000
801;9133077000;8575700000;9075700000
802;9133214000;8575711111;9075711111
803;9133217000;8575988888;9075988888
804;9133218000;8575988888;9075988888
805;9133219000;8575988888;9075988888
806;9164067000;8617366666;9117366666
807;9164080000;8617366666;9117366666
808;9164081000;8617366666;9117366666
809;9164082000;8617366666;9117366666
810;9164083000;8617366666;9117366666
811;9164084000;8617366666;9117366666
812;9164085000;8617366666;9117366666
813;9164267000;8617388888;9117388888
814;9164283000;8617688888;9117688888
815;9164284000;8617688888;9117688888
816;9164285000;8617688888;9117688888
817;9198777000;8659033333;9159033333
819;9198780000;8659033333;9159033333
820;9198781000;8659033333;9159033333
821;9198782000;8659033333;9159033333
822;9198783000;8659033333;9159033333
823;9198784000;8659033333;9159033333
824;9198982000;8659055555;9159055555
825;9198998000;8659355555;9159355555
826;9198999000;8659355555;9159355555
827;9199000000;8659355555;9159355555
828;9233942000;8700700000;9200700000
829;9233946000;8700700000;9200700000
830;9233947000;8700700000;9200700000
831;9233948000;8700700000;9200700000
832;9233949000;8700700000;9200700000
834;9233950000;8700700000;9200700000
835;9234129000;8700711111;9200711111
836;9234133000;8701011111;9201011111
837;9234134000;8701011111;9201011111
838;9234135000;8701011111;9201011111
839;9269147000;8742366666;9242366666
840;9269150000;8742366666;9242366666
841;9269151000;8742366666;9242366666
842;9269152000;8742366666;9242366666
843;9269153000;8742366666;9242366666
844;9269154000;8742366666;9242366666
845;9269164000;8742366666;9242366666
846;9269298000;8742377777;9242377777
847;9269300000;8742688888;9242688888
848;9269301000;8742688888;9242688888
849;9269302000;8742688888;9242688888
850;9303965000;8784033333;9284033333
851;9303968000;8784033333;9284033333
852;9303969000;8784033333;9284033333
853;9303979000;8784033333;9284033333
854;9303980000;8784033333;9284033333
855;9303981000;8784033333;9284033333
856;9303982000;8784033333;9284033333
857;9304186000;8784044444;9284044444
858;9304189000;8784344444;9284344444
859;9304190000;8784344444;9284344444
862;9329680000;8825700000;9325700000
863;9329683000;8825700000;9325700000
864;9329684000;8825700000;9325700000
865;9329685000;8825700000;9325700000
869;10383033000;8826000000;9326000000
870;10383037000;8826000000;9326000000
871;10383038000;8826000000;9326000000
872;10424231000;8867366666;9367366666
873;10424234000;8867366666;9367366666
874;10424235000;8867366666;9367366666
875;10424236000;8867366666;9367366666
876;10424237000;8867366666;9367366666
877;10424238000;8867366666;9367366666
878;10424239000;8867366666;9367366666
879;10424445000;8867388888;9367388888
880;10424461000;8867677777;9367677777
881;10424462000;8867677777;9367677777
882;10424463000;8867677777;9367677777
883;10465894000;8909033333;9409033333
884;10465898000;8909033333;9409033333
885;10465899000;8909033333;9409033333
886;10465900000;8909033333;9409033333
887;10465900000;8909033333;9409033333
888;10465902000;8909033333;9409033333
890;10466109000;8909044444;9409044444
891;10466125000;8909344444;9409344444
892;10466126000;8909344444;9409344444
893;10466127000;8909344444;9409344444
895;10507544000;8950700000;9450700000
897;10507548000;8950700000;9450700000
898;10507549000;8950700000;9450700000
900;10507550000;8950700000;9450700000
902;10507567000;8951000000;9451000000
903;10507579000;8951000000;9451000000
904;10507580000;8951000000;9451000000
905;10548901000;8992366666;9492366666
923;10589871000;9034044444;9534044444
934;10629651000;9075711111;9575711111
958;10629657000;9159366666;9659366666
959;10629659000;9159366666;9659366666
960;10740337000;9200700000;9700700000
1044;10869900000;9492377777;9992377777
1133;10869915000;9826000000;10326000000
1134;10869916000;9826000000;10326000000
1135;10869917000;9826000000;10326000000
1138;10930195000;9867366666;10367366666
1183;10968030000;10034033333;10534033333
1212;10983207000;10117700000;10617700000
1213;10992056000;10159044444;10659044444
1234;11009140000;10201033333;10701033333
1249;11028337000;10284033333;10784033333
1269;11045996000;10367366666;10867366666
1270;11045999000;10367366666;10867366666
1271;11046001000;10367366666;10867366666
1272;11046001000;10367366666;10867366666
1273;11046002000;10367366666;10867366666
1274;11046003000;10367366666;10867366666
1275;11046216000;10367388888;10867388888
1277;11046232000;10367700000;10867700000
1278;11046233000;10367700000;10867700000
1279;11064747000;10409033333;10909033333
1299;11070838000;10451000000;10951000000
1320;11088428000;10534344444;11034344444
1330;11102589000;10575711111;11075711111
1331;11102604000;10575977777;11075977777
1332;11102605000;10575977777;11075977777
1333;11102606000;10575977777;11075977777
1334;11121909000;10617355555;11117355555
1343;11122025000;10617677777;11117677777
1344;11122029000;10617677777;11117677777
1345;11124722000;10659033333;11159033333
1346;11124725000;10659033333;11159033333
1347;11124726000;10659033333;11159033333
1348;11124728000;10659033333;11159033333
1349;11124728000;10659033333;11159033333
1350;11124738000;10659033333;11159033333
1351;11124739000;10659033333;11159033333
1352;11124948000;10659044444;11159044444
1353;11124964000;10659333333;11159333333
1354;11124965000;10659333333;11159333333
1355;11124966000;10659333333;11159333333
1356;11262214000;10700700000;11200700000
1372;11302506000;10742366666;11242366666
1379;11340432000;10784033333;11284033333
1382;11340435000;10784033333;11284033333
1383;11340436000;10784033333;11284033333
1384;11340437000;10784033333;11284033333
1385;11340635000;10784044444;11284044444
1386;11340650000;10784344444;11284344444
1387;11340652000;10784344444;11284344444
1388;11340653000;10784344444;11284344444
1389;11378691000;10825700000;11325700000
1390;11378695000;10825700000;11325700000
1391;11378696000;10825700000;11325700000
1392;11378697000;10825700000;11325700000
1393;11378698000;10825700000;11325700000
1394;11378699000;10825700000;11325700000
1395;11378699000;10825700000;11325700000
1396;11378869000;10825711111;11325711111
1397;11378873000;10826000000;11326000000
1399;11378874000;10826000000;11326000000
1400;11407530000;10867366666;11367366666
1401;11407533000;10867366666;11367366666
1403;11407534000;10867366666;11367366666
1404;11407535000;10867366666;11367366666
1405;11407536000;10867366666;11367366666
1406;11407537000;10867366666;11367366666
1407;11407736000;10867377777;11367377777
1408;11407752000;10867677777;11367677777
1409;11407753000;10867677777;11367677777
1412;11437438000;10909033333;11409033333
1413;11437441000;10909033333;11409033333
1415;11437442000;10909033333;11409033333
1416;11437443000;10909033333;11409033333
1417;11437444000;10909033333;11409033333
1418;11437566000;10909044444;11409044444
1420;11437581000;10909344444;11409344444
1421;11437583000;10909344444;11409344444
1422;11469915000;10950700000;11450700000
1423;11469919000;10950700000;11450700000
1424;11469920000;10950700000;11450700000
1425;11469921000;10950700000;11450700000
1426;11469922000;10950700000;11450700000
1427;11469923000;10950700000;11450700000
1428;11475646000;10950700000;11450700000
1429;11526133000;10950711111;11450711111
1433;11526148000;10992366666;11492366666
1434;11526150000;10992366666;11492366666
1438;11556891000;10992366666;11492366666
1439;11556893000;10992366666;11492366666
1440;11567567000;10992377777;11492377777
1443;11567630000;10992677777;11492677777
1444;11609195000;11034033333;11534033333
1453;11609308000;11034344444;11534344444
1457;11650424000;11075700000;11575700000
1458;11650427000;11075700000;11575700000
1460;11650471000;11075700000;11575700000
1461;11650473000;11075700000;11575700000
1462;11650689000;11075711111;11575711111
1463;11650705000;11075977777;11575977777
1464;11650706000;11075977777;11575977777
1465;11650707000;11075977777;11575977777
1466;11691508000;11117366666;11617366666
1467;11691511000;11117366666;11617366666
1468;11691512000;11117366666;11617366666
1469;11691513000;11117366666;11617366666
1470;11691514000;11117366666;11617366666
1471;11691515000;11117366666;11617366666
1472;11691516000;11117366666;11617366666
1474;11691626000;11117688888;11617688888
1475;11691629000;11117688888;11617688888
1478;11731923000;11159033333;11659033333
1479;11731927000;11159033333;11659033333
1480;11731928000;11159033333;11659033333
1481;11731929000;11159033333;11659033333
1482;11731930000;11159033333;11659033333
1483;11731931000;11159033333;11659033333
1484;11732057000;11159044444;11659044444
1485;11732073000;11159355555;11659355555
1486;11732074000;11159355555;11659355555
1487;11732075000;11159355555;11659355555
1488;11771430000;11200700000;11700700000
1492;11771434000;11200700000;11700700000
1493;11771435000;11200700000;11700700000
1494;11771435000;11200700000;11700700000
1495;11771606000;11200722222;11700722222
1496;11771610000;11201022222;11701022222
1497;11771611000;11201022222;11701022222
1498;11771612000;11201022222;11701022222
1499;11810204000;11242366666;11742366666
1500;11810207000;11242366666;11742366666
1501;11810208000;11242366666;11742366666
1502;11810209000;11242366666;11742366666
1504;11810243000;11242366666;11742366666
1505;11810245000;11242366666;11742366666
1506;11810455000;11242388888;11742388888
1507;11810470000;11242677777;11742677777
1508;11810471000;11242677777;11742677777
1509;11810472000;11242677777;11742677777
1510;11848183000;11284033333;11784033333
1511;11848186000;11284033333;11784033333
1512;11848187000;11284033333;11784033333
1513;11848188000;11284033333;11784033333
1514;11848189000;11284033333;11784033333
1515;11848190000;11284033333;11784033333
1516;11848191000;11284033333;11784033333
1517;11848362000;11284055555;11784055555
1519;11848367000;11284355555;11784355555
1520;11848368000;11284355555;11784355555
1521;11884481000;11325700000;11825700000
1522;11884485000;11325700000;11825700000
1525;11884486000;11325700000;11825700000
1527;11884487000;11325700000;11825700000
1529;11884597000;11325988888;11825988888
1531;11902003000;11325988888;11825988888
1532;11922625000;11367366666;11867366666
1533;11922628000;11367366666;11867366666
1534;11922629000;11367366666;11867366666
1535;11922630000;11367366666;11867366666
1536;11922631000;11367366666;11867366666
1537;11922632000;11367366666;11867366666
1538;11942634000;11367366666;11867366666
1539;11993104000;11367388888;11867388888
1541;11993111000;11367688888;11867688888
1542;11993112000;11367688888;11867688888
1543;12034597000;11409033333;11909033333
1550;12034799000;11409055555;11909055555
1551;12034815000;11409366666;11909366666
1553;12034844000;11409366666;11909366666
1554;12076223000;11450700000;11950700000
1566;12117564000;11492377777;11992377777
1583;12158578000;11534055555;12034055555
1606;12158594000;11617722222;12117722222
1607;12158595000;11617722222;12117722222
1608;12158596000;11617722222;12117722222
1609;12274297000;11659033333;12159033333
1625;12308918000;11700700000;12200700000
1630;12309030000;11701011111;12201011111
1631;12336338000;11742366666;12242366666
1638;12336540000;11742377777;12242377777
1639;12336555000;11742688888;12242688888
1640;12336556000;11742688888;12242688888
1641;12336557000;11742688888;12242688888
1642;12369682000;11784044444;12284044444
1645;12369686000;11784044444;12284044444
1646;12369687000;11784044444;12284044444
1648;12369688000;11784044444;12284044444
1649;12369827000;11784055555;12284055555
1650;12369830000;11784355555;12284355555
1651;12369831000;11784355555;12284355555
1652;12369832000;11784355555;12284355555
1653;12388034000;11825700000;12325700000
1654;12388037000;11825700000;12325700000
1655;12388038000;11825700000;12325700000
1656;12388039000;11825700000;12325700000
1657;12388040000;11825700000;12325700000
1658;12388040000;11825700000;12325700000
1659;12388041000;11825700000;12325700000
1661;12388121000;11826011111;12326011111
1662;12388123000;11826011111;12326011111
1663;12388123000;11826011111;12326011111
1664;12420932000;11867366666;12367366666
1665;12420935000;11867366666;12367366666
1666;12420936000;11867366666;12367366666
1667;12420937000;11867366666;12367366666
1668;12420938000;11867366666;12367366666
1669;12420939000;11867366666;12367366666
1670;12420940000;11867366666;12367366666
1671;12421147000;11867388888;12367388888
1672;12421162000;11867711111;12367711111
1673;12421163000;11867711111;12367711111
1674;12421164000;11867711111;12367711111
1675;12448256000;11909033333;12409033333
1676;12448259000;11909033333;12409033333
1677;12448260000;11909033333;12409033333
1678;12448261000;11909033333;12409033333
1679;12448262000;11909033333;12409033333
1680;12448263000;11909033333;12409033333
1681;12448264000;11909033333;12409033333
1682;12448464000;11909044444;12409044444
1683;12448480000;11909355555;12409355555
1684;12448481000;11909355555;12409355555
1686;12476558000;11950711111;12450711111
1687;12476561000;11950711111;12450711111
1688;12476562000;11950711111;12450711111
1689;12476563000;11950711111;12450711111
1691;12476564000;11950711111;12450711111
1692;12476565000;11950711111;12450711111
1693;12476660000;11950722222;12450722222
1694;12476662000;11951011111;12451011111
1695;12476663000;11951011111;12451011111
1696;12476664000;11951011111;12451011111
1697;12506185000;11992366666;12492366666
1698;12506189000;11992366666;12492366666
1699;12506190000;11992366666;12492366666
1700;12506198000;11992366666;12492366666
1701;12506199000;11992366666;12492366666
1702;12506200000;11992366666;12492366666
1703;12506201000;11992366666;12492366666
1704;12506339000;11992388888;12492388888
1705;12506342000;11992688888;12492688888
1706;12506343000;11992688888;12492688888
1707;12506344000;11992688888;12492688888
1708;12537524000;12034033333;12534033333
1709;12537528000;12034033333;12534033333
1710;12537529000;12034033333;12534033333
1711;12537530000;12034033333;12534033333
1712;12537531000;12034033333;12534033333
1713;12537532000;12034033333;12534033333
1714;12537532000;12034033333;12534033333
1715;12537732000;12034044444;12534044444
1716;12537747000;12034366666;12534366666
1717;12537749000;12034366666;12534366666
1718;12537750000;12034366666;12534366666
1719;12570989000;12075777777;12575777777
1720;12570993000;12075777777;12575777777
1721;12570994000;12075777777;12575777777
1722;12570995000;12075777777;12575777777
1723;12570995000;12075777777;12575777777
1724;12570997000;12075777777;12575777777
1725;12570998000;12075777777;12575777777
1726;12571177000;12075833333;12575833333
1728;12571182000;12076122222;12576122222
1729;12571183000;12076122222;12576122222
1730;12668494000;12117366666;12617366666
1731;12668498000;12117366666;12617366666
1733;12668857000;12117366666;12617366666
1734;12668859000;12117366666;12617366666
1735;12668860000;12117366666;12617366666
1736;12668861000;12117366666;12617366666
1737;12669017000;12117377777;12617377777
1738;12669024000;12117688888;12617688888
1739;12669025000;12117688888;12617688888
1740;12669026000;12117688888;12617688888
1741;12709791000;12159033333;12659033333
1742;12709803000;12159033333;12659033333
1743;12709804000;12159033333;12659033333
1744;12709806000;12159033333;12659033333
1745;12709806000;12159033333;12659033333
1746;12709807000;12159033333;12659033333
1747;12709808000;12159033333;12659033333
1749;12709933000;12159377777;12659377777
1750;12709937000;12159377777;12659377777
1751;12709938000;12159377777;12659377777
1752;12750894000;12200700000;12700700000
1753;12750898000;12200700000;12700700000
1754;12750899000;12200700000;12700700000
1756;12750900000;12200700000;12700700000
1757;12750901000;12200700000;12700700000
1758;12750902000;12200700000;12700700000
1759;12751101000;12200711111;12700711111
1760;12751116000;12201022222;12701022222
1761;12751117000;12201022222;12701022222
1762;12751118000;12201022222;12701022222
1763;12790559000;12242366666;12742366666
1764;12790563000;12242366666;12742366666
1765;12790564000;12242366666;12742366666
1766;12790565000;12242366666;12742366666
1767;12790566000;12242366666;12742366666
1768;12790567000;12242366666;12742366666
1769;12790568000;12242366666;12742366666
1770;12790706000;12242377777;12742377777
1774;12830752000;12284033333;12784033333
1775;12830753000;12284033333;12784033333
1777;12830754000;12284033333;12784033333
1778;12830755000;12284033333;12784033333
1779;12830756000;12284033333;12784033333
1780;12830757000;12284033333;12784033333
1783;12830822000;12284388888;12784388888
1784;12830824000;12284388888;12784388888
1785;12870512000;12325700000;12825700000
1787;12870516000;12325700000;12825700000
1788;12870517000;12325700000;12825700000
1789;12870518000;12325700000;12825700000
1790;12870519000;12325700000;12825700000
1793;12870603000;12325988888;12825988888
1794;12870607000;12325988888;12825988888
1795;12870608000;12325988888;12825988888
1796;12909694000;12367366666;12867366666
1797;12909697000;12367366666;12867366666
1798;12909698000;12367366666;12867366666
1799;12909699000;12367366666;12867366666
1800;12909700000;12367366666;12867366666
1801;12909701000;12367366666;12867366666
1802;12909702000;12367366666;12867366666
1803;12909902000;12367388888;12867388888
1804;12909918000;12367700000;12867700000
1805;12909919000;12367700000;12867700000
1806;12909920000;12367700000;12867700000
1807;12946906000;12409044444;12909044444
1811;12946910000;12409044444;12909044444
1812;12946911000;12409044444;12909044444
1813;12946912000;12409044444;12909044444
1814;12947083000;12409055555;12909055555
1815;12947088000;12409377777;12909377777
1816;12947096000;12409377777;12909377777
1817;12947097000;12409377777;12909377777
1818;12976785000;12450700000;12950700000
1819;12976798000;12450700000;12950700000
1820;12976799000;12450700000;12950700000
1821;12976800000;12450700000;12950700000
1822;12976801000;12450700000;12950700000
1823;12976802000;12450700000;12950700000
1824;12976803000;12450700000;12950700000
1825;12983708000;12450711111;12950711111
1828;12983724000;12451011111;12951011111
1829;13020026000;12492377777;12992377777
1830;13020029000;12492377777;12992377777
1831;13020030000;12492377777;12992377777
1832;13020031000;12492377777;12992377777
1833;13020032000;12492377777;12992377777
1834;13020033000;12492377777;12992377777
1835;13020034000;12492377777;12992377777
1836;13020244000;12492388888;12992388888
1837;13020259000;12492700000;12992700000
1838;13020260000;12492700000;12992700000
1839;13022753000;12492700000;12992700000
1840;13053190000;12534033333;13034033333
1841;13053193000;12534033333;13034033333
1842;13053194000;12534033333;13034033333
1843;13053195000;12534033333;13034033333
1844;13053196000;12534033333;13034033333
1848;13114491000;12534333333;13034333333
1854;13155757000;12575700000;13075700000
1855;13155760000;12575700000;13075700000
1856;13155761000;12575700000;13075700000
1857;13155762000;12575700000;13075700000
1858;13155964000;12575722222;13075722222
1859;13155979000;12575966666;13075966666
1860;13155980000;12575966666;13075966666
1861;13155981000;12575966666;13075966666
1866;13197003000;12617366666;13117366666
1867;13197006000;12617366666;13117366666
1868;13197008000;12617366666;13117366666
1869;13197216000;12617377777;13117377777
1870;13197231000;12617677777;13117677777
1872;13197232000;12617677777;13117677777
1873;13237973000;12659033333;13159033333
1879;13237977000;12659033333;13159033333
1881;13238079000;12659322222;13159322222
1882;13238091000;12659322222;13159322222
1883;13238092000;12659322222;13159322222
1884;13278639000;12700700000;13200700000
1897;13318196000;12742377777;13242377777
1912;13357063000;12784033333;13284033333
1922;13386076000;12825700000;13325700000
1929;13429649000;12867366666;13367366666
1947;13460179000;12909333333;13409333333
1952;13493146000;12950700000;13450700000
1958;13493258000;12950977777;13450977777
1959;13493261000;12950977777;13450977777
1960;13493262000;12950977777;13450977777
1961;13521158000;12992366666;13492366666
1962;13521162000;12992366666;13492366666
1963;13521163000;12992366666;13492366666
1964;13521164000;12992366666;13492366666
1965;13521165000;12992366666;13492366666
1966;13521166000;12992366666;13492366666
1967;13521167000;12992366666;13492366666
1968;13521369000;12992388888;13492388888
1969;13521384000;12992666666;13492666666
1971;13521386000;12992666666;13492666666
1972;13551716000;13034033333;13534033333
1973;13551719000;13034033333;13534033333
1974;13551720000;13034033333;13534033333
1975;13551721000;13034033333;13534033333
1976;13551722000;13034033333;13534033333
1977;13551723000;13034033333;13534033333
1978;13551724000;13034033333;13534033333
1980;13551792000;13034355555;13534355555
1982;13551794000;13034355555;13534355555
1983;13585485000;13075700000;13575700000
1984;13585488000;13075700000;13575700000
1985;13585489000;13075700000;13575700000
1986;13585490000;13075700000;13575700000
1987;13585491000;13075700000;13575700000
1988;13585492000;13075700000;13575700000
1989;13585493000;13075700000;13575700000
1990;13662651000;13075711111;13575711111
1994;13662666000;13117366666;13617366666
1995;13662667000;13117366666;13617366666
1996;13662668000;13117366666;13617366666
1997;13662669000;13117366666;13617366666
1998;13662670000;13117366666;13617366666
1999;13662671000;13117366666;13617366666
2003;13703981000;13117677777;13617677777
2006;13745133000;13159044444;13659044444
2024;13785935000;13201011111;13701011111
2035;13825828000;13242655555;13742655555
2044;13864817000;13284033333;13784033333
2052;13902238000;13325700000;13825700000
2060;13931224000;13367366666;13867366666
2064;13931228000;13367366666;13867366666
2065;13931229000;13367366666;13867366666
2066;13931230000;13367366666;13867366666
2067;13931503000;13367388888;13867388888
2068;13931518000;13367688888;13867688888
2069;13931519000;13367688888;13867688888
2070;13931520000;13367688888;13867688888
2071;13962521000;13409033333;13909033333
2073;13962524000;13409033333;13909033333
2075;13962833000;13409033333;13909033333
2076;13962836000;13409033333;13909033333
2077;13962837000;13409033333;13909033333
2078;13963057000;13409044444;13909044444
2079;13963073000;13409333333;13909333333
2080;13963074000;13409333333;13909333333
2081;13963075000;13409333333;13909333333
2082;13996663000;13450700000;13950700000
2083;13996666000;13450700000;13950700000
2084;13996667000;13450700000;13950700000
2085;13996668000;13450700000;13950700000
2086;13996669000;13450700000;13950700000
2087;13996670000;13450700000;13950700000
2088;13996671000;13450700000;13950700000
2089;13996871000;13450711111;13950711111
2090;13996886000;13450988888;13950988888
2091;13996887000;13450988888;13950988888
2092;13996888000;13450988888;13950988888
2094;14030335000;13492366666;13992366666
2095;14030338000;13492366666;13992366666
2097;14030339000;13492366666;13992366666
2098;14030340000;13492366666;13992366666
2099;14030341000;13492366666;13992366666
2100;14030461000;13492388888;13992388888
2101;14030477000;13492677777;13992677777
2102;14030478000;13492677777;13992677777
2103;14030479000;13492677777;13992677777
2104;14063167000;13534033333;14034033333
2105;14063170000;13534033333;14034033333
2106;14063171000;13534033333;14034033333
2107;14063172000;13534033333;14034033333
2108;14063173000;13534033333;14034033333
2109;14063174000;13534033333;14034033333
2110;14063175000;13534033333;14034033333
2114;14112616000;13534355555;14034355555
2115;14152830000;13575700000;14075700000
2116;14152834000;13575700000;14075700000
2117;14152835000;13575700000;14075700000
2118;14152836000;13575700000;14075700000
2119;14152838000;13575700000;14075700000
2120;14152839000;13575700000;14075700000
2121;14152841000;13575700000;14075700000
2122;14153070000;13575711111;14075711111
2123;14153076000;13576000000;14076000000
2124;14153078000;13576000000;14076000000
2125;14153079000;13576000000;14076000000
2126;14194241000;13617366666;14117366666
2130;14194244000;13617366666;14117366666
2132;14194246000;13617366666;14117366666
2133;14194446000;13617388888;14117388888
2134;14194461000;13617700000;14117700000
2135;14194462000;13617700000;14117700000
2136;14194463000;13617700000;14117700000
2139;14235165000;13659033333;14159033333
2148;14275994000;13700700000;14200700000
2165;14316162000;13742366666;14242366666
2182;14392653000;13825700000;14325700000
2186;14392656000;13825700000;14325700000
2187;14392658000;13825700000;14325700000
2188;14392856000;13825711111;14325711111
2189;14392872000;13826011111;14326011111
2190;14392873000;13826011111;14326011111
2191;14392874000;13826011111;14326011111
2192;14427021000;13867366666;14367366666
2193;14427025000;13867366666;14367366666
2194;14427026000;13867366666;14367366666
2195;14427027000;13867366666;14367366666
2196;14427027000;13867366666;14367366666
2197;14427028000;13867366666;14367366666
2198;14427029000;13867366666;14367366666
2199;14427238000;13867377777;14367377777
2200;14427254000;13867688888;14367688888
2201;14427255000;13867688888;14367688888
2203;14461758000;13909033333;14409033333
2204;14461762000;13909033333;14409033333
2205;14461763000;13909033333;14409033333
2206;14461764000;13909033333;14409033333
2207;14461765000;13909033333;14409033333
2214;14496697000;13950700000;14450700000
2215;15360694000;13950700000;14450700000
2216;15360696000;13950700000;14450700000
2217;15380988000;13950700000;14450700000
2218;15380994000;13950700000;14450700000
2219;15380995000;13950700000;14450700000
2220;15380996000;13950700000;14450700000
2221;15410947000;13950722222;14450722222
2222;15410963000;13951011111;14451011111
2224;15411090000;13951011111;14451011111
2225;15452654000;13992366666;14492366666
2226;15452657000;13992366666;14492366666
2227;15452658000;13992366666;14492366666
2228;15452659000;13992366666;14492366666
2230;15452661000;13992366666;14492366666
2231;15452661000;13992366666;14492366666
2232;15452871000;13992377777;14492377777
2233;15452887000;13992711111;14492711111
2234;15452888000;13992711111;14492711111
2235;15452889000;13992711111;14492711111
2236;15494260000;14034033333;14534033333
2237;15494262000;14034033333;14534033333
2238;15494263000;14034033333;14534033333
2239;15494264000;14034033333;14534033333
2240;15494265000;14034033333;14534033333
2241;15494266000;14034033333;14534033333
2242;15494267000;14034033333;14534033333
2243;15494486000;14034055555;14534055555
2244;15494501000;14034388888;14534388888
2245;15494502000;14034388888;14534388888
2246;15494503000;14034388888;14534388888
2247;15535836000;14075700000;14575700000
2253;15535838000;14075700000;14575700000
2254;15535980000;14075711111;14575711111
2255;15535983000;14076000000;14576000000
2256;15535984000;14076000000;14576000000
2257;15535985000;14076000000;14576000000
2258;15577171000;14117377777;14617377777
2272;15618116000;14159033333;14659033333
2295;15696353000;14242377777;14742377777
2344;15822312000;14409388888;14909388888
2427;15898828000;14742366666;15242366666
2501;15953712000;15034033333;15534033333
2545;15992985000;15200700000;15700700000
2558;16001907000;15242366666;15742366666
2577;16019530000;15325700000;15825700000
2598;16036593000;15367711111;15867711111
2623;16061876000;15492366666;15992366666
2632;16073420000;15534044444;16034044444
2633;16073424000;15534044444;16034044444
2634;16073425000;15534044444;16034044444
2635;16073426000;15534044444;16034044444
2636;16073427000;15534044444;16034044444
2637;16073428000;15534044444;16034044444
2638;16073429000;15534044444;16034044444
2639;16073634000;15534055555;16034055555
2640;16073650000;15534377777;16034377777
2641;16073651000;15534377777;16034377777
2642;16073652000;15534377777;16034377777
2643;16092438000;15575700000;16075700000
2653;16092554000;15575977777;16075977777
2654;16097940000;15617366666;16117366666
2658;16097943000;15617366666;16117366666
2659;16097944000;15617366666;16117366666
2660;16097946000;15617366666;16117366666
2661;16098194000;15617377777;16117377777
2662;16098210000;15617677777;16117677777
2663;16098211000;15617677777;16117677777
2664;16098212000;15617677777;16117677777
2665;16111460000;15659033333;16159033333
2666;16111463000;15659033333;16159033333
2667;16111464000;15659033333;16159033333
2668;16111465000;15659033333;16159033333
2669;16111466000;15659033333;16159033333
2670;16111467000;15659033333;16159033333
2671;16111468000;15659033333;16159033333
2672;16188678000;15659044444;16159044444
2674;16188837000;15659344444;16159344444
2675;16188838000;15659344444;16159344444
2676;16229570000;15700700000;16200700000
2677;16229573000;15700700000;16200700000
2678;16229574000;15700700000;16200700000
2682;16229576000;15700700000;16200700000
2683;16229775000;15700711111;16200711111
2686;17159394000;15701011111;16201011111
2687;17200743000;15742366666;16242366666
2688;17200747000;15742366666;16242366666
2689;17200748000;15742366666;16242366666
2690;17200749000;15742366666;16242366666
2691;17200750000;15742366666;16242366666
2692;17200751000;15742366666;16242366666
2693;17200752000;15742366666;16242366666
2694;17200998000;15742388888;16242388888
2695;17201013000;15742666666;16242666666
2697;17201014000;15742666666;16242666666
2698;17242323000;15784044444;16284044444
2703;17242326000;15784044444;16284044444
2704;17242327000;15784044444;16284044444
2705;17242548000;15784055555;16284055555
2706;17242563000;15784355555;16284355555
2708;17242565000;15784355555;16284355555
2709;17283669000;15825700000;16325700000
2720;17324759000;15867366666;16367366666
2739;17365293000;15909355555;16409355555
2759;17442451000;15992377777;16492377777
2804;17568812000;16159044444;16659044444
2874;17568827000;16450700000;16950700000
2875;17568828000;16450700000;16950700000
2876;17568829000;16450700000;16950700000
2877;17568830000;16450700000;16950700000
2878;17568831000;16450700000;16950700000
2879;17568832000;16450700000;16950700000
2880;17568833000;16450700000;16950700000
2881;17657819000;16450711111;16950711111
2930;17657835000;16659033333;17159033333
2931;17657836000;16659033333;17159033333
2932;17657845000;16659033333;17159033333
2933;17657846000;16659033333;17159033333
2934;17657847000;16659033333;17159033333
2935;17657848000;16659033333;17159033333
2936;17707865000;16659055555;17159055555
2971;17707881000;16784322222;17284322222
2975;17759850000;16825700000;17325700000
3002;17780174000;16909055555;17409055555
3016;17780190000;16950966666;17450966666
3017;17814820000;16992366666;17492366666
3046;17844225000;17075711111;17575711111
3070;17844241000;17159333333;17659333333
3071;17844242000;17159333333;17659333333
3072;17880423000;17200700000;17700700000
3098;17909967000;17284033333;17784033333
3116;17929198000;17367366666;17867366666
3127;17948767000;17409033333;17909033333
3138;18005000000;17450700000;17950700000
3160;18087626000;17534044444;18034044444
3179;18127262000;17575977777;18075977777
3183;18165945000;17617366666;18117366666
3186;18165949000;17617366666;18117366666
3187;18165950000;17617366666;18117366666
3188;18165951000;17617366666;18117366666
3189;18166160000;17617388888;18117388888
3190;18166175000;17617677777;18117677777
3191;18166177000;17617677777;18117677777
3192;18166178000;17617677777;18117677777
3193;18200151000;17659033333;18159033333
3194;18200154000;17659033333;18159033333
3195;18200155000;17659033333;18159033333
3197;18200156000;17659033333;18159033333
3198;18200158000;17659033333;18159033333
3199;18200158000;17659033333;18159033333
3200;18200330000;17659055555;18159055555
3201;18200334000;17659344444;18159344444
3202;18200335000;17659344444;18159344444
3203;18200336000;17659344444;18159344444
3204;18231552000;17700700000;18200700000
3205;18231555000;17700700000;18200700000
3206;18231556000;17700700000;18200700000
3207;18231557000;17700700000;18200700000
3208;18231558000;17700700000;18200700000
3209;18231559000;17700700000;18200700000
3210;18231560000;17700700000;18200700000
3211;18231745000;17700722222;18200722222
3212;18231751000;17701000000;18201000000
3214;18231752000;17701000000;18201000000
3217;18265526000;17742366666;18242366666
3218;18265530000;17742366666;18242366666
3219;18265531000;17742366666;18242366666
3221;18331463000;17742366666;18242366666
3222;18331678000;17742388888;18242388888
3223;18331684000;17742666666;18242666666
3224;18331685000;17742666666;18242666666
3225;18331686000;17742666666;18242666666
3226;18372986000;17784033333;18284033333
3229;18372989000;17784033333;18284033333
3230;18372990000;17784033333;18284033333
3231;18372991000;17784033333;18284033333
3232;18372992000;17784033333;18284033333
3233;18373204000;17784055555;18284055555
3234;18373220000;17784333333;18284333333
3235;18373221000;17784333333;18284333333
3236;18373222000;17784333333;18284333333
3237;18414528000;17825700000;18325700000
3246;18414641000;17825988888;18325988888
3247;18414644000;17825988888;18325988888
3248;18455857000;17867377777;18367377777
3268;18496460000;17909355555;18409355555
3277;18536881000;17950722222;18450722222
3287;18536897000;17992366666;18492366666
3288;18575084000;17992388888;18492388888
3293;18575104000;18034033333;18534033333
3294;18575106000;18034033333;18534033333
3295;18575107000;18034033333;18534033333
3296;18575108000;18034033333;18534033333
3297;18575108000;18034033333;18534033333
3298;18575109000;18034033333;18534033333
3299;18606632000;18034055555;18534055555
3303;18606637000;18075700000;18575700000
3304;18606638000;18075700000;18575700000
3305;18606639000;18075700000;18575700000
3306;18606640000;18075700000;18575700000
3307;18606641000;18075700000;18575700000
3308;18606642000;18075700000;18575700000
3309;18606643000;18075700000;18575700000
3310;18640814000;18075722222;18575722222
3311;18640830000;18075977777;18575977777
3312;18640831000;18075977777;18575977777
3313;18640832000;18075977777;18575977777
3314;18671230000;18117366666;18617366666
3315;18671234000;18117366666;18617366666
3316;18671234000;18117366666;18617366666
3317;18671235000;18117366666;18617366666
3318;18671236000;18117366666;18617366666
3319;18671237000;18117366666;18617366666
3320;18671238000;18117366666;18617366666
3321;18671409000;18117388888;18617388888
3322;18671413000;18117677777;18617677777
3323;18671423000;18117677777;18617677777
3325;18701412000;18159033333;18659033333
3327;19640389000;18159033333;18659033333
3328;19640404000;18159033333;18659033333
3329;19660735000;18159033333;18659033333
3330;19660737000;18159033333;18659033333
3331;19660739000;18159033333;18659033333
3332;19711264000;18159055555;18659055555
3335;19711280000;18159344444;18659344444
3336;19752711000;18200700000;18700700000
3338;19752715000;18200700000;18700700000
3339;19752716000;18200700000;18700700000
3340;19752717000;18200700000;18700700000
3341;19752717000;18200700000;18700700000
3342;19752718000;18200700000;18700700000
3343;19752934000;18200722222;18700722222
3344;19752950000;18201011111;18701011111
3345;19752951000;18201011111;18701011111
3346;19752952000;18201011111;18701011111
3347;19794326000;18242366666;18742366666
3354;19794588000;18242388888;18742388888
3355;19794592000;18242666666;18742666666
3356;19794593000;18242666666;18742666666
3357;19794594000;18242666666;18742666666
3358;19835779000;18284033333;18784033333
3365;19835981000;18284055555;18784055555
3368;19835997000;18284333333;18784333333
3369;19876830000;18325700000;18825700000
3385;19917283000;18367366666;18867366666
3399;19957386000;18409344444;18909344444
3421;20031756000;18492677777;18992677777
3461;20143274000;18659033333;19159033333
3514;20218627000;18867366666;19367366666
3551;20255073000;18992366666;19492366666
3565;20261436000;19034344444;19534344444
3587;20284913000;19117677777;19617677777
3602;20320551000;19200700000;19700700000
3623;20336103000;19284033333;19784033333
3624;20336107000;19284033333;19784033333
3625;20336108000;19284033333;19784033333
3626;20336109000;19284033333;19784033333
3627;20336110000;19284033333;19784033333
3628;20336111000;19284033333;19784033333
3629;20336317000;19284055555;19784055555
3630;20336333000;19284333333;19784333333
3631;20336334000;19284333333;19784333333
3632;20336335000;19284333333;19784333333
3635;20350766000;19325700000;19825700000
3658;20379065000;19409033333;19909033333
3672;20388376000;19450700000;19950700000
3688;20424469000;19534033333;20034033333
3718;20444230000;19617677777;20117677777
3735;20481867000;19700700000;20200700000
3747;20488622000;19742366666;20242366666
3762;20501126000;19784333333;20284333333
3763;20501129000;19784333333;20284333333
3764;20501130000;19784333333;20284333333
3765;20520633000;19825711111;20325711111
3783;20540910000;19867377777;20367377777
3800;20540926000;19950700000;20450700000
3806;20559616000;19950988888;20450988888
3819;20579419000;19992655555;20492655555
3827;20581650000;20034055555;20534055555
3828;20581665000;20034333333;20534333333
3829;20581667000;20034333333;20534333333
3830;20581668000;20034333333;20534333333
3831;20598596000;20075700000;20575700000
3834;20598599000;20075700000;20575700000
3835;20598600000;20075700000;20575700000
3836;20598601000;20075700000;20575700000
3837;20598602000;20075700000;20575700000
3838;20598802000;20075722222;20575722222
3839;20598817000;20075966666;20575966666
3840;20598818000;20075966666;20575966666
3841;20598819000;20075966666;20575966666
3842;20618372000;20117366666;20617366666
3843;20618376000;20117366666;20617366666
3844;20618377000;20117366666;20617366666
3845;20618378000;20117366666;20617366666
3846;20618378000;20117366666;20617366666
3847;20618379000;20117366666;20617366666
3848;20618380000;20117366666;20617366666
3849;20698988000;20117388888;20617388888
3856;20699003000;20159033333;20659033333
3857;20699004000;20159033333;20659033333
3858;20699005000;20159033333;20659033333
3859;20699006000;20159033333;20659033333
3860;20741520000;20159044444;20659044444
3864;20741536000;20200700000;20700700000
3865;20741537000;20200700000;20700700000
3866;20741538000;20200700000;20700700000
3867;20741539000;20200700000;20700700000
3868;20741540000;20200700000;20700700000
3869;20741541000;20200700000;20700700000
3870;20741542000;20200700000;20700700000
3871;20780407000;20200711111;20700711111
3875;20780422000;20242366666;20742366666
3876;20780423000;20242366666;20742366666
3877;20780424000;20242366666;20742366666
3878;20780432000;20242366666;20742366666
3879;20780433000;20242366666;20742366666
3880;20780435000;20242366666;20742366666
3883;20819557000;20242655555;20742655555
3889;20857865000;20284033333;20784033333
3893;20858094000;20284044444;20784044444
3894;20858109000;20284322222;20784322222
3895;20858110000;20284322222;20784322222
3896;20858111000;20284322222;20784322222
3903;20894990000;20325700000;20825700000
3905;20895131000;20325966666;20825966666
3906;20895134000;20325966666;20825966666
3907;20895135000;20325966666;20825966666
3912;20930950000;20367366666;20867366666
3913;20930953000;20367366666;20867366666
3914;20930954000;20367366666;20867366666
3915;20931164000;20367377777;20867377777
3916;20931179000;20367688888;20867688888
3917;20931180000;20367688888;20867688888
3918;20931181000;20367688888;20867688888
3919;20965769000;20409033333;20909033333
3921;20965773000;20409033333;20909033333
3922;20965774000;20409033333;20909033333
3923;20965775000;20409033333;20909033333
3924;20965776000;20409033333;20909033333
3925;20965777000;20409033333;20909033333
3927;20965886000;20409344444;20909344444
3928;20965890000;20409344444;20909344444
3929;20965891000;20409344444;20909344444
3930;21001888000;20450700000;20950700000
3931;21001891000;20450700000;20950700000
3932;21001892000;20450700000;20950700000
3933;21001893000;20450700000;20950700000
3934;21001894000;20450700000;20950700000
3935;21001895000;20450700000;20950700000
3937;21002101000;20450711111;20950711111
3938;21002116000;20451000000;20951000000
3939;21002117000;20451000000;20951000000
3940;21002118000;20451000000;20951000000
3941;21032538000;20492366666;20992366666
3942;21032541000;20492366666;20992366666
3943;21032542000;20492366666;20992366666
3944;21032543000;20492366666;20992366666
3945;21032544000;20492366666;20992366666
3946;21032545000;20492366666;20992366666
3947;21032546000;20492366666;20992366666
3948;21032746000;20492377777;20992377777
3949;21032761000;20492677777;20992677777
3950;21032763000;20492677777;20992677777
3951;21032764000;20492677777;20992677777
3952;21065135000;20534033333;21034033333
3953;21065137000;20534033333;21034033333
3954;21065138000;20534033333;21034033333
3955;21065139000;20534033333;21034033333
3956;21065140000;20534033333;21034033333
3958;21065141000;20534033333;21034033333
3959;21065284000;20534044444;21034044444
3960;21065286000;20534355555;21034355555
3961;21065287000;20534355555;21034355555
3962;21065288000;20534355555;21034355555
3963;21097288000;20575700000;21075700000
3965;21097290000;20575700000;21075700000
3966;21097291000;20575700000;21075700000
3968;21097292000;20575700000;21075700000
3969;21097293000;20575700000;21075700000
3970;21097435000;20575711111;21075711111
3971;21097437000;20575977777;21075977777
3972;21097438000;20575977777;21075977777
3973;21097439000;20575977777;21075977777
3975;21129853000;20617377777;21117377777
3976;21129855000;20617377777;21117377777
3977;21129856000;20617377777;21117377777
3978;21129857000;20617377777;21117377777
3979;21129858000;20617377777;21117377777
3980;21129859000;20617377777;21117377777
3983;21129877000;20617677777;21117677777
3984;21129878000;20617677777;21117677777
3985;21165699000;20659033333;21159033333
3986;21165703000;20659033333;21159033333
3987;21165704000;20659033333;21159033333
3988;21165705000;20659033333;21159033333
3989;21165706000;20659033333;21159033333
3990;21165706000;20659033333;21159033333
3991;21165707000;20659033333;21159033333
3992;21228783000;20659055555;21159055555
3994;21228799000;20659322222;21159322222
3995;21228800000;20659322222;21159322222
3996;21270105000;20700700000;21200700000
3997;21270108000;20700700000;21200700000
3998;21270109000;20700700000;21200700000
3999;21270110000;20700700000;21200700000
4000;21270111000;20700700000;21200700000
4001;21270112000;20700700000;21200700000
4002;21270113000;20700700000;21200700000
4003;21270312000;20700722222;21200722222
4004;21270328000;20701000000;21201000000
4005;21270329000;20701000000;21201000000
4006;21270330000;20701000000;21201000000
4009;21311714000;20742366666;21242366666
4010;21311717000;20742366666;21242366666
4011;21311725000;20742366666;21242366666
4012;21311726000;20742366666;21242366666
4013;21311727000;20742366666;21242366666
4014;21311847000;20742388888;21242388888
4015;21311862000;20742677777;21242677777
4016;21311863000;20742677777;21242677777
4017;21311864000;20742677777;21242677777
4019;21352415000;20784033333;21284033333
4020;21352419000;20784033333;21284033333
4024;21352420000;20784033333;21284033333
4025;21352510000;20784055555;21284055555
4026;21352513000;20784355555;21284355555
4027;21352514000;20784355555;21284355555
4029;21393132000;20825700000;21325700000
4030;21393135000;20825700000;21325700000
4031;21393136000;20825700000;21325700000
4032;21393137000;20825700000;21325700000
4033;21393138000;20825700000;21325700000
4034;21393139000;20825700000;21325700000
4035;21393140000;20825700000;21325700000
4036;21393259000;20825722222;21325722222
4037;21393274000;20825988888;21325988888
4038;21393275000;20825988888;21325988888
4039;21393276000;20825988888;21325988888
4040;21433386000;20867366666;21367366666
4041;21433390000;20867366666;21367366666
4042;21433390000;20867366666;21367366666
4043;21433392000;20867366666;21367366666
4044;21433393000;20867366666;21367366666
4045;21433394000;20867366666;21367366666
4046;21433394000;20867366666;21367366666
4047;21433609000;20867388888;21367388888
4048;21433625000;20867677777;21367677777
4050;21433626000;20867677777;21367677777
4051;21473148000;20909033333;21409033333
4055;21473151000;20909033333;21409033333
4056;21473152000;20909033333;21409033333
4057;21473153000;20909033333;21409033333
4059;21473263000;20909333333;21409333333
4060;21473267000;20909333333;21409333333
4061;21473268000;20909333333;21409333333
4062;21512986000;20950711111;21450711111
4068;21512990000;20950711111;21450711111
4069;21513135000;20950722222;21450722222
4070;21513137000;20950988888;21450988888
4071;21513139000;20950988888;21450988888
4072;21513140000;20950988888;21450988888
4073;21551227000;20992366666;21492366666
4074;21551230000;20992366666;21492366666
4075;21551231000;20992366666;21492366666
4076;21551232000;20992366666;21492366666
4077;21551233000;20992366666;21492366666
4079;21551234000;20992366666;21492366666
4080;21551434000;20992388888;21492388888
4081;21551449000;20992666666;21492666666
4082;21551450000;20992666666;21492666666
4083;21551451000;20992666666;21492666666
4084;21588084000;21034033333;21534033333
4085;21588087000;21034033333;21534033333
4086;21588088000;21034033333;21534033333
4087;21588089000;21034033333;21534033333
4089;21588090000;21034033333;21534033333
4091;21588299000;21034044444;21534044444
4092;21588314000;21034355555;21534355555
4093;21588315000;21034355555;21534355555
4094;21588316000;21034355555;21534355555
4095;21615848000;21075700000;21575700000
4096;21615851000;21075700000;21575700000
4097;21615852000;21075700000;21575700000
4098;21615853000;21075700000;21575700000
4099;21615854000;21075700000;21575700000
4100;21615855000;21075700000;21575700000
4102;21616053000;21075711111;21575711111
4103;21616060000;21075988888;21575988888
4104;21616061000;21075988888;21575988888
4105;21616062000;21075988888;21575988888
4106;21651357000;21117366666;21617366666
4107;21651359000;21117366666;21617366666
4110;21651360000;21117366666;21617366666
4111;21651361000;21117366666;21617366666
4112;21651362000;21117366666;21617366666
4114;21651435000;21117677777;21617677777
4115;21651436000;21117677777;21617677777
4116;21651437000;21117677777;21617677777
4117;21688447000;21159044444;21659044444
4118;21688451000;21159044444;21659044444
4119;21688451000;21159044444;21659044444
4120;21688453000;21159044444;21659044444
4121;21688454000;21159044444;21659044444
4122;21688454000;21159044444;21659044444
4123;21688455000;21159044444;21659044444
4124;21688654000;21159055555;21659055555
4125;21688670000;21159366666;21659366666
4128;21723589000;21200700000;21700700000
4129;21723592000;21200700000;21700700000
4130;21723593000;21200700000;21700700000
4131;21723594000;21200700000;21700700000
4132;21723595000;21200700000;21700700000
4133;21723596000;21200700000;21700700000
4136;21723606000;21201011111;21701011111
4137;21723624000;21201011111;21701011111
4138;21723625000;21201011111;21701011111
4139;21761025000;21242366666;21742366666
4140;21761028000;21242366666;21742366666
4142;21761029000;21242366666;21742366666
4143;21761030000;21242366666;21742366666
4144;21761031000;21242366666;21742366666
4145;21761032000;21242366666;21742366666
4146;21761211000;21242388888;21742388888
4147;21761215000;21242666666;21742666666
4148;21761216000;21242666666;21742666666
4149;21761217000;21242666666;21742666666
4150;21797183000;21284033333;21784033333
4151;21797186000;21284033333;21784033333
4152;21797187000;21284033333;21784033333
4154;21797188000;21284033333;21784033333
4157;21797387000;21284055555;21784055555
4158;21797403000;21284322222;21784322222
4159;21797404000;21284322222;21784322222
4160;21797405000;21284322222;21784322222
4161;21833466000;21325711111;21825711111
4162;21833469000;21325711111;21825711111
4163;21833470000;21325711111;21825711111
4164;21833471000;21325711111;21825711111
4165;21833472000;21325711111;21825711111
4166;21833473000;21325711111;21825711111
4167;21833474000;21325711111;21825711111
4168;21833673000;21325733333;21825733333
4169;21833679000;21326000000;21826000000
4170;21833680000;21326000000;21826000000
4171;21833681000;21326000000;21826000000
4172;21869231000;21367366666;21867366666
4173;21869234000;21367366666;21867366666
4174;21869235000;21367366666;21867366666
4175;21869236000;21367366666;21867366666
4176;21869237000;21367366666;21867366666
4177;21869238000;21367366666;21867366666
4178;21869239000;21367366666;21867366666
4179;21869409000;21367388888;21867388888
4180;21869413000;21367688888;21867688888
4181;21869414000;21367688888;21867688888
4182;21869416000;21367688888;21867688888
4183;21960650000;21409033333;21909033333
4184;21960654000;21409033333;21909033333
4185;21960655000;21409033333;21909033333
4186;21960655000;21409033333;21909033333
4190;21960855000;21409055555;21909055555
4191;21960871000;21409344444;21909344444
4192;21960872000;21409344444;21909344444
4193;21960873000;21409344444;21909344444
4194;22001417000;21450700000;21950700000
4195;22001421000;21450700000;21950700000
4196;22001422000;21450700000;21950700000
4197;22001423000;21450700000;21950700000
4198;22001424000;21450700000;21950700000
4199;22001424000;21450700000;21950700000
4200;22001425000;21450700000;21950700000
4201;22001625000;21450722222;21950722222
4202;22001640000;21451000000;21951000000
4203;22001641000;21451000000;21951000000
4204;22001642000;21451000000;21951000000
4205;22042230000;21492366666;21992366666
4206;22042233000;21492366666;21992366666
4207;22042234000;21492366666;21992366666
4208;22042235000;21492366666;21992366666
4209;22042236000;21492366666;21992366666
4210;22042237000;21492366666;21992366666
4211;22042238000;21492366666;21992366666
4212;22042437000;21492388888;21992388888
4213;22042443000;21492677777;21992677777
4214;22042444000;21492677777;21992677777
4215;22042445000;21492677777;21992677777
4216;22082482000;21534033333;22034033333
4221;22082485000;21534033333;22034033333
4222;22082486000;21534033333;22034033333
4223;22082724000;21534055555;22034055555
4224;22082740000;21534388888;22034388888
4225;22082741000;21534388888;22034388888
4226;22082742000;21534388888;22034388888
4227;22122165000;21575711111;22075711111
4235;22122277000;21576000000;22076000000
4236;22122281000;21576000000;22076000000
4237;22122282000;21576000000;22076000000
4238;22161075000;21617366666;22117366666
4246;22161188000;21617688888;22117688888
4247;22161191000;21617688888;22117688888
4248;22161192000;21617688888;22117688888
4249;22199078000;21659033333;22159033333
4254;22199090000;21659033333;22159033333
4255;22199092000;21659033333;22159033333
4256;22199291000;21659044444;22159044444
4257;22199306000;21659355555;22159355555
4258;22199307000;21659355555;22159355555
4259;22199308000;21659355555;22159355555
4260;22231695000;21700700000;22200700000
4261;22231698000;21700700000;22200700000
4262;22231699000;21700700000;22200700000
4263;22231700000;21700700000;22200700000
4264;22231701000;21700700000;22200700000
4265;22231702000;21700700000;22200700000
4266;22231710000;21700700000;22200700000
4267;22231847000;21700711111;22200711111
4268;22231849000;21701000000;22201000000
4269;22231851000;21701000000;22201000000
4270;22231852000;21701000000;22201000000
4271;22267125000;21742366666;22242366666
4272;22267128000;21742366666;22242366666
4273;22267129000;21742366666;22242366666
4274;22267139000;21742366666;22242366666
4275;22267140000;21742366666;22242366666
4276;22267141000;21742366666;22242366666
4277;22267142000;21742366666;22242366666
4278;22267311000;21742388888;22242388888
4279;22267313000;21742700000;22242700000
4280;22267314000;21742700000;22242700000
4281;22267315000;21742700000;22242700000
4282;22303545000;21784033333;22284033333
4283;22303547000;21784033333;22284033333
4284;22303548000;21784033333;22284033333
4285;22303549000;21784033333;22284033333
4286;22303559000;21784033333;22284033333
4287;22303560000;21784033333;22284033333
4288;22303561000;21784033333;22284033333
4290;22346038000;21784344444;22284344444
4292;22346050000;21784344444;22284344444
4293;22346156000;21825700000;22325700000
4294;22346158000;21825700000;22325700000
4295;22346159000;21825700000;22325700000
4296;22346170000;21825700000;22325700000
4297;22346171000;21825700000;22325700000
4298;22346172000;21825700000;22325700000
4299;22346173000;21825700000;22325700000
4300;22387471000;21825722222;22325722222
4302;22387474000;21826000000;22326000000
4303;22387475000;21826000000;22326000000
4304;22428915000;21867366666;22367366666
4305;22428918000;21867366666;22367366666
4306;22428919000;21867366666;22367366666
4307;22428920000;21867366666;22367366666
4308;22428921000;21867366666;22367366666
4309;22428922000;21867366666;22367366666
4310;22428923000;21867366666;22367366666
4311;22429143000;21867388888;22367388888
4312;22429147000;21867722222;22367722222
4313;22429148000;21867722222;22367722222
4314;22429149000;21867722222;22367722222
4316;22470564000;21909033333;22409033333
4317;22470568000;21909033333;22409033333
4320;22470569000;21909033333;22409033333
4321;22470570000;21909033333;22409033333
4322;22470700000;21909055555;22409055555
4323;22470715000;21909344444;22409344444
4324;22470717000;21909344444;22409344444
4325;22470718000;21909344444;22409344444
4326;22511361000;21950722222;22450722222
4327;22511364000;21950722222;22450722222
4328;22511365000;21950722222;22450722222
4329;22511366000;21950722222;22450722222
4330;22511367000;21950722222;22450722222
4331;22511368000;21950722222;22450722222
4332;22511369000;21950722222;22450722222
4333;22511506000;21950733333;22450733333
4334;22511509000;21951011111;22451011111
4335;22511510000;21951011111;22451011111
4336;22511511000;21951011111;22451011111
4337;22552051000;21992366666;22492366666
4344;22552224000;21992388888;22492388888
4345;22552228000;21992677777;22492677777
4346;22552229000;21992677777;22492677777
4347;22552230000;21992677777;22492677777
4348;22592158000;22034033333;22534033333
4359;22631974000;22075700000;22575700000
4368;22632077000;22075977777;22575977777
4369;22632089000;22075977777;22575977777
4370;22670383000;22117377777;22617377777
4372;22670386000;22117377777;22617377777
4373;22670387000;22117377777;22617377777
4374;22670388000;22117377777;22617377777
4375;22670389000;22117377777;22617377777
4376;22670390000;22117377777;22617377777
4377;22670589000;22117388888;22617388888
4378;22670604000;22117688888;22617688888
4379;22670606000;22117688888;22617688888
4380;22670606000;22117688888;22617688888
4381;22704687000;22159033333;22659033333
4382;22704690000;22159033333;22659033333
4383;22704691000;22159033333;22659033333
4384;22704702000;22159033333;22659033333
4385;22704703000;22159033333;22659033333
4386;22704704000;22159033333;22659033333
4387;22704705000;22159033333;22659033333
4388;22704916000;22159055555;22659055555
4389;22704931000;22159355555;22659355555
4391;22704933000;22159355555;22659355555
4394;22740909000;22200700000;22700700000
4396;23724070000;22200700000;22700700000
4398;23724072000;22200700000;22700700000
4399;23724284000;22200711111;22700711111
4400;23742756000;22201022222;22701022222
4401;23742759000;22201022222;22701022222
4402;23742768000;22201022222;22701022222
4403;23834546000;22242366666;22742366666
4406;23834549000;22242366666;22742366666
4407;23834550000;22242366666;22742366666
4408;23834551000;22242366666;22742366666
4409;23834552000;22242366666;22742366666
4411;23834811000;22242677777;22742677777
4413;23834815000;22242677777;22742677777
4414;23876025000;22284033333;22784033333
4423;23876146000;22284333333;22784333333
4424;23876149000;22284333333;22784333333
4425;23917489000;22325700000;22825700000
4438;23958598000;22367377777;22867377777
4459;24038362000;22450700000;22950700000
4504;24173016000;22617366666;23117366666
4588;24271718000;22909322222;23409322222
4649;24312122000;23159044444;23659044444
4673;24332153000;23242366666;23742366666
4687;24341374000;23284311111;23784311111
4688;24341378000;23284311111;23784311111
4689;24354943000;23325700000;23825700000
4706;24365328000;23367366666;23867366666
4707;24365537000;23367388888;23867388888
4709;24365553000;23367677777;23867677777
4710;24365554000;23367677777;23867677777
4711;24381197000;23409033333;23909033333
4726;24391233000;23450700000;23950700000
4729;24391424000;23450722222;23950722222
4742;24391428000;23492666666;23992666666
4743;24391429000;23492666666;23992666666
4744;24416907000;23534033333;24034033333
4760;24435355000;23575711111;24075711111
4776;24444450000;23617711111;24117711111
4777;24457508000;23659033333;24159033333
4796;24474852000;23701022222;24201022222
4818;24491181000;23784355555;24284355555
4819;24491184000;23784355555;24284355555
4820;24491185000;23784355555;24284355555
4821;24509976000;23825700000;24325700000
4839;24515606000;23867388888;24367388888
4857;24515621000;23950700000;24450700000
4858;24515622000;23950700000;24450700000
4859;24515623000;23950700000;24450700000
4862;24548320000;23951011111;24451011111
4873;24551481000;23992677777;24492677777
4874;24551485000;23992677777;24492677777
4875;24551485000;23992677777;24492677777
4876;24566736000;24034033333;24534033333
4885;24566852000;24034355555;24534355555
4886;24566856000;24034355555;24534355555
4887;24568694000;24075700000;24575700000
4888;24568698000;24075700000;24575700000
4889;24568699000;24075700000;24575700000
4890;24568700000;24075700000;24575700000
4891;24568700000;24075700000;24575700000
4892;24568701000;24075700000;24575700000
4893;24568702000;24075700000;24575700000
4894;24568909000;24075711111;24575711111
4896;24568925000;24075988888;24575988888
4897;24568926000;24075988888;24575988888
4898;24585418000;24117377777;24617377777
4899;24585422000;24117377777;24617377777
4900;24585423000;24117377777;24617377777
4901;24585424000;24117377777;24617377777
4902;24585425000;24117377777;24617377777
4903;24585426000;24117377777;24617377777
4904;24585427000;24117377777;24617377777
4905;24666620000;24117388888;24617388888
4919;24666636000;24159355555;24659355555
4920;24748312000;24200700000;24700700000
4922;24748316000;24200700000;24700700000
4923;24748317000;24200700000;24700700000
4924;24748318000;24200700000;24700700000
4925;24748318000;24200700000;24700700000
4926;24748319000;24200700000;24700700000
4927;24748519000;24200722222;24700722222
4928;24748534000;24201022222;24701022222
4929;24748536000;24201022222;24701022222
4930;24748536000;24201022222;24701022222
4931;24787037000;24242366666;24742366666
4932;24787040000;24242366666;24742366666
4933;24787041000;24242366666;24742366666
4934;24787050000;24242366666;24742366666
4936;24787435000;24242366666;24742366666
4937;24787446000;24242366666;24742366666
4938;24787648000;24242388888;24742388888
4939;24787663000;24242677777;24742677777
4940;24787664000;24242677777;24742677777
4941;24787665000;24242677777;24742677777
4942;24824923000;24284033333;24784033333
4944;24824927000;24284033333;24784033333
4946;25690376000;24284033333;24784033333
4947;25690378000;24284033333;24784033333
4948;25710697000;24284033333;24784033333
4949;25761173000;24284055555;24784055555
4950;25761188000;24284366666;24784366666
4952;25761194000;24284366666;24784366666
4953;25802654000;24325700000;24825700000
4954;25802657000;24325700000;24825700000
4955;25802658000;24325700000;24825700000
4956;25802666000;24325700000;24825700000
4957;25802667000;24325700000;24825700000
4959;25802668000;24325700000;24825700000
4960;25802868000;24325722222;24825722222
4961;25802884000;24326000000;24826000000
4962;25802885000;24326000000;24826000000
4963;25802886000;24326000000;24826000000
4964;25844268000;24367366666;24867366666
4965;25844271000;24367366666;24867366666
4966;25844272000;24367366666;24867366666
4967;25844273000;24367366666;24867366666
4968;25844274000;24367366666;24867366666
4969;25844275000;24367366666;24867366666
4970;25844276000;24367366666;24867366666
4972;25844568000;24367700000;24867700000
4974;25844572000;24367700000;24867700000
4975;25885837000;24409033333;24909033333
4976;25885841000;24409033333;24909033333
4978;25885842000;24409033333;24909033333
4979;25885843000;24409033333;24909033333
4980;25885844000;24409033333;24909033333
4981;25885845000;24409033333;24909033333
4982;25886063000;24409055555;24909055555
4985;25886069000;24409355555;24909355555
4986;25927194000;24450711111;24950711111
4994;25927305000;24451011111;24951011111
4995;25927309000;24451011111;24951011111
4996;25927310000;24451011111;24951011111
4997;25968105000;24492388888;24992388888
5010;26008630000;24534033333;25034033333
5029;26047735000;24575988888;25075988888
5050;26119451000;24659333333;25159333333
5098;26237794000;24867366666;25367366666
5168;26294561000;25117366666;25617366666
5197;26327737000;25242366666;25742366666
5231;26358173000;25367366666;25867366666
5248;26373616000;25409355555;25909355555
5272;26411861000;25534033333;26034033333
5303;26427528000;25617688888;26117688888
5321;26444655000;25700700000;26200700000
5340;26470611000;25784033333;26284033333
5359;26481199000;25826000000;26326000000
5360;26499912000;25867366666;26367366666
5377;26505983000;25909033333;26409033333
5389;26518951000;25950722222;26450722222
5390;26518966000;25951000000;26451000000
5391;26518968000;25951000000;26451000000
5392;26518969000;25951000000;26451000000
5393;26523535000;25992377777;26492377777
5405;26537612000;26034033333;26534033333
5406;26537616000;26034033333;26534033333
5407;26537617000;26034033333;26534033333
5408;26537618000;26034033333;26534033333
5409;26537619000;26034033333;26534033333
5410;26537620000;26034033333;26534033333
5411;26594372000;26034055555;26534055555
5445;26594387000;26159355555;26659355555
5446;26594389000;26159355555;26659355555
5447;26594390000;26159355555;26659355555
5448;26756147000;26200700000;26700700000
5476;26826248000;26284033333;26784033333
5477;26826450000;26284044444;26784044444
5478;26826465000;26284333333;26784333333
5479;26826466000;26284333333;26784333333
5480;26826467000;26284333333;26784333333
5481;26855786000;26325700000;26825700000
5482;26855789000;26325700000;26825700000
5483;26855790000;26325700000;26825700000
5484;26855791000;26325700000;26825700000
5485;26855792000;26325700000;26825700000
5486;26855793000;26325700000;26825700000
5487;26855794000;26325700000;26825700000
5488;26855964000;26325711111;26825711111
5489;26855968000;26325988888;26825988888
5490;26855969000;26325988888;26825988888
5491;26855970000;26325988888;26825988888
5492;26880372000;26367366666;26867366666
5493;26880374000;26367366666;26867366666
5494;26880375000;26367366666;26867366666
5495;26880376000;26367366666;26867366666
5496;26880377000;26367366666;26867366666
5498;26881402000;26367366666;26867366666
5499;26881626000;26367377777;26867377777
