seqnum;now;rtptime;deadline
3;8042724000;7683688888;8183688888
6;8042729000;7683688888;8183688888
7;8042730000;7683688888;8183688888
8;8042732000;7683688888;8183688888
9;8042734000;7683688888;8183688888
10;8123920000;7683700000;8183700000
14;8123934000;7725344444;8225344444
15;8123936000;7725344444;8225344444
16;8123937000;7725344444;8225344444
17;8123939000;7725344444;8225344444
18;8123941000;7725344444;8225344444
19;8123942000;7725344444;8225344444
20;8123944000;7725344444;8225344444
21;8165359000;7725355555;8225355555
22;8165380000;7725755555;8225755555
23;8165382000;7725755555;8225755555
24;8165384000;7725755555;8225755555
25;8206418000;7767022222;8267022222
36;8245759000;7808677777;8308677777
37;8245763000;7808677777;8308677777
38;8245764000;7808677777;8308677777
39;8245765000;7808677777;8308677777
40;8245766000;7808677777;8308677777
41;8245767000;7808677777;8308677777
42;8245768000;7808677777;8308677777
43;8245983000;7808700000;8308700000
44;8245998000;7809066666;8309066666
45;8246000000;7809066666;8309066666
46;8246001000;7809066666;8309066666
47;8336777000;7850344444;8350344444
48;8336797000;7850344444;8350344444
49;8336798000;7850344444;8350344444
50;8336800000;7850344444;8350344444
51;8336802000;7850344444;8350344444
52;8336804000;7850344444;8350344444
53;8336805000;7850344444;8350344444
54;8377652000;7850366666;8350366666
69;8377667000;7933677777;8433677777
70;8377668000;7933677777;8433677777
71;8377670000;7933677777;8433677777
72;8377671000;7933677777;8433677777
73;8377672000;7933677777;8433677777
74;8377673000;7933677777;8433677777
75;8377674000;7933677777;8433677777
76;8454508000;7933700000;8433700000
77;8454524000;7934033333;8434033333
79;8454525000;7934033333;8434033333
80;8491885000;7975344444;8475344444
81;8491889000;7975344444;8475344444
82;8491890000;7975344444;8475344444
83;8523754000;7975344444;8475344444
84;8523759000;7975344444;8475344444
85;8523764000;7975344444;8475344444
86;8523779000;7975344444;8475344444
87;8574250000;7975355555;8475355555
91;8574266000;8017011111;8517011111
92;8574267000;8017011111;8517011111
93;8574268000;8017011111;8517011111
94;8574269000;8017011111;8517011111
95;8574270000;8017011111;8517011111
96;8574271000;8017011111;8517011111
97;8574272000;8017011111;8517011111
98;8615862000;8017022222;8517022222
99;8615878000;8017355555;8517355555
100;8615880000;8017355555;8517355555
101;8615881000;8017355555;8517355555
102;8657254000;8058666666;8558666666
103;8657258000;8058666666;8558666666
104;8657259000;8058666666;8558666666
105;8657260000;8058666666;8558666666
106;8657261000;8058666666;8558666666
107;8657262000;8058666666;8558666666
108;8657263000;8058666666;8558666666
109;8657469000;8058688888;8558688888
110;8657484000;8058977777;8558977777
111;8684273000;8058977777;8558977777
112;8684276000;8058977777;8558977777
113;8697597000;8100344444;8600344444
124;8817869000;8142011111;8642011111
125;8817872000;8142011111;8642011111
126;8817874000;8142011111;8642011111
127;8817875000;8142011111;8642011111
128;8817876000;8142011111;8642011111
129;8817877000;8142011111;8642011111
130;8817878000;8142011111;8642011111
131;8818101000;8142033333;8642033333
132;8818117000;8142311111;8642311111
133;8818118000;8142311111;8642311111
134;8818119000;8142311111;8642311111
135;8858567000;8183677777;8683677777
157;8936069000;8267000000;8767000000
158;8936073000;8267000000;8767000000
159;8936074000;8267000000;8767000000
160;8936075000;8267000000;8767000000
161;8936076000;8267000000;8767000000
162;8936077000;8267000000;8767000000
163;8936078000;8267000000;8767000000
164;8936285000;8267011111;8767011111
165;8936301000;8267344444;8767344444
166;8936302000;8267344444;8767344444
167;8936303000;8267344444;8767344444
168;8972739000;8308677777;8808677777
169;8972743000;8308677777;8808677777
170;8972744000;8308677777;8808677777
171;9004881000;8308677777;8808677777
172;9004884000;8308677777;8808677777
173;9004903000;8308677777;8808677777
174;9004905000;8308677777;8808677777
175;9055366000;8308700000;8808700000
179;9055381000;8350344444;8850344444
180;9055383000;8350344444;8850344444
181;9055384000;8350344444;8850344444
182;9055397000;8350344444;8850344444
183;9055398000;8350344444;8850344444
184;9055399000;8350344444;8850344444
185;9055400000;8350344444;8850344444
186;9097103000;8350366666;8850366666
187;9097119000;8350644444;8850644444
188;9097120000;8350644444;8850644444
189;9097121000;8350644444;8850644444
190;9138493000;8392000000;8892000000
191;9138496000;8392000000;8892000000
192;9138498000;8392000000;8892000000
193;9138499000;8392000000;8892000000
194;9138500000;8392000000;8892000000
195;9138501000;8392000000;8892000000
196;9138502000;8392000000;8892000000
197;9138679000;8392022222;8892022222
198;9138684000;8392311111;8892311111
199;9138686000;8392311111;8892311111
200;9138687000;8392311111;8892311111
201;9178756000;8433666666;8933666666
212;9219759000;8475344444;8975344444
213;9219762000;8475344444;8975344444
214;9219763000;8475344444;8975344444
215;9219765000;8475344444;8975344444
216;9219766000;8475344444;8975344444
217;9219767000;8475344444;8975344444
218;9219768000;8475344444;8975344444
219;9219967000;8475366666;8975366666
220;9219982000;8475666666;8975666666
221;9219984000;8475666666;8975666666
222;9219985000;8475666666;8975666666
223;9258823000;8517011111;9017011111
224;9258826000;8517011111;9017011111
225;9258828000;8517011111;9017011111
226;9258829000;8517011111;9017011111
227;9258830000;8517011111;9017011111
228;9258831000;8517011111;9017011111
229;9258832000;8517011111;9017011111
230;9259031000;8517022222;9017022222
231;9325492000;8517322222;9017322222
232;9325493000;8517322222;9017322222
233;9325498000;8517322222;9017322222
234;9417414000;8558688888;9058688888
244;9417530000;8559022222;9059022222
245;9458676000;8600344444;9100344444
246;9458679000;8600344444;9100344444
247;9458680000;8600344444;9100344444
248;9458682000;8600344444;9100344444
249;9458683000;8600344444;9100344444
250;9458684000;8600344444;9100344444
251;9458685000;8600344444;9100344444
252;9458884000;8600366666;9100366666
253;9458899000;8600700000;9100700000
254;9458900000;8600700000;9100700000
255;9458901000;8600700000;9100700000
256;9499613000;8642011111;9142011111
273;9538354000;8683677777;9183677777
274;9538581000;8683700000;9183700000
275;9538596000;8683966666;9183966666
276;9538598000;8683966666;9183966666
277;9538600000;8683966666;9183966666
278;9577333000;8725333333;9225333333
279;9577342000;8725333333;9225333333
280;9577344000;8725333333;9225333333
281;9577346000;8725333333;9225333333
282;9577348000;8725333333;9225333333
283;9577349000;8725333333;9225333333
284;9577351000;8725333333;9225333333
285;9577580000;8725355555;9225355555
286;9577596000;8725666666;9225666666
287;9577598000;8725666666;9225666666
288;9577599000;8725666666;9225666666
289;9609210000;8767022222;9267022222
290;9609219000;8767022222;9267022222
291;9609221000;8767022222;9267022222
292;9609223000;8767022222;9267022222
293;9609224000;8767022222;9267022222
294;9609226000;8767022222;9267022222
295;9646283000;8767022222;9267022222
296;9696830000;8767044444;9267044444
311;9696850000;8850333333;9350333333
312;9696852000;8850333333;9350333333
313;9696853000;8850333333;9350333333
314;9696855000;8850333333;9350333333
315;9696856000;8850333333;9350333333
316;9696858000;8850333333;9350333333
317;9696859000;8850333333;9350333333
318;9779965000;8850355555;9350355555
319;9779971000;8850677777;9350677777
320;9779989000;8850677777;9350677777
321;9779990000;8850677777;9350677777
322;9819813000;8892022222;9392022222
355;9927127000;9017000000;9517000000
356;9927130000;9017000000;9517000000
357;9927132000;9017000000;9517000000
358;9927133000;9017000000;9517000000
359;9927134000;9017000000;9517000000
360;9927135000;9017000000;9517000000
361;9927136000;9017000000;9517000000
362;9927342000;9017022222;9517022222
363;9927358000;9017311111;9517311111
364;9927359000;9017311111;9517311111
365;9927360000;9017311111;9517311111
366;9949167000;9058666666;9558666666
367;9949170000;9058666666;9558666666
368;9949171000;9058666666;9558666666
369;9949172000;9058666666;9558666666
370;9949174000;9058666666;9558666666
371;9949174000;9058666666;9558666666
372;9949175000;9058666666;9558666666
373;9949351000;9058677777;9558677777
374;9967084000;9058966666;9558966666
375;9967284000;9058966666;9558966666
376;9967479000;9058966666;9558966666
377;10100781000;9100344444;9600344444
396;10138489000;9142300000;9642300000
440;10262948000;9308988888;9808988888
441;10262951000;9308988888;9808988888
442;10262952000;9308988888;9808988888
443;10288414000;9350333333;9850333333
444;10288418000;9350333333;9850333333
445;10288419000;9350333333;9850333333
446;10288420000;9350333333;9850333333
447;10288421000;9350333333;9850333333
448;10288422000;9350333333;9850333333
449;10288423000;9350333333;9850333333
450;10288622000;9350344444;9850344444
451;10288638000;9350633333;9850633333
452;10288639000;9350633333;9850633333
453;10288640000;9350633333;9850633333
454;10312598000;9392011111;9892011111
488;10495762000;9517000000;10017000000
539;10653109000;9683955555;10183955555
586;10719065000;9892011111;10392011111
587;10719078000;9892011111;10392011111
588;10719079000;9892011111;10392011111
589;10719081000;9892011111;10392011111
591;10719082000;9892011111;10392011111
592;10719083000;9892011111;10392011111
593;10719290000;9892033333;10392033333
594;10719305000;9892344444;10392344444
595;10719306000;9892344444;10392344444
596;10719307000;9892344444;10392344444
597;10719323000;9933677777;10433677777
598;10719325000;9933677777;10433677777
599;10719326000;9933677777;10433677777
600;10719328000;9933677777;10433677777
601;10719329000;9933677777;10433677777
602;10719331000;9933677777;10433677777
603;10719333000;9933677777;10433677777
604;10719438000;9933700000;10433700000
605;10719453000;9933977777;10433977777
606;10719454000;9933977777;10433977777
607;10719455000;9933977777;10433977777
608;10734330000;9975333333;10475333333
609;10773451000;9975333333;10475333333
610;10773468000;9975333333;10475333333
611;10773469000;9975333333;10475333333
612;10773470000;9975333333;10475333333
613;10773471000;9975333333;10475333333
614;10773472000;9975333333;10475333333
615;10904421000;9975355555;10475355555
635;10904436000;10058688888;10558688888
636;10904438000;10058688888;10558688888
637;10978117000;10058700000;10558700000
685;10978132000;10267011111;10767011111
686;10978133000;10267011111;10767011111
687;10978134000;10267011111;10767011111
688;10978135000;10267011111;10767011111
689;10978136000;10267011111;10767011111
690;10978137000;10267011111;10767011111
691;10978138000;10267011111;10767011111
692;11033538000;10267033333;10767033333
693;11033553000;10267322222;10767322222
694;11033555000;10267322222;10767322222
695;11033556000;10267322222;10767322222
696;11059714000;10308666666;10808666666
697;11059718000;10308666666;10808666666
698;11059719000;10308666666;10808666666
699;11059720000;10308666666;10808666666
700;11059721000;10308666666;10808666666
701;11059722000;10308666666;10808666666
702;11059723000;10308666666;10808666666
703;11059922000;10308688888;10808688888
704;11059937000;10309000000;10809000000
705;11059938000;10309000000;10809000000
706;11092167000;10309000000;10809000000
707;11226064000;10350344444;10850344444
731;11303459000;10433677777;10933677777
784;11498354000;10642011111;11142011111
828;11545246000;10808666666;11308666666
829;11545250000;10808666666;11308666666
830;11545251000;10808666666;11308666666
831;11545252000;10808666666;11308666666
832;11545253000;10808666666;11308666666
833;11545254000;10808666666;11308666666
834;11545255000;10808666666;11308666666
835;11545462000;10808688888;11308688888
836;11545478000;10808988888;11308988888
837;11545479000;10808988888;11308988888
838;11545480000;10808988888;11308988888
839;11546897000;10850344444;11350344444
840;11546900000;10850344444;11350344444
841;11546902000;10850344444;11350344444
842;11546903000;10850344444;11350344444
843;11546904000;10850344444;11350344444
844;11546905000;10850344444;11350344444
845;11546906000;10850344444;11350344444
846;11547014000;10850355555;11350355555
847;11547030000;10850666666;11350666666
848;11547032000;10850666666;11350666666
849;11547033000;10850666666;11350666666
850;11552538000;10892011111;11392011111
851;11578379000;10892011111;11392011111
852;11578382000;10892011111;11392011111
853;11578405000;10892011111;11392011111
854;11578407000;10892011111;11392011111
855;11578408000;10892011111;11392011111
856;11578409000;10892011111;11392011111
857;11709655000;10892033333;11392033333
879;11778856000;10975366666;11475366666
927;11778862000;11183677777;11683677777
928;11778863000;11183677777;11683677777
929;11778864000;11183677777;11683677777
930;11778865000;11183677777;11683677777
931;11778866000;11183677777;11683677777
932;11778867000;11183677777;11683677777
933;11778868000;11183677777;11683677777
934;11968005000;11183700000;11683700000
974;11968020000;11350344444;11850344444
975;11968021000;11350344444;11850344444
976;11968022000;11350344444;11850344444
977;11968023000;11350344444;11850344444
978;11987800000;11350366666;11850366666
979;11987815000;11350655555;11850655555
980;11987816000;11350655555;11850655555
981;11987817000;11350655555;11850655555
982;12021610000;11392011111;11892011111
983;12021613000;11392011111;11892011111
984;12021614000;11392011111;11892011111
985;12021615000;11392011111;11892011111
986;12021616000;11392011111;11892011111
987;12021617000;11392011111;11892011111
988;12021618000;11392011111;11892011111
989;12021788000;11392033333;11892033333
990;12021793000;11392344444;11892344444
991;12021794000;11392344444;11892344444
992;12021795000;11392344444;11892344444
993;12052979000;11433666666;11933666666
994;12052982000;11433666666;11933666666
995;12052983000;11433666666;11933666666
996;12052985000;11433666666;11933666666
997;12057627000;11433666666;11933666666
998;12057933000;11433666666;11933666666
999;12058130000;11433666666;11933666666
1000;12191144000;11433688888;11933688888
1024;12191159000;11517333333;12017333333
1025;12191161000;11517333333;12017333333
1026;12300682000;11558677777;12058677777
1070;12325193000;11725344444;12225344444
1071;12325197000;11725344444;12225344444
1072;12325198000;11725344444;12225344444
1073;12325199000;11725344444;12225344444
1074;12325200000;11725344444;12225344444
1077;12325362000;11725366666;12225366666
1078;12325369000;11725666666;12225666666
1079;12325370000;11725666666;12225666666
1080;12325371000;11725666666;12225666666
1081;12338725000;11767000000;12267000000
1082;12338729000;11767000000;12267000000
1083;12338730000;11767000000;12267000000
1084;12338731000;11767000000;12267000000
1086;12338732000;11767000000;12267000000
1088;12338841000;11767022222;12267022222
1089;12338857000;11767300000;12267300000
1090;12338858000;11767300000;12267300000
1091;12338859000;11767300000;12267300000
1093;12357720000;11808666666;12308666666
1094;12378366000;11808666666;12308666666
1095;12378582000;11808666666;12308666666
1096;12378977000;11808666666;12308666666
1097;12379212000;11808666666;12308666666
1100;12511622000;11809000000;12309000000
1114;12590285000;11892011111;12392011111
1169;12680277000;12100333333;12600333333
1170;12680281000;12100333333;12600333333
1171;12680282000;12100333333;12600333333
1172;12680283000;12100333333;12600333333
1173;12680284000;12100333333;12600333333
1174;12680286000;12100333333;12600333333
1175;12680287000;12100333333;12600333333
1176;12680492000;12100355555;12600355555
1177;12680508000;12100666666;12600666666
1178;12680509000;12100666666;12600666666
1179;12680510000;12100666666;12600666666
1180;12680522000;12142011111;12642011111
1181;12680524000;12142011111;12642011111
1182;12680526000;12142011111;12642011111
1183;12680527000;12142011111;12642011111
1184;12680529000;12142011111;12642011111
1185;12680531000;12142011111;12642011111
1186;12680533000;12142011111;12642011111
1187;12680637000;12142033333;12642033333
1188;12680652000;12142366666;12642366666
1189;12680654000;12142366666;12642366666
1190;12680655000;12142366666;12642366666
1191;12698571000;12183688888;12683688888
1192;12699291000;12183688888;12683688888
1193;12699508000;12183688888;12683688888
1194;12699869000;12183688888;12683688888
1195;12700273000;12183688888;12683688888
1196;12700481000;12183688888;12683688888
1197;12700483000;12183688888;12683688888
1198;12832717000;12183700000;12683700000
1218;12832732000;12267000000;12767000000
1219;12832734000;12267000000;12767000000
1220;12906394000;12267022222;12767022222
1268;12906409000;12475344444;12975344444
1269;12906410000;12475344444;12975344444
1270;12906412000;12475344444;12975344444
1271;12906413000;12475344444;12975344444
1272;12906414000;12475344444;12975344444
1273;12906415000;12475344444;12975344444
1274;12906416000;12475344444;12975344444
1275;12960155000;12475366666;12975366666
1276;12960171000;12475666666;12975666666
1277;12960172000;12475666666;12975666666
1278;12960173000;12475666666;12975666666
1279;12984785000;12517011111;13017011111
1280;12984790000;12517011111;13017011111
1281;12984791000;12517011111;13017011111
1282;12984792000;12517011111;13017011111
1283;12984793000;12517011111;13017011111
1284;12984794000;12517011111;13017011111
1285;12984796000;12517011111;13017011111
1286;12984997000;12517022222;13017022222
1287;12985012000;12517322222;13017322222
1288;12985013000;12517322222;13017322222
1289;13020062000;12517322222;13017322222
1290;13153953000;12558666666;13058666666
1313;13227350000;12642011111;13142011111
1360;13280908000;12808677777;13308677777
1361;13280912000;12808677777;13308677777
1362;13280913000;12808677777;13308677777
1363;13281120000;12808700000;13308700000
1364;13281135000;12808988888;13308988888
1365;13281137000;12808988888;13308988888
1366;13281138000;12808988888;13308988888
1367;13297275000;12850344444;13350344444
1368;13297279000;12850344444;13350344444
1369;13297280000;12850344444;13350344444
1370;13297281000;12850344444;13350344444
1371;13297282000;12850344444;13350344444
1372;13297283000;12850344444;13350344444
1373;13297284000;12850344444;13350344444
1374;13297400000;12850366666;13350366666
1375;13297416000;12850655555;13350655555
1376;13297417000;12850655555;13350655555
1377;13297419000;12850655555;13350655555
1378;13308275000;12892000000;13392000000
1379;13308279000;12892000000;13392000000
1380;13308280000;12892000000;13392000000
1381;13308281000;12892000000;13392000000
1382;13348058000;12892000000;13392000000
1383;13348064000;12892000000;13392000000
1384;13348979000;12892000000;13392000000
1385;13453906000;12892022222;13392022222
1389;13453922000;12933666666;13433666666
1390;13453923000;12933666666;13433666666
1391;13453925000;12933666666;13433666666
1392;13453926000;12933666666;13433666666
1393;13453927000;12933666666;13433666666
1394;13453928000;12933666666;13433666666
1395;13453929000;12933666666;13433666666
1396;13484479000;12933688888;13433688888
1397;13484495000;12933977777;13433977777
1398;13484497000;12933977777;13433977777
1399;13484498000;12933977777;13433977777
1400;13518026000;12975344444;13475344444
1421;13599517000;13017311111;13517311111
1422;13640515000;13058666666;13558666666
1423;13640518000;13058666666;13558666666
1424;13640520000;13058666666;13558666666
1425;13640521000;13058666666;13558666666
1426;13640522000;13058666666;13558666666
1427;13640522000;13058666666;13558666666
1428;13640523000;13058666666;13558666666
1429;13640730000;13058688888;13558688888
1430;13640746000;13058966666;13558966666
1431;13640748000;13058966666;13558966666
1432;13640749000;13058966666;13558966666
1433;13680840000;13100455555;13600455555
1447;13717706000;13142011111;13642011111
1448;13717709000;13142011111;13642011111
1449;13717711000;13142011111;13642011111
1450;13717712000;13142011111;13642011111
1451;13717910000;13142022222;13642022222
1452;13717925000;13142311111;13642311111
1453;13717927000;13142311111;13642311111
1454;13717928000;13142311111;13642311111
1455;13755485000;13183677777;13683677777
1456;13755489000;13183677777;13683677777
1457;13755490000;13183677777;13683677777
1458;13755491000;13183677777;13683677777
1459;13755492000;13183677777;13683677777
1460;13755502000;13183677777;13683677777
1461;13755503000;13183677777;13683677777
1462;13755674000;13183700000;13683700000
1463;13755681000;13183955555;13683955555
1464;13755682000;13183955555;13683955555
1466;13786365000;13225344444;13725344444
1467;13828669000;13225344444;13725344444
1468;13829013000;13225344444;13725344444
1469;13829209000;13225344444;13725344444
1470;13829211000;13225344444;13725344444
1471;13829222000;13225344444;13725344444
1472;13829239000;13225344444;13725344444
1473;13878779000;13225366666;13725366666
1477;13878797000;13267011111;13767011111
1478;13878799000;13267011111;13767011111
1479;13878800000;13267011111;13767011111
1480;13878801000;13267011111;13767011111
1481;13878802000;13267011111;13767011111
1483;13920506000;13267011111;13767011111
1484;13920653000;13267044444;13767044444
1485;13920659000;13267411111;13767411111
1486;13920661000;13267411111;13767411111
1487;13920662000;13267411111;13767411111
1488;13961780000;13308677777;13808677777
1489;13961784000;13308677777;13808677777
1490;13961785000;13308677777;13808677777
1491;13961786000;13308677777;13808677777
1492;13961787000;13308677777;13808677777
1493;13961788000;13308677777;13808677777
1494;13961789000;13308677777;13808677777
1495;13961912000;13308700000;13808700000
1496;13961917000;13309000000;13809000000
1497;13988696000;13309000000;13809000000
1498;13988699000;13309000000;13809000000
1499;14080523000;13350333333;13850333333
1510;14122247000;13392011111;13892011111
1511;14122251000;13392011111;13892011111
1512;14122252000;13392011111;13892011111
1513;14122253000;13392011111;13892011111
1514;14122254000;13392011111;13892011111
1515;14122255000;13392011111;13892011111
1516;14122256000;13392011111;13892011111
1517;14122378000;13392033333;13892033333
1518;14122383000;13392322222;13892322222
1519;14122385000;13392322222;13892322222
1520;14122386000;13392322222;13892322222
1521;14162772000;13433700000;13933700000
1543;14234895000;13517000000;14017000000
1544;14234899000;13517000000;14017000000
1545;14234900000;13517000000;14017000000
1546;14234901000;13517000000;14017000000
1547;14234902000;13517000000;14017000000
1548;14234903000;13517000000;14017000000
1549;14234904000;13517000000;14017000000
1550;14235021000;13517022222;14017022222
1551;14235027000;13517322222;14017322222
1552;14235028000;13517322222;14017322222
1553;14235029000;13517322222;14017322222
1554;14267019000;13558666666;14058666666
1555;14267022000;13558666666;14058666666
1556;14267024000;13558666666;14058666666
1557;14267025000;13558666666;14058666666
1558;14267026000;13558666666;14058666666
1559;14309259000;13558666666;14058666666
1560;14309262000;13558666666;14058666666
1561;14359652000;13558688888;14058688888
1573;14359658000;13600700000;14100700000
1574;14359660000;13600700000;14100700000
1575;14359661000;13600700000;14100700000
1576;14443064000;13642011111;14142011111
1577;14443068000;13642011111;14142011111
1578;14443069000;13642011111;14142011111
1579;14443070000;13642011111;14142011111
1580;14443071000;13642011111;14142011111
1581;14443072000;13642011111;14142011111
1582;14443073000;13642011111;14142011111
1583;14443179000;13642022222;14142022222
1584;14443184000;13642322222;14142322222
1585;14443185000;13642322222;14142322222
1586;14443187000;13642322222;14142322222
1587;14482913000;13683666666;14183666666
1600;14603293000;13725344444;14225344444
1601;14603296000;13725344444;14225344444
1602;14603297000;13725344444;14225344444
1603;14603298000;13725344444;14225344444
1604;14603299000;13725344444;14225344444
1605;14603421000;13725366666;14225366666
1606;14603427000;13725677777;14225677777
1607;14603428000;13725677777;14225677777
1608;14603429000;13725677777;14225677777
1609;14643406000;13767022222;14267022222
1631;14714345000;13850344444;14350344444
1632;14714349000;13850344444;14350344444
1633;14714350000;13850344444;14350344444
1634;14714351000;13850344444;14350344444
1635;14714352000;13850344444;14350344444
1636;14714353000;13850344444;14350344444
1637;14714354000;13850344444;14350344444
1638;14714480000;13850366666;14350366666
1639;14714486000;13850666666;14350666666
1640;14714487000;13850666666;14350666666
1641;14714488000;13850666666;14350666666
1642;14743318000;13892011111;14392011111
1643;14743322000;13892011111;14392011111
1644;14743323000;13892011111;14392011111
1645;14743324000;13892011111;14392011111
1646;14743325000;13892011111;14392011111
1647;14743326000;13892011111;14392011111
1648;14743327000;13892011111;14392011111
1649;14743452000;13892022222;14392022222
1650;14743457000;13892333333;14392333333
1651;14790810000;13892333333;14392333333
1652;14790812000;13892333333;14392333333
1653;14881950000;13933677777;14433677777
1664;14923754000;13975344444;14475344444
1665;14923758000;13975344444;14475344444
1666;14923759000;13975344444;14475344444
1667;14923760000;13975344444;14475344444
1668;14923761000;13975344444;14475344444
1669;14923762000;13975344444;14475344444
1670;14923763000;13975344444;14475344444
1671;14923886000;13975366666;14475366666
1672;14923892000;13975666666;14475666666
1673;14923893000;13975666666;14475666666
1674;14923895000;13975666666;14475666666
1675;14964117000;14017000000;14517000000
1697;15038172000;14100344444;14600344444
1698;15038176000;14100344444;14600344444
1699;15038177000;14100344444;14600344444
1700;15038178000;14100344444;14600344444
1701;15038179000;14100344444;14600344444
1702;15038180000;14100344444;14600344444
1703;15038181000;14100344444;14600344444
1704;15038306000;14100366666;14600366666
1705;15038312000;14100666666;14600666666
1706;15038313000;14100666666;14600666666
1707;15038314000;14100666666;14600666666
1708;15068543000;14142011111;14642011111
1709;15068546000;14142011111;14642011111
1710;15068548000;14142011111;14642011111
1711;15068549000;14142011111;14642011111
1712;15068550000;14142011111;14642011111
1713;15110729000;14142011111;14642011111
1714;15110732000;14142011111;14642011111
1715;15161144000;14142022222;14642022222
1730;15161150000;14225344444;14725344444
1731;15161152000;14225344444;14725344444
1732;15161153000;14225344444;14725344444
1733;15161154000;14225344444;14725344444
1734;15161155000;14225344444;14725344444
1735;15161156000;14225344444;14725344444
1736;15161157000;14225344444;14725344444
1737;15244374000;14225366666;14725366666
1738;15244381000;14225677777;14725677777
1739;15244382000;14225677777;14725677777
1740;15244383000;14225677777;14725677777
1741;15285040000;14267011111;14767011111
1753;15404689000;14308677777;14808677777
1754;15404692000;14308677777;14808677777
1755;15404693000;14308677777;14808677777
1756;15404694000;14308677777;14808677777
1757;15404695000;14308677777;14808677777
1758;15404696000;14308677777;14808677777
1759;15404798000;14308688888;14808688888
1760;15404804000;14309000000;14809000000
1761;15404805000;14309000000;14809000000
1762;15404806000;14309000000;14809000000
1763;15444774000;14350344444;14850344444
1785;15517442000;14433677777;14933677777
1786;15517446000;14433677777;14933677777
1787;15517448000;14433677777;14933677777
1788;15517449000;14433677777;14933677777
1789;15517450000;14433677777;14933677777
1790;15517451000;14433677777;14933677777
1791;15517452000;14433677777;14933677777
1792;15517577000;14433700000;14933700000
1793;15517582000;14433977777;14933977777
1794;15517584000;14433977777;14933977777
1795;15517585000;14433977777;14933977777
1796;15549158000;14475333333;14975333333
1797;15549162000;14475333333;14975333333
1798;15549163000;14475333333;14975333333
1799;15549164000;14475333333;14975333333
1800;15549165000;14475333333;14975333333
1801;15549166000;14475333333;14975333333
1802;15549167000;14475333333;14975333333
1803;15549272000;14475355555;14975355555
1805;15549278000;14475733333;14975733333
1806;15591517000;14475733333;14975733333
1807;15683826000;14517000000;15017000000
1818;15725139000;14558677777;15058677777
1819;15725142000;14558677777;15058677777
1820;15725143000;14558677777;15058677777
1821;15725145000;14558677777;15058677777
1822;15725145000;14558677777;15058677777
1823;15725146000;14558677777;15058677777
1824;15725147000;14558677777;15058677777
1825;15725269000;14558688888;15058688888
1826;15725275000;14558988888;15058988888
1827;15725276000;14558988888;15058988888
1828;15725277000;14558988888;15058988888
1829;15765553000;14600344444;15100344444
1849;15800083000;14642300000;15142300000
1850;15800087000;14642300000;15142300000
1851;15839118000;14683666666;15183666666
1852;15839122000;14683666666;15183666666
1853;15839123000;14683666666;15183666666
1854;15839124000;14683666666;15183666666
1855;15839125000;14683666666;15183666666
1856;15839126000;14683666666;15183666666
1857;15839127000;14683666666;15183666666
1858;15839268000;14683688888;15183688888
1859;15839274000;14683955555;15183955555
1860;15839275000;14683955555;15183955555
1861;15839276000;14683955555;15183955555
1862;15873865000;14725344444;15225344444
1863;15873869000;14725344444;15225344444
1864;15873870000;14725344444;15225344444
1865;15873871000;14725344444;15225344444
1866;15912152000;14725344444;15225344444
1867;15912155000;14725344444;15225344444
1868;15912164000;14725344444;15225344444
1869;15962530000;14725366666;15225366666
1884;15962537000;14808666666;15308666666
1885;15962538000;14808666666;15308666666
1886;15962539000;14808666666;15308666666
1887;15962540000;14808666666;15308666666
1888;15962550000;14808666666;15308666666
1889;15962552000;14808666666;15308666666
1890;15962553000;14808666666;15308666666
1891;16045344000;14808688888;15308688888
1892;16045351000;14808977777;15308977777
1893;16045353000;14808977777;15308977777
1894;16045353000;14808977777;15308977777
1895;16085738000;14850333333;15350333333
1916;16206059000;14892311111;15392311111
1917;16246587000;14933677777;15433677777
1948;16313016000;15017322222;15517322222
1949;16313020000;15017322222;15517322222
1950;16349738000;15058677777;15558677777
1951;16349742000;15058677777;15558677777
1952;16349743000;15058677777;15558677777
1953;16349744000;15058677777;15558677777
1954;16349745000;15058677777;15558677777
1955;16349746000;15058677777;15558677777
1956;16349747000;15058677777;15558677777
1957;16349872000;15058700000;15558700000
1958;16349878000;15058955555;15558955555
1959;16349880000;15058955555;15558955555
1960;16349881000;15058955555;15558955555
1961;16376099000;15100344444;15600344444
1962;16392992000;15100344444;15600344444
1963;16393074000;15100344444;15600344444
1964;16393077000;15100344444;15600344444
1965;16393078000;15100344444;15600344444
1966;16393146000;15100344444;15600344444
1967;16393148000;15100344444;15600344444
1968;16443356000;15100366666;15600366666
1972;16443363000;15142000000;15642000000
1973;16443365000;15142000000;15642000000
1974;16443366000;15142000000;15642000000
1975;16443367000;15142000000;15642000000
1976;16443377000;15142000000;15642000000
1977;16443378000;15142000000;15642000000
1978;16443379000;15142000000;15642000000
1979;16526613000;15142022222;15642022222
1980;16526620000;15142333333;15642333333
1981;16526622000;15142333333;15642333333
1982;16526623000;15142333333;15642333333
1983;16567263000;15183666666;15683666666
2005;16643954000;15267011111;15767011111
2006;16643958000;15267011111;15767011111
2007;16643959000;15267011111;15767011111
2008;16643960000;15267011111;15767011111
2009;16643961000;15267011111;15767011111
2010;16643962000;15267011111;15767011111
2011;16643963000;15267011111;15767011111
2012;16644132000;15267033333;15767033333
2013;16644138000;15267322222;15767322222
2014;16644140000;15267322222;15767322222
2015;16644141000;15267322222;15767322222
2016;16677744000;15308666666;15808666666
2017;16677748000;15308666666;15808666666
2018;16677749000;15308666666;15808666666
2019;16677750000;15308666666;15808666666
2020;16677751000;15308666666;15808666666
2021;16677752000;15308666666;15808666666
2022;16677753000;15308666666;15808666666
2023;16677953000;15308688888;15808688888
2024;16677958000;15309000000;15809000000
2025;16677960000;15309000000;15809000000
2026;16713536000;15309000000;15809000000
2027;16805359000;15350333333;15850333333
2071;16969830000;15517033333;16017033333
2104;17027615000;15642000000;16142000000
2105;17027619000;15642000000;16142000000
2106;17027620000;15642000000;16142000000
2107;17027621000;15642000000;16142000000
2108;17027622000;15642000000;16142000000
2109;17027623000;15642000000;16142000000
2110;17027624000;15642000000;16142000000
2111;17027831000;15642011111;16142011111
2112;17027847000;15642322222;16142322222
2113;17027848000;15642322222;16142322222
2114;17027849000;15642322222;16142322222
2115;17038237000;15683677777;16183677777
2126;17125673000;15725344444;16225344444
2137;17167681000;15767011111;16267011111
2138;17167685000;15767011111;16267011111
2139;17167686000;15767011111;16267011111
2140;17167697000;15767011111;16267011111
2141;17167706000;15767011111;16267011111
2142;17167708000;15767011111;16267011111
2143;17167709000;15767011111;16267011111
2144;17167856000;15767033333;16267033333
2145;17167860000;15767366666;16267366666
2146;17167862000;15767366666;16267366666
2147;17167863000;15767366666;16267366666
2148;17208121000;15808677777;16308677777
2170;17283614000;15892011111;16392011111
2171;17283617000;15892011111;16392011111
2172;17283618000;15892011111;16392011111
2173;17283619000;15892011111;16392011111
2174;17283620000;15892011111;16392011111
2175;17283621000;15892011111;16392011111
2176;17283622000;15892011111;16392011111
2177;17283725000;15892033333;16392033333
2178;17283731000;15892333333;16392333333
2179;17283732000;15892333333;16392333333
2180;17283733000;15892333333;16392333333
2181;17317898000;15933666666;16433666666
2182;17317902000;15933666666;16433666666
2183;17317903000;15933666666;16433666666
2184;17317904000;15933666666;16433666666
2185;17317905000;15933666666;16433666666
2186;17317906000;15933666666;16433666666
2187;17354626000;15933666666;16433666666
2188;17404978000;15933688888;16433688888
2203;17404984000;16017011111;16517011111
2204;17404985000;16017011111;16517011111
2205;17404986000;16017011111;16517011111
2206;17404987000;16017011111;16517011111
2207;17404988000;16017011111;16517011111
2208;17404989000;16017011111;16517011111
2209;17404990000;16017011111;16517011111
2210;17488479000;16017033333;16517033333
2211;17488485000;16017333333;16517333333
2212;17488486000;16017333333;16517333333
2213;17488487000;16017333333;16517333333
2214;17529062000;16058677777;16558677777
2236;17604159000;16142000000;16642000000
2237;17604162000;16142000000;16642000000
2238;17604163000;16142000000;16642000000
2239;17604164000;16142000000;16642000000
2240;17604165000;16142000000;16642000000
2241;17604167000;16142000000;16642000000
2242;17604168000;16142000000;16642000000
2243;17604375000;16142011111;16642011111
2244;17604391000;16142344444;16642344444
2245;17604392000;16142344444;16642344444
2246;17604393000;16142344444;16642344444
2247;17639914000;16183688888;16683688888
2248;17639917000;16183688888;16683688888
2249;17639918000;16183688888;16683688888
2250;17639919000;16183688888;16683688888
2251;17675160000;16183688888;16683688888
2252;17675163000;16183688888;16683688888
2253;17676250000;16183688888;16683688888
2254;17725621000;16183700000;16683700000
2269;17725636000;16267000000;16767000000
2270;17725637000;16267000000;16767000000
2271;17725638000;16267000000;16767000000
2272;17725639000;16267000000;16767000000
2273;17725640000;16267000000;16767000000
2274;17725641000;16267000000;16767000000
2275;17725642000;16267000000;16767000000
2276;17848330000;16267022222;16767022222
2302;17848346000;16392011111;16892011111
2303;17848347000;16392011111;16892011111
2304;17848348000;16392011111;16892011111
2305;17848349000;16392011111;16892011111
2306;17848350000;16392011111;16892011111
2307;17848351000;16392011111;16892011111
2308;17848352000;16392011111;16892011111
2309;17948523000;16392022222;16892022222
2310;17948529000;16392322222;16892322222
2311;17948530000;16392322222;16892322222
2312;17948531000;16392322222;16892322222
2313;17980924000;16433666666;16933666666
2314;17980928000;16433666666;16933666666
2315;17980929000;16433666666;16933666666
2316;17980930000;16433666666;16933666666
2317;17995729000;16433666666;16933666666
2318;17995732000;16433666666;16933666666
2319;17995785000;16433666666;16933666666
2320;18046231000;16433688888;16933688888
2335;18046246000;16517011111;17017011111
2336;18046248000;16517011111;17017011111
2337;18046249000;16517011111;17017011111
2338;18046250000;16517011111;17017011111
2339;18046251000;16517011111;17017011111
2340;18046252000;16517011111;17017011111
2341;18046253000;16517011111;17017011111
2342;18169455000;16517033333;17017033333
2456;18169461000;16975355555;17475355555
2457;18169463000;16975355555;17475355555
2458;18169464000;16975355555;17475355555
2459;18169466000;16975355555;17475355555
2460;18169467000;16975355555;17475355555
2461;18169469000;16975355555;17475355555
2462;18169479000;16975355555;17475355555
2463;18522854000;16975377777;17475377777
2522;18522869000;17225333333;17725333333
2523;18522871000;17225333333;17725333333
2524;18522872000;17225333333;17725333333
2525;18522873000;17225333333;17725333333
2526;18522874000;17225333333;17725333333
2527;18522875000;17225333333;17725333333
2528;18522875000;17225333333;17725333333
2529;18650770000;17225355555;17725355555
2531;18797158000;17225666666;17725666666
2532;18797161000;17225666666;17725666666
2533;18797294000;17267000000;17767000000
2540;18797417000;17267022222;17767022222
2548;18797439000;17308677777;17808677777
2549;18797440000;17308677777;17808677777
2550;18797441000;17308677777;17808677777
2551;18797590000;17308700000;17808700000
2553;18797607000;17309033333;17809033333
2554;18797608000;17309033333;17809033333
2555;18797629000;17350344444;17850344444
2556;18797631000;17350344444;17850344444
2557;18797632000;17350344444;17850344444
2558;18797634000;17350344444;17850344444
2559;18797636000;17350344444;17850344444
2560;18797638000;17350344444;17850344444
2561;18797639000;17350344444;17850344444
2562;18797748000;17350366666;17850366666
2563;18797765000;17350655555;17850655555
2564;18797766000;17350655555;17850655555
2565;18797767000;17350655555;17850655555
2566;18797789000;17392000000;17892000000
2567;18797791000;17392000000;17892000000
2568;18797793000;17392000000;17892000000
2569;18797795000;17392000000;17892000000
2570;18797797000;17392000000;17892000000
2571;18798270000;17392000000;17892000000
2572;18798272000;17392000000;17892000000
2573;18847613000;17392022222;17892022222
2588;18847628000;17475344444;17975344444
2589;18847629000;17475344444;17975344444
2590;18847630000;17475344444;17975344444
2591;18847631000;17475344444;17975344444
2592;18847632000;17475344444;17975344444
2593;18847633000;17475344444;17975344444
2594;18847634000;17475344444;17975344444
2595;18972058000;17475366666;17975366666
2621;18972064000;17600500000;18100500000
2622;18972065000;17600500000;18100500000
2623;18972066000;17600500000;18100500000
2624;18972067000;17600500000;18100500000
2625;18972068000;17600500000;18100500000
2626;18972069000;17600500000;18100500000
2627;18972071000;17600500000;18100500000
2628;19078298000;17600911111;18100911111
2629;19078314000;17601400000;18101400000
2630;19078315000;17601400000;18101400000
2631;19078316000;17601400000;18101400000
2633;19111924000;17642011111;18142011111
2634;19111928000;17642011111;18142011111
2635;19111929000;17642011111;18142011111
2636;19117729000;17642011111;18142011111
2637;19117731000;17642011111;18142011111
2638;19117787000;17642011111;18142011111
2639;19168164000;17642022222;18142022222
2654;19168180000;17725344444;18225344444
2655;19168181000;17725344444;18225344444
2656;19168182000;17725344444;18225344444
2657;19168183000;17725344444;18225344444
2658;19168184000;17725344444;18225344444
2659;19168185000;17725344444;18225344444
2660;19168186000;17725344444;18225344444
2661;19291963000;17725355555;18225355555
2687;19291979000;17850333333;18350333333
2688;19291980000;17850333333;18350333333
2689;19291981000;17850333333;18350333333
2690;19291982000;17850333333;18350333333
2691;19291983000;17850333333;18350333333
2692;19291984000;17850333333;18350333333
2693;19291985000;17850333333;18350333333
2694;19398114000;17850355555;18350355555
2695;19398130000;17850666666;18350666666
2696;19398131000;17850666666;18350666666
2697;19398132000;17850666666;18350666666
2698;19431141000;17892000000;18392000000
2699;19431145000;17892000000;18392000000
2700;19431146000;17892000000;18392000000
2701;19431147000;17892000000;18392000000
2702;19438289000;17892000000;18392000000
2703;19438312000;17892000000;18392000000
2704;19438314000;17892000000;18392000000
2705;19488754000;17892022222;18392022222
2720;19488769000;17975344444;18475344444
2721;19488770000;17975344444;18475344444
2722;19488771000;17975344444;18475344444
2723;19488772000;17975344444;18475344444
2724;19488773000;17975344444;18475344444
2725;19488774000;17975344444;18475344444
2726;19488775000;17975344444;18475344444
2727;19612540000;17975355555;18475355555
2841;19612545000;18433677777;18933677777
2842;19612554000;18433677777;18933677777
2843;19612556000;18433677777;18933677777
2844;19612566000;18433677777;18933677777
2845;19612567000;18433677777;18933677777
2846;19612568000;18433677777;18933677777
2847;19612569000;18433677777;18933677777
2848;19995284000;18433700000;18933700000
2907;19995293000;18683666666;19183666666
2908;19995294000;18683666666;19183666666
2909;19995304000;18683666666;19183666666
2910;19995305000;18683666666;19183666666
2911;19995306000;18683666666;19183666666
2912;19995307000;18683666666;19183666666
2913;19995308000;18683666666;19183666666
2914;20052777000;18683688888;19183688888
2915;20052784000;18683944444;19183944444
2916;20052785000;18683944444;19183944444
2917;20052786000;18683944444;19183944444
2918;20093468000;18725344444;19225344444
2940;20168958000;18808666666;19308666666
2941;20168962000;18808666666;19308666666
2942;20168963000;18808666666;19308666666
2943;20168964000;18808666666;19308666666
2944;20168965000;18808666666;19308666666
2945;20168966000;18808666666;19308666666
2946;20168967000;18808666666;19308666666
2947;20169099000;18808688888;19308688888
2948;20169105000;18808977777;19308977777
2949;20169106000;18808977777;19308977777
2950;20169107000;18808977777;19308977777
2951;20206009000;18850333333;19350333333
2952;20206012000;18850333333;19350333333
2953;20206014000;18850333333;19350333333
2954;20206015000;18850333333;19350333333
2955;20206016000;18850333333;19350333333
2956;20206017000;18850333333;19350333333
2958;20206153000;18850355555;19350355555
2959;20206159000;18850655555;19350655555
2960;20239702000;18850655555;19350655555
2961;20239716000;18850655555;19350655555
2962;20331577000;18892011111;19392011111
2973;20373340000;18933677777;19433677777
2974;20373344000;18933677777;19433677777
2975;20373345000;18933677777;19433677777
2976;20373346000;18933677777;19433677777
2977;20373347000;18933677777;19433677777
2978;20373348000;18933677777;19433677777
2979;20373349000;18933677777;19433677777
2980;20373555000;18933688888;19433688888
2981;20373571000;18933955555;19433955555
2982;20373572000;18933955555;19433955555
2983;20373573000;18933955555;19433955555
2984;20411520000;18975333333;19475333333
3006;20489463000;19058677777;19558677777
3007;20489467000;19058677777;19558677777
3008;20489468000;19058677777;19558677777
3009;20489469000;19058677777;19558677777
3010;20489470000;19058677777;19558677777
3011;20489471000;19058677777;19558677777
3012;20489472000;19058677777;19558677777
3013;20489598000;19058700000;19558700000
3014;20489603000;19058955555;19558955555
3015;20489604000;19058955555;19558955555
3016;20489605000;19058955555;19558955555
3017;20525430000;19100344444;19600344444
3018;20525433000;19100344444;19600344444
3019;20525435000;19100344444;19600344444
3020;20525436000;19100344444;19600344444
3021;20525437000;19100344444;19600344444
3022;20525438000;19100344444;19600344444
3023;20525439000;19100344444;19600344444
3024;20525544000;19100366666;19600366666
3025;20525550000;19100633333;19600633333
3026;20525551000;19100633333;19600633333
3027;20525552000;19100633333;19600633333
3028;20610525000;19142000000;19642000000
3050;20734783000;19225377777;19725377777
3083;20842730000;19350333333;19850333333
3084;20842734000;19350333333;19850333333
3085;20842735000;19350333333;19850333333
3086;20842736000;19350333333;19850333333
3087;20842737000;19350333333;19850333333
3088;20842738000;19350333333;19850333333
3089;20842740000;19350333333;19850333333
3090;20842929000;19350355555;19850355555
3091;20842933000;19350622222;19850622222
3092;20842934000;19350622222;19850622222
3093;20842935000;19350622222;19850622222
3095;20871460000;19392022222;19892022222
3096;20871463000;19392022222;19892022222
3097;20880721000;19392022222;19892022222
3098;20880724000;19392022222;19892022222
3099;20880777000;19392022222;19892022222
3100;20880779000;19392022222;19892022222
3103;20931352000;19392311111;19892311111
3116;21055264000;19475333333;19975333333
3226;21449211000;19892011111;20392011111
3289;21521927000;20100644444;20600644444
3296;21521943000;20142000000;20642000000
3297;21521963000;20142000000;20642000000
3299;21522097000;20142022222;20642022222
3303;21522113000;20183677777;20683677777
3304;21522114000;20183677777;20683677777
3305;21522115000;20183677777;20683677777
3306;21522116000;20183677777;20683677777
3309;21522231000;20183677777;20683677777
3310;21535628000;20183711111;20683711111
3336;21535644000;20308677777;20808677777
3337;21535645000;20308677777;20808677777
3338;21535646000;20308677777;20808677777
3339;21535647000;20308677777;20808677777
3340;21535648000;20308677777;20808677777
3343;21644819000;20308700000;20808700000
3344;21644834000;20308988888;20808988888
3345;21644835000;20308988888;20808988888
3346;21644836000;20308988888;20808988888
3347;21680974000;20350344444;20850344444
3348;21680978000;20350344444;20850344444
3349;21682111000;20350344444;20850344444
3350;21682114000;20350344444;20850344444
3351;21682165000;20350344444;20850344444
3352;21682167000;20350344444;20850344444
3353;21682168000;20350344444;20850344444
3354;21732306000;20350366666;20850366666
3369;21732312000;20433666666;20933666666
3370;21732313000;20433666666;20933666666
3371;21732315000;20433666666;20933666666
3372;21732316000;20433666666;20933666666
3373;21732326000;20433666666;20933666666
3374;21732327000;20433666666;20933666666
3375;21732328000;20433666666;20933666666
3376;21856241000;20433688888;20933688888
3402;21856257000;20558666666;21058666666
3403;21856258000;20558666666;21058666666
3405;21965678000;20558666666;21058666666
3406;21965680000;20558666666;21058666666
3407;21965681000;20558666666;21058666666
3408;21965682000;20558666666;21058666666
3409;21965852000;20558688888;21058688888
3411;21965856000;20558977777;21058977777
3412;21965857000;20558977777;21058977777
3413;21997303000;20600333333;21100333333
3414;21997307000;20600333333;21100333333
3415;21997308000;20600333333;21100333333
3416;21997309000;20600333333;21100333333
3417;21997310000;20600333333;21100333333
3418;22002693000;20600333333;21100333333
3419;22002695000;20600333333;21100333333
3420;22053183000;20600355555;21100355555
3435;22053198000;20683677777;21183677777
3436;22053200000;20683677777;21183677777
3437;22053201000;20683677777;21183677777
3438;22053202000;20683677777;21183677777
3439;22053202000;20683677777;21183677777
3440;22053203000;20683677777;21183677777
3441;22053204000;20683677777;21183677777
3442;22177695000;20683700000;21183700000
3468;22177710000;20808700000;21308700000
3469;22177712000;20808700000;21308700000
3470;22177712000;20808700000;21308700000
3471;22177714000;20808700000;21308700000
3472;22177715000;20808700000;21308700000
3473;22177716000;20808700000;21308700000
3474;22177716000;20808700000;21308700000
3475;22283005000;20808711111;21308711111
3476;22283020000;20809000000;21309000000
3477;22283021000;20809000000;21309000000
3478;22283022000;20809000000;21309000000
3479;22317518000;20850344444;21350344444
3480;22317521000;20850344444;21350344444
3481;22317522000;20850344444;21350344444
3482;22317523000;20850344444;21350344444
3483;22317525000;20850344444;21350344444
3484;22317526000;20850344444;21350344444
3485;22317527000;20850344444;21350344444
3486;22317725000;20850366666;21350366666
3487;22317740000;20850666666;21350666666
3488;22317742000;20850666666;21350666666
3489;22323268000;20850666666;21350666666
3490;22415421000;20892000000;21392000000
3600;22778733000;21308688888;21808688888
3666;22818281000;21558666666;22058666666
3699;22926118000;21683666666;22183666666
3700;22926122000;21683666666;22183666666
3701;22926123000;21683666666;22183666666
3702;22926124000;21683666666;22183666666
3703;22926125000;21683666666;22183666666
3704;22926126000;21683666666;22183666666
3705;22926127000;21683666666;22183666666
3706;22926325000;21683688888;22183688888
3707;22926340000;21683944444;22183944444
3708;22926341000;21683944444;22183944444
3709;22926342000;21683944444;22183944444
3710;22959764000;21725344444;22225344444
3711;22959768000;21725344444;22225344444
3712;22959769000;21725344444;22225344444
3713;22959770000;21725344444;22225344444
3714;22959771000;21725344444;22225344444
3716;22959773000;21725344444;22225344444
3717;23014874000;21725366666;22225366666
3732;23014890000;21808677777;22308677777
3733;23014891000;21808677777;22308677777
3734;23014892000;21808677777;22308677777
3735;23014893000;21808677777;22308677777
3736;23014894000;21808677777;22308677777
3737;23014895000;21808677777;22308677777
3738;23014896000;21808677777;22308677777
3739;23139365000;21808700000;22308700000
3776;23139370000;21975344444;22475344444
3777;23139371000;21975344444;22475344444
3778;23139372000;21975344444;22475344444
3779;23139373000;21975344444;22475344444
3780;23139374000;21975344444;22475344444
3781;23139375000;21975344444;22475344444
3782;23139376000;21975344444;22475344444
3783;23273916000;21975366666;22475366666
3784;23273931000;21975644444;22475644444
3785;23273933000;21975644444;22475644444
3786;23273934000;21975644444;22475644444
3787;23306711000;22017000000;22517000000
3809;23459504000;22100344444;22600344444
3849;23564575000;22225355555;22725355555
3896;23605636000;22392377777;22892377777
3897;23749175000;22433677777;22933677777
3919;23749293000;22517000000;23017000000
3920;23749296000;22517000000;23017000000
3921;23749297000;22517000000;23017000000
3922;23749298000;22517000000;23017000000
3923;23749299000;22517000000;23017000000
3924;23749300000;22517000000;23017000000
3925;23749302000;22517000000;23017000000
3926;23749412000;22517022222;23017022222
3927;23749428000;22517311111;23017311111
3928;23749430000;22517311111;23017311111
3929;23749431000;22517311111;23017311111
3930;23785722000;22558666666;23058666666
3963;23899448000;22683666666;23183666666
3964;23899452000;22683666666;23183666666
3965;23899453000;22683666666;23183666666
3966;23899454000;22683666666;23183666666
3967;23899455000;22683666666;23183666666
3968;23899456000;22683666666;23183666666
3969;23899457000;22683666666;23183666666
3970;23899663000;22683688888;23183688888
3971;23899679000;22683988888;23183988888
3972;23899680000;22683988888;23183988888
3973;23899681000;22683988888;23183988888
3974;23933002000;22725355555;23225355555
3989;24060249000;22767011111;23267011111
3996;24100815000;22808666666;23308666666
4029;24208031000;22933677777;23433677777
4030;24208035000;22933677777;23433677777
4031;24208036000;22933677777;23433677777
4032;24208037000;22933677777;23433677777
4033;24208038000;22933677777;23433677777
4034;24208039000;22933677777;23433677777
4035;24208040000;22933677777;23433677777
4036;24208250000;22933700000;23433700000
4037;24208265000;22933966666;23433966666
4038;24208267000;22933966666;23433966666
4039;24208268000;22933966666;23433966666
4040;24239733000;22975333333;23475333333
4041;24239737000;22975333333;23475333333
4042;24239738000;22975333333;23475333333
4043;24239739000;22975333333;23475333333
4044;24239740000;22975333333;23475333333
4045;24239741000;22975333333;23475333333
4046;24239742000;22975333333;23475333333
4047;24297002000;22975355555;23475355555
4062;24297007000;23058677777;23558677777
4063;24297009000;23058677777;23558677777
4064;24297010000;23058677777;23558677777
4065;24297011000;23058677777;23558677777
4066;24297012000;23058677777;23558677777
4067;24297013000;23058677777;23558677777
4068;24297023000;23058677777;23558677777
4069;24421143000;23058700000;23558700000
4106;24421160000;23225344444;23725344444
4107;24421161000;23225344444;23725344444
4108;24421162000;23225344444;23725344444
4109;24421164000;23225344444;23725344444
4110;24421165000;23225344444;23725344444
4111;24421166000;23225344444;23725344444
4112;24421167000;23225344444;23725344444
4113;24556455000;23225366666;23725366666
4114;24556471000;23225655555;23725655555
4115;24556472000;23225655555;23725655555
4119;24574915000;23267011111;23767011111
4143;24741779000;23350333333;23850333333
4216;24921020000;23642000000;24142000000
4260;25101924000;23808677777;24308677777
4293;25193029000;23933666666;24433666666
4294;25193033000;23933666666;24433666666
4295;25193034000;23933666666;24433666666
4296;25193035000;23933666666;24433666666
4297;25193036000;23933666666;24433666666
4298;25193037000;23933666666;24433666666
4299;25193038000;23933666666;24433666666
4300;25193253000;23933688888;24433688888
4301;25193277000;23933977777;24433977777
4303;25193279000;23933977777;24433977777
4304;25216307000;23975333333;24475333333
4326;25383211000;24058677777;24558677777
4370;25522475000;24225344444;24725344444
4371;25522479000;24225344444;24725344444
4373;25522481000;24225344444;24725344444
4374;25522482000;24225344444;24725344444
4375;25522483000;24225344444;24725344444
4376;25522484000;24225344444;24725344444
4377;25522690000;24225366666;24725366666
4378;25522706000;24225666666;24725666666
4379;25522707000;24225666666;24725666666
4380;25522708000;24225666666;24725666666
4381;25547737000;24267000000;24767000000
4403;25704124000;24350344444;24850344444
4489;26024949000;24642377777;25142377777
4557;26184202000;24933666666;25433666666
4590;26293877000;25058666666;25558666666
4591;26293880000;25058666666;25558666666
4592;26293881000;25058666666;25558666666
4593;26293882000;25058666666;25558666666
4594;26293883000;25058666666;25558666666
4595;26293884000;25058666666;25558666666
4596;26293885000;25058666666;25558666666
4597;26344717000;25058688888;25558688888
4634;26344732000;25225333333;25725333333
4635;26344733000;25225333333;25725333333
4636;26344734000;25225333333;25725333333
4637;26344736000;25225333333;25725333333
4638;26344736000;25225333333;25725333333
4639;26344737000;25225333333;25725333333
4640;26344738000;25225333333;25725333333
4641;26476828000;25225355555;25725355555
4642;26476844000;25225644444;25725644444
4643;26476845000;25225644444;25725644444
4644;26476846000;25225644444;25725644444
4645;26508545000;25267000000;25767000000
4667;26561123000;25350344444;25850344444
4668;26561126000;25350344444;25850344444
4669;26561127000;25350344444;25850344444
4670;26561129000;25350344444;25850344444
4671;26561130000;25350344444;25850344444
4672;26561131000;25350344444;25850344444
4673;26561132000;25350344444;25850344444
4674;26665593000;25350366666;25850366666
4711;26665609000;25517011111;26017011111
4712;26665610000;25517011111;26017011111
4713;26665611000;25517011111;26017011111
4714;26665612000;25517011111;26017011111
4715;26665613000;25517011111;26017011111
4716;26665614000;25517011111;26017011111
4717;26665615000;25517011111;26017011111
4718;26864272000;25517022222;26017022222
4788;26864294000;25808688888;26308688888
4789;26864296000;25808688888;26308688888
4790;26864297000;25808688888;26308688888
4791;26864298000;25808688888;26308688888
4792;26864299000;25808688888;26308688888
4793;26864300000;25808688888;26308688888
4794;26864301000;25808688888;26308688888
4795;27147853000;25808700000;26308700000
4861;27223788000;26058688888;26558688888
4862;27223794000;26058977777;26558977777
4863;27223795000;26058977777;26558977777
4864;27223797000;26058977777;26558977777
4865;27306828000;26100344444;26600344444
4909;27506538000;26267011111;26767011111
4942;27601181000;26392000000;26892000000
4943;27601185000;26392000000;26892000000
4944;27601186000;26392000000;26892000000
4945;27601187000;26392000000;26892000000
4946;27601188000;26392000000;26892000000
4947;27601189000;26392000000;26892000000
4948;27601190000;26392000000;26892000000
4949;27601397000;26392022222;26892022222
4950;27601413000;26392366666;26892366666
4951;27601415000;26392366666;26892366666
4952;27601416000;26392366666;26892366666
4953;27620999000;26433677777;26933677777
4986;27826775000;26558666666;27058666666
5027;27910265000;26683955555;27183955555
5028;27910269000;26683955555;27183955555
5029;27910271000;26683955555;27183955555
5030;27936516000;26725344444;27225344444
5074;28184913000;26892055555;27392055555
5129;28266104000;27100344444;27600344444
5173;28468573000;27267011111;27767011111
5216;28550785000;27392311111;27892311111
5217;28582005000;27433677777;27933677777
5250;28748478000;27558677777;28058677777
5338;29040642000;27892011111;28392011111
5380;29067766000;28017333333;28517333333
5415;29269478000;28183688888;28683688888
5457;29354476000;28309000000;28809000000
5458;29354480000;28309000000;28809000000
5459;29385659000;28350344444;28850344444
5481;29415557000;28433666666;28933666666
5482;29415561000;28433666666;28933666666
5483;29415562000;28433666666;28933666666
5484;29415570000;28433666666;28933666666
5485;29415572000;28433666666;28933666666
5486;29415573000;28433666666;28933666666
5487;29415574000;28433666666;28933666666
5488;29415774000;28433688888;28933688888
5489;29415790000;28433966666;28933966666
5490;29415791000;28433966666;28933966666
5491;29415792000;28433966666;28933966666
5492;29550842000;28475333333;28975333333
5493;29550846000;28475333333;28975333333
5494;29550847000;28475333333;28975333333
5495;29550848000;28475333333;28975333333
5496;29550849000;28475333333;28975333333
5497;29550850000;28475333333;28975333333
5498;29550851000;28475333333;28975333333
5499;29551054000;28475355555;28975355555
