seqnum;now;rtptime;deadline
1;6615029000;6124855555;6624855555
7;6696376000;6156133333;6656133333
57;6858766000;6323122222;6823122222
136;7036033000;6656155555;7156155555
186;7054085000;6822800000;7322800000
197;7069194000;6864466666;7364466666
198;7069202000;6864755555;7364755555
199;7069203000;6864755555;7364755555
200;7069204000;6864755555;7364755555
201;7091488000;6906122222;7406122222
209;7091602000;6906411111;7406411111
210;7091606000;6906411111;7406411111
211;7091607000;6906411111;7406411111
212;7119168000;6947822222;7447822222
213;7119172000;6947822222;7447822222
214;7119173000;6947822222;7447822222
215;7119174000;6947822222;7447822222
216;7119175000;6947822222;7447822222
217;7119177000;6947822222;7447822222
218;7119178000;6947822222;7447822222
219;7119387000;6947866666;7447866666
220;7119403000;6948177777;7448177777
221;7119404000;6948177777;7448177777
222;7119405000;6948177777;7448177777
223;7151762000;6989488888;7489488888
224;7151766000;6989488888;7489488888
225;7151767000;6989488888;7489488888
226;7151768000;6989488888;7489488888
227;7151769000;6989488888;7489488888
228;7151770000;6989488888;7489488888
229;7151771000;6989488888;7489488888
230;7151978000;6989566666;7489566666
231;7151993000;6989855555;7489855555
232;7151995000;6989855555;7489855555
233;7151996000;6989855555;7489855555
234;7187969000;7031144444;7531144444
235;7216322000;7031144444;7531144444
236;7216340000;7031144444;7531144444
237;7216345000;7031144444;7531144444
238;7216359000;7031144444;7531144444
239;7216368000;7031144444;7531144444
242;7267029000;7031433333;7531433333
252;7308420000;7072811111;7572811111
263;7349817000;7114466666;7614466666
274;7390960000;7156200000;7656200000
285;7431468000;7197866666;7697866666
296;7471248000;7239566666;7739566666
307;7510162000;7281188888;7781188888
318;7742083000;7322866666;7822866666
373;7836650000;7531200000;8031200000
395;8001639000;7614566666;8114566666
439;8105826000;7781188888;8281188888
472;8163269000;7906188888;8406188888
483;8182126000;7947877777;8447877777
494;8203458000;7989544444;8489544444
495;8203464000;7989844444;8489844444
496;8203465000;7989844444;8489844444
497;8203466000;7989844444;8489844444
498;8227834000;8031144444;8531144444
506;8227951000;8031455555;8531455555
507;8227954000;8031455555;8531455555
508;8227955000;8031455555;8531455555
509;8255506000;8072811111;8572811111
510;8255514000;8072811111;8572811111
511;8255515000;8072811111;8572811111
512;8255517000;8072811111;8572811111
513;8255518000;8072811111;8572811111
514;8255520000;8072811111;8572811111
515;8255521000;8072811111;8572811111
516;8255737000;8072855555;8572855555
517;8255753000;8073166666;8573166666
518;8255755000;8073166666;8573166666
519;8255756000;8073166666;8573166666
520;8294439000;8114477777;8614477777
521;8294446000;8114477777;8614477777
522;8294449000;8114477777;8614477777
523;8294450000;8114477777;8614477777
524;8294452000;8114477777;8614477777
525;8294453000;8114477777;8614477777
526;8294455000;8114477777;8614477777
527;8315372000;8114544444;8614544444
531;8315388000;8156144444;8656144444
532;8315389000;8156144444;8656144444
533;8315391000;8156144444;8656144444
534;8315392000;8156144444;8656144444
535;8315393000;8156144444;8656144444
536;8315395000;8156144444;8656144444
537;8315396000;8156144444;8656144444
538;8320095000;8156188888;8656188888
539;8320111000;8156477777;8656477777
540;8320112000;8156477777;8656477777
541;8320113000;8156477777;8656477777
542;8357692000;8197811111;8697811111
543;8357701000;8197811111;8697811111
544;8357702000;8197811111;8697811111
545;8357704000;8197811111;8697811111
546;8357705000;8197811111;8697811111
547;8357707000;8197811111;8697811111
548;8357709000;8197811111;8697811111
549;8357938000;8197855555;8697855555
550;8357945000;8198177777;8698177777
551;8357946000;8198177777;8698177777
552;8357948000;8198177777;8698177777
553;8400106000;8239488888;8739488888
554;8400114000;8239488888;8739488888
555;8400116000;8239488888;8739488888
556;8400118000;8239488888;8739488888
557;8400119000;8239488888;8739488888
558;8400121000;8239488888;8739488888
559;8400122000;8239488888;8739488888
560;8400348000;8239577777;8739577777
561;8400388000;8239877777;8739877777
562;8400389000;8239877777;8739877777
563;8400391000;8239877777;8739877777
564;8447220000;8281144444;8781144444
565;8447224000;8281144444;8781144444
566;8447226000;8281144444;8781144444
567;8447228000;8281144444;8781144444
568;8447229000;8281144444;8781144444
569;8447230000;8281144444;8781144444
570;8447232000;8281144444;8781144444
571;8447444000;8281200000;8781200000
572;8447459000;8281488888;8781488888
573;8447461000;8281488888;8781488888
574;8447462000;8281488888;8781488888
575;8474418000;8322811111;8822811111
576;8474424000;8322811111;8822811111
577;8474426000;8322811111;8822811111
578;8474427000;8322811111;8822811111
579;8474429000;8322811111;8822811111
580;8474430000;8322811111;8822811111
581;8474432000;8322811111;8822811111
582;8474650000;8322855555;8822855555
583;8474666000;8323166666;8823166666
584;8474667000;8323166666;8823166666
585;8474668000;8323166666;8823166666
586;8515503000;8364477777;8864477777
587;8515508000;8364477777;8864477777
588;8515510000;8364477777;8864477777
589;8515511000;8364477777;8864477777
590;8515512000;8364477777;8864477777
591;8515514000;8364477777;8864477777
592;8515515000;8364477777;8864477777
593;8515738000;8364544444;8864544444
594;8515754000;8364855555;8864855555
595;8515755000;8364855555;8864855555
596;8515756000;8364855555;8864855555
597;8556829000;8406144444;8906144444
598;8556833000;8406144444;8906144444
599;8556834000;8406144444;8906144444
600;8556835000;8406144444;8906144444
601;8556836000;8406144444;8906144444
602;8556837000;8406144444;8906144444
603;8556838000;8406144444;8906144444
604;8557037000;8406188888;8906188888
605;8557074000;8406488888;8906488888
606;8557076000;8406488888;8906488888
607;8557077000;8406488888;8906488888
608;8598352000;8447811111;8947811111
609;8598356000;8447811111;8947811111
610;8598357000;8447811111;8947811111
611;8598358000;8447811111;8947811111
612;8598359000;8447811111;8947811111
613;8598360000;8447811111;8947811111
614;8598361000;8447811111;8947811111
615;8598560000;8447855555;8947855555
616;8598566000;8448166666;8948166666
617;8598568000;8448166666;8948166666
618;8598568000;8448166666;8948166666
619;8639973000;8489477777;8989477777
620;8639977000;8489477777;8989477777
621;8639978000;8489477777;8989477777
622;8639979000;8489477777;8989477777
623;8639980000;8489477777;8989477777
624;8639981000;8489477777;8989477777
625;8639982000;8489477777;8989477777
626;8640193000;8489544444;8989544444
627;8640200000;8489844444;8989844444
628;8640201000;8489844444;8989844444
629;8640202000;8489844444;8989844444
630;8681621000;8531155555;9031155555
631;8681624000;8531155555;9031155555
632;8681625000;8531155555;9031155555
634;8681626000;8531155555;9031155555
635;8681627000;8531155555;9031155555
636;8681628000;8531155555;9031155555
637;8681828000;8531200000;9031200000
638;8681843000;8531477777;9031477777
639;8681844000;8531477777;9031477777
640;8681845000;8531477777;9031477777
641;8723268000;8572811111;9072811111
642;8723272000;8572811111;9072811111
643;8723273000;8572811111;9072811111
644;8723274000;8572811111;9072811111
645;8723275000;8572811111;9072811111
646;8723276000;8572811111;9072811111
647;8723277000;8572811111;9072811111
648;8723476000;8572855555;9072855555
649;8723491000;8573166666;9073166666
650;8723492000;8573166666;9073166666
651;8723493000;8573166666;9073166666
652;8764928000;8614477777;9114477777
653;8764932000;8614477777;9114477777
654;8764943000;8614477777;9114477777
655;8764944000;8614477777;9114477777
656;8764945000;8614477777;9114477777
657;8764946000;8614477777;9114477777
658;8764947000;8614477777;9114477777
659;8765172000;8614544444;9114544444
660;8765187000;8614855555;9114855555
661;8765188000;8614855555;9114855555
662;8765189000;8614855555;9114855555
663;8806622000;8656144444;9156144444
664;8806627000;8656144444;9156144444
665;8806629000;8656144444;9156144444
666;8806630000;8656144444;9156144444
667;8806631000;8656144444;9156144444
668;8806633000;8656144444;9156144444
669;8806634000;8656144444;9156144444
670;8806839000;8656188888;9156188888
671;8806854000;8656477777;9156477777
672;8806872000;8656477777;9156477777
673;8806873000;8656477777;9156477777
674;8848266000;8697811111;9197811111
675;8848270000;8697811111;9197811111
676;8848271000;8697811111;9197811111
677;8848272000;8697811111;9197811111
678;8848273000;8697811111;9197811111
679;8848274000;8697811111;9197811111
680;8848275000;8697811111;9197811111
681;8848490000;8697855555;9197855555
682;8848505000;8698177777;9198177777
683;8848506000;8698177777;9198177777
684;8848507000;8698177777;9198177777
685;9088289000;8739488888;9239488888
725;9185339000;8864555555;9364555555
758;9263254000;8989555555;9489555555
780;9308469000;9072866666;9572866666
791;9331908000;9114544444;9614544444
792;9331914000;9114855555;9614855555
793;9331915000;9114855555;9614855555
794;9331916000;9114855555;9614855555
795;9357355000;9156144444;9656144444
803;9357472000;9156488888;9656488888
804;9357476000;9156488888;9656488888
805;9357477000;9156488888;9656488888
806;9385238000;9197811111;9697811111
814;9385351000;9198188888;9698188888
815;9385355000;9198188888;9698188888
816;9385356000;9198188888;9698188888
817;9415660000;9239477777;9739477777
818;9415663000;9239477777;9739477777
819;9415664000;9239477777;9739477777
820;9415665000;9239477777;9739477777
821;9415666000;9239477777;9739477777
822;9415667000;9239477777;9739477777
823;9415668000;9239477777;9739477777
824;9415875000;9239544444;9739544444
825;9415891000;9239844444;9739844444
826;9415892000;9239844444;9739844444
827;9415893000;9239844444;9739844444
828;9448689000;9281144444;9781144444
829;9448693000;9281144444;9781144444
830;9448694000;9281144444;9781144444
831;9448695000;9281144444;9781144444
832;9448696000;9281144444;9781144444
833;9448697000;9281144444;9781144444
834;9448698000;9281144444;9781144444
835;9448905000;9281188888;9781188888
836;9448921000;9281477777;9781477777
837;9448922000;9281477777;9781477777
840;9494071000;9322811111;9822811111
841;9494075000;9322811111;9822811111
842;9494076000;9322811111;9822811111
843;9494077000;9322811111;9822811111
844;9494078000;9322811111;9822811111
845;9494079000;9322811111;9822811111
846;9514641000;9322855555;9822855555
850;9514647000;9364488888;9864488888
851;9514649000;9364488888;9864488888
852;9514663000;9364488888;9864488888
853;9514664000;9364488888;9864488888
854;9514665000;9364488888;9864488888
855;9514666000;9364488888;9864488888
856;9514667000;9364488888;9864488888
857;9521353000;9364555555;9864555555
858;9521368000;9364855555;9864855555
859;9521369000;9364855555;9864855555
860;9521371000;9364855555;9864855555
861;9560249000;9406144444;9906144444
862;9560253000;9406144444;9906144444
863;9560255000;9406144444;9906144444
864;9560256000;9406144444;9906144444
865;9560257000;9406144444;9906144444
866;9560259000;9406144444;9906144444
867;9560260000;9406144444;9906144444
868;9560465000;9406188888;9906188888
869;9560480000;9406500000;9906500000
870;9560481000;9406500000;9906500000
871;9560482000;9406500000;9906500000
872;9600250000;9447822222;9947822222
873;9600255000;9447822222;9947822222
874;9600257000;9447822222;9947822222
875;9600259000;9447822222;9947822222
876;9600260000;9447822222;9947822222
877;9600262000;9447822222;9947822222
878;9600263000;9447822222;9947822222
879;9600480000;9447877777;9947877777
880;9600496000;9448200000;9948200000
881;9600497000;9448200000;9948200000
882;9600498000;9448200000;9948200000
883;9640885000;9489477777;9989477777
884;9640889000;9489477777;9989477777
885;9640890000;9489477777;9989477777
886;9640891000;9489477777;9989477777
887;9640892000;9489477777;9989477777
888;9640893000;9489477777;9989477777
889;9640894000;9489477777;9989477777
890;9641105000;9489555555;9989555555
891;9641121000;9489855555;9989855555
892;9641122000;9489855555;9989855555
893;9641123000;9489855555;9989855555
894;9919446000;9531155555;10031155555
945;10023110000;9697855555;10197855555
978;10080323000;9822866666;10322866666
989;10099066000;9864555555;10364555555
1000;10120421000;9906188888;10406188888
1001;10120427000;9906488888;10406488888
1002;10120428000;9906488888;10406488888
1003;10120429000;9906488888;10406488888
1004;10144783000;9947822222;10447822222
1012;10144907000;9948188888;10448188888
1013;10144910000;9948188888;10448188888
1014;10144911000;9948188888;10448188888
1015;10172395000;9989488888;10489488888
1016;10172399000;9989488888;10489488888
1017;10172400000;9989488888;10489488888
1018;10172401000;9989488888;10489488888
1019;10172402000;9989488888;10489488888
1020;10172403000;9989488888;10489488888
1021;10172404000;9989488888;10489488888
1022;10172628000;9989566666;10489566666
1023;10172634000;9989866666;10489866666
1024;10172635000;9989866666;10489866666
1025;10172636000;9989866666;10489866666
1026;10203273000;10031144444;10531144444
1027;10203276000;10031144444;10531144444
1028;10203277000;10031144444;10531144444
1029;10203278000;10031144444;10531144444
1030;10203279000;10031144444;10531144444
1031;10203280000;10031144444;10531144444
1032;10203281000;10031144444;10531144444
1033;10203480000;10031188888;10531188888
1034;10203496000;10031477777;10531477777
1035;10203497000;10031477777;10531477777
1036;10203498000;10031477777;10531477777
1037;10236953000;10072811111;10572811111
1038;10236957000;10072811111;10572811111
1039;10236958000;10072811111;10572811111
1040;10236959000;10072811111;10572811111
1041;10236960000;10072811111;10572811111
1042;10236961000;10072811111;10572811111
1043;10236962000;10072811111;10572811111
1044;10237170000;10072855555;10572855555
1045;10237176000;10073188888;10573188888
1046;10237177000;10073188888;10573188888
1047;10237178000;10073188888;10573188888
1048;10273121000;10114477777;10614477777
1049;10273124000;10114477777;10614477777
1050;10273125000;10114477777;10614477777
1051;10273136000;10114477777;10614477777
1052;10273137000;10114477777;10614477777
1053;10273138000;10114477777;10614477777
1054;10273139000;10114477777;10614477777
1055;10273295000;10114544444;10614544444
1056;10273297000;10114844444;10614844444
1057;10273298000;10114844444;10614844444
1058;10273299000;10114844444;10614844444
1059;10311300000;10156144444;10656144444
1060;10311304000;10156144444;10656144444
1061;10311305000;10156144444;10656144444
1062;10311306000;10156144444;10656144444
1063;10311307000;10156144444;10656144444
1064;10311308000;10156144444;10656144444
1065;10311308000;10156144444;10656144444
1066;10311509000;10156188888;10656188888
1067;10311515000;10156466666;10656466666
1068;10311516000;10156466666;10656466666
1069;10311517000;10156466666;10656466666
1070;10350848000;10197811111;10697811111
1071;10350851000;10197811111;10697811111
1072;10350852000;10197811111;10697811111
1073;10350853000;10197811111;10697811111
1074;10350855000;10197811111;10697811111
1075;10350855000;10197811111;10697811111
1076;10350856000;10197811111;10697811111
1077;10351057000;10197855555;10697855555
1078;10351063000;10198166666;10698166666
1079;10351065000;10198166666;10698166666
1080;10351066000;10198166666;10698166666
1081;10391309000;10239488888;10739488888
1082;10391312000;10239488888;10739488888
1083;10391313000;10239488888;10739488888
1084;10391314000;10239488888;10739488888
1085;10391315000;10239488888;10739488888
1086;10391316000;10239488888;10739488888
1087;10391317000;10239488888;10739488888
1088;10391529000;10239555555;10739555555
1089;10391544000;10239833333;10739833333
1090;10391545000;10239833333;10739833333
1091;10391546000;10239833333;10739833333
1092;10432327000;10281155555;10781155555
1093;10432330000;10281155555;10781155555
1094;10432331000;10281155555;10781155555
1095;10432332000;10281155555;10781155555
1096;10432333000;10281155555;10781155555
1097;10432334000;10281155555;10781155555
1098;10432335000;10281155555;10781155555
1099;10432535000;10281200000;10781200000
1100;10432550000;10281488888;10781488888
1101;10432552000;10281488888;10781488888
1102;10432553000;10281488888;10781488888
1103;10473617000;10322811111;10822811111
1104;10473620000;10322811111;10822811111
1105;10473621000;10322811111;10822811111
1106;10473622000;10322811111;10822811111
1107;10473623000;10322811111;10822811111
1108;10473624000;10322811111;10822811111
1109;10473625000;10322811111;10822811111
1110;10473768000;10322855555;10822855555
1111;10473771000;10323188888;10823188888
1112;10473772000;10323188888;10823188888
1113;10473780000;10323188888;10823188888
1114;10515157000;10364477777;10864477777
1115;10515160000;10364477777;10864477777
1116;10515161000;10364477777;10864477777
1117;10515162000;10364477777;10864477777
1118;10515163000;10364477777;10864477777
1119;10515164000;10364477777;10864477777
1120;10515165000;10364477777;10864477777
1121;10515382000;10364555555;10864555555
1122;10515388000;10364844444;10864844444
1123;10515389000;10364844444;10864844444
1124;10515390000;10364844444;10864844444
1125;10556771000;10406144444;10906144444
1126;10556774000;10406144444;10906144444
1128;10556775000;10406144444;10906144444
1129;10556776000;10406144444;10906144444
1130;10556777000;10406144444;10906144444
1131;10556778000;10406144444;10906144444
1132;10556978000;10406188888;10906188888
1133;10556984000;10406488888;10906488888
1134;10556985000;10406488888;10906488888
1135;10556986000;10406488888;10906488888
1136;10598415000;10447811111;10947811111
1137;10598418000;10447811111;10947811111
1138;10598419000;10447811111;10947811111
1139;10598420000;10447811111;10947811111
1140;10598421000;10447811111;10947811111
1141;10598422000;10447811111;10947811111
1142;10598423000;10447811111;10947811111
1143;10598640000;10447855555;10947855555
1144;10598646000;10448177777;10948177777
1145;10598647000;10448177777;10948177777
1146;10598648000;10448177777;10948177777
1147;10640094000;10489477777;10989477777
1148;10640098000;10489477777;10989477777
1149;10640099000;10489477777;10989477777
1150;10640100000;10489477777;10989477777
1151;10640101000;10489477777;10989477777
1152;10640102000;10489477777;10989477777
1153;10640103000;10489477777;10989477777
1154;10640303000;10489555555;10989555555
1155;10640309000;10489844444;10989844444
1156;10640310000;10489844444;10989844444
1157;10640311000;10489844444;10989844444
1158;10681774000;10531155555;11031155555
1159;10681778000;10531155555;11031155555
1160;10681779000;10531155555;11031155555
1161;10681780000;10531155555;11031155555
1162;10681781000;10531155555;11031155555
1163;10681782000;10531155555;11031155555
1164;10681782000;10531155555;11031155555
1165;10681982000;10531222222;11031222222
1166;10681997000;10531466666;11031466666
1167;10681998000;10531466666;11031466666
1168;10681999000;10531466666;11031466666
1169;10723442000;10572811111;11072811111
1170;10723445000;10572811111;11072811111
1171;10723446000;10572811111;11072811111
1172;10723447000;10572811111;11072811111
1173;10723448000;10572811111;11072811111
1174;10723449000;10572811111;11072811111
1175;10723450000;10572811111;11072811111
1176;10723650000;10572855555;11072855555
1177;10723666000;10573155555;11073155555
1178;10723667000;10573155555;11073155555
1179;10723668000;10573155555;11073155555
1180;10963864000;10614488888;11114488888
1220;11060844000;10739566666;11239566666
1253;11138671000;10864566666;11364566666
1274;11138678000;10947811111;11447811111
1275;11185112000;10947855555;11447855555
1286;11207200000;10989555555;11489555555
1287;11207207000;10989855555;11489855555
1288;11207208000;10989855555;11489855555
1291;11232608000;11031144444;11531144444
1298;11232721000;11031466666;11531466666
1299;11232725000;11031466666;11531466666
1300;11232726000;11031466666;11531466666
1301;11260471000;11072811111;11572811111
1306;11260474000;11072811111;11572811111
1307;11260476000;11072811111;11572811111
1308;11260676000;11072855555;11572855555
1309;11260691000;11073177777;11573177777
1310;11260693000;11073177777;11573177777
1311;11260694000;11073177777;11573177777
1312;11290896000;11114477777;11614477777
1313;11290899000;11114477777;11614477777
1314;11290901000;11114477777;11614477777
1315;11290902000;11114477777;11614477777
1316;11290903000;11114477777;11614477777
1317;11290904000;11114477777;11614477777
1318;11290905000;11114477777;11614477777
1319;11291113000;11114544444;11614544444
1320;11291129000;11114844444;11614844444
1321;11291130000;11114844444;11614844444
1322;11291131000;11114844444;11614844444
1323;11323888000;11156144444;11656144444
1327;11324016000;11156144444;11656144444
1328;11324018000;11156144444;11656144444
1329;11324019000;11156144444;11656144444
1330;11324215000;11156188888;11656188888
1331;11324220000;11156477777;11656477777
1332;11324221000;11156477777;11656477777
1333;11324222000;11156477777;11656477777
1334;11359246000;11197811111;11697811111
1335;11359249000;11197811111;11697811111
1336;11359250000;11197811111;11697811111
1337;11359251000;11197811111;11697811111
1338;11359252000;11197811111;11697811111
1339;11359253000;11197811111;11697811111
1340;11359254000;11197811111;11697811111
1341;11359454000;11197855555;11697855555
1342;11359460000;11198177777;11698177777
1343;11359461000;11198177777;11698177777
1344;11359462000;11198177777;11698177777
1345;11627712000;11239488888;11739488888
1396;11730230000;11406200000;11906200000
1429;11787925000;11531200000;12031200000
1440;11806781000;11572866666;12072866666
1451;11828274000;11614566666;12114566666
1452;11828280000;11614844444;12114844444
1453;11828281000;11614844444;12114844444
1454;11828282000;11614844444;12114844444
1455;11852699000;11656144444;12156144444
1463;11852812000;11656477777;12156477777
1464;11852816000;11656477777;12156477777
1465;11852816000;11656477777;12156477777
1466;11880393000;11697811111;12197811111
1467;11880396000;11697811111;12197811111
1468;11880397000;11697811111;12197811111
1469;11880398000;11697811111;12197811111
1470;11880399000;11697811111;12197811111
1471;11880400000;11697811111;12197811111
1472;11880401000;11697811111;12197811111
1473;11880601000;11697855555;12197855555
1474;11880616000;11698177777;12198177777
1475;11880617000;11698177777;12198177777
1476;11880618000;11698177777;12198177777
1477;11911293000;11739477777;12239477777
1478;11911296000;11739477777;12239477777
1479;11911297000;11739477777;12239477777
1480;11911298000;11739477777;12239477777
1481;11911299000;11739477777;12239477777
1482;11911300000;11739477777;12239477777
1483;11911301000;11739477777;12239477777
1484;11911500000;11739544444;12239544444
1485;11911516000;11739877777;12239877777
1486;11911517000;11739877777;12239877777
1487;11911518000;11739877777;12239877777
1488;11945057000;11781144444;12281144444
1489;11945060000;11781144444;12281144444
1490;11945060000;11781144444;12281144444
1491;11945061000;11781144444;12281144444
1492;11945063000;11781144444;12281144444
1493;11945063000;11781144444;12281144444
1494;11945064000;11781144444;12281144444
1495;11945209000;11781188888;12281188888
1496;11945211000;11781488888;12281488888
1497;11945212000;11781488888;12281488888
1498;11945213000;11781488888;12281488888
1499;11987623000;11822811111;12322811111
1500;11987631000;11822811111;12322811111
1501;11987632000;11822811111;12322811111
1502;11987633000;11822811111;12322811111
1503;11987635000;11822811111;12322811111
1504;11987637000;11822811111;12322811111
1505;11987638000;11822811111;12322811111
1506;11987880000;11822855555;12322855555
1507;11987886000;11823155555;12323155555
1508;11987888000;11823155555;12323155555
1509;11987889000;11823155555;12323155555
1510;12019487000;11864477777;12364477777
1511;12019491000;11864477777;12364477777
1512;12019492000;11864477777;12364477777
1513;12019493000;11864477777;12364477777
1514;12019494000;11864477777;12364477777
1515;12019495000;11864477777;12364477777
1516;12019497000;11864477777;12364477777
1517;12019697000;11864566666;12364566666
1518;12019712000;11864855555;12364855555
1519;12019714000;11864855555;12364855555
1520;12019715000;11864855555;12364855555
1521;12059066000;11906144444;12406144444
1522;12059070000;11906144444;12406144444
1523;12059071000;11906144444;12406144444
1525;12059073000;11906144444;12406144444
1526;12059074000;11906144444;12406144444
1527;12059075000;11906144444;12406144444
1528;12059214000;11906188888;12406188888
1529;12059216000;11906488888;12406488888
1530;12059217000;11906488888;12406488888
1531;12059218000;11906488888;12406488888
1532;12099520000;11947811111;12447811111
1533;12099524000;11947811111;12447811111
1534;12099525000;11947811111;12447811111
1535;12099526000;11947811111;12447811111
1536;12099527000;11947811111;12447811111
1537;12099528000;11947811111;12447811111
1538;12099529000;11947811111;12447811111
1539;12099741000;11947855555;12447855555
1540;12099747000;11948188888;12448188888
1541;12099748000;11948188888;12448188888
1542;12099749000;11948188888;12448188888
1543;12140535000;11989477777;12489477777
1544;12140539000;11989477777;12489477777
1545;12140540000;11989477777;12489477777
1546;12140541000;11989477777;12489477777
1547;12140542000;11989477777;12489477777
1548;12140543000;11989477777;12489477777
1549;12140544000;11989477777;12489477777
1550;12140744000;11989544444;12489544444
1551;12140750000;11989855555;12489855555
1552;12140751000;11989855555;12489855555
1553;12140752000;11989855555;12489855555
1554;12181838000;12031144444;12531144444
1555;12181842000;12031144444;12531144444
1556;12181843000;12031144444;12531144444
1557;12181844000;12031144444;12531144444
1558;12181845000;12031144444;12531144444
1559;12181846000;12031144444;12531144444
1560;12181847000;12031144444;12531144444
1561;12182052000;12031188888;12531188888
1562;12182058000;12031466666;12531466666
1563;12182059000;12031466666;12531466666
1564;12182060000;12031466666;12531466666
1565;12223381000;12072811111;12572811111
1566;12223385000;12072811111;12572811111
1567;12223385000;12072811111;12572811111
1568;12223386000;12072811111;12572811111
1569;12223387000;12072811111;12572811111
1570;12223388000;12072811111;12572811111
1571;12223389000;12072811111;12572811111
1572;12223589000;12072855555;12572855555
1573;12223596000;12073188888;12573188888
1574;12223597000;12073188888;12573188888
1575;12223598000;12073188888;12573188888
1576;12463640000;12114488888;12614488888
1616;12560630000;12239555555;12739555555
1649;12638515000;12364544444;12864544444
1671;12683688000;12447855555;12947855555
1682;12707140000;12489566666;12989566666
1683;12707146000;12489855555;12989855555
1684;12707147000;12489855555;12989855555
1685;12707148000;12489855555;12989855555
1686;12732582000;12531155555;13031155555
1693;12732783000;12531200000;13031200000
1694;12732799000;12531488888;13031488888
1695;12732800000;12531488888;13031488888
1696;12732801000;12531488888;13031488888
1697;12760408000;12572811111;13072811111
1705;12760522000;12573177777;13073177777
1706;12760525000;12573177777;13073177777
1707;12760526000;12573177777;13073177777
1708;12790850000;12614477777;13114477777
1709;12790853000;12614477777;13114477777
1710;12790854000;12614477777;13114477777
1712;12791011000;12614477777;13114477777
1713;12791014000;12614477777;13114477777
1714;12791015000;12614477777;13114477777
1715;12791224000;12614544444;13114544444
1716;12791240000;12614866666;13114866666
1717;12791241000;12614866666;13114866666
1718;12791242000;12614866666;13114866666
1719;12823881000;12656155555;13156155555
1720;12823884000;12656155555;13156155555
1721;12823885000;12656155555;13156155555
1722;12823886000;12656155555;13156155555
1723;12823887000;12656155555;13156155555
1724;12823888000;12656155555;13156155555
1725;12823889000;12656155555;13156155555
1726;12824109000;12656200000;13156200000
1727;12824125000;12656522222;13156522222
1728;12824126000;12656522222;13156522222
1729;12824127000;12656522222;13156522222
1730;12859226000;12697811111;13197811111
1731;12859230000;12697811111;13197811111
1732;12859231000;12697811111;13197811111
1733;12859232000;12697811111;13197811111
1734;12859233000;12697811111;13197811111
1735;12859234000;12697811111;13197811111
1736;12859235000;12697811111;13197811111
1740;12859340000;12698200000;13198200000
1741;12897728000;12739477777;13239477777
1742;12897731000;12739477777;13239477777
1743;12897732000;12739477777;13239477777
1744;12897733000;12739477777;13239477777
1745;12897734000;12739477777;13239477777
1746;12897735000;12739477777;13239477777
1747;12897736000;12739477777;13239477777
1748;12897953000;12739544444;13239544444
1749;12897968000;12739877777;13239877777
1750;12897969000;12739877777;13239877777
1751;12897970000;12739877777;13239877777
1752;12936064000;12781155555;13281155555
1753;12936067000;12781155555;13281155555
1754;12936068000;12781155555;13281155555
1755;12936079000;12781155555;13281155555
1756;12936080000;12781155555;13281155555
1757;12936081000;12781155555;13281155555
1758;12936090000;12781155555;13281155555
1759;12936290000;12781200000;13281200000
1760;12936305000;12781500000;13281500000
1761;12936306000;12781500000;13281500000
1762;12936307000;12781500000;13281500000
1763;13171874000;12822822222;13322822222
1803;13335878000;12947866666;13447866666
1847;13439764000;13114544444;13614544444
1880;13496533000;13239555555;13739555555
1891;13515381000;13281200000;13781200000
1902;13536813000;13322855555;13822855555
1903;13536819000;13323155555;13823155555
1904;13536820000;13323155555;13823155555
1905;13536821000;13323155555;13823155555
1906;13561241000;13364477777;13864477777
1914;13561354000;13364833333;13864833333
1915;13561358000;13364833333;13864833333
1916;13561359000;13364833333;13864833333
1917;13588936000;13406144444;13906144444
1918;13588942000;13406144444;13906144444
1919;13588944000;13406144444;13906144444
1920;13588945000;13406144444;13906144444
1921;13588947000;13406144444;13906144444
1922;13588948000;13406144444;13906144444
1923;13588949000;13406144444;13906144444
1924;13589166000;13406188888;13906188888
1925;13589182000;13406477777;13906477777
1926;13589183000;13406477777;13906477777
1927;13589185000;13406477777;13906477777
1928;13619800000;13447811111;13947811111
1929;13619804000;13447811111;13947811111
1930;13619805000;13447811111;13947811111
1931;13619806000;13447811111;13947811111
1932;13619807000;13447811111;13947811111
1933;13619809000;13447811111;13947811111
1934;13619810000;13447811111;13947811111
1935;13620010000;13447855555;13947855555
1936;13620025000;13448155555;13948155555
1937;13620026000;13448155555;13948155555
1938;13620027000;13448155555;13948155555
1939;13653533000;13489477777;13989477777
1940;13653536000;13489477777;13989477777
1941;13653537000;13489477777;13989477777
1942;13653538000;13489477777;13989477777
1943;13653539000;13489477777;13989477777
1944;13653540000;13489477777;13989477777
1945;13653550000;13489477777;13989477777
1946;13653690000;13489544444;13989544444
1947;13653693000;13489833333;13989833333
1948;13653694000;13489833333;13989833333
1949;13653695000;13489833333;13989833333
1950;13689879000;13531144444;14031144444
1951;13689882000;13531144444;14031144444
1952;13689883000;13531144444;14031144444
1953;13689884000;13531144444;14031144444
1954;13689886000;13531144444;14031144444
1955;13689887000;13531144444;14031144444
1956;13689888000;13531144444;14031144444
1957;13690105000;13531188888;14031188888
1958;13690120000;13531466666;14031466666
1959;13690121000;13531466666;14031466666
1960;13690122000;13531466666;14031466666
1961;13727999000;13572811111;14072811111
1962;13728002000;13572811111;14072811111
1963;13728004000;13572811111;14072811111
1964;13728005000;13572811111;14072811111
1965;13728006000;13572811111;14072811111
1966;13728007000;13572811111;14072811111
1967;13728008000;13572811111;14072811111
1968;13728215000;13572855555;14072855555
1969;13728231000;13573155555;14073155555
1970;13728232000;13573155555;14073155555
1971;13728233000;13573155555;14073155555
1972;13767475000;13614477777;14114477777
1973;13767478000;13614477777;14114477777
1974;13767479000;13614477777;14114477777
1975;13767480000;13614477777;14114477777
1976;13767481000;13614477777;14114477777
1977;13767482000;13614477777;14114477777
1978;13767483000;13614477777;14114477777
1979;13767627000;13614544444;14114544444
1980;13767629000;13614833333;14114833333
1981;13767630000;13614833333;14114833333
1982;13767631000;13614833333;14114833333
1983;13807978000;13656144444;14156144444
1984;13807981000;13656144444;14156144444
1985;13807982000;13656144444;14156144444
1986;13807983000;13656144444;14156144444
1987;13807984000;13656144444;14156144444
1988;13807985000;13656144444;14156144444
1989;13807986000;13656144444;14156144444
1990;13808195000;13656188888;14156188888
1991;13808210000;13656466666;14156466666
1992;13808211000;13656466666;14156466666
1993;13808213000;13656466666;14156466666
1994;13849000000;13697811111;14197811111
1995;13849003000;13697811111;14197811111
1996;13849004000;13697811111;14197811111
1997;13849005000;13697811111;14197811111
1998;13849006000;13697811111;14197811111
1999;13849016000;13697811111;14197811111
2000;13849017000;13697811111;14197811111
2001;13849235000;13697855555;14197855555
2002;13849250000;13698166666;14198166666
2003;13849251000;13698166666;14198166666
2004;13849252000;13698166666;14198166666
2005;13890363000;13739500000;14239500000
2006;13890367000;13739500000;14239500000
2007;13890368000;13739500000;14239500000
2008;13890369000;13739500000;14239500000
2009;13890370000;13739500000;14239500000
2010;13890371000;13739500000;14239500000
2011;13890372000;13739500000;14239500000
2012;13890572000;13739577777;14239577777
2013;13890578000;13739866666;14239866666
2014;13890579000;13739866666;14239866666
2015;13890580000;13739866666;14239866666
2016;13931833000;13781144444;14281144444
2017;13931837000;13781144444;14281144444
2018;13931838000;13781144444;14281144444
2019;13931839000;13781144444;14281144444
2020;13931840000;13781144444;14281144444
2021;13931840000;13781144444;14281144444
2022;13931841000;13781144444;14281144444
2023;13932042000;13781188888;14281188888
2024;13932055000;13781477777;14281477777
2025;13932056000;13781477777;14281477777
2026;13932057000;13781477777;14281477777
2027;13973399000;13822811111;14322811111
2028;13973402000;13822811111;14322811111
2029;13973403000;13822811111;14322811111
2030;13973404000;13822811111;14322811111
2031;13973414000;13822811111;14322811111
2032;13973415000;13822811111;14322811111
2033;13973416000;13822811111;14322811111
2034;13973550000;13822855555;14322855555
2035;13973553000;13823144444;14323144444
2036;13973554000;13823144444;14323144444
2037;13973554000;13823144444;14323144444
2038;14015127000;13864488888;14364488888
2039;14015130000;13864488888;14364488888
2042;14015131000;13864488888;14364488888
2043;14015132000;13864488888;14364488888
2044;14015133000;13864488888;14364488888
2045;14015334000;13864566666;14364566666
2046;14015340000;13864844444;14364844444
2047;14015341000;13864844444;14364844444
2048;14015342000;13864844444;14364844444
2049;14056783000;13906144444;14406144444
2050;14056786000;13906144444;14406144444
2051;14056787000;13906144444;14406144444
2052;14056788000;13906144444;14406144444
2053;14056789000;13906144444;14406144444
2054;14056790000;13906144444;14406144444
2055;14056791000;13906144444;14406144444
2056;14056991000;13906188888;14406188888
2057;14056997000;13906477777;14406477777
2058;14056998000;13906477777;14406477777
2059;14056999000;13906477777;14406477777
2060;14098432000;13947811111;14447811111
2061;14098436000;13947811111;14447811111
2062;14098437000;13947811111;14447811111
2063;14098438000;13947811111;14447811111
2064;14098439000;13947811111;14447811111
2065;14098440000;13947811111;14447811111
2066;14098441000;13947811111;14447811111
2067;14098642000;13947855555;14447855555
2068;14098657000;13948166666;14448166666
2069;14098658000;13948166666;14448166666
2070;14098659000;13948166666;14448166666
2071;14140073000;13989477777;14489477777
2072;14140086000;13989477777;14489477777
2073;14140087000;13989477777;14489477777
2074;14140088000;13989477777;14489477777
2075;14140089000;13989477777;14489477777
2076;14140090000;13989477777;14489477777
2077;14140091000;13989477777;14489477777
2078;14140291000;13989544444;14489544444
2079;14140307000;13989844444;14489844444
2080;14140308000;13989844444;14489844444
2081;14140309000;13989844444;14489844444
2082;14181762000;14031144444;14531144444
2083;14181766000;14031144444;14531144444
2084;14181767000;14031144444;14531144444
2085;14181768000;14031144444;14531144444
2086;14181769000;14031144444;14531144444
2087;14181770000;14031144444;14531144444
2088;14181771000;14031144444;14531144444
2089;14181985000;14031188888;14531188888
2090;14181991000;14031455555;14531455555
2091;14181992000;14031455555;14531455555
2092;14181993000;14031455555;14531455555
2093;14421921000;14072822222;14572822222
2133;14518979000;14197866666;14697866666
2166;14596830000;14322855555;14822855555
2188;14642473000;14406200000;14906200000
2199;14665786000;14447855555;14947855555
2200;14665791000;14448188888;14948188888
2201;14665792000;14448188888;14948188888
2202;14665793000;14448188888;14948188888
2203;14691184000;14489488888;14989488888
2211;14691298000;14489866666;14989866666
2212;14691301000;14489866666;14989866666
2213;14691303000;14489866666;14989866666
2214;14718938000;14531155555;15031155555
2222;14719068000;14531466666;15031466666
2223;14719071000;14531466666;15031466666
2224;14719072000;14531466666;15031466666
2225;14749327000;14572822222;15072822222
2226;14749330000;14572822222;15072822222
2227;14749331000;14572822222;15072822222
2228;14749332000;14572822222;15072822222
2229;14749333000;14572822222;15072822222
2230;14749334000;14572822222;15072822222
2231;14749335000;14572822222;15072822222
2232;14749507000;14572866666;15072866666
2233;14749511000;14573177777;15073177777
2234;14749512000;14573177777;15073177777
2235;14749513000;14573177777;15073177777
2236;14782290000;14614477777;15114477777
2237;14782295000;14614477777;15114477777
2238;14782296000;14614477777;15114477777
2239;14782297000;14614477777;15114477777
2240;14782298000;14614477777;15114477777
2241;14782299000;14614477777;15114477777
2242;14782301000;14614477777;15114477777
2243;14782510000;14614544444;15114544444
2244;14782525000;14614877777;15114877777
2245;14782527000;14614877777;15114877777
2246;14782528000;14614877777;15114877777
2247;14817632000;14656144444;15156144444
2248;14817637000;14656144444;15156144444
2249;14817638000;14656144444;15156144444
2250;14817640000;14656144444;15156144444
2251;14817641000;14656144444;15156144444
2252;14817642000;14656144444;15156144444
2253;14817643000;14656144444;15156144444
2254;14817846000;14656188888;15156188888
2255;14817862000;14656500000;15156500000
2256;14817863000;14656500000;15156500000
2257;14817864000;14656500000;15156500000
2258;14854916000;14697811111;15197811111
2259;14854919000;14697811111;15197811111
2260;14854920000;14697811111;15197811111
2261;14854922000;14697811111;15197811111
2262;14854923000;14697811111;15197811111
2263;14854924000;14697811111;15197811111
2264;14854925000;14697811111;15197811111
2265;14855136000;14697855555;15197855555
2266;14855151000;14698200000;15198200000
2267;14855153000;14698200000;15198200000
2268;14855154000;14698200000;15198200000
2269;14893751000;14739477777;15239477777
2270;14893755000;14739477777;15239477777
2271;14893756000;14739477777;15239477777
2272;14893757000;14739477777;15239477777
2273;14893758000;14739477777;15239477777
2274;14893759000;14739477777;15239477777
2275;14893760000;14739477777;15239477777
2276;14893960000;14739544444;15239544444
2277;14893967000;14739877777;15239877777
2278;14893968000;14739877777;15239877777
2279;14893969000;14739877777;15239877777
2280;14933675000;14781144444;15281144444
2281;14933678000;14781144444;15281144444
2282;14933679000;14781144444;15281144444
2283;14933680000;14781144444;15281144444
2284;14933681000;14781144444;15281144444
2285;14933683000;14781144444;15281144444
2286;14933683000;14781144444;15281144444
2287;14933884000;14781188888;15281188888
2288;14933890000;14781533333;15281533333
2289;14933891000;14781533333;15281533333
2290;14933892000;14781533333;15281533333
2291;14974330000;14822811111;15322811111
2292;14974333000;14822811111;15322811111
2293;14974334000;14822811111;15322811111
2294;14974335000;14822811111;15322811111
2295;14974336000;14822811111;15322811111
2296;14974337000;14822811111;15322811111
2297;14974347000;14822811111;15322811111
2298;14974481000;14822855555;15322855555
2299;14974483000;14823177777;15323177777
2300;14974484000;14823177777;15323177777
2301;14974485000;14823177777;15323177777
2302;15015534000;14864477777;15364477777
2303;15015537000;14864477777;15364477777
2304;15015538000;14864477777;15364477777
2305;15015539000;14864477777;15364477777
2306;15015540000;14864477777;15364477777
2307;15015541000;14864477777;15364477777
2308;15015542000;14864477777;15364477777
2309;15015744000;14864544444;15364544444
2310;15015759000;14864855555;15364855555
2311;15015761000;14864855555;15364855555
2312;15015761000;14864855555;15364855555
2313;15056939000;14906144444;15406144444
2314;15056943000;14906144444;15406144444
2315;15056944000;14906144444;15406144444
2316;15056945000;14906144444;15406144444
2317;15056954000;14906144444;15406144444
2318;15056955000;14906144444;15406144444
2319;15056956000;14906144444;15406144444
2320;15057163000;14906188888;15406188888
2321;15057169000;14906500000;15406500000
2322;15057170000;14906500000;15406500000
2323;15057171000;14906500000;15406500000
2324;15098456000;14947811111;15447811111
2325;15098459000;14947811111;15447811111
2326;15098460000;14947811111;15447811111
2327;15098462000;14947811111;15447811111
2328;15098463000;14947811111;15447811111
2329;15098464000;14947811111;15447811111
2330;15098465000;14947811111;15447811111
2331;15098665000;14947855555;15447855555
2332;15098672000;14948200000;15448200000
2333;15098673000;14948200000;15448200000
2334;15098674000;14948200000;15448200000
2335;15140095000;14989477777;15489477777
2336;15140108000;14989477777;15489477777
2337;15140109000;14989477777;15489477777
2338;15140110000;14989477777;15489477777
2339;15140111000;14989477777;15489477777
2340;15140112000;14989477777;15489477777
2341;15140113000;14989477777;15489477777
2342;15140313000;14989544444;15489544444
2343;15140319000;14989866666;15489866666
2344;15140320000;14989866666;15489866666
2345;15140322000;14989866666;15489866666
2346;15181727000;15031144444;15531144444
2347;15181731000;15031144444;15531144444
2348;15181732000;15031144444;15531144444
2349;15181732000;15031144444;15531144444
2350;15181733000;15031144444;15531144444
2351;15181735000;15031144444;15531144444
2352;15181735000;15031144444;15531144444
2353;15181936000;15031188888;15531188888
2354;15181942000;15031488888;15531488888
2355;15181943000;15031488888;15531488888
2356;15181944000;15031488888;15531488888
2357;15223406000;15072811111;15572811111
2358;15223409000;15072811111;15572811111
2359;15223410000;15072811111;15572811111
2360;15223411000;15072811111;15572811111
2361;15223412000;15072811111;15572811111
2362;15223413000;15072811111;15572811111
2363;15223414000;15072811111;15572811111
2364;15223613000;15072866666;15572866666
2365;15223629000;15073222222;15573222222
2366;15223630000;15073222222;15573222222
2367;15223631000;15073222222;15573222222
2368;15265037000;15114477777;15614477777
2369;15265040000;15114477777;15614477777
2370;15265041000;15114477777;15614477777
2371;15265058000;15114477777;15614477777
2372;15265059000;15114477777;15614477777
2373;15265060000;15114477777;15614477777
2374;15265061000;15114477777;15614477777
2375;15265196000;15114544444;15614544444
2376;15265198000;15114866666;15614866666
2377;15265199000;15114866666;15614866666
2378;15265200000;15114866666;15614866666
2379;15306720000;15156144444;15656144444
2380;15306723000;15156144444;15656144444
2381;15306724000;15156144444;15656144444
2382;15306725000;15156144444;15656144444
2383;15306726000;15156144444;15656144444
2384;15306727000;15156144444;15656144444
2385;15306728000;15156144444;15656144444
2386;15306928000;15156188888;15656188888
2387;15306934000;15156488888;15656488888
2388;15306935000;15156488888;15656488888
2389;15306936000;15156488888;15656488888
2390;15348403000;15197811111;15697811111
2391;15348406000;15197811111;15697811111
2392;15348407000;15197811111;15697811111
2393;15348408000;15197811111;15697811111
2394;15348409000;15197811111;15697811111
2395;15348410000;15197811111;15697811111
2396;15348411000;15197811111;15697811111
2397;15348611000;15197855555;15697855555
2398;15348618000;15198188888;15698188888
2399;15348619000;15198188888;15698188888
2400;15348620000;15198188888;15698188888
2401;15390071000;15239477777;15739477777
2402;15390074000;15239477777;15739477777
2403;15390076000;15239477777;15739477777
2404;15390077000;15239477777;15739477777
2405;15390078000;15239477777;15739477777
2406;15390079000;15239477777;15739477777
2407;15390080000;15239477777;15739477777
2408;15390279000;15239544444;15739544444
2409;15390286000;15239844444;15739844444
2410;15390287000;15239844444;15739844444
2411;15390288000;15239844444;15739844444
2412;15431750000;15281144444;15781144444
2413;15431754000;15281144444;15781144444
2414;15431755000;15281144444;15781144444
2415;15431756000;15281144444;15781144444
2416;15431757000;15281144444;15781144444
2417;15431765000;15281144444;15781144444
2418;15431766000;15281144444;15781144444
2419;15431965000;15281188888;15781188888
2420;15431972000;15281477777;15781477777
2421;15431973000;15281477777;15781477777
2422;15431974000;15281477777;15781477777
2423;15473404000;15322811111;15822811111
2424;15473408000;15322811111;15822811111
2425;15473409000;15322811111;15822811111
2426;15473410000;15322811111;15822811111
2427;15473411000;15322811111;15822811111
2428;15473412000;15322811111;15822811111
2429;15473413000;15322811111;15822811111
2430;15473613000;15322855555;15822855555
2431;15473619000;15323177777;15823177777
2432;15473620000;15323177777;15823177777
2433;15473621000;15323177777;15823177777
2434;15515062000;15364477777;15864477777
2435;15515066000;15364477777;15864477777
2436;15515067000;15364477777;15864477777
2437;15515068000;15364477777;15864477777
2438;15515069000;15364477777;15864477777
2439;15515070000;15364477777;15864477777
2440;15515070000;15364477777;15864477777
2441;15515270000;15364544444;15864544444
2442;15515276000;15364866666;15864866666
2443;15515277000;15364866666;15864866666
2444;15515278000;15364866666;15864866666
2445;15556737000;15406144444;15906144444
2446;15556740000;15406144444;15906144444
2447;15556741000;15406144444;15906144444
2448;15556742000;15406144444;15906144444
2449;15556743000;15406144444;15906144444
2450;15556744000;15406144444;15906144444
2451;15556745000;15406144444;15906144444
2452;15556946000;15406188888;15906188888
2453;15556953000;15406500000;15906500000
2454;15556954000;15406500000;15906500000
2455;15556955000;15406500000;15906500000
2456;15598475000;15447811111;15947811111
2457;15598481000;15447811111;15947811111
2458;15598482000;15447811111;15947811111
2459;15598485000;15447811111;15947811111
2460;15598486000;15447811111;15947811111
2461;15598487000;15447811111;15947811111
2462;15598488000;15447811111;15947811111
2463;15598705000;15447866666;15947866666
2464;15598721000;15448211111;15948211111
2465;15598723000;15448211111;15948211111
2466;15598724000;15448211111;15948211111
2467;15640103000;15489477777;15989477777
2468;15640106000;15489477777;15989477777
2469;15640107000;15489477777;15989477777
2470;15640109000;15489477777;15989477777
2471;15640110000;15489477777;15989477777
2472;15640111000;15489477777;15989477777
2473;15640112000;15489477777;15989477777
2474;15640313000;15489555555;15989555555
2475;15640329000;15489866666;15989866666
2476;15640330000;15489866666;15989866666
2477;15640331000;15489866666;15989866666
2478;15681755000;15531144444;16031144444
2479;15681759000;15531144444;16031144444
2480;15681760000;15531144444;16031144444
2481;15681761000;15531144444;16031144444
2482;15681762000;15531144444;16031144444
2483;15681763000;15531144444;16031144444
2484;15681764000;15531144444;16031144444
2485;15681965000;15531188888;16031188888
2486;15681980000;15531466666;16031466666
2487;15681981000;15531466666;16031466666
2488;15681982000;15531466666;16031466666
2489;15723424000;15572811111;16072811111
2490;15723427000;15572811111;16072811111
2491;15723428000;15572811111;16072811111
2492;15723429000;15572811111;16072811111
2493;15723430000;15572811111;16072811111
2494;15723431000;15572811111;16072811111
2495;15723432000;15572811111;16072811111
2496;15723633000;15572855555;16072855555
2497;15723649000;15573166666;16073166666
2498;15723650000;15573166666;16073166666
2499;15723651000;15573166666;16073166666
2500;15765099000;15614477777;16114477777
2501;15765102000;15614477777;16114477777
2502;15765103000;15614477777;16114477777
2503;15765104000;15614477777;16114477777
2504;15765105000;15614477777;16114477777
2505;15765106000;15614477777;16114477777
2506;15765107000;15614477777;16114477777
2507;15765307000;15614544444;16114544444
2508;15765323000;15614855555;16114855555
2509;15765324000;15614855555;16114855555
2510;15765325000;15614855555;16114855555
2511;15806757000;15656144444;16156144444
2512;15806760000;15656144444;16156144444
2513;15806762000;15656144444;16156144444
2514;15806762000;15656144444;16156144444
2515;15806763000;15656144444;16156144444
2516;15806765000;15656144444;16156144444
2517;15806777000;15656144444;16156144444
2518;15806978000;15656188888;16156188888
2519;15806993000;15656488888;16156488888
2520;15806995000;15656488888;16156488888
2521;15806996000;15656488888;16156488888
2522;15848424000;15697811111;16197811111
2523;15848428000;15697811111;16197811111
2524;15848429000;15697811111;16197811111
2525;15848430000;15697811111;16197811111
2526;15848431000;15697811111;16197811111
2527;15848432000;15697811111;16197811111
2528;15848432000;15697811111;16197811111
2529;15848633000;15697855555;16197855555
2530;15848649000;15698188888;16198188888
2531;15848650000;15698188888;16198188888
2532;15848651000;15698188888;16198188888
2533;15890100000;15739477777;16239477777
2534;15890103000;15739477777;16239477777
2535;15890104000;15739477777;16239477777
2536;15890105000;15739477777;16239477777
2537;15890106000;15739477777;16239477777
2538;15890107000;15739477777;16239477777
2539;15890108000;15739477777;16239477777
2540;15890308000;15739544444;16239544444
2541;15890314000;15739866666;16239866666
2542;15890315000;15739866666;16239866666
2543;15890317000;15739866666;16239866666
2544;15931722000;15781144444;16281144444
2545;15931726000;15781144444;16281144444
2546;15931727000;15781144444;16281144444
2547;15931728000;15781144444;16281144444
2548;15931729000;15781144444;16281144444
2549;15931730000;15781144444;16281144444
2550;15931731000;15781144444;16281144444
2551;15931949000;15781188888;16281188888
2552;15931955000;15781511111;16281511111
2553;15931956000;15781511111;16281511111
2554;15931957000;15781511111;16281511111
2555;15973331000;15822811111;16322811111
2556;15973333000;15822811111;16322811111
2557;15973335000;15822811111;16322811111
2558;15973336000;15822811111;16322811111
2559;15973346000;15822811111;16322811111
2560;15973347000;15822811111;16322811111
2561;15973348000;15822811111;16322811111
2562;15973551000;15822855555;16322855555
2563;15973557000;15823166666;16323166666
2564;15973559000;15823166666;16323166666
2565;15973560000;15823166666;16323166666
2566;16017593000;15864477777;16364477777
2567;16017607000;15864477777;16364477777
2568;16017608000;15864477777;16364477777
2569;16017609000;15864477777;16364477777
2570;16017610000;15864477777;16364477777
2571;16017611000;15864477777;16364477777
2572;16017613000;15864477777;16364477777
2573;16017799000;15864544444;16364544444
2574;16017806000;15864844444;16364844444
2575;16017807000;15864844444;16364844444
2576;16017809000;15864844444;16364844444
2577;16056770000;15906144444;16406144444
2578;16056775000;15906144444;16406144444
2579;16056777000;15906144444;16406144444
2580;16056778000;15906144444;16406144444
2581;16056780000;15906144444;16406144444
2582;16056781000;15906144444;16406144444
2583;16056782000;15906144444;16406144444
2584;16056991000;15906188888;16406188888
2585;16057007000;15906488888;16406488888
2586;16057008000;15906488888;16406488888
2587;16057009000;15906488888;16406488888
2588;16098425000;15947811111;16447811111
2589;16098428000;15947811111;16447811111
2590;16098430000;15947811111;16447811111
2591;16098431000;15947811111;16447811111
2592;16098432000;15947811111;16447811111
2593;16098433000;15947811111;16447811111
2594;16098434000;15947811111;16447811111
2595;16098635000;15947855555;16447855555
2596;16098651000;15948200000;16448200000
2597;16098652000;15948200000;16448200000
2598;16098653000;15948200000;16448200000
2599;16140101000;15989477777;16489477777
2600;16140105000;15989477777;16489477777
2601;16140106000;15989477777;16489477777
2602;16140107000;15989477777;16489477777
2603;16140108000;15989477777;16489477777
2604;16140109000;15989477777;16489477777
2605;16140110000;15989477777;16489477777
2606;16140312000;15989544444;16489544444
2607;16140318000;15989866666;16489866666
2608;16140319000;15989866666;16489866666
2609;16140320000;15989866666;16489866666
2610;16181722000;16031144444;16531144444
2611;16181725000;16031144444;16531144444
2613;16181727000;16031144444;16531144444
2614;16181728000;16031144444;16531144444
2615;16181729000;16031144444;16531144444
2616;16181730000;16031144444;16531144444
2617;16181931000;16031188888;16531188888
2618;16181946000;16031477777;16531477777
2619;16181947000;16031477777;16531477777
2620;16181948000;16031477777;16531477777
2621;16223406000;16072811111;16572811111
2622;16223410000;16072811111;16572811111
2623;16223411000;16072811111;16572811111
2624;16223412000;16072811111;16572811111
2625;16223413000;16072811111;16572811111
2626;16223414000;16072811111;16572811111
2627;16223415000;16072811111;16572811111
2628;16223615000;16072855555;16572855555
2629;16223622000;16073188888;16573188888
2630;16223623000;16073188888;16573188888
2631;16223624000;16073188888;16573188888
2632;16265012000;16114477777;16614477777
2633;16265015000;16114477777;16614477777
2634;16265016000;16114477777;16614477777
2635;16265017000;16114477777;16614477777
2636;16265027000;16114477777;16614477777
2637;16265028000;16114477777;16614477777
2638;16265029000;16114477777;16614477777
2639;16265170000;16114544444;16614544444
2640;16265173000;16114833333;16614833333
2641;16265174000;16114833333;16614833333
2642;16265175000;16114833333;16614833333
2643;16306663000;16156144444;16656144444
2644;16306666000;16156144444;16656144444
2645;16306667000;16156144444;16656144444
2646;16306668000;16156144444;16656144444
2647;16306669000;16156144444;16656144444
2648;16306670000;16156144444;16656144444
2649;16306671000;16156144444;16656144444
2650;16306782000;16156188888;16656188888
2651;16306785000;16156466666;16656466666
2652;16306786000;16156466666;16656466666
2653;16306787000;16156466666;16656466666
2654;16348399000;16197811111;16697811111
2655;16348412000;16197811111;16697811111
2656;16348413000;16197811111;16697811111
2657;16348414000;16197811111;16697811111
2658;16348415000;16197811111;16697811111
2659;16348416000;16197811111;16697811111
2660;16348417000;16197811111;16697811111
2661;16348589000;16197855555;16697855555
2662;16348593000;16198166666;16698166666
2663;16348594000;16198166666;16698166666
2664;16348595000;16198166666;16698166666
2665;16588577000;16239488888;16739488888
2705;16685640000;16364555555;16864555555
2737;16685645000;16489477777;16989477777
2738;16763607000;16489544444;16989544444
2761;16763623000;16573155555;17073155555
2762;16763624000;16573155555;17073155555
2763;16763625000;16573155555;17073155555
2764;16832390000;16614477777;17114477777
2772;16832523000;16614844444;17114844444
2773;16832527000;16614844444;17114844444
2774;16832528000;16614844444;17114844444
2775;16857600000;16656155555;17156155555
2783;16857717000;16656488888;17156488888
2784;16857721000;16656488888;17156488888
2785;16857722000;16656488888;17156488888
2786;16885437000;16697811111;17197811111
2794;16885550000;16698177777;17198177777
2795;16885554000;16698177777;17198177777
2796;16885555000;16698177777;17198177777
2797;16915876000;16739477777;17239477777
2798;16915880000;16739477777;17239477777
2799;16915881000;16739477777;17239477777
2800;16915882000;16739477777;17239477777
2801;16915883000;16739477777;17239477777
2802;16915884000;16739477777;17239477777
2803;16915885000;16739477777;17239477777
2804;16916106000;16739544444;17239544444
2805;16916121000;16739844444;17239844444
2806;16916122000;16739844444;17239844444
2807;16916124000;16739844444;17239844444
2808;17130068000;16781155555;17281155555
2848;17227390000;16906188888;17406188888
2881;17305167000;17031188888;17531188888
2903;17350782000;17114544444;17614544444
2914;17374118000;17156188888;17656188888
2915;17374125000;17156455555;17656455555
2916;17374126000;17156455555;17656455555
2917;17374127000;17156455555;17656455555
2918;17399505000;17197811111;17697811111
2926;17399618000;17198155555;17698155555
2927;17399621000;17198155555;17698155555
2928;17399623000;17198155555;17698155555
2929;17427262000;17239477777;17739477777
2937;17427375000;17239822222;17739822222
2938;17427379000;17239822222;17739822222
2939;17427380000;17239822222;17739822222
2940;17457654000;17281144444;17781144444
2941;17457658000;17281144444;17781144444
2942;17457659000;17281144444;17781144444
2943;17457660000;17281144444;17781144444
2944;17457661000;17281144444;17781144444
2945;17457662000;17281144444;17781144444
2946;17457663000;17281144444;17781144444
2947;17457845000;17281188888;17781188888
2948;17457850000;17281455555;17781455555
2949;17457851000;17281455555;17781455555
2950;17457852000;17281455555;17781455555
2951;17490633000;17322811111;17822811111
2952;17490637000;17322811111;17822811111
2953;17490638000;17322811111;17822811111
2954;17490639000;17322811111;17822811111
2955;17490640000;17322811111;17822811111
2956;17490641000;17322811111;17822811111
2957;17490642000;17322811111;17822811111
2958;17490843000;17322855555;17822855555
2959;17490858000;17323144444;17823144444
2960;17490859000;17323144444;17823144444
2961;17490860000;17323144444;17823144444
2962;17525960000;17364477777;17864477777
2963;17525963000;17364477777;17864477777
2964;17525964000;17364477777;17864477777
2965;17525965000;17364477777;17864477777
2966;17525966000;17364477777;17864477777
2967;17525967000;17364477777;17864477777
2968;17525968000;17364477777;17864477777
2969;17526169000;17364544444;17864544444
2970;17526175000;17364833333;17864833333
2971;17526176000;17364833333;17864833333
2972;17526177000;17364833333;17864833333
2973;17563187000;17406144444;17906144444
2974;17563191000;17406144444;17906144444
2975;17563192000;17406144444;17906144444
2976;17563193000;17406144444;17906144444
2977;17563194000;17406144444;17906144444
2978;17563195000;17406144444;17906144444
2979;17563196000;17406144444;17906144444
2980;17563396000;17406188888;17906188888
2981;17563402000;17406466666;17906466666
2983;17563404000;17406466666;17906466666
2984;17602105000;17447811111;17947811111
2985;17602109000;17447811111;17947811111
2986;17602110000;17447811111;17947811111
2987;17602111000;17447811111;17947811111
2988;17602112000;17447811111;17947811111
2989;17602113000;17447811111;17947811111
2990;17602114000;17447811111;17947811111
2991;17602314000;17447855555;17947855555
2992;17602329000;17448144444;17948144444
2993;17602330000;17448144444;17948144444
2994;17602331000;17448144444;17948144444
2995;17642041000;17489477777;17989477777
2996;17642052000;17489477777;17989477777
2997;17642053000;17489477777;17989477777
2998;17642054000;17489477777;17989477777
2999;17642055000;17489477777;17989477777
3000;17642056000;17489477777;17989477777
3001;17642057000;17489477777;17989477777
3002;17642231000;17489555555;17989555555
3003;17642246000;17489844444;17989844444
3004;17642247000;17489844444;17989844444
3005;17642248000;17489844444;17989844444
3006;17682730000;17531144444;18031144444
3007;17682734000;17531144444;18031144444
3008;17682735000;17531144444;18031144444
3009;17682736000;17531144444;18031144444
3010;17682737000;17531144444;18031144444
3011;17682738000;17531144444;18031144444
3012;17682739000;17531144444;18031144444
3013;17682943000;17531188888;18031188888
3014;17682958000;17531444444;18031444444
3015;17682960000;17531444444;18031444444
3016;17682960000;17531444444;18031444444
3017;17723898000;17572822222;18072822222
3018;17723901000;17572822222;18072822222
3019;17723902000;17572822222;18072822222
3020;17723904000;17572822222;18072822222
3021;17723905000;17572822222;18072822222
3022;17723906000;17572822222;18072822222
3023;17723907000;17572822222;18072822222
3024;17724109000;17572866666;18072866666
3025;17724124000;17573166666;18073166666
3026;17724125000;17573166666;18073166666
3027;17724126000;17573166666;18073166666
3028;17765294000;17614488888;18114488888
3029;17765297000;17614488888;18114488888
3030;17765298000;17614488888;18114488888
3031;17765299000;17614488888;18114488888
3032;17765300000;17614488888;18114488888
3033;17765301000;17614488888;18114488888
3034;17765302000;17614488888;18114488888
3035;17765502000;17614555555;18114555555
3036;17765509000;17614833333;18114833333
3037;17765510000;17614833333;18114833333
3038;17765511000;17614833333;18114833333
3039;18044670000;17656155555;18156155555
3089;18147861000;17822811111;18322811111
3122;18210704000;17947811111;18447811111
3133;18377021000;17989488888;18489488888
3178;18480594000;18156188888;18656188888
3211;18538586000;18281200000;18781200000
3222;18557350000;18322855555;18822855555
3231;18557356000;18364477777;18864477777
3232;18557357000;18364477777;18864477777
3233;18578684000;18364544444;18864544444
3234;18578688000;18364844444;18864844444
3235;18578690000;18364844444;18864844444
3236;18578690000;18364844444;18864844444
3237;18603029000;18406155555;18906155555
3245;18603151000;18406477777;18906477777
3246;18603155000;18406477777;18906477777
3247;18603156000;18406477777;18906477777
3248;18630537000;18447822222;18947822222
3249;18630541000;18447822222;18947822222
3250;18630551000;18447822222;18947822222
3251;18630552000;18447822222;18947822222
3252;18630553000;18447822222;18947822222
3253;18630554000;18447822222;18947822222
3254;18630555000;18447822222;18947822222
3255;18630694000;18447866666;18947866666
3256;18630697000;18448155555;18948155555
3257;18630698000;18448155555;18948155555
3258;18630699000;18448155555;18948155555
3259;18838123000;18489511111;18989511111
3299;18935382000;18614555555;19114555555
3332;19013318000;18739566666;19239566666
3353;19013333000;18822811111;19322811111
3354;19058578000;18822855555;19322855555
3365;19081849000;18864544444;19364544444
3366;19081856000;18864833333;19364833333
3367;19081857000;18864833333;19364833333
3368;19081867000;18864833333;19364833333
3369;19107334000;18906155555;19406155555
3378;19107422000;18906477777;19406477777
3379;19107425000;18906477777;19406477777
3380;19139205000;18947811111;19447811111
3388;19139318000;18948177777;19448177777
3389;19139322000;18948177777;19448177777
3390;19139323000;18948177777;19448177777
3391;19168362000;18989477777;19489477777
3392;19168375000;18989477777;19489477777
3393;19168377000;18989477777;19489477777
3394;19168379000;18989477777;19489477777
3395;19168380000;18989477777;19489477777
3396;19168381000;18989477777;19489477777
3397;19168383000;18989477777;19489477777
3398;19168529000;18989544444;19489544444
3399;19168532000;18989855555;19489855555
3400;19168534000;18989855555;19489855555
3401;19168535000;18989855555;19489855555
3402;19200568000;19031144444;19531144444
3403;19200578000;19031144444;19531144444
3404;19200581000;19031144444;19531144444
3405;19200582000;19031144444;19531144444
3406;19200584000;19031144444;19531144444
3407;19200586000;19031144444;19531144444
3408;19200587000;19031144444;19531144444
3409;19200801000;19031188888;19531188888
3410;19200817000;19031466666;19531466666
3411;19200818000;19031466666;19531466666
3412;19200820000;19031466666;19531466666
3413;19235156000;19072811111;19572811111
3414;19235159000;19072811111;19572811111
3415;19235161000;19072811111;19572811111
3416;19235171000;19072811111;19572811111
3417;19235172000;19072811111;19572811111
3418;19235173000;19072811111;19572811111
3419;19235175000;19072811111;19572811111
3420;19235314000;19072866666;19572866666
3421;19235316000;19073177777;19573177777
3422;19235317000;19073177777;19573177777
3423;19235318000;19073177777;19573177777
3424;19272075000;19114477777;19614477777
3425;19272079000;19114477777;19614477777
3426;19272080000;19114477777;19614477777
3427;19272081000;19114477777;19614477777
3428;19272083000;19114477777;19614477777
3429;19272093000;19114477777;19614477777
3430;19272094000;19114477777;19614477777
3431;19272295000;19114544444;19614544444
3432;19272301000;19114855555;19614855555
3433;19272303000;19114855555;19614855555
3434;19272304000;19114855555;19614855555
3435;19544153000;19156155555;19656155555
3485;19647751000;19322822222;19822822222
3519;19705125000;19447855555;19947855555
3530;19723856000;19489555555;19989555555
3541;19745193000;19531200000;20031200000
3542;19745199000;19531455555;20031455555
3543;19745209000;19531455555;20031455555
3544;19745211000;19531455555;20031455555
3545;19769609000;19572822222;20072822222
3553;19964275000;19573177777;20073177777
3595;20084063000;19739477777;20239477777
3631;20144596000;19864855555;20364855555
3650;20186926000;19947811111;20447811111
3662;20207121000;19989544444;20489544444
3663;20207124000;19989855555;20489855555
3664;20207125000;19989855555;20489855555
3665;20207126000;19989855555;20489855555
3666;20418920000;20031155555;20531155555
3717;20522545000;20197866666;20697866666
3750;20578819000;20322888888;20822888888
3761;20597833000;20364555555;20864555555
3772;20793619000;20406200000;20906200000
3816;20897600000;20572866666;21072866666
3849;20955023000;20697855555;21197855555
3860;20973810000;20739544444;21239544444
3871;20995193000;20781188888;21281188888
3872;20995199000;20781477777;21281477777
3873;20995200000;20781477777;21281477777
3874;20995201000;20781477777;21281477777
3875;21019559000;20822811111;21322811111
3883;21019672000;20823144444;21323144444
3884;21019675000;20823144444;21323144444
3885;21019676000;20823144444;21323144444
3886;21047198000;20864477777;21364477777
3887;21047202000;20864477777;21364477777
3888;21047203000;20864477777;21364477777
3889;21047204000;20864477777;21364477777
3890;21047205000;20864477777;21364477777
3891;21047206000;20864477777;21364477777
3892;21047207000;20864477777;21364477777
3893;21047407000;20864544444;21364544444
3894;21047422000;20864822222;21364822222
3895;21047423000;20864822222;21364822222
3896;21047424000;20864822222;21364822222
3897;21078020000;20906144444;21406144444
3898;21078024000;20906144444;21406144444
3899;21078025000;20906144444;21406144444
3900;21078026000;20906144444;21406144444
3901;21078027000;20906144444;21406144444
3902;21078029000;20906144444;21406144444
3903;21078030000;20906144444;21406144444
3904;21078272000;20906188888;21406188888
3905;21078287000;20906466666;21406466666
3906;21078288000;20906466666;21406466666
3907;21078289000;20906466666;21406466666
3908;21111800000;20947811111;21447811111
3909;21111804000;20947811111;21447811111
3910;21111805000;20947811111;21447811111
3911;21111806000;20947811111;21447811111
3912;21111807000;20947811111;21447811111
3913;21111808000;20947811111;21447811111
3914;21111809000;20947811111;21447811111
3915;21112030000;20947855555;21447855555
3916;21112054000;20948166666;21448166666
3917;21112055000;20948166666;21448166666
3918;21112056000;20948166666;21448166666
3919;21148039000;20989477777;21489477777
3920;21148051000;20989477777;21489477777
3921;21148052000;20989477777;21489477777
3922;21148053000;20989477777;21489477777
3923;21148054000;20989477777;21489477777
3924;21148055000;20989477777;21489477777
3925;21148056000;20989477777;21489477777
3926;21148263000;20989544444;21489544444
3927;21148269000;20989844444;21489844444
3928;21148271000;20989844444;21489844444
3929;21148272000;20989844444;21489844444
3930;21186178000;21031144444;21531144444
3931;21186181000;21031144444;21531144444
3932;21186182000;21031144444;21531144444
3933;21186183000;21031144444;21531144444
3934;21186184000;21031144444;21531144444
3935;21186185000;21031144444;21531144444
3936;21186186000;21031144444;21531144444
3937;21186386000;21031188888;21531188888
3938;21186392000;21031455555;21531455555
3939;21186393000;21031455555;21531455555
3940;21186394000;21031455555;21531455555
3941;21225697000;21072811111;21572811111
3942;21225701000;21072811111;21572811111
3943;21225702000;21072811111;21572811111
3944;21225703000;21072811111;21572811111
3945;21225704000;21072811111;21572811111
3946;21225705000;21072811111;21572811111
3947;21225706000;21072811111;21572811111
3948;21225905000;21072866666;21572866666
3949;21225920000;21073177777;21573177777
3950;21225922000;21073177777;21573177777
3951;21225923000;21073177777;21573177777
3952;21266143000;21114477777;21614477777
3953;21266146000;21114477777;21614477777
3954;21266147000;21114477777;21614477777
3955;21266148000;21114477777;21614477777
3956;21266149000;21114477777;21614477777
3957;21266150000;21114477777;21614477777
3958;21266151000;21114477777;21614477777
3959;21266350000;21114544444;21614544444
3960;21266365000;21114844444;21614844444
3961;21266366000;21114844444;21614844444
3962;21266367000;21114844444;21614844444
3963;21307154000;21156144444;21656144444
3964;21307157000;21156144444;21656144444
3965;21307158000;21156144444;21656144444
3966;21307159000;21156144444;21656144444
3967;21307160000;21156144444;21656144444
3968;21307161000;21156144444;21656144444
3969;21307162000;21156144444;21656144444
3970;21307369000;21156188888;21656188888
3971;21307376000;21156477777;21656477777
3972;21307377000;21156477777;21656477777
3973;21307388000;21156477777;21656477777
3974;21348477000;21197811111;21697811111
3975;21348480000;21197811111;21697811111
3976;21348482000;21197811111;21697811111
3977;21348483000;21197811111;21697811111
3978;21348484000;21197811111;21697811111
3980;21348485000;21197811111;21697811111
3981;21348691000;21197855555;21697855555
3982;21348698000;21198166666;21698166666
3983;21348699000;21198166666;21698166666
3984;21348700000;21198166666;21698166666
3985;21390041000;21239477777;21739477777
3986;21390052000;21239477777;21739477777
3987;21390053000;21239477777;21739477777
3988;21390054000;21239477777;21739477777
3989;21390055000;21239477777;21739477777
3990;21390056000;21239477777;21739477777
3991;21390057000;21239477777;21739477777
3992;21390257000;21239544444;21739544444
3993;21390263000;21239833333;21739833333
3994;21390264000;21239833333;21739833333
3995;21390265000;21239833333;21739833333
3996;21431646000;21281144444;21781144444
3997;21431649000;21281144444;21781144444
3998;21431651000;21281144444;21781144444
3999;21431652000;21281144444;21781144444
4000;21431653000;21281144444;21781144444
4001;21431653000;21281144444;21781144444
4002;21431654000;21281144444;21781144444
4003;21431870000;21281188888;21781188888
4004;21431873000;21281466666;21781466666
4005;21431874000;21281466666;21781466666
4006;21431875000;21281466666;21781466666
4007;21473283000;21322811111;21822811111
4008;21473286000;21322811111;21822811111
4009;21473287000;21322811111;21822811111
4010;21473288000;21322811111;21822811111
4011;21473289000;21322811111;21822811111
4012;21473291000;21322811111;21822811111
4013;21473291000;21322811111;21822811111
4014;21473490000;21322855555;21822855555
4015;21473505000;21323166666;21823166666
4016;21473506000;21323166666;21823166666
4017;21473507000;21323166666;21823166666
4018;21514943000;21364477777;21864477777
4019;21514946000;21364477777;21864477777
4020;21514947000;21364477777;21864477777
4021;21514948000;21364477777;21864477777
4022;21514949000;21364477777;21864477777
4023;21514951000;21364477777;21864477777
4024;21514952000;21364477777;21864477777
4025;21515157000;21364544444;21864544444
4026;21515163000;21364844444;21864844444
4027;21515164000;21364844444;21864844444
4028;21515165000;21364844444;21864844444
4029;21556613000;21406144444;21906144444
4030;21556616000;21406144444;21906144444
4031;21556617000;21406144444;21906144444
4032;21556618000;21406144444;21906144444
4033;21556619000;21406144444;21906144444
4034;21556620000;21406144444;21906144444
4035;21556621000;21406144444;21906144444
4036;21556835000;21406188888;21906188888
4037;21556838000;21406488888;21906488888
4038;21556839000;21406488888;21906488888
4039;21556840000;21406488888;21906488888
4040;21835990000;21447822222;21947822222
4091;21939566000;21614544444;22114544444
4124;21995678000;21739555555;22239555555
4135;22014705000;21781188888;22281188888
4146;22036255000;21822855555;22322855555
4147;22036270000;21823155555;22323155555
4148;22036272000;21823155555;22323155555
4149;22036273000;21823155555;22323155555
4150;22060781000;21864477777;22364477777
4158;22060894000;21864833333;22364833333
4159;22060898000;21864833333;22364833333
4160;22060899000;21864833333;22364833333
4161;22088528000;21906144444;22406144444
4162;22088532000;21906144444;22406144444
4163;22088533000;21906144444;22406144444
4164;22088535000;21906144444;22406144444
4165;22088536000;21906144444;22406144444
4166;22088537000;21906144444;22406144444
4167;22088538000;21906144444;22406144444
4168;22088752000;21906188888;22406188888
4169;22088768000;21906477777;22406477777
4170;22088769000;21906477777;22406477777
4171;22088770000;21906477777;22406477777
4172;22119482000;21947811111;22447811111
4173;22119486000;21947811111;22447811111
4174;22119487000;21947811111;22447811111
4175;22119488000;21947811111;22447811111
4176;22119489000;21947811111;22447811111
4177;22119490000;21947811111;22447811111
4178;22119491000;21947811111;22447811111
4179;22119691000;21947855555;22447855555
4180;22119706000;21948177777;22448177777
4181;22119707000;21948177777;22448177777
4182;22119708000;21948177777;22448177777
4183;22153342000;21989477777;22489477777
4184;22153346000;21989477777;22489477777
4185;22153347000;21989477777;22489477777
4186;22153348000;21989477777;22489477777
4187;22153349000;21989477777;22489477777
4188;22153350000;21989477777;22489477777
4189;22153351000;21989477777;22489477777
4190;22153488000;21989544444;22489544444
4191;22153490000;21989844444;22489844444
4192;22153492000;21989844444;22489844444
4194;22189792000;22031144444;22531144444
4195;22189796000;22031144444;22531144444
4196;22189797000;22031144444;22531144444
4197;22189798000;22031144444;22531144444
4198;22189799000;22031144444;22531144444
4199;22189800000;22031144444;22531144444
4200;22189801000;22031144444;22531144444
4201;22189930000;22031188888;22531188888
4202;22189945000;22031466666;22531466666
4203;22189947000;22031466666;22531466666
4204;22189948000;22031466666;22531466666
4205;22227714000;22072811111;22572811111
4206;22227717000;22072811111;22572811111
4207;22227719000;22072811111;22572811111
4208;22227729000;22072811111;22572811111
4209;22227730000;22072811111;22572811111
4210;22227731000;22072811111;22572811111
4211;22227732000;22072811111;22572811111
4212;22227870000;22072855555;22572855555
4213;22227873000;22073166666;22573166666
4214;22227874000;22073166666;22573166666
4215;22227875000;22073166666;22573166666
4216;22267273000;22114477777;22614477777
4217;22267276000;22114477777;22614477777
4218;22267277000;22114477777;22614477777
4219;22267288000;22114477777;22614477777
4220;22267289000;22114477777;22614477777
4221;22267289000;22114477777;22614477777
4222;22267290000;22114477777;22614477777
4223;22267429000;22114544444;22614544444
4224;22267432000;22114855555;22614855555
4225;22267433000;22114855555;22614855555
4226;22267434000;22114855555;22614855555
4227;22307800000;22156144444;22656144444
4228;22307803000;22156144444;22656144444
4229;22307805000;22156144444;22656144444
4230;22307805000;22156144444;22656144444
4231;22307806000;22156144444;22656144444
4232;22307807000;22156144444;22656144444
4233;22307808000;22156144444;22656144444
4234;22308008000;22156188888;22656188888
4235;22308015000;22156477777;22656477777
4236;22308026000;22156477777;22656477777
4237;22308027000;22156477777;22656477777
4238;22348796000;22197811111;22697811111
4239;22348800000;22197811111;22697811111
4240;22348801000;22197811111;22697811111
4241;22348802000;22197811111;22697811111
4242;22348803000;22197811111;22697811111
4243;22348804000;22197811111;22697811111
4244;22348805000;22197811111;22697811111
4247;22589054000;22198177777;22698177777
4289;22708927000;22364555555;22864555555
4322;22865847000;22489566666;22989566666
4365;22865866000;22656155555;23156155555
4366;22959718000;22656211111;23156211111
4388;22996087000;22739555555;23239555555
4399;23015145000;22781188888;23281188888
4410;23036527000;22822855555;23322855555
4411;23036543000;22823155555;23323155555
4412;23036545000;22823155555;23323155555
4413;23036547000;22823155555;23323155555
4414;23061042000;22864477777;23364477777
4422;23255648000;22864844444;23364844444
4465;23375574000;23031188888;23531188888
4498;23436820000;23156188888;23656188888
4520;23474298000;23239544444;23739544444
4531;23495472000;23281188888;23781188888
4532;23495478000;23281455555;23781455555
4533;23495479000;23281455555;23781455555
4534;23495480000;23281455555;23781455555
4535;23519775000;23322811111;23822811111
4543;23519889000;23323144444;23823144444
4544;23519892000;23323144444;23823144444
4545;23519894000;23323144444;23823144444
4546;23547311000;23364477777;23864477777
4547;23547315000;23364477777;23864477777
4548;23547316000;23364477777;23864477777
4549;23547317000;23364477777;23864477777
4550;23547318000;23364477777;23864477777
4551;23547319000;23364477777;23864477777
4552;23547320000;23364477777;23864477777
4553;23547529000;23364544444;23864544444
4554;23547544000;23364833333;23864833333
4555;23547546000;23364833333;23864833333
4556;23547547000;23364833333;23864833333
4557;23578128000;23406144444;23906144444
4558;23578132000;23406144444;23906144444
4559;23578133000;23406144444;23906144444
4560;23578135000;23406144444;23906144444
4561;23578149000;23406144444;23906144444
4562;23578150000;23406144444;23906144444
4563;23578151000;23406144444;23906144444
4564;23578351000;23406188888;23906188888
4565;23578366000;23406477777;23906477777
4566;23578368000;23406477777;23906477777
4567;23578369000;23406477777;23906477777
4568;23611850000;23447811111;23947811111
4569;23611853000;23447811111;23947811111
4570;23611854000;23447811111;23947811111
4571;23611855000;23447811111;23947811111
4572;23611856000;23447811111;23947811111
4573;23611857000;23447811111;23947811111
4574;23611858000;23447811111;23947811111
4575;23612059000;23447855555;23947855555
4576;23612065000;23448144444;23948144444
4577;23612066000;23448144444;23948144444
4578;23612067000;23448144444;23948144444
4579;23647986000;23489477777;23989477777
4580;23647988000;23489477777;23989477777
4581;23647990000;23489477777;23989477777
4582;23647991000;23489477777;23989477777
4583;23647992000;23489477777;23989477777
4584;23647993000;23489477777;23989477777
4585;23648003000;23489477777;23989477777
4586;23648231000;23489555555;23989555555
4587;23648237000;23489844444;23989844444
4588;23648238000;23489844444;23989844444
4589;23648239000;23489844444;23989844444
4590;23686234000;23531144444;24031144444
4591;23686238000;23531144444;24031144444
4592;23686239000;23531144444;24031144444
4593;23686240000;23531144444;24031144444
4594;23686241000;23531144444;24031144444
4595;23686242000;23531144444;24031144444
4596;23686243000;23531144444;24031144444
4597;23686442000;23531188888;24031188888
4598;23686457000;23531433333;24031433333
4599;23686458000;23531433333;24031433333
4600;23686459000;23531433333;24031433333
4601;23725689000;23572811111;24072811111
4602;23725693000;23572811111;24072811111
4603;23725694000;23572811111;24072811111
4604;23725695000;23572811111;24072811111
4605;23725696000;23572811111;24072811111
4607;23725697000;23572811111;24072811111
4608;23725912000;23572855555;24072855555
4609;23725928000;23573144444;24073144444
4610;23725929000;23573144444;24073144444
4611;23725930000;23573144444;24073144444
4612;23766135000;23614477777;24114477777
4613;23766138000;23614477777;24114477777
4614;23766139000;23614477777;24114477777
4615;23766141000;23614477777;24114477777
4616;23766141000;23614477777;24114477777
4617;23766142000;23614477777;24114477777
4618;23766143000;23614477777;24114477777
4619;23766342000;23614544444;24114544444
4620;23766348000;23614833333;24114833333
4621;23766350000;23614833333;24114833333
4622;23766351000;23614833333;24114833333
4623;23807146000;23656144444;24156144444
4624;23807150000;23656144444;24156144444
4625;23807151000;23656144444;24156144444
4626;23807152000;23656144444;24156144444
4627;23807153000;23656144444;24156144444
4628;23807154000;23656144444;24156144444
4629;23807155000;23656144444;24156144444
4630;23807396000;23656188888;24156188888
4631;23807402000;23656466666;24156466666
4632;23807403000;23656466666;24156466666
4633;23807404000;23656466666;24156466666
4634;23848507000;23697811111;24197811111
4635;23848510000;23697811111;24197811111
4636;23848512000;23697811111;24197811111
4637;23848513000;23697811111;24197811111
4638;23848513000;23697811111;24197811111
4639;23848515000;23697811111;24197811111
4640;23848515000;23697811111;24197811111
4641;23848714000;23697855555;24197855555
4642;23848720000;23698155555;24198155555
4643;23848721000;23698155555;24198155555
4644;23848722000;23698155555;24198155555
4645;23889939000;23739477777;24239477777
4646;23889941000;23739477777;24239477777
4647;23889942000;23739477777;24239477777
4648;23889943000;23739477777;24239477777
4649;23889944000;23739477777;24239477777
4650;23889945000;23739477777;24239477777
4651;23889955000;23739477777;24239477777
4652;23890133000;23739544444;24239544444
4653;23890139000;23739844444;24239844444
4654;23890140000;23739844444;24239844444
4655;23890141000;23739844444;24239844444
4656;23931619000;23781144444;24281144444
4657;23931623000;23781144444;24281144444
4658;23931624000;23781144444;24281144444
4659;23931625000;23781144444;24281144444
4660;23931626000;23781144444;24281144444
4661;23931627000;23781144444;24281144444
4662;23931636000;23781144444;24281144444
4663;23931848000;23781188888;24281188888
4664;23931851000;23781477777;24281477777
4665;23931852000;23781477777;24281477777
4666;23931853000;23781477777;24281477777
4667;24211008000;23822844444;24322844444
4718;24314535000;23989566666;24489566666
4751;24370670000;24114544444;24614544444
4762;24389678000;24156188888;24656188888
4773;24412385000;24197855555;24697855555
4774;24412392000;24198188888;24698188888
4775;24412394000;24198188888;24698188888
4776;24412395000;24198188888;24698188888
4777;24435800000;24239477777;24739477777
4785;24435936000;24239844444;24739844444
4786;24435941000;24239844444;24739844444
4787;24435942000;24239844444;24739844444
4788;24463600000;24281144444;24781144444
4789;24463610000;24281144444;24781144444
4790;24463612000;24281144444;24781144444
4791;24463613000;24281144444;24781144444
4792;24463615000;24281144444;24781144444
4793;24463617000;24281144444;24781144444
4794;24463618000;24281144444;24781144444
4795;24463857000;24281188888;24781188888
4796;24463874000;24281477777;24781477777
4797;24463876000;24281477777;24781477777
4798;24463877000;24281477777;24781477777
4799;24494480000;24322811111;24822811111
4800;24494484000;24322811111;24822811111
4801;24494485000;24322811111;24822811111
4802;24494487000;24322811111;24822811111
4803;24494488000;24322811111;24822811111
4804;24494490000;24322811111;24822811111
4805;24494491000;24322811111;24822811111
4806;24494705000;24322855555;24822855555
4807;24494721000;24323177777;24823177777
4808;24494722000;24323177777;24823177777
4809;24494724000;24323177777;24823177777
4810;24528334000;24364477777;24864477777
4811;24528337000;24364477777;24864477777
4812;24528339000;24364477777;24864477777
4813;24528340000;24364477777;24864477777
4814;24528341000;24364477777;24864477777
4815;24528342000;24364477777;24864477777
4816;24528343000;24364477777;24864477777
4817;24528546000;24364544444;24864544444
4818;24528552000;24364855555;24864855555
4819;24528553000;24364855555;24864855555
4820;24528554000;24364855555;24864855555
4821;24564615000;24406144444;24906144444
4822;24564619000;24406144444;24906144444
4823;24564620000;24406144444;24906144444
4824;24564621000;24406144444;24906144444
4825;24564622000;24406144444;24906144444
4826;24564633000;24406144444;24906144444
4827;24564634000;24406144444;24906144444
4828;24564890000;24406188888;24906188888
4829;24564896000;24406500000;24906500000
4830;24564898000;24406500000;24906500000
4831;24564899000;24406500000;24906500000
4832;24602789000;24447811111;24947811111
4833;24602792000;24447811111;24947811111
4834;24602793000;24447811111;24947811111
4835;24602795000;24447811111;24947811111
4836;24602795000;24447811111;24947811111
4837;24602796000;24447811111;24947811111
4838;24602797000;24447811111;24947811111
4839;24603000000;24447855555;24947855555
4840;24603006000;24448177777;24948177777
4841;24603007000;24448177777;24948177777
4842;24603008000;24448177777;24948177777
4843;24642243000;24489477777;24989477777
4844;24642245000;24489477777;24989477777
4845;24642246000;24489477777;24989477777
4846;24642247000;24489477777;24989477777
4847;24642248000;24489477777;24989477777
4848;24642258000;24489477777;24989477777
4849;24642259000;24489477777;24989477777
4850;24642470000;24489544444;24989544444
4851;24642485000;24489855555;24989855555
4852;24642486000;24489855555;24989855555
4853;24642487000;24489855555;24989855555
4854;24682799000;24531144444;25031144444
4855;24682803000;24531144444;25031144444
4856;24682804000;24531144444;25031144444
4857;24682805000;24531144444;25031144444
4858;24682806000;24531144444;25031144444
4859;24682807000;24531144444;25031144444
4860;24682807000;24531144444;25031144444
4861;24683008000;24531188888;25031188888
4862;24683014000;24531466666;25031466666
4863;24683024000;24531466666;25031466666
4864;24683025000;24531466666;25031466666
4865;24723809000;24572811111;25072811111
4866;24723812000;24572811111;25072811111
4867;24723813000;24572811111;25072811111
4868;24723814000;24572811111;25072811111
4869;24723815000;24572811111;25072811111
4870;24723816000;24572811111;25072811111
4871;24723827000;24572811111;25072811111
4873;24723937000;24573166666;25073166666
4874;24723941000;24573166666;25073166666
4875;24723942000;24573166666;25073166666
4876;24765226000;24614477777;25114477777
4877;24765230000;24614477777;25114477777
4878;24765231000;24614477777;25114477777
4879;24765232000;24614477777;25114477777
4880;24765233000;24614477777;25114477777
4881;24765234000;24614477777;25114477777
4882;24765235000;24614477777;25114477777
4883;24765434000;24614544444;25114544444
4884;24765450000;24614855555;25114855555
4885;24765451000;24614855555;25114855555
4886;24765452000;24614855555;25114855555
4887;24806725000;24656144444;25156144444
4888;24806728000;24656144444;25156144444
4889;24806729000;24656144444;25156144444
4890;24806730000;24656144444;25156144444
4891;24806731000;24656144444;25156144444
4892;24806732000;24656144444;25156144444
4893;24806733000;24656144444;25156144444
4894;24806872000;24656188888;25156188888
4895;24806874000;24656488888;25156488888
4896;24806875000;24656488888;25156488888
4897;24806876000;24656488888;25156488888
4898;24848242000;24697811111;25197811111
4899;24848244000;24697811111;25197811111
4900;24848245000;24697811111;25197811111
4901;24848246000;24697811111;25197811111
4902;24848247000;24697811111;25197811111
4903;24848248000;24697811111;25197811111
4904;24848249000;24697811111;25197811111
4905;24848391000;24697866666;25197866666
4906;24848393000;24698200000;25198200000
4907;24848394000;24698200000;25198200000
4908;24848395000;24698200000;25198200000
4909;24889854000;24739477777;25239477777
4910;24889855000;24739477777;25239477777
4911;24889857000;24739477777;25239477777
4912;24889858000;24739477777;25239477777
4913;24889859000;24739477777;25239477777
4914;24889860000;24739477777;25239477777
4915;24889861000;24739477777;25239477777
4916;24890002000;24739544444;25239544444
4917;24890005000;24739866666;25239866666
4918;24890006000;24739866666;25239866666
4919;24890007000;24739866666;25239866666
4920;24931513000;24781144444;25281144444
4921;24931515000;24781144444;25281144444
4922;24931515000;24781144444;25281144444
4923;24931517000;24781144444;25281144444
4924;24931517000;24781144444;25281144444
4925;24931518000;24781144444;25281144444
4926;24931519000;24781144444;25281144444
4927;24931660000;24781188888;25281188888
4928;24931662000;24781500000;25281500000
4929;24931663000;24781500000;25281500000
4930;24931664000;24781500000;25281500000
4931;25211885000;24822822222;25322822222
4982;25314534000;24989566666;25489566666
5015;25371209000;25114555555;25614555555
5026;25390109000;25156188888;25656188888
5037;25411577000;25197866666;25697866666
5038;25411583000;25198177777;25698177777
5039;25411585000;25198177777;25698177777
5040;25411586000;25198177777;25698177777
5041;25436015000;25239477777;25739477777
5049;25436129000;25239844444;25739844444
5050;25436133000;25239844444;25739844444
5051;25436135000;25239844444;25739844444
5052;25463705000;25281144444;25781144444
5053;25463709000;25281144444;25781144444
5054;25463710000;25281144444;25781144444
5055;25463711000;25281144444;25781144444
5056;25463712000;25281144444;25781144444
5057;25463713000;25281144444;25781144444
5058;25463715000;25281144444;25781144444
5059;25463916000;25281188888;25781188888
5060;25463931000;25281477777;25781477777
5061;25463932000;25281477777;25781477777
5062;25463933000;25281477777;25781477777
5063;25494573000;25322811111;25822811111
5064;25494577000;25322811111;25822811111
5065;25494578000;25322811111;25822811111
5066;25494579000;25322811111;25822811111
5067;25494580000;25322811111;25822811111
5068;25494581000;25322811111;25822811111
5069;25494582000;25322811111;25822811111
5070;25494727000;25322855555;25822855555
5071;25494730000;25323166666;25823166666
5072;25494731000;25323166666;25823166666
5073;25494732000;25323166666;25823166666
5074;25528350000;25364477777;25864477777
5075;25528352000;25364477777;25864477777
5076;25528353000;25364477777;25864477777
5077;25528354000;25364477777;25864477777
5078;25528355000;25364477777;25864477777
5079;25528356000;25364477777;25864477777
5080;25528357000;25364477777;25864477777
5081;25528510000;25364544444;25864544444
5082;25528512000;25364855555;25864855555
5083;25528513000;25364855555;25864855555
5085;25564703000;25406144444;25906144444
5086;25564705000;25406144444;25906144444
5087;25564706000;25406144444;25906144444
5088;25564707000;25406144444;25906144444
5089;25564708000;25406144444;25906144444
5090;25564709000;25406144444;25906144444
5091;25564710000;25406144444;25906144444
5092;25564780000;25406188888;25906188888
5093;25564782000;25406488888;25906488888
5094;25564783000;25406488888;25906488888
5095;25564784000;25406488888;25906488888
5096;25602857000;25447811111;25947811111
5097;25602865000;25447811111;25947811111
5098;25602868000;25447811111;25947811111
5099;25602870000;25447811111;25947811111
5100;25602872000;25447811111;25947811111
5101;25602875000;25447811111;25947811111
5102;25602877000;25447811111;25947811111
5103;25603106000;25447855555;25947855555
5104;25603113000;25448166666;25948166666
5105;25603116000;25448166666;25948166666
5106;25603119000;25448166666;25948166666
5107;25642339000;25489477777;25989477777
5108;25642343000;25489477777;25989477777
5109;25642345000;25489477777;25989477777
5110;25642347000;25489477777;25989477777
5111;25642349000;25489477777;25989477777
5112;25642351000;25489477777;25989477777
5113;25642353000;25489477777;25989477777
5114;25642511000;25489544444;25989544444
5115;25642515000;25489844444;25989844444
5116;25642516000;25489844444;25989844444
5117;25642518000;25489844444;25989844444
5118;25682738000;25531144444;26031144444
5119;25682740000;25531144444;26031144444
5120;25682742000;25531144444;26031144444
5121;25682743000;25531144444;26031144444
5122;25682745000;25531144444;26031144444
5123;25682747000;25531144444;26031144444
5124;25682758000;25531144444;26031144444
5125;25682898000;25531188888;26031188888
5126;25682901000;25531455555;26031455555
5127;25682903000;25531455555;26031455555
5128;25682905000;25531455555;26031455555
5129;25723839000;25572811111;26072811111
5130;25723842000;25572811111;26072811111
5131;25723844000;25572811111;26072811111
5132;25723845000;25572811111;26072811111
5133;25723846000;25572811111;26072811111
5134;25723847000;25572811111;26072811111
5135;25723848000;25572811111;26072811111
5136;25724066000;25572855555;26072855555
5137;25724072000;25573166666;26073166666
5138;25724073000;25573166666;26073166666
5139;25724074000;25573166666;26073166666
5140;26002656000;25614488888;26114488888
5191;26106263000;25781188888;26281188888
5224;26163586000;25906200000;26406200000
5235;26182359000;25947855555;26447855555
5246;26203735000;25989544444;26489544444
5247;26203741000;25989855555;26489855555
5248;26203742000;25989855555;26489855555
5249;26203744000;25989855555;26489855555
5250;26228073000;26031144444;26531144444
5258;26228195000;26031466666;26531466666
5259;26228198000;26031466666;26531466666
5260;26228200000;26031466666;26531466666
5261;26255696000;26072811111;26572811111
5262;26255699000;26072811111;26572811111
5263;26255700000;26072811111;26572811111
5264;26255701000;26072811111;26572811111
5265;26255702000;26072811111;26572811111
5266;26255703000;26072811111;26572811111
5267;26255704000;26072811111;26572811111
5268;26255911000;26072855555;26572855555
5269;26255927000;26073177777;26573177777
5270;26255928000;26073177777;26573177777
5271;26255929000;26073177777;26573177777
5272;26286546000;26114477777;26614477777
5273;26286549000;26114477777;26614477777
5274;26286550000;26114477777;26614477777
5275;26286551000;26114477777;26614477777
5276;26286552000;26114477777;26614477777
5277;26286553000;26114477777;26614477777
5278;26286554000;26114477777;26614477777
5279;26286693000;26114544444;26614544444
5280;26286695000;26114844444;26614844444
5281;26286696000;26114844444;26614844444
5282;26286697000;26114844444;26614844444
5283;26320257000;26156144444;26656144444
5284;26320259000;26156144444;26656144444
5285;26320260000;26156144444;26656144444
5286;26320261000;26156144444;26656144444
5287;26320262000;26156144444;26656144444
5288;26320263000;26156144444;26656144444
5289;26320264000;26156144444;26656144444
5290;26320427000;26156188888;26656188888
5291;26320439000;26156477777;26656477777
5292;26320440000;26156477777;26656477777
5293;26320441000;26156477777;26656477777
5294;26356471000;26197811111;26697811111
5295;26356473000;26197811111;26697811111
5296;26356474000;26197811111;26697811111
5297;26356475000;26197811111;26697811111
5298;26356476000;26197811111;26697811111
5299;26356477000;26197811111;26697811111
5300;26356478000;26197811111;26697811111
5301;26356893000;26197855555;26697855555
5302;26356911000;26198177777;26698177777
5303;26356912000;26198177777;26698177777
5304;26356913000;26198177777;26698177777
5305;26416825000;26239477777;26739477777
5306;26416829000;26239477777;26739477777
5307;26416830000;26239477777;26739477777
5308;26416831000;26239477777;26739477777
5309;26416832000;26239477777;26739477777
5310;26416834000;26239477777;26739477777
5311;26416835000;26239477777;26739477777
5312;26437521000;26239544444;26739544444
5317;26437537000;26281155555;26781155555
5318;26437539000;26281155555;26781155555
5319;26437540000;26281155555;26781155555
5320;26437541000;26281155555;26781155555
5321;26437542000;26281155555;26781155555
5322;26437543000;26281155555;26781155555
5323;26437750000;26281200000;26781200000
5324;26437766000;26281488888;26781488888
5325;26437767000;26281488888;26781488888
5326;26437768000;26281488888;26781488888
5327;26474701000;26322811111;26822811111
5328;26474708000;26322811111;26822811111
5329;26474709000;26322811111;26822811111
5330;26474711000;26322811111;26822811111
5331;26474712000;26322811111;26822811111
5332;26474714000;26322811111;26822811111
5333;26474716000;26322811111;26822811111
5334;26474943000;26322855555;26822855555
5335;26474959000;26323166666;26823166666
5336;26474960000;26323166666;26823166666
5337;26474962000;26323166666;26823166666
5338;26515627000;26364477777;26864477777
5339;26515629000;26364477777;26864477777
5340;26515630000;26364477777;26864477777
5341;26515631000;26364477777;26864477777
5342;26515632000;26364477777;26864477777
5343;26515633000;26364477777;26864477777
5344;26515644000;26364477777;26864477777
5345;26515779000;26364544444;26864544444
5346;26515782000;26364855555;26864855555
5347;26515783000;26364855555;26864855555
5348;26515784000;26364855555;26864855555
5349;26556962000;26406144444;26906144444
5350;26556964000;26406144444;26906144444
5351;26556965000;26406144444;26906144444
5352;26556966000;26406144444;26906144444
5353;26556967000;26406144444;26906144444
5354;26556968000;26406144444;26906144444
5355;26556969000;26406144444;26906144444
5356;26557118000;26406188888;26906188888
5357;26557121000;26406488888;26906488888
5358;26557122000;26406488888;26906488888
5359;26557122000;26406488888;26906488888
5360;26598460000;26447811111;26947811111
5361;26598462000;26447811111;26947811111
5362;26598463000;26447811111;26947811111
5363;26598464000;26447811111;26947811111
5364;26598465000;26447811111;26947811111
5365;26598466000;26447811111;26947811111
5366;26598467000;26447811111;26947811111
5367;26598609000;26447855555;26947855555
5368;26598611000;26448166666;26948166666
5369;26598612000;26448166666;26948166666
5370;26598613000;26448166666;26948166666
5371;26877724000;26489488888;26989488888
5422;26981311000;26656188888;27156188888
5455;27038600000;26781188888;27281188888
5466;27057373000;26822855555;27322855555
5477;27078761000;26864544444;27364544444
5478;27078767000;26864844444;27364844444
5479;27078768000;26864844444;27364844444
5480;27078769000;26864844444;27364844444
5481;27103118000;26906144444;27406144444
5482;27103122000;26906144444;27406144444
5483;27103124000;26906144444;27406144444
5484;27103125000;26906144444;27406144444
5485;27103126000;26906144444;27406144444
5486;27103127000;26906144444;27406144444
5487;27103128000;26906144444;27406144444
5488;27103355000;26906188888;27406188888
5489;27103370000;26906477777;27406477777
5490;27103372000;26906477777;27406477777
5491;27103373000;26906477777;27406477777
5492;27130715000;26947811111;27447811111
5493;27130718000;26947811111;27447811111
5494;27130719000;26947811111;27447811111
5495;27130720000;26947811111;27447811111
5496;27130721000;26947811111;27447811111
5497;27130733000;26947811111;27447811111
5498;27130734000;26947811111;27447811111
5499;27130912000;26947855555;27447855555
