seqnum;now;rtptime;deadline
2;8430127000;7839855555;8339855555
18;8553322000;7912800000;8412800000
36;8627245000;7996122222;8496122222
37;8627255000;7996122222;8496122222
38;8627257000;7996122222;8496122222
39;8627258000;7996122222;8496122222
40;8627260000;7996122222;8496122222
41;8627262000;7996122222;8496122222
42;8627263000;7996122222;8496122222
43;8627539000;7996133333;8496133333
44;8627545000;7996466666;8496466666
45;8627562000;7996466666;8496466666
46;8627563000;7996466666;8496466666
47;8665346000;8037788888;8537788888
48;8665350000;8037788888;8537788888
49;8665351000;8037788888;8537788888
50;8665353000;8037788888;8537788888
51;8665354000;8037788888;8537788888
52;8665355000;8037788888;8537788888
53;8665356000;8037788888;8537788888
54;8673213000;8037800000;8537800000
113;8673221000;8287788888;8787788888
114;8673224000;8287788888;8787788888
115;8673225000;8287788888;8787788888
116;8673227000;8287788888;8787788888
117;8673229000;8287788888;8787788888
118;8673231000;8287788888;8787788888
119;8673232000;8287788888;8787788888
120;8958586000;8287800000;8787800000
194;8958601000;8579455555;9079455555
195;8958602000;8579455555;9079455555
196;8958603000;8579455555;9079455555
197;9195762000;8579466666;9079466666
274;9400015000;8871133333;9371133333
351;9625757000;9162788888;9662788888
352;9625763000;9163088888;9663088888
353;9625765000;9163088888;9663088888
354;9625766000;9163088888;9663088888
355;9678649000;9204444444;9704444444
429;9884990000;9454744444;9954744444
483;10004296000;9662788888;10162788888
510;10004313000;9787811111;10287811111
511;10004315000;9787811111;10287811111
512;10004316000;9787811111;10287811111
513;10004318000;9787811111;10287811111
514;10004320000;9787811111;10287811111
515;10004321000;9787811111;10287811111
516;10122492000;9787855555;10287855555
550;10122510000;9913133333;10413133333
551;10122511000;9913133333;10413133333
555;10238409000;9954455555;10454455555
572;10242393000;9996511111;10496511111
584;10263034000;10038188888;10538188888
585;10263038000;10038188888;10538188888
586;10300990000;10079477777;10579477777
590;10300993000;10079477777;10579477777
591;10300995000;10079477777;10579477777
592;10300996000;10079477777;10579477777
593;10310934000;10079522222;10579522222
594;10310950000;10079822222;10579822222
595;10310951000;10079822222;10579822222
596;10310952000;10079822222;10579822222
597;10335955000;10121177777;10621177777
598;10335958000;10121177777;10621177777
599;10335959000;10121177777;10621177777
600;10335960000;10121177777;10621177777
601;10335961000;10121177777;10621177777
602;10335962000;10121177777;10621177777
603;10335963000;10121177777;10621177777
604;10336171000;10121233333;10621233333
605;10336186000;10121566666;10621566666
606;10336188000;10121566666;10621566666
607;10336189000;10121566666;10621566666
608;10358891000;10162800000;10662800000
609;10358895000;10162800000;10662800000
610;10358896000;10162800000;10662800000
611;10358896000;10162800000;10662800000
612;10358897000;10162800000;10662800000
613;10358898000;10162800000;10662800000
614;10358899000;10162800000;10662800000
615;10650943000;10162833333;10662833333
668;10650959000;10371122222;10871122222
669;10650961000;10371122222;10871122222
670;10753459000;10371133333;10871133333
691;10753474000;10454455555;10954455555
692;10780087000;10454466666;10954466666
699;10780103000;10496122222;10996122222
700;10780104000;10496122222;10996122222
701;10780105000;10496122222;10996122222
702;10780106000;10496122222;10996122222
703;10780244000;10496133333;10996133333
704;10780247000;10496444444;10996444444
705;10780248000;10496444444;10996444444
706;10780249000;10496444444;10996444444
707;10819259000;10537788888;11037788888
708;10819261000;10537788888;11037788888
709;10819262000;10537788888;11037788888
710;10819263000;10537788888;11037788888
711;10819264000;10537788888;11037788888
712;10819265000;10537788888;11037788888
713;10819266000;10537788888;11037788888
714;10980827000;10537800000;11037800000
747;11078597000;10662800000;11162800000
773;11078602000;10787788888;11287788888
774;11078604000;10787788888;11287788888
775;11078605000;10787788888;11287788888
776;11078629000;10787788888;11287788888
777;11078630000;10787788888;11287788888
778;11078631000;10787788888;11287788888
779;11078632000;10787788888;11287788888
780;11151164000;10787800000;11287800000
784;11151180000;10829455555;11329455555
785;11151181000;10829455555;11329455555
786;11151182000;10829455555;11329455555
787;11151183000;10829455555;11329455555
788;11151184000;10829455555;11329455555
789;11151185000;10829455555;11329455555
790;11151185000;10829455555;11329455555
791;11371169000;10829466666;11329466666
832;11371184000;10996122222;11496122222
833;11371185000;10996122222;11496122222
834;11371186000;10996122222;11496122222
835;11528101000;10996133333;11496133333
869;11528116000;11121455555;11621455555
870;11528117000;11121455555;11621455555
871;11528118000;11121455555;11621455555
872;11619400000;11162788888;11662788888
888;11636855000;11204455555;11704455555
890;11637057000;11204466666;11704466666
891;11637063000;11204744444;11704744444
892;11637064000;11204744444;11704744444
893;11637065000;11204744444;11704744444
894;11653639000;11246122222;11746122222
896;11653642000;11246122222;11746122222
897;11653643000;11246122222;11746122222
898;11653644000;11246122222;11746122222
899;11653645000;11246122222;11746122222
900;11653646000;11246122222;11746122222
901;11653846000;11246133333;11746133333
902;11653862000;11246433333;11746433333
903;11653863000;11246433333;11746433333
904;11653864000;11246433333;11746433333
905;11672077000;11287788888;11787788888
906;11672090000;11287788888;11787788888
907;11672091000;11287788888;11787788888
908;11672092000;11287788888;11787788888
909;11672093000;11287788888;11787788888
910;11672094000;11287788888;11787788888
911;11672094000;11287788888;11787788888
912;11672278000;11287800000;11787800000
913;11672284000;11288100000;11788100000
914;11672285000;11288100000;11788100000
915;11672286000;11288100000;11788100000
916;11692966000;11329455555;11829455555
918;11692970000;11329455555;11829455555
919;11692970000;11329455555;11829455555
920;11692971000;11329455555;11829455555
921;11692972000;11329455555;11829455555
922;11692973000;11329455555;11829455555
923;11733524000;11329466666;11829466666
928;11733539000;11371122222;11871122222
929;11733540000;11371122222;11871122222
930;11733541000;11371122222;11871122222
931;11733542000;11371122222;11871122222
932;11733543000;11371122222;11871122222
933;11733544000;11371122222;11871122222
934;11775169000;11371133333;11871133333
935;11775184000;11371455555;11871455555
936;11775185000;11371455555;11871455555
937;11775186000;11371455555;11871455555
938;11816554000;11412788888;11912788888
945;11816679000;11412800000;11912800000
946;11816684000;11413111111;11913111111
947;11816685000;11413111111;11913111111
948;11816686000;11413111111;11913111111
949;11857697000;11454455555;11954455555
950;11857701000;11454455555;11954455555
951;11857702000;11454455555;11954455555
952;11857703000;11454455555;11954455555
953;11857703000;11454455555;11954455555
954;11857704000;11454455555;11954455555
955;11857705000;11454455555;11954455555
956;11857904000;11454466666;11954466666
957;11857920000;11454766666;11954766666
958;11857921000;11454766666;11954766666
959;11857922000;11454766666;11954766666
960;11898262000;11496122222;11996122222
961;11898265000;11496122222;11996122222
962;11898267000;11496122222;11996122222
963;11898267000;11496122222;11996122222
964;11898268000;11496122222;11996122222
965;11898269000;11496122222;11996122222
966;11898270000;11496122222;11996122222
967;11898470000;11496155555;11996155555
968;11898476000;11496455555;11996455555
969;11898477000;11496455555;11996455555
970;11898478000;11496455555;11996455555
971;11938067000;11537788888;12037788888
975;11938080000;11537788888;12037788888
976;11938081000;11537788888;12037788888
977;11938082000;11537788888;12037788888
978;11938281000;11537811111;12037811111
979;11938287000;11538111111;12038111111
980;11938288000;11538111111;12038111111
981;11938289000;11538111111;12038111111
982;11977038000;11579455555;12079455555
988;11977040000;11579455555;12079455555
989;11977192000;11579466666;12079466666
990;11977202000;11579744444;12079744444
991;11977203000;11579744444;12079744444
995;12015416000;11621122222;12121122222
996;12015419000;11621122222;12121122222
997;12015420000;11621122222;12121122222
998;12015421000;11621122222;12121122222
999;12015422000;11621122222;12121122222
1000;12015544000;11621133333;12121133333
1001;12015559000;11621433333;12121433333
1002;12015560000;11621433333;12121433333
1003;12015561000;11621433333;12121433333
1004;12052273000;11662788888;12162788888
1005;12052276000;11662788888;12162788888
1006;12052277000;11662788888;12162788888
1007;12052278000;11662788888;12162788888
1008;12052279000;11662788888;12162788888
1009;12052280000;11662788888;12162788888
1010;12052281000;11662788888;12162788888
1011;12052480000;11662800000;12162800000
1012;12052495000;11663111111;12163111111
1013;12052496000;11663111111;12163111111
1014;12052497000;11663111111;12163111111
1015;12088457000;11704444444;12204444444
1016;12088460000;11704444444;12204444444
1017;12088461000;11704444444;12204444444
1018;12088462000;11704444444;12204444444
1019;12088463000;11704444444;12204444444
1020;12088464000;11704444444;12204444444
1021;12088465000;11704444444;12204444444
1022;12088663000;11704455555;12204455555
1023;12088679000;11704766666;12204766666
1024;12088680000;11704766666;12204766666
1025;12088681000;11704766666;12204766666
1026;12123792000;11746122222;12246122222
1027;12123795000;11746122222;12246122222
1028;12123796000;11746122222;12246122222
1029;12123796000;11746122222;12246122222
1030;12123797000;11746122222;12246122222
1031;12123798000;11746122222;12246122222
1032;12123799000;11746122222;12246122222
1033;12123942000;11746133333;12246133333
1034;12123944000;11746422222;12246422222
1035;12163674000;11746422222;12246422222
1036;12163684000;11746422222;12246422222
1037;12214030000;11787788888;12287788888
1048;12255679000;11829455555;12329455555
1049;12255682000;11829455555;12329455555
1050;12255683000;11829455555;12329455555
1051;12255684000;11829455555;12329455555
1052;12255685000;11829455555;12329455555
1053;12255686000;11829455555;12329455555
1054;12255687000;11829455555;12329455555
1055;12255887000;11829466666;12329466666
1056;12255902000;11829744444;12329744444
1057;12255903000;11829744444;12329744444
1058;12255904000;11829744444;12329744444
1059;12297229000;11871122222;12371122222
1063;12297232000;11871122222;12371122222
1064;12297234000;11871122222;12371122222
1065;12297234000;11871122222;12371122222
1066;12297353000;11871133333;12371133333
1067;12297357000;11871411111;12371411111
1068;12297358000;11871411111;12371411111
1069;12297359000;11871411111;12371411111
1070;12338572000;11912788888;12412788888
1071;12338574000;11912788888;12412788888
1072;12338575000;11912788888;12412788888
1073;12338576000;11912788888;12412788888
1074;12338577000;11912788888;12412788888
1075;12338578000;11912788888;12412788888
1076;12338579000;11912788888;12412788888
1077;12338723000;11912800000;12412800000
1078;12338725000;11913100000;12413100000
1079;12338726000;11913100000;12413100000
1080;12338727000;11913100000;12413100000
1081;12379629000;11954455555;12454455555
1082;12379633000;11954455555;12454455555
1083;12379634000;11954455555;12454455555
1084;12379635000;11954455555;12454455555
1085;12379636000;11954455555;12454455555
1086;12379636000;11954455555;12454455555
1087;12379637000;11954455555;12454455555
1088;12379809000;11954466666;12454466666
1089;12379813000;11954733333;12454733333
1090;12379815000;11954733333;12454733333
1091;12379816000;11954733333;12454733333
1092;12420142000;11996122222;12496122222
1095;12420145000;11996122222;12496122222
1096;12420146000;11996122222;12496122222
1097;12420147000;11996122222;12496122222
1098;12420148000;11996122222;12496122222
1099;12420319000;11996144444;12496144444
1100;12420323000;11996411111;12496411111
1101;12420324000;11996411111;12496411111
1102;12420326000;11996411111;12496411111
1103;12460067000;12037777777;12537777777
1109;12460069000;12037777777;12537777777
1110;12460213000;12037788888;12537788888
1111;12460215000;12038111111;12538111111
1112;12460216000;12038111111;12538111111
1113;12460217000;12038111111;12538111111
1114;12499438000;12079455555;12579455555
1115;12499441000;12079455555;12579455555
1118;12499681000;12079455555;12579455555
1119;12499682000;12079455555;12579455555
1120;12499683000;12079455555;12579455555
1121;12499904000;12079466666;12579466666
1122;12499907000;12079744444;12579744444
1123;12499908000;12079744444;12579744444
1124;12499909000;12079744444;12579744444
1125;12538246000;12121122222;12621122222
1126;12538248000;12121122222;12621122222
1127;12538250000;12121122222;12621122222
1128;12538260000;12121122222;12621122222
1129;12538260000;12121122222;12621122222
1130;12538261000;12121122222;12621122222
1131;12538262000;12121122222;12621122222
1133;12538367000;12121422222;12621422222
1134;12538369000;12121422222;12621422222
1135;12538370000;12121422222;12621422222
1136;12577497000;12162788888;12662788888
1137;12577500000;12162788888;12662788888
1138;12577501000;12162788888;12662788888
1139;12577502000;12162788888;12662788888
1140;12577503000;12162788888;12662788888
1141;12577504000;12162788888;12662788888
1142;12577505000;12162788888;12662788888
1143;12577675000;12162800000;12662800000
1144;12577680000;12163100000;12663100000
1145;12577681000;12163100000;12663100000
1146;12577682000;12163100000;12663100000
1147;12615068000;12204455555;12704455555
1149;12615072000;12204455555;12704455555
1150;12615073000;12204455555;12704455555
1151;12615074000;12204455555;12704455555
1152;12615075000;12204455555;12704455555
1153;12615076000;12204455555;12704455555
1154;12615259000;12204466666;12704466666
1155;12630781000;12204744444;12704744444
1156;12644288000;12204744444;12704744444
1157;12644291000;12204744444;12704744444
1158;12722627000;12246122222;12746122222
1170;12763978000;12287788888;12787788888
1185;12805062000;12329455555;12829455555
1190;12805206000;12329755555;12829755555
1191;12845244000;12371111111;12871111111
1195;12845248000;12371111111;12871111111
1196;12845249000;12371111111;12871111111
1197;12845250000;12371111111;12871111111
1198;12845449000;12371122222;12871122222
1199;12845464000;12371411111;12871411111
1200;12845465000;12371411111;12871411111
1201;12845466000;12371411111;12871411111
1202;12884465000;12412777777;12912777777
1203;12884469000;12412777777;12912777777
1204;12884470000;12412777777;12912777777
1205;12884471000;12412777777;12912777777
1206;12884471000;12412777777;12912777777
1207;12884472000;12412777777;12912777777
1208;12884473000;12412777777;12912777777
1209;12884643000;12412788888;12912788888
1212;12884658000;12413100000;12913100000
1213;12922525000;12454444444;12954444444
1221;12922602000;12454755555;12954755555
1222;12922604000;12454755555;12954755555
1223;12922605000;12454755555;12954755555
1224;12959444000;12496122222;12996122222
1233;12959560000;12496422222;12996422222
1234;12959563000;12496422222;12996422222
1235;12995016000;12537788888;13037788888
1236;12995020000;12537788888;13037788888
1237;12995020000;12537788888;13037788888
1238;12995022000;12537788888;13037788888
1239;12995023000;12537788888;13037788888
1240;12995023000;12537788888;13037788888
1241;12995024000;12537788888;13037788888
1242;12995196000;12537800000;13037800000
1243;12995200000;12538088888;13038088888
1244;12995202000;12538088888;13038088888
1245;12995202000;12538088888;13038088888
1246;13029354000;12579455555;13079455555
1248;13029357000;12579455555;13079455555
1249;13029358000;12579455555;13079455555
1250;13029359000;12579455555;13079455555
1251;13029360000;12579455555;13079455555
1252;13029361000;12579455555;13079455555
1253;13029538000;12579466666;13079466666
1254;13029542000;12579733333;13079733333
1255;13029544000;12579733333;13079733333
1256;13029545000;12579733333;13079733333
1257;13062673000;12621122222;13121122222
1258;13062676000;12621122222;13121122222
1259;13062677000;12621122222;13121122222
1260;13062678000;12621122222;13121122222
1261;13062679000;12621122222;13121122222
1262;13062680000;12621122222;13121122222
1263;13062681000;12621122222;13121122222
1264;13062843000;12621133333;13121133333
1265;13062847000;12621422222;13121422222
1266;13062848000;12621422222;13121422222
1267;13062856000;12621422222;13121422222
1268;13095201000;12662788888;13162788888
1269;13095204000;12662788888;13162788888
1270;13095205000;12662788888;13162788888
1271;13095206000;12662788888;13162788888
1272;13095207000;12662788888;13162788888
1273;13095208000;12662788888;13162788888
1274;13095209000;12662788888;13162788888
1275;13095408000;12662800000;13162800000
1276;13095424000;12663100000;13163100000
1277;13095425000;12663100000;13163100000
1278;13095426000;12663100000;13163100000
1281;13175166000;12704455555;13204455555
1295;13216785000;12746122222;13246122222
1296;13216789000;12746122222;13246122222
1297;13216988000;12746133333;13246133333
1298;13217003000;12746411111;13246411111
1299;13217005000;12746411111;13246411111
1300;13217006000;12746411111;13246411111
1301;13258292000;12787788888;13287788888
1310;13258404000;12788100000;13288100000
1311;13258407000;12788100000;13288100000
1312;13299396000;12829455555;13329455555
1315;13299400000;12829455555;13329455555
1316;13299401000;12829455555;13329455555
1317;13299402000;12829455555;13329455555
1319;13299528000;12829466666;13329466666
1320;13299531000;12829755555;13329755555
1321;13299532000;12829755555;13329755555
1322;13299533000;12829755555;13329755555
1323;13339948000;12871122222;13371122222
1326;13339952000;12871122222;13371122222
1327;13339953000;12871122222;13371122222
1328;13339954000;12871122222;13371122222
1329;13339955000;12871122222;13371122222
1330;13340162000;12871133333;13371133333
1331;13340178000;12871422222;13371422222
1332;13340179000;12871422222;13371422222
1333;13340180000;12871422222;13371422222
1334;13379777000;12912777777;13412777777
1346;13418749000;12954455555;13454455555
1360;13456020000;12996122222;13496122222
1361;13456024000;12996122222;13496122222
1362;13456025000;12996122222;13496122222
1363;13456225000;12996133333;13496133333
1364;13456228000;12996411111;13496411111
1365;13456229000;12996411111;13496411111
1366;13456230000;12996411111;13496411111
1367;13492946000;13037788888;13537788888
1377;13493069000;13038100000;13538100000
1378;13528572000;13079455555;13579455555
1380;13528575000;13079455555;13579455555
1381;13528576000;13079455555;13579455555
1382;13528577000;13079455555;13579455555
1383;13528578000;13079455555;13579455555
1384;13528579000;13079455555;13579455555
1385;13528786000;13079466666;13579466666
1386;13528801000;13079755555;13579755555
1387;13528802000;13079755555;13579755555
1388;13528803000;13079755555;13579755555
1389;13561009000;13121122222;13621122222
1390;13561012000;13121122222;13621122222
1391;13561013000;13121122222;13621122222
1392;13561014000;13121122222;13621122222
1393;13561015000;13121122222;13621122222
1394;13561016000;13121122222;13621122222
1395;13561017000;13121122222;13621122222
1396;13561155000;13121133333;13621133333
1397;13561158000;13121455555;13621455555
1398;13561159000;13121455555;13621455555
1399;13561160000;13121455555;13621455555
1400;13595211000;13162888888;13662888888
1401;13595215000;13162888888;13662888888
1402;13595216000;13162888888;13662888888
1403;13595217000;13162888888;13662888888
1404;13595218000;13162888888;13662888888
1405;13595219000;13162888888;13662888888
1406;13595220000;13162888888;13662888888
1407;13655868000;13162900000;13662900000
1425;13655883000;13246122222;13746122222
1426;13655884000;13246122222;13746122222
1427;13655885000;13246122222;13746122222
1428;13655886000;13246122222;13746122222
1429;13739076000;13246133333;13746133333
1438;13739092000;13287788888;13787788888
1439;13739093000;13287788888;13787788888
1440;13779833000;13287800000;13787800000
1444;13779849000;13329444444;13829444444
1445;13779850000;13329444444;13829444444
1446;13779851000;13329444444;13829444444
1447;13779852000;13329444444;13829444444
1448;13779853000;13329444444;13829444444
1449;13779854000;13329444444;13829444444
1450;13779855000;13329444444;13829444444
1451;13819852000;13329455555;13829455555
1455;13819868000;13371111111;13871111111
1459;13845684000;13371111111;13871111111
1462;13857107000;13371122222;13871122222
1476;13857123000;13413100000;13913100000
1477;13932863000;13454455555;13954455555
1491;13962367000;13496122222;13996122222
1503;13996251000;13537788888;14037788888
1509;13996363000;13538100000;14038100000
1510;14028371000;13579444444;14079444444
1512;14028375000;13579444444;14079444444
1513;14028376000;13579444444;14079444444
1514;14028377000;13579444444;14079444444
1515;14028378000;13579444444;14079444444
1516;14028379000;13579444444;14079444444
1517;14028578000;13579455555;14079455555
1518;14028594000;13579733333;14079733333
1519;14028595000;13579733333;14079733333
1520;14028596000;13579733333;14079733333
1521;14058960000;13621122222;14121122222
1522;14058963000;13621122222;14121122222
1523;14058964000;13621122222;14121122222
1524;14058965000;13621122222;14121122222
1525;14058966000;13621122222;14121122222
1526;14058967000;13621122222;14121122222
1527;14058968000;13621122222;14121122222
1528;14059168000;13621133333;14121133333
1529;14059183000;13621422222;14121422222
1530;14059185000;13621422222;14121422222
1531;14059186000;13621422222;14121422222
1532;14088961000;13662788888;14162788888
1533;14088965000;13662788888;14162788888
1534;14088975000;13662788888;14162788888
1535;14088976000;13662788888;14162788888
1536;14088977000;13662788888;14162788888
1537;14088978000;13662788888;14162788888
1538;14088979000;13662788888;14162788888
1539;14089250000;13662800000;14162800000
1541;14089256000;13663111111;14163111111
1542;14089257000;13663111111;14163111111
1543;14178088000;13704455555;14204455555
1560;14219392000;13746122222;14246122222
1576;14300599000;13829455555;14329455555
1583;14300817000;13829466666;14329466666
1584;14300820000;13829755555;14329755555
1585;14300821000;13829755555;14329755555
1586;14300822000;13829755555;14329755555
1587;14339105000;13871111111;14371111111
1612;14413240000;13954455555;14454455555
1632;14477224000;14037788888;14537788888
1646;14511891000;14079455555;14579455555
1649;14512100000;14079466666;14579466666
1650;14512116000;14079766666;14579766666
1651;14512117000;14079766666;14579766666
1652;14512118000;14079766666;14579766666
1653;14541429000;14121122222;14621122222
1654;14541433000;14121122222;14621122222
1655;14541434000;14121122222;14621122222
1656;14541435000;14121122222;14621122222
1657;14541436000;14121122222;14621122222
1658;14541437000;14121122222;14621122222
1659;14541437000;14121122222;14621122222
1660;14541608000;14121133333;14621133333
1661;14541612000;14121444444;14621444444
1662;14541614000;14121444444;14621444444
1663;14541615000;14121444444;14621444444
1664;14569234000;14162788888;14662788888
1670;14569238000;14162788888;14662788888
1671;14569469000;14162800000;14662800000
1672;14569473000;14163111111;14663111111
1673;14569475000;14163111111;14663111111
1674;14569476000;14163111111;14663111111
1675;14596488000;14204455555;14704455555
1684;14596600000;14204788888;14704788888
1685;14596604000;14204788888;14704788888
1686;14624190000;14246122222;14746122222
1699;14647419000;14287788888;14787788888
1701;14647422000;14287788888;14787788888
1702;14647423000;14287788888;14787788888
1703;14647424000;14287788888;14787788888
1704;14647625000;14287800000;14787800000
1706;14647640000;14288100000;14788100000
1707;14647642000;14288100000;14788100000
1708;14679991000;14329455555;14829455555
1709;14679995000;14329455555;14829455555
1710;14679996000;14329455555;14829455555
1711;14679997000;14329455555;14829455555
1712;14679998000;14329455555;14829455555
1713;14679999000;14329455555;14829455555
1714;14680000000;14329455555;14829455555
1715;14680233000;14329477777;14829477777
1716;14680248000;14329800000;14829800000
1717;14680249000;14329800000;14829800000
1718;14680250000;14329800000;14829800000
1719;14709673000;14371122222;14871122222
1720;14709676000;14371122222;14871122222
1721;14709677000;14371122222;14871122222
1722;14709678000;14371122222;14871122222
1723;14709679000;14371122222;14871122222
1724;14709680000;14371122222;14871122222
1725;14709681000;14371122222;14871122222
1726;14709857000;14371133333;14871133333
1727;14709862000;14371444444;14871444444
1728;14709863000;14371444444;14871444444
1729;14709864000;14371444444;14871444444
1730;14734229000;14412788888;14912788888
1731;14734239000;14412788888;14912788888
1732;14734250000;14412788888;14912788888
1733;14734250000;14412788888;14912788888
1734;14734251000;14412788888;14912788888
1735;14734252000;14412788888;14912788888
1736;14734253000;14412788888;14912788888
1737;14734393000;14412800000;14912800000
1738;14734396000;14413111111;14913111111
1739;14734397000;14413111111;14913111111
1740;14734398000;14413111111;14913111111
1741;14815836000;14454455555;14954455555
1753;14857503000;14496122222;14996122222
1770;14899357000;14537800000;15037800000
1772;14899372000;14538100000;15038100000
1773;14899374000;14538100000;15038100000
1774;14940425000;14579444444;15079444444
1785;14981120000;14621122222;15121122222
1789;14981123000;14621122222;15121122222
1790;14981125000;14621122222;15121122222
1791;14981126000;14621122222;15121122222
1792;14981331000;14621144444;15121144444
1793;14981347000;14621433333;15121433333
1794;14981348000;14621433333;15121433333
1795;14981349000;14621433333;15121433333
1796;15020120000;14662788888;15162788888
1797;15020124000;14662788888;15162788888
1798;15020124000;14662788888;15162788888
1799;15020125000;14662788888;15162788888
1800;15020126000;14662788888;15162788888
1801;15020127000;14662788888;15162788888
1802;15020128000;14662788888;15162788888
1803;15020327000;14662800000;15162800000
1804;15020343000;14663122222;15163122222
1805;15020344000;14663122222;15163122222
1806;15020345000;14663122222;15163122222
1807;15058867000;14704455555;15204455555
1823;15096747000;14746122222;15246122222
1840;15166753000;14829444444;15329444444
1852;15201453000;14871111111;15371111111
1855;15201456000;14871111111;15371111111
1856;15201457000;14871111111;15371111111
1857;15201458000;14871111111;15371111111
1858;15201657000;14871122222;15371122222
1859;15201672000;14871411111;15371411111
1860;15201673000;14871411111;15371411111
1861;15201674000;14871411111;15371411111
1862;15231539000;14912788888;15412788888
1863;15231543000;14912788888;15412788888
1864;15231544000;14912788888;15412788888
1865;15231545000;14912788888;15412788888
1866;15231546000;14912788888;15412788888
1867;15231547000;14912788888;15412788888
1868;15231548000;14912788888;15412788888
1869;15231718000;14912800000;15412800000
1870;15231721000;14913100000;15413100000
1871;15231722000;14913100000;15413100000
1872;15231723000;14913100000;15413100000
1873;15265175000;14954455555;15454455555
1874;15265178000;14954455555;15454455555
1875;15265178000;14954455555;15454455555
1876;15265189000;14954455555;15454455555
1877;15265190000;14954455555;15454455555
1878;15265191000;14954455555;15454455555
1879;15265191000;14954455555;15454455555
1880;15265362000;14954466666;15454466666
1881;15265364000;14954733333;15454733333
1882;15265365000;14954733333;15454733333
1883;15265366000;14954733333;15454733333
1884;15297694000;14996122222;15496122222
1895;15331161000;15037788888;15537788888
1910;15421275000;15079455555;15579455555
1922;15462175000;15121122222;15621122222
1927;15462282000;15121444444;15621444444
1928;15501227000;15162788888;15662788888
1933;15501230000;15162788888;15662788888
1934;15501231000;15162788888;15662788888
1935;15501444000;15162800000;15662800000
1936;15501447000;15163088888;15663088888
1937;15501448000;15163088888;15663088888
1938;15501449000;15163088888;15663088888
1939;15540135000;15204455555;15704455555
1959;15572062000;15246433333;15746433333
1970;15611354000;15288077777;15788077777
1975;15646153000;15329444444;15829444444
1984;15893249000;15371122222;15871122222
2051;16100127000;15621122222;16121122222
2091;16162171000;15746400000;16246400000
2104;16342834000;15829444444;16329444444
2151;16419059000;15996122222;16496122222
2166;16419261000;16037800000;16537800000
2167;16419277000;16038111111;16538111111
2168;16419278000;16038111111;16538111111
2169;16419279000;16038111111;16538111111
2170;16429026000;16079455555;16579455555
2171;16429030000;16079455555;16579455555
2172;16429031000;16079455555;16579455555
2173;16429032000;16079455555;16579455555
2174;16429033000;16079455555;16579455555
2175;16429033000;16079455555;16579455555
2176;16429034000;16079455555;16579455555
2177;16429253000;16079466666;16579466666
2178;16429268000;16079766666;16579766666
2179;16429269000;16079766666;16579766666
2180;16429270000;16079766666;16579766666
2181;16444627000;16121122222;16621122222
2182;16444629000;16121122222;16621122222
2183;16444630000;16121122222;16621122222
2184;16444631000;16121122222;16621122222
2185;16444632000;16121122222;16621122222
2186;16444633000;16121122222;16621122222
2187;16444634000;16121122222;16621122222
2188;16444777000;16121133333;16621133333
2189;16447767000;16121444444;16621444444
2190;16447787000;16121444444;16621444444
2191;16447792000;16121444444;16621444444
2192;16539671000;16162788888;16662788888
2211;16581169000;16204766666;16704766666
2212;16581172000;16204766666;16704766666
2213;16581173000;16204766666;16704766666
2214;16622228000;16246111111;16746111111
2221;16622430000;16246122222;16746122222
2222;16622445000;16246466666;16746466666
2223;16622446000;16246466666;16746466666
2224;16622447000;16246466666;16746466666
2225;16662583000;16287788888;16787788888
2227;16662586000;16287788888;16787788888
2228;16662587000;16287788888;16787788888
2229;16662588000;16287788888;16787788888
2230;16662589000;16287788888;16787788888
2231;16662590000;16287788888;16787788888
2232;16662761000;16287800000;16787800000
2233;16662765000;16288100000;16788100000
2234;16662767000;16288100000;16788100000
2235;16662768000;16288100000;16788100000
2236;16701589000;16329455555;16829455555
2237;16701592000;16329455555;16829455555
2238;16701593000;16329455555;16829455555
2239;16701594000;16329455555;16829455555
2240;16701595000;16329455555;16829455555
2241;16701596000;16329455555;16829455555
2242;16701597000;16329455555;16829455555
2243;16701798000;16329477777;16829477777
2244;16701813000;16329777777;16829777777
2245;16701814000;16329777777;16829777777
2246;16701815000;16329777777;16829777777
2247;16739233000;16371122222;16871122222
2271;16809493000;16454455555;16954455555
2274;16840841000;16454455555;16954455555
2276;16841120000;16454466666;16954466666
2278;16841136000;16454777777;16954777777
2279;16841137000;16454777777;16954777777
2280;16842981000;16496144444;16996144444
2281;16842984000;16496144444;16996144444
2282;16842985000;16496144444;16996144444
2283;16842986000;16496144444;16996144444
2284;16842987000;16496144444;16996144444
2285;16842988000;16496144444;16996144444
2286;16842989000;16496144444;16996144444
2287;16843219000;16496166666;16996166666
2288;16843234000;16496500000;16996500000
2289;16843235000;16496500000;16996500000
2290;16843236000;16496500000;16996500000
2291;16875366000;16537788888;17037788888
2292;16875370000;16537788888;17037788888
2293;16875371000;16537788888;17037788888
2294;16875372000;16537788888;17037788888
2295;16875373000;16537788888;17037788888
2296;16875374000;16537788888;17037788888
2297;16875375000;16537788888;17037788888
2298;16875518000;16537800000;17037800000
2299;16875520000;16538100000;17038100000
2300;16875521000;16538100000;17038100000
2301;16875522000;16538100000;17038100000
2302;16906224000;16579455555;17079455555
2303;16906226000;16579455555;17079455555
2304;16906227000;16579455555;17079455555
2305;16906228000;16579455555;17079455555
2306;16906229000;16579455555;17079455555
2307;16906230000;16579455555;17079455555
2308;16906231000;16579455555;17079455555
2309;16906373000;16579466666;17079466666
2310;16906375000;16579755555;17079755555
2311;16928460000;16579755555;17079755555
2312;16928479000;16579755555;17079755555
2313;16936579000;16621122222;17121122222
2314;16936582000;16621122222;17121122222
2315;16936584000;16621122222;17121122222
2316;16955968000;16621122222;17121122222
2318;16969532000;16621122222;17121122222
2319;16969535000;16621122222;17121122222
2320;17020034000;16621133333;17121133333
2335;17020069000;16704455555;17204455555
2336;17020071000;16704455555;17204455555
2337;17020072000;16704455555;17204455555
2338;17020073000;16704455555;17204455555
2339;17020074000;16704455555;17204455555
2340;17020075000;16704455555;17204455555
2341;17020076000;16704455555;17204455555
2342;17103432000;16704466666;17204466666
2346;17103447000;16746111111;17246111111
2347;17103455000;16746111111;17246111111
2348;17103456000;16746111111;17246111111
2349;17103457000;16746111111;17246111111
2350;17103458000;16746111111;17246111111
2351;17103459000;16746111111;17246111111
2352;17103460000;16746111111;17246111111
2353;17144195000;16746122222;17246122222
2357;17144211000;16787788888;17287788888
2358;17144212000;16787788888;17287788888
2359;17144213000;16787788888;17287788888
2360;17144214000;16787788888;17287788888
2361;17144215000;16787788888;17287788888
2362;17144216000;16787788888;17287788888
2363;17144216000;16787788888;17287788888
2364;17184267000;16787800000;17287800000
2365;17184282000;16788122222;17288122222
2366;17184284000;16788122222;17288122222
2367;17184285000;16788122222;17288122222
2368;17223068000;16829455555;17329455555
2398;17296100000;16913111111;17413111111
2400;17296104000;16913111111;17413111111
2401;17327259000;16954455555;17454455555
2405;17327263000;16954455555;17454455555
2406;17327264000;16954455555;17454455555
2407;17327265000;16954455555;17454455555
2408;17327465000;16954466666;17454466666
2409;17327480000;16954744444;17454744444
2410;17327481000;16954744444;17454744444
2411;17327482000;16954744444;17454744444
2412;17361067000;16996111111;17496111111
2413;17361071000;16996111111;17496111111
2414;17361072000;16996111111;17496111111
2415;17361082000;16996111111;17496111111
2416;17361083000;16996111111;17496111111
2417;17361084000;16996111111;17496111111
2418;17361085000;16996111111;17496111111
2419;17361274000;16996122222;17496122222
2420;17361277000;16996433333;17496433333
2421;17361279000;16996433333;17496433333
2422;17361280000;16996433333;17496433333
2423;17393199000;17037788888;17537788888
2424;17393201000;17037788888;17537788888
2425;17393202000;17037788888;17537788888
2426;17393212000;17037788888;17537788888
2427;17393213000;17037788888;17537788888
2428;17393214000;17037788888;17537788888
2429;17393215000;17037788888;17537788888
2430;17393404000;17037800000;17537800000
2431;17393407000;17038122222;17538122222
2432;17393408000;17038122222;17538122222
2435;17424608000;17079455555;17579455555
2436;17424609000;17079455555;17579455555
2437;17424610000;17079455555;17579455555
2438;17424611000;17079455555;17579455555
2439;17424612000;17079455555;17579455555
2440;17424613000;17079455555;17579455555
2441;17424713000;17079466666;17579466666
2442;17424715000;17079766666;17579766666
2444;17450099000;17079766666;17579766666
2445;17542183000;17121122222;17621122222
2464;17583526000;17163111111;17663111111
2474;17624272000;17204466666;17704466666
2482;17624288000;17246111111;17746111111
2483;17624289000;17246111111;17746111111
2484;17624290000;17246111111;17746111111
2485;17664058000;17246122222;17746122222
2489;17664064000;17287788888;17787788888
2490;17664065000;17287788888;17787788888
2491;17664066000;17287788888;17787788888
2492;17664067000;17287788888;17787788888
2493;17664068000;17287788888;17787788888
2494;17664069000;17287788888;17787788888
2495;17664070000;17287788888;17787788888
2496;17702243000;17287800000;17787800000
2529;17795561000;17412800000;17912800000
2531;17795567000;17413111111;17913111111
2532;17795568000;17413111111;17913111111
2533;17821427000;17454444444;17954444444
2541;17821543000;17454766666;17954766666
2542;17821546000;17454766666;17954766666
2543;17821547000;17454766666;17954766666
2544;17852088000;17496111111;17996111111
2549;17852091000;17496111111;17996111111
2550;17852092000;17496111111;17996111111
2551;17852301000;17496122222;17996122222
2552;17852317000;17496455555;17996455555
2553;17852318000;17496455555;17996455555
2554;17852319000;17496455555;17996455555
2555;17880949000;17537788888;18037788888
2556;17880952000;17537788888;18037788888
2557;17880953000;17537788888;18037788888
2558;17880954000;17537788888;18037788888
2559;17880955000;17537788888;18037788888
2560;17880956000;17537788888;18037788888
2561;17880957000;17537788888;18037788888
2562;17881163000;17537811111;18037811111
2563;17881178000;17538133333;18038133333
2564;17881180000;17538133333;18038133333
2565;17881181000;17538133333;18038133333
2566;17909187000;17579455555;18079455555
2567;17909206000;17579455555;18079455555
2568;17909207000;17579455555;18079455555
2569;17909208000;17579455555;18079455555
2570;17909209000;17579455555;18079455555
2571;17909210000;17579455555;18079455555
2572;17909211000;17579455555;18079455555
2573;17909345000;17579466666;18079466666
2574;17919241000;17579744444;18079744444
2575;17930647000;17579744444;18079744444
2576;17930901000;17579744444;18079744444
2577;18011111000;17621111111;18121111111
2598;18052199000;17663111111;18163111111
2607;18093161000;17704755555;18204755555
2614;18133129000;17746122222;18246122222
2619;18133242000;17746422222;18246422222
2620;18133245000;17746422222;18246422222
2621;18171485000;17787788888;18287788888
2642;18189147000;17829733333;18329733333
2667;18296618000;17954455555;18454455555
2676;18327456000;17996122222;18496122222
2677;18327459000;17996122222;18496122222
2678;18327460000;17996122222;18496122222
2679;18327461000;17996122222;18496122222
2680;18327462000;17996122222;18496122222
2681;18327463000;17996122222;18496122222
2682;18327464000;17996122222;18496122222
2683;18327671000;17996133333;18496133333
2684;18327686000;17996400000;18496400000
2685;18327688000;17996400000;18496400000
2686;18327689000;17996400000;18496400000
2687;18355015000;18037788888;18537788888
2688;18355018000;18037788888;18537788888
2689;18355019000;18037788888;18537788888
2690;18355020000;18037788888;18537788888
2691;18355021000;18037788888;18537788888
2692;18355022000;18037788888;18537788888
2693;18355023000;18037788888;18537788888
2694;18355201000;18037800000;18537800000
2695;18355205000;18038088888;18538088888
2696;18355207000;18038088888;18538088888
2697;18355207000;18038088888;18538088888
2698;18617026000;18079455555;18579455555
2746;18666122000;18246122222;18746122222
2790;18989437000;18412777777;18912777777
2856;19043901000;18662777777;19162777777
2868;19049937000;18704455555;19204455555
2869;19049940000;18704455555;19204455555
2870;19050154000;18704466666;19204466666
2871;19050170000;18704744444;19204744444
2872;19050171000;18704744444;19204744444
2873;19050172000;18704744444;19204744444
2874;19059036000;18746122222;19246122222
2877;19131998000;18746122222;19246122222
2878;19132003000;18746122222;19246122222
2879;19132004000;18746122222;19246122222
2880;19132005000;18746122222;19246122222
2881;19132280000;18746144444;19246144444
2893;19132296000;18788100000;19288100000
2894;19132297000;18788100000;19288100000
2895;19132298000;18788100000;19288100000
2896;19182334000;18829455555;19329455555
2914;19224031000;18871133333;19371133333
2915;19224054000;18871400000;19371400000
2916;19224055000;18871400000;19371400000
2917;19224056000;18871400000;19371400000
2918;19265434000;18912777777;19412777777
2926;19265546000;18913077777;19413077777
2927;19265549000;18913077777;19413077777
2928;19265550000;18913077777;19413077777
2929;19306287000;18954444444;19454444444
2930;19306290000;18954444444;19454444444
2931;19306291000;18954444444;19454444444
2932;19306292000;18954444444;19454444444
2933;19306293000;18954444444;19454444444
2934;19306294000;18954444444;19454444444
2935;19306295000;18954444444;19454444444
2936;19436830000;18954455555;19454455555
2974;19436845000;19121122222;19621122222
2975;19436847000;19121122222;19621122222
2976;19436847000;19121122222;19621122222
2977;19436848000;19121122222;19621122222
2978;19436849000;19121122222;19621122222
2979;19436850000;19121122222;19621122222
2980;19529845000;19121133333;19621133333
2985;19529861000;19162777777;19662777777
2986;19529862000;19162777777;19662777777
2987;19529863000;19162777777;19662777777
2988;19529864000;19162777777;19662777777
2989;19529865000;19162777777;19662777777
2990;19529865000;19162777777;19662777777
2991;19550132000;19162788888;19662788888
2995;19550148000;19204444444;19704444444
2996;19550149000;19204444444;19704444444
2997;19550150000;19204444444;19704444444
2998;19550151000;19204444444;19704444444
2999;19550152000;19204444444;19704444444
3000;19550153000;19204444444;19704444444
3001;19550153000;19204444444;19704444444
3002;19552823000;19204455555;19704455555
3003;19552838000;19204722222;19704722222
3004;19552846000;19204722222;19704722222
3005;19552847000;19204722222;19704722222
3006;19578830000;19246111111;19746111111
3007;19578833000;19246111111;19746111111
3008;19578834000;19246111111;19746111111
3009;19578835000;19246111111;19746111111
3010;19578836000;19246111111;19746111111
3011;19578837000;19246111111;19746111111
3017;19704771000;19287788888;19787788888
3036;19745938000;19329733333;19829733333
3047;19786891000;19371400000;19871400000
3050;19826682000;19412777777;19912777777
3052;19826685000;19412777777;19912777777
3053;19826687000;19412777777;19912777777
3054;19826687000;19412777777;19912777777
3055;19826688000;19412777777;19912777777
3056;19826689000;19412777777;19912777777
3057;19826887000;19412788888;19912788888
3058;19826903000;19413088888;19913088888
3059;19826904000;19413088888;19913088888
3060;19826905000;19413088888;19913088888
3061;19864836000;19454444444;19954444444
3096;19961601000;19579455555;20079455555
3099;19961604000;19579455555;20079455555
3100;19961605000;19579455555;20079455555
3101;19961804000;19579466666;20079466666
3102;19961820000;19579722222;20079722222
3103;19961821000;19579722222;20079722222
3104;19961822000;19579722222;20079722222
3105;19992961000;19621122222;20121122222
3109;19992965000;19621122222;20121122222
3110;19992966000;19621122222;20121122222
3111;19992967000;19621122222;20121122222
3112;19993144000;19621133333;20121133333
3113;19993149000;19621422222;20121422222
3114;19993150000;19621422222;20121422222
3115;19993151000;19621422222;20121422222
3118;20023602000;19662777777;20162777777
3119;20023605000;19662777777;20162777777
3120;20023606000;19662777777;20162777777
3121;20023607000;19662777777;20162777777
3122;20023608000;19662777777;20162777777
3123;20023729000;19662788888;20162788888
3124;20023745000;19663088888;20163088888
3125;20023746000;19663088888;20163088888
3126;20023747000;19663088888;20163088888
3127;20051193000;19704444444;20204444444
3128;20051196000;19704444444;20204444444
3129;20051197000;19704444444;20204444444
3130;20051198000;19704444444;20204444444
3131;20051199000;19704444444;20204444444
3132;20051200000;19704444444;20204444444
3133;20051201000;19704444444;20204444444
3134;20051400000;19704455555;20204455555
3135;20051415000;19704733333;20204733333
3136;20093159000;19704733333;20204733333
3137;20093360000;19704733333;20204733333
3138;20143525000;19746122222;20246122222
3160;20267835000;19829455555;20329455555
3169;20281801000;19829744444;20329744444
3170;20281815000;19829744444;20329744444
3171;20306689000;19871111111;20371111111
3173;20306692000;19871111111;20371111111
3174;20306693000;19871111111;20371111111
3175;20306694000;19871111111;20371111111
3176;20306695000;19871111111;20371111111
3177;20306696000;19871111111;20371111111
3178;20306895000;19871122222;20371122222
3179;20306910000;19871411111;20371411111
3180;20306911000;19871411111;20371411111
3181;20306912000;19871411111;20371411111
3182;20394757000;19912788888;20412788888
3220;20467757000;20037788888;20537788888
3228;20494376000;20079444444;20579444444
3230;20494379000;20079444444;20579444444
3231;20494380000;20079444444;20579444444
3232;20494381000;20079444444;20579444444
3233;20494581000;20079455555;20579455555
3234;20494597000;20079733333;20579733333
3235;20494598000;20079733333;20579733333
3236;20494599000;20079733333;20579733333
3237;20511160000;20121122222;20621122222
3238;20511164000;20121122222;20621122222
3239;20511164000;20121122222;20621122222
3240;20511165000;20121122222;20621122222
3241;20511166000;20121122222;20621122222
3242;20511167000;20121122222;20621122222
3243;20511168000;20121122222;20621122222
3244;20511339000;20121133333;20621133333
3245;20511343000;20121422222;20621422222
3246;20511344000;20121422222;20621422222
3247;20511345000;20121422222;20621422222
3248;20535235000;20162788888;20662788888
3249;20535238000;20162788888;20662788888
3250;20535239000;20162788888;20662788888
3251;20535240000;20162788888;20662788888
3252;20535240000;20162788888;20662788888
3253;20535242000;20162788888;20662788888
3254;20535243000;20162788888;20662788888
3255;20535385000;20162800000;20662800000
3256;20573731000;20163088888;20663088888
3257;20573947000;20163088888;20663088888
3258;20573948000;20163088888;20663088888
3259;20665674000;20204455555;20704455555
3282;20747860000;20287788888;20787788888
3292;20787011000;20329455555;20829455555
3296;20787014000;20329455555;20829455555
3297;20787015000;20329455555;20829455555
3298;20787016000;20329455555;20829455555
3299;20787217000;20329466666;20829466666
3300;20787233000;20329744444;20829744444
3301;20787234000;20329744444;20829744444
3302;20787235000;20329744444;20829744444
3303;20821790000;20371111111;20871111111
3331;20884743000;20454455555;20954455555
3345;20908809000;20496466666;20996466666
3346;20908812000;20496466666;20996466666
3347;20938480000;20537800000;21037800000
3355;20938596000;20538100000;21038100000
3356;20938599000;20538100000;21038100000
3357;20938600000;20538100000;21038100000
3358;20966379000;20579455555;21079455555
3359;20966382000;20579455555;21079455555
3360;20966383000;20579455555;21079455555
3361;20966384000;20579455555;21079455555
3362;20966385000;20579455555;21079455555
3363;20966386000;20579455555;21079455555
3364;20966387000;20579455555;21079455555
3365;20966559000;20579466666;21079466666
3366;20966565000;20579777777;21079777777
3367;20966567000;20579777777;21079777777
3368;20966567000;20579777777;21079777777
3369;20993012000;20621122222;21121122222
3370;20993016000;20621122222;21121122222
3371;20993017000;20621122222;21121122222
3372;20993018000;20621122222;21121122222
3373;20993019000;20621122222;21121122222
3374;20993020000;20621122222;21121122222
3375;20993021000;20621122222;21121122222
3376;20993159000;20621133333;21121133333
3377;20993162000;20621433333;21121433333
3378;21002820000;20621433333;21121433333
3379;21003187000;20621433333;21121433333
3380;21018921000;20662788888;21162788888
3381;21018924000;20662788888;21162788888
3382;21054483000;20662788888;21162788888
3383;21054488000;20662788888;21162788888
3385;21054507000;20662788888;21162788888
3386;21054522000;20662788888;21162788888
3387;21104959000;20662800000;21162800000
3410;21104974000;20746411111;21246411111
3411;21104976000;20746411111;21246411111
3412;21104977000;20746411111;21246411111
3413;21229320000;20787777777;21287777777
3421;21229433000;20788100000;21288100000
3422;21229436000;20788100000;21288100000
3423;21229437000;20788100000;21288100000
3424;21268727000;20829455555;21329455555
3426;21268731000;20829455555;21329455555
3427;21268732000;20829455555;21329455555
3428;21268732000;20829455555;21329455555
3429;21268733000;20829455555;21329455555
3430;21268734000;20829455555;21329455555
3431;21268933000;20829466666;21329466666
3432;21268948000;20829755555;21329755555
3433;21268950000;20829755555;21329755555
3434;21268951000;20829755555;21329755555
3435;21306765000;20871122222;21371122222
3472;21407558000;20996122222;21496122222
3476;21407670000;20996411111;21496411111
3477;21407673000;20996411111;21496411111
3478;21407674000;20996411111;21496411111
3479;21431369000;21037788888;21537788888
3489;21431480000;21038100000;21538100000
3490;21461795000;21079455555;21579455555
3491;21461799000;21079455555;21579455555
3492;21461800000;21079455555;21579455555
3493;21461801000;21079455555;21579455555
3494;21461802000;21079455555;21579455555
3496;21462375000;21079455555;21579455555
3497;21462589000;21079466666;21579466666
3498;21462605000;21079744444;21579744444
3499;21462606000;21079744444;21579744444
3500;21462607000;21079744444;21579744444
3501;21482380000;21121122222;21621122222
3502;21482383000;21121122222;21621122222
3503;21482384000;21121122222;21621122222
3504;21482385000;21121122222;21621122222
3505;21482386000;21121122222;21621122222
3506;21482387000;21121122222;21621122222
3507;21482388000;21121122222;21621122222
3508;21482587000;21121144444;21621144444
3509;21482602000;21121444444;21621444444
3510;21484107000;21121444444;21621444444
3511;21484326000;21121444444;21621444444
3512;21511282000;21162788888;21662788888
3513;21511285000;21162788888;21662788888
3514;21511286000;21162788888;21662788888
3515;21511287000;21162788888;21662788888
3516;21535157000;21162788888;21662788888
3517;21535184000;21162788888;21662788888
3518;21535272000;21162788888;21662788888
3519;21585756000;21162800000;21662800000
3542;21585772000;21246400000;21746400000
3543;21585773000;21246400000;21746400000
3544;21585774000;21246400000;21746400000
3545;21710126000;21287788888;21787788888
3554;21710238000;21288088888;21788088888
3555;21710241000;21288088888;21788088888
3556;21749068000;21329455555;21829455555
3559;21749071000;21329455555;21829455555
3560;21749072000;21329455555;21829455555
3561;21749073000;21329455555;21829455555
3562;21749074000;21329455555;21829455555
3563;21749274000;21329466666;21829466666
3564;21749289000;21329755555;21829755555
3565;21749290000;21329755555;21829755555
3566;21749291000;21329755555;21829755555
3567;21905352000;21371122222;21871122222
3619;21986955000;21538122222;22038122222
3624;21987075000;21579455555;22079455555
3625;21987079000;21579455555;22079455555
3626;21987080000;21579455555;22079455555
3627;21987081000;21579455555;22079455555
3628;21987082000;21579455555;22079455555
3629;21987202000;21579466666;22079466666
3630;21987217000;21579744444;22079744444
3631;21987218000;21579744444;22079744444
3632;21987219000;21579744444;22079744444
3633;21998817000;21621122222;22121122222
3634;21998821000;21621122222;22121122222
3635;21998822000;21621122222;22121122222
3636;21998823000;21621122222;22121122222
3637;21998824000;21621122222;22121122222
3638;21998824000;21621122222;22121122222
3639;21998825000;21621122222;22121122222
3640;21998944000;21621133333;22121133333
3641;21998959000;21621422222;22121422222
3642;21998961000;21621422222;22121422222
3643;21998962000;21621422222;22121422222
3644;22002412000;21662788888;22162788888
3645;22002416000;21662788888;22162788888
3646;22002417000;21662788888;22162788888
3647;22002418000;21662788888;22162788888
3648;22015627000;21662788888;22162788888
3649;22015630000;21662788888;22162788888
3650;22015649000;21662788888;22162788888
3651;22066116000;21662800000;22162800000
3676;22066131000;21746411111;22246411111
3677;22190307000;21787777777;22287777777
3688;22229672000;21829444444;22329444444
3694;22229675000;21829444444;22329444444
3695;22229875000;21829455555;22329455555
3696;22229890000;21829733333;22329733333
3697;22229891000;21829733333;22329733333
3698;22229892000;21829733333;22329733333
3699;22267784000;21871111111;22371111111
3737;22372593000;21996122222;22496122222
3745;22398837000;22037800000;22537800000
3757;22428620000;22079466666;22579466666
3759;22428624000;22079466666;22579466666
3760;22428625000;22079466666;22579466666
3761;22428831000;22079477777;22579477777
3762;22428847000;22079766666;22579766666
3763;22428848000;22079766666;22579766666
3764;22428849000;22079766666;22579766666
3765;22454592000;22121122222;22621122222
3767;22496118000;22121122222;22621122222
3768;22496120000;22121122222;22621122222
3769;22496121000;22121122222;22621122222
3770;22496123000;22121122222;22621122222
3771;22496135000;22121122222;22621122222
3772;22496369000;22121133333;22621133333
3785;22496377000;22163088888;22663088888
3786;22496388000;22163088888;22663088888
3787;22546478000;22204455555;22704455555
3811;22629784000;22287788888;22787788888
3824;22670387000;22329455555;22829455555
3827;22671160000;22329477777;22829477777
3828;22671176000;22329755555;22829755555
3829;22671177000;22329755555;22829755555
3830;22671178000;22329755555;22829755555
3831;22839544000;22371122222;22871122222
3882;22900590000;22537788888;23037788888
3897;22900605000;22621122222;23121122222
3898;22900606000;22621122222;23121122222
3899;22900607000;22621122222;23121122222
3900;22900608000;22621122222;23121122222
3901;22900609000;22621122222;23121122222
3902;22900610000;22621122222;23121122222
3903;22900611000;22621122222;23121122222
3904;22930386000;22621133333;23121133333
3908;22930402000;22662788888;23162788888
3909;22930403000;22662788888;23162788888
3910;22930404000;22662788888;23162788888
3911;22930405000;22662788888;23162788888
3912;22930406000;22662788888;23162788888
3913;22930407000;22662788888;23162788888
3914;22930408000;22662788888;23162788888
3915;23194413000;22662800000;23162800000
3974;23194436000;22912811111;23412811111
3975;23194438000;22912811111;23412811111
3976;23194438000;22912811111;23412811111
3977;23194439000;22912811111;23412811111
3978;23194440000;22912811111;23412811111
3979;23194441000;22912811111;23412811111
3980;23194442000;22912811111;23412811111
3981;23247593000;22912833333;23412833333
4000;23247608000;22996111111;23496111111
4001;23247609000;22996111111;23496111111
4002;23247610000;22996111111;23496111111
4003;23264545000;22996122222;23496122222
4004;23264560000;22996400000;23496400000
4005;23264562000;22996400000;23496400000
4006;23264563000;22996400000;23496400000
4007;23279482000;23037777777;23537777777
4008;23279485000;23037777777;23537777777
4009;23279486000;23037777777;23537777777
4010;23279487000;23037777777;23537777777
4011;23279488000;23037777777;23537777777
4012;23279489000;23037777777;23537777777
4015;23279599000;23038088888;23538088888
4016;23279602000;23038088888;23538088888
4017;23279603000;23038088888;23538088888
4018;23550940000;23079455555;23579455555
4063;23622258000;23246122222;23746122222
4081;23769426000;23288122222;23788122222
4122;23871122000;23454455555;23954455555
4142;23907325000;23537788888;24037788888
4147;23907437000;23538100000;24038100000
4148;23907441000;23538100000;24038100000
4149;23907442000;23538100000;24038100000
4150;23922331000;23579455555;24079455555
4151;23922335000;23579455555;24079455555
4152;23922336000;23579455555;24079455555
4153;23922337000;23579455555;24079455555
4154;23922337000;23579455555;24079455555
4155;23922339000;23579455555;24079455555
4156;23922339000;23579455555;24079455555
4157;23922538000;23579466666;24079466666
4158;23922553000;23579733333;24079733333
4159;23922554000;23579733333;24079733333
4160;23922555000;23579733333;24079733333
4161;23939141000;23621122222;24121122222
4169;23939253000;23621422222;24121422222
4170;23939256000;23621422222;24121422222
4171;23939257000;23621422222;24121422222
4172;23958615000;23662788888;24162788888
4179;23958816000;23662800000;24162800000
4180;23958831000;23663100000;24163100000
4181;23958832000;23663100000;24163100000
4182;23958833000;23663100000;24163100000
4183;23981339000;23704455555;24204455555
4184;23981343000;23704455555;24204455555
4185;23981344000;23704455555;24204455555
4186;23981345000;23704455555;24204455555
4187;23981346000;23704455555;24204455555
4188;23981347000;23704455555;24204455555
4189;23981348000;23704455555;24204455555
4190;23981485000;23704466666;24204466666
4191;23981488000;23704744444;24204744444
4192;23981489000;23704744444;24204744444
4193;23981490000;23704744444;24204744444
4194;24003764000;23746122222;24246122222
4195;24003768000;23746122222;24246122222
4196;24003769000;23746122222;24246122222
4197;24003770000;23746122222;24246122222
4198;24003771000;23746122222;24246122222
4199;24003772000;23746122222;24246122222
4200;24003773000;23746122222;24246122222
4201;24003972000;23746133333;24246133333
4202;24003978000;23746400000;24246400000
4203;24003979000;23746400000;24246400000
4204;24003980000;23746400000;24246400000
4205;24034895000;23787788888;24287788888
4206;24034898000;23787788888;24287788888
4207;24057698000;23787788888;24287788888
4208;24057701000;23787788888;24287788888
4209;24057702000;23787788888;24287788888
4210;24057703000;23787788888;24287788888
4211;24057712000;23787788888;24287788888
4212;24108223000;23787800000;24287800000
4213;24108238000;23788100000;24288100000
4214;24108240000;23788100000;24288100000
4215;24108241000;23788100000;24288100000
4216;24149692000;23829455555;24329455555
4218;24149872000;23829455555;24329455555
4219;24149875000;23829455555;24329455555
4220;24149887000;23829455555;24329455555
4221;24149888000;23829455555;24329455555
4222;24149889000;23829455555;24329455555
4223;24150097000;23829466666;24329466666
4224;24150112000;23829755555;24329755555
4225;24150113000;23829755555;24329755555
4226;24150114000;23829755555;24329755555
4227;24191265000;23871122222;24371122222
4234;24191466000;23871133333;24371133333
4235;24191482000;23871422222;24371422222
4236;24191483000;23871422222;24371422222
4237;24191491000;23871422222;24371422222
4238;24232573000;23912788888;24412788888
4244;24232577000;23912788888;24412788888
4245;24232776000;23912800000;24412800000
4246;24232782000;23913111111;24413111111
4247;24232783000;23913111111;24413111111
4248;24232784000;23913111111;24413111111
4249;24273231000;23954455555;24454455555
4250;24273233000;23954455555;24454455555
4251;24273234000;23954455555;24454455555
4252;24273235000;23954455555;24454455555
4253;24273236000;23954455555;24454455555
4254;24273237000;23954455555;24454455555
4255;24273238000;23954455555;24454455555
4256;24273380000;23954466666;24454466666
4257;24273382000;23954744444;24454744444
4258;24273383000;23954744444;24454744444
4259;24273384000;23954744444;24454744444
4260;24313555000;23996122222;24496122222
4262;24313557000;23996122222;24496122222
4263;24313558000;23996122222;24496122222
4264;24313559000;23996122222;24496122222
4265;24313560000;23996122222;24496122222
4266;24313561000;23996122222;24496122222
4267;24313702000;23996133333;24496133333
4268;24313705000;23996411111;24496411111
4269;24313706000;23996411111;24496411111
4270;24313706000;23996411111;24496411111
4271;24352845000;24037788888;24537788888
4272;24352848000;24037788888;24537788888
4273;24352849000;24037788888;24537788888
4274;24352850000;24037788888;24537788888
4275;24352850000;24037788888;24537788888
4276;24352851000;24037788888;24537788888
4277;24352852000;24037788888;24537788888
4278;24352994000;24037800000;24537800000
4279;24352996000;24038100000;24538100000
4280;24352997000;24038100000;24538100000
4281;24352998000;24038100000;24538100000
4282;24391302000;24079455555;24579455555
4283;24391306000;24079455555;24579455555
4284;24391307000;24079455555;24579455555
4285;24391308000;24079455555;24579455555
4286;24391309000;24079455555;24579455555
4287;24391310000;24079455555;24579455555
4288;24391311000;24079455555;24579455555
4289;24598878000;24079466666;24579466666
4323;24598893000;24204755555;24704755555
4324;24598894000;24204755555;24704755555
4325;24598895000;24204755555;24704755555
4326;24692724000;24246122222;24746122222
4361;24750185000;24371122222;24871122222
4370;24758829000;24412788888;24912788888
4371;24758833000;24412788888;24912788888
4372;24758834000;24412788888;24912788888
4373;24758835000;24412788888;24912788888
4374;24758835000;24412788888;24912788888
4375;24758836000;24412788888;24912788888
4376;24758837000;24412788888;24912788888
4377;24759037000;24412800000;24912800000
4378;24759059000;24413111111;24913111111
4379;24759061000;24413111111;24913111111
4380;24759061000;24413111111;24913111111
4381;24782770000;24454444444;24954444444
4382;24782774000;24454444444;24954444444
4383;24782775000;24454444444;24954444444
4384;24782776000;24454444444;24954444444
4385;24782777000;24454444444;24954444444
4386;24782778000;24454444444;24954444444
4387;24782779000;24454444444;24954444444
4388;24782949000;24454455555;24954455555
4389;24782953000;24454755555;24954755555
4390;24782954000;24454755555;24954755555
4391;24782955000;24454755555;24954755555
4392;24808336000;24496111111;24996111111
4393;24808338000;24496111111;24996111111
4394;24808339000;24496111111;24996111111
4395;24808340000;24496111111;24996111111
4396;24808341000;24496111111;24996111111
4397;24808342000;24496111111;24996111111
4398;24808343000;24496111111;24996111111
4399;24808490000;24496122222;24996122222
4400;24808493000;24496433333;24996433333
4401;24808494000;24496433333;24996433333
4405;24837022000;24537777777;25037777777
4406;24851564000;24537777777;25037777777
4407;24851765000;24537777777;25037777777
4408;24851953000;24537777777;25037777777
4409;24851955000;24537777777;25037777777
4410;24902661000;24537788888;25037788888
4414;24902677000;24579466666;25079466666
4415;24902678000;24579466666;25079466666
4416;24902679000;24579466666;25079466666
4417;24902680000;24579466666;25079466666
4418;24902681000;24579466666;25079466666
4419;24902682000;24579466666;25079466666
4420;24902683000;24579466666;25079466666
4421;24944323000;24579488888;25079488888
4426;24944342000;24621133333;25121133333
4427;24944343000;24621133333;25121133333
4428;24944361000;24621133333;25121133333
4429;24944362000;24621133333;25121133333
4430;24944363000;24621133333;25121133333
4431;24944364000;24621133333;25121133333
4432;24985738000;24621155555;25121155555
4436;24985754000;24662800000;25162800000
4437;24985755000;24662800000;25162800000
4438;24985756000;24662800000;25162800000
4439;24985757000;24662800000;25162800000
4440;24985758000;24662800000;25162800000
4441;24985759000;24662800000;25162800000
4442;24985760000;24662800000;25162800000
4443;25027059000;24662811111;25162811111
4448;25067744000;24704444444;25204444444
4449;25067759000;24704444444;25204444444
4450;25067759000;24704444444;25204444444
4451;25067760000;24704444444;25204444444
4452;25067761000;24704444444;25204444444
4453;25067762000;24704444444;25204444444
4454;25067962000;24704455555;25204455555
4455;25067978000;24704755555;25204755555
4456;25067979000;24704755555;25204755555
4457;25067980000;24704755555;25204755555
4458;25107591000;24746122222;25246122222
4459;25107595000;24746122222;25246122222
4460;25107596000;24746122222;25246122222
4461;25107597000;24746122222;25246122222
4462;25107597000;24746122222;25246122222
4463;25107598000;24746122222;25246122222
4464;25107599000;24746122222;25246122222
4465;25107799000;24746155555;25246155555
4466;25107814000;24746433333;25246433333
4467;25107815000;24746433333;25246433333
4468;25107816000;24746433333;25246433333
4469;25146647000;24787788888;25287788888
4478;25146760000;24788111111;25288111111
4479;25146763000;24788111111;25288111111
4480;25185113000;24829455555;25329455555
4490;25185225000;24829733333;25329733333
4491;25221646000;24871122222;25371122222
4492;25221650000;24871122222;25371122222
4494;25221781000;24871122222;25371122222
4495;25221784000;24871122222;25371122222
4496;25221785000;24871122222;25371122222
4497;25221786000;24871122222;25371122222
4498;25221993000;24871133333;25371133333
4499;25222009000;24871422222;25371422222
4500;25222010000;24871422222;25371422222
4501;25222012000;24871422222;25371422222
4502;25476900000;24912788888;25412788888
4558;25555104000;25121111111;25621111111
4572;25570655000;25162777777;25662777777
4573;25570658000;25162777777;25662777777
4574;25570659000;25162777777;25662777777
4575;25570858000;25162788888;25662788888
4576;25570874000;25163077777;25663077777
4577;25570875000;25163077777;25663077777
4578;25570876000;25163077777;25663077777
4579;25585533000;25204455555;25704455555
4580;25585536000;25204455555;25704455555
4581;25585537000;25204455555;25704455555
4582;25585538000;25204455555;25704455555
4583;25585539000;25204455555;25704455555
4584;25585540000;25204455555;25704455555
4585;25585541000;25204455555;25704455555
4586;25585739000;25204466666;25704466666
4587;25585755000;25204733333;25704733333
4588;25585756000;25204733333;25704733333
4589;25585757000;25204733333;25704733333
4590;25603183000;25246122222;25746122222
4591;25603185000;25246122222;25746122222
4592;25603186000;25246122222;25746122222
4593;25603187000;25246122222;25746122222
4594;25603188000;25246122222;25746122222
4595;25603189000;25246122222;25746122222
4596;25603190000;25246122222;25746122222
4597;25603332000;25246133333;25746133333
4598;25603334000;25246388888;25746388888
4599;25603336000;25246388888;25746388888
4600;25603336000;25246388888;25746388888
4601;25624402000;25287788888;25787788888
4606;25624405000;25287788888;25787788888
4607;25624406000;25287788888;25787788888
4608;25624622000;25287800000;25787800000
4609;25624629000;25288077777;25788077777
4610;25624630000;25288077777;25788077777
4611;25624631000;25288077777;25788077777
4612;25649590000;25329455555;25829455555
4615;25649593000;25329455555;25829455555
4616;25649594000;25329455555;25829455555
4617;25649595000;25329455555;25829455555
4618;25649596000;25329455555;25829455555
4622;25711801000;25329733333;25829733333
4623;25753028000;25371122222;25871122222
4631;25753147000;25371400000;25871400000
4632;25753151000;25371400000;25871400000
4633;25753152000;25371400000;25871400000
4634;25794026000;25412777777;25912777777
4637;25794030000;25412777777;25912777777
4638;25794030000;25412777777;25912777777
4639;25794038000;25412777777;25912777777
4640;25794039000;25412777777;25912777777
4641;25794246000;25412788888;25912788888
4642;25794261000;25413111111;25913111111
4643;25794262000;25413111111;25913111111
4644;25794263000;25413111111;25913111111
4645;25834200000;25454444444;25954444444
4646;25834204000;25454444444;25954444444
4647;25834205000;25454444444;25954444444
4648;25834206000;25454444444;25954444444
4649;25834207000;25454444444;25954444444
4650;25834208000;25454444444;25954444444
4651;25834209000;25454444444;25954444444
4652;25834352000;25454455555;25954455555
4653;25834355000;25454744444;25954744444
4654;25834356000;25454744444;25954744444
4655;25834357000;25454744444;25954744444
4656;25873317000;25496111111;25996111111
4667;25911547000;25537788888;26037788888
4672;25911550000;25537788888;26037788888
4673;25911551000;25537788888;26037788888
4674;25911750000;25537800000;26037800000
4675;25911765000;25538088888;26038088888
4676;25911767000;25538088888;26038088888
4677;25911768000;25538088888;26038088888
4678;25948367000;25579444444;26079444444
4679;25948370000;25579444444;26079444444
4680;25948371000;25579444444;26079444444
4682;25948552000;25579444444;26079444444
4683;25948563000;25579444444;26079444444
4684;25948564000;25579444444;26079444444
4685;25948704000;25579455555;26079455555
4686;25948707000;25579722222;26079722222
4687;25948708000;25579722222;26079722222
4688;25948709000;25579722222;26079722222
4689;26194464000;25621122222;26121122222
4735;26274022000;25787788888;26287788888
4746;26274108000;25829455555;26329455555
4747;26274110000;25829455555;26329455555
4748;26274111000;25829455555;26329455555
4749;26274112000;25829455555;26329455555
4750;26274113000;25829455555;26329455555
4751;26274210000;25829466666;26329466666
4752;26274213000;25829755555;26329755555
4753;26274214000;25829755555;26329755555
4754;26274215000;25829755555;26329755555
4755;26281255000;25871122222;26371122222
4756;26281257000;25871122222;26371122222
4757;26281258000;25871122222;26371122222
4758;26281259000;25871122222;26371122222
4759;26281260000;25871122222;26371122222
4760;26281260000;25871122222;26371122222
4761;26281261000;25871122222;26371122222
4762;26281404000;25871133333;26371133333
4763;26281407000;25871422222;26371422222
4764;26281408000;25871422222;26371422222
4765;26281409000;25871422222;26371422222
4766;26300384000;25912777777;26412777777
4767;26300386000;25912777777;26412777777
4768;26300387000;25912777777;26412777777
4769;26300388000;25912777777;26412777777
4770;26300389000;25912777777;26412777777
4771;26300390000;25912777777;26412777777
4772;26300391000;25912777777;26412777777
4773;26300532000;25912788888;26412788888
4774;26300534000;25913122222;26413122222
4775;26320686000;25913122222;26413122222
4776;26320888000;25913122222;26413122222
4777;26321895000;25954444444;26454444444
4778;26321899000;25954444444;26454444444
4779;26339968000;25954444444;26454444444
4780;26339979000;25954444444;26454444444
4781;26339987000;25954444444;26454444444
4782;26339991000;25954444444;26454444444
4783;26340154000;25954444444;26454444444
4784;26390746000;25954466666;26454466666
4788;26390761000;25996122222;26496122222
4789;26390763000;25996122222;26496122222
4790;26390764000;25996122222;26496122222
4791;26390765000;25996122222;26496122222
4792;26390766000;25996122222;26496122222
4793;26390767000;25996122222;26496122222
4794;26390768000;25996122222;26496122222
4795;26431912000;25996133333;26496133333
4799;26431927000;26037788888;26537788888
4800;26431929000;26037788888;26537788888
4801;26431930000;26037788888;26537788888
4802;26431931000;26037788888;26537788888
4803;26431932000;26037788888;26537788888
4804;26431933000;26037788888;26537788888
4805;26431934000;26037788888;26537788888
4806;26473874000;26037800000;26537800000
4809;26473890000;26038111111;26538111111
4810;26514875000;26079444444;26579444444
4811;26514879000;26079444444;26579444444
4812;26514880000;26079444444;26579444444
4813;26514881000;26079444444;26579444444
4814;26514882000;26079444444;26579444444
4815;26514883000;26079444444;26579444444
4816;26514884000;26079444444;26579444444
4817;26515076000;26079466666;26579466666
4818;26515081000;26079744444;26579744444
4819;26515082000;26079744444;26579744444
4820;26515083000;26079744444;26579744444
4821;26555000000;26121122222;26621122222
4822;26555003000;26121122222;26621122222
4823;26555005000;26121122222;26621122222
4824;26555006000;26121122222;26621122222
4825;26555006000;26121122222;26621122222
4826;26555007000;26121122222;26621122222
4827;26555008000;26121122222;26621122222
4828;26555152000;26121133333;26621133333
4829;26555155000;26121444444;26621444444
4830;26555156000;26121444444;26621444444
4831;26555157000;26121444444;26621444444
4832;26594750000;26162788888;26662788888
4842;26594866000;26163111111;26663111111
4843;26633874000;26204455555;26704455555
4844;26633877000;26204455555;26704455555
4845;26633878000;26204455555;26704455555
4846;26633879000;26204455555;26704455555
4847;26633880000;26204455555;26704455555
4848;26633881000;26204455555;26704455555
4849;26633882000;26204455555;26704455555
4850;26634095000;26204466666;26704466666
4851;26634110000;26204755555;26704755555
4852;26634112000;26204755555;26704755555
4853;26634113000;26204755555;26704755555
4854;26671770000;26246122222;26746122222
4855;26671773000;26246122222;26746122222
4856;26671774000;26246122222;26746122222
4857;26671775000;26246122222;26746122222
4858;26671776000;26246122222;26746122222
4859;26671777000;26246122222;26746122222
4860;26671778000;26246122222;26746122222
4861;26671956000;26246133333;26746133333
4862;26671961000;26246411111;26746411111
4863;26671962000;26246411111;26746411111
4864;26671963000;26246411111;26746411111
4865;26704809000;26287788888;26787788888
4866;26704813000;26287788888;26787788888
4867;26704814000;26287788888;26787788888
4868;26704815000;26287788888;26787788888
4869;26704816000;26287788888;26787788888
4870;26704817000;26287788888;26787788888
4871;26704817000;26287788888;26787788888
4872;26705017000;26287800000;26787800000
4873;26705032000;26288100000;26788100000
4874;26705033000;26288100000;26788100000
4875;26705034000;26288100000;26788100000
4876;26741318000;26329444444;26829444444
4877;26741322000;26329444444;26829444444
4878;26741323000;26329444444;26829444444
4879;26741324000;26329444444;26829444444
4880;26741325000;26329444444;26829444444
4881;26741325000;26329444444;26829444444
4882;26741326000;26329444444;26829444444
4883;26741526000;26329455555;26829455555
4884;26741541000;26329755555;26829755555
4885;26741542000;26329755555;26829755555
4886;26775333000;26329755555;26829755555
4887;26776994000;26371122222;26871122222
4888;26776998000;26371122222;26871122222
4889;26776999000;26371122222;26871122222
4890;26777000000;26371122222;26871122222
4891;26777001000;26371122222;26871122222
4892;26801723000;26371122222;26871122222
4893;26801914000;26371122222;26871122222
4894;26852578000;26371133333;26871133333
4903;26852594000;26412777777;26912777777
4904;26852595000;26412777777;26912777777
4905;26894173000;26412788888;26912788888
4911;26909164000;26454455555;26954455555
4912;26909175000;26454455555;26954455555
4913;26909176000;26454455555;26954455555
4914;26909177000;26454455555;26954455555
4915;26909178000;26454455555;26954455555
4916;26935642000;26454466666;26954466666
4917;26935657000;26454777777;26954777777
4918;26935658000;26454777777;26954777777
4919;26935659000;26454777777;26954777777
4920;26976713000;26496122222;26996122222
4924;26976717000;26496122222;26996122222
4925;26976718000;26496122222;26996122222
4926;26976719000;26496122222;26996122222
4927;26976917000;26496144444;26996144444
4928;26976933000;26496444444;26996444444
4929;26976934000;26496444444;26996444444
4930;26976935000;26496444444;26996444444
4931;27016487000;26537788888;27037788888
4933;27016596000;26537788888;27037788888
4934;27016599000;26537788888;27037788888
4935;27016600000;26537788888;27037788888
4936;27016601000;26537788888;27037788888
4937;27016602000;26537788888;27037788888
4938;27016795000;26537800000;27037800000
4939;27016799000;26538088888;27038088888
4940;27016801000;26538088888;27038088888
4941;27016801000;26538088888;27038088888
4942;27055908000;26579455555;27079455555
4943;27055918000;26579455555;27079455555
4944;27055919000;26579455555;27079455555
4948;27055920000;26579455555;27079455555
4949;27056100000;26579466666;27079466666
4950;27056104000;26579744444;27079744444
4951;27056105000;26579744444;27079744444
4952;27056106000;26579744444;27079744444
4953;27092706000;26621122222;27121122222
4964;27117115000;26662788888;27162788888
4965;27117119000;26662788888;27162788888
4966;27117120000;26662788888;27162788888
4967;27117121000;26662788888;27162788888
4968;27117122000;26662788888;27162788888
4969;27117123000;26662788888;27162788888
4970;27117123000;26662788888;27162788888
4971;27127106000;26662800000;27162800000
4974;27127122000;26663122222;27163122222
4975;27163448000;26704455555;27204455555
4976;27163451000;26704455555;27204455555
4977;27163452000;26704455555;27204455555
4978;27163453000;26704455555;27204455555
4979;27163454000;26704455555;27204455555
4980;27163455000;26704455555;27204455555
4981;27163456000;26704455555;27204455555
4982;27163655000;26704466666;27204466666
4983;27163670000;26704766666;27204766666
4984;27163672000;26704766666;27204766666
4985;27163673000;26704766666;27204766666
4986;27192669000;26746122222;27246122222
4987;27192673000;26746122222;27246122222
4988;27192674000;26746122222;27246122222
4989;27192675000;26746122222;27246122222
4990;27192676000;26746122222;27246122222
4991;27192677000;26746122222;27246122222
4992;27192677000;26746122222;27246122222
4993;27192815000;26746155555;27246155555
4994;27192818000;26746455555;27246455555
4995;27192819000;26746455555;27246455555
4996;27192820000;26746455555;27246455555
4997;27227574000;26787788888;27287788888
4998;27227576000;26787788888;27287788888
4999;27227577000;26787788888;27287788888
5000;27227578000;26787788888;27287788888
5001;27227579000;26787788888;27287788888
5002;27227580000;26787788888;27287788888
5003;27227581000;26787788888;27287788888
5004;27227682000;26787800000;27287800000
5005;27227685000;26788122222;27288122222
5006;27227686000;26788122222;27288122222
5007;27256848000;26788122222;27288122222
5008;27261802000;26829455555;27329455555
5009;27261805000;26829455555;27329455555
5010;27261806000;26829455555;27329455555
5011;27261807000;26829455555;27329455555
5012;27261808000;26829455555;27329455555
5013;27261809000;26829455555;27329455555
5014;27282707000;26829455555;27329455555
5015;27333260000;26829466666;27329466666
5026;27374595000;26871133333;27371133333
5030;27374601000;26912788888;27412788888
5031;27374602000;26912788888;27412788888
5032;27374603000;26912788888;27412788888
5033;27374604000;26912788888;27412788888
5034;27374605000;26912788888;27412788888
5035;27374606000;26912788888;27412788888
5036;27374607000;26912788888;27412788888
5037;27416219000;26912800000;27412800000
5041;27416234000;26954455555;27454455555
5042;27416235000;26954455555;27454455555
5043;27416236000;26954455555;27454455555
5044;27416237000;26954455555;27454455555
5045;27416238000;26954455555;27454455555
5046;27416239000;26954455555;27454455555
5047;27416240000;26954455555;27454455555
5048;27456921000;26954466666;27454466666
5052;27456936000;26996122222;27496122222
5053;27456937000;26996122222;27496122222
5054;27456938000;26996122222;27496122222
5055;27456940000;26996122222;27496122222
5056;27456940000;26996122222;27496122222
5057;27456941000;26996122222;27496122222
5058;27456942000;26996122222;27496122222
5059;27497125000;26996133333;27496133333
5060;27497141000;26996411111;27496411111
5061;27497142000;26996411111;27496411111
5062;27497143000;26996411111;27496411111
5063;27536329000;27037788888;27537788888
5064;27536340000;27037788888;27537788888
5065;27536341000;27037788888;27537788888
5066;27536342000;27037788888;27537788888
5067;27536343000;27037788888;27537788888
5068;27536344000;27037788888;27537788888
5069;27536345000;27037788888;27537788888
5070;27536517000;27037800000;27537800000
5071;27536519000;27038100000;27538100000
5072;27536520000;27038100000;27538100000
5073;27536522000;27038100000;27538100000
5074;27574530000;27079455555;27579455555
5087;27611556000;27121122222;27621122222
5090;27611560000;27121122222;27621122222
5091;27611569000;27121122222;27621122222
5092;27611769000;27121144444;27621144444
5093;27611784000;27121455555;27621455555
5094;27611785000;27121455555;27621455555
5095;27611786000;27121455555;27621455555
5096;27646028000;27162777777;27662777777
5097;27646032000;27162777777;27662777777
5098;27646033000;27162777777;27662777777
5099;27646034000;27162777777;27662777777
5100;27646035000;27162777777;27662777777
5101;27646036000;27162777777;27662777777
5102;27646036000;27162777777;27662777777
5103;27646215000;27162800000;27662800000
5104;27646219000;27163133333;27663133333
5105;27646221000;27163133333;27663133333
5106;27646222000;27163133333;27663133333
5107;27670715000;27204455555;27704455555
5108;27670718000;27204455555;27704455555
5109;27670719000;27204455555;27704455555
5110;27670720000;27204455555;27704455555
5111;27670721000;27204455555;27704455555
5112;27670722000;27204455555;27704455555
5113;27670723000;27204455555;27704455555
5114;27670922000;27204466666;27704466666
5115;27670928000;27204744444;27704744444
5116;27670929000;27204744444;27704744444
5117;27670930000;27204744444;27704744444
5118;27705174000;27246122222;27746122222
5119;27705178000;27246122222;27746122222
5120;27705179000;27246122222;27746122222
5121;27705180000;27246122222;27746122222
5122;27705180000;27246122222;27746122222
5123;27705181000;27246122222;27746122222
5124;27705182000;27246122222;27746122222
5125;27705375000;27246133333;27746133333
5126;27705381000;27246422222;27746422222
5127;27705382000;27246422222;27746422222
5128;27705383000;27246422222;27746422222
5129;27736505000;27287777777;27787777777
5130;27736516000;27287777777;27787777777
5131;27736517000;27287777777;27787777777
5132;27737792000;27287777777;27787777777
5133;27738200000;27287777777;27787777777
5134;27738365000;27287777777;27787777777
5135;27738582000;27287777777;27787777777
5136;27788872000;27287788888;27787788888
5149;27788877000;27329755555;27829755555
5150;27788878000;27329755555;27829755555
5151;27872332000;27371111111;27871111111
5160;27872440000;27371422222;27871422222
5161;27872443000;27371422222;27871422222
5162;27913323000;27412788888;27912788888
5173;27953750000;27454455555;27954455555
5175;27978302000;27454455555;27954455555
5176;27978313000;27454455555;27954455555
5177;27978314000;27454455555;27954455555
5178;27978315000;27454455555;27954455555
5179;27978316000;27454455555;27954455555
5180;27978571000;27454466666;27954466666
5182;27978586000;27454755555;27954755555
5183;27978587000;27454755555;27954755555
5184;27993482000;27496122222;27996122222
5185;27993485000;27496122222;27996122222
5186;27993486000;27496122222;27996122222
5187;27993487000;27496122222;27996122222
5188;27993488000;27496122222;27996122222
5189;27993489000;27496122222;27996122222
5190;27993490000;27496122222;27996122222
5191;27993689000;27496133333;27996133333
5192;27993704000;27496433333;27996433333
5193;27993705000;27496433333;27996433333
5194;27993706000;27496433333;27996433333
5195;28032452000;27537788888;28037788888
5216;28070653000;27579744444;28079744444
5217;28108981000;27621122222;28121122222
5221;28108984000;27621122222;28121122222
5222;28108985000;27621122222;28121122222
5223;28108986000;27621122222;28121122222
5224;28109232000;27621133333;28121133333
5226;28109248000;27621444444;28121444444
5227;28109250000;27621444444;28121444444
5228;28139352000;27662788888;28162788888
5229;28139355000;27662788888;28162788888
5230;28139356000;27662788888;28162788888
5231;28139357000;27662788888;28162788888
5232;28139358000;27662788888;28162788888
5233;28139359000;27662788888;28162788888
5234;28139360000;27662788888;28162788888
5235;28139560000;27662800000;28162800000
5236;28139575000;27663111111;28163111111
5237;28139576000;27663111111;28163111111
5238;28139577000;27663111111;28163111111
5239;28169619000;27704455555;28204455555
5240;28169621000;27704455555;28204455555
5241;28169622000;27704455555;28204455555
5242;28169623000;27704455555;28204455555
5243;28169624000;27704455555;28204455555
5244;28169625000;27704455555;28204455555
5246;28169828000;27704466666;28204466666
5247;28169830000;27704755555;28204755555
5248;28169838000;27704755555;28204755555
5249;28169839000;27704755555;28204755555
5250;28204435000;27746122222;28246122222
5251;28204437000;27746122222;28246122222
5252;28204439000;27746122222;28246122222
5253;28204439000;27746122222;28246122222
5254;28204440000;27746122222;28246122222
5255;28204450000;27746122222;28246122222
5256;28204451000;27746122222;28246122222
5257;28204585000;27746133333;28246133333
5258;28204588000;27746411111;28246411111
5259;28204589000;27746411111;28246411111
5260;28204589000;27746411111;28246411111
5261;28238727000;27787788888;28287788888
5262;28238730000;27787788888;28287788888
5263;28238731000;27787788888;28287788888
5264;28238732000;27787788888;28287788888
5265;28238733000;27787788888;28287788888
5266;28238734000;27787788888;28287788888
5267;28238735000;27787788888;28287788888
5268;28238934000;27787800000;28287800000
5269;28238949000;27788155555;28288155555
5270;28244992000;27788155555;28288155555
5271;28245245000;27788155555;28288155555
5272;28272689000;27829455555;28329455555
5283;28309344000;27871122222;28371122222
5284;28309347000;27871122222;28371122222
5285;28309348000;27871122222;28371122222
5286;28309349000;27871122222;28371122222
5287;28309350000;27871122222;28371122222
5288;28309351000;27871122222;28371122222
5289;28309352000;27871122222;28371122222
5290;28309551000;27871133333;28371133333
5291;28309567000;27871422222;28371422222
5292;28309568000;27871422222;28371422222
5293;28309569000;27871422222;28371422222
5294;28339837000;27912788888;28412788888
5295;28339840000;27912788888;28412788888
5296;28339841000;27912788888;28412788888
5297;28339842000;27912788888;28412788888
5298;28339843000;27912788888;28412788888
5299;28339844000;27912788888;28412788888
5300;28339845000;27912788888;28412788888
5301;28395321000;27912811111;28412811111
5305;28395325000;27954455555;28454455555
5306;28395326000;27954455555;28454455555
5307;28395328000;27954455555;28454455555
5308;28395328000;27954455555;28454455555
5309;28395329000;27954455555;28454455555
5310;28395330000;27954455555;28454455555
5311;28395331000;27954455555;28454455555
5312;28436677000;27954477777;28454477777
5313;28436682000;27954755555;28454755555
5314;28436683000;27954755555;28454755555
5315;28436684000;27954755555;28454755555
5316;28477136000;27996122222;28496122222
5317;28477140000;27996122222;28496122222
5318;28477141000;27996122222;28496122222
5319;28477142000;27996122222;28496122222
5320;28477143000;27996122222;28496122222
5321;28477144000;27996122222;28496122222
5322;28477145000;27996122222;28496122222
5323;28477316000;27996133333;28496133333
5324;28477319000;27996444444;28496444444
5325;28477320000;27996444444;28496444444
5326;28477321000;27996444444;28496444444
5327;28516011000;28037788888;28537788888
5348;28555159000;28079755555;28579755555
5349;28594247000;28121111111;28621111111
5356;28594466000;28121122222;28621122222
5357;28594481000;28121433333;28621433333
5358;28594482000;28121433333;28621433333
5359;28594483000;28121433333;28621433333
5360;28628687000;28162788888;28662788888
5367;28628860000;28162800000;28662800000
5368;28628864000;28163100000;28663100000
5369;28628865000;28163100000;28663100000
5371;28657741000;28204455555;28704455555
5372;28657743000;28204455555;28704455555
5373;28657744000;28204455555;28704455555
5374;28657745000;28204455555;28704455555
5375;28657746000;28204455555;28704455555
5376;28657747000;28204455555;28704455555
5377;28657748000;28204455555;28704455555
5378;28657843000;28204466666;28704466666
5379;28657845000;28204744444;28704744444
5380;28657846000;28204744444;28704744444
5381;28657847000;28204744444;28704744444
5382;28692800000;28246122222;28746122222
5383;28692803000;28246122222;28746122222
5384;28692804000;28246122222;28746122222
5385;28692805000;28246122222;28746122222
5386;28692806000;28246122222;28746122222
5389;28693006000;28246133333;28746133333
5390;28693021000;28246400000;28746400000
5391;28693022000;28246400000;28746400000
5392;28699473000;28246400000;28746400000
5393;28727437000;28287788888;28787788888
5394;28727440000;28287788888;28787788888
5395;28727441000;28287788888;28787788888
5396;28727449000;28287788888;28787788888
5397;28727450000;28287788888;28787788888
5398;28727451000;28287788888;28787788888
5399;28727452000;28287788888;28787788888
5400;28727652000;28287800000;28787800000
5401;28727667000;28288088888;28788088888
5402;28727669000;28288088888;28788088888
5403;28727670000;28288088888;28788088888
5404;28761475000;28329455555;28829455555
5416;28806912000;28371122222;28871122222
5417;28806914000;28371122222;28871122222
5418;28806915000;28371122222;28871122222
5419;28806916000;28371122222;28871122222
5420;28806917000;28371122222;28871122222
5421;28806918000;28371122222;28871122222
5422;28807008000;28371133333;28871133333
5423;28807010000;28371444444;28871444444
5424;28807011000;28371444444;28871444444
5425;28807013000;28371444444;28871444444
5426;28830725000;28412788888;28912788888
5427;28830728000;28412788888;28912788888
5428;28830729000;28412788888;28912788888
5429;28830730000;28412788888;28912788888
5430;28830731000;28412788888;28912788888
5431;28830732000;28412788888;28912788888
5432;28830733000;28412788888;28912788888
5433;28876261000;28412800000;28912800000
5437;28876276000;28454455555;28954455555
5438;28876278000;28454455555;28954455555
5439;28876278000;28454455555;28954455555
5440;28876280000;28454455555;28954455555
5441;28876280000;28454455555;28954455555
5442;28876281000;28454455555;28954455555
5443;28876282000;28454455555;28954455555
5444;28917684000;28454466666;28954466666
5445;28917699000;28454755555;28954755555
5446;28917700000;28454755555;28954755555
5447;28917701000;28454755555;28954755555
5448;28958197000;28496111111;28996111111
5449;28958200000;28496111111;28996111111
5450;28958201000;28496111111;28996111111
5451;28958202000;28496111111;28996111111
5452;28958203000;28496111111;28996111111
5453;28958204000;28496111111;28996111111
5454;28958205000;28496111111;28996111111
5455;28958377000;28496122222;28996122222
5456;28958381000;28496433333;28996433333
5457;28958382000;28496433333;28996433333
5458;28958383000;28496433333;28996433333
5459;28998009000;28537788888;29037788888
5481;29075880000;28621133333;29121133333
5482;29075883000;28621133333;29121133333
5483;29075884000;28621133333;29121133333
5484;29075885000;28621133333;29121133333
5485;29075886000;28621133333;29121133333
5486;29075887000;28621133333;29121133333
5487;29075888000;28621133333;29121133333
5488;29076121000;28621177777;29121177777
5489;29076136000;28621466666;29121466666
5490;29076138000;28621466666;29121466666
5491;29076139000;28621466666;29121466666
5492;29112646000;28662788888;29162788888
5493;29112650000;28662788888;29162788888
5494;29112651000;28662788888;29162788888
5495;29112652000;28662788888;29162788888
5496;29112653000;28662788888;29162788888
5497;29112654000;28662788888;29162788888
5498;29112655000;28662788888;29162788888
5499;29112867000;28662800000;29162800000
