seqnum;now;rtptime;deadline
2;6915602000;6574244444;6774244444
4;6915606000;6574244444;6774244444
5;6915607000;6574244444;6774244444
6;6915609000;6574244444;6774244444
7;6915610000;6574244444;6774244444
9;6985682000;6574244444;6774244444
10;6986457000;6574244444;6774244444
11;6986463000;6605877777;6805877777
15;6986465000;6605877777;6805877777
16;7106337000;6605877777;6805877777
18;7106505000;6605877777;6805877777
19;7106667000;6605877777;6805877777
21;7106763000;6605877777;6805877777
24;7106899000;6647555555;6847555555
25;7226803000;6647555555;6847555555
26;7226998000;6647555555;6847555555
27;7227000000;6647555555;6847555555
29;7227223000;6647555555;6847555555
31;7227410000;6647555555;6847555555
32;7227433000;6647555555;6847555555
33;7227573000;6689200000;6889200000
35;7227575000;6689200000;6889200000
36;7227834000;6689200000;6889200000
37;7347331000;6689200000;6889200000
38;7347478000;6689200000;6889200000
39;7347698000;6689200000;6889200000
43;7347951000;6689200000;6889200000
44;7348070000;6730855555;6930855555
48;7348300000;6730855555;6930855555
49;7348301000;6730855555;6930855555
50;7357989000;6730855555;6930855555
51;7357992000;6730855555;6930855555
53;7467885000;6730855555;6930855555
54;7468096000;6730855555;6930855555
55;7468276000;6772488888;6972488888
56;7468476000;6772488888;6972488888
57;7468478000;6772488888;6972488888
58;7468709000;6772488888;6972488888
59;7468713000;6772488888;6972488888
60;7468723000;6772488888;6972488888
61;7468730000;6772488888;6972488888
62;7468905000;6772488888;6972488888
65;7469045000;6772488888;6972488888
66;7469210000;6814144444;7014144444
68;7469235000;6814144444;7014144444
69;7469278000;6814144444;7014144444
70;7478972000;6814144444;7014144444
71;7478992000;6814144444;7014144444
72;7588366000;6814144444;7014144444
73;7588528000;6814144444;7014144444
74;7588544000;6814144444;7014144444
75;7588726000;6814144444;7014144444
76;7588954000;6814144444;7014144444
77;7588967000;6855844444;7055844444
79;7589162000;6855844444;7055844444
80;7589339000;6855844444;7055844444
81;7589460000;6855844444;7055844444
82;7589519000;6855844444;7055844444
84;7589553000;6855844444;7055844444
85;7589698000;6855844444;7055844444
87;7589755000;6855844444;7055844444
88;7589922000;6897488888;7097488888
89;7589926000;6897488888;7097488888
90;7589976000;6897488888;7097488888
92;7590159000;6897488888;7097488888
93;7600059000;6897488888;7097488888
94;7600071000;6897488888;7097488888
95;7708983000;6897488888;7097488888
96;7709174000;6897488888;7097488888
97;7709190000;6897488888;7097488888
98;7709396000;6897488888;7097488888
100;7709418000;6939133333;7139133333
101;7709586000;6939133333;7139133333
102;7709806000;6939133333;7139133333
104;7709834000;6939133333;7139133333
105;7710000000;6939133333;7139133333
106;7710002000;6939133333;7139133333
107;7710194000;6939133333;7139133333
113;7710364000;6980766666;7180766666
116;7710367000;6980766666;7180766666
119;7710581000;6980766666;7180766666
127;7711035000;7022477777;7222477777
128;7711177000;7022477777;7222477777
130;7711208000;7022477777;7222477777
131;7721009000;7022477777;7222477777
132;7721200000;7064133333;7264133333
133;7721202000;7064133333;7264133333
134;7721389000;7064133333;7264133333
135;7829412000;7064133333;7264133333
136;7829597000;7064133333;7264133333
139;7829857000;7064133333;7264133333
140;7829860000;7064133333;7264133333
141;7830021000;7064133333;7264133333
142;7830044000;7064133333;7264133333
143;7830275000;7105800000;7305800000
144;7830277000;7105800000;7305800000
145;7830418000;7105800000;7305800000
146;7830423000;7105800000;7305800000
147;7830537000;7105800000;7305800000
148;7830662000;7105800000;7305800000
149;7830665000;7105800000;7305800000
150;7830837000;7105800000;7305800000
151;7831062000;7105800000;7305800000
153;7831145000;7105800000;7305800000
154;7831231000;7147488888;7347488888
155;7831233000;7147488888;7347488888
157;7831241000;7147488888;7347488888
161;7831414000;7147488888;7347488888
164;7831728000;7147488888;7347488888
167;7832014000;7189155555;7389155555
173;7832027000;7189155555;7389155555
175;7832232000;7189155555;7389155555
176;7841982000;7230866666;7430866666
177;7842004000;7230866666;7430866666
178;7842231000;7230866666;7430866666
179;7842242000;7230866666;7430866666
180;7949901000;7230866666;7430866666
181;7950043000;7230866666;7430866666
182;7950244000;7230866666;7430866666
183;7950466000;7230866666;7430866666
184;7950468000;7230866666;7430866666
185;7950666000;7230866666;7430866666
186;7950913000;7230866666;7430866666
187;7951064000;7272466666;7472466666
188;7951067000;7272466666;7472466666
189;7951270000;7272466666;7472466666
192;7951396000;7272466666;7472466666
193;7951652000;7272466666;7472466666
194;7951666000;7272466666;7472466666
195;7951900000;7272466666;7472466666
196;7951901000;7272466666;7472466666
197;7951934000;7272466666;7472466666
198;7952101000;7314122222;7514122222
199;7952163000;7314122222;7514122222
200;7952177000;7314122222;7514122222
201;7952299000;7314122222;7514122222
203;7952363000;7314122222;7514122222
205;7952431000;7314122222;7514122222
208;7952441000;7314122222;7514122222
212;7952841000;7355800000;7555800000
213;7953071000;7355800000;7555800000
221;7953148000;7397500000;7597500000
222;7953966000;7397500000;7597500000
223;7963003000;7397500000;7597500000
224;7963006000;7397500000;7597500000
225;7963247000;7397500000;7597500000
226;7963251000;7397500000;7597500000
227;8070302000;7397500000;7597500000
228;8070477000;7397500000;7597500000
229;8070734000;7397500000;7597500000
230;8070922000;7397500000;7597500000
231;8071101000;7439144444;7639144444
232;8071103000;7439144444;7639144444
233;8071295000;7439144444;7639144444
234;8071496000;7439144444;7639144444
235;8071498000;7439144444;7639144444
236;8071720000;7439144444;7639144444
237;8071723000;7439144444;7639144444
238;8071914000;7439144444;7639144444
239;8072145000;7439144444;7639144444
240;8072149000;7439144444;7639144444
243;8072250000;7480788888;7680788888
244;8072432000;7480788888;7680788888
245;8072492000;7480788888;7680788888
246;8072500000;7480788888;7680788888
247;8072691000;7480788888;7680788888
257;8072910000;7522500000;7722500000
260;8073135000;7522500000;7722500000
263;8073159000;7522500000;7722500000
267;8073410000;7564122222;7764122222
268;8073412000;7564122222;7764122222
269;8073470000;7564122222;7764122222
271;8073711000;7564122222;7764122222
274;8073730000;7564122222;7764122222
277;8073883000;7605777777;7805777777
281;8073885000;7605777777;7805777777
282;8074077000;7605777777;7805777777
285;8074138000;7605777777;7805777777
286;8074345000;7647511111;7847511111
289;8074378000;7647511111;7847511111
290;8076024000;7647511111;7847511111
291;8076227000;7647511111;7847511111
292;8083654000;7647511111;7847511111
295;8083925000;7647511111;7847511111
296;8084264000;7647511111;7847511111
297;8084278000;7689122222;7889122222
298;8084501000;7689122222;7889122222
299;8084503000;7689122222;7889122222
300;8084797000;7689122222;7889122222
301;8084798000;7689122222;7889122222
302;8190692000;7689122222;7889122222
303;8190933000;7689122222;7889122222
304;8191345000;7689122222;7889122222
305;8191570000;7689122222;7889122222
306;8191584000;7689122222;7889122222
307;8191785000;7689122222;7889122222
309;8191809000;7730788888;7930788888
310;8191938000;7730788888;7930788888
311;8192176000;7730788888;7930788888
312;8192178000;7730788888;7930788888
314;8192417000;7730788888;7930788888
315;8192420000;7730788888;7930788888
316;8192571000;7730788888;7930788888
317;8192796000;7730788888;7930788888
318;8192809000;7730788888;7930788888
319;8192986000;7772488888;7972488888
320;8192988000;7772488888;7972488888
321;8193073000;7772488888;7972488888
322;8193083000;7772488888;7972488888
324;8193223000;7772488888;7972488888
326;8193225000;7772488888;7972488888
328;8193411000;7772488888;7972488888
329;8193575000;7772488888;7972488888
331;8193689000;7814133333;8014133333
334;8193861000;7814133333;8014133333
335;8193864000;7814133333;8014133333
338;8193894000;7814133333;8014133333
340;8194224000;7814133333;8014133333
341;8194238000;7855788888;8055788888
342;8194386000;7855788888;8055788888
343;8194605000;7855788888;8055788888
346;8195408000;7855788888;8055788888
349;8195523000;7855788888;8055788888
350;8195543000;7855788888;8055788888
351;8196852000;7855788888;8055788888
352;8196858000;7897466666;8097466666
353;8196859000;7897466666;8097466666
354;8196860000;7897466666;8097466666
355;8196861000;7897466666;8097466666
356;8196862000;7897466666;8097466666
357;8196863000;7897466666;8097466666
358;8196864000;7897466666;8097466666
359;8196865000;7897466666;8097466666
360;8196866000;7897466666;8097466666
361;8196867000;7897466666;8097466666
362;8238698000;7897466666;8097466666
363;8238703000;7939122222;8139122222
364;8238704000;7939122222;8139122222
365;8238705000;7939122222;8139122222
366;8238706000;7939122222;8139122222
368;8280477000;7939122222;8139122222
369;8280482000;7939122222;8139122222
370;8280484000;7939122222;8139122222
371;8280486000;7939122222;8139122222
372;8280488000;7939122222;8139122222
373;8280622000;7939122222;8139122222
374;8280628000;7980755555;8180755555
375;8280630000;7980755555;8180755555
376;8280631000;7980755555;8180755555
377;8280633000;7980755555;8180755555
378;8280635000;7980755555;8180755555
379;8280637000;7980755555;8180755555
380;8311148000;7980755555;8180755555
381;8311466000;7980755555;8180755555
382;8311468000;7980755555;8180755555
383;8311769000;7980755555;8180755555
387;8363788000;8022466666;8222466666
428;8489222000;8147477777;8347477777
457;8489241000;8272522222;8472522222
458;8489243000;8272522222;8472522222
459;8489244000;8272522222;8472522222
460;8489246000;8272522222;8472522222
461;8614173000;8272522222;8472522222
493;8614179000;8397555555;8597555555
494;8739133000;8397555555;8597555555
522;8739149000;8522566666;8722566666
525;8749301000;8522566666;8722566666
526;8749303000;8522566666;8722566666
527;8864167000;8522566666;8722566666
558;8864173000;8647544444;8847544444
559;8864174000;8647544444;8847544444
560;8989121000;8647544444;8847544444
592;8989137000;8772533333;8972533333
593;9114147000;8772533333;8972533333
626;9239170000;8897533333;9097533333
657;9239176000;9022544444;9222544444
658;9239177000;9022544444;9222544444
659;9363916000;9022544444;9222544444
689;9363922000;9147533333;9347533333
690;9363923000;9147533333;9347533333
691;9363924000;9147533333;9347533333
692;9489188000;9147533333;9347533333
725;9614175000;9272522222;9472522222
756;9614181000;9397544444;9597544444
757;9614182000;9397544444;9597544444
758;9739122000;9397544444;9597544444
788;9739137000;9522544444;9722544444
789;9739139000;9522544444;9722544444
790;9739140000;9522544444;9722544444
791;9864118000;9522544444;9722544444
823;9864134000;9647555555;9847555555
824;9989132000;9647555555;9847555555
856;9989148000;9772533333;9972533333
857;10114159000;9772533333;9972533333
886;10114165000;9897544444;10097544444
887;10114166000;9897544444;10097544444
888;10114167000;9897544444;10097544444
889;10114168000;9897544444;10097544444
890;10239182000;9897544444;10097544444
922;10239188000;10022577777;10222577777
923;10364216000;10022577777;10222577777
953;10364221000;10147544444;10347544444
954;10364223000;10147544444;10347544444
955;10364224000;10147544444;10347544444
956;10489197000;10147544444;10347544444
987;10489203000;10272522222;10472522222
990;10656075000;10314244444;10514244444
1028;10780872000;10439233333;10639233333
1063;10905740000;10564211111;10764211111
1095;11030312000;10689211111;10889211111
1125;11155805000;10814222222;11014222222
1159;11280877000;10939222222;11139222222
1192;11405791000;11064211111;11264211111
1225;11530874000;11189233333;11389233333
1259;11655781000;11314211111;11514211111
1284;11738987000;11397544444;11597544444
1313;11864112000;11522533333;11722533333
1346;11989117000;11647544444;11847544444
1377;12114173000;11772533333;11972533333
1412;12239176000;11897533333;12097533333
1443;12363781000;12022566666;12222566666
1475;12489011000;12147533333;12347533333
1508;12614167000;12272522222;12472522222
1541;12739167000;12397544444;12597544444
1576;12864192000;12522544444;12722544444
1607;12989196000;12647566666;12847566666
1642;13114104000;12772533333;12972533333
1676;13239112000;12897544444;13097544444
1709;13363916000;13022533333;13222533333
1742;13489149000;13147544444;13347544444
1776;13614160000;13272533333;13472533333
1810;13739134000;13397555555;13597555555
1839;13864117000;13522555555;13722555555
1876;13988705000;13647533333;13847533333
1907;14113912000;13772522222;13972522222
1937;14239167000;13897522222;14097522222
1973;14364136000;14022511111;14222511111
1999;14447269000;14105833333;14305833333
2028;14572487000;14230844444;14430844444
2055;14655364000;14314211111;14514211111
2078;14739006000;14397533333;14597533333
2098;14739021000;14480822222;14680822222
2099;14739022000;14480822222;14680822222
2100;14822242000;14480822222;14680822222
2124;14822248000;14605866666;14805866666
2125;14822249000;14605866666;14805866666
2126;14822250000;14605866666;14805866666
2127;14822250000;14605866666;14805866666
2128;14822251000;14605866666;14805866666
2129;14822252000;14605866666;14805866666
2130;14822253000;14605866666;14805866666
2135;14989345000;14647544444;14847544444
2175;15114160000;14772555555;14972555555
2207;15239168000;14897544444;15097544444
2239;15364180000;15022533333;15222533333
2273;15489178000;15147555555;15347555555
2299;15614176000;15272533333;15472533333
2338;15739204000;15397566666;15597566666
2365;15864181000;15522555555;15722555555
2401;15989173000;15647544444;15847544444
2432;16114161000;15772533333;15972533333
2468;16239155000;15897533333;16097533333
2499;16364180000;16022533333;16222533333
2532;16489188000;16147544444;16347544444
2564;16614176000;16272533333;16472533333
2597;16739174000;16397555555;16597555555
2627;16822280000;16480844444;16680844444
2649;16905637000;16564200000;16764200000
2672;16989031000;16647522222;16847522222
2690;16989047000;16730833333;16930833333
2691;16989048000;16730833333;16930833333
2692;16989049000;16730833333;16930833333
2693;16989050000;16730833333;16930833333
2694;17072251000;16730833333;16930833333
2722;17072257000;16855855555;17055855555
2723;17072258000;16855855555;17055855555
2724;17072259000;16855855555;17055855555
2725;17072260000;16855855555;17055855555
2726;17072261000;16855855555;17055855555
2727;17197483000;16855855555;17055855555
2754;17197489000;16980811111;17180811111
2755;17197490000;16980811111;17180811111
2756;17197491000;16980811111;17180811111
2757;17197492000;16980811111;17180811111
2758;17197493000;16980811111;17180811111
2759;17197494000;16980811111;17180811111
2760;17322438000;16980811111;17180811111
2794;17322444000;17147533333;17347533333
2795;17322445000;17147533333;17347533333
2796;17322446000;17147533333;17347533333
2797;17322447000;17147533333;17347533333
2798;17322448000;17147533333;17347533333
2799;17322449000;17147533333;17347533333
2800;17322450000;17147533333;17347533333
2801;17322451000;17147533333;17347533333
2802;17322451000;17147533333;17347533333
2803;17322452000;17147533333;17347533333
2804;17489370000;17147533333;17347533333
2829;17489376000;17272511111;17472511111
2834;17499439000;17272511111;17472511111
2836;17499441000;17272511111;17472511111
2837;17614100000;17272511111;17472511111
2870;17739175000;17397533333;17597533333
2897;17739181000;17522533333;17722533333
2898;17739182000;17522533333;17722533333
2899;17739183000;17522533333;17722533333
2904;17905973000;17564188888;17764188888
2937;18030830000;17689188888;17889188888
2976;18155824000;17814200000;18014200000
3006;18280831000;17939188888;18139188888
3039;18405854000;18064211111;18264211111
3069;18530845000;18189200000;18389200000
3107;18655811000;18314188888;18514188888
3136;18780854000;18439211111;18639211111
3170;18905842000;18564222222;18764222222
3200;18989037000;18647533333;18847533333
3229;18999442000;18772544444;18972544444
3230;18999444000;18772544444;18972544444
3231;18999445000;18772544444;18972544444
3232;18999446000;18772544444;18972544444
3233;19114111000;18772544444;18972544444
3264;19114117000;18897522222;19097522222
3265;19114119000;18897522222;19097522222
3266;19239163000;18897522222;19097522222
3291;19239168000;19022522222;19222522222
3292;19239169000;19022522222;19222522222
3293;19239170000;19022522222;19222522222
3294;19239172000;19022522222;19222522222
3295;19239172000;19022522222;19222522222
3296;19239173000;19022522222;19222522222
3297;19239182000;19022522222;19222522222
3298;19239183000;19022522222;19222522222
3299;19364149000;19022522222;19222522222
3330;19364155000;19147533333;19347533333
3331;19364156000;19147533333;19347533333
3332;19489159000;19147533333;19347533333
3362;19499253000;19272522222;19472522222
3363;19499265000;19272522222;19472522222
3364;19499266000;19272522222;19472522222
3365;19614090000;19272522222;19472522222
3395;19614096000;19397533333;19597533333
3396;19614097000;19397533333;19597533333
3397;19614098000;19397533333;19597533333
3398;19739175000;19397533333;19597533333
3427;19739181000;19522533333;19722533333
3428;19739182000;19522533333;19722533333
3433;19905989000;19564211111;19764211111
3472;20030834000;19689200000;19889200000
3507;20155836000;19814211111;20014211111
3533;20280833000;19939211111;20139211111
3569;20405866000;20064222222;20264222222
3601;20530869000;20189222222;20389222222
3630;20655832000;20314211111;20514211111
3664;20780877000;20439233333;20639233333
3697;20905820000;20564200000;20764200000
3725;20988977000;20647522222;20847522222
3750;21072351000;20730822222;20930822222
3772;21155655000;20814200000;21014200000
3796;21155660000;20939211111;21139211111
3797;21155661000;20939211111;21139211111
3798;21155662000;20939211111;21139211111
3799;21155663000;20939211111;21139211111
3800;21155664000;20939211111;21139211111
3801;21155665000;20939211111;21139211111
3802;21155666000;20939211111;21139211111
3803;21155667000;20939211111;21139211111
3804;21155668000;20939211111;21139211111
3805;21280838000;20939211111;21139211111
3837;21290920000;21064200000;21264200000
3838;21405802000;21064200000;21264200000
3869;21405808000;21189211111;21389211111
3870;21405809000;21189211111;21389211111
3871;21530854000;21189211111;21389211111
3903;21530860000;21314211111;21514211111
3904;21655834000;21314211111;21514211111
3937;21780865000;21439222222;21639222222
3968;21780870000;21564200000;21764200000
3969;21780872000;21564200000;21764200000
3970;21905839000;21564200000;21764200000
4001;21905845000;21689211111;21889211111
4002;21905846000;21689211111;21889211111
4003;22030840000;21689211111;21889211111
4036;22155845000;21814200000;22014200000
4066;22165919000;21939211111;22139211111
4067;22165921000;21939211111;22139211111
4068;22165922000;21939211111;22139211111
4074;22322615000;21980811111;22180811111
4110;22447481000;22105833333;22305833333
4145;22572479000;22230844444;22430844444
4177;22697481000;22355844444;22555844444
4207;22822477000;22480833333;22680833333
4241;22947505000;22605844444;22805844444
4272;23072482000;22730833333;22930833333
4305;23197526000;22855866666;23055866666
4333;23280722000;22939211111;23139211111
4358;23280738000;23064222222;23264222222
4359;23280739000;23064222222;23264222222
4360;23280740000;23064222222;23264222222
4366;23405795000;23064222222;23264222222
4390;23405801000;23189222222;23389222222
4391;23405802000;23189222222;23389222222
4392;23405803000;23189222222;23389222222
4393;23405804000;23189222222;23389222222
4394;23405805000;23189222222;23389222222
4395;23405806000;23189222222;23389222222
4396;23405807000;23189222222;23389222222
4397;23405808000;23189222222;23389222222
4398;23405808000;23189222222;23389222222
4399;23530850000;23189222222;23389222222
4431;23530855000;23314211111;23514211111
4432;23655855000;23314211111;23514211111
4460;23655861000;23439255555;23639255555
4461;23655862000;23439255555;23639255555
4462;23655863000;23439255555;23639255555
4463;23655864000;23439255555;23639255555
4464;23655865000;23439255555;23639255555
4465;23780875000;23439255555;23639255555
4495;23780881000;23564211111;23764211111
4496;23780882000;23564211111;23764211111
4497;23780883000;23564211111;23764211111
4498;23905851000;23564211111;23764211111
4529;23905856000;23689188888;23889188888
4533;24072618000;23730822222;23930822222
4572;24197499000;23855866666;24055866666
4602;24322422000;23980800000;24180800000
4638;24447454000;24105822222;24305822222
4666;24572479000;24230844444;24430844444
4703;24697409000;24355833333;24555833333
4733;24822481000;24480844444;24680844444
4767;24947488000;24605855555;2480