seqnum;now;rtptime;deadline
1;7766737000;7592988888;8092988888
2;7766759000;7592988888;8092988888
3;7806546000;7624411111;8124411111
8;7806566000;7624411111;8124411111
9;7806569000;7624411111;8124411111
10;7806799000;7624433333;8124433333
11;7806847000;7624755555;8124755555
12;7806856000;7624755555;8124755555
13;7806858000;7624755555;8124755555
14;7848698000;7666066666;8166066666
20;7848753000;7666066666;8166066666
21;7848908000;7666088888;8166088888
22;7848932000;7666477777;8166477777
23;7848949000;7666477777;8166477777
24;7848951000;7666477777;8166477777
25;7889639000;7707733333;8207733333
33;7889778000;7708077777;8208077777
34;7889800000;7708077777;8208077777
35;7889812000;7708077777;8208077777
36;7931250000;7749400000;8249400000
44;7931426000;7749744444;8249744444
45;7931470000;7749744444;8249744444
46;7931472000;7749744444;8249744444
47;7971581000;7791066666;8291066666
55;7971744000;7791400000;8291400000
56;7971776000;7791400000;8291400000
57;7971778000;7791400000;8291400000
58;8011812000;7832733333;8332733333
66;8011978000;7833044444;8333044444
67;8012003000;7833044444;8333044444
68;8012005000;7833044444;8333044444
69;8051291000;7874400000;8374400000
77;8051436000;7874744444;8374744444
78;8051460000;7874744444;8374744444
79;8051462000;7874744444;8374744444
80;8090002000;7916066666;8416066666
88;8090150000;7916400000;8416400000
89;8090153000;7916400000;8416400000
90;8090176000;7916400000;8416400000
91;8128854000;7957733333;8457733333
99;8129033000;7958066666;8458066666
100;8129071000;7958066666;8458066666
101;8129079000;7958066666;8458066666
102;8166838000;7999400000;8499400000
109;8167092000;7999422222;8499422222
110;8167108000;7999688888;8499688888
111;8167132000;7999688888;8499688888
112;8167134000;7999688888;8499688888
113;8205413000;8041066666;8541066666
121;8205566000;8041388888;8541388888
122;8205569000;8041388888;8541388888
123;8205571000;8041388888;8541388888
124;8243586000;8082755555;8582755555
125;8243621000;8082755555;8582755555
126;8243623000;8082755555;8582755555
127;8243624000;8082755555;8582755555
128;8243625000;8082755555;8582755555
129;8243627000;8082755555;8582755555
130;8243628000;8082755555;8582755555
131;8243840000;8082777777;8582777777
132;8243877000;8083100000;8583100000
133;8243884000;8083100000;8583100000
134;8243885000;8083100000;8583100000
135;8281329000;8124400000;8624400000
143;8281479000;8124688888;8624688888
144;8281482000;8124688888;8624688888
145;8281484000;8124688888;8624688888
146;8320941000;8166066666;8666066666
154;8321077000;8166400000;8666400000
155;8321101000;8166400000;8666400000
156;8321112000;8166400000;8666400000
157;8360947000;8207733333;8707733333
164;8361195000;8207755555;8707755555
165;8361211000;8208055555;8708055555
166;8361234000;8208055555;8708055555
167;8361236000;8208055555;8708055555
168;8401464000;8249400000;8749400000
176;8401609000;8249733333;8749733333
177;8401612000;8249733333;8749733333
178;8401634000;8249733333;8749733333
179;8442482000;8291066666;8791066666
188;8442630000;8291377777;8791377777
189;8442654000;8291377777;8791377777
190;8483907000;8332733333;8832733333
198;8484061000;8333022222;8833022222
199;8484085000;8333022222;8833022222
200;8484087000;8333022222;8833022222
201;8525375000;8374400000;8874400000
209;8525546000;8374688888;8874688888
210;8525571000;8374688888;8874688888
211;8525573000;8374688888;8874688888
212;8566864000;8416066666;8916066666
216;8566891000;8416066666;8916066666
217;8566893000;8416066666;8916066666
218;8566895000;8416066666;8916066666
219;8567118000;8416088888;8916088888
220;8567140000;8416411111;8916411111
221;8567142000;8416411111;8916411111
222;8567143000;8416411111;8916411111
223;8608465000;8457733333;8957733333
230;8608704000;8457755555;8957755555
231;8608720000;8458044444;8958044444
232;8608743000;8458044444;8958044444
233;8608744000;8458044444;8958044444
234;8650143000;8499411111;8999411111
242;8650288000;8499744444;8999744444
243;8650313000;8499744444;8999744444
246;8691647000;8541077777;9041077777
251;8691671000;8541077777;9041077777
252;8691909000;8541100000;9041100000
253;8691912000;8541433333;9041433333
254;8691931000;8541433333;9041433333
255;8691955000;8541433333;9041433333
256;8733432000;8582722222;9082722222
264;8733581000;8583022222;9083022222
265;8733606000;8583022222;9083022222
266;8733607000;8583022222;9083022222
267;8775058000;8624400000;9124400000
275;8775166000;8624677777;9124677777
276;8775174000;8624677777;9124677777
277;8775186000;8624677777;9124677777
278;8816777000;8666066666;9166066666
286;8816927000;8666400000;9166400000
287;8816931000;8666400000;9166400000
288;8816957000;8666400000;9166400000
289;8858460000;8707733333;9207733333
297;8858604000;8708011111;9208011111
298;8858629000;8708011111;9208011111
299;8858630000;8708011111;9208011111
300;8900133000;8749400000;9249400000
308;8900289000;8749700000;9249700000
309;8900314000;8749700000;9249700000
310;8900316000;8749700000;9249700000
311;8941637000;8791066666;9291066666
319;8941925000;8791388888;9291388888
320;8941949000;8791388888;9291388888
321;8941950000;8791388888;9291388888
322;8983305000;8832733333;9332733333
330;8983558000;8833022222;9333022222
331;8983583000;8833022222;9333022222
332;8983585000;8833022222;9333022222
333;9025129000;8874400000;9374400000
341;9025259000;8874688888;9374688888
342;9025278000;8874688888;9374688888
343;9025280000;8874688888;9374688888
344;9066757000;8916066666;9416066666
352;9066859000;8916400000;9416400000
353;9066867000;8916400000;9416400000
354;9066878000;8916400000;9416400000
355;9108443000;8957733333;9457733333
363;9108593000;8958022222;9458022222
364;9108613000;8958022222;9458022222
365;9108614000;8958022222;9458022222
366;9150096000;8999400000;9499400000
374;9150246000;8999677777;9499677777
375;9150266000;8999677777;9499677777
376;9150267000;8999677777;9499677777
377;9191748000;9041066666;9541066666
385;9191897000;9041377777;9541377777
386;9191915000;9041377777;9541377777
387;9191916000;9041377777;9541377777
388;9233287000;9082733333;9582733333
396;9233540000;9083033333;9583033333
397;9233559000;9083033333;9583033333
398;9233571000;9083033333;9583033333
399;9275105000;9124388888;9624388888
406;9275344000;9124411111;9624411111
407;9275366000;9124677777;9624677777
408;9275368000;9124677777;9624677777
409;9275369000;9124677777;9624677777
410;9316766000;9166033333;9666033333
414;9316811000;9166033333;9666033333
415;9316813000;9166033333;9666033333
416;9316815000;9166033333;9666033333
417;9317084000;9166055555;9666055555
418;9317096000;9166377777;9666377777
419;9317116000;9166377777;9666377777
420;9317118000;9166377777;9666377777
421;9358361000;9207700000;9707700000
427;9358413000;9207700000;9707700000
428;9363824000;9207722222;9707722222
429;9363892000;9208022222;9708022222
430;9363904000;9208022222;9708022222
431;9363908000;9208022222;9708022222
432;9399929000;9249366666;9749366666
439;9400221000;9249400000;9749400000
440;9400259000;9249700000;9749700000
441;9400265000;9249700000;9749700000
442;9400267000;9249700000;9749700000
443;9441722000;9291044444;9791044444
451;9441882000;9291366666;9791366666
452;9441887000;9291366666;9791366666
453;9441912000;9291366666;9791366666
454;9483426000;9332700000;9832700000
455;9483465000;9332700000;9832700000
456;9483468000;9332700000;9832700000
457;9483469000;9332700000;9832700000
458;9483471000;9332700000;9832700000
459;9483473000;9332700000;9832700000
460;9483475000;9332700000;9832700000
461;9483711000;9332722222;9832722222
462;9483749000;9332977777;9832977777
463;9483763000;9332977777;9832977777
464;9483765000;9332977777;9832977777
465;9525087000;9374366666;9874366666
473;9525228000;9374633333;9874633333
474;9525252000;9374633333;9874633333
475;9525254000;9374633333;9874633333
476;9566679000;9416033333;9916033333
484;9566808000;9416366666;9916366666
485;9566827000;9416366666;9916366666
486;9566829000;9416366666;9916366666
487;9608335000;9457700000;9957700000
495;9608455000;9458000000;9958000000
496;9608458000;9458000000;9958000000
497;9608480000;9458000000;9958000000
498;9649863000;9499366666;9999366666
506;9650143000;9499666666;9999666666
507;9650168000;9499666666;9999666666
508;9650169000;9499666666;9999666666
509;9691696000;9541033333;10041033333
517;9691797000;9541355555;10041355555
518;9691839000;9541355555;10041355555
519;9691841000;9541355555;10041355555
520;9733405000;9582700000;10082700000
528;9733546000;9582988888;10082988888
529;9733571000;9582988888;10082988888
530;9733572000;9582988888;10082988888
531;9775015000;9624366666;10124366666
539;9775166000;9624633333;10124633333
540;9775190000;9624633333;10124633333
541;9775192000;9624633333;10124633333
542;9816683000;9666033333;10166033333
550;9816827000;9666366666;10166366666
551;9816850000;9666366666;10166366666
552;9816852000;9666366666;10166366666
553;9858219000;9707711111;10207711111
560;9858418000;9707733333;10207733333
561;9858422000;9708011111;10208011111
562;9858440000;9708011111;10208011111
563;9858451000;9708011111;10208011111
564;9899889000;9749400000;10249400000
572;9900175000;9749711111;10249711111
573;9900194000;9749711111;10249711111
574;9900195000;9749711111;10249711111
575;9941732000;9791066666;10291066666
583;9941850000;9791400000;10291400000
584;9941874000;9791400000;10291400000
585;9941876000;9791400000;10291400000
586;9983227000;9832733333;10332733333
594;9983514000;9833044444;10333044444
595;9983538000;9833044444;10333044444
596;9983539000;9833044444;10333044444
597;10025059000;9874400000;10374400000
605;10025202000;9874700000;10374700000
606;10025226000;9874700000;10374700000
607;10025228000;9874700000;10374700000
608;10066712000;9916066666;10416066666
616;10066836000;9916400000;10416400000
617;10066846000;9916400000;10416400000
618;10066856000;9916400000;10416400000
619;10108396000;9957733333;10457733333
627;10108507000;9958044444;10458044444
629;10108519000;9958044444;10458044444
630;10150052000;9999400000;10499400000
638;10150183000;9999700000;10499700000
639;10150201000;9999700000;10499700000
640;10150203000;9999700000;10499700000
641;10191729000;10041066666;10541066666
649;10191803000;10041388888;10541388888
650;10191821000;10041388888;10541388888
651;10191823000;10041388888;10541388888
652;10233401000;10082733333;10582733333
660;10233519000;10083044444;10583044444
661;10233523000;10083044444;10583044444
662;10233545000;10083044444;10583044444
663;10275059000;10124400000;10624400000
671;10275178000;10124688888;10624688888
672;10275202000;10124688888;10624688888
673;10275204000;10124688888;10624688888
674;10316713000;10166066666;10666066666
682;10316843000;10166411111;10666411111
683;10316861000;10166411111;10666411111
684;10316863000;10166411111;10666411111
685;10358397000;10207733333;10707733333
693;10358496000;10208044444;10708044444
694;10358514000;10208044444;10708044444
695;10358516000;10208044444;10708044444
696;10400066000;10249411111;10749411111
704;10400174000;10249755555;10749755555
705;10400186000;10249755555;10749755555
706;10400194000;10249755555;10749755555
707;10441718000;10291055555;10791055555
715;10441817000;10291388888;10791388888
716;10441835000;10291388888;10791388888
717;10441837000;10291388888;10791388888
718;10483422000;10332700000;10832700000
726;10483568000;10333011111;10833011111
727;10483597000;10333011111;10833011111
728;10483599000;10333011111;10833011111
729;10526557000;10374366666;10874366666
737;10526747000;10374666666;10874666666
738;10526771000;10374666666;10874666666
739;10526774000;10374666666;10874666666
740;10566690000;10416033333;10916033333
747;10566897000;10416055555;10916055555
748;10566901000;10416388888;10916388888
749;10566919000;10416388888;10916388888
750;10566921000;10416388888;10916388888
751;10608366000;10457700000;10957700000
759;10608484000;10458022222;10958022222
760;10608509000;10458022222;10958022222
761;10608510000;10458022222;10958022222
762;10650036000;10499388888;10999388888
770;10650187000;10499722222;10999722222
771;10650211000;10499722222;10999722222
772;10650213000;10499722222;10999722222
773;10691696000;10541033333;11041033333
781;10691794000;10541388888;11041388888
782;10691812000;10541388888;11041388888
783;10691813000;10541388888;11041388888
784;10733351000;10582700000;11082700000
792;10733470000;10583033333;11083033333
793;10733494000;10583033333;11083033333
794;10733495000;10583033333;11083033333
797;10774893000;10624400000;11124400000
803;10775169000;10624700000;11124700000
804;10775202000;10624700000;11124700000
805;10775204000;10624700000;11124700000
806;10816735000;10666066666;11166066666
814;10816854000;10666422222;11166422222
815;10816879000;10666422222;11166422222
816;10816880000;10666422222;11166422222
817;10858385000;10707733333;11207733333
825;10858504000;10708044444;11208044444
826;10858528000;10708044444;11208044444
827;10858529000;10708044444;11208044444
828;10900057000;10749400000;11249400000
836;10900175000;10749722222;11249722222
837;10900199000;10749722222;11249722222
838;10900200000;10749722222;11249722222
839;10941779000;10791066666;11291066666
847;10941924000;10791411111;11291411111
848;10941948000;10791411111;11291411111
849;10941950000;10791411111;11291411111
850;10983380000;10832733333;11332733333
858;10983517000;10833055555;11333055555
859;10983541000;10833055555;11333055555
860;10983542000;10833055555;11333055555
861;11024911000;10874400000;11374400000
869;11025215000;10874733333;11374733333
870;11025219000;10874733333;11374733333
871;11025220000;10874733333;11374733333
872;11066738000;10916066666;11416066666
877;11066765000;10916066666;11416066666
878;11066767000;10916066666;11416066666
879;11066998000;10916088888;11416088888
880;11067036000;10916422222;11416422222
881;11067042000;10916422222;11416422222
882;11067057000;10916422222;11416422222
883;11108384000;10957733333;11457733333
891;11108501000;10958044444;11458044444
892;11108504000;10958044444;11458044444
893;11108526000;10958044444;11458044444
894;11150056000;10999400000;11499400000
902;11150195000;10999711111;11499711111
903;11150219000;10999711111;11499711111
904;11150221000;10999711111;11499711111
905;11191715000;11041066666;11541066666
913;11191857000;11041400000;11541400000
914;11191881000;11041400000;11541400000
915;11191882000;11041400000;11541400000
916;11233376000;11082733333;11582733333
924;11233502000;11083055555;11583055555
925;11233511000;11083055555;11583055555
926;11233523000;11083055555;11583055555
927;11274908000;11124400000;11624400000
935;11275151000;11124688888;11624688888
936;11275169000;11124688888;11624688888
937;11275181000;11124688888;11624688888
938;11316668000;11166066666;11666066666
946;11316928000;11166411111;11666411111
947;11316955000;11166411111;11666411111
948;11316956000;11166411111;11666411111
949;11358386000;11207733333;11707733333
957;11358505000;11208066666;11708066666
958;11358529000;11208066666;11708066666
959;11358530000;11208066666;11708066666
960;11400069000;11249400000;11749400000
968;11400189000;11249744444;11749744444
969;11400213000;11249744444;11749744444
970;11400215000;11249744444;11749744444
971;11441718000;11291066666;11791066666
979;11441834000;11291400000;11791400000
980;11441858000;11291400000;11791400000
981;11441860000;11291400000;11791400000
982;11483249000;11332733333;11832733333
990;11483524000;11333044444;11833044444
991;11483528000;11333044444;11833044444
992;11483529000;11333044444;11833044444
993;11525062000;11374400000;11874400000
995;11525101000;11374400000;11874400000
996;11525103000;11374400000;11874400000
997;11525104000;11374400000;11874400000
998;11525105000;11374400000;11874400000
999;11525107000;11374400000;11874400000
1000;11525355000;11374422222;11874422222
1003;11525393000;11374700000;11874700000
1004;11566721000;11416066666;11916066666
1012;11566841000;11416422222;11916422222
1013;11566865000;11416422222;11916422222
1014;11566867000;11416422222;11916422222
1015;11608388000;11457733333;11957733333
1023;11608507000;11458055555;11958055555
1024;11608531000;11458055555;11958055555
1025;11608532000;11458055555;11958055555
1026;11650081000;11499400000;11999400000
1032;11650105000;11499400000;11999400000
1033;11650315000;11499422222;11999422222
1034;11650331000;11499722222;11999722222
1035;11650355000;11499722222;11999722222
1036;11650356000;11499722222;11999722222
1037;11691739000;11541066666;12041066666
1045;11691858000;11541422222;12041422222
1046;11691882000;11541422222;12041422222
1047;11691884000;11541422222;12041422222
1048;11734030000;11582733333;12082733333
1056;11734220000;11583033333;12083033333
1057;11734251000;11583033333;12083033333
1058;11734273000;11583033333;12083033333
1059;11775069000;11624400000;12124400000
1060;11775097000;11624400000;12124400000
1061;11775099000;11624400000;12124400000
1062;11775101000;11624400000;12124400000
1063;11775102000;11624400000;12124400000
1064;11775104000;11624400000;12124400000
1065;11775106000;11624400000;12124400000
1066;11775312000;11624422222;12124422222
1067;11775341000;11624677777;12124677777
1068;11775347000;11624677777;12124677777
1069;11775349000;11624677777;12124677777
1070;11816742000;11666066666;12166066666
1078;11816861000;11666400000;12166400000
1079;11816865000;11666400000;12166400000
1080;11816877000;11666400000;12166400000
1081;11858448000;11707755555;12207755555
1089;11858565000;11708044444;12208044444
1090;11858589000;11708044444;12208044444
1091;11858591000;11708044444;12208044444
1092;11900073000;11749400000;12249400000
1100;11900193000;11749711111;12249711111
1101;11900217000;11749711111;12249711111
1102;11900218000;11749711111;12249711111
1103;11941745000;11791066666;12291066666
1111;11941863000;11791388888;12291388888
1112;11941888000;11791388888;12291388888
1113;11941889000;11791388888;12291388888
1114;11983413000;11832733333;12332733333
1122;11983532000;11833044444;12333044444
1123;11983557000;11833044444;12333044444
1124;11983558000;11833044444;12333044444
1125;12025071000;11874400000;12374400000
1133;12025189000;11874688888;12374688888
1134;12025212000;11874688888;12374688888
1135;12025214000;11874688888;12374688888
1136;12066731000;11916066666;12416066666
1144;12066850000;11916400000;12416400000
1145;12066874000;11916400000;12416400000
1146;12066876000;11916400000;12416400000
1147;12108437000;11957744444;12457744444
1155;12108553000;11958055555;12458055555
1156;12108577000;11958055555;12458055555
1157;12108578000;11958055555;12458055555
1158;12150155000;11999400000;12499400000
1166;12150307000;11999688888;12499688888
1167;12150311000;11999688888;12499688888
1168;12150335000;11999688888;12499688888
1169;12191750000;12041066666;12541066666
1177;12191870000;12041377777;12541377777
1178;12191894000;12041377777;12541377777
1179;12191896000;12041377777;12541377777
1180;12233417000;12082733333;12582733333
1188;12233536000;12083044444;12583044444
1189;12233561000;12083044444;12583044444
1190;12233562000;12083044444;12583044444
1191;12275082000;12124400000;12624400000
1199;12275201000;12124677777;12624677777
1200;12275204000;12124677777;12624677777
1201;12275226000;12124677777;12624677777
1202;12316735000;12166066666;12666066666
1210;12316852000;12166400000;12666400000
1211;12316855000;12166400000;12666400000
1212;12316877000;12166400000;12666400000
1213;12358406000;12207733333;12707733333
1221;12358524000;12208044444;12708044444
1222;12358549000;12208044444;12708044444
1223;12358551000;12208044444;12708044444
1224;12400119000;12249400000;12749400000
1232;12400244000;12249722222;12749722222
1233;12400268000;12249722222;12749722222
1234;12400269000;12249722222;12749722222
1235;12441739000;12291066666;12791066666
1243;12441860000;12291377777;12791377777
1244;12441864000;12291377777;12791377777
1245;12441865000;12291377777;12791377777
1246;12483406000;12332733333;12832733333
1247;12483433000;12332733333;12832733333
1248;12483434000;12332733333;12832733333
1249;12483436000;12332733333;12832733333
1250;12483437000;12332733333;12832733333
1251;12483438000;12332733333;12832733333
1252;12483439000;12332733333;12832733333
1253;12483669000;12332755555;12832755555
1254;12483707000;12333022222;12833022222
1255;12483713000;12333022222;12833022222
1256;12483714000;12333022222;12833022222
1257;12525086000;12374400000;12874400000
1265;12525202000;12374688888;12874688888
1266;12525226000;12374688888;12874688888
1267;12525227000;12374688888;12874688888
1268;12566747000;12416066666;12916066666
1276;12566865000;12416411111;12916411111
1277;12566889000;12416411111;12916411111
1278;12566891000;12416411111;12916411111
1279;12608412000;12457733333;12957733333
1287;12608530000;12458033333;12958033333
1288;12608553000;12458033333;12958033333
1289;12608555000;12458033333;12958033333
1290;12650073000;12499400000;12999400000
1298;12650200000;12499711111;12999711111
1299;12650225000;12499711111;12999711111
1300;12650226000;12499711111;12999711111
1301;12691760000;12541077777;13041077777
1309;12691879000;12541422222;13041422222
1310;12691903000;12541422222;13041422222
1311;12691904000;12541422222;13041422222
1312;12733402000;12582722222;13082722222
1320;12733520000;12583033333;13083033333
1321;12733544000;12583033333;13083033333
1322;12733545000;12583033333;13083033333
1323;12775079000;12624388888;13124388888
1331;12775207000;12624688888;13124688888
1332;12775231000;12624688888;13124688888
1333;12775233000;12624688888;13124688888
1334;12816715000;12666033333;13166033333
1342;12816833000;12666388888;13166388888
1343;12816837000;12666388888;13166388888
1344;12816838000;12666388888;13166388888
1345;12858381000;12707700000;13207700000
1352;12858587000;12707722222;13207722222
1353;12858603000;12708011111;13208011111
1354;12858626000;12708011111;13208011111
1355;12858628000;12708011111;13208011111
1356;12900102000;12749400000;13249400000
1364;12900221000;12749711111;13249711111
1365;12900245000;12749711111;13249711111
1366;12900247000;12749711111;13249711111
1367;12941822000;12791066666;13291066666
1375;12942025000;12791400000;13291400000
1376;12942068000;12791400000;13291400000
1377;12942070000;12791400000;13291400000
1378;12983403000;12832733333;13332733333
1385;12983655000;12832755555;13332755555
1386;12983684000;12833044444;13333044444
1387;12983691000;12833044444;13333044444
1388;12983693000;12833044444;13333044444
1389;13025065000;12874388888;13374388888
1397;13025449000;12874933333;13374933333
1398;13025453000;12874933333;13374933333
1399;13025475000;12874933333;13374933333
1400;13066718000;12916066666;13416066666
1408;13066843000;12916411111;13416411111
1409;13066862000;12916411111;13416411111
1410;13066864000;12916411111;13416411111
1411;13108402000;12957733333;13457733333
1419;13108500000;12958044444;13458044444
1420;13108519000;12958044444;13458044444
1421;13108530000;12958044444;13458044444
1422;13150076000;12999400000;13499400000
1430;13150174000;12999688888;13499688888
1431;13150192000;12999688888;13499688888
1432;13150194000;12999688888;13499688888
1433;13191726000;13041066666;13541066666
1441;13191824000;13041388888;13541388888
1442;13191843000;13041388888;13541388888
1443;13191845000;13041388888;13541388888
1444;13233388000;13082733333;13582733333
1452;13233486000;13083044444;13583044444
1453;13233505000;13083044444;13583044444
1454;13233507000;13083044444;13583044444
1455;13275073000;13124400000;13624400000
1463;13275171000;13124688888;13624688888
1464;13275190000;13124688888;13624688888
1465;13275202000;13124688888;13624688888
1466;13316532000;13166066666;13666066666
1474;13316844000;13166400000;13666400000
1475;13316856000;13166400000;13666400000
1476;13316877000;13166400000;13666400000
1477;13358432000;13207733333;13707733333
1485;13358587000;13208044444;13708044444
1486;13358613000;13208044444;13708044444
1487;13358614000;13208044444;13708044444
1488;13400031000;13249400000;13749400000
1496;13400182000;13249733333;13749733333
1497;13400206000;13249733333;13749733333
1498;13400207000;13249733333;13749733333
1499;13441688000;13291066666;13791066666
1505;13441711000;13291066666;13791066666
1506;13441885000;13291088888;13791088888
1507;13441901000;13291400000;13791400000
1508;13441922000;13291400000;13791400000
1509;13441933000;13291400000;13791400000
1510;13483352000;13332733333;13832733333
1518;13483468000;13333022222;13833022222
1519;13483492000;13333022222;13833022222
1520;13483493000;13333022222;13833022222
1521;13525040000;13374400000;13874400000
1529;13525128000;13374688888;13874688888
1530;13525146000;13374688888;13874688888
1531;13525148000;13374688888;13874688888
1532;13566702000;13416066666;13916066666
1540;13566800000;13416411111;13916411111
1541;13566818000;13416411111;13916411111
1542;13566820000;13416411111;13916411111
1543;13608353000;13457733333;13957733333
1551;13608498000;13458044444;13958044444
1552;13608501000;13458044444;13958044444
1553;13608503000;13458044444;13958044444
1556;13649877000;13499400000;13999400000
1562;13650138000;13499711111;13999711111
1563;13650162000;13499711111;13999711111
1564;13650164000;13499711111;13999711111
1565;13691675000;13541066666;14041066666
1573;13691799000;13541411111;14041411111
1574;13691818000;13541411111;14041411111
1575;13691820000;13541411111;14041411111
1576;13733358000;13582733333;14082733333
1584;13733456000;13583055555;14083055555
1585;13733475000;13583055555;14083055555
1586;13733486000;13583055555;14083055555
1587;13775022000;13624400000;14124400000
1595;13775130000;13624688888;14124688888
1596;13775149000;13624688888;14124688888
1597;13775160000;13624688888;14124688888
1598;13816687000;13666066666;14166066666
1606;13816786000;13666422222;14166422222
1607;13816805000;13666422222;14166422222
1608;13816816000;13666422222;14166422222
1609;13858185000;13707722222;14207722222
1617;13858476000;13708033333;14208033333
1618;13858495000;13708033333;14208033333
1619;13858497000;13708033333;14208033333
1620;13900013000;13749400000;14249400000
1628;13900147000;13749722222;14249722222
1629;13900166000;13749722222;14249722222
1630;13900168000;13749722222;14249722222
1631;13941685000;13791066666;14291066666
1639;13941806000;13791411111;14291411111
1640;13941829000;13791411111;14291411111
1641;13941831000;13791411111;14291411111
1642;13983336000;13832733333;14332733333
1649;13983542000;13832755555;14332755555
1650;13983547000;13833055555;14333055555
1652;13983568000;13833055555;14333055555
1653;14025012000;13874411111;14374411111
1661;14025140000;13874733333;14374733333
1662;14025164000;13874733333;14374733333
1663;14025165000;13874733333;14374733333
1664;14066667000;13916055555;14416055555
1672;14066766000;13916411111;14416411111
1673;14066777000;13916411111;14416411111
1674;14066796000;13916411111;14416411111
1675;14108338000;13957722222;14457722222
1683;14108437000;13958044444;14458044444
1684;14108456000;13958044444;14458044444
1685;14108457000;13958044444;14458044444
1686;14150026000;13999366666;14499366666
1694;14150221000;13999688888;14499688888
1695;14150232000;13999688888;14499688888
1696;14150254000;13999688888;14499688888
1697;14191623000;14041033333;14541033333
1702;14191650000;14041033333;14541033333
1703;14191652000;14041033333;14541033333
1704;14191863000;14041055555;14541055555
1705;14191884000;14041388888;14541388888
1706;14191899000;14041388888;14541388888
1707;14191900000;14041388888;14541388888
1708;14233304000;14082711111;14582711111
1716;14233422000;14083044444;14583044444
1717;14233445000;14083044444;14583044444
1718;14233447000;14083044444;14583044444
1719;14274988000;14124366666;14624366666
1727;14275080000;14124655555;14624655555
1728;14275082000;14124655555;14624655555
1729;14275100000;14124655555;14624655555
1730;14316482000;14166033333;14666033333
1733;14316505000;14166033333;14666033333
1734;14316507000;14166033333;14666033333
1735;14316508000;14166033333;14666033333
1736;14316509000;14166033333;14666033333
1737;14316697000;14166044444;14666044444
1738;14316718000;14166377777;14666377777
1739;14316723000;14166377777;14666377777
1740;14316724000;14166377777;14666377777
1741;14358134000;14207700000;14707700000
1749;14358451000;14208022222;14708022222
1750;14358463000;14208022222;14708022222
1751;14358485000;14208022222;14708022222
1752;14399796000;14249366666;14749366666
1760;14400129000;14249700000;14749700000
1761;14400160000;14249700000;14749700000
1762;14400161000;14249700000;14749700000
1763;14441644000;14291033333;14791033333
1771;14441769000;14291355555;14791355555
1772;14441772000;14291355555;14791355555
1773;14441774000;14291355555;14791355555
1774;14483302000;14332700000;14832700000
1775;14483325000;14332700000;14832700000
1776;14483327000;14332700000;14832700000
1777;14483328000;14332700000;14832700000
1778;14483329000;14332700000;14832700000
1779;14483330000;14332700000;14832700000
1780;14483331000;14332700000;14832700000
1781;14483518000;14332711111;14832711111
1782;14483538000;14333000000;14833000000
1783;14483543000;14333000000;14833000000
1784;14483544000;14333000000;14833000000
1785;14524943000;14374366666;14874366666
1793;14525079000;14374655555;14874655555
1794;14525100000;14374655555;14874655555
1795;14525102000;14374655555;14874655555
1796;14566698000;14416033333;14916033333
1804;14566881000;14416388888;14916388888
1805;14566902000;14416388888;14916388888
1806;14566910000;14416388888;14916388888
1807;14608303000;14457700000;14957700000
1815;14608423000;14458044444;14958044444
1816;14608448000;14458044444;14958044444
1817;14608450000;14458044444;14958044444
1818;14649962000;14499377777;14999377777
1825;14650170000;14499400000;14999400000
1826;14650177000;14499722222;14999722222
1827;14650201000;14499722222;14999722222
1828;14650202000;14499722222;14999722222
1829;14691631000;14541044444;15041044444
1837;14691750000;14541400000;15041400000
1838;14691753000;14541400000;15041400000
1839;14691776000;14541400000;15041400000
1840;14733286000;14582700000;15082700000
1846;14733310000;14582700000;15082700000
1847;14733495000;14582722222;15082722222
1848;14733511000;14583000000;15083000000
1849;14733535000;14583000000;15083000000
1850;14733537000;14583000000;15083000000
1851;14774950000;14624366666;15124366666
1859;14775055000;14624655555;15124655555
1860;14775065000;14624655555;15124655555
1861;14775066000;14624655555;15124655555
1862;14816463000;14666033333;15166033333
1870;14816793000;14666355555;15166355555
1871;14816797000;14666355555;15166355555
1872;14816819000;14666355555;15166355555
1873;14858283000;14707700000;15207700000
1881;14858399000;14707977777;15207977777
1882;14858423000;14707977777;15207977777
1883;14858425000;14707977777;15207977777
1884;14899955000;14749366666;15249366666
1892;14900066000;14749655555;15249655555
1893;14900100000;14749655555;15249655555
1894;14900102000;14749655555;15249655555
1895;14941622000;14791033333;15291033333
1903;14941738000;14791366666;15291366666
1904;14941761000;14791366666;15291366666
1905;14941763000;14791366666;15291366666
1906;14983307000;14832700000;15332700000
1914;14983405000;14833011111;15333011111
1915;14983424000;14833011111;15333011111
1916;14983435000;14833011111;15333011111
1917;15024985000;14874377777;15374377777
1925;15025090000;14874677777;15374677777
1926;15025109000;14874677777;15374677777
1927;15025120000;14874677777;15374677777
1928;15066643000;14916033333;15416033333
1936;15066742000;14916366666;15416366666
1937;15066761000;14916366666;15416366666
1938;15066772000;14916366666;15416366666
1939;15108311000;14957700000;15457700000
1947;15108410000;14958000000;15458000000
1948;15108428000;14958000000;15458000000
1949;15108430000;14958000000;15458000000
1950;15149994000;14999366666;15499366666
1956;15150020000;14999366666;15499366666
1958;15150139000;14999644444;15499644444
1959;15150168000;14999644444;15499644444
1960;15150170000;14999644444;15499644444
1961;15191495000;15041033333;15541033333
1968;15191693000;15041044444;15541044444
1969;15191697000;15041322222;15541322222
1970;15191715000;15041322222;15541322222
1971;15191717000;15041322222;15541322222
1972;15233280000;15082700000;15582700000
1980;15233373000;15082988888;15582988888
1981;15233390000;15082988888;15582988888
1982;15233391000;15082988888;15582988888
1983;15274989000;15124366666;15624366666
1991;15275098000;15124633333;15624633333
1992;15275129000;15124633333;15624633333
1993;15275130000;15124633333;15624633333
1994;15316654000;15166033333;15666033333
2002;15316753000;15166355555;15666355555
2003;15316772000;15166355555;15666355555
2004;15316773000;15166355555;15666355555
2005;15358381000;15207700000;15707700000
2013;15358583000;15207988888;15707988888
2014;15358587000;15207988888;15707988888
2015;15358614000;15207988888;15707988888
2016;15399980000;15249366666;15749366666
2021;15400008000;15249366666;15749366666
2022;15400009000;15249366666;15749366666
2023;15400237000;15249377777;15749377777
2024;15400269000;15249677777;15749677777
2025;15400276000;15249677777;15749677777
2026;15400283000;15249677777;15749677777
2027;15441676000;15291044444;15791044444
2034;15441884000;15291055555;15791055555
2035;15441901000;15291355555;15791355555
2036;15441925000;15291355555;15791355555
2037;15441926000;15291355555;15791355555
2038;15483329000;15332700000;15832700000
2046;15483428000;15332977777;15832977777
2047;15483440000;15332977777;15832977777
2048;15483441000;15332977777;15832977777
2049;15524996000;15374366666;15874366666
2057;15525107000;15374633333;15874633333
2058;15525127000;15374633333;15874633333
2059;15525137000;15374633333;15874633333
2060;15566668000;15416033333;15916033333
2068;15566767000;15416366666;15916366666
2069;15566787000;15416366666;15916366666
2070;15566798000;15416366666;15916366666
2071;15608336000;15457700000;15957700000
2079;15608455000;15457988888;15957988888
2080;15608479000;15457988888;15957988888
2081;15608481000;15457988888;15957988888
2082;15649987000;15499366666;15999366666
2089;15650250000;15499377777;15999377777
2091;15650257000;15499655555;15999655555
2092;15650280000;15499655555;15999655555
2093;15691653000;15541033333;16041033333
2101;15691771000;15541355555;16041355555
2102;15691795000;15541355555;16041355555
2103;15691796000;15541355555;16041355555
2104;15737975000;15582700000;16082700000
2112;15738192000;15583011111;16083011111
2113;15738221000;15583011111;16083011111
2114;15738224000;15583011111;16083011111
2115;15775020000;15624400000;16124400000
2123;15775198000;15624711111;16124711111
2124;15775223000;15624711111;16124711111
2125;15775225000;15624711111;16124711111
2126;15816720000;15666066666;16166066666
2134;15816837000;15666422222;16166422222
2135;15816861000;15666422222;16166422222
2136;15816863000;15666422222;16166422222
2137;15858395000;15707733333;16207733333
2145;15858515000;15708055555;16208055555
2146;15858539000;15708055555;16208055555
2147;15858541000;15708055555;16208055555
2148;15899870000;15749400000;16249400000
2156;15900209000;15749733333;16249733333
2157;15900234000;15749733333;16249733333
2158;15900235000;15749733333;16249733333
2159;15941712000;15791066666;16291066666
2167;15941831000;15791411111;16291411111
2168;15941855000;15791411111;16291411111
2169;15941857000;15791411111;16291411111
2170;15983361000;15832733333;16332733333
2178;15983477000;15833055555;16333055555
2179;15983500000;15833055555;16333055555
2180;15983502000;15833055555;16333055555
2181;16025058000;15874400000;16374400000
2189;16025178000;15874722222;16374722222
2190;16025202000;15874722222;16374722222
2191;16025203000;15874722222;16374722222
2192;16066698000;15916066666;16416066666
2200;16066820000;15916422222;16416422222
2201;16066824000;15916422222;16416422222
2202;16066825000;15916422222;16416422222
2203;16110467000;15957733333;16457733333
2205;16110516000;15957733333;16457733333
2206;16110519000;15957733333;16457733333
2207;16110522000;15957733333;16457733333
2208;16110523000;15957733333;16457733333
2209;16110526000;15957733333;16457733333
2210;16110790000;15957755555;16457755555
2211;16110826000;15958055555;16458055555
2212;16110840000;15958055555;16458055555
2213;16110842000;15958055555;16458055555
2214;16150022000;15999400000;16499400000
2217;16150065000;15999400000;16499400000
2218;16150067000;15999400000;16499400000
2219;16150069000;15999400000;16499400000
2220;16150070000;15999400000;16499400000
2221;16150282000;15999422222;16499422222
2222;16150320000;15999711111;16499711111
2223;16150326000;15999711111;16499711111
2224;16150327000;15999711111;16499711111
2225;16191701000;16041066666;16541066666
2233;16191821000;16041411111;16541411111
2234;16191845000;16041411111;16541411111
2235;16191846000;16041411111;16541411111
2236;16233363000;16082744444;16582744444
2244;16233566000;16083122222;16583122222
2245;16233584000;16083122222;16583122222
2246;16233586000;16083122222;16583122222
2247;16275013000;16124377777;16624377777
2255;16275138000;16124722222;16624722222
2256;16275141000;16124722222;16624722222
2257;16275160000;16124722222;16624722222
2258;16316505000;16166044444;16666044444
2266;16316909000;16166411111;16666411111
2267;16316927000;16166411111;16666411111
2268;16316928000;16166411111;16666411111
2269;16358360000;16207700000;16707700000
2277;16358459000;16208044444;16708044444
2278;16358478000;16208044444;16708044444
2279;16358479000;16208044444;16708044444
2280;16399999000;16249366666;16749366666
2288;16400125000;16249711111;16749711111
2289;16400128000;16249711111;16749711111
2290;16400137000;16249711111;16749711111
2291;16441670000;16291033333;16791033333
2299;16441769000;16291377777;16791377777
2300;16441788000;16291377777;16791377777
2301;16441798000;16291377777;16791377777
2302;16483352000;16332700000;16832700000
2310;16483453000;16333000000;16833000000
2311;16483465000;16333000000;16833000000
2312;16483467000;16333000000;16833000000
2315;16524852000;16374366666;16874366666
2321;16525165000;16374666666;16874666666
2322;16525188000;16374666666;16874666666
2323;16525190000;16374666666;16874666666
2324;16566765000;16416055555;16916055555
2332;16566964000;16416455555;16916455555
2333;16566993000;16416455555;16916455555
2334;16566995000;16416455555;16916455555
2335;16608353000;16457711111;16957711111
2338;16608381000;16457711111;16957711111
2339;16608383000;16457711111;16957711111
2340;16608384000;16457711111;16957711111
2341;16608386000;16457711111;16957711111
2342;16608612000;16457722222;16957722222
2343;16608640000;16458044444;16958044444
2344;16608647000;16458044444;16958044444
2345;16608648000;16458044444;16958044444
2346;16649912000;16499422222;16999422222
2354;16650268000;16499766666;16999766666
2355;16650292000;16499766666;16999766666
2356;16650294000;16499766666;16999766666
2357;16691722000;16541077777;17041077777
2365;16691839000;16541444444;17041444444
2366;16691863000;16541444444;17041444444
2367;16691865000;16541444444;17041444444
2368;16733394000;16582744444;17082744444
2376;16733513000;16583066666;17083066666
2377;16733537000;16583066666;17083066666
2378;16733539000;16583066666;17083066666
2379;16775067000;16624411111;17124411111
2387;16775182000;16624711111;17124711111
2388;16775206000;16624711111;17124711111
2389;16775207000;16624711111;17124711111
2390;16816727000;16666077777;17166077777
2398;16816849000;16666433333;17166433333
2399;16816852000;16666433333;17166433333
2400;16816854000;16666433333;17166433333
2401;16858393000;16707744444;17207744444
2402;16858420000;16707744444;17207744444
2403;16858422000;16707744444;17207744444
2404;16858423000;16707744444;17207744444
2405;16858424000;16707744444;17207744444
2406;16858426000;16707744444;17207744444
2407;16858427000;16707744444;17207744444
2408;16858607000;16707766666;17207766666
2409;16858631000;16708055555;17208055555
2410;16858636000;16708055555;17208055555
2411;16858647000;16708055555;17208055555
2412;16899902000;16749411111;17249411111
2420;16900244000;16749744444;17249744444
2421;16900248000;16749744444;17249744444
2422;16900269000;16749744444;17249744444
2423;16942857000;16791077777;17291077777
2431;16943069000;16791422222;17291422222
2432;16943076000;16791422222;17291422222
2433;16943103000;16791422222;17291422222
2434;16983397000;16832744444;17332744444
2442;16983517000;16833077777;17333077777
2443;16983542000;16833077777;17333077777
2444;16983544000;16833077777;17333077777
2445;17025076000;16874411111;17374411111
2453;17025232000;16874733333;17374733333
2454;17025259000;16874733333;17374733333
2455;17025261000;16874733333;17374733333
2456;17066733000;16916077777;17416077777
2462;17066756000;16916077777;17416077777
2463;17066940000;16916100000;17416100000
2464;17066947000;16916444444;17416444444
2465;17066970000;16916444444;17416444444
2466;17066972000;16916444444;17416444444
2467;17108433000;16957744444;17457744444
2475;17108542000;16958066666;17458066666
2476;17108561000;16958066666;17458066666
2477;17108563000;16958066666;17458066666
2478;17150078000;16999411111;17499411111
2486;17150162000;16999722222;17499722222
2487;17150171000;16999722222;17499722222
2488;17150181000;16999722222;17499722222
2489;17191716000;17041077777;17541077777
2497;17191832000;17041422222;17541422222
2498;17191852000;17041422222;17541422222
2499;17191854000;17041422222;17541422222
2500;17233382000;17082744444;17582744444
2508;17233501000;17083077777;17583077777
2509;17233521000;17083077777;17583077777
2510;17233534000;17083077777;17583077777
2511;17275073000;17124411111;17624411111
2519;17275185000;17124711111;17624711111
2520;17275197000;17124711111;17624711111
2521;17275227000;17124711111;17624711111
2522;17316752000;17166077777;17666077777
2530;17316858000;17166444444;17666444444
2531;17316861000;17166444444;17666444444
2532;17316869000;17166444444;17666444444
2533;17358421000;17207744444;17707744444
2541;17358541000;17208077777;17708077777
2542;17358565000;17208077777;17708077777
2543;17358566000;17208077777;17708077777
2544;17400074000;17249411111;17749411111
2552;17400193000;17249766666;17749766666
2553;17400217000;17249766666;17749766666
2554;17400219000;17249766666;17749766666
2555;17441745000;17291077777;17791077777
2563;17441869000;17291411111;17791411111
2564;17441887000;17291411111;17791411111
2565;17441889000;17291411111;17791411111
2566;17483406000;17332744444;17832744444
2573;17483606000;17332766666;17832766666
2574;17483623000;17333055555;17833055555
2575;17483646000;17333055555;17833055555
2576;17483647000;17333055555;17833055555
2577;17525080000;17374411111;17874411111
2583;17525104000;17374411111;17874411111
2584;17525237000;17374433333;17874433333
2585;17525240000;17374711111;17874711111
2586;17525248000;17374711111;17874711111
2587;17525250000;17374711111;17874711111
2588;17566575000;17416077777;17916077777
2596;17566948000;17416444444;17916444444
2597;17566967000;17416444444;17916444444
2598;17566968000;17416444444;17916444444
2599;17608407000;17457744444;17957744444
2607;17608525000;17458077777;17958077777
2608;17608549000;17458077777;17958077777
2609;17608550000;17458077777;17958077777
2610;17650082000;17499411111;17999411111
2618;17650210000;17499744444;17999744444
2619;17650234000;17499744444;17999744444
2620;17650236000;17499744444;17999744444
2621;17691754000;17541077777;18041077777
2629;17691852000;17541433333;18041433333
2630;17691872000;17541433333;18041433333
2631;17691873000;17541433333;18041433333
2632;17733417000;17582744444;18082744444
2640;17733543000;17583055555;18083055555
2641;17733565000;17583055555;18083055555
2642;17733567000;17583055555;18083055555
2643;17775087000;17624366666;18124366666
2651;17775267000;17624655555;18124655555
2652;17775290000;17624655555;18124655555
2653;17775292000;17624655555;18124655555
2654;17816722000;17666077777;18166077777
2657;17816754000;17666077777;18166077777
2658;17816756000;17666077777;18166077777
2659;17816757000;17666077777;18166077777
2660;17816758000;17666077777;18166077777
2661;17816929000;17666100000;18166100000
2662;17816939000;17666411111;18166411111
2663;17816944000;17666411111;18166411111
2664;17816945000;17666411111;18166411111
2665;17858383000;17707744444;18207744444
2673;17858452000;17708044444;18208044444
2674;17858460000;17708044444;18208044444
2675;17858471000;17708044444;18208044444
2676;17899989000;17749388888;18249388888
2684;17900215000;17749722222;18249722222
2685;17900239000;17749722222;18249722222
2686;17900241000;17749722222;18249722222
2687;17941570000;17791044444;18291044444
2695;17941909000;17791388888;18291388888
2696;17941933000;17791388888;18291388888
2697;17941935000;17791388888;18291388888
2698;17983387000;17832722222;18332722222
2706;17983505000;17833044444;18333044444
2707;17983529000;17833044444;18333044444
2708;17983530000;17833044444;18333044444
2709;18025077000;17874377777;18374377777
2717;18025194000;17874688888;18374688888
2718;18025217000;17874688888;18374688888
2719;18025219000;17874688888;18374688888
2720;18066724000;17916044444;18416044444
2728;18066821000;17916400000;18416400000
2729;18066840000;17916400000;18416400000
2730;18066841000;17916400000;18416400000
2731;18108373000;17957711111;18457711111
2739;18108498000;17958022222;18458022222
2740;18108507000;17958022222;18458022222
2741;18108518000;17958022222;18458022222
2742;18150105000;17999366666;18499366666
2750;18150256000;17999666666;18499666666
2751;18150281000;17999666666;18499666666
2752;18150283000;17999666666;18499666666
2753;18191709000;18041044444;18541044444
2761;18191833000;18041377777;18541377777
2762;18191843000;18041377777;18541377777
2763;18191854000;18041377777;18541377777
2764;18233402000;18082733333;18582733333
2772;18233521000;18083066666;18583066666
2773;18233525000;18083066666;18583066666
2774;18233556000;18083066666;18583066666
2775;18275057000;18124377777;18624377777
2783;18275173000;18124666666;18624666666
2784;18275197000;18124666666;18624666666
2785;18275199000;18124666666;18624666666
2786;18316542000;18166033333;18666033333
2794;18316888000;18166377777;18666377777
2795;18316890000;18166377777;18666377777
2796;18316899000;18166377777;18666377777
2797;18358364000;18207700000;18707700000
2805;18358467000;18208022222;18708022222
2806;18358485000;18208022222;18708022222
2807;18358487000;18208022222;18708022222
2808;18400059000;18249366666;18749366666
2816;18400163000;18249677777;18749677777
2817;18400175000;18249677777;18749677777
2818;18400176000;18249677777;18749677777
2819;18441697000;18291033333;18791033333
2821;18441723000;18291033333;18791033333
2822;18441725000;18291033333;18791033333
2823;18441726000;18291033333;18791033333
2824;18441728000;18291033333;18791033333
2825;18441729000;18291033333;18791033333
2826;18441956000;18291055555;18791055555
2827;18441977000;18291333333;18791333333
2828;18441981000;18291333333;18791333333
2829;18441982000;18291333333;18791333333
2830;18483363000;18332700000;18832700000
2838;18483469000;18332977777;18832977777
2839;18483488000;18332977777;18832977777
2840;18483490000;18332977777;18832977777
2841;18525058000;18374366666;18874366666
2849;18525133000;18374644444;18874644444
2850;18525151000;18374644444;18874644444
2851;18525153000;18374644444;18874644444
2852;18566545000;18416033333;18916033333
2857;18566568000;18416033333;18916033333
2858;18566570000;18416033333;18916033333
2859;18566752000;18416055555;18916055555
2860;18566756000;18416366666;18916366666
2861;18566774000;18416366666;18916366666
2862;18566776000;18416366666;18916366666
2863;18608370000;18457700000;18957700000
2871;18608489000;18458011111;18958011111
2872;18608513000;18458011111;18958011111
2873;18608515000;18458011111;18958011111
2874;18650035000;18499366666;18999366666
2882;18650268000;18499688888;18999688888
2883;18650291000;18499688888;18999688888
2884;18650293000;18499688888;18999688888
2885;18691704000;18541033333;19041033333
2893;18691823000;18541377777;19041377777
2894;18691847000;18541377777;19041377777
2895;18691849000;18541377777;19041377777
2896;18733369000;18582700000;19082700000
2904;18733486000;18582988888;19082988888
2905;18733509000;18582988888;19082988888
2906;18733511000;18582988888;19082988888
2907;18775096000;18624400000;19124400000
2915;18775215000;18624666666;19124666666
2916;18775239000;18624666666;19124666666
2917;18775240000;18624666666;19124666666
2918;18816736000;18666066666;19166066666
2926;18816854000;18666388888;19166388888
2927;18816877000;18666388888;19166388888
2928;18816879000;18666388888;19166388888
2929;18858417000;18707733333;19207733333
2937;18858515000;18708000000;19208000000
2938;18858534000;18708000000;19208000000
2939;18858535000;18708000000;19208000000
2940;18900074000;18749400000;19249400000
2948;18900182000;18749688888;19249688888
2949;18900200000;18749688888;19249688888
2950;18900211000;18749688888;19249688888
2951;18944364000;18791077777;19291077777
2959;18944532000;18791388888;19291388888
2960;18944561000;18791388888;19291388888
2961;18944563000;18791388888;19291388888
2962;18983418000;18832744444;19332744444
2970;18983548000;18833044444;19333044444
2971;18983579000;18833044444;19333044444
2972;18983581000;18833044444;19333044444
2973;19025071000;18874411111;19374411111
2980;19025282000;18874433333;19374433333
2981;19025302000;18874700000;19374700000
2982;19025317000;18874700000;19374700000
2983;19025318000;18874700000;19374700000
2984;19066728000;18916077777;19416077777
2992;19066835000;18916411111;19416411111
2993;19066855000;18916411111;19416411111
2994;19066857000;18916411111;19416411111
2995;19108381000;18957744444;19457744444
3003;19108458000;18958033333;19458033333
3004;19108460000;18958033333;19458033333
3005;19108462000;18958033333;19458033333
3006;19150062000;18999411111;19499411111
3009;19150073000;18999411111;19499411111
3010;19150075000;18999411111;19499411111
3011;19150076000;18999411111;19499411111
3012;19150077000;18999411111;19499411111
3013;19150301000;18999433333;19499433333
3014;19150311000;18999688888;19499688888
3015;19150315000;18999688888;19499688888
3016;19150317000;18999688888;19499688888
3017;19191744000;19041077777;19541077777
3025;19191819000;19041388888;19541388888
3026;19191827000;19041388888;19541388888
3027;19191828000;19041388888;19541388888
3028;19233240000;19082744444;19582744444
3036;19233566000;19083033333;19583033333
3037;19233584000;19083033333;19583033333
3038;19233585000;19083033333;19583033333
3039;19275075000;19124400000;19624400000
3047;19275186000;19124666666;19624666666
3048;19275218000;19124666666;19624666666
3049;19275219000;19124666666;19624666666
3050;19316597000;19166066666;19666066666
3058;19316901000;19166388888;19666388888
3059;19316920000;19166388888;19666388888
3060;19316931000;19166388888;19666388888
3061;19358483000;19207733333;19707733333
3069;19358636000;19208022222;19708022222
3070;19358662000;19208022222;19708022222
3071;19358664000;19208022222;19708022222
3072;19399919000;19249400000;19749400000
3080;19400231000;19249711111;19749711111
3081;19400259000;19249711111;19749711111
3082;19400260000;19249711111;19749711111
3083;19441785000;19291066666;19791066666
3091;19441954000;19291377777;19791377777
3092;19441980000;19291377777;19791377777
3093;19441982000;19291377777;19791377777
3094;19483419000;19332733333;19832733333
3102;19483518000;19333011111;19833011111
3103;19483537000;19333011111;19833011111
3104;19483538000;19333011111;19833011111
3105;19525099000;19374400000;19874400000
3113;19525197000;19374666666;19874666666
3114;19525216000;19374666666;19874666666
3115;19525217000;19374666666;19874666666
3116;19566764000;19416077777;19916077777
3124;19566863000;19416411111;19916411111
3125;19566882000;19416411111;19916411111
3126;19566893000;19416411111;19916411111
3127;19608397000;19457722222;19957722222
3135;19608516000;19458022222;19958022222
3136;19608539000;19458022222;19958022222
3137;19608541000;19458022222;19958022222
3138;19650067000;19499366666;19999366666
3146;19650186000;19499666666;19999666666
3147;19650210000;19499666666;19999666666
3148;19650211000;19499666666;19999666666
3149;19691708000;19541033333;20041033333
3157;19691827000;19541366666;20041366666
3158;19691851000;19541366666;20041366666
3159;19691852000;19541366666;20041366666
3160;19733375000;19582700000;20082700000
3168;19733492000;19583000000;20083000000
3169;19733516000;19583000000;20083000000
3170;19733517000;19583000000;20083000000
3171;19775075000;19624400000;20124400000
3179;19775193000;19624677777;20124677777
3180;19775217000;19624677777;20124677777
3181;19775218000;19624677777;20124677777
3182;19816757000;19666066666;20166066666
3190;19816875000;19666400000;20166400000
3191;19816900000;19666400000;20166400000
3192;19816901000;19666400000;20166400000
3193;19858406000;19707733333;20207733333
3201;19858521000;19708022222;20208022222
3202;19858545000;19708022222;20208022222
3203;19858547000;19708022222;20208022222
3204;19900082000;19749400000;20249400000
3212;19900200000;19749700000;20249700000
3213;19900224000;19749700000;20249700000
3214;19900225000;19749700000;20249700000
3215;19941757000;19791066666;20291066666
3223;19941879000;19791388888;20291388888
3224;19941883000;19791388888;20291388888
3225;19941884000;19791388888;20291388888
3226;19983407000;19832733333;20332733333
3227;19983434000;19832733333;20332733333
3228;19983435000;19832733333;20332733333
3229;19983437000;19832733333;20332733333
3230;19983438000;19832733333;20332733333
3231;19983439000;19832733333;20332733333
3232;19983441000;19832733333;20332733333
3233;19983676000;19832755555;20332755555
3234;19983693000;19833022222;20333022222
3235;19983716000;19833022222;20333022222
3236;19983718000;19833022222;20333022222
3237;20025079000;19874400000;20374400000
3245;20025153000;19874688888;20374688888
3246;20025172000;19874688888;20374688888
3247;20025174000;19874688888;20374688888
3248;20066743000;19916066666;20416066666
3253;20066767000;19916066666;20416066666
3254;20066769000;19916066666;20416066666
3255;20066959000;19916088888;20416088888
3256;20066975000;19916388888;20416388888
3257;20067007000;19916388888;20416388888
3258;20067009000;19916388888;20416388888
3259;20108404000;19957733333;20457733333
3267;20108523000;19958033333;20458033333
3268;20108547000;19958033333;20458033333
3269;20108549000;19958033333;20458033333
3270;20150181000;19999400000;20499400000
3278;20150382000;19999688888;20499688888
3279;20150412000;19999688888;20499688888
3280;20150415000;19999688888;20499688888
3281;20191742000;20041066666;20541066666
3289;20191860000;20041377777;20541377777
3290;20191884000;20041377777;20541377777
3291;20191886000;20041377777;20541377777
3292;20233425000;20082733333;20582733333
3300;20233523000;20083055555;20583055555
3301;20233542000;20083055555;20583055555
3302;20233543000;20083055555;20583055555
3303;20275095000;20124400000;20624400000
3311;20275195000;20124688888;20624688888
3312;20275214000;20124688888;20624688888
3313;20275225000;20124688888;20624688888
3314;20316599000;20166066666;20666066666
3322;20316913000;20166400000;20666400000
3323;20316931000;20166400000;20666400000
3324;20316943000;20166400000;20666400000
3325;20358403000;20207733333;20707733333
3332;20358625000;20207755555;20707755555
3333;20358629000;20208033333;20708033333
3334;20358648000;20208033333;20708033333
3335;20358649000;20208033333;20708033333
3336;20400094000;20249400000;20749400000
3344;20400193000;20249722222;20749722222
3345;20400212000;20249722222;20749722222
3346;20400223000;20249722222;20749722222
3347;20441753000;20291066666;20791066666
3355;20441852000;20291377777;20791377777
3356;20441871000;20291377777;20791377777
3357;20441882000;20291377777;20791377777
3358;20483420000;20332733333;20832733333
3365;20483626000;20332755555;20832755555
3366;20483629000;20333022222;20833022222
3367;20483648000;20333022222;20833022222
3368;20483649000;20333022222;20833022222
3369;20525096000;20374400000;20874400000
3377;20525195000;20374677777;20874677777
3378;20525206000;20374677777;20874677777
3379;20525215000;20374677777;20874677777
3380;20566808000;20416066666;20916066666
3388;20566997000;20416400000;20916400000
3389;20567029000;20416400000;20916400000
3390;20567030000;20416400000;20916400000
3391;20608408000;20457733333;20957733333
3393;20608435000;20457733333;20957733333
3394;20608437000;20457733333;20957733333
3395;20608438000;20457733333;20957733333
3396;20608439000;20457733333;20957733333
3397;20608441000;20457733333;20957733333
3398;20608662000;20457755555;20957755555
3399;20608690000;20458033333;20958033333
3400;20608697000;20458033333;20958033333
3401;20608699000;20458033333;20958033333
3402;20650065000;20499400000;20999400000
3411;20650214000;20499711111;20999711111
3412;20650233000;20499711111;20999711111
3413;20691744000;20541066666;21041066666
3420;20691952000;20541088888;21041088888
3421;20691969000;20541400000;21041400000
3422;20691992000;20541400000;21041400000
3423;20691993000;20541400000;21041400000
3424;20733409000;20582733333;21082733333
3432;20733637000;20583044444;21083044444
3433;20733661000;20583044444;21083044444
3434;20733662000;20583044444;21083044444
3435;20775075000;20624400000;21124400000
3443;20775191000;20624688888;21124688888
3444;20775215000;20624688888;21124688888
3445;20775216000;20624688888;21124688888
3446;20816746000;20666066666;21166066666
3454;20816822000;20666400000;21166400000
3455;20816841000;20666400000;21166400000
3456;20816842000;20666400000;21166400000
3457;20858422000;20707744444;21207744444
3466;20858600000;20708044444;21208044444
3467;20858622000;20708044444;21208044444
3468;20899922000;20749400000;21249400000
3476;20900238000;20749711111;21249711111
3477;20900262000;20749711111;21249711111
3478;20900263000;20749711111;21249711111
3479;20941761000;20791066666;21291066666
3487;20941880000;20791400000;21291400000
3488;20941905000;20791400000;21291400000
3489;20941906000;20791400000;21291400000
3490;20983411000;20832733333;21332733333
3498;20983528000;20833044444;21333044444
3499;20983552000;20833044444;21333044444
3500;20983554000;20833044444;21333044444
3501;21024923000;20874400000;21374400000
3509;21025212000;20874700000;21374700000
3510;21025226000;20874700000;21374700000
3511;21025245000;20874700000;21374700000
3512;21066746000;20916066666;21416066666
3520;21066866000;20916400000;21416400000
3521;21066890000;20916400000;21416400000
3522;21066891000;20916400000;21416400000
3523;21108434000;20957733333;21457733333
3531;21108559000;20958033333;21458033333
3532;21108578000;20958033333;21458033333
3533;21108579000;20958033333;21458033333
3534;21150100000;20999400000;21499400000
3542;21150198000;20999688888;21499688888
3543;21150217000;20999688888;21499688888
3544;21150219000;20999688888;21499688888
3545;21191726000;21041066666;21541066666
3553;21191844000;21041388888;21541388888
3554;21191863000;21041388888;21541388888
3555;21191865000;21041388888;21541388888
3556;21233405000;21082733333;21582733333
3564;21233513000;21083044444;21583044444
3565;21233533000;21083044444;21583044444
3566;21233535000;21083044444;21583044444
3567;21275101000;21124400000;21624400000
3576;21275224000;21124688888;21624688888
3577;21275235000;21124688888;21624688888
3578;21316742000;21166066666;21666066666
3580;21316767000;21166066666;21666066666
3581;21316769000;21166066666;21666066666
3582;21316770000;21166066666;21666066666
3583;21316771000;21166066666;21666066666
3584;21316773000;21166066666;21666066666
3585;21317008000;21166088888;21666088888
3586;21317011000;21166400000;21666400000
3587;21317029000;21166400000;21666400000
3588;21317030000;21166400000;21666400000
3589;21358335000;21207733333;21707733333
3597;21358528000;21208044444;21708044444
3598;21358551000;21208044444;21708044444
3599;21358559000;21208044444;21708044444
3600;21400072000;21249400000;21749400000
3608;21400207000;21249733333;21749733333
3609;21400227000;21249733333;21749733333
3610;21400229000;21249733333;21749733333
3611;21441761000;21291066666;21791066666
3619;21441861000;21291388888;21791388888
3620;21441880000;21291388888;21791388888
3621;21441891000;21291388888;21791388888
3622;21483413000;21332733333;21832733333
3630;21483532000;21333022222;21833022222
3631;21483555000;21333022222;21833022222
3632;21483557000;21333022222;21833022222
3633;21525102000;21374411111;21874411111
3641;21525221000;21374711111;21874711111
3642;21525246000;21374711111;21874711111
3643;21525248000;21374711111;21874711111
3644;21566733000;21416055555;21916055555
3652;21566858000;21416411111;21916411111
3653;21566877000;21416411111;21916411111
3654;21566878000;21416411111;21916411111
3655;21608399000;21457700000;21957700000
3663;21608518000;21458022222;21958022222
3664;21608542000;21458022222;21958022222
3665;21608543000;21458022222;21958022222
3666;21650058000;21499366666;21999366666
3674;21650177000;21499688888;21999688888
3675;21650200000;21499688888;21999688888
3676;21650202000;21499688888;21999688888
3677;21691710000;21541033333;22041033333
3685;21691835000;21541388888;22041388888
3686;21691854000;21541388888;22041388888
3687;21691856000;21541388888;22041388888
3688;21733395000;21582700000;22082700000
3696;21733494000;21582988888;22082988888
3697;21733513000;21582988888;22082988888
3698;21733524000;21582988888;22082988888
3699;21775127000;21624366666;22124366666
3707;21775269000;21624633333;22124633333
3708;21775290000;21624633333;22124633333
3709;21775292000;21624633333;22124633333
3710;21816694000;21666033333;22166033333
3718;21816801000;21666344444;22166344444
3719;21816822000;21666344444;22166344444
3720;21816824000;21666344444;22166344444
3721;21858395000;21707700000;22207700000
3729;21858497000;21707977777;22207977777
3730;21858509000;21707977777;22207977777
3731;21858530000;21707977777;22207977777
3732;21900063000;21749400000;22249400000
3740;21900139000;21749688888;22249688888
3741;21900157000;21749688888;22249688888
3742;21900158000;21749688888;22249688888
3743;21941595000;21791066666;22291066666
3751;21941916000;21791377777;22291377777
3752;21941940000;21791377777;22291377777
3753;21941942000;21791377777;22291377777
3754;21983414000;21832733333;22332733333
3762;21983529000;21833022222;22333022222
3763;21983553000;21833022222;22333022222
3764;21983555000;21833022222;22333022222
3765;22025083000;21874400000;22374400000
3773;22025208000;21874688888;22374688888
3774;22025232000;21874688888;22374688888
3775;22025234000;21874688888;22374688888
3776;22066607000;21916066666;22416066666
3784;22066910000;21916388888;22416388888
3785;22066922000;21916388888;22416388888
3786;22066924000;21916388888;22416388888
3787;22108428000;21957733333;22457733333
3794;22108633000;21957755555;22457755555
3795;22108637000;21958022222;22458022222
3796;22108655000;21958022222;22458022222
3797;22108656000;21958022222;22458022222
3798;22150102000;21999400000;22499400000
3806;22150201000;21999677777;22499677777
3807;22150220000;21999677777;22499677777
3808;22150231000;21999677777;22499677777
3809;22191763000;22041066666;22541066666
3817;22191861000;22041377777;22541377777
3818;22191881000;22041377777;22541377777
3819;22191891000;22041377777;22541377777
3820;22233432000;22082733333;22582733333
3828;22233551000;22083022222;22583022222
3829;22233575000;22083022222;22583022222
3830;22233577000;22083022222;22583022222
3831;22275084000;22124400000;22624400000
3839;22275200000;22124677777;22624677777
3840;22275204000;22124677777;22624677777
3841;22275226000;22124677777;22624677777
3842;22316756000;22166077777;22666077777
3850;22316881000;22166411111;22666411111
3851;22316901000;22166411111;22666411111
3852;22316902000;22166411111;22666411111
3853;22358423000;22207722222;22707722222
3860;22358629000;22207744444;22707744444
3861;22358633000;22208033333;22708033333
3862;22358651000;22208033333;22708033333
3863;22358653000;22208033333;22708033333
3864;22400076000;22249366666;22749366666
3872;22400175000;22249700000;22749700000
3873;22400194000;22249700000;22749700000
3874;22400196000;22249700000;22749700000
3875;22441730000;22291033333;22791033333
3883;22441828000;22291355555;22791355555
3884;22441847000;22291355555;22791355555
3885;22441849000;22291355555;22791355555
3886;22483396000;22332700000;22832700000
3894;22483495000;22332988888;22832988888
3895;22483513000;22332988888;22832988888
3896;22483525000;22332988888;22832988888
3897;22525071000;22374366666;22874366666
3904;22525236000;22374388888;22874388888
3905;22525239000;22374633333;22874633333
3906;22525248000;22374633333;22874633333
3907;22525249000;22374633333;22874633333
3908;22566783000;22416033333;22916033333
3916;22566927000;22416366666;22916366666
3917;22566950000;22416366666;22916366666
3918;22566958000;22416366666;22916366666
3919;22608415000;22457700000;22957700000
3927;22608536000;22458011111;22958011111
3928;22608561000;22458011111;22958011111
3929;22608562000;22458011111;22958011111
3930;22650075000;22499377777;22999377777
3937;22650283000;22499400000;22999400000
3938;22650290000;22499688888;22999688888
3939;22650313000;22499688888;22999688888
3940;22650314000;22499688888;22999688888
3941;22691715000;22541033333;23041033333
3947;22691739000;22541033333;23041033333
3948;22691923000;22541055555;23041055555
3949;22691930000;22541377777;23041377777
3950;22691952000;22541377777;23041377777
3951;22691954000;22541377777;23041377777
3952;22733400000;22582700000;23082700000
3960;22733519000;22583011111;23083011111
3961;22733543000;22583011111;23083011111
3964;22774893000;22624366666;23124366666
3971;22775158000;22624655555;23124655555
3972;22775182000;22624655555;23124655555
3973;22775183000;22624655555;23124655555
3974;22816715000;22666033333;23166033333
3982;22816833000;22666366666;23166366666
3983;22816857000;22666366666;23166366666
3984;22816859000;22666366666;23166366666
3985;22858383000;22707700000;23207700000
3993;22858502000;22707977777;23207977777
3994;22858527000;22707977777;23207977777
3995;22858528000;22707977777;23207977777
3996;22900078000;22749388888;23249388888
4003;22900255000;22749411111;23249411111
4004;22900260000;22749700000;23249700000
4005;22900271000;22749700000;23249700000
4006;22900281000;22749700000;23249700000
4007;22941690000;22791033333;23291033333
4015;22941770000;22791366666;23291366666
4016;22941780000;22791366666;23291366666
4017;22941791000;22791366666;23291366666
4018;22983295000;22832700000;23332700000
4026;22983496000;22833011111;23333011111
4027;22983500000;22833011111;23333011111
4028;22983546000;22833011111;23333011111
4029;23025078000;22874366666;23374366666
4035;23025107000;22874366666;23374366666
4036;23025288000;22874388888;23374388888
4037;23025325000;22874677777;23374677777
4038;23025332000;22874677777;23374677777
4039;23025334000;22874677777;23374677777
4040;23066748000;22916055555;23416055555
4048;23066846000;22916400000;23416400000
4049;23066865000;22916400000;23416400000
4050;23066877000;22916400000;23416400000
4051;23108376000;22957700000;23457700000
4060;23108602000;22958011111;23458011111
4061;23108621000;22958011111;23458011111
4062;23150038000;22999366666;23499366666
4070;23150120000;22999666666;23499666666
4071;23150139000;22999666666;23499666666
4072;23150141000;22999666666;23499666666
4073;23191679000;23041033333;23541033333
4081;23191757000;23041355555;23541355555
4082;23191759000;23041355555;23541355555
4083;23191761000;23041355555;23541355555
4084;23233358000;23082700000;23582700000
4086;23233379000;23082700000;23582700000
4087;23233380000;23082700000;23582700000
4088;23233391000;23082700000;23582700000
4089;23233393000;23082700000;23582700000
4090;23233394000;23082700000;23582700000
4091;23233564000;23082722222;23582722222
4092;23233573000;23083000000;23583000000
4093;23233578000;23083000000;23583000000
4094;23233579000;23083000000;23583000000
4095;23275069000;23124366666;23624366666
4103;23275170000;23124633333;23624633333
4104;23275201000;23124633333;23624633333
4105;23275202000;23124633333;23624633333
4106;23316739000;23166033333;23666033333
4114;23316837000;23166355555;23666355555
4115;23316855000;23166355555;23666355555
4122;23358240000;23207700000;23707700000
4125;23358506000;23208000000;23708000000
4126;23358510000;23208000000;23708000000
4127;23358532000;23208000000;23708000000
4128;23400073000;23249366666;23749366666
4136;23400193000;23249677777;23749677777
4137;23400216000;23249677777;23749677777
4138;23400218000;23249677777;23749677777
4139;23441729000;23291033333;23791033333
4147;23441849000;23291344444;23791344444
4148;23441873000;23291344444;23791344444
4149;23441875000;23291344444;23791344444
4150;23483381000;23332700000;23832700000
4158;23483501000;23333000000;23833000000
4159;23483505000;23333000000;23833000000
4160;23483506000;23333000000;23833000000
4161;23525065000;23374377777;23874377777
4168;23525274000;23374388888;23874388888
4169;23525280000;23374666666;23874666666
4170;23525282000;23374666666;23874666666
4171;23525304000;23374666666;23874666666
4172;23566709000;23416033333;23916033333
4180;23566825000;23416388888;23916388888
4181;23566849000;23416388888;23916388888
4182;23566851000;23416388888;23916388888
4183;23608397000;23457700000;23957700000
4190;23608597000;23457722222;23957722222
4191;23608613000;23458011111;23958011111
4192;23608636000;23458011111;23958011111
4193;23608638000;23458011111;23958011111
4194;23650055000;23499366666;23999366666
4202;23650174000;23499688888;23999688888
4203;23650198000;23499688888;23999688888
4204;23650200000;23499688888;23999688888
4205;23691713000;23541033333;24041033333
4211;23691737000;23541033333;24041033333
4212;23691964000;23541044444;24041044444
4213;23691971000;23541366666;24041366666
4214;23691994000;23541366666;24041366666
4215;23691995000;23541366666;24041366666
4216;23733378000;23582700000;24082700000
4224;23733496000;23582988888;24082988888
4225;23733520000;23582988888;24082988888
4226;23733521000;23582988888;24082988888
4227;23775159000;23624400000;24124400000
4234;23775405000;23624422222;24124422222
4235;23775422000;23624688888;24124688888
4236;23775447000;23624688888;24124688888
4237;23775448000;23624688888;24124688888
4238;23816749000;23666066666;24166066666
4246;23816869000;23666411111;24166411111
4247;23816894000;23666411111;24166411111
4248;23816896000;23666411111;24166411111
4249;23858412000;23707733333;24207733333
4255;23858436000;23707733333;24207733333
4256;23858619000;23707755555;24207755555
4257;23858636000;23708033333;24208033333
4258;23858660000;23708033333;24208033333
4259;23858662000;23708033333;24208033333
4260;23900079000;23749400000;24249400000
4268;23900198000;23749711111;24249711111
4269;23900232000;23749711111;24249711111
4270;23900234000;23749711111;24249711111
4271;23941747000;23791066666;24291066666
4279;23941869000;23791400000;24291400000
4280;23941873000;23791400000;24291400000
4281;23941874000;23791400000;24291400000
4282;23983410000;23832733333;24332733333
4287;23983437000;23832733333;24332733333
4288;23983439000;23832733333;24332733333
4289;23983625000;23832755555;24332755555
4290;23983649000;23833044444;24333044444
4291;23983654000;23833044444;24333044444
4292;23983665000;23833044444;24333044444
4293;24025074000;23874400000;24374400000
4301;24025191000;23874700000;24374700000
4302;24025215000;23874700000;24374700000
4303;24025217000;23874700000;24374700000
4304;24066746000;23916066666;24416066666
4312;24066865000;23916400000;24416400000
4313;24066889000;23916400000;24416400000
4314;24066891000;23916400000;24416400000
4315;24108412000;23957733333;24457733333
4322;24108621000;23957755555;24457755555
4323;24108637000;23958044444;24458044444
4324;24108661000;23958044444;24458044444
4325;24108662000;23958044444;24458044444
4326;24153749000;23999400000;24499400000
4334;24153939000;23999700000;24499700000
4335;24153960000;23999700000;24499700000
4336;24153963000;23999700000;24499700000
4337;24191728000;24041066666;24541066666
4345;24191847000;24041388888;24541388888
4346;24191871000;24041388888;24541388888
4347;24191873000;24041388888;24541388888
4348;24233410000;24082733333;24582733333
4356;24233511000;24083044444;24583044444
4357;24233530000;24083044444;24583044444
4358;24233542000;24083044444;24583044444
4359;24275096000;24124400000;24624400000
4367;24275195000;24124700000;24624700000
4368;24275213000;24124700000;24624700000
4369;24275215000;24124700000;24624700000
4370;24316738000;24166066666;24666066666
4378;24316863000;24166411111;24666411111
4379;24316883000;24166411111;24666411111
4380;24316885000;24166411111;24666411111
4381;24358434000;24207733333;24707733333
4389;24358535000;24208044444;24708044444
4390;24358547000;24208044444;24708044444
4391;24358548000;24208044444;24708044444
4392;24400084000;24249400000;24749400000
4393;24400110000;24249400000;24749400000
4394;24400112000;24249400000;24749400000
4395;24400113000;24249400000;24749400000
4396;24400114000;24249400000;24749400000
4397;24400116000;24249400000;24749400000
4398;24400117000;24249400000;24749400000
4399;24400352000;24249422222;24749422222
4400;24400356000;24249733333;24749733333
4401;24400374000;24249733333;24749733333
4402;24400375000;24249733333;24749733333
4403;24441754000;24291066666;24791066666
4411;24441972000;24291388888;24791388888
4412;24441983000;24291388888;24791388888
4413;24441992000;24291388888;24791388888
4414;24483388000;24332733333;24832733333
4422;24483505000;24333033333;24833033333
4423;24483525000;24333033333;24833033333
4424;24483527000;24333033333;24833033333
4425;24525072000;24374400000;24874400000
4433;24525157000;24374688888;24874688888
4434;24525176000;24374688888;24874688888
4435;24525177000;24374688888;24874688888
4436;24566723000;24416066666;24916066666
4444;24566840000;24416411111;24916411111
4445;24566860000;24416411111;24916411111
4446;24566861000;24416411111;24916411111
4447;24608270000;24457733333;24957733333
4455;24608579000;24458044444;24958044444
4456;24608604000;24458044444;24958044444
4457;24608605000;24458044444;24958044444
4458;24650068000;24499400000;24999400000
4466;24650223000;24499711111;24999711111
4467;24650226000;24499711111;24999711111
4468;24650227000;24499711111;24999711111
4469;24691772000;24541066666;25041066666
4470;24691799000;24541066666;25041066666
4471;24691801000;24541066666;25041066666
4474;24691803000;24541066666;25041066666
4475;24691804000;24541066666;25041066666
4476;24692036000;24541088888;25041088888
4477;24692091000;24541411111;25041411111
4478;24692098000;24541411111;25041411111
4479;24692099000;24541411111;25041411111
4480;24733436000;24582733333;25082733333
4488;24733554000;24583011111;25083011111
4489;24733558000;24583011111;25083011111
4490;24733580000;24583011111;25083011111
4494;24774909000;24624388888;25124388888
4498;24775153000;24624411111;25124411111
4499;24775177000;24624666666;25124666666
4500;24775201000;24624666666;25124666666
4501;24775202000;24624666666;25124666666
4502;24816709000;24666033333;25166033333
4509;24816918000;24666055555;25166055555
4510;24816935000;24666366666;25166366666
4511;24816958000;24666366666;25166366666
4512;24816960000;24666366666;25166366666
4513;24858237000;24707700000;25207700000
4520;24858446000;24707722222;25207722222
4521;24858462000;24707988888;25207988888
4522;24858463000;24707988888;25207988888
4523;24858464000;24707988888;25207988888
4524;24900068000;24749400000;25249400000
4532;24900206000;24749688888;25249688888
4533;24900209000;24749688888;25249688888
4534;24900235000;24749688888;25249688888
4535;24941740000;24791066666;25291066666
4543;24941826000;24791377777;25291377777
4544;24941829000;24791377777;25291377777
4545;24941830000;24791377777;25291377777
4546;24983322000;24832733333;25332733333
4549;24983369000;24832733333;25332733333
4550;24983371000;24832733333;25332733333
4551;24983373000;24832733333;25332733333
4552;24983375000;24832733333;25332733333
4553;24983619000;24832755555;25332755555
4554;24983661000;24833022222;25333022222
4555;24983663000;24833022222;25333022222
4556;24983680000;24833022222;25333022222
4557;25025115000;24874400000;25374400000
4561;25025143000;24874400000;25374400000
4562;25025144000;24874400000;25374400000
4563;25025146000;24874400000;25374400000
4564;25025382000;24874422222;25374422222
4565;25025421000;24874677777;25374677777
4566;25025423000;24874677777;25374677777
4567;25025424000;24874677777;25374677777
4568;25066731000;24916055555;25416055555
4569;25066759000;24916055555;25416055555
4570;25066761000;24916055555;25416055555
4571;25066762000;24916055555;25416055555
4572;25066764000;24916055555;25416055555
4573;25066765000;24916055555;25416055555
4574;25066766000;24916055555;25416055555
4575;25066998000;24916077777;25416077777
4576;25067036000;24916388888;25416388888
4577;25067056000;24916388888;25416388888
4578;25067058000;24916388888;25416388888
4579;25108386000;24957700000;25457700000
4587;25108485000;24958000000;25458000000
4588;25108504000;24958000000;25458000000
4589;25108505000;24958000000;25458000000
4590;25150063000;24999366666;25499366666
4598;25150162000;24999655555;25499655555
4599;25150181000;24999655555;25499655555
4600;25150193000;24999655555;25499655555
4601;25191734000;25041033333;25541033333
4607;25191757000;25041033333;25541033333
4608;25191943000;25041055555;25541055555
4609;25191947000;25041355555;25541355555
4610;25191966000;25041355555;25541355555
4611;25191967000;25041355555;25541355555
4612;25233387000;25082700000;25582700000
4620;25233486000;25082977777;25582977777
4621;25233505000;25082977777;25582977777
4622;25233516000;25082977777;25582977777
4623;25275097000;25124400000;25624400000
4631;25275196000;25124666666;25624666666
4632;25275215000;25124666666;25624666666
4633;25275216000;25124666666;25624666666
4634;25316753000;25166066666;25666066666
4642;25316852000;25166388888;25666388888
4643;25316871000;25166388888;25666388888
4644;25316882000;25166388888;25666388888
4645;25359326000;25207733333;25707733333
4653;25359533000;25208022222;25708022222
4654;25359557000;25208022222;25708022222
4655;25359560000;25208022222;25708022222
4656;25400076000;25249400000;25749400000
4664;25400187000;25249711111;25749711111
4665;25400217000;25249711111;25749711111
4666;25400219000;25249711111;25749711111
4667;25441736000;25291066666;25791066666
4675;25441862000;25291366666;25791366666
4676;25441881000;25291366666;25791366666
4677;25441883000;25291366666;25791366666
4678;25483409000;25332733333;25832733333
4686;25483528000;25333011111;25833011111
4687;25483552000;25333011111;25833011111
4688;25483554000;25333011111;25833011111
4689;25525097000;25374400000;25874400000
4697;25525217000;25374666666;25874666666
4698;25525242000;25374666666;25874666666
4699;25525243000;25374666666;25874666666
4700;25566737000;25416066666;25916066666
4708;25566862000;25416388888;25916388888
4709;25566881000;25416388888;25916388888
4710;25566882000;25416388888;25916388888
4711;25608408000;25457733333;25957733333
4719;25608536000;25458022222;25958022222
4720;25608560000;25458022222;25958022222
4721;25608562000;25458022222;25958022222
4722;25650098000;25499400000;25999400000
4730;25650216000;25499688888;25999688888
4731;25650241000;25499688888;25999688888
4732;25650242000;25499688888;25999688888
4733;25691767000;25541066666;26041066666
4741;25691885000;25541388888;26041388888
4742;25691909000;25541388888;26041388888
4743;25691910000;25541388888;26041388888
4744;25733393000;25582733333;26082733333
4751;25733779000;25582755555;26082755555
4752;25733793000;25583044444;26083044444
4753;25733802000;25583044444;26083044444
4754;25733813000;25583044444;26083044444
4755;25774903000;25624388888;26124388888
4762;25775098000;25624411111;26124411111
4763;25775102000;25624688888;26124688888
4764;25775122000;25624688888;26124688888
4765;25775132000;25624688888;26124688888
4766;25816478000;25666033333;26166033333
4774;25816886000;25666400000;26166400000
4775;25816905000;25666400000;26166400000
4776;25816906000;25666400000;26166400000
4777;25858385000;25707700000;26207700000
4784;25858593000;25707722222;26207722222
4785;25858597000;25708011111;26208011111
4786;25858615000;25708011111;26208011111
4787;25858616000;25708011111;26208011111
4790;25899934000;25749400000;26249400000
4796;25900250000;25749722222;26249722222
4797;25900275000;25749722222;26249722222
4798;25900276000;25749722222;26249722222
4799;25941758000;25791066666;26291066666
4807;25941877000;25791411111;26291411111
4808;25941881000;25791411111;26291411111
4809;25941903000;25791411111;26291411111
4810;25983438000;25832733333;26332733333
4818;25983557000;25833044444;26333044444
4819;25983582000;25833044444;26333044444
4820;25983583000;25833044444;26333044444
4821;26025076000;25874400000;26374400000
4829;26025194000;25874711111;26374711111
4830;26025219000;25874711111;26374711111
4831;26025220000;25874711111;26374711111
4832;26066746000;25916066666;26416066666
4840;26066865000;25916411111;26416411111
4841;26066890000;25916411111;26416411111
4842;26066892000;25916411111;26416411111
4843;26108411000;25957733333;26457733333
4851;26108527000;25958044444;26458044444
4852;26108551000;25958044444;26458044444
4853;26108553000;25958044444;26458044444
4854;26150140000;25999411111;26499411111
4862;26150296000;25999733333;26499733333
4863;26150325000;25999733333;26499733333
4864;26150328000;25999733333;26499733333
4865;26191636000;26041066666;26541066666
4872;26191868000;26041088888;26541088888
4873;26191885000;26041400000;26541400000
4874;26191910000;26041400000;26541400000
4875;26191912000;26041400000;26541400000
4876;26233190000;26082733333;26582733333
4882;26233226000;26082733333;26582733333
4883;26233352000;26082755555;26582755555
4884;26233363000;26083044444;26583044444
4885;26233383000;26083044444;26583044444
4886;26233385000;26083044444;26583044444
4887;26274953000;26124388888;26624388888
4895;26275207000;26124700000;26624700000
4896;26275211000;26124700000;26624700000
4897;26275212000;26124700000;26624700000
4900;26316563000;26166033333;26666033333
4906;26316936000;26166400000;26666400000
4907;26316964000;26166400000;26666400000
4908;26316965000;26166400000;26666400000
4909;26358382000;26207700000;26707700000
4917;26358501000;26208044444;26708044444
4918;26358526000;26208044444;26708044444
4919;26358527000;26208044444;26708044444
4920;26400072000;26249377777;26749377777
4928;26400217000;26249722222;26749722222
4929;26400221000;26249722222;26749722222
4930;26400222000;26249722222;26749722222
4931;26441559000;26291033333;26791033333
4933;26441586000;26291033333;26791033333
4934;26441588000;26291033333;26791033333
4935;26441589000;26291033333;26791033333
4936;26441590000;26291033333;26791033333
4937;26441592000;26291033333;26791033333
4938;26441818000;26291055555;26791055555
4939;26441846000;26291366666;26791366666
4940;26441853000;26291366666;26791366666
4941;26441854000;26291366666;26791366666
4942;26483378000;26332700000;26832700000
4950;26483504000;26333000000;26833000000
4951;26483523000;26333000000;26833000000
4952;26483525000;26333000000;26833000000
4953;26525072000;26374366666;26874366666
4961;26525182000;26374655555;26874655555
4962;26525201000;26374655555;26874655555
4963;26525212000;26374655555;26874655555
4964;26566781000;26416033333;26916033333
4972;26566942000;26416377777;26916377777
4973;26566966000;26416377777;26916377777
4974;26566971000;26416377777;26916377777
4975;26608383000;26457700000;26957700000
4983;26608530000;26458033333;26958033333
4984;26608534000;26458033333;26958033333
4985;26608560000;26458033333;26958033333
4986;26650068000;26499377777;26999377777
4994;26650198000;26499711111;26999711111
4995;26650202000;26499711111;26999711111
4996;26650224000;26499711111;26999711111
4997;26691743000;26541044444;27041044444
5005;26691863000;26541400000;27041400000
5006;26691887000;26541400000;27041400000
5007;26691889000;26541400000;27041400000
5008;26733382000;26582700000;27082700000
5016;26733500000;26583011111;27083011111
5017;26733524000;26583011111;27083011111
5018;26733526000;26583011111;27083011111
5019;26774942000;26624400000;27124400000
5026;26775160000;26624422222;27124422222
5027;26775176000;26624688888;27124688888
5028;26775200000;26624688888;27124688888
5029;26775201000;26624688888;27124688888
5030;26816750000;26666066666;27166066666
5038;26816868000;26666411111;27166411111
5039;26816892000;26666411111;27166411111
5040;26816894000;26666411111;27166411111
5041;26858432000;26707733333;27207733333
5049;26858551000;26708022222;27208022222
5050;26858555000;26708022222;27208022222
5051;26858577000;26708022222;27208022222
5052;26900071000;26749400000;27249400000
5060;26900199000;26749711111;27249711111
5061;26900222000;26749711111;27249711111
5062;26900224000;26749711111;27249711111
5063;26941766000;26791066666;27291066666
5071;26941884000;26791400000;27291400000
5072;26941909000;26791400000;27291400000
5073;26941910000;26791400000;27291400000
5074;26983415000;26832733333;27332733333
5081;26983621000;26832755555;27332755555
5082;26983628000;26833044444;27333044444
5083;26983651000;26833044444;27333044444
5084;26983653000;26833044444;27333044444
5085;27025064000;26874400000;27374400000
5093;27025145000;26874700000;27374700000
5094;27025164000;26874700000;27374700000
5095;27025165000;26874700000;27374700000
5096;27066560000;26916066666;27416066666
5103;27066759000;26916088888;27416088888
5104;27066762000;26916400000;27416400000
5105;27066763000;26916400000;27416400000
5106;27066764000;26916400000;27416400000
5107;27108379000;26957733333;27457733333
5115;27108498000;26958033333;27458033333
5116;27108500000;26958033333;27458033333
5117;27108502000;26958033333;27458033333
5118;27150069000;26999400000;27499400000
5120;27150081000;26999400000;27499400000
5122;27150083000;26999400000;27499400000
5123;27150084000;26999400000;27499400000
5124;27150085000;26999400000;27499400000
5125;27150236000;26999422222;27499422222
5126;27150245000;26999688888;27499688888
5127;27150249000;26999688888;27499688888
5128;27150251000;26999688888;27499688888
5129;27191567000;27041066666;27541066666
5137;27191924000;27041388888;27541388888
5138;27191936000;27041388888;27541388888
5139;27191943000;27041388888;27541388888
5140;27233377000;27082700000;27582700000
5148;27233502000;27083011111;27583011111
5149;27233521000;27083011111;27583011111
5150;27233523000;27083011111;27583011111
5151;27274922000;27124400000;27624400000
5159;27275211000;27124688888;27624688888
5160;27275230000;27124688888;27624688888
5161;27275232000;27124688888;27624688888
5162;27316761000;27166066666;27666066666
5170;27316859000;27166411111;27666411111
5171;27316878000;27166411111;27666411111
5172;27316890000;27166411111;27666411111
5173;27360600000;27207733333;27707733333
5180;27360883000;27207755555;27707755555
5181;27360904000;27208044444;27708044444
5182;27360928000;27208044444;27708044444
5183;27360930000;27208044444;27708044444
5184;27400100000;27249400000;27749400000
5192;27400222000;27249733333;27749733333
5193;27400247000;27249733333;27749733333
5194;27400249000;27249733333;27749733333
5195;27441750000;27291066666;27791066666
5203;27441869000;27291388888;27791388888
5204;27441894000;27291388888;27791388888
5205;27441896000;27291388888;27791388888
5206;27483427000;27332744444;27832744444
5214;27483547000;27333044444;27833044444
5215;27483571000;27333044444;27833044444
5216;27483573000;27333044444;27833044444
5217;27524932000;27374388888;27874388888
5225;27525198000;27374688888;27874688888
5226;27525201000;27374688888;27874688888
5227;27525203000;27374688888;27874688888
5228;27566725000;27416044444;27916044444
5230;27566752000;27416044444;27916044444
5231;27566753000;27416044444;27916044444
5232;27566754000;27416044444;27916044444
5233;27566756000;27416044444;27916044444
5234;27566767000;27416044444;27916044444
5235;27567004000;27416055555;27916055555
5236;27567032000;27416400000;27916400000
5237;27567075000;27416400000;27916400000
5238;27567076000;27416400000;27916400000
5239;27608227000;27457700000;27957700000
5247;27608530000;27458022222;27958022222
5248;27608555000;27458022222;27958022222
5249;27608556000;27458022222;27958022222
5250;27650106000;27499400000;27999400000
5258;27650226000;27499711111;27999711111
5259;27650254000;27499711111;27999711111
5260;27650256000;27499711111;27999711111
5261;27691761000;27541066666;28041066666
5269;27691881000;27541411111;28041411111
5270;27691910000;27541411111;28041411111
5271;27691911000;27541411111;28041411111
5272;27733431000;27582733333;28082733333
5280;27733550000;27583044444;28083044444
5281;27733574000;27583044444;28083044444
5282;27733575000;27583044444;28083044444
5283;27775149000;27624400000;28124400000
5291;27775291000;27624688888;28124688888
5292;27775317000;27624688888;28124688888
5293;27775319000;27624688888;28124688888
5294;27816748000;27666066666;28166066666
5302;27816887000;27666411111;28166411111
5303;27816914000;27666411111;28166411111
5304;27816916000;27666411111;28166411111
5305;27858426000;27707744444;28207744444
5313;27858544000;27708033333;28208033333
5314;27858569000;27708033333;28208033333
5315;27858570000;27708033333;28208033333
5316;27899942000;27749400000;28249400000
5324;27900222000;27749711111;28249711111
5325;27900246000;27749711111;28249711111
5326;27900248000;27749711111;28249711111
5327;27941748000;27791066666;28291066666
5335;27941866000;27791400000;28291400000
5336;27941891000;27791400000;28291400000
5337;27941892000;27791400000;28291400000
5338;27983416000;27832733333;28332733333
5346;27983533000;27833044444;28333044444
5347;27983557000;27833044444;28333044444
5348;27983558000;27833044444;28333044444
5349;28025107000;27874400000;28374400000
5357;28025226000;27874700000;28374700000
5358;28025250000;27874700000;28374700000
5359;28025251000;27874700000;28374700000
5360;28066760000;27916077777;28416077777
5368;28066878000;27916422222;28416422222
5369;28066902000;27916422222;28416422222
5370;28066904000;27916422222;28416422222
5371;28108402000;27957722222;28457722222
5379;28108543000;27958033333;28458033333
5380;28108567000;27958033333;28458033333
5381;28108569000;27958033333;28458033333
5382;28150067000;27999377777;28499377777
5390;28150207000;27999677777;28499677777
5391;28150232000;27999677777;28499677777
5392;28150234000;27999677777;28499677777
5393;28191713000;28041033333;28541033333
5402;28191939000;28041366666;28541366666
5403;28191961000;28041366666;28541366666
5404;28233396000;28082700000;28582700000
5412;28233515000;28083022222;28583022222
5413;28233539000;28083022222;28583022222
5414;28233541000;28083022222;28583022222
5415;28275071000;28124366666;28624366666
5423;28275212000;28124655555;28624655555
5424;28275236000;28124655555;28624655555
5425;28275238000;28124655555;28624655555
5426;28316742000;28166044444;28666044444
5434;28316860000;28166388888;28666388888
5435;28316884000;28166388888;28666388888
5436;28316886000;28166388888;28666388888
5437;28358397000;28207700000;28707700000
5445;28358518000;28208022222;28708022222
5446;28358522000;28208022222;28708022222
5447;28358523000;28208022222;28708022222
5448;28400082000;28249366666;28749366666
5449;28400110000;28249366666;28749366666
5450;28400112000;28249366666;28749366666
5451;28400113000;28249366666;28749366666
5453;28400114000;28249366666;28749366666
5454;28400116000;28249366666;28749366666
5455;28400356000;28249388888;28749388888
5456;28400380000;28249688888;28749688888
5457;28400404000;28249688888;28749688888
5458;28400405000;28249688888;28749688888
5461;28441557000;28291033333;28791033333
5467;28441855000;28291355555;28791355555
5468;28441879000;28291355555;28791355555
5469;28441880000;28291355555;28791355555
5470;28483379000;28332700000;28832700000
5478;28483522000;28332988888;28832988888
5479;28483546000;28332988888;28832988888
5480;28483548000;28332988888;28832988888
5481;28524903000;28374366666;28874366666
5489;28525107000;28374644444;28874644444
5490;28525126000;28374644444;28874644444
5491;28525127000;28374644444;28874644444
5492;28566797000;28416033333;28916033333
5493;28566808000;28416033333;28916033333
5494;28566809000;28416033333;28916033333
5495;28566811000;28416033333;28916033333
5496;28566813000;28416033333;28916033333
5497;28566815000;28416033333;28916033333
5498;28566817000;28416033333;28916033333
5499;28567026000;28416044444;28916044444
