seqnum;now;rtptime;deadline
1;6250587000;6061322222;6561322222
7;6416497000;6092633333;6592633333
59;6950093000;6301000000;6801000000
201;7105758000;6842633333;7342633333
245;7262071000;7009300000;7509300000
289;7440025000;7175966666;7675966666
333;7594296000;7342633333;7842633333
377;7717554000;7509300000;8009300000
410;7785011000;7634300000;8134300000
421;7818395000;7675966666;8175966666
432;8047864000;7717633333;8217633333
487;8113591000;7925966666;8425966666
509;8146421000;8009300000;8509300000
520;8168743000;8050977777;8550977777
521;8168746000;8050977777;8550977777
522;8168747000;8050977777;8550977777
523;8168748000;8050977777;8550977777
524;8168749000;8050977777;8550977777
525;8168753000;8050977777;8550977777
526;8168754000;8050977777;8550977777
527;8168957000;8051055555;8551055555
528;8168972000;8051355555;8551355555
529;8168973000;8051355555;8551355555
530;8168974000;8051355555;8551355555
531;8303521000;8092633333;8592633333
564;8409070000;8217633333;8717633333
586;8473558000;8300966666;8800966666
608;8676029000;8384300000;8884300000
663;8784368000;8592633333;9092633333
685;8887563000;8675966666;9175966666
718;8993732000;8800966666;9300966666
739;9054295000;8843011111;9343011111
762;9178517000;8967666666;9467666666
795;9288784000;9092633333;9592633333
817;9428373000;9175966666;9675966666
861;9600073000;9342633333;9842633333
905;9676985000;9509311111;10009311111
927;9820714000;9592633333;10092633333
960;9962629000;9717633333;10217633333
993;10039756000;9842633333;10342633333
1015;10090649000;9925966666;10425966666
1035;10221616000;9968000000;10468000000
1070;10356649000;10134300000;10634300000
1103;10538785000;10259300000;10759300000
1147;10622296000;10425966666;10925966666
1169;10754505000;10509300000;11009300000
1202;10954019000;10634300000;11134300000
1257;11109022000;10842633333;11342633333
1301;11221147000;11009300000;11509300000
1334;11283255000;11134300000;11634300000
1345;11386731000;11175966666;11675966666
1378;11559719000;11300966666;11800966666
1422;11714248000;11467633333;11967633333
1456;11800802000;11592633333;12092633333
1488;12010212000;11717633333;12217633333
1543;12117880000;11925966666;12425966666
1565;12256148000;12009300000;12509300000
1598;12339084000;12134300000;12634300000
1620;12383151000;12217633333;12717633333
1642;12582957000;12300966666;12800966666
1686;12708826000;12467644444;12967644444
1719;12803374000;12592633333;13092633333
1752;12912417000;12717633333;13217633333
1774;12974987000;12800966666;13300966666
1796;13164471000;12884300000;13384300000
1840;13239010000;13050966666;13550966666
1862;13345426000;13134300000;13634300000
1895;13457478000;13259300000;13759300000
1917;13691143000;13342633333;13842633333
1983;13766674000;13592633333;14092633333
2005;13956606000;13675966666;14175966666
2049;14092481000;13842633333;14342633333
2093;14216621000;14009300000;14509300000
2126;14400101000;14134300000;14634300000
2170;14581561000;14300966666;14800966666
2214;14662700000;14467633333;14967633333
2236;14696277000;14550966666;15050966666
2247;14713440000;14592633333;15092633333
2248;14713444000;14592633333;15092633333
2249;14713445000;14592633333;15092633333
2250;14713447000;14592633333;15092633333
2251;14713448000;14592633333;15092633333
2252;14713450000;14592633333;15092633333
2253;14713451000;14592633333;15092633333
2254;14720999000;14592722222;15092722222
2258;14721004000;14634300000;15134300000
2259;14721005000;14634300000;15134300000
2260;14721006000;14634300000;15134300000
2261;14721007000;14634300000;15134300000
2262;14721008000;14634300000;15134300000
2263;14721009000;14634300000;15134300000
2264;14721011000;14634300000;15134300000
2265;14748540000;14634388888;15134388888
2266;14748555000;14634744444;15134744444
2267;14748557000;14634744444;15134744444
2268;14748557000;14634744444;15134744444
2269;14886850000;14675966666;15175966666
2302;15063453000;14800966666;15300966666
2346;15245984000;14967633333;15467633333
2390;15322509000;15134300000;15634300000
2412;15428348000;15217633333;15717633333
2445;15535295000;15342633333;15842633333
2467;15704695000;15425966666;15925966666
2511;15784624000;15592633333;16092633333
2533;15956223000;15675977777;16175977777
2577;16023295000;15842633333;16342633333
2599;16136480000;15925966666;16425966666
2632;16254411000;16050966666;16550966666
2654;16307653000;16134300000;16634300000
2676;16365482000;16217633333;16717633333
2687;16394219000;16259300000;16759300000
2698;16512822000;16300966666;16800966666
2731;16622603000;16425966666;16925966666
2753;16787562000;16509300000;17009300000
2797;16870736000;16675966666;17175966666
2819;16970203000;16759300000;17259300000
2852;17096766000;16884300000;17384300000
2885;17171418000;17009300000;17509300000
2896;17261657000;17050977777;17550977777
2929;17371990000;17175966666;17675966666
2951;17456531000;17259300000;17759300000
2973;17491880000;17342633333;17842633333
2984;17518916000;17384300000;17884300000
2995;17548905000;17425966666;17925966666
3005;17597042000;17426333333;17926333333
3017;17801207000;17509300000;18009300000
3072;17995292000;17717633333;18217633333
3116;18077714000;17884300000;18384300000
3138;18110264000;17967633333;18467633333
3149;18233672000;18009300000;18509300000
3182;18368957000;18134300000;18634300000
3215;18448189000;18259300000;18759300000
3237;18492078000;18342633333;18842633333
3248;18679826000;18384300000;18884300000
3303;18777980000;18592633333;19092633333
3325;19042497000;18675966666;19175966666
3391;19189077000;18925966666;19425966666
3435;19344847000;19092644444;19592644444
3479;19459939000;19259311111;19759311111
3501;19509077000;19342633333;19842633333
3523;19634217000;19425966666;19925966666
3556;19838440000;19550966666;20050966666
3600;19908895000;19717633333;20217633333
3622;20012157000;19800966666;20300966666
3655;20121683000;19925966666;20425966666
3677;20183067000;20009300000;20509300000
3699;20234846000;20092633333;20592633333
3710;20263875000;20134300000;20634300000
3721;20387503000;20175966666;20675966666
3754;20496065000;20300966666;20800966666
3776;20557215000;20384300000;20884300000
3798;20720675000;20467633333;20967633333
3842;20841083000;20634300000;21134300000
3875;20970984000;20759300000;21259300000
3908;21084689000;20884300000;21384300000
3930;21144057000;20967633333;21467633333
3952;21199213000;21050966666;21550966666
3963;21303973000;21092633333;21592633333
3996;21481295000;21217633333;21717633333
4040;21555410000;21384300000;21884300000
4062;21759951000;21467633333;21967633333
4117;21863394000;21675966666;22175966666
4139;21971137000;21759300000;22259300000
4172;22170079000;21884300000;22384300000
4216;22265491000;22050966666;22550966666
4249;22421906000;22175966666;22675966666
4284;22506519000;22300966666;22800966666
4304;22550353000;22384300000;22884300000
4326;22598188000;22467633333;22967633333
4337;22762207000;22509300000;23009300000
4381;22883637000;22675966666;23175966666
4414;23170511000;22800966666;23300966666
4480;23262531000;23050977777;23550977777
4513;23372276000;23175977777;23675977777
4535;23444616000;23259300000;23759300000
4557;23614902000;23342633333;23842633333
4601;23880111000;23509300000;24009300000
4665;24013461000;23718000000;24218000000
4711;24186781000;23925966666;24425966666
4755;24356515000;24092666666;24592666666
4799;24422514000;24259300000;24759300000
4810;24553238000;24300966666;24800966666
4854;24740451000;24467633333;24967633333
4898;24816391000;24634300000;25134300000
4920;24929263000;24717633333;25217633333
4953;25039501000;24842633333;25342633333
4975;25101747000;24925966666;25425966666
4997;25159297000;25009311111;25509311111
5008;25261760000;25050966666;25550966666
5041;25372761000;25175966666;25675966666
5063;25538034000;25259300000;25759300000
5107;25679021000;25425966666;25925966666
5151;25801601000;25592655555;26092655555
5184;25928366000;25717633333;26217633333
5217;26104026000;25842644444;26342644444
5261;26180949000;26009300000;26509300000
5283;26364503000;26092633333;26592633333
5327;26533896000;26259300000;26759300000
5371;26716830000;26425966666;26925966666
5426;26884506000;26634300000;27134300000
5470;26939655000;26800966666;27300966666
5481;27073564000;26842633333;27342633333
5482;27073574000;26842633333;27342633333
5483;27073576000;26842633333;27342633333
5484;27073601000;26842633333;27342633333
5485;27073603000;26842633333;27342633333
5486;27073605000;26842633333;27342633333
5487;27073606000;26842633333;27342633333
5488;27073803000;26842711111;27342711111
5489;27073810000;26843011111;27343011111
5490;27073811000;26843011111;27343011111
5491;27073814000;26843011111;27343011111
5492;27094753000;26884300000;27384300000
5493;27094764000;26884300000;27384300000
5494;27094766000;26884300000;27384300000
5495;27094767000;26884300000;27384300000
5496;27094769000;26884300000;27384300000
5497;27094771000;26884300000;27384300000
5498;27094772000;26884300000;27384300000
5499;27094985000;26884388888;27384388888
