seqnum;now;rtptime;deadline
0;28229066000;27448388888;27948388888
1;28229071000;27448388888;27948388888
2;28229072000;27448388888;27948388888
3;28260175000;27479644444;27979644444
4;28478740000;27479644444;27979644444
5;28478743000;27479644444;27979644444
6;28478752000;27479644444;27979644444
7;28478753000;27479644444;27979644444
8;28478757000;27479644444;27979644444
9;28478758000;27479644444;27979644444
10;28555804000;27479666666;27979666666
11;28555809000;27480000000;27980000000
12;28778869000;27480000000;27980000000
13;28778872000;27480000000;27980000000
14;28829274000;27521333333;28021333333
15;28829278000;27521333333;28021333333
16;28829279000;27521333333;28021333333
17;28829280000;27521333333;28021333333
19;28829281000;27521333333;28021333333
20;28829282000;27521333333;28021333333
21;28829481000;27521344444;28021344444
22;28829496000;27521744444;28021744444
23;28829497000;27521744444;28021744444
24;28829498000;27521744444;28021744444
25;28870835000;27562955555;28062955555
28;29078994000;27562955555;28062955555
29;29078998000;27562955555;28062955555
30;29079003000;27562955555;28062955555
31;29079016000;27562955555;28062955555
32;29129500000;27562977777;28062977777
33;29129515000;27563300000;28063300000
34;29129516000;27563300000;28063300000
35;29129517000;27563300000;28063300000
36;29170969000;27604600000;28104600000
37;29170973000;27604600000;28104600000
38;29170974000;27604600000;28104600000
39;29170974000;27604600000;28104600000
40;29170975000;27604600000;28104600000
41;29170976000;27604600000;28104600000
42;29170978000;27604600000;28104600000
43;29171180000;27604611111;28104611111
44;29171195000;27604933333;28104933333
45;29171196000;27604933333;28104933333
46;29171197000;27604933333;28104933333
47;29212566000;27646333333;28146333333
48;29379112000;27646333333;28146333333
49;29379115000;27646333333;28146333333
50;29379116000;27646333333;28146333333
51;29379133000;27646333333;28146333333
52;29379134000;27646333333;28146333333
53;29379135000;27646333333;28146333333
54;29435032000;27646344444;28146344444
57;29435041000;27646655555;28146655555
58;29471183000;27688000000;28188000000
59;29471191000;27688000000;28188000000
60;29471193000;27688000000;28188000000
61;29471195000;27688000000;28188000000
62;29471206000;27688000000;28188000000
63;29471208000;27688000000;28188000000
65;29471417000;27688011111;28188011111
66;29471433000;27688311111;28188311111
67;29471434000;27688311111;28188311111
68;29471436000;27688311111;28188311111
69;29517978000;27729600000;28229600000
71;29679242000;27729600000;28229600000
72;29679245000;27729600000;28229600000
73;29679247000;27729600000;28229600000
74;29679265000;27729600000;28229600000
75;29679266000;27729600000;28229600000
79;29729720000;27729944444;28229944444
80;29770917000;27771255555;28271255555
81;29770920000;27771255555;28271255555
82;29770921000;27771255555;28271255555
84;29770922000;27771255555;28271255555
85;29770923000;27771255555;28271255555
86;29770925000;27771255555;28271255555
87;29771135000;27771266666;28271266666
88;29771150000;27771577777;28271577777
89;29771151000;27771577777;28271577777
90;29771152000;27771577777;28271577777
91;29812515000;27813000000;28313000000
92;29812519000;27813000000;28313000000
93;29812520000;27813000000;28313000000
94;29812521000;27813000000;28313000000
96;29812522000;27813000000;28313000000
97;29812523000;27813000000;28313000000
98;29812725000;27813022222;28313022222
99;29812740000;27813311111;28313311111
100;29979344000;27813311111;28313311111
101;29979346000;27813311111;28313311111
102;30029698000;27854666666;28354666666
113;30071329000;27896344444;28396344444
114;30071333000;27896344444;28396344444
116;30071334000;27896344444;28396344444
117;30071335000;27896344444;28396344444
118;30071336000;27896344444;28396344444
119;30071337000;27896344444;28396344444
120;30071537000;27896355555;28396355555
121;30071553000;27896655555;28396655555
122;30071554000;27896655555;28396655555
123;30071555000;27896655555;28396655555
124;30112816000;27938000000;28438000000
125;30112819000;27938000000;28438000000
126;30112820000;27938000000;28438000000
127;30112821000;27938000000;28438000000
128;30112835000;27938000000;28438000000
129;30112836000;27938000000;28438000000
131;30113037000;27938022222;28438022222
132;30279439000;27938333333;28438333333
135;30371317000;27979677777;28479677777
146;30412549000;28021311111;28521311111
147;30412553000;28021311111;28521311111
148;30412554000;28021311111;28521311111
149;30412555000;28021311111;28521311111
150;30412556000;28021311111;28521311111
151;30412557000;28021311111;28521311111
152;30412558000;28021311111;28521311111
153;30412757000;28021322222;28521322222
154;30412773000;28021633333;28521633333
155;30412774000;28021633333;28521633333
156;30412775000;28021633333;28521633333
157;30453502000;28063000000;28563000000
158;30453506000;28063000000;28563000000
159;30453507000;28063000000;28563000000
160;30453508000;28063000000;28563000000
161;30453509000;28063000000;28563000000
162;30453510000;28063000000;28563000000
163;30453511000;28063000000;28563000000
164;30453718000;28063011111;28563011111
165;30453733000;28063322222;28563322222
166;30453735000;28063322222;28563322222
167;30453736000;28063322222;28563322222
168;30630158000;28104666666;28604666666
184;30671711000;28146333333;28646333333
185;30671715000;28146333333;28646333333
186;30671917000;28146344444;28646344444
187;30671932000;28146633333;28646633333
188;30671933000;28146633333;28646633333
189;30671934000;28146633333;28646633333
190;30713163000;28187955555;28687955555
191;30713166000;28187955555;28687955555
194;30713313000;28187955555;28687955555
195;30713327000;28187955555;28687955555
196;30713329000;28187955555;28687955555
197;30713530000;28187977777;28687977777
198;30713545000;28188300000;28688300000
199;30713546000;28188300000;28688300000
200;30713547000;28188300000;28688300000
201;30754150000;28229666666;28729666666
202;30754154000;28229666666;28729666666
203;30754155000;28229666666;28729666666
204;30754156000;28229666666;28729666666
205;30754157000;28229666666;28729666666
206;30754158000;28229666666;28729666666
207;30879848000;28229666666;28729666666
208;30930285000;28229677777;28729677777
228;30930300000;28313000000;28813000000
229;30930302000;28313000000;28813000000
230;31013643000;28313011111;28813011111
231;31013658000;28313344444;28813344444
232;31013659000;28313344444;28813344444
233;31013660000;28313344444;28813344444
234;31054299000;28354666666;28854666666
235;31054302000;28354666666;28854666666
236;31054303000;28354666666;28854666666
237;31054304000;28354666666;28854666666
238;31054305000;28354666666;28854666666
239;31054306000;28354666666;28854666666
240;31054307000;28354666666;28854666666
241;31054533000;28354677777;28854677777
242;31054548000;28354944444;28854944444
243;31054550000;28354944444;28854944444
244;31054551000;28354944444;28854944444
245;31093999000;28396333333;28896333333
246;31094002000;28396333333;28896333333
247;31094003000;28396333333;28896333333
248;31094004000;28396333333;28896333333
249;31094005000;28396333333;28896333333
250;31094006000;28396333333;28896333333
251;31179986000;28396333333;28896333333
252;31230449000;28396344444;28896344444
274;31313657000;28479677777;28979677777
275;31313662000;28479955555;28979955555
276;31313664000;28479955555;28979955555
277;31313665000;28479955555;28979955555
278;31354432000;28521333333;29021333333
279;31354435000;28521333333;29021333333
280;31354436000;28521333333;29021333333
281;31354437000;28521333333;29021333333
282;31354439000;28521333333;29021333333
283;31354440000;28521333333;29021333333
284;31354441000;28521333333;29021333333
285;31354647000;28521344444;29021344444
287;31354662000;28521655555;29021655555
288;31354664000;28521655555;29021655555
289;31394073000;28562966666;29062966666
290;31394076000;28562966666;29062966666
291;31394077000;28562966666;29062966666
292;31394079000;28562966666;29062966666
293;31394080000;28562966666;29062966666
294;31394090000;28562966666;29062966666
295;31394091000;28562966666;29062966666
296;31394297000;28562988888;29062988888
297;31480021000;28563266666;29063266666
298;31480026000;28563266666;29063266666
299;31480031000;28563266666;29063266666
300;31571895000;28604600000;29104600000
338;31694225000;28729600000;29229600000
339;31694228000;28729600000;29229600000
340;31694434000;28729611111;29229611111
341;31694441000;28729900000;29229900000
342;31694451000;28729900000;29229900000
343;31694452000;28729900000;29229900000
344;31731424000;28771333333;29271333333
345;31731428000;28771333333;29271333333
346;31731429000;28771333333;29271333333
347;31731430000;28771333333;29271333333
348;31731431000;28771333333;29271333333
349;31731432000;28771333333;29271333333
350;31731433000;28771333333;29271333333
351;31731640000;28771344444;29271344444
352;31731655000;28771644444;29271644444
353;31731656000;28771644444;29271644444
354;31731657000;28771644444;29271644444
355;31765637000;28813000000;29313000000
356;31765641000;28813000000;29313000000
357;31765642000;28813000000;29313000000
358;31765643000;28813000000;29313000000
359;31765643000;28813000000;29313000000
360;31765645000;28813000000;29313000000
361;31780106000;28813000000;29313000000
362;31830590000;28813011111;29313011111
407;31830605000;28979877777;29479877777
408;31830606000;28979877777;29479877777
409;31830607000;28979877777;29479877777
410;32032566000;29021300000;29521300000
411;32032570000;29021300000;29521300000
412;32032571000;29021300000;29521300000
415;32032572000;29021300000;29521300000
416;32032573000;29021300000;29521300000
417;32032779000;29021322222;29521322222
418;32032794000;29021644444;29521644444
420;32032795000;29021644444;29521644444
421;32065991000;29063000000;29563000000
423;32065995000;29063000000;29563000000
424;32065996000;29063000000;29563000000
425;32065997000;29063000000;29563000000
426;32065998000;29063000000;29563000000
427;32065999000;29063000000;29563000000
428;32066208000;29063011111;29563011111
429;32066223000;29063311111;29563311111
430;32066224000;29063311111;29563311111
431;32066225000;29063311111;29563311111
434;32095956000;29104588888;29604588888
484;32186027000;29271644444;29771644444
488;32203491000;29313000000;29813000000
489;32203494000;29313000000;29813000000
490;32203495000;29313000000;29813000000
491;32203496000;29313000000;29813000000
492;32203497000;29313000000;29813000000
493;32203498000;29313000000;29813000000
494;32203702000;29313011111;29813011111
495;32203717000;29313311111;29813311111
496;32203718000;29313311111;29813311111
497;32203719000;29313311111;29813311111
498;32219471000;29354666666;29854666666
499;32219475000;29354666666;29854666666
500;32219476000;29354666666;29854666666
501;32219477000;29354666666;29854666666
504;32219701000;29354666666;29854666666
505;32219853000;29354677777;29854677777
506;32219856000;29354944444;29854944444
507;32219857000;29354944444;29854944444
508;32219858000;29354944444;29854944444
509;32236982000;29396288888;29896288888
510;32236984000;29396288888;29896288888
511;32236985000;29396288888;29896288888
512;32380461000;29396288888;29896288888
513;32380463000;29396288888;29896288888
514;32380464000;29396288888;29896288888
515;32380469000;29396288888;29896288888
516;32430961000;29396300000;29896300000
563;32430976000;29563255555;30063255555
564;32633018000;29604666666;30104666666
566;32633201000;29604666666;30104666666
567;32633203000;29604666666;30104666666
568;32633204000;29604666666;30104666666
569;32633205000;29604666666;30104666666
570;32633206000;29604666666;30104666666
571;32633414000;29604677777;30104677777
572;32633429000;29604944444;30104944444
573;32633431000;29604944444;30104944444
574;32633432000;29604944444;30104944444
575;32666414000;29646333333;30146333333
576;32666418000;29646333333;30146333333
577;32666419000;29646333333;30146333333
583;32666532000;29646655555;30146655555
584;32666536000;29646655555;30146655555
585;32666537000;29646655555;30146655555
586;32699332000;29688000000;30188000000
639;32783753000;29854855555;30354855555
643;32797174000;29896333333;30396333333
645;32797178000;29896333333;30396333333
648;32797377000;29896344444;30396344444
649;32797393000;29896633333;30396633333
650;32797394000;29896633333;30396633333
651;32797395000;29896633333;30396633333
652;32809725000;29938000000;30438000000
653;32809728000;29938000000;30438000000
654;32809738000;29938000000;30438000000
655;32809739000;29938000000;30438000000
656;32809740000;29938000000;30438000000
657;32809741000;29938000000;30438000000
660;32809851000;29938333333;30438333333
661;32809855000;29938333333;30438333333
662;32809856000;29938333333;30438333333
663;32832114000;29979666666;30479666666
664;32832117000;29979666666;30479666666
665;32832118000;29979666666;30479666666
666;32832119000;29979666666;30479666666
668;32832120000;29979666666;30479666666
669;32832121000;29979666666;30479666666
670;32832264000;29979677777;30479677777
671;32980589000;29979955555;30479955555
672;32980593000;29979955555;30479955555
673;32980601000;29979955555;30479955555
674;33072462000;30021288888;30521288888
723;33232546000;30187944444;30687944444
724;33232560000;30187944444;30687944444
725;33232783000;30187955555;30687955555
726;33232798000;30188233333;30688233333
727;33232799000;30188233333;30688233333
728;33232800000;30188233333;30688233333
729;33266236000;30229666666;30729666666
730;33266240000;30229666666;30729666666
731;33266241000;30229666666;30729666666
732;33266242000;30229666666;30729666666
736;33266979000;30229677777;30729677777
737;33266994000;30229955555;30729955555
738;33266996000;30229955555;30729955555
739;33266997000;30229955555;30729955555
740;33295848000;30271333333;30771333333
801;33398465000;30479666666;30979666666
808;33411176000;30521333333;31021333333
809;33411179000;30521333333;31021333333
810;33411180000;30521333333;31021333333
811;33411181000;30521333333;31021333333
812;33411182000;30521333333;31021333333
813;33411278000;30521344444;31021344444
814;33411293000;30521644444;31021644444
815;33411294000;30521644444;31021644444
816;33411296000;30521644444;31021644444
817;33425192000;30562944444;31062944444
818;33425195000;30562944444;31062944444
819;33425196000;30562944444;31062944444
820;33425197000;30562944444;31062944444
821;33425198000;30562944444;31062944444
822;33425199000;30562944444;31062944444
823;33425200000;30562944444;31062944444
824;33425399000;30562955555;31062955555
825;33425414000;30563244444;31063244444
826;33425415000;30563244444;31063244444
827;33425416000;30563244444;31063244444
828;33441451000;30604633333;31104633333
829;33580879000;30604633333;31104633333
830;33580882000;30604633333;31104633333
833;33580901000;30604633333;31104633333
834;33580903000;30604633333;31104633333
835;33631348000;30604644444;31104644444
883;33631364000;30813000000;31313000000
884;33631365000;30813000000;31313000000
885;33631366000;30813000000;31313000000
886;33631367000;30813000000;31313000000
887;33631368000;30813000000;31313000000
888;33631368000;30813000000;31313000000
889;33631369000;30813000000;31313000000
890;33833549000;30813011111;31313011111
891;33833565000;30813300000;31313300000
892;33833566000;30813300000;31313300000
893;33833567000;30813300000;31313300000
894;33866820000;30854644444;31354644444
895;33866824000;30854644444;31354644444
896;33866825000;30854644444;31354644444
897;33866826000;30854644444;31354644444
898;33866827000;30854644444;31354644444
899;33866828000;30854644444;31354644444
900;33866829000;30854644444;31354644444
901;33867027000;30854655555;31354655555
902;33867049000;30854911111;31354911111
903;33867050000;30854911111;31354911111
909;33896807000;30896266666;31396266666
957;33992069000;31063255555;31563255555
959;34181016000;31063255555;31563255555
960;34181129000;31104655555;31604655555
970;34181142000;31104966666;31604966666
971;34181146000;31146322222;31646322222
972;34181148000;31146322222;31646322222
973;34181149000;31146322222;31646322222
976;34181155000;31146322222;31646322222
977;34181156000;31146322222;31646322222
978;34181208000;31146344444;31646344444
982;34181213000;31187988888;31687988888
983;34181215000;31187988888;31687988888
985;34181217000;31187988888;31687988888
986;34181218000;31187988888;31687988888
987;34181219000;31187988888;31687988888
988;34181220000;31187988888;31687988888
990;34231656000;31188300000;31688300000
1042;34433580000;31396288888;31896288888
1043;34433583000;31396288888;31896288888
1044;34433695000;31396300000;31896300000
1045;34433700000;31396611111;31896611111
1046;34433710000;31396611111;31896611111
1047;34433711000;31396611111;31896611111
1048;34467053000;31438000000;31938000000
1049;34467067000;31438000000;31938000000
1050;34467068000;31438000000;31938000000
1051;34467069000;31438000000;31938000000
1053;34467070000;31438000000;31938000000
1054;34467071000;31438000000;31938000000
1055;34467175000;31438011111;31938011111
1056;34467180000;31438288888;31938288888
1057;34467181000;31438288888;31938288888
1058;34467182000;31438288888;31938288888
1059;34496613000;31479655555;31979655555
1118;34593104000;31688000000;32188000000
1121;34593229000;31688011111;32188011111
1122;34593234000;31688300000;32188300000
1123;34593235000;31688300000;32188300000
1124;34593237000;31688300000;32188300000
1125;34606121000;31729588888;32229588888
1126;34606125000;31729588888;32229588888
1127;34606126000;31729588888;32229588888
1128;34606127000;31729588888;32229588888
1129;34606128000;31729588888;32229588888
1130;34606138000;31729588888;32229588888
1131;34606139000;31729588888;32229588888
1132;34606262000;31729600000;32229600000
1133;34606267000;31729888888;32229888888
1134;34606268000;31729888888;32229888888
1135;34606269000;31729888888;32229888888
1136;34621395000;31771322222;32271322222
1137;34621398000;31771322222;32271322222
1138;34621399000;31771322222;32271322222
1139;34621409000;31771322222;32271322222
1140;34621410000;31771322222;32271322222
1141;34621411000;31771322222;32271322222
1143;34621907000;31771344444;32271344444
1144;34781182000;31771633333;32271633333
1145;34781188000;31771633333;32271633333
1146;34781203000;31771633333;32271633333
1147;34873019000;31812977777;32312977777
1197;35033114000;31979666666;32479666666
1198;35033210000;31979677777;32479677777
1199;35033216000;31979944444;32479944444
1200;35033217000;31979944444;32479944444
1201;35033218000;31979944444;32479944444
1202;35066710000;32021300000;32521300000
1203;35066714000;32021300000;32521300000
1204;35066715000;32021300000;32521300000
1205;35066716000;32021300000;32521300000
1206;35066717000;32021300000;32521300000
1207;35066718000;32021300000;32521300000
1208;35066719000;32021300000;32521300000
1209;35066841000;32021311111;32521311111
1210;35066847000;32021611111;32521611111
1211;35066848000;32021611111;32521611111
1212;35066849000;32021611111;32521611111
1213;35096386000;32062988888;32562988888
1595;35174027000;33479922222;33979922222
1598;35381708000;33521322222;34021322222
1604;35381712000;33521322222;34021322222
1605;35381789000;33521333333;34021333333
1612;35381794000;33562933333;34062933333
1613;35381796000;33562933333;34062933333
1614;35381797000;33562933333;34062933333
1615;35381798000;33562933333;34062933333
1616;35381869000;33562944444;34062944444
1623;35381883000;33604644444;34104644444
1624;35381885000;33604644444;34104644444
1625;35381886000;33604644444;34104644444
1628;35432156000;33604944444;34104944444
1674;35596246000;33771611111;34271611111
1675;35633214000;33812988888;34312988888
1676;35633217000;33812988888;34312988888
1677;35633218000;33812988888;34312988888
1678;35633219000;33812988888;34312988888
1679;35633220000;33812988888;34312988888
1680;35633221000;33812988888;34312988888
1681;35633222000;33812988888;34312988888
1682;35633316000;33813000000;34313000000
1685;35633407000;33813300000;34313300000
1686;35667439000;33854655555;34354655555
1687;35667443000;33854655555;34354655555
1688;35667444000;33854655555;34354655555
1689;35667445000;33854655555;34354655555
1690;35667446000;33854655555;34354655555
1691;35667447000;33854655555;34354655555
1692;35667448000;33854655555;34354655555
1693;35667542000;33854666666;34354666666
1694;35667547000;33854933333;34354933333
1695;35667548000;33854933333;34354933333
1696;35667550000;33854933333;34354933333
1697;35697568000;33896322222;34396322222
1750;35787183000;34063233333;34563233333
1754;35811792000;34104644444;34604644444
1756;35811796000;34104644444;34604644444
1757;35811797000;34104644444;34604644444
1758;35811798000;34104644444;34604644444
1760;35811861000;34104955555;34604955555
1761;35811873000;34104955555;34604955555
1762;35811874000;34104955555;34604955555
1763;35834330000;34146322222;34646322222
1764;35834334000;34146322222;34646322222
1765;35834335000;34146322222;34646322222
1767;35834336000;34146322222;34646322222
1768;35834337000;34146322222;34646322222
1769;35834338000;34146322222;34646322222
1770;35834433000;34146333333;34646333333
1771;35834438000;34146633333;34646633333
1772;35834439000;34146633333;34646633333
1773;35834440000;34146633333;34646633333
1774;35847488000;34187933333;34687933333
1775;35847491000;34187933333;34687933333
1776;35847492000;34187933333;34687933333
1777;35847493000;34187933333;34687933333
1778;35981683000;34187933333;34687933333
1779;35981686000;34187933333;34687933333
1780;35981692000;34187933333;34687933333
1781;36032079000;34187944444;34687944444
1833;36032086000;34396311111;34896311111
1834;36032088000;34396311111;34896311111
1835;36032089000;34396311111;34896311111
1837;36233867000;34396633333;34896633333
1838;36233870000;34396633333;34896633333
1839;36233871000;34396633333;34896633333
1840;36269577000;34437988888;34937988888
1841;36269581000;34437988888;34937988888
1842;36269582000;34437988888;34937988888
1843;36269583000;34437988888;34937988888
1844;36269584000;34437988888;34937988888
1845;36269585000;34437988888;34937988888
1846;36269586000;34437988888;34937988888
1847;36269708000;34438000000;34938000000
1848;36269713000;34438300000;34938300000
1849;36269714000;34438300000;34938300000
1850;36269715000;34438300000;34938300000
1851;36299099000;34479655555;34979655555
1909;36394679000;34687966666;35187966666
1912;36394683000;34687966666;35187966666
1913;36394805000;34687977777;35187977777
1914;36394810000;34688255555;35188255555
1915;36394812000;34688255555;35188255555
1916;36394813000;34688255555;35188255555
1917;36407553000;34729588888;35229588888
1918;36407557000;34729588888;35229588888
1920;36407558000;34729588888;35229588888
1921;36407559000;34729588888;35229588888
1922;36407560000;34729588888;35229588888
1923;36407561000;34729588888;35229588888
1924;36407664000;34729600000;35229600000
1925;36407669000;34729877777;35229877777
1926;36407670000;34729877777;35229877777
1927;36407671000;34729877777;35229877777
1928;36422662000;34771322222;35271322222
1930;36422665000;34771322222;35271322222
1931;36422666000;34771322222;35271322222
1932;36422667000;34771322222;35271322222
1933;36422668000;34771322222;35271322222
1934;36422668000;34771322222;35271322222
1935;36422791000;34771333333;35271333333
1936;36582258000;34771622222;35271622222
1937;36582260000;34771622222;35271622222
1938;36582269000;34771622222;35271622222
1939;36674089000;34812977777;35312977777
1988;36834306000;34979755555;35479755555
1989;36834309000;34979755555;35479755555
1990;36834404000;34979866666;35479866666
1991;36834409000;34980133333;35480133333
1992;36834411000;34980133333;35480133333
1993;36834412000;34980133333;35480133333
1995;36868037000;35021300000;35521300000
1996;36868040000;35021300000;35521300000
1997;36868041000;35021300000;35521300000
1998;36868048000;35021300000;35521300000
1999;36868050000;35021300000;35521300000
2001;36868125000;35021311111;35521311111
2002;36868139000;35021600000;35521600000
2003;36868140000;35021600000;35521600000
2004;36868141000;35021600000;35521600000
2005;36897477000;35062988888;35562988888
2065;36997962000;35271322222;35771322222
2066;36997965000;35271322222;35771322222
2067;36998090000;35271333333;35771333333
2068;36998095000;35271633333;35771633333
2071;37011323000;35312988888;35812988888
2072;37011326000;35312988888;35812988888
2074;37011327000;35312988888;35812988888
2075;37011328000;35312988888;35812988888
2076;37011329000;35312988888;35812988888
2077;37011330000;35312988888;35812988888
2078;37011410000;35313000000;35813000000
2079;37011415000;35313277777;35813277777
2080;37011417000;35313277777;35813277777
2081;37011418000;35313277777;35813277777
2082;37025489000;35354655555;35854655555
2083;37025493000;35354655555;35854655555
2084;37025494000;35354655555;35854655555
2085;37025495000;35354655555;35854655555
2086;37025496000;35354655555;35854655555
2087;37025497000;35354655555;35854655555
2088;37025498000;35354655555;35854655555
2089;37025617000;35354666666;35854666666
2090;37025621000;35354922222;35854922222
2091;37182923000;35354922222;35854922222
2092;37182926000;35354922222;35854922222
2093;37233204000;35396322222;35896322222
2144;37397301000;35562933333;36062933333
2145;37397317000;35563244444;36063244444
2146;37397318000;35563244444;36063244444
2147;37397319000;35563244444;36063244444
2148;37434681000;35604588888;36104588888
2149;37434685000;35604588888;36104588888
2150;37434686000;35604588888;36104588888
2151;37434687000;35604588888;36104588888
2152;37434688000;35604588888;36104588888
2153;37434689000;35604588888;36104588888
2157;37434802000;35604888888;36104888888
2158;37434806000;35604888888;36104888888
2159;37470942000;35646322222;36146322222
2160;37470946000;35646322222;36146322222
2161;37470947000;35646322222;36146322222
2162;37470948000;35646322222;36146322222
2163;37470949000;35646322222;36146322222
2164;37470950000;35646322222;36146322222
2165;37470951000;35646322222;36146322222
2167;37471070000;35646644444;36146644444
2169;37471073000;35646644444;36146644444
2170;37504549000;35687988888;36187988888
2224;37597877000;35854933333;36354933333
2225;37615729000;35896322222;36396322222
2226;37615733000;35896322222;36396322222
2228;37615734000;35896322222;36396322222
2229;37615735000;35896322222;36396322222
2230;37615736000;35896322222;36396322222
2232;37615936000;35896333333;36396333333
2233;37615951000;35896633333;36396633333
2234;37615952000;35896633333;36396633333
2235;37615953000;35896633333;36396633333
2236;37632992000;35937988888;36437988888
2237;37632995000;35937988888;36437988888
2238;37632996000;35937988888;36437988888
2239;37632997000;35937988888;36437988888
2240;37632998000;35937988888;36437988888
2241;37632999000;35937988888;36437988888
2242;37633000000;35937988888;36437988888
2243;37633191000;35938000000;36438000000
2244;37633195000;35938300000;36438300000
2245;37633196000;35938300000;36438300000
2246;37633198000;35938300000;36438300000
2247;37649004000;35979655555;36479655555
2248;37649008000;35979655555;36479655555
2249;37783488000;35979655555;36479655555
2250;37783491000;35979655555;36479655555
2251;37783493000;35979655555;36479655555
2252;37783494000;35979655555;36479655555
2253;37783511000;35979655555;36479655555
2254;37833976000;35979666666;36479666666
2304;37833991000;36187922222;36687922222
2305;37833993000;36187922222;36687922222
2306;37833994000;36187922222;36687922222
2307;37833995000;36187922222;36687922222
2308;37833996000;36187922222;36687922222
2309;38036086000;36187933333;36687933333
2310;38036101000;36188266666;36688266666
2311;38036103000;36188266666;36688266666
2312;38036104000;36188266666;36688266666
2313;38069355000;36229577777;36729577777
2314;38069358000;36229577777;36729577777
2315;38069359000;36229577777;36729577777
2316;38069360000;36229577777;36729577777
2317;38069361000;36229577777;36729577777
2318;38069362000;36229577777;36729577777
2319;38069363000;36229577777;36729577777
2320;38069562000;36229588888;36729588888
2321;38069577000;36229888888;36729888888
2322;38069578000;36229888888;36729888888
2326;38098905000;36271244444;36771244444
2385;38199402000;36479588888;36979588888
2386;38199611000;36479600000;36979600000
2387;38199627000;36479888888;36979888888
2388;38199628000;36479888888;36979888888
2389;38199629000;36479888888;36979888888
2390;38212400000;36521244444;37021244444
2391;38212403000;36521244444;37021244444
2392;38212404000;36521244444;37021244444
2393;38212405000;36521244444;37021244444
2394;38212406000;36521244444;37021244444
2395;38212406000;36521244444;37021244444
2396;38212408000;36521244444;37021244444
2397;38212607000;36521255555;37021255555
2398;38212622000;36521566666;37021566666
2399;38212623000;36521566666;37021566666
2400;38212624000;36521566666;37021566666
2401;38226834000;36562922222;37062922222
2402;38226836000;36562922222;37062922222
2403;38226837000;36562922222;37062922222
2404;38226838000;36562922222;37062922222
2405;38226839000;36562922222;37062922222
2406;38226840000;36562922222;37062922222
2407;38384540000;36562922222;37062922222
2408;38435001000;36562933333;37062933333
2461;38435017000;36771255555;37271255555
2462;38435018000;36771255555;37271255555
2463;38638166000;36771266666;37271266666
2467;38673556000;36812922222;37312922222
2468;38673558000;36812922222;37312922222
2469;38673560000;36812922222;37312922222
2470;38673561000;36812922222;37312922222
2471;38673562000;36812922222;37312922222
2472;38673562000;36812922222;37312922222
2473;38673563000;36812922222;37312922222
2474;38673761000;36812944444;37312944444
2475;38673778000;36813244444;37313244444
2476;38673779000;36813244444;37313244444
2477;38673780000;36813244444;37313244444
2478;38702911000;36854588888;37354588888
2542;38812433000;37063255555;37563255555
2543;38812437000;37063255555;37563255555
2544;38822511000;37104588888;37604588888
2545;38822514000;37104588888;37604588888
2546;38822515000;37104588888;37604588888
2547;38822516000;37104588888;37604588888
2548;38822517000;37104588888;37604588888
2549;38822518000;37104588888;37604588888
2550;38822519000;37104588888;37604588888
2551;38822733000;37104600000;37604600000
2552;38822748000;37104888888;37604888888
2553;38822749000;37104888888;37604888888
2554;38822750000;37104888888;37604888888
2555;38835052000;37146244444;37646244444
2556;38835056000;37146244444;37646244444
2557;38835057000;37146244444;37646244444
2558;38835058000;37146244444;37646244444
2559;38835059000;37146244444;37646244444
2560;38835060000;37146244444;37646244444
2561;38835061000;37146244444;37646244444
2562;38835231000;37146255555;37646255555
2563;38835236000;37146555555;37646555555
2564;38835237000;37146555555;37646555555
2565;38986062000;37146555555;37646555555
2566;39036446000;37187911111;37687911111
2619;39201293000;37354866666;37854866666
2620;39201297000;37354866666;37854866666
2621;39238237000;37396255555;37896255555
2622;39238240000;37396255555;37896255555
2623;39238241000;37396255555;37896255555
2624;39238242000;37396255555;37896255555
2625;39238243000;37396255555;37896255555
2626;39238244000;37396255555;37896255555
2627;39238245000;37396255555;37896255555
2628;39238459000;37396266666;37896266666
2629;39238474000;37396566666;37896566666
2630;39238475000;37396566666;37896566666
2631;39238476000;37396566666;37896566666
2632;39272437000;37437933333;37937933333
2633;39272440000;37437933333;37937933333
2634;39272441000;37437933333;37937933333
2635;39272442000;37437933333;37937933333
2636;39272443000;37437933333;37937933333
2637;39272444000;37437933333;37937933333
2638;39272445000;37437933333;37937933333
2641;39272636000;37438222222;37938222222
2644;39305243000;37479577777;37979577777
2696;39385902000;37646544444;38146544444
2697;39385906000;37646544444;38146544444
2698;39399751000;37687922222;38187922222
2699;39399754000;37687922222;38187922222
2700;39399755000;37687922222;38187922222
2701;39399756000;37687922222;38187922222
2702;39399758000;37687922222;38187922222
2704;39399759000;37687922222;38187922222
2705;39400378000;37687933333;38187933333
2706;39400393000;37688211111;38188211111
2707;39400395000;37688211111;38188211111
2708;39400396000;37688211111;38188211111
2709;39412832000;37729588888;38229588888
2710;39412836000;37729588888;38229588888
2714;39412837000;37729588888;38229588888
2715;39412838000;37729588888;38229588888
2716;39413037000;37729600000;38229600000
2717;39413060000;37729877777;38229877777
2718;39413062000;37729877777;38229877777
2719;39413063000;37729877777;38229877777
2720;39427736000;37771244444;38271244444
2721;39427740000;37771244444;38271244444
2722;39427741000;37771244444;38271244444
2723;39587550000;37771244444;38271244444
2724;39587553000;37771244444;38271244444
2725;39587554000;37771244444;38271244444
2726;39587570000;37771244444;38271244444
2727;39638039000;37771255555;38271255555
2779;39638066000;37979588888;38479588888
2780;39638067000;37979588888;38479588888
2781;39638068000;37979588888;38479588888
2782;39840164000;37979600000;38479600000
2783;39840180000;37979866666;38479866666
2784;39840181000;37979866666;38479866666
2785;39840182000;37979866666;38479866666
2786;39873454000;38021244444;38521244444
2787;39873458000;38021244444;38521244444
2788;39873467000;38021244444;38521244444
2789;39873468000;38021244444;38521244444
2790;39873469000;38021244444;38521244444
2791;39873470000;38021244444;38521244444
2792;39873471000;38021244444;38521244444
2793;39873677000;38021266666;38521266666
2794;39873693000;38021555555;38521555555
2795;39873694000;38021555555;38521555555
2799;39903033000;38062911111;38562911111
2855;39999530000;38271255555;38771255555
2856;39999534000;38271255555;38771255555
2857;39999535000;38271255555;38771255555
2858;39999536000;38271255555;38771255555
2859;39999742000;38271266666;38771266666
2860;39999757000;38271566666;38771566666
2861;39999758000;38271566666;38771566666
2862;39999759000;38271566666;38771566666
2863;40012540000;38312911111;38812911111
2864;40012543000;38312911111;38812911111
2865;40012544000;38312911111;38812911111
2866;40012545000;38312911111;38812911111
2867;40012546000;38312911111;38812911111
2868;40012547000;38312911111;38812911111
2869;40012548000;38312911111;38812911111
2870;40012748000;38312922222;38812922222
2871;40012763000;38313211111;38813211111
2872;40012764000;38313211111;38813211111
2873;40012765000;38313211111;38813211111
2877;40028034000;38354588888;38854588888
2878;40028036000;38354588888;38854588888
2879;40028037000;38354588888;38854588888
2880;40028038000;38354588888;38854588888
2881;40238525000;38354600000;38854600000
2935;40238541000;38562922222;39062922222
2936;40441707000;38562933333;39062933333
2937;40441723000;38563211111;39063211111
2938;40441724000;38563211111;39063211111
2939;40441725000;38563211111;39063211111
2940;40474951000;38604577777;39104577777
2941;40474955000;38604577777;39104577777
2942;40474956000;38604577777;39104577777
2943;40474956000;38604577777;39104577777
2944;40474957000;38604577777;39104577777
2945;40474958000;38604577777;39104577777
2947;40475165000;38604588888;39104588888
2948;40475180000;38604844444;39104844444
2950;40475181000;38604844444;39104844444
2951;40504544000;38646255555;39146255555
3015;40601344000;38854833333;39354833333
3016;40601347000;38854833333;39354833333
3017;40614824000;38896255555;39396255555
3018;40614827000;38896255555;39396255555
3019;40614828000;38896255555;39396255555
3020;40614829000;38896255555;39396255555
3021;40614830000;38896255555;39396255555
3022;40614831000;38896255555;39396255555
3023;40614832000;38896255555;39396255555
3024;40615031000;38896266666;39396266666
3025;40615053000;38896533333;39396533333
3026;40615054000;38896533333;39396533333
3028;40629814000;38937911111;39437911111
3029;40629817000;38937911111;39437911111
3030;40629818000;38937911111;39437911111
3031;40629819000;38937911111;39437911111
3032;40629820000;38937911111;39437911111
3034;40629822000;38937911111;39437911111
3035;40629941000;38937922222;39437922222
3036;40629956000;38938200000;39438200000
3037;40629957000;38938200000;39438200000
3038;40629958000;38938200000;39438200000
3039;40839016000;38979577777;39479577777
3094;41042239000;39187922222;39687922222
3096;41042242000;39187922222;39687922222
3097;41042244000;39187922222;39687922222
3098;41042245000;39187922222;39687922222
3099;41042245000;39187922222;39687922222
3100;41042246000;39187922222;39687922222
3101;41042445000;39187933333;39687933333
3102;41042460000;39188188888;39688188888
3103;41042462000;39188188888;39688188888
3104;41042463000;39188188888;39688188888
3105;41075573000;39229577777;39729577777
3106;41075576000;39229577777;39729577777
3107;41075577000;39229577777;39729577777
3108;41075578000;39229577777;39729577777
3109;41075579000;39229577777;39729577777
3110;41075580000;39229577777;39729577777
3111;41075581000;39229577777;39729577777
3112;41075781000;39229588888;39729588888
3113;41075796000;39229855555;39729855555
3114;41075797000;39229855555;39729855555
3115;41075798000;39229855555;39729855555
3116;41105167000;39271244444;39771244444
3173;41201324000;39479588888;39979588888
3174;41201328000;39479588888;39979588888
3175;41201329000;39479588888;39979588888
3176;41201330000;39479588888;39979588888
3177;41201331000;39479588888;39979588888
3178;41201531000;39479600000;39979600000
3179;41201546000;39479888888;39979888888
3180;41201555000;39479888888;39979888888
3181;41201556000;39479888888;39979888888
3182;41214271000;39521244444;40021244444
3183;41214274000;39521244444;40021244444
3184;41214275000;39521244444;40021244444
3185;41214276000;39521244444;40021244444
3186;41214277000;39521244444;40021244444
3188;41214278000;39521244444;40021244444
3189;41214479000;39521255555;40021255555
3190;41214494000;39521555555;40021555555
3191;41214495000;39521555555;40021555555
3192;41214496000;39521555555;40021555555
3193;41229430000;39562922222;40062922222
3195;41229433000;39562922222;40062922222
3196;41229434000;39562922222;40062922222
3198;41389634000;39562922222;40062922222
3199;41389647000;39562922222;40062922222
3200;41440107000;39562933333;40062933333
3252;41440123000;39771222222;40271222222
3253;41440124000;39771222222;40271222222
3254;41440125000;39771222222;40271222222
3255;41642196000;39771233333;40271233333
3256;41642212000;39771522222;40271522222
3257;41642213000;39771522222;40271522222
3258;41642214000;39771522222;40271522222
3259;41675515000;39812911111;40312911111
3260;41675519000;39812911111;40312911111
3261;41675520000;39812911111;40312911111
3262;41675521000;39812911111;40312911111
3263;41675522000;39812911111;40312911111
3264;41675523000;39812911111;40312911111
3265;41675524000;39812911111;40312911111
3266;41675730000;39812922222;40312922222
3268;41675745000;39813200000;40313200000
3269;41675747000;39813200000;40313200000
3270;41705163000;39854577777;40354577777
3331;41807626000;40062888888;40562888888
3332;41807828000;40062900000;40562900000
3333;41807843000;40063211111;40563211111
3334;41807844000;40063211111;40563211111
3335;41807846000;40063211111;40563211111
3336;41820264000;40104577777;40604577777
3337;41820268000;40104577777;40604577777
3338;41820269000;40104577777;40604577777
3339;41820270000;40104577777;40604577777
3340;41820271000;40104577777;40604577777
3341;41820272000;40104577777;40604577777
3342;41820283000;40104577777;40604577777
3343;41820493000;40104600000;40604600000
3344;41820508000;40104877777;40604877777
3345;41820509000;40104877777;40604877777
3346;41820510000;40104877777;40604877777
3347;41834325000;40146244444;40646244444
3348;41834327000;40146244444;40646244444
3350;41834415000;40146244444;40646244444
3351;41834416000;40146244444;40646244444
3352;41834417000;40146244444;40646244444
3353;41834418000;40146244444;40646244444
3354;41834561000;40146255555;40646255555
3355;41990226000;40146544444;40646544444
3356;41990229000;40146544444;40646544444
3357;41990238000;40146544444;40646544444
3358;42082132000;40187911111;40687911111
3412;42242193000;40354855555;40854855555
3413;42275832000;40396255555;40896255555
3414;42275836000;40396255555;40896255555
3415;42275837000;40396255555;40896255555
3417;42275838000;40396255555;40896255555
3418;42275839000;40396255555;40896255555
3419;42275840000;40396255555;40896255555
3420;42276062000;40396266666;40896266666
3421;42276068000;40396566666;40896566666
3422;42276069000;40396566666;40896566666
3423;42276070000;40396566666;40896566666
3424;42305482000;40437911111;40937911111
3486;42402891000;40646255555;41146255555
3487;42402907000;40646555555;41146555555
3490;42416452000;40687922222;41187922222
3491;42416455000;40687922222;41187922222
3492;42416456000;40687922222;41187922222
3493;42416457000;40687922222;41187922222
3495;42416458000;40687922222;41187922222
3496;42416459000;40687922222;41187922222
3497;42416579000;40687933333;41187933333
3498;42416594000;40688222222;41188222222
3499;42416595000;40688222222;41188222222
3500;42416596000;40688222222;41188222222
3501;42431398000;40729588888;41229588888
3502;42431402000;40729588888;41229588888
3503;42431403000;40729588888;41229588888
3504;42431404000;40729588888;41229588888
3505;42431405000;40729588888;41229588888
3508;42431576000;40729600000;41229600000
3509;42431580000;40729877777;41229877777
3510;42431581000;40729877777;41229877777
3511;42431582000;40729877777;41229877777
3512;42446065000;40771244444;41271244444
3513;42590811000;40771244444;41271244444
3516;42590828000;40771244444;41271244444
3517;42590830000;40771244444;41271244444
3518;42590849000;40771244444;41271244444
3519;42641376000;40771255555;41271255555
3567;42641392000;40979588888;41479588888
3568;42641393000;40979588888;41479588888
3569;42641394000;40979588888;41479588888
3572;42842522000;40979588888;41479588888
3573;42842534000;40979588888;41479588888
3574;42842741000;40979600000;41479600000
3575;42842756000;40979877777;41479877777
3576;42842757000;40979877777;41479877777
3577;42842758000;40979877777;41479877777
3579;42876852000;41021244444;41521244444
3580;42876855000;41021244444;41521244444
3581;42876856000;41021244444;41521244444
3582;42876857000;41021244444;41521244444
3583;42876858000;41021244444;41521244444
3584;42876859000;41021244444;41521244444
3585;42876983000;41021266666;41521266666
3586;42876998000;41021555555;41521555555
3587;42877000000;41021555555;41521555555
3588;42877001000;41021555555;41521555555
3589;42906442000;41062911111;41562911111
3645;43003706000;41271244444;41771244444
3646;43003709000;41271244444;41771244444
3648;43003711000;41271244444;41771244444
3649;43003712000;41271244444;41771244444
3650;43003713000;41271244444;41771244444
3651;43003918000;41271255555;41771255555
3654;43003934000;41271566666;41771566666
3655;43016614000;41312911111;41812911111
3656;43016618000;41312911111;41812911111
3657;43016619000;41312911111;41812911111
3658;43016620000;41312911111;41812911111
3659;43016621000;41312911111;41812911111
3660;43016622000;41312911111;41812911111
3661;43016622000;41312911111;41812911111
3662;43016839000;41312922222;41812922222
3663;43016854000;41313222222;41813222222
3664;43016855000;41313222222;41813222222
3665;43016856000;41313222222;41813222222
3666;43031752000;41354577777;41854577777
3667;43031755000;41354577777;41854577777
3668;43031756000;41354577777;41854577777
3669;43031757000;41354577777;41854577777
3670;43191437000;41354577777;41854577777
3671;43191440000;41354577777;41854577777
3672;43191445000;41354577777;41854577777
3677;43283403000;41396244444;41896244444
3724;43443942000;41562911111;42062911111
3725;43443946000;41562911111;42062911111
3726;43443947000;41562911111;42062911111
3727;43443948000;41562911111;42062911111
3728;43444155000;41562922222;42062922222
3729;43444170000;41563200000;42063200000
3730;43444172000;41563200000;42063200000
3731;43444173000;41563200000;42063200000
3732;43477567000;41604588888;42104588888
3733;43477570000;41604588888;42104588888
3734;43477571000;41604588888;42104588888
3738;43477668000;41604588888;42104588888
3739;43477854000;41604600000;42104600000
3740;43477858000;41604855555;42104855555
3741;43477860000;41604855555;42104855555
3742;43477861000;41604855555;42104855555
3743;43507155000;41646244444;42146244444
3801;43608443000;41854566666;42354566666
3802;43608447000;41854566666;42354566666
3803;43608448000;41854566666;42354566666
3804;43608449000;41854566666;42354566666
3805;43608648000;41854588888;42354588888
3806;43608663000;41854833333;42354833333
3807;43608665000;41854833333;42354833333
3808;43608666000;41854833333;42354833333
3809;43621926000;41896255555;42396255555
3810;43621929000;41896255555;42396255555
3811;43621930000;41896255555;42396255555
3815;43621932000;41896255555;42396255555
3816;43622112000;41896266666;42396266666
3817;43622116000;41896544444;42396544444
3818;43622118000;41896544444;42396544444
3819;43622119000;41896544444;42396544444
3820;43635991000;41937911111;42437911111
3821;43635993000;41937911111;42437911111
3822;43635994000;41937911111;42437911111
3823;43635995000;41937911111;42437911111
3824;43635996000;41937911111;42437911111
3825;43635997000;41937911111;42437911111
3826;43635998000;41937911111;42437911111
3829;43842439000;41938211111;42438211111
3881;44044710000;42146233333;42646233333
3882;44044919000;42146255555;42646255555
3883;44044934000;42146555555;42646555555
3884;44044935000;42146555555;42646555555
3887;44078361000;42187922222;42687922222
3888;44078365000;42187922222;42687922222
3889;44078366000;42187922222;42687922222
3890;44078367000;42187922222;42687922222
3891;44078368000;42187922222;42687922222
3892;44078369000;42187922222;42687922222
3893;44078493000;42187933333;42687933333
3896;44078518000;42188200000;42688200000
3897;44107737000;42229577777;42729577777
3960;44204807000;42438211111;42938211111
3961;44204810000;42438211111;42938211111
3962;44204811000;42438211111;42938211111
3963;44218363000;42479588888;42979588888
3964;44218366000;42479588888;42979588888
3965;44218367000;42479588888;42979588888
3966;44218368000;42479588888;42979588888
3967;44218369000;42479588888;42979588888
3968;44218370000;42479588888;42979588888
3969;44218371000;42479588888;42979588888
3970;44218587000;42479600000;42979600000
3971;44218602000;42479866666;42979866666
3972;44218603000;42479866666;42979866666
3973;44218604000;42479866666;42979866666
3974;44233298000;42521244444;43021244444
3975;44233301000;42521244444;43021244444
3976;44233302000;42521244444;43021244444
3977;44233303000;42521244444;43021244444
3980;44233312000;42521244444;43021244444
3981;44233538000;42521255555;43021255555
3982;44233553000;42521555555;43021555555
3983;44233554000;42521555555;43021555555
3984;44233555000;42521555555;43021555555
3985;44443077000;42562922222;43062922222
4039;44607465000;42729877777;43229877777
4040;44645430000;42771255555;43271255555
4041;44645434000;42771255555;43271255555
4042;44645435000;42771255555;43271255555
4043;44645436000;42771255555;43271255555
4044;44645437000;42771255555;43271255555
4045;44645438000;42771255555;43271255555
4046;44645439000;42771255555;43271255555
4047;44645638000;42771266666;43271266666
4048;44645652000;42771555555;43271555555
4049;44645654000;42771555555;43271555555
4050;44645655000;42771555555;43271555555
4051;44679627000;42812911111;43312911111
4052;44679630000;42812911111;43312911111
4053;44679631000;42812911111;43312911111
4054;44679632000;42812911111;43312911111
4055;44679633000;42812911111;43312911111
4056;44679634000;42812911111;43312911111
4060;44679826000;42813211111;43313211111
4061;44679828000;42813211111;43313211111
4062;44712497000;42854577777;43354577777
4118;44808052000;43062911111;43562911111
4119;44808056000;43062911111;43562911111
4120;44808057000;43062911111;43562911111
4121;44808058000;43062911111;43562911111
4124;44808264000;43062933333;43562933333
4125;44808279000;43063222222;43563222222
4126;44808280000;43063222222;43563222222
4128;44820606000;43104588888;43604588888
4129;44820610000;43104588888;43604588888
4130;44820611000;43104588888;43604588888
4131;44820612000;43104588888;43604588888
4132;44820613000;43104588888;43604588888
4133;44820614000;43104588888;43604588888
4134;44820615000;43104588888;43604588888
4135;44820734000;43104600000;43604600000
4136;44820749000;43104877777;43604877777
4137;44820750000;43104877777;43604877777
4138;44820751000;43104877777;43604877777
4139;44835263000;43146244444;43646244444
4140;44835266000;43146244444;43646244444
4141;44835267000;43146244444;43646244444
4142;44835268000;43146244444;43646244444
4143;44993315000;43146244444;43646244444
4144;44993335000;43146244444;43646244444
4145;44993337000;43146244444;43646244444
4146;45043808000;43146266666;43646266666
4199;45043824000;43354566666;43854566666
4200;45043825000;43354566666;43854566666
4201;45245932000;43354588888;43854588888
4202;45245948000;43354844444;43854844444
4203;45245950000;43354844444;43854844444
4204;45245951000;43354844444;43854844444
4205;45279231000;43396255555;43896255555
4206;45279235000;43396255555;43896255555
4208;45279236000;43396255555;43896255555
4209;45279237000;43396255555;43896255555
4210;45279238000;43396255555;43896255555
4211;45279239000;43396255555;43896255555
4212;45279445000;43396266666;43896266666
4213;45279461000;43396555555;43896555555
4214;45279462000;43396555555;43896555555
4215;45279463000;43396555555;43896555555
4216;45308866000;43437911111;43937911111
4277;45411314000;43646233333;44146233333
4278;45411531000;43646255555;44146255555
4279;45411548000;43646555555;44146555555
4280;45411549000;43646555555;44146555555
4282;45424048000;43687922222;44187922222
4283;45424052000;43687922222;44187922222
4284;45424053000;43687922222;44187922222
4285;45424055000;43687922222;44187922222
4286;45424056000;43687922222;44187922222
4287;45424057000;43687922222;44187922222
4289;45424164000;43687933333;44187933333
4290;45424180000;43688222222;44188222222
4291;45424181000;43688222222;44188222222
4292;45424182000;43688222222;44188222222
4293;45438000000;43729588888;44229588888
4294;45438004000;43729588888;44229588888
4295;45438005000;43729588888;44229588888
4296;45438007000;43729588888;44229588888
4297;45438008000;43729588888;44229588888
4299;45438009000;43729588888;44229588888
4300;45438249000;43729600000;44229600000
4301;45593969000;43729888888;44229888888
4302;45593974000;43729888888;44229888888
4303;45593981000;43729888888;44229888888
4304;45685881000;43771244444;44271244444
4357;45845382000;43938222222;44438222222
4358;45845385000;43938222222;44438222222
4359;45881533000;43979588888;44479588888
4360;45881537000;43979588888;44479588888
4361;45881538000;43979588888;44479588888
4362;45881539000;43979588888;44479588888
4364;45881540000;43979588888;44479588888
4365;45881541000;43979588888;44479588888
4366;45881732000;43979600000;44479600000
4367;45881735000;43979877777;44479877777
4368;45881736000;43979877777;44479877777
4369;45881737000;43979877777;44479877777
4370;45911072000;44021244444;44521244444
4435;46007268000;44229877777;44729877777
4436;46021660000;44271255555;44771255555
4438;46021663000;44271255555;44771255555
4439;46021665000;44271255555;44771255555
4440;46021666000;44271255555;44771255555
4441;46021667000;44271255555;44771255555
4442;46021668000;44271255555;44771255555
4443;46021867000;44271266666;44771266666
4444;46021882000;44271577777;44771577777
4445;46021883000;44271577777;44771577777
4446;46021884000;44271577777;44771577777
4447;46036321000;44312911111;44812911111
4448;46036324000;44312911111;44812911111
4449;46036325000;44312911111;44812911111
4450;46036326000;44312911111;44812911111
4451;46036327000;44312911111;44812911111
4453;46036329000;44312911111;44812911111
4454;46036528000;44312922222;44812922222
4455;46036543000;44313222222;44813222222
4456;46036544000;44313222222;44813222222
4457;46036545000;44313222222;44813222222
4458;46050712000;44354577777;44854577777
4459;46194564000;44354577777;44854577777
4460;46194567000;44354577777;44854577777
4461;46194573000;44354577777;44854577777
4462;46194587000;44354577777;44854577777
4463;46194589000;44354577777;44854577777
4464;46194593000;44354577777;44854577777
4465;46245063000;44354600000;44854600000
4514;46446841000;44562911111;45062911111
4515;46446854000;44562911111;45062911111
4516;46446855000;44562911111;45062911111
4517;46446856000;44562911111;45062911111
4518;46446857000;44562911111;45062911111
4519;46446858000;44562911111;45062911111
4521;46446970000;44563188888;45063188888
4522;46446973000;44563188888;45063188888
4523;46446974000;44563188888;45063188888
4524;46482487000;44604588888;45104588888
4525;46482490000;44604588888;45104588888
4526;46482491000;44604588888;45104588888
4527;46482492000;44604588888;45104588888
4528;46482493000;44604588888;45104588888
4529;46482494000;44604588888;45104588888
4530;46482495000;44604588888;45104588888
4531;46482695000;44604600000;45104600000
4532;46482710000;44604844444;45104844444
4533;46482711000;44604844444;45104844444
4534;46482712000;44604844444;45104844444
4535;46511942000;44646244444;45146244444
4590;46608456000;44854577777;45354577777
4591;46608459000;44854577777;45354577777
4592;46608460000;44854577777;45354577777
4593;46608461000;44854577777;45354577777
4594;46608463000;44854577777;45354577777
4595;46608464000;44854577777;45354577777
4596;46608474000;44854577777;45354577777
4597;46608616000;44854588888;45354588888
4599;46608619000;44854822222;45354822222
4600;46608620000;44854822222;45354822222
4601;46621911000;44896255555;45396255555
4604;46621915000;44896255555;45396255555
4605;46621916000;44896255555;45396255555
4606;46621917000;44896255555;45396255555
4607;46621918000;44896255555;45396255555
4608;46622104000;44896266666;45396266666
4609;46622109000;44896533333;45396533333
4610;46622110000;44896533333;45396533333
4611;46622111000;44896533333;45396533333
4612;46636658000;44937911111;45437911111
4613;46636661000;44937911111;45437911111
4614;46636662000;44937911111;45437911111
4616;46636682000;44937911111;45437911111
4617;46795227000;44937911111;45437911111
4618;46795234000;44937911111;45437911111
4619;46845714000;44937922222;45437922222
4673;46845729000;45146233333;45646233333
4676;47047164000;45146522222;45646522222
4677;47047167000;45146522222;45646522222
4678;47083126000;45187922222;45687922222
4679;47083129000;45187922222;45687922222
4680;47083131000;45187922222;45687922222
4681;47083131000;45187922222;45687922222
4682;47083132000;45187922222;45687922222
4683;47083134000;45187922222;45687922222
4684;47083135000;45187922222;45687922222
4685;47083350000;45187933333;45687933333
4686;47083365000;45188188888;45688188888
4688;47083367000;45188188888;45688188888
4689;47112607000;45229588888;45729588888
4748;47209244000;45437911111;45937911111
4750;47209248000;45437911111;45937911111
4751;47209479000;45437922222;45937922222
4752;47209495000;45438255555;45938255555
4753;47209496000;45438255555;45938255555
4757;47221978000;45479588888;45979588888
4758;47221990000;45479588888;45979588888
4759;47221991000;45479588888;45979588888
4760;47221992000;45479588888;45979588888
4761;47221993000;45479588888;45979588888
4762;47222089000;45479600000;45979600000
4763;47222092000;45479888888;45979888888
4764;47222093000;45479888888;45979888888
4765;47222094000;45479888888;45979888888
4766;47236899000;45521244444;46021244444
4767;47236902000;45521244444;46021244444
4769;47236904000;45521244444;46021244444
4770;47236905000;45521244444;46021244444
4771;47236906000;45521244444;46021244444
4772;47236907000;45521244444;46021244444
4773;47237107000;45521266666;46021266666
4774;47237122000;45521566666;46021566666
4775;47396076000;45521566666;46021566666
4776;47396084000;45521566666;46021566666
4777;47446406000;45562922222;46062922222
4829;47610862000;45729888888;46229888888
4830;47610866000;45729888888;46229888888
4831;47610867000;45729888888;46229888888
4833;47647815000;45771233333;46271233333
4834;47647818000;45771233333;46271233333
4835;47647819000;45771233333;46271233333
4836;47647820000;45771233333;46271233333
4837;47647821000;45771233333;46271233333
4838;47647822000;45771233333;46271233333
4840;47647833000;45771544444;46271544444
4841;47647835000;45771544444;46271544444
4842;47647846000;45771544444;46271544444
4843;47683961000;45812911111;46312911111
4844;47683965000;45812911111;46312911111
4846;47683966000;45812911111;46312911111
4847;47683967000;45812911111;46312911111
4848;47683968000;45812911111;46312911111
4849;47683969000;45812911111;46312911111
4850;47684169000;45812922222;46312922222
4851;47684184000;45813222222;46313222222
4852;47684186000;45813222222;46313222222
4853;47684186000;45813222222;46313222222
4854;47714194000;45854577777;46354577777
4907;47808678000;46021566666;46521566666
4908;47808681000;46021566666;46521566666
4909;47827509000;46062900000;46562900000
4910;47827513000;46062900000;46562900000
4911;47827514000;46062900000;46562900000
4912;47827515000;46062900000;46562900000
4913;47827516000;46062900000;46562900000
4914;47827517000;46062900000;46562900000
4915;47827518000;46062900000;46562900000
4916;47827718000;46062922222;46562922222
4917;47827733000;46063255555;46563255555
4918;47827734000;46063255555;46563255555
4919;47827735000;46063255555;46563255555
4920;47844999000;46104588888;46604588888
4921;47845003000;46104588888;46604588888
4922;47845004000;46104588888;46604588888
4923;47845004000;46104588888;46604588888
4927;47845431000;46104600000;46604600000
4928;47845435000;46104888888;46604888888
4929;47845437000;46104888888;46604888888
4930;47845437000;46104888888;46604888888
4931;47861236000;46146244444;46646244444
4932;47861240000;46146244444;46646244444
4933;47996961000;46146244444;46646244444
4934;47996971000;46146244444;46646244444
4935;47996981000;46146244444;46646244444
4936;47997000000;46146244444;46646244444
4937;47997005000;46146244444;46646244444
4938;48047405000;46146255555;46646255555
4989;48047409000;46354577777;46854577777
4990;48047410000;46354577777;46854577777
4991;48047411000;46354577777;46854577777
4992;48047412000;46354577777;46854577777
4993;48249609000;46354600000;46854600000
4994;48249633000;46354866666;46854866666
4995;48249634000;46354866666;46854866666
4996;48249636000;46354866666;46854866666
4997;48282931000;46396255555;46896255555
4998;48282935000;46396255555;46896255555
4999;48282936000;46396255555;46896255555
5000;48282937000;46396255555;46896255555
5001;48282938000;46396255555;46896255555
5002;48282939000;46396255555;46896255555
5003;48282940000;46396255555;46896255555
5004;48283154000;46396266666;46896266666
5005;48283170000;46396577777;46896577777
5006;48283171000;46396577777;46896577777
5007;48283172000;46396577777;46896577777
5008;48312494000;46437911111;46937911111
5066;48408966000;46646255555;47146255555
5067;48408969000;46646255555;47146255555
5068;48408970000;46646255555;47146255555
5069;48408971000;46646255555;47146255555
5070;48409125000;46646266666;47146266666
5071;48409129000;46646566666;47146566666
5072;48409130000;46646566666;47146566666
5073;48409131000;46646566666;47146566666
5075;48422228000;46687922222;47187922222
5076;48422232000;46687922222;47187922222
5077;48422233000;46687922222;47187922222
5078;48422234000;46687922222;47187922222
5080;48422235000;46687922222;47187922222
5081;48422330000;46687933333;47187933333
5082;48422345000;46688244444;47188244444
5083;48422346000;46688244444;47188244444
5084;48422347000;46688244444;47188244444
5085;48437381000;46729588888;47229588888
5086;48437384000;46729588888;47229588888
5087;48437385000;46729588888;47229588888
5088;48437386000;46729588888;47229588888
5089;48437387000;46729588888;47229588888
5090;48437388000;46729588888;47229588888
5091;48597493000;46729588888;47229588888
5092;48647880000;46729600000;47229600000
5147;48849972000;46937922222;47437922222
5148;48849978000;46938211111;47438211111
5149;48849979000;46938211111;47438211111
5150;48849980000;46938211111;47438211111
5151;48883393000;46979588888;47479588888
5152;48883397000;46979588888;47479588888
5153;48883398000;46979588888;47479588888
5154;48883399000;46979588888;47479588888
5155;48883399000;46979588888;47479588888
5156;48883400000;46979588888;47479588888
5157;48883402000;46979588888;47479588888
5158;48883608000;46979600000;47479600000
5159;48883624000;46979877777;47479877777
5160;48883625000;46979877777;47479877777
5161;48883626000;46979877777;47479877777
5162;48912967000;47021244444;47521244444
5225;49010242000;47229866666;47729866666
5226;49010244000;47229866666;47729866666
5227;49010245000;47229866666;47729866666
5228;49023889000;47271244444;47771244444
5229;49023892000;47271244444;47771244444
5230;49023893000;47271244444;47771244444
5231;49023894000;47271244444;47771244444
5232;49023895000;47271244444;47771244444
5233;49023896000;47271244444;47771244444
5234;49023897000;47271244444;47771244444
5235;49024104000;47271255555;47771255555
5236;49024119000;47271577777;47771577777
5237;49024120000;47271577777;47771577777
5238;49024121000;47271577777;47771577777
5239;49038889000;47312911111;47812911111
5240;49038892000;47312911111;47812911111
5241;49038893000;47312911111;47812911111
5243;49039076000;47312911111;47812911111
5244;49039078000;47312911111;47812911111
5245;49039079000;47312911111;47812911111
5246;49039280000;47312922222;47812922222
5247;49039295000;47313222222;47813222222
5248;49039296000;47313222222;47813222222
5249;49198142000;47313222222;47813222222
5250;49248487000;47354577777;47854577777
5304;49412922000;47521566666;48021566666
5305;49449847000;47562911111;48062911111
5306;49449850000;47562911111;48062911111
5307;49449851000;47562911111;48062911111
5308;49449852000;47562911111;48062911111
5310;49450401000;47562911111;48062911111
5311;49450404000;47562911111;48062911111
5312;49450631000;47562922222;48062922222
5313;49450647000;47563211111;48063211111
5314;49450648000;47563211111;48063211111
5315;49450649000;47563211111;48063211111
5316;49484072000;47604588888;48104588888
5317;49484085000;47604588888;48104588888
5318;49484086000;47604588888;48104588888
5319;49484087000;47604588888;48104588888
5320;49484088000;47604588888;48104588888
5321;49484089000;47604588888;48104588888
5322;49484090000;47604588888;48104588888
5323;49484290000;47604600000;48104600000
5324;49484312000;47604866666;48104866666
5325;49484313000;47604866666;48104866666
5326;49484314000;47604866666;48104866666
5327;49513656000;47646244444;48146244444
5382;49610222000;47854588888;48354588888
5383;49610224000;47854588888;48354588888
5384;49610225000;47854588888;48354588888
5385;49610226000;47854588888;48354588888
5386;49610227000;47854588888;48354588888
5387;49610228000;47854588888;48354588888
5388;49610229000;47854588888;48354588888
5390;49610304000;47854855555;48354855555
5391;49610306000;47854855555;48354855555
5392;49610307000;47854855555;48354855555
5393;49631690000;47896255555;48396255555
5394;49631694000;47896255555;48396255555
5395;49631695000;47896255555;48396255555
5396;49631696000;47896255555;48396255555
5397;49631697000;47896255555;48396255555
5398;49631698000;47896255555;48396255555
5399;49631699000;47896255555;48396255555
5400;49631899000;47896266666;48396266666
5401;49631914000;47896555555;48396555555
5402;49631915000;47896555555;48396555555
5403;49631916000;47896555555;48396555555
5404;49645153000;47937911111;48437911111
5405;49645156000;47937911111;48437911111
5407;49799260000;47937911111;48437911111
5408;49799263000;47937911111;48437911111
5409;49799284000;47937911111;48437911111
5410;49799295000;47937911111;48437911111
5411;49849686000;47937922222;48437922222
5461;49849690000;48146244444;48646244444
5462;49849691000;48146244444;48646244444
5463;49849692000;48146244444;48646244444
5464;49849693000;48146244444;48646244444
5465;49849694000;48146244444;48646244444
5466;50052929000;48146255555;48646255555
5467;50052948000;48146544444;48646544444
5468;50052949000;48146544444;48646544444
5469;50052950000;48146544444;48646544444
5470;50086202000;48187922222;48687922222
5471;50086206000;48187922222;48687922222
5472;50086207000;48187922222;48687922222
5473;50086208000;48187922222;48687922222
5474;50086208000;48187922222;48687922222
5475;50086210000;48187922222;48687922222
5476;50086211000;48187922222;48687922222
5477;50086439000;48187933333;48687933333
5478;50086454000;48188211111;48688211111
5479;50086455000;48188211111;48688211111
5480;50086456000;48188211111;48688211111
5481;50115779000;48229577777;48729577777
5483;50115889000;48229577777;48729577777
5484;50115893000;48229577777;48729577777
5485;50115904000;48229577777;48729577777
5486;50115905000;48229577777;48729577777
5488;50116079000;48229588888;48729588888
5489;50116083000;48229866666;48729866666
5491;50116084000;48229866666;48729866666
5492;50140618000;48271255555;48771255555
5493;50140621000;48271255555;48771255555
5494;50140622000;48271255555;48771255555
5495;50140623000;48271255555;48771255555
5496;50140624000;48271255555;48771255555
5497;50140625000;48271255555;48771255555
5498;50140626000;48271255555;48771255555
5499;50140796000;48271266666;48771266666
