seqnum;now;rtptime;deadline
1;11967997000;11230500000;11730500000
5;12049021000;11261655555;11761655555
25;12140781000;11344966666;11844966666
26;12140792000;11344966666;11844966666
27;12140794000;11344966666;11844966666
28;12140801000;11344966666;11844966666
29;12140802000;11344966666;11844966666
30;12140804000;11344966666;11844966666
31;12140806000;11344966666;11844966666
32;12163232000;11344988888;11844988888
33;12163254000;11345311111;11845311111
34;12163256000;11345311111;11845311111
35;12163257000;11345311111;11845311111
36;12187300000;11386633333;11886633333
37;12187307000;11386633333;11886633333
38;12187309000;11386633333;11886633333
39;12187311000;11386633333;11886633333
40;12268355000;11386633333;11886633333
41;12268368000;11386633333;11886633333
42;12268378000;11386633333;11886633333
43;12318939000;11386655555;11886655555
69;12318960000;11511633333;12011633333
70;12318961000;11511633333;12011633333
71;12318963000;11511633333;12011633333
72;12318964000;11511633333;12011633333
73;12318965000;11511633333;12011633333
74;12318967000;11511633333;12011633333
75;12318968000;11511633333;12011633333
76;12443402000;11511655555;12011655555
77;12443411000;11512011111;12012011111
78;12443413000;11512011111;12012011111
79;12443414000;11512011111;12012011111
80;12484109000;11553300000;12053300000
81;12484117000;11553300000;12053300000
82;12484118000;11553300000;12053300000
83;12568629000;11553300000;12053300000
84;12568633000;11553300000;12053300000
85;12568635000;11553300000;12053300000
86;12568642000;11553300000;12053300000
87;12619178000;11553322222;12053322222
110;12619194000;11636911111;12136911111
114;12869115000;11678300000;12178300000
119;12869120000;11678300000;12178300000
120;12869226000;11678322222;12178322222
122;12869235000;11678644444;12178644444
124;12869248000;11719966666;12219966666
126;12869262000;11719966666;12219966666
128;12869264000;11719966666;12219966666
129;12869272000;11719966666;12219966666
131;12869344000;11719988888;12219988888
140;12869436000;11761633333;12261633333
145;13044584000;11761944444;12261944444
155;13044665000;11803655555;12303655555
167;13169369000;11845288888;12345288888
173;13169390000;11886633333;12386633333
174;13169402000;11886633333;12386633333
175;13169498000;11886655555;12386655555
180;13169534000;11928300000;12428300000
182;13169536000;11928300000;12428300000
183;13169538000;11928300000;12428300000
184;13169540000;11928300000;12428300000
185;13169541000;11928300000;12428300000
186;13183700000;11928311111;12428311111
208;13354803000;12011644444;12511644444
226;13469654000;12094966666;12594966666
232;13485620000;12095288888;12595288888
264;13639993000;12220255555;12720255555
290;13818561000;12344933333;12844933333
320;13888257000;12428622222;12928622222
356;14135141000;12594933333;13094933333
385;14197389000;12678633333;13178633333
424;14451820000;12844966666;13344966666
499;14451936000;13136633333;13636633333
500;14451940000;13136633333;13636633333
501;14451941000;13136633333;13636633333
502;14451942000;13136633333;13636633333
503;14451943000;13136633333;13636633333
504;14451944000;13136633333;13636633333
505;14452080000;13136655555;13636655555
506;14452096000;13136911111;13636911111
507;14452097000;13136911111;13636911111
508;14452098000;13136911111;13636911111
509;14452114000;13178277777;13678277777
510;14452126000;13178277777;13678277777
511;14452127000;13178277777;13678277777
512;14452128000;13178277777;13678277777
513;14452129000;13178277777;13678277777
514;14452130000;13178277777;13678277777
520;14455421000;13219933333;13719933333
521;14455424000;13219933333;13719933333
522;14455425000;13219933333;13719933333
523;14455426000;13219933333;13719933333
525;14455427000;13219933333;13719933333
526;14455429000;13219933333;13719933333
527;14455552000;13219944444;13719944444
528;14671157000;13220211111;13720211111
529;14671161000;13220211111;13720211111
530;14671163000;13220211111;13720211111
531;14763151000;13261600000;13761600000
585;14922981000;13428644444;13928644444
586;14956895000;13469966666;13969966666
587;14956898000;13469966666;13969966666
588;14956899000;13469966666;13969966666
589;14956931000;13469966666;13969966666
590;14956932000;13469966666;13969966666
591;14956934000;13469966666;13969966666
592;14956935000;13469966666;13969966666
593;14957073000;13469988888;13969988888
594;14957076000;13470277777;13970277777
595;14957078000;13470277777;13970277777
596;14957079000;13470277777;13970277777
597;14986619000;13511633333;14011633333
663;15098225000;13761633333;14261633333
664;15098229000;13761633333;14261633333
665;15098230000;13761633333;14261633333
666;15098231000;13761633333;14261633333
667;15098232000;13761633333;14261633333
668;15098233000;13761633333;14261633333
670;15098439000;13761655555;14261655555
671;15098454000;13761933333;14261933333
672;15098456000;13761933333;14261933333
673;15098457000;13761933333;14261933333
674;15112764000;13803277777;14303277777
675;15112768000;13803277777;14303277777
676;15112769000;13803277777;14303277777
677;15112770000;13803277777;14303277777
678;15112771000;13803277777;14303277777
679;15112772000;13803277777;14303277777
680;15112773000;13803277777;14303277777
681;15113004000;13803288888;14303288888
682;15113019000;13803611111;14303611111
683;15113021000;13803611111;14303611111
684;15113022000;13803611111;14303611111
685;15127447000;13844966666;14344966666
686;15271763000;13844966666;14344966666
687;15271770000;13844966666;14344966666
688;15271782000;13844966666;14344966666
689;15271784000;13844966666;14344966666
690;15271848000;13844966666;14344966666
691;15271857000;13844966666;14344966666
692;15322330000;13844988888;14344988888
741;15322346000;14053300000;14553300000
742;15322347000;14053300000;14553300000
743;15322348000;14053300000;14553300000
744;15322349000;14053300000;14553300000
745;15322350000;14053300000;14553300000
746;15322351000;14053300000;14553300000
747;15524805000;14053322222;14553322222
748;15524809000;14053633333;14553633333
749;15524810000;14053633333;14553633333
750;15524811000;14053633333;14553633333
752;15558534000;14094933333;14594933333
753;15558536000;14094933333;14594933333
755;15558537000;14094933333;14594933333
756;15558538000;14094933333;14594933333
757;15558539000;14094933333;14594933333
758;15558612000;14094955555;14594955555
759;15558615000;14095244444;14595244444
760;15558616000;14095244444;14595244444
761;15558617000;14095244444;14595244444
762;15587809000;14136600000;14636600000
817;15690300000;14344977777;14844977777
818;15690310000;14344977777;14844977777
819;15690312000;14344977777;14844977777
820;15690313000;14344977777;14844977777
821;15690315000;14344977777;14844977777
822;15690316000;14344977777;14844977777
823;15690318000;14344977777;14844977777
824;15690539000;14345000000;14845000000
825;15690555000;14345288888;14845288888
826;15690556000;14345288888;14845288888
827;15690558000;14345288888;14845288888
831;15701538000;14386600000;14886600000
832;15701542000;14386600000;14886600000
833;15701543000;14386600000;14886600000
837;15701557000;14386900000;14886900000
838;15701569000;14386900000;14886900000
839;15723746000;14428266666;14928266666
840;15723751000;14428266666;14928266666
841;15723753000;14428266666;14928266666
842;15723755000;14428266666;14928266666
843;15723756000;14428266666;14928266666
844;15723758000;14428266666;14928266666
845;15723760000;14428266666;14928266666
846;15922848000;14428277777;14928277777
902;15922863000;14636922222;15136922222
903;15922865000;14636922222;15136922222
904;15922866000;14636922222;15136922222
905;16159496000;14678277777;15178277777
906;16159506000;14678277777;15178277777
907;16159508000;14678277777;15178277777
908;16159509000;14678277777;15178277777
909;16159511000;14678277777;15178277777
910;16159512000;14678277777;15178277777
911;16159513000;14678277777;15178277777
913;16159601000;14678600000;15178600000
914;16159603000;14678600000;15178600000
915;16159605000;14678600000;15178600000
916;16191394000;14719933333;15219933333
982;16300023000;14969966666;15469966666
983;16300027000;14969966666;15469966666
984;16300028000;14969966666;15469966666
985;16300029000;14969966666;15469966666
986;16300030000;14969966666;15469966666
987;16300031000;14969966666;15469966666
988;16300032000;14969966666;15469966666
989;16300263000;14969988888;15469988888
991;16300279000;14970266666;15470266666
992;16300280000;14970266666;15470266666
993;16314511000;15011600000;15511600000
994;16314514000;15011600000;15511600000
995;16314515000;15011600000;15511600000
996;16314516000;15011600000;15511600000
997;16314517000;15011600000;15511600000
998;16314518000;15011600000;15511600000
999;16314519000;15011600000;15511600000
1000;16314697000;15011622222;15511622222
1001;16314702000;15011911111;15511911111
1002;16314703000;15011911111;15511911111
1003;16314704000;15011911111;15511911111
1004;16329155000;15053266666;15553266666
1005;16329158000;15053266666;15553266666
1007;16473110000;15053266666;15553266666
1008;16473113000;15053266666;15553266666
1009;16473114000;15053266666;15553266666
1014;16523840000;15053611111;15553611111
1062;16725813000;15261633333;15761633333
1063;16725817000;15261633333;15761633333
1064;16725818000;15261633333;15761633333
1065;16725818000;15261633333;15761633333
1067;16725929000;15261922222;15761922222
1068;16725932000;15261922222;15761922222
1069;16725933000;15261922222;15761922222
1070;16761192000;15303277777;15803277777
1071;16761195000;15303277777;15803277777
1072;16761196000;15303277777;15803277777
1073;16761197000;15303277777;15803277777
1074;16761198000;15303277777;15803277777
1075;16761199000;15303277777;15803277777
1076;16761200000;15303277777;15803277777
1077;16761399000;15303288888;15803288888
1079;16761415000;15303611111;15803611111
1080;16761416000;15303611111;15803611111
1081;16790739000;15344933333;15844933333
1142;16895368000;15553300000;16053300000
1143;16895638000;15553322222;16053322222
1144;16895644000;15553622222;16053622222
1145;16895646000;15553622222;16053622222
1146;16895647000;15553622222;16053622222
1147;16906069000;15594944444;16094944444
1149;16906073000;15594944444;16094944444
1150;16906083000;15594944444;16094944444
1151;16906084000;15594944444;16094944444
1152;16906086000;15594944444;16094944444
1153;16906087000;15594944444;16094944444
1154;16906302000;15594955555;16094955555
1155;16906317000;15595244444;16095244444
1156;16906318000;15595244444;16095244444
1157;16906319000;15595244444;16095244444
1158;16919897000;15636600000;16136600000
1159;16919901000;15636600000;16136600000
1160;16919902000;15636600000;16136600000
1162;16919903000;15636600000;16136600000
1163;16919905000;15636600000;16136600000
1164;16919906000;15636600000;16136600000
1165;16920058000;15636611111;16136611111
1166;17073795000;15636844444;16136844444
1167;17073807000;15636844444;16136844444
1168;17073832000;15636844444;16136844444
1169;17165793000;15678266666;16178266666
1221;17326103000;15845288888;16345288888
1222;17326114000;15845288888;16345288888
1223;17326115000;15845288888;16345288888
1224;17359643000;15886600000;16386600000
1225;17359647000;15886600000;16386600000
1229;17359776000;15886600000;16386600000
1230;17359778000;15886600000;16386600000
1231;17359979000;15886622222;16386622222
1232;17359995000;15886911111;16386911111
1234;17359996000;15886911111;16386911111
1235;17389325000;15928266666;16428266666
1300;17492147000;16136911111;16636911111
1302;17505193000;16178277777;16678277777
1303;17505196000;16178277777;16678277777
1304;17505197000;16178277777;16678277777
1305;17505198000;16178277777;16678277777
1306;17505199000;16178277777;16678277777
1307;17505200000;16178277777;16678277777
1308;17505322000;16178288888;16678288888
1309;17505337000;16178622222;16678622222
1310;17505338000;16178622222;16678622222
1312;17519063000;16219933333;16719933333
1313;17519076000;16219933333;16719933333
1315;17519077000;16219933333;16719933333
1316;17519078000;16219933333;16719933333
1317;17519079000;16219933333;16719933333
1318;17519080000;16219933333;16719933333
1319;17519198000;16219955555;16719955555
1320;17519213000;16220222222;16720222222
1321;17519214000;16220222222;16720222222
1322;17519215000;16220222222;16720222222
1323;17532973000;16261611111;16761611111
1324;17532976000;16261611111;16761611111
1325;17532978000;16261611111;16761611111
1326;17674683000;16261611111;16761611111
1327;17674685000;16261611111;16761611111
1328;17674779000;16261611111;16761611111
1329;17674781000;16261611111;16761611111
1330;17725254000;16261633333;16761633333
1378;17725269000;16469966666;16969966666
1380;17927422000;16469966666;16969966666
1381;17927424000;16469966666;16969966666
1382;17927425000;16469966666;16969966666
1383;17927426000;16469966666;16969966666
1384;17927427000;16469966666;16969966666
1385;17927635000;16469988888;16969988888
1386;17927651000;16470266666;16970266666
1387;17927652000;16470266666;16970266666
1388;17927653000;16470266666;16970266666
1389;17961691000;16511600000;17011600000
1390;17961694000;16511600000;17011600000
1395;17961696000;16511600000;17011600000
1396;17961901000;16511622222;17011622222
1397;17961917000;16511922222;17011922222
1398;17961918000;16511922222;17011922222
1399;17961919000;16511922222;17011922222
1400;17991343000;16553266666;17053266666
1463;18101074000;16761933333;17261933333
1464;18101085000;16761933333;17261933333
1465;18101087000;16761933333;17261933333
1466;18111533000;16803277777;17303277777
1467;18111537000;16803277777;17303277777
1468;18111538000;16803277777;17303277777
1469;18111540000;16803277777;17303277777
1470;18111541000;16803277777;17303277777
1471;18111542000;16803277777;17303277777
1473;18111769000;16803288888;17303288888
1474;18111785000;16803622222;17303622222
1475;18111786000;16803622222;17303622222
1476;18111787000;16803622222;17303622222
1477;18124489000;16844933333;17344933333
1478;18124492000;16844933333;17344933333
1479;18124493000;16844933333;17344933333
1480;18124495000;16844933333;17344933333
1481;18124496000;16844933333;17344933333
1482;18124497000;16844933333;17344933333
1483;18124498000;16844933333;17344933333
1484;18124669000;16844955555;17344955555
1485;18124674000;16845255555;17345255555
1486;18275302000;16845255555;17345255555
1487;18275330000;16845255555;17345255555
1488;18325743000;16886600000;17386600000
1538;18495826000;17053300000;17553300000
1539;18495962000;17053322222;17553322222
1540;18495967000;17053655555;17553655555
1541;18495969000;17053655555;17553655555
1544;18527558000;17094944444;17594944444
1545;18527562000;17094944444;17594944444
1546;18527564000;17094944444;17594944444
1547;18527565000;17094944444;17594944444
1548;18527566000;17094944444;17594944444
1549;18527567000;17094944444;17594944444
1550;18527689000;17094955555;17594955555
1551;18527705000;17095255555;17595255555
1552;18527707000;17095255555;17595255555
1553;18527708000;17095255555;17595255555
1554;18561378000;17136600000;17636600000
1555;18561381000;17136600000;17636600000
1556;18561382000;17136600000;17636600000
1557;18561384000;17136600000;17636600000
1559;18561386000;17136600000;17636600000
1561;18561557000;17136622222;17636622222
1562;18561561000;17136877777;17636877777
1564;18561563000;17136877777;17636877777
1565;18591031000;17178266666;17678266666
1617;18673351000;17345266666;17845266666
1618;18673355000;17345266666;17845266666
1621;18687765000;17386600000;17886600000
1622;18687768000;17386600000;17886600000
1624;18687769000;17386600000;17886600000
1625;18687770000;17386600000;17886600000
1626;18687771000;17386600000;17886600000
1627;18687890000;17386622222;17886622222
1628;18687905000;17386911111;17886911111
1629;18687906000;17386911111;17886911111
1630;18687907000;17386911111;17886911111
1631;18701350000;17428266666;17928266666
1632;18701353000;17428266666;17928266666
1633;18701354000;17428266666;17928266666
1634;18701355000;17428266666;17928266666
1635;18701356000;17428266666;17928266666
1636;18701357000;17428266666;17928266666
1637;18701358000;17428266666;17928266666
1641;18701468000;17428600000;17928600000
1642;18724431000;17469944444;17969944444
1643;18724434000;17469944444;17969944444
1644;18724435000;17469944444;17969944444
1645;18724436000;17469944444;17969944444
1646;18875990000;17469944444;17969944444
1647;18875994000;17469944444;17969944444
1648;18875999000;17469944444;17969944444
1649;18926471000;17469966666;17969966666
1703;18926487000;17678266666;18178266666
1704;19128604000;17678288888;18178288888
1705;19128621000;17678688888;18178688888
1707;19128622000;17678688888;18178688888
1708;19161981000;17719966666;18219966666
1709;19161984000;17719966666;18219966666
1710;19161985000;17719966666;18219966666
1711;19161986000;17719966666;18219966666
1712;19161987000;17719966666;18219966666
1713;19161988000;17719966666;18219966666
1714;19161989000;17719966666;18219966666
1715;19162173000;17719988888;18219988888
1716;19162177000;17720288888;18220288888
1717;19162179000;17720288888;18220288888
1718;19162179000;17720288888;18220288888
1719;19191671000;17761633333;18261633333
1782;19295973000;17970266666;18470266666
1783;19295986000;17970266666;18470266666
1784;19295988000;17970266666;18470266666
1785;19301909000;18011600000;18511600000
1786;19301914000;18011600000;18511600000
1787;19301916000;18011600000;18511600000
1788;19301917000;18011600000;18511600000
1789;19301918000;18011600000;18511600000
1791;19301920000;18011600000;18511600000
1792;19302152000;18011622222;18511622222
1793;19302167000;18011911111;18511911111
1794;19302169000;18011911111;18511911111
1795;19302170000;18011911111;18511911111
1796;19317290000;18053266666;18553266666
1797;19317293000;18053266666;18553266666
1798;19317295000;18053266666;18553266666
1799;19317296000;18053266666;18553266666
1800;19317297000;18053266666;18553266666
1801;19317299000;18053266666;18553266666
1802;19317300000;18053266666;18553266666
1803;19317500000;18053277777;18553277777
1804;19317515000;18053611111;18553611111
1805;19317516000;18053611111;18553611111
1806;19476601000;18053611111;18553611111
1807;19526995000;18094933333;18594933333
1857;19697325000;18261633333;18761633333
1860;19697442000;18261933333;18761933333
1861;19697445000;18261933333;18761933333
1862;19729396000;18303277777;18803277777
1863;19729400000;18303277777;18803277777
1864;19729401000;18303277777;18803277777
1865;19729402000;18303277777;18803277777
1866;19729403000;18303277777;18803277777
1867;19729405000;18303277777;18803277777
1868;19729406000;18303277777;18803277777
1869;19729608000;18303288888;18803288888
1870;19729623000;18303611111;18803611111
1871;19729625000;18303611111;18803611111
1872;19729626000;18303611111;18803611111
1873;19763650000;18344933333;18844933333
1874;19763653000;18344933333;18844933333
1875;19763655000;18344933333;18844933333
1876;19763656000;18344933333;18844933333
1877;19763657000;18344933333;18844933333
1878;19763659000;18344933333;18844933333
1882;19763842000;18345211111;18845211111
1887;19796523000;18386600000;18886600000
1942;19892023000;18594933333;19094933333
1943;19892026000;18594933333;19094933333
1944;19892027000;18594933333;19094933333
1945;19892028000;18594933333;19094933333
1946;19892244000;18594955555;19094955555
1947;19892259000;18595222222;19095222222
1948;19892261000;18595222222;19095222222
1949;19892261000;18595222222;19095222222
1950;19904863000;18636611111;19136611111
1951;19904867000;18636611111;19136611111
1952;19904868000;18636611111;19136611111
1954;19904964000;18636611111;19136611111
1955;19904967000;18636611111;19136611111
1956;19904968000;18636611111;19136611111
1957;19905131000;18636622222;19136622222
1958;19905134000;18636877777;19136877777
1959;19905135000;18636877777;19136877777
1960;19905136000;18636877777;19136877777
1961;19919815000;18678266666;19178266666
1962;19919817000;18678266666;19178266666
1963;19919818000;18678266666;19178266666
1964;19919819000;18678266666;19178266666
1965;19919819000;18678266666;19178266666
1966;20077275000;18678266666;19178266666
1967;20077279000;18678266666;19178266666
1968;20127859000;18678288888;19178288888
2020;20328988000;18886600000;19386600000
2021;20328990000;18886600000;19386600000
2022;20328991000;18886600000;19386600000
2023;20329204000;18886622222;19386622222
2024;20329220000;18886911111;19386911111
2025;20329221000;18886911111;19386911111
2026;20329222000;18886911111;19386911111
2027;20363350000;18928266666;19428266666
2029;20363353000;18928266666;19428266666
2030;20363354000;18928266666;19428266666
2031;20363355000;18928266666;19428266666
2032;20363356000;18928266666;19428266666
2033;20363357000;18928266666;19428266666
2034;20363564000;18928288888;19428288888
2035;20363579000;18928566666;19428566666
2041;20393021000;18969933333;19469933333
2099;20490299000;19178300000;19678300000
2100;20490489000;19178322222;19678322222
2101;20490494000;19178622222;19678622222
2102;20490496000;19178622222;19678622222
2103;20490498000;19178622222;19678622222
2105;20503937000;19219933333;19719933333
2106;20503945000;19219933333;19719933333
2107;20503946000;19219933333;19719933333
2108;20503947000;19219933333;19719933333
2110;20503949000;19219933333;19719933333
2111;20504062000;19219955555;19719955555
2112;20504068000;19220244444;19720244444
2113;20504079000;19220244444;19720244444
2114;20504080000;19220244444;19720244444
2115;20518913000;19261600000;19761600000
2116;20518917000;19261600000;19761600000
2117;20518918000;19261600000;19761600000
2118;20518919000;19261600000;19761600000
2119;20518921000;19261600000;19761600000
2120;20518922000;19261600000;19761600000
2123;20519033000;19261888888;19761888888
2124;20519037000;19261888888;19761888888
2125;20519038000;19261888888;19761888888
2126;20728230000;19303266666;19803266666
2179;20899834000;19470300000;19970300000
2180;20899846000;19470300000;19970300000
2181;20929602000;19511600000;20011600000
2182;20929607000;19511600000;20011600000
2183;20929608000;19511600000;20011600000
2185;20930373000;19511600000;20011600000
2186;20930385000;19511600000;20011600000
2187;20930386000;19511600000;20011600000
2188;20930578000;19511622222;20011622222
2189;20930594000;19511933333;20011933333
2190;20930595000;19511933333;20011933333
2192;20964000000;19553300000;20053300000
2193;20964004000;19553300000;20053300000
2194;20964005000;19553300000;20053300000
2195;20964006000;19553300000;20053300000
2196;20964008000;19553300000;20053300000
2198;20964009000;19553300000;20053300000
2199;20964178000;19553322222;20053322222
2201;20964194000;19553644444;20053644444
2202;20964195000;19553644444;20053644444
2203;20993670000;19594966666;20094966666
2262;21098286000;19803266666;20303266666
2263;21098289000;19803266666;20303266666
2264;21098290000;19803266666;20303266666
2265;21098394000;19803288888;20303288888
2266;21098399000;19803622222;20303622222
2267;21098400000;19803622222;20303622222
2268;21098401000;19803622222;20303622222
2269;21110494000;19844944444;20344944444
2270;21110497000;19844944444;20344944444
2271;21110498000;19844944444;20344944444
2272;21110499000;19844944444;20344944444
2273;21110500000;19844944444;20344944444
2274;21110501000;19844944444;20344944444
2275;21110502000;19844944444;20344944444
2277;21110565000;19845311111;20345311111
2279;21110568000;19845311111;20345311111
2280;21132668000;19886600000;20386600000
2281;21132672000;19886600000;20386600000
2282;21132673000;19886600000;20386600000
2283;21132674000;19886600000;20386600000
2284;21132674000;19886600000;20386600000
2285;21132676000;19886600000;20386600000
2286;21278545000;19886600000;20386600000
2287;21329124000;19886611111;20386611111
2340;21329139000;20094944444;20594944444
2341;21329141000;20094944444;20594944444
2342;21531325000;20094955555;20594955555
2343;21531331000;20095266666;20595266666
2344;21531333000;20095266666;20595266666
2345;21531334000;20095266666;20595266666
2346;21564725000;20136600000;20636600000
2347;21564728000;20136600000;20636600000
2348;21564729000;20136600000;20636600000
2349;21564731000;20136600000;20636600000
2351;21565938000;20136600000;20636600000
2352;21565950000;20136600000;20636600000
2353;21566091000;20136622222;20636622222
2354;21566097000;20136900000;20636900000
2355;21566098000;20136900000;20636900000
2356;21566099000;20136900000;20636900000
2361;21594440000;20178266666;20678266666
2413;21706798000;20386600000;20886600000
2414;21706815000;20386600000;20886600000
2415;21706816000;20386600000;20886600000
2417;21706818000;20386600000;20886600000
2418;21706820000;20386600000;20886600000
2419;21707037000;20386622222;20886622222
2420;21707068000;20386900000;20886900000
2421;21707070000;20386900000;20886900000
2422;21707071000;20386900000;20886900000
2423;21707086000;20428266666;20928266666
2424;21707087000;20428266666;20928266666
2425;21707099000;20428266666;20928266666
2426;21707100000;20428266666;20928266666
2427;21707117000;20428266666;20928266666
2430;21707231000;20428288888;20928288888
2433;21707247000;20428588888;20928588888
2434;21726900000;20469933333;20969933333
2435;21726909000;20469933333;20969933333
2436;21726910000;20469933333;20969933333
2437;21726912000;20469933333;20969933333
2440;21726914000;20469933333;20969933333
2444;21727069000;20470233333;20970233333
2445;21742663000;20511633333;21011633333
2446;21879484000;20511633333;21011633333
2447;21879486000;20511633333;21011633333
2448;21879629000;20511633333;21011633333
2450;21879768000;20511633333;21011633333
2451;21879771000;20511633333;21011633333
2452;21930429000;20511655555;21011655555
2504;21930444000;20719944444;21219944444
2505;21930445000;20719944444;21219944444
2506;21930446000;20719944444;21219944444
2507;22133709000;20719955555;21219955555
2508;22133730000;20720266666;21220266666
2509;22133731000;20720266666;21220266666
2510;22133733000;20720266666;21220266666
2511;22166967000;20761633333;21261633333
2512;22166971000;20761633333;21261633333
2514;22166973000;20761633333;21261633333
2515;22166974000;20761633333;21261633333
2516;22166976000;20761633333;21261633333
2517;22166977000;20761633333;21261633333
2518;22167206000;20761655555;21261655555
2519;22167210000;20761933333;21261933333
2520;22167211000;20761933333;21261933333
2521;22167212000;20761933333;21261933333
2522;22196630000;20803300000;21303300000
2581;22294234000;21011600000;21511600000
2582;22294247000;21011600000;21511600000
2583;22294248000;21011600000;21511600000
2584;22294461000;21011622222;21511622222
2585;22294464000;21011922222;21511922222
2586;22294465000;21011922222;21511922222
2587;22294466000;21011922222;21511922222
2589;22307987000;21053277777;21553277777
2590;22307990000;21053277777;21553277777
2591;22307991000;21053277777;21553277777
2592;22307992000;21053277777;21553277777
2593;22307993000;21053277777;21553277777
2594;22307994000;21053277777;21553277777
2595;22308119000;21053288888;21553288888
2596;22308134000;21053655555;21553655555
2598;22308136000;21053655555;21553655555
2599;22322987000;21094933333;21594933333
2600;22322991000;21094933333;21594933333
2601;22322992000;21094933333;21594933333
2602;22322992000;21094933333;21594933333
2603;22322993000;21094933333;21594933333
2605;22322995000;21094933333;21594933333
2606;22530710000;21094944444;21594944444
2661;22732833000;21303288888;21803288888
2662;22732839000;21303600000;21803600000
2663;22732841000;21303600000;21803600000
2664;22732841000;21303600000;21803600000
2665;22766285000;21344933333;21844933333
2666;22766288000;21344933333;21844933333
2667;22766289000;21344933333;21844933333
2668;22766290000;21344933333;21844933333
2669;22766291000;21344933333;21844933333
2670;22766292000;21344933333;21844933333
2671;22766293000;21344933333;21844933333
2672;22766487000;21344955555;21844955555
2673;22766492000;21345211111;21845211111
2674;22766493000;21345211111;21845211111
2675;22766494000;21345211111;21845211111
2676;22796022000;21386600000;21886600000
2743;22913234000;21636600000;22136600000
2744;22913241000;21636600000;22136600000
2745;22913242000;21636600000;22136600000
2746;22913244000;21636600000;22136600000
2747;22913245000;21636600000;22136600000
2748;22913247000;21636600000;22136600000
2749;22913390000;21636622222;22136622222
2750;22913396000;21636866666;22136866666
2751;22913407000;21636866666;22136866666
2752;22913408000;21636866666;22136866666
2753;22927215000;21678266666;22178266666
2754;22927219000;21678266666;22178266666
2755;22927220000;21678266666;22178266666
2756;22927222000;21678266666;22178266666
2757;22927223000;21678266666;22178266666
2759;22927224000;21678266666;22178266666
2760;22927426000;21678277777;22178277777
2761;22927441000;21678555555;22178555555
2762;22927442000;21678555555;22178555555
2763;22927444000;21678555555;22178555555
2764;22941024000;21719933333;22219933333
2765;22941028000;21719933333;22219933333
2766;23080869000;21719933333;22219933333
2767;23080939000;21719933333;22219933333
2768;23081192000;21719933333;22219933333
2769;23081194000;21719933333;22219933333
2773;23131876000;21720222222;22220222222
2824;23333959000;21928266666;22428266666
2825;23333970000;21928266666;22428266666
2827;23334087000;21928566666;22428566666
2828;23334090000;21928566666;22428566666
2829;23334091000;21928566666;22428566666
2830;23369310000;21969933333;22469933333
2833;23369314000;21969933333;22469933333
2834;23369316000;21969933333;22469933333
2835;23369317000;21969933333;22469933333
2836;23369318000;21969933333;22469933333
2837;23369446000;21969955555;22469955555
2838;23369452000;21970200000;22470200000
2839;23369453000;21970200000;22470200000
2840;23369454000;21970200000;22470200000
2841;23398960000;22011633333;22511633333
2901;23496231000;22219933333;22719933333
2902;23496235000;22219933333;22719933333
2903;23496348000;22219955555;22719955555
2904;23496353000;22220211111;22720211111
2906;23496355000;22220211111;22720211111
2907;23510467000;22261611111;22761611111
2908;23510471000;22261611111;22761611111
2909;23510471000;22261611111;22761611111
2910;23510473000;22261611111;22761611111
2911;23510473000;22261611111;22761611111
2912;23510474000;22261611111;22761611111
2913;23510475000;22261611111;22761611111
2914;23510597000;22261633333;22761633333
2915;23510603000;22261888888;22761888888
2916;23510604000;22261888888;22761888888
2918;23525390000;22303266666;22803266666
2919;23525392000;22303266666;22803266666
2921;23525393000;22303266666;22803266666
2922;23525394000;22303266666;22803266666
2923;23525395000;22303266666;22803266666
2924;23525396000;22303266666;22803266666
2927;23731964000;22303577777;22803577777
2984;23971304000;22553266666;23053266666
2985;23971308000;22553266666;23053266666
2986;23971309000;22553266666;23053266666
2987;23971310000;22553266666;23053266666
2988;23971311000;22553266666;23053266666
2989;23971311000;22553266666;23053266666
2990;23971312000;22553266666;23053266666
2991;23971405000;22553288888;23053288888
2992;23971410000;22553566666;23053566666
2993;23971411000;22553566666;23053566666
2994;23971412000;22553566666;23053566666
2995;23999890000;22594933333;23094933333
3060;24097194000;22803600000;23303600000
3061;24110887000;22844933333;23344933333
3062;24110895000;22844933333;23344933333
3063;24110897000;22844933333;23344933333
3064;24110899000;22844933333;23344933333
3067;24110901000;22844933333;23344933333
3068;24111042000;22844955555;23344955555
3069;24111072000;22845222222;23345222222
3070;24111074000;22845222222;23345222222
3071;24111075000;22845222222;23345222222
3072;24125629000;22886600000;23386600000
3073;24125633000;22886600000;23386600000
3074;24125634000;22886600000;23386600000
3075;24125635000;22886600000;23386600000
3076;24125636000;22886600000;23386600000
3077;24125637000;22886600000;23386600000
3079;24125762000;22886611111;23386611111
3080;24125767000;22886888888;23386888888
3081;24125769000;22886888888;23386888888
3082;24125770000;22886888888;23386888888
3083;24140216000;22928266666;23428266666
3084;24140219000;22928266666;23428266666
3088;24282985000;22928266666;23428266666
3089;24283007000;22928266666;23428266666
3090;24333405000;22928277777;23428277777
3140;24333411000;23136600000;23636600000
3141;24333413000;23136600000;23636600000
3142;24333414000;23136600000;23636600000
3143;24333415000;23136600000;23636600000
3144;24333416000;23136600000;23636600000
3145;24535303000;23136622222;23636622222
3146;24535314000;23136855555;23636855555
3147;24535317000;23136855555;23636855555
3148;24535318000;23136855555;23636855555
3149;24568985000;23178266666;23678266666
3150;24568989000;23178266666;23678266666
3151;24568990000;23178266666;23678266666
3152;24568992000;23178266666;23678266666
3153;24568993000;23178266666;23678266666
3154;24568994000;23178266666;23678266666
3155;24568995000;23178266666;23678266666
3156;24569131000;23178277777;23678277777
3157;24569137000;23178588888;23678588888
3161;24598709000;23219977777;23719977777
3219;24704639000;23428266666;23928266666
3220;24704642000;23428266666;23928266666
3222;24704756000;23428288888;23928288888
3223;24704761000;23428566666;23928566666
3224;24704763000;23428566666;23928566666
3225;24704764000;23428566666;23928566666
3226;24716281000;23469944444;23969944444
3227;24716285000;23469944444;23969944444
3228;24716286000;23469944444;23969944444
3229;24716287000;23469944444;23969944444
3230;24716288000;23469944444;23969944444
3231;24716288000;23469944444;23969944444
3232;24716289000;23469944444;23969944444
3233;24716412000;23469966666;23969966666
3235;24716418000;23470244444;23970244444
3236;24716419000;23470244444;23970244444
3237;24730322000;23511633333;24011633333
3238;24730326000;23511633333;24011633333
3239;24730327000;23511633333;24011633333
3240;24730328000;23511633333;24011633333
3241;24730329000;23511633333;24011633333
3242;24730330000;23511633333;24011633333
3243;24730331000;23511633333;24011633333
3244;24934098000;23511655555;24011655555
3294;25135889000;23719955555;24219955555
3295;25135892000;23719955555;24219955555
3297;25135893000;23719955555;24219955555
3301;25135977000;23720255555;24220255555
3302;25135979000;23720255555;24220255555
3303;25171741000;23761622222;24261622222
3304;25171744000;23761622222;24261622222
3305;25171745000;23761622222;24261622222
3306;25171746000;23761622222;24261622222
3307;25171747000;23761622222;24261622222
3309;25171748000;23761622222;24261622222
3311;25171813000;23761922222;24261922222
3312;25171816000;23761922222;24261922222
3313;25171826000;23761922222;24261922222
3316;25204622000;23803288888;24303288888
3379;25313430000;24011888888;24511888888
3380;25320234000;24053266666;24553266666
3381;25320243000;24053266666;24553266666
3382;25320244000;24053266666;24553266666
3383;25320246000;24053266666;24553266666
3385;25320248000;24053266666;24553266666
3386;25320249000;24053266666;24553266666
3387;25320376000;24053277777;24553277777
3388;25320383000;24053588888;24553588888
3389;25320384000;24053588888;24553588888
3391;25333582000;24094933333;24594933333
3392;25333589000;24094933333;24594933333
3394;25333591000;24094933333;24594933333
3395;25333593000;24094933333;24594933333
3396;25333594000;24094933333;24594933333
3397;25333595000;24094933333;24594933333
3398;25333693000;24094944444;24594944444
3399;25333699000;24095222222;24595222222
3400;25333701000;24095222222;24595222222
3401;25333703000;24095222222;24595222222
3402;25346666000;24136622222;24636622222
3403;25346670000;24136622222;24636622222
3404;25484544000;24136622222;24636622222
3405;25484551000;24136622222;24636622222
3406;25484672000;24136622222;24636622222
3408;25484967000;24136622222;24636622222
3409;25535324000;24137355555;24637355555
3460;25535330000;24344966666;24844966666
3461;25535332000;24344966666;24844966666
3462;25535333000;24344966666;24844966666
3463;25535334000;24344966666;24844966666
3464;25736912000;24344988888;24844988888
3465;25736933000;24345266666;24845266666
3466;25736934000;24345266666;24845266666
3467;25736935000;24345266666;24845266666
3468;25770235000;24386633333;24886633333
3469;25770239000;24386633333;24886633333
3470;25770240000;24386633333;24886633333
3471;25770241000;24386633333;24886633333
3472;25770242000;24386633333;24886633333
3473;25770243000;24386633333;24886633333
3474;25770245000;24386633333;24886633333
3475;25770360000;24386655555;24886655555
3476;25770366000;24386933333;24886933333
3477;25770367000;24386933333;24886933333
3478;25770369000;24386933333;24886933333
3479;25800035000;24428300000;24928300000
3540;25901431000;24636600000;25136600000
3541;25901549000;24636622222;25136622222
3542;25901554000;24636866666;25136866666
3543;25901556000;24636866666;25136866666
3544;25901557000;24636866666;25136866666
3546;25915447000;24678277777;25178277777
3547;25915450000;24678277777;25178277777
3548;25915451000;24678277777;25178277777
3549;25915452000;24678277777;25178277777
3550;25915453000;24678277777;25178277777
3551;25915454000;24678277777;25178277777
3552;25915529000;24678288888;25178288888
3553;25915544000;24678611111;25178611111
3554;25915546000;24678611111;25178611111
3555;25915547000;24678611111;25178611111
3556;25929959000;24719933333;25219933333
3557;25929963000;24719933333;25219933333
3558;25929964000;24719933333;25219933333
3559;25929965000;24719933333;25219933333
3560;25929966000;24719933333;25219933333
3561;25929976000;24719933333;25219933333
3562;25929977000;24719933333;25219933333
3563;25930109000;24719944444;25219944444
3567;26086610000;24761666666;25261666666
3568;26086612000;24761666666;25261666666
3569;26086613000;24761666666;25261666666
3570;26086614000;24761666666;25261666666
3571;26086615000;24761666666;25261666666
3572;26086616000;24761666666;25261666666
3573;26086617000;24761666666;25261666666
3574;26178021000;24761688888;25261688888
3620;26178027000;24928566666;25428566666
3621;26178028000;24928566666;25428566666
3622;26372475000;24969933333;25469933333
3623;26372478000;24969933333;25469933333
3624;26372479000;24969933333;25469933333
3626;26372481000;24969933333;25469933333
3627;26372482000;24969933333;25469933333
3628;26372483000;24969933333;25469933333
3629;26372630000;24969944444;25469944444
3630;26372636000;24970211111;25470211111
3631;26372637000;24970211111;25470211111
3632;26372638000;24970211111;25470211111
3633;26401404000;25011600000;25511600000
3699;26521514000;25261600000;25761600000
3700;26521525000;25261600000;25761600000
3701;26521526000;25261600000;25761600000
3702;26521528000;25261600000;25761600000
3703;26521531000;25261600000;25761600000
3704;26521532000;25261600000;25761600000
3705;26521543000;25261600000;25761600000
3706;26521665000;25261611111;25761611111
3707;26521670000;25261866666;25761866666
3708;26521671000;25261866666;25761866666
3709;26521673000;25261866666;25761866666
3710;26534466000;25303266666;25803266666
3712;26534567000;25303266666;25803266666
3713;26534569000;25303266666;25803266666
3714;26534570000;25303266666;25803266666
3715;26534572000;25303266666;25803266666
3716;26534573000;25303266666;25803266666
3717;26534688000;25303277777;25803277777
3718;26534693000;25303577777;25803577777
3719;26534695000;25303577777;25803577777
3720;26534696000;25303577777;25803577777
3723;26547973000;25344977777;25844977777
3724;26686713000;25344977777;25844977777
3725;26686720000;25344977777;25844977777
3727;26686802000;25344977777;25844977777
3728;26737177000;25344988888;25844988888
3781;26737194000;25553277777;26053277777
3782;26737195000;25553277777;26053277777
3783;26939858000;25553300000;26053300000
3784;26939879000;25553577777;26053577777
3785;26939880000;25553577777;26053577777
3786;26939882000;25553577777;26053577777
3787;26973164000;25594966666;26094966666
3788;26973167000;25594966666;26094966666
3789;26973169000;25594966666;26094966666
3790;26973170000;25594966666;26094966666
3791;26973171000;25594966666;26094966666
3792;26973173000;25594966666;26094966666
3793;26973174000;25594966666;26094966666
3794;26973302000;25594988888;26094988888
3795;26973307000;25595255555;26095255555
3796;26973309000;25595255555;26095255555
3797;26973310000;25595255555;26095255555
3798;27002896000;25636633333;26136633333
3861;27100892000;25845277777;26345277777
3862;27100896000;25845277777;26345277777
3863;27100897000;25845277777;26345277777
3864;27114662000;25886600000;26386600000
3865;27114665000;25886600000;26386600000
3866;27114666000;25886600000;26386600000
3867;27114667000;25886600000;26386600000
3869;27114668000;25886600000;26386600000
3870;27114670000;25886600000;26386600000
3871;27114793000;25886622222;26386622222
3872;27114798000;25886922222;26386922222
3873;27114800000;25886922222;26386922222
3874;27114801000;25886922222;26386922222
3875;27129811000;25928266666;26428266666
3876;27129814000;25928266666;26428266666
3877;27129815000;25928266666;26428266666
3878;27129816000;25928266666;26428266666
3879;27129817000;25928266666;26428266666
3880;27129818000;25928266666;26428266666
3881;27129819000;25928266666;26428266666
3882;27129932000;25928277777;26428277777
3883;27129937000;25928566666;26428566666
3885;27287460000;25928566666;26428566666
3886;27337869000;25970000000;26470000000
3937;27502274000;26136622222;26636622222
3938;27502281000;26136866666;26636866666
3939;27502283000;26136866666;26636866666
3940;27502284000;26136866666;26636866666
3941;27539181000;26178266666;26678266666
3942;27539185000;26178266666;26678266666
3943;27539186000;26178266666;26678266666
3944;27539187000;26178266666;26678266666
3945;27539197000;26178266666;26678266666
3946;27539198000;26178266666;26678266666
3947;27539199000;26178266666;26678266666
3948;27539327000;26178277777;26678277777
3949;27539332000;26178577777;26678577777
3952;27573917000;26219933333;26719933333
3953;27573920000;26219933333;26719933333
3954;27573921000;26219933333;26719933333
3955;27573922000;26219933333;26719933333
3956;27573923000;26219933333;26719933333
3957;27573924000;26219933333;26719933333
3958;27573925000;26219933333;26719933333
3959;27573989000;26219944444;26719944444
3960;27573995000;26220222222;26720222222
3964;27603234000;26261644444;26761644444
4021;27714145000;26469944444;26969944444
4022;27714155000;26469944444;26969944444
4023;27714157000;26469944444;26969944444
4024;27714159000;26469944444;26969944444
4025;27714322000;26469966666;26969966666
4026;27714328000;26470233333;26970233333
4027;27714329000;26470233333;26970233333
4028;27714331000;26470233333;26970233333
4029;27720708000;26511611111;27011611111
4030;27720712000;26511611111;27011611111
4031;27720713000;26511611111;27011611111
4032;27720715000;26511611111;27011611111
4033;27720716000;26511611111;27011611111
4034;27720717000;26511611111;27011611111
4035;27720718000;26511611111;27011611111
4036;27720832000;26511633333;27011633333
4037;27720838000;26511911111;27011911111
4038;27720839000;26511911111;27011911111
4039;27720841000;26511911111;27011911111
4040;27734926000;26553311111;27053311111
4041;27734930000;26553311111;27053311111
4042;27734931000;26553311111;27053311111
4043;27734932000;26553311111;27053311111
4044;27888134000;26553311111;27053311111
4045;27888136000;26553311111;27053311111
4046;27888142000;26553311111;27053311111
4047;27938600000;26553333333;27053333333
4099;27938610000;26761600000;27261600000
4102;28139979000;26761622222;27261622222
4103;28139988000;26761877777;27261877777
4104;28139989000;26761877777;27261877777
4105;28139991000;26761877777;27261877777
4106;28174115000;26803266666;27303266666
4107;28174120000;26803266666;27303266666
4108;28174121000;26803266666;27303266666
4109;28174122000;26803266666;27303266666
4110;28174124000;26803266666;27303266666
4111;28174125000;26803266666;27303266666
4112;28174127000;26803266666;27303266666
4113;28174246000;26803277777;27303277777
4114;28174252000;26803588888;27303588888
4115;28174253000;26803588888;27303588888
4116;28174254000;26803588888;27303588888
4117;28203941000;26844988888;27344988888
4182;28306372000;27053611111;27553611111
4183;28319471000;27094933333;27594933333
4184;28319474000;27094933333;27594933333
4185;28319475000;27094933333;27594933333
4186;28319476000;27094933333;27594933333
4187;28319477000;27094933333;27594933333
4188;28319478000;27094933333;27594933333
4189;28319479000;27094933333;27594933333
4190;28319583000;27094955555;27594955555
4191;28319588000;27095233333;27595233333
4192;28319589000;27095233333;27595233333
4193;28319590000;27095233333;27595233333
4194;28334065000;27136611111;27636611111
4195;28334069000;27136611111;27636611111
4196;28334070000;27136611111;27636611111
4197;28334071000;27136611111;27636611111
4198;28334072000;27136611111;27636611111
4199;28334073000;27136611111;27636611111
4200;28334074000;27136611111;27636611111
4201;28334197000;27136633333;27636633333
4202;28334202000;27136888888;27636888888
4203;28334203000;27136888888;27636888888
4204;28488671000;27136888888;27636888888
4205;28539057000;27178322222;27678322222
4260;28741636000;27386600000;27886600000
4261;28741640000;27386600000;27886600000
4262;28741641000;27386600000;27886600000
4263;28741643000;27386600000;27886600000
4264;28741644000;27386600000;27886600000
4265;28741645000;27386600000;27886600000
4266;28741646000;27386600000;27886600000
4268;28741711000;27386866666;27886866666
4270;28741714000;27386866666;27886866666
4271;28777079000;27428266666;27928266666
4273;28777083000;27428266666;27928266666
4274;28777084000;27428266666;27928266666
4275;28777085000;27428266666;27928266666
4276;28777087000;27428266666;27928266666
4277;28777088000;27428266666;27928266666
4278;28777184000;27428277777;27928277777
4279;28777190000;27428588888;27928588888
4280;28777203000;27428588888;27928588888
4281;28777204000;27428588888;27928588888
4282;28806766000;27469977777;27969977777
4338;28908499000;27678266666;28178266666
4339;28908510000;27678266666;28178266666
4340;28908511000;27678266666;28178266666
4342;28908513000;27678266666;28178266666
4343;28908515000;27678266666;28178266666
4344;28908652000;27678277777;28178277777
4345;28908658000;27678566666;28178566666
4346;28908660000;27678566666;28178566666
4347;28908661000;27678566666;28178566666
4348;28921437000;27719966666;28219966666
4349;28921445000;27719966666;28219966666
4350;28921447000;27719966666;28219966666
4351;28921448000;27719966666;28219966666
4352;28921450000;27719966666;28219966666
4353;28921451000;27719966666;28219966666
4355;28921577000;27719988888;28219988888
4356;28921582000;27720277777;28220277777
4357;28921584000;27720277777;28220277777
4358;28921585000;27720277777;28220277777
4360;28935818000;27761655555;28261655555
4361;28935821000;27761655555;28261655555
4362;28935822000;27761655555;28261655555
4363;28935824000;27761655555;28261655555
4364;29089394000;27761655555;28261655555
4365;29089819000;27761655555;28261655555
4366;29140201000;27761677777;28261677777
4422;29140208000;27970211111;28470211111
4423;29140209000;27970211111;28470211111
4424;29140210000;27970211111;28470211111
4425;29376828000;28011600000;28511600000
4426;29376838000;28011600000;28511600000
4427;29376839000;28011600000;28511600000
4428;29376841000;28011600000;28511600000
4429;29376852000;28011600000;28511600000
4430;29376854000;28011600000;28511600000
4431;29376855000;28011600000;28511600000
4432;29376981000;28011611111;28511611111
4433;29376987000;28011900000;28511900000
4434;29376988000;28011900000;28511900000
4435;29376989000;28011900000;28511900000
4436;29405552000;28053311111;28553311111
4500;29511768000;28261900000;28761900000
4501;29511771000;28261900000;28761900000
4502;29524219000;28303266666;28803266666
4503;29524222000;28303266666;28803266666
4504;29524223000;28303266666;28803266666
4506;29524224000;28303266666;28803266666
4507;29524226000;28303266666;28803266666
4508;29524227000;28303266666;28803266666
4509;29524438000;28303277777;28803277777
4510;29524453000;28303588888;28803588888
4511;29524454000;28303588888;28803588888
4512;29524455000;28303588888;28803588888
4513;29538440000;28345244444;28845244444
4514;29538443000;28345244444;28845244444
4515;29538444000;28345244444;28845244444
4516;29538445000;28345244444;28845244444
4517;29538446000;28345244444;28845244444
4518;29538447000;28345244444;28845244444
4519;29538448000;28345244444;28845244444
4520;29538649000;28345388888;28845388888
4521;29538664000;28345688888;28845688888
4522;29538665000;28345688888;28845688888
4523;29538666000;28345688888;28845688888
4524;29740983000;28386633333;28886633333
4581;29943158000;28594933333;29094933333
4582;29943161000;28594933333;29094933333
4583;29943162000;28594933333;29094933333
4584;29943163000;28594933333;29094933333
4585;29943164000;28594933333;29094933333
4586;29943370000;28594944444;29094944444
4587;29943386000;28595222222;29095222222
4588;29943387000;28595222222;29095222222
4589;29943388000;28595222222;29095222222
4590;29976653000;28636622222;29136622222
4591;29976656000;28636622222;29136622222
4592;29976657000;28636622222;29136622222
4593;29976658000;28636622222;29136622222
4594;29976659000;28636622222;29136622222
4595;29976660000;28636622222;29136622222
4596;29976661000;28636622222;29136622222
4597;29976868000;28636644444;29136644444
4598;29976884000;28636877777;29136877777
4599;29976885000;28636877777;29136877777
4600;29976886000;28636877777;29136877777
4601;30006458000;28678311111;29178311111
4658;30119153000;28886633333;29386633333
4660;30119164000;28886633333;29386633333
4661;30119165000;28886633333;29386633333
4662;30119167000;28886633333;29386633333
4663;30119420000;28886655555;29386655555
4664;30119438000;28886933333;29386933333
4665;30119439000;28886933333;29386933333
4666;30119441000;28886933333;29386933333
4667;30127328000;28928300000;29428300000
4668;30127332000;28928300000;29428300000
4669;30127333000;28928300000;29428300000
4670;30127351000;28928300000;29428300000
4671;30127353000;28928300000;29428300000
4672;30127354000;28928300000;29428300000
4673;30127355000;28928300000;29428300000
4674;30127559000;28928322222;29428322222
4675;30127575000;28928611111;29428611111
4676;30127576000;28928611111;29428611111
4679;30141025000;28969977777;29469977777
4680;30141029000;28969977777;29469977777
4681;30141030000;28969977777;29469977777
4682;30141032000;28969977777;29469977777
4683;30141033000;28969977777;29469977777
4687;30341732000;28970244444;29470244444
4731;30505844000;29136855555;29636855555
4732;30505855000;29136855555;29636855555
4733;30542776000;29178266666;29678266666
4734;30542786000;29178266666;29678266666
4735;30542788000;29178266666;29678266666
4736;30542789000;29178266666;29678266666
4737;30542791000;29178266666;29678266666
4738;30542793000;29178266666;29678266666
4739;30542794000;29178266666;29678266666
4740;30543034000;29178277777;29678277777
4741;30543066000;29178577777;29678577777
4742;30543068000;29178577777;29678577777
4743;30543069000;29178577777;29678577777
4744;30577136000;29219933333;29719933333
4745;30577140000;29219933333;29719933333
4750;30577143000;29219933333;29719933333
4751;30577355000;29219944444;29719944444
4756;30592651000;29261644444;29761644444
4757;30592652000;29261644444;29761644444
4762;30610227000;29261666666;29761666666
4820;30610243000;29470300000;29970300000
4821;30721588000;29511633333;30011633333
4822;30721592000;29511633333;30011633333
4823;30721593000;29511633333;30011633333
4824;30721594000;29511633333;30011633333
4825;30721595000;29511633333;30011633333
4826;30721596000;29511633333;30011633333
4827;30721597000;29511633333;30011633333
4828;30721804000;29511655555;30011655555
4830;30721820000;29511966666;30011966666
4831;30721821000;29511966666;30011966666
4832;30736174000;29553322222;30053322222
4833;30736178000;29553322222;30053322222
4834;30736179000;29553322222;30053322222
4835;30736180000;29553322222;30053322222
4836;30736181000;29553322222;30053322222
4837;30736182000;29553322222;30053322222
4838;30736183000;29553322222;30053322222
4839;30736383000;29553344444;30053344444
4840;30736399000;29553677777;30053677777
4841;30736400000;29553677777;30053677777
4842;30736401000;29553677777;30053677777
4843;30942439000;29594966666;30094966666
4898;31144625000;29803266666;30303266666
4899;31144629000;29803266666;30303266666
4900;31144630000;29803266666;30303266666
4901;31144631000;29803266666;30303266666
4902;31144632000;29803266666;30303266666
4903;31144633000;29803266666;30303266666
4904;31144634000;29803266666;30303266666
4907;31144748000;29803611111;30303611111
4908;31144752000;29803611111;30303611111
4909;31180195000;29845055555;30345055555
4910;31180199000;29845055555;30345055555
4911;31180200000;29845055555;30345055555
4912;31180201000;29845055555;30345055555
4913;31180201000;29845055555;30345055555
4914;31180203000;29845055555;30345055555
4915;31180203000;29845055555;30345055555
4916;31180410000;29845211111;30345211111
4917;31180426000;29845944444;30345944444
4918;31180427000;29845944444;30345944444
4919;31180428000;29845944444;30345944444
4920;31209781000;29886633333;30386633333
4978;31325196000;30094955555;30594955555
4979;31325203000;30094955555;30594955555
4980;31325204000;30094955555;30594955555
4981;31325206000;30094955555;30594955555
4982;31325319000;30094977777;30594977777
4983;31325323000;30095288888;30595288888
4984;31325325000;30095288888;30595288888
4985;31325326000;30095288888;30595288888
4986;31325411000;30136622222;30636622222
4987;31325413000;30136622222;30636622222
4988;31325415000;30136622222;30636622222
4989;31325417000;30136622222;30636622222
4990;31325428000;30136622222;30636622222
4991;31325430000;30136622222;30636622222
4992;31325431000;30136622222;30636622222
4993;31325524000;30136644444;30636644444
4994;31325528000;30136933333;30636933333
4995;31325530000;30136933333;30636933333
4997;31345465000;30178311111;30678311111
4998;31345485000;30178311111;30678311111
4999;31345487000;30178311111;30678311111
5000;31345490000;30178311111;30678311111
5002;31345492000;30178311111;30678311111
5003;31492815000;30178311111;30678311111
5004;31543334000;30178322222;30678322222
5059;31745461000;30386666666;30886666666
5060;31745483000;30386955555;30886955555
5061;31745485000;30386955555;30886955555
5062;31745486000;30386955555;30886955555
5063;31778894000;30428311111;30928311111
5064;31778898000;30428311111;30928311111
5065;31778899000;30428311111;30928311111
5066;31778900000;30428311111;30928311111
5067;31778902000;30428311111;30928311111
5068;31778903000;30428311111;30928311111
5069;31778904000;30428311111;30928311111
5070;31779114000;30428333333;30928333333
5071;31779130000;30428666666;30928666666
5072;31779132000;30428666666;30928666666
5073;31779133000;30428666666;30928666666
5074;31808705000;30469988888;30969988888
5132;31907489000;30678300000;31178300000
5133;31907493000;30678300000;31178300000
5136;31907693000;30678311111;31178311111
5137;31907708000;30678644444;31178644444
5138;31907709000;30678644444;31178644444
5139;31907710000;30678644444;31178644444
5140;31921418000;30719977777;31219977777
5142;31921421000;30719977777;31219977777
5144;31921422000;30719977777;31219977777
5145;31921423000;30719977777;31219977777
5146;31921424000;30719977777;31219977777
5147;31921623000;30720000000;31220000000
5150;31921639000;30720322222;31220322222
5151;31936827000;30761655555;31261655555
5153;31936831000;30761655555;31261655555
5154;31936832000;30761655555;31261655555
5155;31936833000;30761655555;31261655555
5156;31936834000;30761655555;31261655555
5157;31936835000;30761655555;31261655555
5158;31937034000;30761666666;31261666666
5159;31937040000;30761944444;31261944444
5160;31937041000;30761944444;31261944444
5161;31937042000;30761944444;31261944444
5162;32143762000;30803300000;31303300000
5219;32346054000;31011622222;31511622222
5220;32346058000;31011622222;31511622222
5221;32346059000;31011622222;31511622222
5222;32346060000;31011622222;31511622222
5223;32346061000;31011622222;31511622222
5224;32346188000;31011644444;31511644444
5225;32346194000;31011944444;31511944444
5226;32346195000;31011944444;31511944444
5227;32346196000;31011944444;31511944444
5228;32379580000;31053311111;31553311111
5229;32379584000;31053311111;31553311111
5230;32379585000;31053311111;31553311111
5231;32379586000;31053311111;31553311111
5232;32379587000;31053311111;31553311111
5233;32379588000;31053311111;31553311111
5234;32379589000;31053311111;31553311111
5235;32379705000;31053333333;31553333333
5236;32379710000;31053688888;31553688888
5237;32379711000;31053688888;31553688888
5238;32379712000;31053688888;31553688888
5239;32409370000;31094966666;31594966666
5299;32523012000;31303288888;31803288888
5300;32523023000;31303288888;31803288888
5301;32523186000;31303311111;31803311111
5302;32523192000;31303644444;31803644444
5303;32523194000;31303644444;31803644444
5304;32523195000;31303644444;31803644444
5305;32526787000;31344955555;31844955555
5306;32526791000;31344955555;31844955555
5307;32526792000;31344955555;31844955555
5308;32526794000;31344955555;31844955555
5309;32526795000;31344955555;31844955555
5310;32526796000;31344955555;31844955555
5311;32526798000;31344955555;31844955555
5312;32526922000;31344977777;31844977777
5313;32526928000;31345266666;31845266666
5314;32526929000;31345266666;31845266666
5315;32526931000;31345266666;31845266666
5316;32541281000;31386655555;31886655555
5317;32541285000;31386655555;31886655555
5318;32541286000;31386655555;31886655555
5319;32541287000;31386655555;31886655555
5320;32541289000;31386655555;31886655555
5321;32541290000;31386655555;31886655555
5322;32694532000;31386655555;31886655555
5323;32744917000;31386677777;31886677777
5377;32744924000;31594966666;32094966666
5378;32948241000;31594988888;32094988888
5379;32948253000;31595277777;32095277777
5380;32948254000;31595277777;32095277777
5381;32948256000;31595277777;32095277777
5382;32981537000;31636633333;32136633333
5383;32981541000;31636633333;32136633333
5384;32981542000;31636633333;32136633333
5385;32981544000;31636633333;32136633333
5386;32981545000;31636633333;32136633333
5387;32981547000;31636633333;32136633333
5388;32981548000;31636633333;32136633333
5389;32981724000;31636655555;32136655555
5390;32981730000;31636911111;32136911111
5391;32981731000;31636911111;32136911111
5392;32981733000;31636911111;32136911111
5393;33011143000;31678311111;32178311111
5455;33109763000;31886644444;32386644444
5456;33109769000;31886977777;32386977777
5457;33109770000;31886977777;32386977777
5458;33109771000;31886977777;32386977777
5459;33123543000;31928288888;32428288888
5460;33123547000;31928288888;32428288888
5462;33123548000;31928288888;32428288888
5463;33123549000;31928288888;32428288888
5464;33123550000;31928288888;32428288888
5466;33123677000;31928311111;32428311111
5467;33123682000;31928655555;32428655555
5468;33123684000;31928655555;32428655555
5469;33123685000;31928655555;32428655555
5470;33138855000;31970000000;32470000000
5471;33138858000;31970000000;32470000000
5472;33138859000;31970000000;32470000000
5473;33138860000;31970000000;32470000000
5474;33138861000;31970000000;32470000000
5475;33138862000;31970000000;32470000000
5476;33138863000;31970000000;32470000000
5477;33138967000;31970022222;32470022222
5478;33138972000;31970300000;32470300000
5479;33138973000;31970300000;32470300000
5480;33295494000;31970300000;32470300000
5481;33345887000;32011633333;32511633333
5482;33345900000;32011633333;32511633333
5483;33345901000;32011633333;32511633333
5484;33345902000;32011633333;32511633333
5486;33345903000;32011633333;32511633333
5487;33345904000;32011633333;32511633333
5488;33346033000;32011655555;32511655555
5489;33346038000;32011933333;32511933333
5490;33346040000;32011933333;32511933333
5491;33346041000;32011933333;32511933333
5493;33387516000;32053300000;32553300000
5494;33387528000;32053300000;32553300000
5495;33387529000;32053300000;32553300000
5496;33387529000;32053300000;32553300000
5497;33387530000;32053300000;32553300000
5498;33387531000;32053300000;32553300000
5499;33387625000;32053322222;32553322222
