seqnum;now;rtptime;deadline
3;8772595000;8613644444;9113644444
5;8772599000;8613644444;9113644444
6;8772601000;8613644444;9113644444
9;8852728000;8613644444;9113644444
13;8861095000;8614000000;9114000000
27;8936479000;8696966666;9196966666
46;9027655000;8738966666;9238966666
73;9269377000;8863600000;9363600000
133;9455494000;9072266666;9572266666
184;9542161000;9280266666;9780266666
210;9567012000;9364000000;9864000000
211;9567015000;9364000000;9864000000
212;9587269000;9405300000;9905300000
231;9753166000;9447366666;9947366666
274;9883032000;9613622222;10113622222
303;9883053000;9738622222;10238622222
304;9883055000;9738622222;10238622222
305;9883056000;9738622222;10238622222
306;9883057000;9738622222;10238622222
307;10031847000;9738677777;10238677777
349;10031863000;9905277777;10405277777
350;10031864000;9905277777;10405277777
351;10234521000;9905322222;10405322222
398;10237110000;10072311111;10572311111
399;10293037000;10113622222;10613622222
415;10317458000;10155288888;10655288888
418;10450662000;10155633333;10655633333
459;10582616000;10321955555;10821955555
490;10658983000;10446955555;10946955555
515;10694343000;10530311111;11030311111
517;10694459000;10530666666;11030666666
518;10694463000;10530666666;11030666666
519;10694464000;10530666666;11030666666
520;10721038000;10571955555;11071955555
529;10721157000;10572300000;11072300000
530;10721160000;10572300000;11072300000
531;10824949000;10613622222;11113622222
562;10906868000;10697288888;11197288888
577;10984253000;10780288888;11280288888
591;11019068000;10821955555;11321955555
602;11055975000;10863644444;11363644444
615;11089976000;10905333333;11405333333
625;11089982000;10946955555;11446955555
626;11124386000;10947000000;11447000000
637;11146294000;10988666666;11488666666
638;11146300000;10988922222;11488922222
639;11146302000;10988922222;11488922222
640;11150835000;10988922222;11488922222
641;11242225000;11030300000;11530300000
671;11318968000;11113977777;11613977777
681;11358544000;11155333333;11655333333
691;11358559000;11196955555;11696955555
692;11394825000;11197000000;11697000000
701;11394840000;11238622222;11738622222
702;11394842000;11238622222;11738622222
703;11428668000;11238666666;11738666666
708;11428684000;11280288888;11780288888
709;11428685000;11280288888;11780288888
710;11428686000;11280288888;11780288888
713;11445454000;11280288888;11780288888
714;11462162000;11280333333;11780333333
728;11484541000;11322311111;11822311111
729;11576512000;11363644444;11863644444
756;11658729000;11446955555;11946955555
779;11813340000;11530288888;12030288888
811;11977874000;11655311111;12155311111
854;12078842000;11821988888;12321988888
887;12129587000;11946977777;12446977777
898;12151480000;11988622222;12488622222
899;12151484000;11988622222;12488622222
900;12151485000;11988622222;12488622222
901;12151658000;11988666666;12488666666
902;12151664000;11988933333;12488933333
903;12151667000;11988933333;12488933333
904;12151669000;11988933333;12488933333
905;12242593000;12030277777;12530277777
931;12321965000;12113622222;12613622222
955;12393125000;12196955555;12696955555
969;12426127000;12238966666;12738966666
978;12462254000;12280333333;12780333333
989;12492909000;12322000000;12822000000
1000;12655854000;12363688888;12863688888
1043;12655859000;12530277777;13030277777
1044;12778777000;12530322222;13030322222
1067;12778796000;12613944444;13113944444
1069;12778797000;12613944444;13113944444
1070;12844167000;12655288888;13155288888
1088;12865139000;12697000000;13197000000
1099;12950431000;12738688888;13238688888
1119;12950437000;12821955555;13321955555
1120;12950438000;12821955555;13321955555
1121;13029110000;12822000000;13322000000
1142;13029126000;12905322222;13405322222
1143;13101786000;12905366666;13405366666
1153;13101801000;12946955555;13446955555
1154;13135280000;12947000000;13447000000
1168;13150818000;12988922222;13488922222
1169;13198639000;13030288888;13530288888
1185;13233704000;13071977777;13571977777
1186;13233708000;13071977777;13571977777
1187;13233906000;13072033333;13572033333
1188;13233921000;13072344444;13572344444
1189;13233923000;13072344444;13572344444
1190;13233938000;13072344444;13572344444
1191;13325389000;13113622222;13613622222
1219;13405142000;13196988888;13696988888
1240;13477744000;13280288888;13780288888
1253;13614473000;13322000000;13822000000
1291;13614488000;13488622222;13988622222
1292;13614489000;13488622222;13988622222
1293;13614490000;13488622222;13988622222
1294;13614491000;13488622222;13988622222
1295;13614492000;13488622222;13988622222
1296;13614493000;13488622222;13988622222
1297;13732036000;13488666666;13988666666
1316;13732058000;13571955555;14071955555
1317;13732070000;13571955555;14071955555
1318;13732071000;13571955555;14071955555
1319;13785426000;13572022222;14072022222
1341;13824113000;13655366666;14155366666
1351;13824119000;13696977777;14196977777
1352;13908774000;13697022222;14197022222
1371;13908779000;13780311111;14280311111
1372;13908780000;13780311111;14280311111
1373;13908781000;13780311111;14280311111
1374;13986020000;13780355555;14280355555
1387;13986036000;13822311111;14322311111
1388;13986037000;13822311111;14322311111
1389;14062810000;13863644444;14363644444
1405;14096503000;13905288888;14405288888
1415;14131002000;13946955555;14446955555
1428;14280666000;13988622222;14488622222
1471;14401925000;14155311111;14655311111
1495;14439053000;14238666666;14738666666
1504;14439059000;14280288888;14780288888
1505;14439060000;14280288888;14780288888
1508;14574975000;14280622222;14780622222
1548;14710865000;14446966666;14946966666
1580;14864144000;14571955555;15071955555
1627;14982293000;14738666666;15238666666
1647;14982308000;14821955555;15321955555
1648;14982309000;14821955555;15321955555
1649;15029835000;14822000000;15322000000
1667;15029851000;14905288888;15405288888
1671;15076836000;14905333333;15405333333
1682;15101218000;14947000000;15447000000
1684;15101224000;14947322222;15447322222
1685;15101225000;14947322222;15447322222
1686;15199895000;14988622222;15488622222
1714;15282380000;15071955555;15571955555
1739;15357328000;15155655555;15655655555
1747;15395221000;15196955555;15696955555
1758;15430007000;15238622222;15738622222
1766;15572765000;15280288888;15780288888
1812;15695553000;15446955555;15946955555
1842;15864836000;15571955555;16071955555
1887;15984975000;15738644444;16238644444
1908;16030457000;15821955555;16321955555
1932;16253297000;15905288888;16405288888
1986;16307984000;16113622222;16613622222
2002;16317616000;16155644444;16655644444
2003;16317619000;16155644444;16655644444
2004;16317620000;16155644444;16655644444
2005;16350117000;16196955555;16696955555
2013;16350229000;16197300000;16697300000
2014;16350232000;16197300000;16697300000
2015;16350234000;16197300000;16697300000
2016;16374672000;16238622222;16738622222
2025;16451480000;16238955555;16738955555
2045;16532505000;16322000000;16822000000
2064;16532520000;16405288888;16905288888
2065;16532521000;16405288888;16905288888
2066;16532522000;16405288888;16905288888
2067;16691281000;16405333333;16905333333
2099;16691296000;16530288888;17030288888
2100;16777825000;16530333333;17030333333
2119;16777841000;16613622222;17113622222
2120;16777842000;16613622222;17113622222
2121;16777843000;16613622222;17113622222
2122;16821664000;16613666666;17113666666
2144;16865273000;16697000000;17197000000
2152;16865279000;16738644444;17238644444
2153;16865280000;16738644444;17238644444
2157;16950980000;16738988888;17238988888
2170;17031563000;16821977777;17321977777
2198;17223423000;16905288888;17405288888
2242;17315014000;17071955555;17571955555
2264;17439539000;17155288888;17655288888
2293;17528397000;17280288888;17780288888
2320;17571897000;17363666666;17863666666
2340;17571912000;17446988888;17946988888
2341;17571914000;17446988888;17946988888
2342;17611923000;17447033333;17947033333
2343;17611938000;17447355555;17947355555
2344;17611939000;17447355555;17947355555
2345;17611941000;17447355555;17947355555
2346;17633895000;17488622222;17988622222
2355;17701260000;17488944444;17988944444
2373;17863182000;17571955555;18071955555
2414;17990708000;17738644444;18238644444
2444;18108681000;17822344444;18322344444
2468;18207789000;17946977777;18446977777
2503;18266910000;18071977777;18571977777
2516;18286723000;18113622222;18613622222
2531;18311100000;18155644444;18655644444
2532;18317497000;18155644444;18655644444
2533;18338851000;18196977777;18696977777
2540;18339060000;18197022222;18697022222
2541;18339075000;18197344444;18697344444
2542;18339077000;18197344444;18697344444
2543;18339078000;18197344444;18697344444
2544;18368063000;18238622222;18738622222
2552;18478148000;18238966666;18738966666
2571;18556614000;18321955555;18821955555
2595;18627371000;18405333333;18905333333
2617;18690020000;18488688888;18988688888
2627;18690026000;18530288888;19030288888
2628;18718439000;18530333333;19030333333
2642;18734292000;18572300000;19072300000
2643;18772507000;18613622222;19113622222
2651;18772619000;18613944444;19113944444
2652;18772622000;18613944444;19113944444
2653;18772623000;18613944444;19113944444
2654;18801750000;18655322222;19155322222
2662;18868007000;18655666666;19155666666
2681;18948638000;18738622222;19238622222
2705;19024886000;18822000000;19322000000
2716;19060913000;18863688888;19363688888
2724;19060919000;18905288888;19405288888
2725;19060920000;18905288888;19405288888
2726;19060921000;18905288888;19405288888
2727;19093890000;18905333333;19405333333
2738;19125641000;18947000000;19447000000
2748;19125646000;18988622222;19488622222
2751;19156797000;18988911111;19488911111
2760;19191953000;19030333333;19530333333
2761;19191968000;19030633333;19530633333
2764;19280670000;19071977777;19571977777
2789;19362015000;19155288888;19655288888
2801;19399523000;19196955555;19696955555
2812;19435882000;19238644444;19738644444
2824;19472716000;19280288888;19780288888
2837;19504782000;19322022222;19822022222
2850;19525850000;19363944444;19863944444
2851;19525854000;19363944444;19863944444
2852;19655620000;19405322222;19905322222
2891;19759475000;19530288888;20030288888
2914;19809301000;19613666666;20113666666
2926;19809316000;19655611111;20155611111
2927;19809317000;19655611111;20155611111
2928;19809318000;19655611111;20155611111
2929;19982619000;19696955555;20196955555
2967;20067388000;19821955555;20321955555
2983;20082463000;19863944444;20363944444
2992;20201314000;19905611111;20405611111
3031;20354763000;20071955555;20571955555
3068;20442834000;20197022222;20697022222
3090;20487544000;20280333333;20780333333
3109;20487550000;20363622222;20863622222
3110;20487551000;20363622222;20863622222
3111;20487552000;20363622222;20863622222
3113;20514613000;20363933333;20863933333
3114;20514616000;20363933333;20863933333
3115;20514618000;20363933333;20863933333
3116;20617673000;20405288888;20905288888
3140;20700235000;20488622222;20988622222
3164;20779018000;20571955555;21071955555
3188;20850765000;20655288888;21155288888
3198;20884632000;20696955555;21196955555
3214;21030834000;20738933333;21238933333
3253;21150219000;20905300000;21405300000
3274;21197592000;20988622222;21488622222
3294;21241166000;21071966666;21571966666
3305;21270839000;21113622222;21613622222
3306;21270842000;21113622222;21613622222
3307;21270844000;21113622222;21613622222
3309;21270855000;21113622222;21613622222
3311;21270996000;21113944444;21613944444
3314;21300993000;21155311111;21655311111
3320;21300997000;21155311111;21655311111
3321;21301203000;21155355555;21655355555
3322;21301219000;21155655555;21655655555
3323;21301220000;21155655555;21655655555
3324;21301221000;21155655555;21655655555
3325;21409065000;21196955555;21696955555
3353;21564457000;21280288888;21780288888
3386;21651070000;21405288888;21905288888
3408;21692269000;21488622222;21988622222
3418;21717244000;21530288888;22030288888
3431;21734657000;21572000000;22072000000
3434;21734663000;21572288888;22072288888
3435;21824740000;21613622222;22113622222
3463;21907073000;21696955555;22196955555
3484;22064780000;21780288888;22280288888
3516;22151839000;21905288888;22405288888
3544;22323802000;21988922222;22488922222
3595;22635730000;22196977777;22696977777
3673;22638382000;22488666666;22988666666
3674;22638397000;22488933333;22988933333
3675;22638398000;22488933333;22988933333
3676;22638399000;22488933333;22988933333
3677;22742455000;22530288888;23030288888
3705;22942555000;22613622222;23113622222
3749;23046336000;22780288888;23280288888
3780;23099977000;22905288888;23405288888
3791;23115371000;22946955555;23446955555
3805;23138308000;22988677777;23488677777
3806;23138324000;22988922222;23488922222
3807;23138325000;22988922222;23488922222
3809;23238259000;23030288888;23530288888
3838;23319745000;23113666666;23613666666
3848;23319761000;23155288888;23655288888
3849;23341633000;23155333333;23655333333
3860;23393941000;23197000000;23697000000
3871;23428850000;23238666666;23738666666
3879;23428856000;23280288888;23780288888
3880;23428858000;23280288888;23780288888
3881;23428859000;23280288888;23780288888
3882;23461161000;23280333333;23780333333
3892;23461177000;23321955555;23821955555
3893;23490033000;23322000000;23822000000
3906;23490068000;23363933333;23863933333
3907;23490070000;23363933333;23863933333
3908;23556938000;23405311111;23905311111
3914;23556941000;23405311111;23905311111
3915;23557147000;23405366666;23905366666
3916;23557162000;23405688888;23905688888
3917;23557164000;23405688888;23905688888
3918;23557165000;23405688888;23905688888
3919;23587292000;23446955555;23946955555
3924;23587295000;23446955555;23946955555
3925;23587297000;23446955555;23946955555
3926;23587496000;23447000000;23947000000
3927;23587511000;23447322222;23947322222
3928;23587512000;23447322222;23947322222
3929;23587513000;23447322222;23947322222
3930;23700622000;23488622222;23988622222
3954;23848536000;23571955555;24071955555
3991;23954681000;23696977777;24196977777
4024;24031087000;23821955555;24321955555
4042;24072134000;23905288888;24405288888
4056;24097443000;23946955555;24446955555
4057;24097447000;23946955555;24446955555
4059;24097556000;23947311111;24447311111
4060;24097559000;23947311111;24447311111
4061;24097561000;23947311111;24447311111
4062;24125098000;23988622222;24488622222
4068;24125101000;23988622222;24488622222
4069;24125300000;23988666666;24488666666
4070;24125315000;23988911111;24488911111
4071;24125317000;23988911111;24488911111
4072;24125318000;23988911111;24488911111
4073;24151443000;24030322222;24530322222
4074;24151447000;24030322222;24530322222
4075;24151448000;24030322222;24530322222
4076;24151449000;24030322222;24530322222
4077;24151450000;24030322222;24530322222
4078;24151451000;24030322222;24530322222
4079;24151452000;24030322222;24530322222
4080;24151629000;24030400000;24530400000
4081;24151634000;24030744444;24530744444
4082;24151635000;24030744444;24530744444
4083;24151637000;24030744444;24530744444
4084;24283733000;24071955555;24571955555
4105;24322570000;24113966666;24613966666
4122;24400207000;24196977777;24696977777
4132;24436301000;24238644444;24738644444
4144;24467732000;24280311111;24780311111
4157;24574918000;24322011111;24822011111
4188;24574933000;24446955555;24946955555
4189;24574935000;24446955555;24946955555
4190;24681094000;24447000000;24947000000
4209;24681110000;24530288888;25030288888
4210;24681111000;24530288888;25030288888
4211;24681112000;24530288888;25030288888
4212;24741848000;24530333333;25030333333
4234;24794648000;24613666666;25113666666
4244;24794653000;24655288888;25155288888
4245;24819584000;24655333333;25155333333
4248;24819600000;24655644444;25155644444
4249;24908338000;24696955555;25196955555
4275;24986950000;24780288888;25280288888
4290;25020127000;24822300000;25322300000
4300;25059476000;24863666666;25363666666
4308;25059492000;24905322222;25405322222
4309;25059494000;24905322222;25405322222
4310;25059495000;24905322222;25405322222
4311;25094465000;24905377777;25405377777
4321;25094480000;24946955555;25446955555
4322;25124929000;24947000000;25447000000
4334;25124944000;24988922222;25488922222
4335;25124945000;24988922222;25488922222
4336;25124946000;24988922222;25488922222
4341;25186222000;25030322222;25530322222
4345;25242681000;25030677777;25530677777
4366;25323440000;25113666666;25613666666
4387;25323456000;25196955555;25696955555
4388;25401144000;25197000000;25697000000
4399;25435701000;25238666666;25738666666
4407;25435706000;25280288888;25780288888
4408;25435708000;25280288888;25780288888
4411;25610495000;25280622222;25780622222
4456;25690154000;254473